ref_no,billing_uid,service_type,delivery_type,external_track_no,src_addr,src_postcode,src_name,dst_addr,dst_postcode,dst_name,create_date,delivr_date,activity,activity_date,sig_url,size,vol_weight,weight,pay_category,instruction
ML6200677,17233,lite,wh_delivery,LDSG205733,47 Jalan Buroh; #05-04,619491,Bollore,Block 86 Dawson Road; 39-13,141086,Carmen New,2021-09-21T11:57:02+08,2021-09-22T22:01:00+08,SHIPPED,2021-09-21T11:57:02+08,https://dp.urbanfox.asia/api/1/file/eyJ0eXBlIjoic2lnbmF0dXJlIiwiaWQiOiJNTDYyMDA2NzcifQ==,31x5x20,0.62,5,one_hand,
ML6200678,17233,lite,wh_delivery,LDSG205735,47 Jalan Buroh; #05-04,619491,Bollore,28B Jalan Lempeng; 17-24,128809,Xiang,2021-09-21T11:57:02+08,2021-09-22T22:01:00+08,SHIPPED,2021-09-21T11:57:02+08,https://dp.urbanfox.asia/api/1/file/eyJ0eXBlIjoic2lnbmF0dXJlIiwiaWQiOiJNTDYyMDA2NzgifQ==,31x5x20,0.62,5,one_hand,
ML6200679,17233,lite,wh_delivery,LDSG205737,47 Jalan Buroh; #05-04,619491,Bollore,28B Jalan Lempeng; 17-24,128809,Xiang,2021-09-21T11:57:02+08,2021-09-22T22:01:00+08,SHIPPED,2021-09-21T11:57:02+08,https://dp.urbanfox.asia/api/1/file/eyJ0eXBlIjoic2lnbmF0dXJlIiwiaWQiOiJNTDYyMDA2NzkifQ==,31x5x20,0.62,5,one_hand,
ML6200680,17233,lite,wh_delivery,LDSG205738,47 Jalan Buroh; #05-04,619491,Bollore,Blk 161B Punggol Central; #05-91,822161,Chon Hang Chung,2021-09-21T11:57:02+08,2021-09-22T22:01:00+08,SHIPPED,2021-09-21T11:57:02+08,https://dp.urbanfox.asia/api/1/file/eyJ0eXBlIjoic2lnbmF0dXJlIiwiaWQiOiJNTDYyMDA2ODAifQ==,31x5x20,0.62,5,one_hand,
ML6200681,17233,lite,wh_delivery,LDSG205740,47 Jalan Buroh; #05-04,619491,Bollore,Blk 161B Punggol Central; #05-91,822161,Chon Hang Chung,2021-09-21T11:57:02+08,2021-09-22T22:01:00+08,SHIPPED,2021-09-21T11:57:02+08,https://dp.urbanfox.asia/api/1/file/eyJ0eXBlIjoic2lnbmF0dXJlIiwiaWQiOiJNTDYyMDA2ODEifQ==,31x5x20,0.62,5,one_hand,
