ref_no,billing_uid,service_type,delivery_type,external_track_no,src_addr,src_postcode,src_name,dst_addr,dst_postcode,dst_name,create_date,delivr_date,activity,activity_date,sig_url,size,vol_weight,weight,pay_category,instruction
ML4569321,17233,lite,wh_delivery,LDSG202950,47 Jalan Buroh; #05-04,619491,Bollore,51 Choa Chu Kang Loop #06-25,689682,Chua Bee Hong,2020-10-27T14:06:32+08,2020-10-29T22:01:00+08,SHIPPED,2020-10-27T14:06:32+08,https://deliver.urbanfox.asia/api/1/file/eyJ0eXBlIjoic2lnbmF0dXJlIiwiaWQiOiJNTDQ1NjkzMjEifQ==,31x5x20,0.62,5,one_hand,
ML4569328,17233,lite,wh_delivery,LDSG202963,47 Jalan Buroh; #05-04,619491,Bollore,12A Marsiling Lane #25-63,731012,Lee Yu Qin,2020-10-27T14:06:32+08,2020-10-29T22:01:00+08,SHIPPED,2020-10-27T14:06:32+08,https://deliver.urbanfox.asia/api/1/file/eyJ0eXBlIjoic2lnbmF0dXJlIiwiaWQiOiJNTDQ1NjkzMjgifQ==,31x5x20,0.62,5,one_hand,
ML4569329,17233,lite,wh_delivery,LDSG202966,47 Jalan Buroh; #05-04,619491,Bollore,21D Jalan Ulu Siglap,457199,Loretta Ang,2020-10-27T14:06:32+08,2020-10-29T22:01:00+08,SHIPPED,2020-10-27T14:06:32+08,https://deliver.urbanfox.asia/api/1/file/eyJ0eXBlIjoic2lnbmF0dXJlIiwiaWQiOiJNTDQ1NjkzMjkifQ==,31x5x20,0.62,5,one_hand,
ML4569337,17233,lite,wh_delivery,LDSG202978,47 Jalan Buroh; #05-04,619491,Bollore,"212 Depot Road
#06-62",0,Limin Hee,2020-10-27T14:06:33+08,2020-10-29T22:01:00+08,SHIPPED,2020-10-27T14:06:33+08,https://deliver.urbanfox.asia/api/1/file/eyJ0eXBlIjoic2lnbmF0dXJlIiwiaWQiOiJNTDQ1NjkzMzcifQ==,31x5x20,0.62,5,one_hand,
ML4569340,17233,lite,wh_delivery,LDSG202983,47 Jalan Buroh; #05-04,619491,Bollore,"43 Jalan Redop
Singapore 808589",0,Diana Koh,2020-10-27T14:06:33+08,2020-10-29T22:01:00+08,SHIPPED,2020-10-27T14:06:33+08,https://deliver.urbanfox.asia/api/1/file/eyJ0eXBlIjoic2lnbmF0dXJlIiwiaWQiOiJNTDQ1NjkzNDAifQ==,31x5x20,0.62,5,one_hand,
ML4569341,17233,lite,wh_delivery,LDSG202985,47 Jalan Buroh; #05-04,619491,Bollore,"40 lengkong Dua 
s(417714)",0,Janice poon,2020-10-27T14:06:33+08,2020-10-29T22:01:00+08,SHIPPED,2020-10-27T14:06:33+08,https://deliver.urbanfox.asia/api/1/file/eyJ0eXBlIjoic2lnbmF0dXJlIiwiaWQiOiJNTDQ1NjkzNDEifQ==,31x5x20,0.62,5,one_hand,
