ref_no,billing_uid,service_type,delivery_type,external_track_no,src_addr,src_postcode,src_name,dst_addr,dst_postcode,dst_name,create_date,delivr_date,activity,activity_date,sig_url,size,vol_weight,weight,pay_category,instruction
ML4399925,17233,lite,wh_delivery,LDSG202427,47 Jalan Buroh; #05-04,619491,Bollore,Blk 763 Bedok Reservoir View #05-281 Singapore 470763,0,Catherine Elise Ling,2020-09-21T10:35:55+08,2020-09-23T22:01:00+08,SHIPPED,2020-09-21T10:35:55+08,https://deliver.urbanfox.asia/api/1/file/eyJ0eXBlIjoic2lnbmF0dXJlIiwiaWQiOiJNTDQzOTk5MjUifQ==,31x5x20,0.62,5,one_hand,
ML4399926,17233,lite,wh_delivery,LDSG202428,47 Jalan Buroh; #05-04,619491,Bollore,205B Compassvale Lane #08-15 Singapore 542205,0,Sheena Han,2020-09-21T10:35:55+08,2020-09-23T22:01:00+08,SHIPPED,2020-09-21T10:35:55+08,https://deliver.urbanfox.asia/api/1/file/eyJ0eXBlIjoic2lnbmF0dXJlIiwiaWQiOiJNTDQzOTk5MjYifQ==,31x5x20,0.62,5,one_hand,
