S15;15RC500VB17;20
S27000;15RC500VB17;17
S28000;15RC500VB17;23
S15;17MC200G18;14
S27000;17MC200G18;4
S28000;17MC200G18;12
S15;17RC500G18;29
S27000;17RC500G18;12
S28000;17RC500G18;31
S15;17SH300D15;16
S27000;17SH300D15;21
S28000;17SH300D15;23
S15;24MA030P15;19
S27000;24MA030P15;13
S28000;24MA030P15;25
S15;01SA250LT20;30
S27000;01SA250LT20;14
S28000;01SA250LT20;22
S15;11CF100TR19;8
S27000;11CF100TR19;7
S28000;11CF100TR19;5
S15;11EH150A18;7
S27000;11EH150A18;7
S28000;11EH150A18;13
S15;11PM100DE20H;6
S27000;11PM100DE20H;5
S28000;11PM100DE20H;8
S15;11PM100SH19;11
S27000;11PM100SH19;8
S28000;11PM100SH19;9
S15;11SP200SI19;7
S27000;11SP200SI19;8
S28000;11SP200SI19;12
S15;11SP200SL19;6
S27000;11SP200SL19;8
S28000;11SP200SL19;15
S15;15MA075L11;14
S27000;15MA075L11;8
S28000;15MA075L11;11
S15;17HR100G13;16
S27000;17HR100G13;10
S28000;17HR100G13;14
S15;17RC500P19;10
S27000;17RC500P19;10
S28000;17RC500P19;8
S15;20SA050HC20;12
S27000;20SA050HC20;7
S28000;20SA050HC20;22
S15;24SA050CB6;9
S27000;24SA050CB6;8
S28000;24SA050CB6;9
S15;27DCB060I17;7
S27000;27DCB060I17;5
S15;01BK010K14;29
S27000;01BK010K14;17
S28000;01BK010K14;33
S15;01BM050K19;32
S27000;01BM050K19;12
S28000;01BM050K19;30
S15;01MA030K20H;1
S27000;01MA030K20H;20
S15;01MF030B20H;37
S27000;01MF030B20H;21
S28000;01MF030B20H;17
S15;01SA050KL20;13
S27000;01SA050KL20;4
S28000;01SA050KL20;50
S15;11GD250H19;14
S27000;11GD250H19;14
S28000;11GD250H19;30
S15;11GD250H20;7
S27000;11GD250H20;10
S28000;11GD250H20;43
S15;11SD100DE20H;7
S27000;11SD100DE20H;4
S28000;11SD100DE20H;10
S15;15MA030VA5;24
S27000;15MA030VA5;22
S28000;15MA030VA5;16
S15;17HI100G19;12
S27000;17HI100G19;8
S28000;17HI100G19;17
S15;17SH300P19;13
S27000;17SH300P19;17
S28000;17SH300P19;32
S15;17SH500P19;11
S27000;17SH500P19;3
S28000;17SH500P19;23
S15;17VI100P19;8
S27000;17VI100P19;5
S28000;17VI100P19;8
S15;20DO050O20;13
S27000;20DO050O20;11
S28000;20DO050O20;13
S15;20ET075CD19;7
S27000;20ET075CD19;4
S28000;20ET075CD19;10
S15;27DC050I17A;9
S15;27HCR050I16;8
S27000;27HCR050I16;8
S28000;27HCR050I16;11
S15;27MQ065I15A;6
S15;01CMR500K20;12
S27000;01CMR500K20;5
S28000;01CMR500K20;29
S15;01HF100K17;8
S27000;01HF100K17;8
S28000;01HF100K17;8
S15;01SA100LV16;10
S27000;01SA100LV16;6
S15;11BG140SL19;2
S27000;11BG140SL19;5
S15;11LH200I19;9
S27000;11LH200I19;5
S28000;11LH200I19;1
S15;11SV080I19;8
S27000;11SV080I19;7
S28000;11SV080I19;8
S15;15DF200VM20H;19
S27000;15DF200VM20H;25
S28000;15DF200VM20H;24
S15;17AS250P19;12
S27000;17AS250P19;10
S28000;17AS250P19;12
S15;17AS500N18;3
S27000;17AS500N18;9
S28000;17AS500N18;9
S15;17DO050F13;20
S27000;17DO050F13;8
S28000;17DO050F13;26
S15;18ET090TL17;8
S27000;18ET090TL17;6
S28000;18ET090TL17;8
S15;20DO130HC20;13
S27000;20DO130HC20;7
S28000;20DO130HC20;13
S15;27BP050I19;11
S27000;27BP050I19;2
S15;27DH015I20;26
S27000;27DH015I20;13
S28000;27DH015I20;20
S15;27DH030I20;23
S27000;27DH030I20;12
S28000;27DH030I20;28
S15;01CL300KB20;9
S27000;01CL300KB20;3
S28000;01CL300KB20;11
S15;11EP050H19;8
S27000;11EP050H19;8
S28000;11EP050H19;9
S15;11EP090H19;14
S27000;11EP090H19;5
S28000;11EP090H19;6
S28000;11LB000TR19;16
S15;11PM100SI19;11
S27000;11PM100SI19;6
S15;15ET100VA5;8
S27000;15ET100VA5;8
S28000;15ET100VA5;8
S15;15MA030L11;5
S27000;15MA030L11;4
S28000;15MA030L11;17
S15;17BD125G14;14
S27000;17BD125G14;7
S28000;17BD125G14;13
S15;20ET010CD19;9
S28000;20ET010CD19;13
S27000;20ET010HC19;4
S15;20GD250HC20;9
S27000;20GD250HC20;7
S28000;20GD250HC20;13
S15;20HR050H20;6
S27000;20HR050H20;5
S28000;20HR050H20;10
S15;20SA050CD20;11
S27000;20SA050CD20;8
S28000;20SA050CD20;12
S15;24MA150R19;11
S27000;24MA150R19;8
S28000;24MA150R19;6
S15;24VF050R18;10
S27000;24VF050R18;9
S28000;24VF050R18;7
S15;27DB015I20;14
S27000;27DB015I20;11
S28000;27DB015I20;17
S27000;27DL200I13US;1
S15;27HSR030I16;7
S27000;27HSR030I16;8
S28000;27HSR030I16;11
S15;29ASH240A20;12
S27000;29ASH240A20;8
S28000;29ASH240A20;10
S15;29HD250A15;39
S27000;29HD250A15;11
S28000;29HD250A15;34
S15;29LC200A14US;27
S27000;29LC200A14US;14
S28000;29LC200A14US;21
S15;29MA075A16;13
S28000;01BL012H19H;1
S15;01CL200K17;13
S27000;01CL200K17;11
S28000;01CL200K17;23
S15;01CP050K19H;23
S28000;01CP050K19H;5
S15;01HD250K17;7
S27000;01HD250K17;8
S28000;01HD250K17;24
S15;01MA150K18;36
S27000;01MA150K18;10
S28000;01MA150K18;46
S27000;01SA250LT16;1
S28000;01SA250LT16;2
S28000;01SL300RO20;7
S15;26PM100FC15;1
S28000;24ET050C20;5
S15;24ET050C20;3
S27000;24ET050C19;2
S15;24ET050C19;1
S28000;15CP250VA5;4
S27000;15CP250VA5;8
S15;15CP250VA5;8
S15;27SP030I19;10
S28000;15SH250VA17;14
S27000;15SH250VA17;10
S15;15SH250VA17;14
S28000;15KTVER20;12
S27000;15KTVER20;8
S15;15KTVER20;17
S28000;15GD250L14;20
S27000;15GD250L14;17
S15;15GD250L14;15
S28000;15ET100VM20H;11
S27000;15ET100VM20H;7
S15;15ET100VM20H;6
S28000;01SL300VE20;10
S27000;01SL300VE20;5
S15;01SL300VE20;6
S28000;01SF200H20;21
S27000;01SF200H20;1
S15;01SF200H20;30
S28000;01PI150K18;17
S27000;01PI150K18;4
S15;01PI150K18;12
S28000;24LC250R18;20
S27000;24LC250R18;9
S15;24LC250R18;3
S28000;18LC250TL17ET;19
S27000;18LC250TL17ET;15
S15;18LC250TL17ET;22
S28000;15ETVER20;50
S27000;15ETVER20;26
S15;15ETVER20;56
S28000;15DO050VA5;15
S27000;15DO050VA5;10
S15;15DO050VA5;17
S28000;11BG140CS19;6
S27000;11BG140CS19;6
S15;11BG140CS19;13
S28000;24BR050R19;17
S27000;24BR050R19;9
S15;24BR050R19;19
S28000;24BL012CB5;19
S27000;24BL012CB5;12
S15;24BL012CB5;19
S28000;20ET075HC6;10
S27000;20ET075HC6;3
S15;20ET075HC6;3
S28000;20ET075CD20;9
S27000;20ET075CD20;8
S15;20ET075CD20;14
S27000;17HE010R14;5
S15;17HE010R14;1
S28000;17AS500P19;9
S27000;17AS500P19;6
S15;17AS500P19;5
S28000;11GE075I20;16
S27000;11GE075I20;7
S28000;01MF150B20H;48
S27000;01MF150B20H;17
S15;01MF150B20H;31
S28000;01HV030K16;14
S27000;01HV030K16;6
S15;01HV030K16;7
S27000;01CP050K20H;2
S28000;20SA050O20;14
S27000;20SA050O20;11
S15;20SA050O20;12
S15;20GR150CD16A;3
S28000;20GD250OC20;15
S27000;20GD250OC20;8
S15;20GD250OC20;14
S28000;20AR075O20;15
S27000;20AR075O20;5
S15;20AR075O20;2
S28000;17SH500D16;33
S27000;17SH500D16;7
S15;17SH500D16;25
S28000;17AS250G18;17
S27000;17AS250G18;12
S15;17AS250G18;16
S28000;15MF075VM20H;22
S27000;15MF075VM20H;17
S15;15MF075VM20H;19
S27000;15MA030VB19;5
S28000;15GN300L11;11
S27000;15GN300L11;8
S15;15GN300L11;16
S28000;15AS250VA18;11
S27000;15AS250VA18;8
S15;15AS250VA18;8
S28000;11SP200CS19;17
S15;11SP200CS19;8
S28000;11PEP050I20;12
S27000;11PEP050I20;6
S15;11PEP050I20;15
S28000;11MW200I19;13
S27000;11MW200I19;29
S15;11MW200I19;6
S28000;11CD050A18;16
S27000;11CD050A18;7
S15;11CD050A18;11
S28000;01SA100LV20;23
S27000;01SA100LV20;12
S15;01SA100LV20;24
S28000;01RV500K20;34
S27000;01RV500K20;9
S15;01RV500K20;11
S28000;01BV050K16;8
S27000;01BV050K16;8
S15;01BV050K16;15
S28000;01BL012K20H;6
S27000;01BL012K20H;17
S15;01BL012K20H;9
S15;11BG240DE20H;9
S27000;11BG240DE20H;2
S28000;11BG240DE20H;17
S15;11SD100CS19;19
S27000;11SD100CS19;9
S28000;11SD100CS19;5
S15;15CL150VM20H;15
S27000;15CL150VM20H;12
S28000;15CL150VM20H;12
S15;15GD250VB17;10
S27000;15GD250VB17;8
S28000;15GD250VB17;19
S15;15LC250VA5;13
S27000;15LC250VA5;8
S28000;15LC250VA5;13
S27000;15RG500VA4;5
S28000;15RG500VA4;5
S15;17AF100G20;3
S27000;17AF100G20;5
S28000;17AF100G20;12
S15;17SH075E19;98
S27000;17SH075E19;11
S28000;17SH075E19;114
S28000;17SH300D14;13
S15;17SH300G18;16
S27000;17SH300G18;20
S28000;17SH300G18;21
S15;20MP030H20;8
S27000;20MP030H20;6
S28000;20MP030H20;8
S15;24ET075HA17;1
S28000;24ET075HA17;4
S28000;24GD075R18;1
S15;24MA030CB4;40
S27000;24MA030CB4;15
S28000;24MA030CB4;21
S15;24RO010CB4;13
S27000;24RO010CB4;7
S28000;24RO010CB4;4
S15;24SA050R18;7
S27000;24SA050R18;9
S28000;24SA050R18;11
S15;27DC030I20;16
S27000;27DC030I20;12
S28000;27DC030I20;21
S15;27SP030I14;2
S28000;27SP030I14;6
S15;29VC240A16;14
S27000;29VC240A16;7
S15;01ETKAR20;26
S27000;01ETKAR20;20
S28000;01ETKAR20;2
S15;01PI030K18;36
S27000;01PI030K18;8
S28000;01PI030K18;27
S15;01SA100LT16;35
S27000;01SA100LT16;11
S28000;01SA100LT16;22
S15;01SL500LV20;13
S27000;01SL500LV20;1
S28000;01SL500LV20;13
S15;11BP100I19;16
S27000;11BP100I19;8
S28000;11BP100I19;8
S15;11BR100A20;11
S27000;11BR100A20;14
S28000;11BR100A20;10
S15;11GD050A18;8
S27000;11GD050A18;6
S28000;11GD050A18;11
S15;11GD050H19;60
S27000;11GD050H19;55
S28000;11GD050H19;19
S15;11LP040028M19;9
S27000;11LP040028M19;5
S28000;11LP040028M19;9
S28000;15ET100VBL20;1
S15;15HE005L14;11
S27000;15HE005L14;2
S28000;15HE005L14;5
S15;17KTHOAPAC20;9
S27000;17KTHOAPAC20;4
S28000;17KTHOAPAC20;6
S15;17RC500N18;9
S27000;17RC500N18;5
S28000;17RC500N18;13
S15;24BR050CB6;23
S27000;24BR050CB6;4
S28000;24BR050CB6;20
S24000;01BL012K20H;6
S90000;01BL012K20H;4
S24000;01BV050K16;8
S90000;01BV050K16;12
S24000;01MA150K20H;1
S90000;01MA150K20H;17
S24000;01RV500K20;9
S90000;01RV500K20;9
S90000;01SA100LV20;15
S24000;11CD050A18;9
S90000;11CD050A18;10
S90000;11LC050H19;30
S90000;11LC050H20;1
S24000;11MW200I19;7
S90000;11MW200I19;9
S24000;11PEP050I20;5
S90000;11PEP050I20;10
S24000;11SP200CS19;10
S90000;11SP200CS19;9
S24000;15AS250VA18;5
S90000;15AS250VA18;7
S24000;15GN300L11;1
S90000;15GN300L11;20
S24000;15MF075VM20H;13
S90000;15MF075VM20H;7
S24000;15RC500VB17;13
S90000;15RC500VB17;30
S90000;17AS075F15;14
S24000;17AS250G18;11
S90000;17AS250G18;13
S24000;17MC200G18;11
S90000;17MC200G18;10
S24000;17RC500G18;14
S90000;17RC500G18;29
S24000;17SH300D15;12
S90000;17SH300D15;10
S24000;17SH500D16;27
S90000;17SH500D16;12
S24000;20AR075O20;6
S90000;20AR075O20;11
S24000;20GD250OC20;15
S90000;20GD250OC20;18
S24000;20SA050O20;6
S90000;20SA050O20;11
S24000;24MA030P15;26
S90000;24MA030P15;8
S24000;27EV200I19;13
S90000;27EV200I19;12
S24000;27KTFCAPAC20;3
S24000;27MP150I20;12
S90000;27MP150I20;15
S24000;29BP100A18;8
S90000;29BP100A18;7
S24000;29MA075A19;14
S90000;29MA075A19;11
S24000;38ST016A18;6
S90000;38ST016A18;9
S24000;38UV030A18;8
S24000;49BAG1NO19;30
S90000;49BAG1NO19;118
S24000;49BAG1NO20;1
S90000;49BAG1NO20;13
S24000;49BAG2NO20;7
S24000;01CP050K20H;7
S90000;01CP050K20H;80
S24000;01HV030K16;6
S90000;01HV030K16;8
S24000;01MF150B20H;8
S90000;01MF150B20H;23
S24000;01SA250LT20;22
S90000;01SA250LT20;15
S24000;11CF100TR19;10
S90000;11CF100TR19;18
S24000;11EH150A18;8
S90000;11EH150A18;8
S24000;11GE075I20;6
S90000;11GE075I20;12
S24000;11PM100DE20H;5
S90000;11PM100DE20H;4
S24000;11PM100SH19;8
S90000;11PM100SH19;7
S24000;11SP200SI19;8
S90000;11SP200SI19;9
S24000;11SP200SL19;7
S90000;11SP200SL19;8
S24000;15MA075L11;12
S90000;15MA075L11;3
S90000;17AS075N18;14
S90000;17AS075P19;46
S24000;17AS500P19;10
S90000;17AS500P19;15
S24000;17HE010R14;5
S24000;17HR100G13;13
S90000;17HR100G13;10
S24000;17RC500P19;10
S90000;17RC500P19;33
S24000;20ET075CD20;8
S90000;20ET075CD20;8
S24000;20ET075HC6;4
S90000;20ET075HC6;3
S24000;20SA050HC20;8
S90000;20SA050HC20;10
S24000;24BL012CB5;11
S90000;24BL012CB5;9
S24000;24BR050R19;15
S90000;24BR050R19;12
S15;24CM030C19;6
S15;24ET075CB4;14
S27000;24ET075CB4;8
S28000;24ET075CB4;6
S15;24LC250CB4;14
S27000;24LC250CB4;12
S28000;24LC250CB4;21
S15;24MA030RA19;7
S27000;24MA030RA19;15
S28000;24MA030RA19;19
S15;24MA075CB4;19
S27000;24MA075CB4;10
S28000;24MA075CB4;29
S15;24RO010R18;5
S27000;24RO010R18;6
S28000;24RO010R18;11
S15;27ER015I20;21
S27000;27ER015I20;13
S28000;27ER015I20;32
S15;27OR075I20;29
S27000;27OR075I20;28
S28000;27OR075I20;29
S15;38MI150A18;9
S27000;38MI150A18;5
S15;01CL050K18;11
S27000;01CL050K18;9
S28000;01CL050K18;21
S15;01EC200K17;13
S27000;01EC200K17;5
S28000;01EC200K17;20
S15;01LT300K20;17
S27000;01LT300K20;5
S28000;01LT300K20;19
S15;01RL500K20;10
S27000;01RL500K20;9
S28000;01RL500K20;26
S15;01SL0045K13;32
S27000;01SL0045K13;41
S28000;01SL0045K13;51
S15;01SL500VE20;15
S27000;01SL500VE20;6
S28000;01SL500VE20;17
S15;11BG140SH19;12
S27000;11BG140SH19;6
S15;11GM200I19;7
S27000;11GM200I19;8
S28000;11GM200I19;10
S15;11LC250H20;12
S27000;11LC250H20;15
S28000;11LC250H20;23
S15;11PM100SL19;12
S27000;11PM100SL19;8
S28000;11PM100SL19;16
S15;15LC250VBL20;2
S27000;15LC250VBL20;3
S27000;15SA070VB6;6
S28000;15SA070VB6;9
S15;17SH500E19;13
S27000;17SH500E19;12
S28000;17SH500E19;19
S15;20ET100OC13;2
S28000;20ET100OC13;7
S15;20NV150H20;9
S27000;20NV150H20;4
S28000;20NV150H20;13
S15;24GD250CB4;26
S27000;24GD250CB4;10
S28000;24GD250CB4;30
S15;24GD250R18;12
S27000;24GD250R18;12
S28000;24GD250R18;26
S15;24LC250P15A;2
S27000;24LC250S6;2
S15;24MA030RV19;7
S27000;24MA030RV19;20
S15;27CN050I14;5
S15;27CP050I19;14
S27000;27CP050I19;11
S28000;27CP050I19;17
S15;29SAALM20;45
S27000;29SAALM20;19
S28000;29SAALM20;2
S15;38EV075A18;9
S27000;38EV075A18;9
S28000;38EV075A18;15
S28000;38WM100A16;5
S27000;49DC004I17;1
S28000;49ET007R18;1
S15;01CV050K15;8
S27000;01CV050K15;11
S28000;01CV050K15;11
S27000;01EM075K18;12
S15;01PR015R19;1
S27000;01PR015R19;18
S15;01SA050KV20;19
S27000;01SA050KV20;15
S28000;01SA050KV20;53
S15;01SA250LV20;37
S27000;01SA250LV20;14
S28000;01SA250LV20;26
S15;10KTMC00M20;1
S15;11EP005H19;81
S27000;11EP005H19;69
S28000;11EP005H19;28
S15;11LT300I20;19
S27000;11LT300I20;9
S28000;11LT300I20;15
S15;11MA030A20;40
S27000;11MA030A20;34
S28000;11MA030A20;50
S27000;11SA100H20;9
S28000;11SA100H20;21
S15;15GC150VBL20;15
S27000;15GC150VBL20;4
S28000;15GC150VBL20;9
S27000;15GM065L20;13
S28000;15GM065L20;39
S15;15GM065VB20;111
S27000;15GM065VB20;28
S28000;15GM065VB20;33
S15;15LC250L14;15
S27000;15LC250L14;14
S28000;15LC250L14;18
S15;17AS500G18;16
S27000;17AS500G18;7
S28000;17AS500G18;18
S15;17IC200D15;15
S27000;17IC200D15;8
S28000;17IC200D15;10
S15;17RS500E20;10
S27000;17RS500E20;14
S28000;17RS500E20;15
S15;17SH500N18;7
S27000;17SH500N18;6
S28000;17SH500N18;8
S15;18ET050TL17;8
S27000;18ET050TL17;3
S28000;18ET050TL17;3
S15;20FE050H20;7
S27000;20FE050H20;3
S28000;20FE050H20;13
S15;24EF050R18;10
S27000;24EF050R18;7
S28000;24EF050R18;9
S15;24MA075R18;16
S27000;24MA075R18;13
S28000;24MA075R18;26
S15;27DS030I20;14
S27000;27DS030I20;9
S28000;27DS030I20;16
S28000;27LD200I14;2
S27000;49CP020K18;20
S15;01CM300K20;17
S27000;01CM300K20;7
S28000;01CM300K20;24
S15;01HDR500K20;11
S27000;01HDR500K20;4
S28000;01HDR500K20;5
S28000;01LH100KB19;3
S15;01LH300KB19;6
S27000;01LH300KB19;3
S28000;01LH300KB19;7
S15;01SA100VE16;55
S27000;01SA100VE16;29
S28000;01SA100VE16;18
S15;11BH050A18;11
S27000;11BH050A18;11
S28000;11BH050A18;15
S15;11EP010H19;9
S27000;11EP010H19;10
S28000;11EP010H19;12
S15;11LD200I19;9
S27000;11LD200I19;8
S28000;11LD200I19;17
S15;11SA100H19;15
S27000;11SA100H19;10
S28000;11SA100H19;4
S15;15BA500L16A;12
S27000;15BA500L16A;8
S28000;15BA500L16A;3
S15;15ET100VB3;7
S27000;15ET100VB3;8
S28000;15ET100VB3;7
S15;15GD250VA5;10
S27000;15GD250VA5;10
S28000;15GD250VA5;13
S27000;15GM030VBL20;2
S28000;15GM030VBL20;1
S15;15SE400VB5;4
S27000;15SE400VB5;6
S28000;15SE400VB5;8
S15;17AS500E19;13
S27000;17AS500E19;8
S28000;17AS500E19;10
S15;17MM050A20;1
S27000;17MM050A20;9
S28000;17MM050A20;41
S15;17RC500E20;14
S27000;17RC500E20;9
S28000;17RC500E20;28
S15;18SA075TL17ET;19
S27000;18SA075TL17ET;14
S28000;18SA075TL17ET;13
S15;20DO075CD20;12
S27000;20DO075CD20;6
S28000;20DO075CD20;9
S15;24MA030R18;28
S27000;24MA030R18;19
S28000;24MA030R18;15
S28000;27BP050I19;16
S15;27MI150I20;6
S27000;27MI150I20;5
S21000;01HV030K16;5
S21000;01MF150B20H;7
S21000;01SA250LT20;13
S21000;11EH150A18;8
S21000;11GE075I20;8
S21000;11PM100SH19;8
S21000;11SP200SI19;7
S21000;11SP200SL19;14
S21000;15MA075L11;8
S21000;17AS500P19;7
S21000;17HR100G13;12
S21000;17RC500P19;10
S21000;20ET075CD20;9
S21000;20SA050HC20;10
S21000;24BL012CB5;7
S21000;24SA050CB6;3
S21000;27DCB060I17;5
S21000;27DF125I17;9
S21000;27DH015I17;5
S21000;29EC200A13;8
S21000;29MA030A17;13
S21000;38WM065A18;6
S21000;49BLCHB20;6
S21000;49LD030I20;9
S21000;01CL050K18;13
S21000;01EC200K17;13
S21000;01LT300K20;10
S21000;01RL500K20;26
S21000;01SL0045K13;29
S21000;01SL500VE20;8
S21000;11BG140SH19;3
S21000;11GM200I19;11
S21000;11LC250H20;14
S21000;11PM100SL19;9
S21000;15SA070VB6;6
S21000;17SH500E19;14
S21000;20NV150H20;5
S21000;24GD250CB4;9
S21000;24GD250R18;14
S21000;24MA030RV19;5
S21000;27CP050I19;9
S21000;38EV075A18;9
S21000;01BK010K14;15
S21000;01BM050K19;6
S21000;01MA030K20H;1
S21000;01MF030B20H;13
S21000;01SA050KL20;5
S21000;11BG140CS19;2
S21000;11GD250H19;15
S21000;11GD250H20;15
S21000;11SD100DE20H;8
S21000;15DO050VA5;6
S21000;15MA030VA5;20
S29000;01HV030K16;13
S29000;01MF150B20H;52
S29000;01SA250LT20;25
S29000;11CF100TR19;9
S29000;11EH150A18;11
S29000;11GE075I20;8
S29000;11PM100DE20H;13
S29000;11PM100SH19;20
S29000;11SP200SI19;9
S29000;11SP200SL19;13
S29000;15GD500VA20;17
S29000;15MA075L11;6
S29000;17AS500P19;10
S29000;17HR100G13;18
S29000;17RC500P19;23
S29000;20ET075CD20;11
S29000;20ET075HC6;1
S29000;20NV150CD16A;1
S29000;20SA050HC20;12
S29000;24BL012CB5;9
S29000;24BR050R19;10
S29000;24SA050CB6;16
S29000;27DCB060I17;8
S29000;27DF125I17;9
S29000;29EC200A13;18
S29000;29MA030A17;6
S29000;38WM065A18;19
S29000;49BLCHB20;9
S29000;49LD030I20;22
S29000;49POU1VE20;33
S29000;01CL050K18;12
S29000;01EC200K17;20
S29000;01LT300K20;1
S29000;01RL500K20;26
S29000;01SL0045K13;12
S29000;01SL500VE20;8
S29000;11GM200I19;21
S29000;11LC250H20;25
S29000;11PM100SL19;16
S29000;15SA070VB6;25
S29000;17SH500E19;7
S29000;24GD250CB4;3
S29000;24GD250R18;14
S29000;24LC250S6;1
S29000;27CP050I19;10
S29000;38EV075A18;12
S29000;49ET007R18;32
S29000;01BK010K14;7
S29000;01BM050K19;12
S29000;01MA030K20H;45
S29000;01MF030B20H;70
S29000;01SA050KL20;33
S29000;11BG140CS19;5
S28000;27MI150I20;6
S15;49NOTNO19;3
S28000;49NOTNO19;1
S27000;49NOTNO20;2
S28000;27DCB060I17;9
S15;27DF125I17;8
S27000;27DF125I17;1
S28000;27DF125I17;5
S15;27DH015I17;20
S27000;27DH015I17;4
S15;29EC200A13;6
S27000;29EC200A13;5
S28000;29EC200A13;14
S15;29MA030A17;27
S27000;29MA030A17;13
S28000;29MA030A17;31
S15;38WM065A18;5
S27000;38WM065A18;5
S28000;38WM065A18;8
S15;49BLCHB20;9
S27000;49BLCHB20;5
S28000;49BLCHB20;7
S15;49LD030I20;14
S27000;49LD030I20;11
S28000;49LD030I20;13
S27000;27MQ065I15A;7
S28000;27MQ065I15A;5
S15;27MS050I20;12
S27000;27MS050I20;9
S28000;27MS050I20;17
S15;29SA050A17;19
S27000;29SA050A17;3
S28000;29SA050A17;12
S15;38WS030A18;10
S27000;38WS030A18;5
S28000;38WS030A18;14
S15;49BLVER20;9
S27000;49BLVER20;5
S28000;49BLVER20;7
S15;49LC020A15;36
S27000;49LC020A15;36
S28000;49LC020A15;15
S15;49MA010K16;57
S27000;49MA010K16;32
S28000;49MA010K16;51
S15;01BL012B20H;19
S27000;01BL012B20H;11
S28000;01BL012B20H;20
S15;01BM150K19;19
S27000;01BM150K19;9
S28000;01BM150K19;45
S15;01CP200K17;26
S27000;01CP200K17;8
S20;01HV030K16;5
S20;01MF150B20H;35
S20;01SA250LT20;16
S20;11CF100TR19;9
S20;11EH150A18;8
S20;11GE075I20;12
S20;11PM100DE20H;8
S20;11PM100SH19;9
S20;11SP200SI19;12
S20;11SP200SL19;11
S20;15GD500VA20;9
S20;15MA075L11;6
S20;17AS500P19;10
S20;17HR100G13;15
S20;17RC500P19;12
S20;20ET075CD20;8
S20;20SA050HC20;18
S20;24BL012CB5;12
S20;24BR050R19;11
S20;24SA050CB6;14
S20;27DCB060I17;6
S20;27DF125I17;8
S20;27DH015I17;2
S20;29EC200A13;11
S20;29MA030A17;13
S20;38WM065A18;6
S20;49BLCHB20;8
S20;49LD030I20;9
S20;01CL050K18;9
S20;01EC200K17;11
S20;01LT300K20;10
S20;01RL500K20;9
S20;01SL0045K13;28
S20;01SL500VE20;15
S20;11BG140SH19;6
S20;11GM200I19;12
S20;11LC250H20;13
S20;11PM100SL19;10
S20;15SA070VB6;6
S20;17SH500E19;11
S20;20NV150H20;5
S20;24GD250CB4;12
S20;24GD250R18;13
S20;24MA030RV19;7
S20;27CP050I19;9
S20;29SAALM20;62
S20;38EV075A18;9
S20;01BK010K14;12
S20;01BM050K19;12
S20;01MA030K20H;15
S20;01MF030B20H;23
S20;01SA050KL20;18
S20;11BG140CS19;7
S20;11GD250H19;18
S20;11GD250H20;15
S90000;24GD075P15;1
S24000;24SA050CB6;2
S90000;24SA050CB6;1
S24000;27DCB060I17;6
S90000;27DCB060I17;20
S90000;27DF125I17;15
S24000;27DH015I17;15
S24000;29EC200A13;7
S90000;29EC200A13;13
S24000;29MA030A17;5
S90000;29MA030A17;4
S24000;29SH075A20;7
S90000;29SH075A20;13
S24000;38WM065A18;8
S90000;38WM065A18;7
S24000;49BLCHB20;8
S90000;49CL008K15;16
S90000;49CRM1NO19;31
S90000;49CRM1NO20;11
S24000;49CRM2NO19;56
S90000;49CRM2NO19;69
S24000;49LD030I20;11
S90000;49LD030I20;16
S24000;01CL050K18;10
S90000;01CL050K18;8
S24000;01EC200K17;6
S90000;01EC200K17;5
S24000;01LT300K20;11
S90000;01LT300K20;7
S24000;01RL500K20;7
S90000;01RL500K20;6
S24000;01SL0045K13;48
S90000;01SL0045K13;6
S24000;01SL500VE20;5
S90000;01SL500VE20;14
S24000;11BG140SH19;8
S24000;11GM200I19;17
S90000;11GM200I19;11
S24000;11LC250H20;13
S90000;11LC250H20;12
S24000;11PM100SL19;8
S90000;11PM100SL19;7
S90000;15LC070VB5;69
S24000;15LC250VBL20;2
S24000;15SA070VB6;8
S90000;15SA070VB6;9
S90000;17IC075D15;6
S24000;17SH500E19;10
S90000;17SH500E19;13
S24000;20ET100OC13;4
S24000;20NV150H20;14
S90000;20NV150H20;4
S90000;24ET075P15;2
S10;01CP050K20H;3
S10;01HV030K16;6
S10;01MF150B20H;29
S10;01SA250LT20;35
S10;11CF100TR19;17
S10;11EH150A18;8
S10;11GE075I20;7
S10;11PM100DE20H;5
S10;11PM100SH19;5
S10;11SP200SI19;8
S10;11SP200SL19;21
S10;15MA075L11;5
S10;17AS500P19;9
S10;17HR100G13;9
S10;17RC500P19;12
S10;20ET075CD20;10
S10;20SA050HC20;14
S10;24BL012CB5;12
S10;24SA050CB6;13
S10;27DCB060I17;6
S10;27DF125I17;4
S10;27DH015I17;8
S10;29EC200A13;6
S10;29MA030A17;13
S10;38WM065A18;6
S10;49BLCHB20;8
S10;49LD030I20;15
S10;01CL050K18;9
S10;01EC200K17;9
S10;01LT300K20;13
S10;01RL500K20;13
S10;01SL0045K13;30
S10;01SL500VE20;7
S10;11BG140SH19;5
S10;11GM200I19;7
S10;11LC250H20;14
S10;11PM100SL19;16
S10;15SA070VB6;8
S10;17SH500E19;11
S10;20NV150H20;4
S10;24GD250CB4;12
S10;24GD250R18;11
S10;24KTCBL20;2
S10;24LC250P15A;3
S10;24MA030RV19;14
S10;27CP050I19;12
S10;29SAALM20;2
S10;49DC004I17;1
S10;01BK010K14;15
S10;01BM050K19;8
S10;01MA030K20H;21
S10;01MF030B20H;20
S10;01SA050KL20;12
S10;11BG140CS19;7
S10;11GD250H19;12
S24000;24GD250CB4;10
S90000;24GD250CB4;11
S24000;24GD250R18;20
S90000;24GD250R18;15
S90000;24KTCBL20;1
S90000;24LC075CB5;42
S24000;24LC250P15A;1
S90000;24LC250P15A;1
S90000;24LC250S6;18
S24000;24MA030RV19;14
S24000;27CP050I19;12
S90000;27CP050I19;10
S90000;29SAALM20;116
S24000;38EV075A18;6
S90000;38EV075A18;1
S24000;38WM100A16;3
S90000;49BAGVE18;3
S90000;49BAGVE19;1
S90000;49ET007R18;53
S90000;49FT030A18;12
S90000;49P2DTS19;14
S90000;49PADCL20;124
S24000;01BK010K14;14
S90000;01BK010K14;13
S90000;01BLKAR19;21
S24000;01BM050K19;9
S90000;01BM050K19;4
S90000;01CP050K17;81
S90000;01MA030K20H;25
S24000;01MF030B20H;10
S90000;01MF030B20H;35
S24000;01SA050KL20;14
S90000;01SA050KL20;3
S24000;11BG140CS19;8
S90000;11BG140CS19;7
S24000;11GD250H19;16
S90000;11GD250H19;12
S24000;11GD250H20;11
S90000;11GD250H20;19
S24000;11SD100DE20H;8
S90000;11SD100DE20H;5
S24000;15DO050VA5;7
S90000;15DO050VA5;8
S90000;15LC075L15;10
S24000;15MA030VA5;16
S90000;15MA030VA5;17
S24000;17HI100G19;7
S90000;17SH075N18;18
S24000;17SH300P19;10
S90000;17SH300P19;9
S24000;17SH500P19;17
S90000;17SH500P19;16
S24000;17VI100P19;10
S90000;17VI100P19;10
S24000;18LC250TL17ET;16
S90000;18LC250TL17ET;9
S24000;20DO050O20;9
S90000;20DO050O20;9
S24000;20ET075CD19;5
S24000;24LC250R18;15
S90000;24LC250R18;11
S24000;27HCR050I16;8
S90000;27HCR050I16;7
S90000;27MP050I20;17
S24000;27MQ065I15A;5
S90000;27MQ065I15A;9
S24000;27MS050I20;14
S90000;27MS050I20;24
S24000;29SA050A17;11
S90000;29SA050A17;6
S24000;38WS030A18;12
S90000;38WS030A18;9
S24000;49BLVER20;8
S90000;49EP005H20;1
S24000;49LC020A15;12
S90000;49LC020A15;8
S24000;49MA010K16;32
S90000;49MA010K16;140
S90000;49TRPIV16;15
S24000;01BL012B20H;5
S90000;01BL012B20H;11
S24000;01BM150K19;20
S90000;01BM150K19;9
S24000;01CP200K17;9
S90000;01CP200K17;5
S24000;01EN300KB19;22
S90000;01EN300KB19;10
S90000;01HD250K19H;1
S90000;10QUAGD19;21
S24000;11CM030H20;15
S90000;11CM030H20;15
S24000;11SD100SH19;7
S90000;11SD100SH19;7
S90000;15ET100VAL20;3
S24000;15GD500VB17;14
S90000;15GD500VB17;33
S24000;15LM300L11;9
S90000;15LM300L11;19
S24000;15MF030VM20H;27
S90000;15MF030VM20H;27
S90000;15RS500VB3;13
S24000;17AS250N18;8
S90000;17AS250N18;22
S24000;17ER075P19;10
S90000;17ER075P19;9
S24000;17RS500P19;6
S28000;01CP200K17;29
S15;01EN300KB19;31
S27000;01EN300KB19;22
S28000;01EN300KB19;31
S15;11CM030H20;14
S27000;11CM030H20;12
S15;11SD100SH19;13
S27000;11SD100SH19;5
S28000;11SD100SH19;11
S28000;15ET100VAL20;4
S15;15GD500VB17;13
S27000;15GD500VB17;8
S28000;15GD500VB17;7
S15;15LM300L11;11
S27000;15LM300L11;9
S28000;15LM300L11;13
S27000;15MA030VBL20;4
S15;15MF030VM20H;49
S27000;15MF030VM20H;34
S28000;15MF030VM20H;44
S15;17AS250N18;7
S27000;17AS250N18;5
S28000;17AS250N18;8
S15;17ER075P19;14
S27000;17ER075P19;9
S28000;17ER075P19;12
S15;17RS500P19;31
S27000;17RS500P19;13
S28000;17RS500P19;41
S15;18GD250TL17ET;21
S27000;18GD250TL17ET;14
S28000;18GD250TL17ET;18
S15;20ET100CD16A;4
S28000;20ET100CD16A;2
S15;20GD250CD20;11
S27000;20GD250CD20;5
S28000;20GD250CD20;19
S15;24AF050R18;10
S27000;24AF050R18;8
S28000;24AF050R18;11
S15;27DH030I17A;7
S27000;27DH030I17A;1
S15;27HC050I18;6
S27000;27HC050I18;9
S28000;27HC050I18;10
S15;29RC200A19;41
S27000;29RC200A19;4
S28000;29RC200A19;38
S15;01CM300K11;2
S28000;01CM300K11;1
S15;01HN0075K19;21
S27000;01HN0075K19;6
S28000;01HN0075K19;22
S29000;11GD250H19;19
S29000;11GD250H20;9
S29000;11SD100DE20H;18
S29000;15DO050VA5;18
S29000;15MA030VA5;5
S29000;17HI100G19;29
S29000;17SH300P19;12
S29000;17SH500P19;13
S29000;17VI100P19;29
S29000;18LC250TL17ET;13
S29000;20DO050O20;12
S29000;20ET075CD19;3
S29000;24LC250R18;2
S29000;27HCR050I16;14
S29000;27MQ065I15A;11
S29000;27MS050I20;12
S29000;38WS030A18;13
S29000;49BLVER20;9
S29000;49MA010K16;5
S29000;01BL012B20H;28
S29000;01BM150K19;2
S29000;01CP200K17;1
S29000;01EN300KB19;32
S29000;11CM030H20;21
S29000;11SD100SH19;16
S29000;15GD500VB17;23
S29000;15LM300L11;11
S29000;15MA030VBL20;1
S29000;15MF030VM20H;84
S29000;17AS250N18;12
S29000;17ER075P19;28
S29000;17RS500P19;25
S29000;18GD250TL17ET;3
S29000;20GD250CD20;38
S29000;24AF050R18;14
S29000;24LC250RC20H;36
S29000;24MA030RC20H;71
S29000;27HC050I18;16
S29000;29RC200A19;52
S29000;01BL012K18;18
S29000;01PI030KA;2
S29000;01PI075K18;2
S29000;01SL300LV20;4
S29000;11BG140SH19;20
S29000;11BG140SI19;16
S29000;15LC250VB3;18
S29000;15RG500L14;12
S29000;17AS075G18;22
S29000;17RS500G19;23
S29000;17RS500N18;30
S29000;17SH300E19;6
S29000;24ET050R18;11
S29000;24ET050RC20H;9
S20;11SD100DE20H;9
S20;15DO050VA5;12
S20;15ETVER20;7
S20;15MA030VA5;20
S20;17HI100G19;9
S20;17SH300P19;16
S20;17SH500P19;15
S20;17VI100P19;9
S20;18LC250TL17ET;12
S20;20DO050O20;9
S20;24LC250R18;4
S20;27DC050I17A;3
S20;27HCR050I16;8
S20;27MQ065I15A;5
S20;27MS050I20;12
S20;29SA050A17;9
S20;38WS030A18;10
S20;49BLVER20;8
S20;49LC020A15;13
S20;49MA010K16;36
S20;01BL012B20H;16
S20;01BM150K19;17
S20;01CP200K17;16
S20;01EN300KB19;30
S20;11CM030H20;28
S20;11SD100SH19;10
S20;15ET100VAL20;1
S20;15GD500VB17;12
S20;15LM300L11;11
S20;15MF030VM20H;41
S20;17AS250N18;5
S20;17ER075P19;8
S20;17RS500P19;23
S20;18GD250TL17ET;18
S20;20GD250CD20;12
S20;24AF050R18;6
S20;27HC050I18;7
S20;29RC200A19;30
S20;01BL012K18;12
S20;01LC250K17;6
S20;01PI030KA;5
S20;01PI075K18;8
S20;01SL300LV20;7
S20;11BG140SI19;9
S20;15LC250VB3;16
S20;15RG500L14;16
S20;17AS075G18;13
S20;17RS500G19;38
S20;17RS500N18;12
S20;17SH300E19;12
S20;24ET050R18;7
S20;24GD500R19;15
S20;24MA030S6;15
S20;27DB015I16;2
S90000;17RS500P19;52
S24000;18GD250TL17ET;20
S90000;18GD250TL17ET;16
S24000;20GD250CD20;16
S90000;20GD250CD20;8
S24000;24AF050R18;19
S90000;24AF050R18;10
S24000;27DH030I17A;2
S24000;27HC050I18;8
S90000;27HC050I18;12
S24000;29RC200A19;27
S90000;29RC200A19;4
S90000;49EP005TL17ET;2
S90000;49TBL2CH19;4
S90000;01CM300K11;4
S24000;01HN0075K19;10
S90000;01HN0075K19;12
S90000;01LT300K12;3
S24000;01MA075K18;3
S90000;01MA075K18;10
S24000;01MR030K14;17
S90000;01MR030K14;9
S90000;10KTCMAPAC20;11
S24000;11ET050H20;8
S90000;11ET050H20;9
S24000;11FAG10TR19;2
S90000;11FAG10TR19;9
S24000;11GN195A18;15
S90000;11GN195A18;7
S24000;11MH075A19;8
S90000;11MH075A19;14
S24000;11SD100SL19;12
S90000;11SD100SL19;7
S90000;15GD075L15;18
S24000;15MA030VB3;7
S90000;15MA030VB3;29
S24000;18BI030TL17ET;30
S90000;18BI030TL17ET;5
S24000;24MA030RE19;26
S90000;24MA030RE19;10
S24000;27BY015I19;13
S90000;27BY015I19;11
S24000;27HS030I18;10
S90000;27HS030I18;7
S24000;29HD075A15;13
S90000;29HD075A15;11
S24000;29RH500A15;12
S90000;29RH500A15;45
S24000;49DH004I20;10
S90000;49DH004I20;12
S90000;49DOPAQ19;6
S24000;49DRANO19;29
S15;01MA075K18;34
S28000;01MA075K18;3
S15;01MR030K14;43
S27000;01MR030K14;19
S28000;01MR030K14;40
S15;10KTCMAPAC20;21
S27000;10KTCMAPAC20;21
S28000;10KTCMAPAC20;4
S15;11ET050H20;6
S27000;11ET050H20;7
S28000;11ET050H20;12
S15;11FAG10TR19;18
S27000;11FAG10TR19;7
S28000;11FAG10TR19;1
S15;11GN195A18;8
S27000;11GN195A18;7
S28000;11GN195A18;16
S15;11MH075A19;6
S27000;11MH075A19;6
S28000;11MH075A19;10
S15;11SD100SL19;7
S27000;11SD100SL19;7
S28000;11SD100SL19;10
S15;15MA030VB3;22
S27000;15MA030VB3;11
S28000;15MA030VB3;18
S15;18BI030TL17ET;31
S27000;18BI030TL17ET;17
S28000;18BI030TL17ET;55
S15;24GD500R19;9
S15;24MA030RE19;4
S27000;24MA030RE19;11
S28000;24MA030RE19;15
S15;27BY015I19;11
S27000;27BY015I19;7
S28000;27BY015I19;12
S15;27HS030I18;7
S27000;27HS030I18;8
S28000;27HS030I18;8
S15;29RH500A15;47
S27000;29RH500A15;14
S28000;29RH500A15;64
S15;49DH004I20;40
S27000;49DH004I20;30
S28000;49DH004I20;27
S15;49DRANO19;3
S28000;49DRANO19;24
S15;49HD035A15;15
S27000;49HD035A15;124
S28000;49HD035A15;56
S15;49POUM20;31
S27000;49POUM20;18
S28000;49POUM20;19
S10;11GD250H20;3
S10;11SD100DE20H;7
S10;15DO050VA5;13
S10;15ETVER20;55
S10;15MA030VA5;17
S10;17HI100G19;9
S10;17SH300P19;11
S10;17SH500P19;11
S10;17VI100P19;8
S10;18LC250TL17ET;14
S10;20DO050O20;8
S10;24LC250R18;12
S10;27HCR050I16;8
S10;27MQ065I15A;8
S10;27MS050I20;12
S10;29SA050A17;10
S10;38WS030A18;14
S10;49BLVER20;8
S10;49LC020A15;29
S10;49MA010K16;35
S10;01BL012B20H;19
S10;01BM150K19;15
S10;01CP200K17;13
S10;01EN300KB19;21
S10;11CM030H20;2
S10;11SD100SH19;8
S10;15GD500VB17;11
S10;15LM300L11;8
S10;15MA030VBL20;10
S10;15MF030VM20H;40
S10;17AS250N18;6
S10;17ER075P19;11
S10;17RS500P19;18
S10;18GD250TL17ET;15
S10;20GD250CD20;9
S10;24AF050R18;8
S10;27DH030I17A;1
S10;27HC050I18;8
S10;29RC200A19;15
S10;01CL200B20H;6
S10;01CM500K20;6
S10;01HD500K20;17
S10;01MA030K16;36
S10;01RC300KB20;13
S10;11BO100CS19;9
S10;11LP080028M19;6
S10;11SD100SI19;18
S10;15CC150VA19;3
S10;15GM280VB20;15
S10;17AS250E19;10
S10;24SACHB20;10
S10;27OR030I19;39
S10;27TS001I20;196
S10;27TS050I20;32
SLM001;17AS075N18;12
SLM001;17AS075P19;20
SLM001;27DCB060I17;10
SLM001;27DS030I17;16
SLM001;49CL008K15;19
SLM001;15LC070VB5;2
SLM001;24LC075CB5;23
SLM001;49ET007R18;14
SLM001;49TRARO15;42
SLM001;01BK010K14;9
SLM001;01BL012K15;4
SLM001;01MA150K19H;2
SLM001;15MA030VA5;9
SLM001;17SH075N18;12
SLM001;17SH300P19;16
SLM001;17SH500P19;15
SLM001;27HCR050I16;1
SLM001;38WS030A18;15
SLM001;01BM150K19;10
SLM001;17AS250N18;16
SLM001;27DH030I17A;3
SLM001;27MP050I13;22
SLM001;49EP005TL17ET;14
SLM001;17AS250E19;4
SLM001;24GD075CB5;94
SLM001;49CO1NO19;13
SLM001;49HD035K17;16
SLM001;01BL012K18;8
SLM001;15GD070VB17;19
SLM001;17AS075G18;10
SLM001;17RS500N18;10
SLM001;17SH300E19;1
SLM001;49MA010A17;50
SLM001;52HD006A18;43
SLM001;49MA010R14;3
SLM001;01SA150H19H;2
SLM001;17AS250P19;19
SLM001;17AS500N18;17
SLM001;18ET090TL17;1
SLM001;49MA010H19H;13
SLM001;01CL050K15;8
SLM001;17AS250F17;4
SLM001;17AS500G18;15
SLM001;17IC200D15;14
SLM001;17SH500N18;16
SLM001;18ET050TL17;12
SLM001;49MA010K19H;13
SLM001;49MA010K20DTS;60
SLM001;11GN195A18;14
SLM001;15MA030VB3;7
SLM001;49ET010V13;14
SLM001;52OR001I18;146
SLM001;52SGEBOX18;20
S27000;52MGEBAG18;23
S28000;52MGEBAG18;2
S28000;52MGEBAG19;198
S15;52MGEBOX18;26
S27000;52MGEBOX18;20
S28000;52MGEBOX18;19
S15;01BL012K18;47
S27000;01BL012K18;18
S28000;01BL012K18;50
S15;01LC250K17;10
S15;01PI030KA;1
S28000;01PI030KA;1
S15;01PI075K18;16
S27000;01PI075K18;7
S28000;01PI075K18;11
S15;01SL300LV20;4
S27000;01SL300LV20;8
S28000;01SL300LV20;12
S28000;11BG140SH19;7
S15;11BG140SI19;12
S27000;11BG140SI19;7
S28000;11BG140SI19;7
S15;15LC250VB3;13
S27000;15LC250VB3;10
S28000;15LC250VB3;13
S15;15RG500L14;13
S27000;15RG500L14;4
S28000;15RG500L14;20
S15;17AS075G18;32
S27000;17AS075G18;16
S28000;17AS075G18;18
S15;17RS500G19;26
S27000;17RS500G19;14
S28000;17RS500G19;45
S15;17RS500N18;11
S27000;17RS500N18;7
S28000;17RS500N18;10
S15;17SH300E19;10
S27000;17SH300E19;20
S28000;17SH300E19;19
S15;24ET050R18;8
S27000;24ET050R18;10
S28000;24ET050R18;8
S27000;24GD500R19;6
S28000;24GD500R19;12
S15;24MA030S6;21
S27000;24MA030S6;16
S28000;24MA030S6;37
S15;27DB015I16;5
S27000;27DB015I16;3
S15;29SH240A20;10
S27000;29SH240A20;4
S28000;29SH240A20;7
S90000;49DRANO19;1
S24000;49HD035A15;79
S90000;49HD035A15;178
S24000;49POUM20;18
S90000;49POUM20;12
S24000;52MGEBAG18;100
S90000;52MGEBAG18;54
S90000;52MGEBAG19;100
S24000;52MGEBOX18;16
S90000;52MGEBOX18;30
S24000;52MGENSA18;44
S90000;52MGENSA18;207
S90000;52MIBANO19;100
S24000;52MIBANO20;104
S24000;52MIGEBAG19;221
S24000;52MMBANO20;93
S90000;52MMBANO20;50
S24000;52MMBBNO20;26
S90000;52MMBBNO20;100
S24000;52MMBPNO20;26
S90000;52MMBYNO19;85
S24000;52MMBYNO20;15
S90000;52MMSANO19;240
S24000;52MMSANO20;63
S90000;52MMSANO20;120
S24000;01BL012K18;14
S90000;01BL012K18;7
S90000;01LC250K17;2
S24000;01PI030KA;3
S24000;01PI075K18;9
S90000;01PI075K18;10
S24000;01SL300LV20;4
S90000;01SL300LV20;16
S90000;10BOWEB219;1000
S90000;10BOWEB319;1600
S90000;10BOWEB419;1600
S90000;11BG140SH19;8
S24000;11BG140SI19;8
S90000;11BG140SI19;10
S90000;11GD020A19;12
S90000;15GD070VB17;122
S24000;15LC250VB3;10
S90000;15LC250VB3;6
S24000;15RG500L14;7
S90000;15RG500L14;8
S24000;17AS075G18;11
S90000;17AS075G18;18
S24000;17RS500G19;16
S90000;17RS500G19;34
S24000;17RS500N18;8
S90000;17RS500N18;21
S24000;17SH300E19;7
S90000;17SH300E19;12
S21000;17HI100G19;9
S21000;17SH300P19;7
S21000;17SH500P19;11
S21000;17VI100P19;8
S21000;18LC250TL17ET;4
S21000;20DO050O20;10
S21000;24LC250R18;10
S21000;27DC050I17A;3
S21000;27HCR050I16;8
S21000;27MQ065I15A;8
S21000;27MS050I20;10
S21000;29SA050A17;10
S21000;38WS030A18;9
S21000;49BLVER20;6
S21000;49LC020A15;1
S21000;49MA010K16;34
S21000;01BL012B20H;16
S21000;01BM150K19;6
S21000;01CP200K17;10
S21000;01EN300KB19;21
S21000;11SD100SH19;7
S21000;15GD500VB17;9
S21000;15LM300L11;11
S21000;15MF030VM20H;32
S21000;17AS250N18;6
S21000;17ER075P19;9
S21000;17RS500P19;18
S21000;18GD250TL17ET;4
S21000;20GD250CD20;8
S21000;24AF050R18;6
S21000;27DH030I17A;1
S21000;27HC050I18;8
S21000;29RC200A19;33
S21000;01BL012K18;15
S21000;01PI075K18;9
S21000;01SL300LV20;7
S21000;11BG140SI19;1
S21000;15LC250VB3;7
S21000;15RG500L14;8
S21000;17AS075G18;3
S21000;17RS500G19;25
S21000;17RS500N18;6
S21000;24ET050R18;6
S21000;24GD500R19;7
S21000;24MA030S6;19
S21000;27DB015I16;2
S21000;29SH240A20;14
S21000;49DB004I20;4
S21000;49TC1NO20;12
S21000;52DCRAC20;1
S21000;52DE001I17;154
S21000;52DF002I17;121
S21000;52DH001I20;868
S29000;24GD500R19;22
S29000;24MA030S6;12
S29000;29SH240A20;21
S29000;49MA010A17;3
S29000;49TC1NO20;31
S29000;52HD006A18;515
S29000;52HF004K17;327
S29000;52HR004G17;169
S29000;52HS001I17;310
S29000;52HS004A18;322
S29000;52HV001K18;42
S29000;52MC006G18;359
S29000;01CL300KB20;13
S29000;11EP050H19;17
S29000;11EP090H19;14
S29000;11PM100SI19;5
S29000;15CP250VA5;14
S29000;15ET100VA5;14
S29000;15MA030L11;25
S29000;17BD125G14;22
S29000;20ET010CD19;8
S29000;20GD250HC20;18
S29000;20HR050H20;3
S29000;20SA050CD20;14
S29000;24MA150R19;23
S29000;24VF050R18;13
S29000;27DB015I20;34
S29000;27DL200I13US;4
S29000;27HSR030I16;18
S29000;29ASH240A20;30
S29000;29LC200A14US;34
S29000;29MA075A16;18
S29000;01CMR500K20;14
S29000;01HF100K17;16
S29000;01PI150K18;26
S29000;01SA100LV16;1
S29000;01SF200H20;20
S29000;01SL300VE20;12
S29000;11LH200I19;8
S29000;11SV080I19;15
S29000;15DF200VM20H;19
S29000;15ET100VM20H;12
S29000;15GD250L14;12
S29000;52MA003K16A;415
S29000;52LGENSA18;429
S29000;52LC006A18;209
S29000;52LASANO20;37
S29000;52GIF1NO20;4
S29000;52GD0015A18;133
S29000;52FT002A18;14
S29000;52DS001I20;495
S29000;52DS001I17;130
S29000;52DH001I20;709
S24000;24ET050R18;10
S90000;24ET050R18;6
S24000;24GD500R19;18
S90000;24GD500R19;7
S24000;24MA030S6;29
S90000;24MA030S6;20
S24000;27DB015I16;2
S24000;29SH240A20;7
S90000;29SH240A20;17
S24000;49DB004I20;3
S90000;49DB004I20;3
S24000;49MA010A17;7
S24000;49TC1NO20;7
S90000;49TC1NO20;1
S90000;49TC2NO19;26
S90000;49TOWSA19;19
S90000;49TOWVE18;56
S24000;52DCRAC20;2
S24000;52DE001I17;154
S90000;52DE001I17;80
S24000;52DF002I17;285
S90000;52DF002I17;281
S90000;52DH001I17;2
S24000;52DH001I20;442
S90000;52DH001I20;677
S90000;52DL002I17;153
S24000;52DS001I17;136
S24000;52DS001I20;187
S90000;52DS001I20;140
S24000;52EV002I19;147
S24000;52FP0015I19;67
S24000;52FT002A18;5
S90000;52FT002A18;73
S24000;52GD0015A18;75
S24000;01CL200K17;5
S90000;01CL200K17;14
S90000;01CP050K19H;25
S24000;01HD250K17;7
S90000;01HD250K17;8
S24000;01MA150K18;22
S90000;01MA150K18;21
S24000;11BG240DE20H;5
S90000;11BG240DE20H;2
S24000;11SD100CS19;10
S24000;15CL150VM20H;9
S90000;15CL150VM20H;6
S24000;15GD250VB17;7
S90000;15GD250VB17;15
S24000;15LC250VA5;5
S90000;15LC250VA5;12
S90000;15RG500VA4;3
S24000;17AF100G20;12
S90000;17AF100G20;7
S15;49DB004I20;5
S27000;49DB004I20;3
S28000;49DB004I20;13
S27000;49MA010A17;1
S15;49TC1NO20;41
S27000;49TC1NO20;8
S28000;49TC1NO20;20
S15;52DCRAC20;3
S27000;52DCRAC20;1
S28000;52DCRAC20;2
S15;52DE001I17;276
S27000;52DE001I17;129
S28000;52DE001I17;265
S15;52DF002I17;171
S27000;52DF002I17;49
S28000;52DF002I17;231
S15;52DH001I20;171
S15;01SA250VE16;26
S27000;01SA250VE16;13
S28000;01SA250VE16;26
S15;10QUAGD20;102
S27000;10QUAGD20;42
S28000;10QUAGD20;103
S15;11CM125I19;13
S27000;11CM125I19;13
S28000;11CM125I19;11
S15;11ET010H20;11
S27000;11ET010H20;9
S28000;11ET010H20;17
S15;11LC250H19;9
S27000;11LC250H19;15
S28000;11LC250H19;18
S15;11SP200SH19;7
S27000;11SP200SH19;8
S28000;11SP200SH19;10
S15;17MC200N18;6
S27000;17MC200N18;5
S28000;17MC200N18;5
S15;17SH075G18;31
S27000;17SH075G18;16
S28000;17SH075G18;14
S15;18ET010TL17;14
S27000;18ET010TL17;7
S28000;18ET010TL17;16
S15;20AR075H16;8
S28000;20AR075H16;8
S15;20ET075HC20;14
S27000;20ET075HC20;6
S28000;20ET075HC20;7
S27000;20ET075OC20;8
S28000;20ET075OC20;10
S27000;24GD250S6;6
S15;24MA075P15;13
S29000;52DF002I17;545
S29000;52DE001I17;444
S29000;52DCRAC20;3
S29000;52EV002I19;297
S29000;52GIF2NO20;4
S29000;52FP0015I19;144
S29000;15SH250VA17;14
S29000;17AS250P19;11
S29000;17AS500N18;6
S29000;17DO050F13;10
S29000;18ET090TL17;13
S29000;20DO130HC20;10
S29000;24GD250RC20H;25
S29000;24PG015RC20H;12
S29000;27DH015I20;31
S29000;27DH030I20;20
S29000;27SP030I19;20
S29000;38FT200A18;12
S29000;01CV050K15;12
S29000;01EM075K18;5
S29000;01PR015R19;2
S29000;01SA050KV20;38
S29000;01SA250LV20;14
S29000;11EP005H19;57
S29000;11LT300I20;23
S29000;11MA030A20;80
S29000;11SA100H20;4
S29000;15GC150VBL20;9
S29000;15GM065L20;14
S29000;15GM065VB20;22
S29000;15LC250L14;22
S29000;17AS500G18;3
S29000;17IC200D15;8
S29000;17RS500E20;25
S29000;17SH500N18;23
S29000;18ET050TL17;12
S29000;20FE050H20;3
S29000;24EF050R18;6
S29000;24MA075R18;8
S29000;27DS030I20;25
S29000;49TOTMC20;15
S29000;01CM500K20;27
S29000;01HD500K20;19
S29000;01MA030K16;22
S29000;01RC300KB20;18
S29000;11BO100CS19;27
S29000;11LP080028M19;6
S29000;11SD100SI19;8
S29000;15CC150VA19;4
S29000;15GM280VB20;16
S29000;17AS250E19;12
S29000;24MA030RV19;21
S29000;27OR030I19;26
S21000;52DL002I17;31
S21000;52DS001I20;43
S21000;52EV002I19;109
S21000;52FP0015I19;223
S21000;52FT002A18;145
S21000;52GD0015A18;88
S21000;52GIF1NO20;2
S21000;52GIF2NO20;2
S21000;52HD006A18;199
S21000;52HF004K17;3
S21000;52HR004G17;110
S21000;52HS001I17;168
S21000;52HS004A18;61
S21000;52HV001K18;156
S21000;52LABANO20;46
S21000;52LASANO20;318
S21000;52LC006A18;251
S21000;52LGEBAG18;85
S21000;52LGENSA18;125
S21000;52MA003K16A;108
S21000;01CL300KB20;7
S21000;11EP050H19;16
S21000;11EP090H19;18
S21000;11PM100SI19;7
S21000;15CP250VA5;5
S21000;15ET100VA5;8
S21000;15MA030L11;9
S21000;17BD125G14;6
S21000;20GD250HC20;15
S21000;20HR050H20;7
S21000;20SA050CD20;11
S21000;24MA150R19;6
S21000;24VF050R18;5
S21000;27DB015I20;18
S21000;27DL200I13US;10
S21000;27HSR030I16;8
S21000;29ASH240A20;10
S21000;29HD250A15;18
S21000;29LC200A14US;7
S21000;29MA075A16;8
S21000;49MS008I20;9
S21000;01CMR500K20;16
S21000;01HF100K17;6
S21000;01SA100LV16;20
S21000;01SF200H20;17
S21000;01SL300VE20;7
S21000;11LH200I19;10
S21000;11SV080I19;8
S21000;15DF200VM20H;11
S21000;15ET100VM20H;16
S21000;15GD250L14;6
S21000;15KTVER20;6
S21000;15SH250VA17;11
S20;29SH240A20;10
S20;49DB004I20;8
S20;49TC1NO20;7
S20;52DCRAC20;2
S20;52DE001I17;92
S20;52DF002I17;116
S20;52DH001I20;455
S20;52DL002I17;9
S20;52DS001I17;144
S20;52DS001I20;143
S20;52ER006P19;74
S20;52EV002I19;176
S20;52FP0015I19;131
S20;52FT002A18;48
S20;52GD0015A18;122
S20;52GIF1NO20;4
S20;52GIF2NO20;4
S20;52HD006A18;718
S20;52HF004K17;100
S20;52HR004G17;80
S20;52HS001I17;161
S20;52HS004A18;115
S20;52HV001K18;47
S20;52LABANO20;173
S20;52LASANO20;264
S20;52LC006A18;376
S20;52LGEBAG18;61
S20;52LGENSA18;27
S20;52MA003K16A;153
S20;52MC006G18;160
S20;52MC006N18;131
S20;01CL300KB20;12
S20;11EP050H19;11
S20;11EP090H19;13
S20;11PM100SI19;4
S20;15CP250VA5;5
S20;15ET100VA5;8
S20;15MA030L11;8
S20;17BD125G14;10
S20;20ET010CD19;4
S20;20GD250HC20;12
S20;20HR050H20;6
S20;20SA050CD20;20
S20;24MA150R19;8
S20;24VF050R18;6
S20;27DB015I20;14
S20;27DL200I13US;4
S20;27HSR030I16;9
S20;29ASH240A20;9
S20;29HD250A15;25
S20;29LC200A14US;16
S20;29MA075A16;11
S20;49MS008I20;12
S20;01CMR500K20;16
S27000;24MA075P15;15
S28000;24MA075P15;28
S15;27DC050I20;24
S27000;27DC050I20;9
S28000;27DC050I20;21
S15;27DE015I13US;14
S27000;27DE015I13US;7
S28000;27DE015I13US;16
S15;27DL200I20;9
S27000;27DL200I20;7
S28000;27DL200I20;11
S15;27DS030I17A;9
S28000;27DS030I17A;1
S15;27FP050I19;8
S27000;27FP050I19;10
S28000;27FP050I19;7
S28000;38BV050A17;5
S15;38EC015A18;9
S27000;38EC015A18;4
S28000;38EC015A18;8
S28000;49GD035CB5;1
S15;98BBDF015IM0;37
S27000;98BBDF015IM0;26
S28000;98BBDF015IM0;40
S15;98BBGD050VE2;48
S27000;98BBGD050VE2;30
S28000;98BBGD050VE2;9
S15;98BBHD050A0;21
S15;52MGENSA18;2
S27000;52MGENSA18;116
S15;52MIBANO20;176
S27000;52MIBANO20;404
S28000;52MIBANO20;397
S15;52MIBONO20;1
S15;52MIGEBAG19;117
S27000;52MIGEBAG19;17
S28000;52MIGEBAG19;12
S15;52MMBANO20;744
S27000;52MMBANO20;323
S28000;52MMBANO20;359
S15;52MMBBNO20;58
S27000;52MMBBNO20;34
S28000;52MMBBNO20;50
S15;52MMBPNO20;51
S27000;52MMBPNO20;27
S28000;52MMBPNO20;83
S15;52MMBYNO20;36
S27000;52MMBYNO20;36
S28000;52MMBYNO20;71
S15;52MMSANO20;384
S27000;52MMSANO20;62
S28000;52MOCOL216;2
S15;52MOCOL316;5
S20;01HF100K17;9
S20;01PI150K18;16
S20;01SA100LV16;4
S20;01SF200H20;18
S20;01SL300VE20;10
S20;11BG140SL19;2
S20;11LH200I19;8
S20;11SV080I19;6
S20;15DF200VM20H;24
S20;15ET100VM20H;9
S20;15GD250L14;10
S20;15KTVER20;12
S20;15SH250VA17;14
S20;17AS250P19;23
S20;17AS500N18;6
S20;17DO050F13;19
S20;18ET090TL17;5
S20;20DO130HC20;8
S20;27BP050I19;5
S20;27DH015I20;12
S20;27DH030I20;18
S20;27SP030I19;9
S20;38FT200A18;6
S20;J6185;2
S20;01CV050K15;9
S20;01PR015R19;11
S20;01SA050KV20;16
S20;01SA250LV20;22
S20;01SL300CI20;2
S20;11EP005H19;38
S20;11LT300I20;11
S20;11MA030A20;26
S20;11SA100H20;13
S20;15GC150VBL20;6
S20;15GM065L20;7
S20;15GM065VB20;5
S20;15LC250L14;11
S20;17AS500G18;10
S20;17IC200D15;9
S20;17RS500E20;17
S20;17SH500N18;5
S20;18ET050TL17;8
S20;20FE050H20;5
S20;24MA075R18;13
S20;27DS030I20;16
S20;49POUID20;5
S20;49POUIS19;15
S20;49TOTMC20;15
S20;01CL200B20H;15
S20;01CM500K20;10
S20;01HD500K20;16
S20;01MA030K16;30
S20;01RC300KB20;8
S20;11BO100CS19;6
S20;11LP080028M19;6
S21000;17AS250P19;11
S21000;17AS500N18;9
S21000;17DO050F13;11
S21000;18ET090TL17;8
S21000;20DO130HC20;5
S21000;27BP050I19;8
S21000;27DH015I20;22
S21000;27DH030I20;22
S21000;27SP030I19;8
S21000;38FT200A18;8
S21000;J6185;9
S21000;01CV050K15;13
S21000;01EM075K18;2
S21000;01PR015R19;16
S21000;01SA050KV20;9
S21000;01SA250LV20;6
S21000;11EP005H19;134
S21000;11LT300I20;8
S21000;11MA030A20;24
S21000;11SA100H20;8
S21000;15GC150VBL20;10
S21000;15GM065L20;4
S21000;15GM065VB20;1
S21000;15LC250L14;9
S21000;17AS500G18;11
S21000;17IC200D15;8
S21000;17RS500E20;25
S21000;17SH500N18;6
S21000;18ET050TL17;8
S21000;20FE050H20;9
S21000;24EF050R18;5
S21000;24MA075R18;11
S21000;27DS030I20;16
S21000;49POUID20;5
S21000;49POUIS19;12
S21000;49TOTMC20;14
S21000;01CL200B20H;1
S21000;01CM500K20;7
S21000;01HD500K20;7
S21000;01MA030K16;121
S21000;01RC300KB20;11
S21000;11BO100CS19;7
S21000;11LP080028M19;6
S21000;11SD100SI19;8
S21000;15CC150VA19;4
S21000;15GM280VB20;19
S21000;17AS250E19;7
S21000;27OR030I19;45
S21000;27TS001I20;261
S21000;27TS050I20;61
S21000;29GE200A18;4
S21000;29HD500A15;16
S21000;29HS100A18;12
S24000;17SH075E19;40
S90000;17SH075E19;46
S90000;17SH300D14;16
S24000;17SH300G18;13
S90000;17SH300G18;18
S24000;20MP030H20;8
S90000;20MP030H20;10
S24000;24MA030CB4;31
S24000;52ER006P19;177
S90000;24MA030CB4;9
S24000;24RO010CB4;11
S90000;24RO010CB4;11
S24000;24SA050R18;11
S90000;24SA050R18;10
S24000;27DC030I20;16
S90000;27DC030I20;8
S24000;27SP030I14;3
S90000;27SP030I14;1
S24000;29VC240A16;7
S90000;29VC240A16;3
S24000;49BLALM20;8
S90000;49CP008I14A;27
S24000;49DC004I20;16
S90000;49DC004I20;10
S90000;49DF005I17;2
S90000;49FC030A15;3
S90000;49HS015A18;7
S90000;49MA010P15;1
S24000;49OR005I18;36
S90000;49OR005I18;20
S24000;49OR005I19;7
S90000;49OR005I19;124
S90000;49POU2VE20;140
S90000;49VANSA19;32
S90000;49WS004A18;9
S24000;52ACRAC20;2
S24000;52AF006G20;39
S24000;52AS006E19;263
S90000;52AS006E19;82
S90000;52AS006F17;63
S24000;52AS006G18;143
S24000;52AS006P19;164
S90000;52AS006P19;309
S24000;52BALLHOL20;1
S24000;52BCRAC20;2
S90000;52GD0015A18;67
S90000;52GIF1NO19;1
S24000;52GIF1NO20;4
S90000;52GIF1NO20;1
S90000;52GIF2NO19;1
S24000;52GIF2NO20;4
S90000;52GIF2NO20;1
S24000;52HD006A18;92
S90000;52HD006A18;581
S24000;52HF004K17;56
S24000;52HR004G17;169
S90000;52HR004G17;129
S24000;52HS001I17;23
S24000;52HS004A18;107
S90000;52HS004A18;50
S24000;52HV001K18;31
S90000;52HV001K18;104
S24000;52LABANO20;58
S90000;52LASANO19;60
S24000;52LASANO20;281
S90000;52LASANO20;60
S24000;52LC006A18;27
S90000;52LC006A18;142
S90000;52LGEBOX18;63
S24000;52LGENSA18;64
S90000;52LGENSA18;163
S24000;52MA003K16A;98
S90000;52MA003K16A;150
S24000;52MC006N18;6
S24000;01CL300KB20;6
S90000;01CL300KB20;9
S24000;11EP050H19;8
S90000;11EP050H19;10
S24000;11EP090H19;6
S90000;11EP090H19;12
S24000;11PM100SI19;8
S90000;11PM100SI19;8
S24000;15CP250VA5;6
S90000;15CP250VA5;10
S24000;15ET100VA5;8
S90000;15ET100VA5;10
S24000;15MA030L11;11
S24000;17BD125G14;10
S90000;17BD125G14;8
S90000;17SH075D15;19
S24000;20ET010CD19;5
S90000;20ET010CD19;4
S24000;20ET010HC19;5
S24000;20GD250HC20;13
S90000;20GD250HC20;10
S24000;20HR050H20;6
S90000;20HR050H20;9
S24000;20SA050CD20;7
S90000;20SA050CD20;10
S90000;24ET050C19;2
S24000;24MA150R19;16
S90000;24MA150R19;9
S24000;24VF050R18;15
S90000;24VF050R18;9
S90000;26PM100FC15;5
S90000;27CP050I14A;3
S24000;27DB015I20;9
S90000;27DB015I20;13
S24000;27HSR030I16;10
S90000;27HSR030I16;8
S24000;29ASH240A20;9
S90000;29ASH240A20;12
S24000;29HD250A15;25
S90000;29HD250A15;15
S24000;29LC200A14US;11
S90000;29LC200A14US;7
S24000;29MA075A16;16
S90000;29MA075A16;10
S90000;49BO015R14;12
S90000;49DRASA19;27
S24000;49MF010VM20H;7
S90000;49MF010VM20H;80
S24000;49MS008I20;14
S90000;49MS008I20;7
S90000;49PCRKO17;22
S24000;01CMR500K20;9
S90000;01CMR500K20;16
S24000;01HF100K17;6
S90000;01HF100K17;5
S24000;01PI150K18;3
S90000;01PI150K18;8
S24000;01SA100LV16;7
S90000;01SA100LV16;2
S24000;01SF200H20;15
S24000;01SL300VE20;4
S90000;01SL300VE20;19
S24000;11BG140SL19;1
S90000;11BG140SL19;9
S90000;11EH040A19;12
S24000;11LH200I19;9
S90000;11LH200I19;2
S24000;11SV080I19;8
S90000;11SV080I19;10
S24000;15DF200VM20H;18
S24000;15ET100VM20H;5
S90000;15ET100VM20H;5
S24000;15GD250L14;5
S90000;15GD250L14;15
S24000;15KTVER20;5
S90000;15KTVER20;4
S24000;15SH250VA17;10
S90000;15SH250VA17;11
S24000;17AS250P19;11
S90000;17AS250P19;10
S24000;17AS500N18;7
S90000;17AS500N18;18
S90000;17DO050F13;3
S90000;17SH075F15;14
S24000;18ET090TL17;8
S90000;18ET090TL17;3
S24000;20DO130HC20;8
S90000;20DO130HC20;9
S24000;27BP050I19;10
S24000;27DH015I20;14
S90000;27DH015I20;6
S24000;27DH030I20;13
S90000;27DH030I20;25
S24000;27SP030I19;9
S90000;27SP030I19;15
S24000;38FT200A18;10
S90000;38FT200A18;7
S90000;49BP010K19;20
S90000;49MA010H19H;5
S90000;J6183;25
S24000;J6185;4
S90000;JIMCP16;3
S90000;JIMPN16;104
S24000;01CV050K15;10
S90000;01CV050K15;15
S24000;01EM075K18;3
S90000;01EM075K18;2
S24000;01PR015R19;10
S90000;01PR015R19;15
S24000;01SA050KV20;12
S90000;01SA050KV20;11
S24000;01SA250LV20;14
S90000;01SA250LV20;15
S90000;10KTMC00M20;8
S24000;11EP005H19;18
S90000;11GN040A19;6
S24000;11LT300I20;11
S90000;11LT300I20;13
S24000;11MA030A20;26
S90000;11MA030A20;38
S24000;11SA100H20;18
S90000;11SA100H20;4
S24000;15GC150VBL20;9
S24000;15GM065L20;1
S90000;15GM065VB20;10
S24000;15LC250L14;11
S90000;15LC250L14;8
S24000;17AS500G18;14
S90000;17AS500G18;14
S24000;17IC200D15;9
S90000;17IC200D15;9
S24000;17RS500E20;13
S90000;17RS500E20;15
S24000;17SH500N18;6
S90000;17SH500N18;10
S24000;18ET050TL17;8
S90000;18ET050TL17;7
S24000;20FE050H20;4
S20;11SD100SI19;10
S20;15CC150VA19;8
S20;15GM280VB20;11
S20;17AS250E19;10
S20;27OR030I19;35
S20;27TS001I20;234
S20;27TS050I20;25
S20;29GE200A18;14
S20;29HD500A15;34
S20;29HS100A18;13
S20;38WC050A18;9
S20;49MR010K14;27
S20;01HN0075K19;14
S20;01MA075K18;11
S20;01MR030K14;10
S20;11ET050H20;9
S20;11FAG10TR19;6
S20;11GN195A18;9
S20;11MH075A19;8
S20;11SD100SL19;11
S20;15GD075L15;1
S20;15MA030VB3;12
S20;18BI030TL17ET;22
S20;24MA030RE19;10
S20;24RO010C20;3
S20;27BY015I19;7
S20;27HS030I18;6
S20;29RH500A15;40
S20;49DH004I20;30
S20;49HD035A15;80
S20;49POUM20;18
S20;52MGEBAG18;110
S20;52MGEBAG19;100
S20;52MGEBOX18;18
S20;52MGENSA18;15
S20;52MIBANO20;503
S20;52MIGEBAG19;144
S20;52MMBANO20;270
S20;52MMBBNO20;29
S20;52MMBPNO20;36
S20;52MMBYNO20;21
S20;52MMSANO20;6
S20;52MOCOL316;4
S20;52MS001I20;168
S20;52OR001I18;424
S20;52OR001I19;201
S20;52RBO2NO20;6
S20;52RBO3NO20;6
S20;52RIB1NO20;7
S20;52RIB2NO20;7
S20;52SAMPENV18;860
S20;52SGEBAG19;411
S20;52SGENSA18;192
S20;52SH006D17;150
S90000;20FE050H20;8
S24000;24EF050R18;6
S90000;24EF050R18;6
S90000;24LC075C20;18
S24000;24MA075R18;16
S90000;24MA075R18;10
S24000;27DS030I20;10
S90000;27DS030I20;11
S90000;49CP020K18;220
S90000;49MA010K19H;5
S90000;49MW030I19;20
S24000;49POUID20;5
S90000;49POUID20;3
S24000;49POUIS19;28
S90000;49POUIS19;31
S24000;49TOTMC20;12
S90000;49TOTMC20;3
S24000;01CL200B20H;5
S90000;01CL200B20H;6
S24000;01CM500K20;8
S90000;01CM500K20;8
S24000;01HD500K20;8
S90000;01HD500K20;17
S24000;01MA030K16;23
S90000;01MA030K16;9
S24000;01RC300KB20;13
S90000;01RC300KB20;9
S24000;11BO100CS19;17
S90000;11BO100CS19;8
S90000;11LP050028M19;1
S24000;11LP080028M19;6
S90000;11LP080028M19;48
S24000;11SD100SI19;8
S90000;11SD100SI19;9
S24000;15CC150VA19;3
S90000;15CC150VA19;2
S24000;15GM280VB20;18
S90000;15GM280VB20;15
S24000;17AS250E19;9
S90000;17AS250E19;15
S90000;18GD050TL17ET;6
S90000;24GD075CB5;42
S90000;24MA030RV19;13
S90000;24SA050S6;15
S24000;24SACHB20;1
S90000;24SACHB20;188
S24000;27OR030I19;31
S90000;27OR030I19;56
S24000;27TS001I20;201
S90000;27TS001I20;759
S24000;27TS050I20;24
S90000;27TS050I20;15
S26000;29SH075A20;1
S26000;49LC020A15;1
S26000;49MA010A17;1
S26000;52MGEBOX18;20
S29000;27TS001I20;518
S29000;27TS050I20;36
S29000;29GE200A18;20
S29000;29HD500A15;28
S29000;29HS100A18;11
S29000;38WC050A18;12
S29000;49MR010K14;58
S29000;01HN0075K19;14
S29000;01MA075K18;8
S29000;01MR030K14;10
S29000;10KTCMAPAC20;1
S29000;11ET050H20;16
S29000;11FAG10TR19;24
S29000;11GN195A18;1
S29000;11MH075A19;13
S29000;11SD100SL19;17
S29000;18BI030TL17ET;2
S29000;24MA030RE19;8
S29000;27BY015I19;15
S29000;27HS030I18;23
S29000;29HD075A15;10
S29000;29RH500A15;32
S29000;49DH004I20;36
S29000;49HD035A15;158
S29000;52MGEBOX18;10
S29000;52MGENSA18;29
S29000;52MMBBNO20;17
S29000;52MMBPNO20;37
S29000;52MMBYNO20;26
S29000;52MOCOL216;2
S29000;52MOCOL316;6
S29000;52MS001I20;271
S29000;52OR001I18;41
S29000;52OR001I19;375
S29000;52PCRANO20;3
S29000;52RBO2NO20;10
S29000;52RBO3NO20;10
S29000;52RC0015A18;116
S29000;52RIB1NO20;12
S29000;52RIB2NO20;12
S29000;52SGBAHOL20;1
S29000;52SGENSA18;33
S29000;52SH006D17;498
S29000;52SH006E19;334
S29000;52SH006G18;379
S29000;52SH006N18;218
S29000;52SH006P19;436
S29000;52SMSANO19;120
S29000;52SMSANO20;365
S29000;01PI030K18;18
S29000;01SA100LT16;17
S29000;01SL500LV20;11
S29000;11BP100I19;29
S00;27CN050I14;2
S24000;29GE200A18;17
S90000;29GE200A18;6
S24000;29HD500A15;28
S90000;29HD500A15;29
S24000;29HS100A18;12
S90000;29HS100A18;10
S24000;38WC050A18;14
S90000;38WC050A18;10
S90000;49CO1NO19;5
S90000;49HD035K17;113
S90000;49MR010K14;34
S90000;49PO2SA19;70
S24000;01PI030K18;10
S90000;01PI030K18;10
S24000;01SA100LT16;11
S90000;01SA100LT16;15
S24000;01SL500LV20;6
S90000;01SL500LV20;19
S24000;11BP100I19;7
S90000;11BP100I19;9
S24000;11BR100A20;12
S90000;11BR100A20;1
S24000;11GD050A18;10
S90000;11GD050A18;6
S24000;11GD050H19;18
S90000;11GD050H19;13
S24000;11LP040028M19;2
S90000;11LP040028M19;15
S24000;15HE005L14;4
S90000;15HE005L14;11
S90000;17KTHOAPAC20;1
S24000;17RC500N18;7
S90000;17RC500N18;11
S90000;17SH075P19;10
S24000;24BR050CB6;14
S90000;24BR050CB6;10
S24000;24ET075CB4;11
S90000;24ET075CB4;4
S24000;24LC250CB4;14
S90000;24LC250CB4;8
S90000;24LC250P15;11
S24000;24MA030RA19;24
S90000;24MA030RA19;10
S24000;24MA075CB4;24
S90000;24MA075CB4;11
S24000;24RO010R18;11
S90000;24RO010R18;8
S24000;27ER015I20;11
S90000;27ER015I20;16
S24000;27OR075I20;24
S90000;27OR075I20;4
S90000;29LC200A14;21
S24000;38MI150A18;6
S20;52SH006E19;206
S20;52SH006G18;165
S20;52SH006N18;130
S20;52SH006P19;198
S20;52SMBANO20;281
S20;52SMSANO20;330
S20;01PI030K18;15
S20;01SA100LT16;23
S20;01SL500LV20;13
S20;11BP100I19;8
S20;11BR100A20;16
S20;11GD050A18;10
S20;11GD050H19;16
S20;11LP040028M19;6
S20;15HE005L14;4
S20;17KTHOAPAC20;6
S20;17RC500N18;10
S20;24BR050CB6;12
S20;24ET075CB4;8
S20;24LC250CB4;9
S20;24MA030RA19;10
S20;24MA075CB4;18
S20;24RO010R18;10
S20;27ER015I20;19
S20;27OR075I20;23
S20;38MI150A18;5
S20;49BLKAR20;8
S20;49CP008I19;8
S20;49TOBAGSA20;14
S20;SGOCVE700009;7
S20;SGOCVKI00137;25
S20;SGOCVKI00138;39
S20;SGOCVKI00139;45
S20;SGOCVKI00140;33
S20;SGOCVKI00141;49
S20;SGOCVKI00142;1
S20;SGOCVKI00143;25
S20;SGOCVKI00144;27
S20;SGOCVKI00145;10
S20;SGOCVKI00147;20
S20;SGOCVKI00148;19
S20;SGOCVKI00149;12
S20;SGOCVKI00150;21
S20;SGOCVKI00151;10
S20;SGOCVKI00153;15
S20;SGOCVKI00154;20
S20;SGOCVKI00155;4
S20;SGOCVKI00156;2
S20;SGOCVKI00157;7
S20;SGOCVKI00160;10
S20;SGOCVKI00163;11
S20;SGOCVKI00165;6
S20;SGOCVKI00166;18
S20;SGOCVKI00168;4
S10;29GE200A18;10
S10;29HD500A15;19
S10;29HS100A18;16
S10;38WC050A18;12
S10;49MR010K14;33
S10;01BL012K18;13
S10;01LC250K17;3
S10;01PI075K18;10
S10;01SL300LV20;8
S10;11BG140SI19;8
S10;15LC250VB3;10
S10;15RG500L14;21
S10;17AS075G18;10
S10;17RS500G19;18
S10;17RS500N18;8
S10;17SH300E19;9
S10;24ET050R18;8
S10;24MA030S6;28
S10;24MA075R18;11
S10;27DB015I16;1
S10;29SH240A20;15
S10;49DB004I20;9
S10;49TC1NO20;2
S10;52DCRAC20;2
S10;52DE001I17;152
S10;52DF002I17;190
S10;52DH001I20;447
S10;52DL002I17;34
S10;52DS001I17;129
S10;52DS001I20;226
S10;52ER006P19;34
S10;52EV002I19;231
S10;52FP0015I19;112
S10;52FT002A18;126
S10;52GD0015A18;98
S10;52GIF1NO20;2
S10;52GIF2NO20;2
S10;52HD006A18;571
S10;52HF004K17;148
S10;52HR004G17;157
S10;52HS001I17;276
S10;52HS004A18;205
S10;52HV001K18;46
S10;52KTPPLV17;1
S10;52LABANO20;192
S10;52LASANO20;59
S10;52LC006A18;451
S10;52LGEBAG18;147
S10;52LGENSA18;185
S10;52MA003K16A;199
S10;52MC006G18;117
S10;52MC006N18;89
S10;01CL300KB20;9
S10;11EP050H19;6
S10;11EP090H19;7
SLM001;52SH006G18;150
SLM001;01MA030K20DTS;11
SLM001;01SA080K17;1
SLM001;17SH075P19;7
SLM001;17AS250G18;6
SLM001;17MC200G18;10
SLM001;17SH300D15;16
SLM001;17SH500D16;10
SLM001;20GR150CD15;1
SLM001;27RM300I14;15
SLM001;49IC1POU20;118
SLM001;15GD250VB17;8
SLM001;15LC250VA5;14
SLM001;24GD250P15;1
SLM001;27MP150I13;10
SLM001;49HS015A18;4
SLM001;49MA010P15;16
SLM001;52AS006G18;60
SLM001;15LC150V13;3
SLM001;17MC200N18;6
SLM001;18ET010TL17;2
SLM001;24GD250S6;2
SLM001;38BV050A17;14
SLM001;49ED030K17;18
SLM001;49ET007CB4;66
SLM001;17SH300N18;7
SLM001;17SH500G18;15
SLM001;27MI150I17;7
SLM001;49MF010W19H;13
SLM001;SGOCVKI00135;53
SLM001;SGOCVE700006;1
S29000;11BR100A20;39
S29000;11GD050A18;14
S29000;11GD050H19;26
S29000;11LP040028M19;12
S29000;15HE005L14;26
S29000;17RC500N18;21
S29000;24BR050CB6;4
S29000;24ET075CB4;3
S29000;24LC250CB4;11
S29000;24MA030RA19;11
S29000;24RO010R18;17
S29000;27ER015I20;31
S29000;27OR075I20;14
S29000;38MI150A18;10
S29000;49BLKAR20;9
S29000;SGOCVE700010;2
S29000;SGOCVKI00138;17
S29000;SGOCVKI00139;23
S29000;SGOCVKI00140;43
S29000;SGOCVKI00141;43
S29000;SGOCVKI00143;50
S29000;SGOCVKI00144;28
S29000;SGOCVKI00145;9
S29000;SGOCVKI00147;31
S29000;SGOCVKI00148;3
S29000;SGOCVKI00149;2
S29000;SGOCVKI00150;27
S29000;SGOCVKI00151;15
S29000;SGOCVKI00153;24
S29000;SGOCVKI00154;68
S29000;SGOCVKI00155;14
S29000;SGOCVKI00156;8
S29000;SGOCVKI00157;28
S29000;SGOCVKI00158;1
S29000;SGOCVKI00161;1
S29000;SGOCVKI00163;7
S29000;SGOCVKI00165;11
S29000;SGOCVKI00168;5
S29000;SGOCVKI00169;19
S29000;01CM300K20;30
S29000;01HDR500K20;2
S29000;01LH300KB19;24
S29000;11BH050A18;9
S29000;11EP010H19;9
S29000;11LD200I19;14
S29000;11SA100H19;22
S29000;15BA500L16A;10
S29000;15ET100VB3;4
S29000;15GD250VA5;15
S29000;15SE400VB5;20
S29000;17AS500E19;20
S29000;17MM050A20;23
S20;SGOCVKI00169;21
S20;01CM300K20;11
S20;01HDR500K20;4
S20;01LH100KB19;2
S20;01LH300KB19;10
S20;01SA100VE16;22
S20;11BH050A18;12
S20;11EP010H19;13
S20;11LD200I19;10
S20;11SA100H19;2
S20;15BA500L16A;7
S20;15ET100VB3;7
S20;15GD250VA5;12
S20;15SE400VB5;9
S20;17AS500E19;11
S20;17MM050A20;9
S20;17RC500E20;16
S20;18SA075TL17ET;11
S20;20DO075CD20;5
S20;24MA030R18;18
S20;27MI150I20;6
S20;49NOTNO19;22
S20;01BL012K20H;6
S20;01BV050K16;9
S20;01RV500K20;19
S20;01SA100LV20;17
S20;11CD050A18;10
S20;11MW200I19;7
S20;11PEP050I20;12
S20;11SP200CS19;12
S20;15AS250VA18;19
S20;15GN300L11;13
S20;15MF075VM20H;15
S20;15RC500VB17;24
S20;17AS250G18;8
S20;17MC200G18;9
S20;17RC500G18;25
S20;17SH300D15;16
S20;17SH500D16;15
S20;20AR075O20;10
S20;20GD250OC20;14
S20;20SA050O20;19
S20;24MA030P15;15
S20;27EV200I19;13
S20;27KTFCAPAC20;15
S20;27MP150I20;10
S20;29BP100A18;5
S20;29MA075A19;6
S20;38ST016A18;6
S20;38UV030A18;11
S20;49BO015CS19;1
S20;49CM030I19;10
S20;49DC008I20;8
S20;52SP001I19;252
S21000;38WC050A18;4
S21000;01HN0075K19;3
S21000;01MA075K18;4
S21000;01MR030K14;90
S21000;11ET050H20;15
S21000;11FAG10TR19;5
S21000;11GN195A18;13
S21000;11MH075A19;8
S21000;11SD100SL19;6
S21000;15MA030VB3;8
S21000;18BI030TL17ET;13
S21000;24MA030RE19;6
S21000;27BY015I19;15
S21000;27HS030I18;8
S21000;29HD075A15;1
S21000;29RH500A15;21
S21000;49DH004I20;25
S21000;49HD035A15;75
S21000;49POUM20;14
S21000;52MGEBAG18;102
S21000;52MGEBAG19;100
S21000;52MGEBOX18;28
S21000;52MGENSA18;116
S21000;52MIBANO20;250
S21000;52MIGEBAG19;196
S21000;52MMBANO19;16
S21000;52MMBANO20;315
S21000;52MMBBNO20;14
S21000;52MMBPNO20;7
S21000;52MMBYNO20;8
S21000;52MMSANO20;123
S21000;52MOCOL316;5
S21000;52MS001I20;276
S21000;52OR001I18;987
S21000;52OR001I19;365
S21000;52RBO2NO20;5
S21000;52RBO3NO20;5
S21000;52RIB1NO20;7
S21000;52RIB2NO20;6
S21000;52SAMPENV18;650
S21000;52SGEBAG19;86
S21000;52SGENSA18;165
S21000;52SH006D17;155
S21000;52SH006E19;166
S21000;52SH006G18;189
S21000;52SH006N18;176
S21000;52SH006P19;351
S21000;52SMBANO20;367
S21000;52SMSANO20;346
S21000;01CL300KB19;2
S21000;01PI030K18;10
S21000;01SA100LT16;16
S21000;01SL500LV20;5
S10;11PM100SI19;10
S10;15CP250VA5;5
S10;15ET100VA5;8
S10;15MA030L11;16
S10;17BD125G14;8
S10;20ET010CD19;3
S10;20GD250HC20;4
S10;20HR050H20;6
S10;20SA050CD20;13
S10;24MA150R19;7
S10;24VF050R18;6
S10;27DB015I20;11
S10;27HSR030I16;6
S10;29ASH240A20;10
S10;29HD250A15;24
S10;29LC200A14US;17
S10;29MA075A16;9
S10;38EV075A18;10
S10;49MF010VM20H;3
S10;49MS008I20;7
S10;01CMR500K20;7
S10;01HF100K17;7
S10;01PI150K18;6
S10;01SF200H20;21
S10;01SL300VE20;7
S10;11LH200I19;6
S10;11SV080I19;8
S10;15DF200VM20H;28
S10;15ET100VM20H;9
S10;15GD250L14;10
S10;15KTVER20;16
S10;15SH250VA17;14
S10;17AS250P19;12
S10;17AS500N18;6
S10;17DO050F13;14
S10;18ET090TL17;5
S10;20DO130HC20;7
S10;27BP050I19;11
S10;27DH015I20;17
S10;27DH030I20;50
S10;27SP030I19;10
S10;38FT200A18;7
S10;J6183;1
S10;01CV050K15;8
S10;01EM075K18;3
S10;01SA050KV20;17
S10;01SA250LV20;15
S10;11EP005H19;93
S10;11LT300I20;16
S10;11MA030A20;38
S10;15GC150VBL20;9
S10;15GM065L20;4
S10;15GM065VB20;25
S10;15LC250L14;10
S29000;17RC500E20;39
S29000;18SA075TL17ET;9
S29000;20DO075CD20;10
S29000;24MA030R18;19
S29000;27BP050I19;3
S29000;27MI150I20;13
S29000;49NOTNO19;59
S29000;01BL012K20H;11
S29000;01BV050K16;9
S29000;01RV500K20;23
S29000;01SA100LV20;6
S29000;11CD050A18;13
S29000;11MW200I19;17
S29000;11PEP050I20;9
S29000;11SP200CS19;16
S29000;15AS250VA18;14
S29000;15GN300L11;6
S29000;15MF075VM20H;27
S29000;15RC500VB17;22
S29000;17AS250G18;9
S29000;17MC200G18;22
S29000;17RC500G18;39
S29000;17SH300D15;6
S29000;17SH500D16;11
S29000;20AR075O20;12
S29000;20GD250OC20;2
S29000;20SA050O20;10
S29000;24MA030P15;11
S29000;27EV200I19;17
S29000;27KTFCAPAC20;46
S29000;27MP150I20;17
S29000;29BP100A18;17
S29000;29MA075A19;1
S29000;38ST016A18;9
S29000;38UV030A18;8
S29000;49BAG1NO19;53
S29000;49CM030I19;24
S29000;52SP001I19;254
S29000;52SPBAHOL20;1
S29000;01CL200K17;14
S29000;01HD250K17;10
S29000;01MA150K18;15
S29000;11BG240DE20H;9
S29000;11SD100CS19;9
S29000;15CL150VM20H;13
S29000;15GD250VB17;13
S29000;15LC250VA5;20
S29000;15RG500VA4;30
S29000;17AF100G20;32
S29000;17SH075E19;42
S29000;17SH300G18;15
S29000;20MP030H20;10
S29000;24GD075R18;32
S21000;11BP100I19;8
S21000;11BR100A20;8
S21000;11GD050A18;9
S21000;11GD050H19;16
S21000;11LP040028M19;3
S21000;15HE005L14;10
S21000;17RC500N18;12
S21000;24BR050CB6;10
S21000;24ET075CB4;9
S21000;24LC250CB4;10
S21000;24MA030RA19;10
S21000;24MA075CB4;14
S21000;24RO010R18;3
S21000;27ER015I20;18
S21000;27OR075I20;23
S21000;38MI150A18;6
S21000;49BLKAR20;6
S21000;49CP008I19;5
S21000;49TOBAGSA20;11
S21000;SGOCVKI00138;57
S21000;SGOCVKI00139;19
S21000;SGOCVKI00140;10
S21000;SGOCVKI00141;37
S21000;SGOCVKI00143;11
S21000;SGOCVKI00144;27
S21000;SGOCVKI00147;10
S21000;SGOCVKI00148;4
S21000;SGOCVKI00149;1
S21000;SGOCVKI00151;2
S21000;SGOCVKI00153;15
S21000;SGOCVKI00154;10
S21000;SGOCVKI00157;7
S21000;SGOCVKI00158;3
S21000;SGOCVKI00159;12
S21000;SGOCVKI00160;6
S21000;SGOCVKI00161;8
S21000;SGOCVKI00163;4
S21000;SGOCVKI00165;3
S21000;SGOCVKI00166;14
S21000;SGOCVKI00168;3
S21000;SGOCVKI00169;10
S21000;01CM300K20;7
S21000;01HDR500K20;5
S21000;01LH300KB19;7
S21000;01SA100VE16;15
S21000;11EP010H19;1
S21000;11LD200I19;8
S21000;11SA100H19;4
S21000;15BA500L16A;8
S21000;15ET100VB3;7
S21000;15GD250VA5;8
S21000;15SE400VB5;6
S90000;38MI150A18;8
S24000;49BLKAR20;8
S24000;49CP008I19;16
S90000;49CP008I19;10
S90000;49POCB19;1
S90000;49POUVE17;20
S24000;49TOBAGSA20;10
S90000;49TOBAGSA20;6
S90000;SGOCVE600003;9
S90000;SGOCVE700005;10
S90000;SGOCVE700009;2
S90000;SGOCVE700011;102
S90000;SGOCVE700012;92
S90000;SGOCVE700013;67
S90000;SGOCVKI00079;2
S90000;SGOCVKI00080;7
S90000;SGOCVKI00102;6
S90000;SGOCVKI00104;6
S90000;SGOCVKI00105;4
S90000;SGOCVKI00107;10
S90000;SGOCVKI00108;3
S90000;SGOCVKI00109;2
S24000;52MOCOL316;3
S90000;52MOCOL316;40
S24000;52MS001I20;54
S90000;52MS001I20;749
S24000;52OR001I19;580
S90000;52OR001I19;782
S24000;52ORT001I18;3
S24000;52PCRANO20;4
S90000;52PMGBOX18;9
S24000;52RBO2NO20;6
S24000;52RBO3NO20;6
S24000;52RC0015A18;78
S24000;52RIB1NO20;10
S90000;52RIB1NO20;1
S24000;52RIB2NO20;9
S90000;52RIB2NO20;1
S24000;52SGBAHOL20;1
S24000;52SGEBAG19;461
S90000;52SGEBAG19;293
S24000;52SGENSA18;161
S90000;52SGENSA18;112
S24000;52SH006D17;151
S90000;52SH006D17;149
S24000;52SH006E19;211
S90000;52SH006E19;10
S90000;52SH006F17;63
S24000;52SH006G18;180
S90000;52SH006G18;142
S24000;52SH006N18;69
S90000;52SH006N18;101
S24000;52SH006P19;152
S10;17AS500G18;15
S10;17IC200D15;15
S10;17RS500E20;18
S10;17SH500N18;7
S10;18ET050TL17;6
S10;20FE050H20;7
S10;24EF050R18;6
S10;27DS030I20;14
S10;49POUID20;5
S10;49POUIS19;34
S10;49TOTMC20;15
S10;01CM300K11;4
S10;01HN0075K19;10
S10;01MA075K18;13
S10;01MR030K14;20
S10;11ET050H20;5
S10;11GN195A18;9
S10;11MH075A19;8
S10;11SD100SL19;9
S10;15MA030VB3;23
S10;18BI030TL17ET;21
S10;24GD500R19;9
S10;24MA030R18;17
S10;24MA030RE19;14
S10;27BY015I19;12
S10;27HS030I18;8
S10;29RH500A15;34
S10;49DH004I20;20
S10;49HD035A15;104
S10;49POUM20;16
S10;52MGEBAG18;179
S10;52MGEBOX18;20
S10;52MGENSA18;84
S10;52MIBANO20;149
S10;52MMBANO20;387
S10;52MMBBNO20;31
S10;52MMBPNO20;28
S10;52MMBYNO20;35
S10;52MMSANO20;118
S10;52MOCOL316;5
S10;52MS001I20;172
S10;52OR001I19;784
S10;52ORT001I18;111
S10;52RBO2NO20;6
S10;52RBO3NO20;6
S10;52RC0015A18;135
S10;52RIB1NO20;7
S10;52RIB2NO20;7
S10;52SGEBAG19;156
S10;52SGENSA18;135
S10;52SH006D17;113
S10;52SH006E19;413
S10;52SH006G18;498
S10;52SH006N18;156
S10;52SH006P19;319
S27000;52MOCOL316;5
S28000;52MOCOL316;6
S27000;52MS001I20;163
S28000;52MS001I20;318
S15;52OR001I19;504
S27000;52OR001I19;216
S28000;52OR001I19;393
S27000;52ORT001I18;102
S28000;52ORT001I18;90
S15;52PCRANO20;5
S28000;52PCRANO20;4
S15;52PIBAHOL20;1
S27000;52PMARRON;1
S15;52RBO2NO20;8
S27000;52RBO2NO20;4
S28000;52RBO2NO20;7
S15;52RBO3NO20;8
S27000;52RBO3NO20;4
S28000;52RBO3NO20;7
S27000;52RC0015A18;93
S28000;52RC0015A18;152
S15;52RIB1NO20;12
S27000;52RIB1NO20;5
S28000;52RIB1NO20;11
S15;52RIB2NO20;12
S27000;52RIB2NO20;4
S28000;52RIB2NO20;11
S15;52SAMPENV18;150
S28000;52SAMPENV18;650
S15;52SGBAHOL20;2
S15;52SGEBAG19;75
S27000;52SGEBAG19;289
S28000;52SGEBAG19;294
S27000;52SGENSA18;59
S28000;52SGENSA18;59
S15;52SH006D17;12
S27000;52SH006D17;236
S28000;52SH006D17;264
S15;52SH006E19;17
S27000;52DH001I20;264
S28000;52DH001I20;298
S27000;52DS001I17;131
S15;52DS001I20;102
S27000;52DS001I20;132
S28000;52DS001I20;346
S15;52ER006P19;1
S27000;52ER006P19;14
S15;52EV002I19;128
S27000;52EV002I19;126
S28000;52EV002I19;193
S15;52FP0015I19;85
S27000;52FP0015I19;101
S28000;52FP0015I19;221
S29000;24MA030CB4;6
S29000;24RO010CB4;11
S29000;24SA050R18;8
S29000;27DC030I20;28
S29000;27OR030I18;2
S29000;29VC240A16;9
S29000;49BLALM20;9
S29000;49DC004I20;34
S29000;49OR005I18;12
S29000;52ACRAC20;3
S29000;52AF006G20;325
S29000;52AS006E19;347
S29000;52AS006G18;434
S29000;52AS006P19;109
S29000;52BALLHOL20;3
S29000;52BCRAC20;3
S29000;52CP0015I19;259
S29000;52CP006K17;525
S29000;52DB001I17;70
S29000;52DB001I20;563
S29000;52DC0015I17;82
S29000;52DC0015I20;687
S29000;01ED200K17;2
S29000;01SA250VE16;24
S29000;10QUAGD20;90
S29000;11ET010H20;3
S29000;11LC250H19;29
S29000;11SP200SH19;19
S29000;17MC200N18;18
S29000;17SH075G18;22
S29000;18ET010TL17;4
S29000;20AR075H16;3
S29000;20ET075HC20;8
S29000;20ET075OC20;12
S29000;24MA075P15;13
S29000;27DC050I20;23
S29000;27DE015I13US;32
S29000;27DL200I20;21
S29000;27FP050I19;11
S29000;38EC015A18;10
S29000;49EV030I19;14
S29000;98BBDF015IM0;22
S29000;01CL050B20H;50
S29000;10QCRAC20;54
S29000;11CM030H19;20
S29000;15CC150VB19;3
S29000;15ET010VB19;18
S29000;17AS075E19;42
S29000;17HI001G19;293
S29000;17SE125D15;4
S29000;52BY001I19;156
S29000;52WS001A18;30
S29000;52WRAPNO20;4
S10;52SMBANO20;394
S10;52SMSANO20;150
S10;01PI030K18;16
S10;01SA100LT16;17
S10;01SL500LV20;3
S10;11BP100I19;11
S10;11BR100A20;11
S10;11GD050A18;10
S10;11GD050H19;77
S10;11LP040028M19;2
S10;15ET100VBL20;6
S10;15HE005L14;6
S10;17KTHOAPAC20;10
S10;17RC500N18;9
S10;24BR050CB6;15
S10;24ET075CB4;5
S10;24LC250CB4;13
S10;24MA030RA19;14
S10;24MA075CB4;6
S10;24RO010R18;12
S10;27ER015I20;38
S10;27OR075I20;14
S10;38MI150A18;8
S10;49BLKAR20;8
S10;49CP008I19;5
S10;49TOBAGSA20;8
S10;SGOCVE700009;1
S10;SGOCVKI00137;2
S10;SGOCVKI00138;32
S10;SGOCVKI00139;40
S10;SGOCVKI00140;28
S10;SGOCVKI00141;55
S10;SGOCVKI00142;17
S10;SGOCVKI00143;21
S10;SGOCVKI00144;21
S10;SGOCVKI00146;1
S10;SGOCVKI00147;6
S10;SGOCVKI00148;17
S10;SGOCVKI00149;12
S10;SGOCVKI00150;17
S10;SGOCVKI00151;7
S10;SGOCVKI00153;19
S10;SGOCVKI00154;29
S10;SGOCVKI00157;7
S10;SGOCVKI00158;9
S10;SGOCVKI00159;13
S10;SGOCVKI00160;12
S10;SGOCVKI00161;15
S10;SGOCVKI00162;4
S10;SGOCVKI00163;9
S10;SGOCVKI00165;1
S10;SGOCVKI00166;25
S10;SGOCVKI00168;4
S10;SGOCVKI00169;24
S90000;52SH006P19;387
S24000;52SMBANO20;122
S90000;52SMSANO19;152
S24000;52SMSANO20;385
S90000;52SMSANO20;120
S90000;SGOCVKI00111;2
S90000;SGOCVKI00112;5
S90000;SGOCVKI00113;5
S90000;SGOCVKI00114;4
S90000;SGOCVKI00116;3
S90000;SGOCVKI00117;10
S90000;SGOCVKI00119;14
S90000;SGOCVKI00121;5
S90000;SGOCVKI00122;5
S90000;SGOCVKI00123;10
S90000;SGOCVKI00126;1
S90000;SGOCVKI00131;14
S90000;SGOCVKI00133;9
S90000;SGOCVKI00136;2
S24000;SGOCVKI00137;2
S90000;SGOCVKI00137;116
S24000;SGOCVKI00138;36
S90000;SGOCVKI00138;6
S24000;SGOCVKI00139;32
S90000;SGOCVKI00139;5
S24000;SGOCVKI00140;7
S90000;SGOCVKI00140;17
S24000;SGOCVKI00141;25
S90000;SGOCVKI00141;31
S90000;SGOCVKI00142;1
S24000;SGOCVKI00143;19
S90000;SGOCVKI00143;21
S24000;SGOCVKI00144;2
S90000;SGOCVKI00144;20
S90000;SGOCVKI00146;20
S24000;SGOCVKI00148;4
S90000;SGOCVKI00148;1
S24000;SGOCVKI00149;2
S24000;SGOCVKI00150;3
S90000;SGOCVKI00150;1
S24000;SGOCVKI00153;3
S90000;SGOCVKI00153;20
S24000;SGOCVKI00154;15
S90000;SGOCVKI00154;27
S90000;SGOCVKI00156;1
S24000;SGOCVKI00157;5
S90000;SGOCVKI00157;1
S24000;SGOCVKI00158;3
S90000;SGOCVKI00158;1
S24000;SGOCVKI00159;3
S90000;SGOCVKI00159;13
S90000;SGOCVKI00161;1
S27000;52FT002A18;5
S28000;52FT002A18;2
S15;52GD0015A18;51
S27000;52GD0015A18;103
S28000;52GD0015A18;172
S15;52GIF1NO20;5
S27000;52GIF1NO20;4
S28000;52GIF1NO20;4
S15;52GIF2NO20;5
S27000;52GIF2NO20;3
S28000;52GIF2NO20;4
S15;52GRBAHOL20;1
S15;52HD006A18;70
S27000;52HD006A18;68
S27000;52HF004K17;53
S28000;52HF004K17;204
S15;52HR004G17;181
S27000;52HR004G17;89
S28000;52HR004G17;165
S15;52HS001I17;248
S27000;52HS001I17;113
S28000;52HS001I17;335
S15;52HS004A18;193
S27000;52HS004A18;81
S28000;52HS004A18;131
S15;52HV001K18;48
S27000;52HV001K18;115
S28000;52HV001K18;201
S15;52LABANO20;152
S27000;52LABANO20;78
S28000;52LABANO20;36
S15;52LASANO20;384
S27000;52LASANO20;250
S28000;52LASANO20;181
S15;52LC006A18;305
S27000;52LC006A18;66
S28000;52LC006A18;107
S15;52LGEBAG18;313
S27000;52LGEBAG18;90
S15;52LGEBAG19;60
S28000;52LGEBOX18;1
S15;52LGENSA18;36
S27000;52LGENSA18;45
S28000;52LGENSA18;36
S15;52MA003K16A;387
S27000;52MA003K16A;93
S28000;52MA003K16A;110
S27000;52MC006G18;203
S28000;52MC006G18;187
S28000;52MC006N18;65
S27000;29MA075A16;16
S28000;29MA075A16;14
S27000;49MF010VM20H;2
S15;49MS008I20;20
S27000;49MS008I20;18
S28000;49MS008I20;8
S15;49QUA2NO20;1
S27000;27SP030I19;8
S28000;27SP030I19;8
S15;38FT200A18;10
S27000;38FT200A18;9
S28000;38FT200A18;14
S28000;49CP020K18;2
S28000;49MWC030I19;350
S15;49POUID20;5
S27000;49POUID20;3
S28000;49POUID20;4
S15;49POUIS19;29
S28000;49POUIS19;24
S15;49TOTMC20;15
S27000;49TOTMC20;15
S28000;49TOTMC20;16
S15;01CL200B20H;12
S27000;01CL200B20H;16
S28000;01CL200B20H;9
S15;01CM500K20;14
S27000;01CM500K20;6
S28000;01CM500K20;20
S15;01HD500K20;12
S27000;01HD500K20;7
S28000;01HD500K20;32
S15;01MA030K16;95
S27000;01MA030K16;24
S28000;01MA030K16;57
S15;01RC300KB20;14
S27000;01RC300KB20;18
S28000;01RC300KB20;21
S15;11BO100CS19;28
S27000;11BO100CS19;15
S28000;11BO100CS19;24
S27000;11LP050028M19;5
S15;11LP080028M19;5
S27000;11LP080028M19;6
S28000;11LP080028M19;4
S15;11SD100SI19;6
S27000;11SD100SI19;6
S28000;11SD100SI19;7
S15;15CC150VA19;7
S27000;15CC150VA19;5
S28000;15CC150VA19;7
S15;15GM280VB20;18
S27000;15GM280VB20;18
S28000;15GM280VB20;20
S15;17AS250E19;8
S27000;17AS250E19;14
S28000;17AS250E19;18
S90000;SGOCVKI00162;1
S24000;SGOCVKI00163;20
S90000;SGOCVKI00163;7
S24000;SGOCVKI00166;13
S24000;SGOCVKI00169;8
S90000;SGOCVKI00169;44
S24000;01CM300K20;10
S90000;01CM300K20;15
S24000;01HDR500K20;9
S90000;01LH100KB19;8
S24000;01LH300KB19;8
S90000;01LH300KB19;2
S90000;01MA150K16;2
S24000;01SA100VE16;14
S90000;01SA100VE16;14
S90000;10CACLA20;4
S24000;11BH050A18;14
S90000;11BH050A18;10
S24000;11EP010H19;7
S90000;11EP010H19;10
S24000;11LD200I19;8
S90000;11LD200I19;8
S24000;11SA100H19;18
S90000;11SA100H19;15
S24000;15BA500L16A;8
S90000;15BA500L16A;15
S24000;15ET100VB3;8
S90000;15ET100VB3;5
S24000;15GD250VA5;3
S90000;15GD250VA5;9
S24000;15SE400VB5;7
S90000;15SE400VB5;13
S24000;17AS500E19;8
S90000;17AS500E19;11
S24000;17MM050A20;8
S90000;17MM050A20;12
S24000;17RC500E20;13
S90000;17RC500E20;14
S24000;18SA075TL17ET;10
S90000;18SA075TL17ET;6
S24000;20DO075CD20;10
S90000;20DO075CD20;7
S90000;24GD075C19;2
S24000;24MA030R18;23
S90000;24MA030R18;14
S90000;27BP050I19;10
S24000;27MI150I20;6
S90000;29KTCALAPAC20;116
S24000;49NOTNO19;1
S24000;49NOTNO20;7
S90000;49NOTNO20;80
S90000;49BAG2NO20;11
S10;01CM300K20;8
S10;01HDR500K20;34
S10;01LH300KB19;9
S10;01SA100VE16;19
S10;11BH050A18;8
S10;11EP010H19;10
S10;11LD200I19;8
S10;11SA100H19;16
S10;15BA500L16A;7
S10;15ET100VB3;11
S10;15GD250VA5;7
S10;15SE400VB5;8
S10;17AS500E19;10
S10;17MM050A20;18
S10;17RC500E20;12
S10;18SA075TL17ET;7
S10;20DO075CD20;8
S10;27MI150I20;6
S10;49NOTNO20;3
S10;01BL012K20H;16
S10;01BV050K16;5
S10;01RV500K20;14
S10;01SA100LV20;19
S10;11CD050A18;8
S10;11MW200I19;13
S10;11PEP050I20;11
S10;11SP200CS19;5
S10;15AS250VA18;8
S10;15GN300L11;9
S10;15MF075VM20H;14
S10;15RC500VB17;43
S10;17AS250G18;12
S10;17MC200G18;7
S10;17RC500G18;14
S10;17SH300D15;12
S10;17SH500D16;26
S10;20AR075O20;3
S10;20GD250OC20;13
S10;20SA050O20;8
S10;24MA030P15;27
S10;27EV200I19;14
S10;27KTFCAPAC20;13
S10;27MP150I20;13
S10;29BP100A18;8
S10;29MA075A19;11
S10;38ST016A18;8
S10;38UV030A18;14
S10;49BAG2NO20;8
S10;49CM030I19;13
S10;49DC008I20;5
S10;52SP001I19;228
S10;52STINO20;8
S10;52TBRESET20;1
S10;52WC0015A18;88
S28000;24ET075S6;3
S28000;24MA030RV19;12
S15;24SACHB20;4
S27000;24SACHB20;2
S15;27OR030I19;70
S27000;27OR030I19;40
S28000;27OR030I19;62
S15;27TS001I20;277
S27000;27TS001I20;207
S28000;27TS001I20;606
S15;27TS050I20;36
S27000;27TS050I20;27
S28000;27TS050I20;47
S15;29GE200A18;8
S27000;29GE200A18;9
S28000;29GE200A18;26
S15;29HD500A15;29
S27000;29HD500A15;19
S28000;29HD500A15;56
S15;29HS100A18;19
S27000;29HS100A18;11
S28000;29HS100A18;25
S15;38WC050A18;5
S27000;38WC050A18;7
S28000;38WC050A18;9
S15;49MR010K14;24
S27000;49MR010K14;21
S28000;49MR010K14;28
S28000;38MI150A18;8
S15;49BLKAR20;9
S27000;49BLKAR20;5
S28000;49BLKAR20;7
S15;49BLMEN20;1
S15;49CP008I19;8
S27000;49CP008I19;5
S28000;49CP008I19;5
S15;49HD035K19H;8
S15;49TOBAGSA20;20
S27000;49TOBAGSA20;18
S28000;49TOBAGSA20;10
S15;SGOCVE700009;3
S28000;SGOCVE700009;1
S15;SGOCVE700010;10
S28000;SGOCVKI00137;24
S15;SGOCVKI00138;72
S27000;SGOCVKI00138;49
S28000;SGOCVKI00138;93
S15;SGOCVKI00139;91
S27000;SGOCVKI00139;51
S28000;SGOCVKI00139;90
S15;SGOCVKI00140;52
S27000;SGOCVKI00140;48
S28000;SGOCVKI00140;41
S21000;17AS500E19;11
S21000;17MM050A20;15
S21000;17RC500E20;19
S21000;18SA075TL17ET;6
S21000;20DO075CD20;10
S21000;24MA030R18;12
S21000;27MI150I20;6
S21000;01BL012K20H;15
S21000;01BV050K16;7
S21000;01RV500K20;17
S21000;11CD050A18;12
S21000;11MW200I19;6
S21000;11PEP050I20;10
S21000;11SP200CS19;12
S21000;15AS250VA18;7
S21000;15GN300L11;10
S21000;15MF075VM20H;7
S21000;15RC500VB17;17
S21000;17AS250G18;11
S21000;17MC200G18;7
S21000;17RC500G18;22
S21000;17SH300D15;9
S21000;17SH500D16;11
S21000;20AR075O20;2
S21000;20GD250OC20;5
S21000;20SA050O20;6
S21000;24MA030P15;17
S21000;27EV200I19;11
S21000;27KTFCAPAC20;10
S21000;27MP150I20;8
S21000;29BP100A18;8
S21000;29MA075A19;11
S21000;38ST016A18;8
S21000;38UV030A18;9
S21000;49BAG2NO20;1
S21000;49CM030I19;8
S21000;49DC008I20;3
S21000;52SP001I19;346
S21000;52STINO20;13
S21000;52WC0015A18;21
S21000;52WC0015A19;136
S21000;52WM0015A18;156
S21000;52WRAPNO20;4
S21000;52WS001A18;168
S21000;54S1BALLH20;1
S21000;01CL200K17;7
S21000;01HD250K17;10
S21000;01MA150K18;24
S21000;11BG240DE20H;2
S21000;11SD100CS19;7
S21000;15CL150VM20H;10
S21000;15GD250VB17;2
S21000;15LC250VA5;6
S29000;52SYBAHOL20;1
S29000;52STINO20;15
S29000;52CV0015K18;28
S29000;52CL0015K18;174
S29000;52CARDNO20;8
S29000;52WC0015A19;19
S29000;52WC0015A18;12
S29000;52CD0015A18;156
S29000;52CCRAC20;3
S29000;54S1BALLH20;2
S29000;17SH300N18;10
S29000;17SH500G18;21
S29000;20AR075CD16A;7
S29000;27RM300I20;28
S29000;29KTAMA20;48
S29000;38RC050A18;14
S29000;49BF2NO20;42
S29000;49DH004I17;16
S15;SGOCVKI00141;79
S27000;SGOCVKI00141;53
S28000;SGOCVKI00141;62
S15;SGOCVKI00142;1
S27000;SGOCVKI00142;1
S15;SGOCVKI00143;37
S27000;SGOCVKI00143;24
S28000;SGOCVKI00143;43
S15;SGOCVKI00144;91
S27000;SGOCVKI00144;28
S28000;SGOCVKI00144;77
S15;SGOCVKI00145;18
S27000;SGOCVKI00145;3
S15;SGOCVKI00146;3
S15;SGOCVKI00147;33
S27000;SGOCVKI00147;16
S28000;SGOCVKI00147;19
S15;SGOCVKI00148;24
S27000;SGOCVKI00148;6
S28000;SGOCVKI00148;8
S15;SGOCVKI00149;38
S27000;SGOCVKI00149;12
S28000;SGOCVKI00149;32
S15;SGOCVKI00150;20
S27000;SGOCVKI00150;22
S28000;SGOCVKI00150;21
S15;SGOCVKI00151;17
S28000;SGOCVKI00151;33
S15;SGOCVKI00153;40
S27000;SGOCVKI00153;5
S28000;SGOCVKI00153;42
S15;SGOCVKI00154;52
S27000;SGOCVKI00154;19
S28000;SGOCVKI00154;6
S15;SGOCVKI00155;4
S27000;SGOCVKI00155;3
S28000;SGOCVKI00155;1
S15;SGOCVKI00156;7
S27000;SGOCVKI00156;1
S27000;52SH006E19;57
S28000;52SH006E19;245
S15;52SH006G18;151
S27000;52SH006G18;144
S28000;52SH006G18;271
S15;52SH006N18;34
S27000;52SH006N18;56
S28000;52SH006N18;192
S15;52SH006P19;6
S27000;52SH006P19;172
S28000;52SH006P19;338
S15;52SMBANO20;487
S27000;52SMBANO20;171
S15;52SMBBNO20;1
S20;52STINO20;13
S20;52WC0015A18;18
S20;52WC0015A19;147
S20;52WRAPNO20;4
S20;54S1BALLH20;1
S20;01CL200K17;10
S20;01HD250K17;14
S20;01MA150K18;11
S20;11BG240DE20H;7
S20;11SD100CS19;8
S20;15CL150VM20H;7
S20;15GD250VB17;12
S20;15LC250VA5;9
S20;15RG500VA4;3
S20;17AF100G20;6
S20;17SH075E19;38
S20;17SH300G18;13
S20;20MP030H20;7
S20;24MA030CB4;24
S20;24RO010CB4;10
S20;24SA050R18;24
S20;27DC030I20;19
S20;29VC240A16;18
S20;49BLALM20;8
S20;49DC004I20;14
S20;49OR005I19;9
S20;52ACRAC20;2
S20;52AF006G20;44
S20;52AS006E19;189
S20;52AS006G18;195
S20;52AS006N18;126
S20;52AS006P19;193
S20;52BALLHOL20;1
S20;52BCRAC20;2
S20;52BY001I19;187
S20;52CARDNO20;8
S20;52CCRAC20;2
S20;52CD0015A18;108
S20;52CL0015K18;139
S20;52CP0015I19;161
S20;52CP006K17;175
S20;52CV0015K18;15
S20;52DB001I17;61
S20;52DB001I20;127
S20;52DC0015I20;656
S20;01SA250VE16;31
S20;10QUAGD20;20
S20;11CM125I19;5
S20;11ET010H20;15
S20;11LC250H19;12
S20;11SP200SH19;12
S20;17MC200N18;8
S20;17SH075G18;13
S20;18ET010TL17;12
S20;20ET075HC20;8
S15;52SMSANO20;872
S27000;52SMSANO20;406
S28000;52SMSANO20;656
S15;SGOCVKI00157;5
S27000;SGOCVKI00157;3
S28000;SGOCVKI00157;1
S15;SGOCVKI00158;4
S27000;SGOCVKI00158;4
S15;SGOCVKI00159;6
S27000;SGOCVKI00159;4
S15;SGOCVKI00160;11
S27000;SGOCVKI00160;9
S15;SGOCVKI00161;5
S27000;SGOCVKI00161;4
S15;SGOCVKI00163;20
S27000;SGOCVKI00163;4
S28000;SGOCVKI00163;12
S15;SGOCVKI00165;4
S27000;SGOCVKI00165;4
S28000;SGOCVKI00165;1
S15;SGOCVKI00166;18
S27000;SGOCVKI00166;8
S28000;SGOCVKI00166;20
S15;SGOCVKI00167;7
S28000;SGOCVKI00167;1
S15;SGOCVKI00168;4
S27000;SGOCVKI00168;3
S28000;SGOCVKI00168;5
S15;SGOCVKI00169;46
S27000;SGOCVKI00169;14
S28000;SGOCVKI00169;43
S15;49NYBOXNO20;1
S28000;29VC240A16;15
S15;49BLALM20;9
S27000;49BLALM20;5
S28000;49BLALM20;7
S15;49DC004I20;12
S27000;49DC004I20;36
S28000;49DC004I20;26
S28000;49OR005I18;32
S15;49OR005I19;25
S27000;49OR005I19;9
S28000;49OR005I19;2008
S15;52ACRAC20;3
S27000;52ACRAC20;1
S28000;52ACRAC20;2
S15;52AF006G20;1
S27000;52AF006G20;8
S28000;52AF006G20;83
S15;52AS006E19;134
S27000;52AS006E19;178
S28000;52AS006E19;276
S15;52AS006G18;177
S21000;15RG500VA4;1
S21000;17AF100G20;5
S21000;17SH075E19;46
S21000;17SH300G18;13
S21000;20MP030H20;9
S21000;24MA030CB4;21
S21000;24RO010CB4;6
S21000;24SA050R18;4
S21000;27DC030I20;23
S21000;29VC240A16;10
S21000;49BLALM20;6
S21000;49OR005I18;15
S21000;49OR005I19;8
S21000;52ACRAC20;1
S21000;52AF006G20;5
S21000;52AS006E19;129
S21000;52AS006G18;164
S21000;52AS006P19;344
S21000;52BALLHOL20;1
S21000;52BCRAC20;1
S21000;52BY001I19;178
S21000;52CARDNO20;8
S21000;52CCRAC20;1
S21000;52CD0015A18;184
S21000;52CL0015K18;30
S21000;52CLASANO20;2
S21000;52CP0015I19;220
S21000;52CP006K17;152
S21000;52CV0015K18;318
S21000;52DB001I20;223
S21000;52DC0015I20;1198
S21000;01SA250VE16;6
S21000;10QUAGD20;37
S21000;11CM125I19;12
S21000;11ET010H20;4
S21000;11LC250H19;11
S21000;11SP200SH19;6
S21000;17MC200N18;7
S21000;17SH075G18;3
S21000;18ET010TL17;9
S21000;20ET075HC20;11
S21000;20ET075OC20;12
S21000;24MA075P15;12
S21000;27DC050I20;13
S21000;27DE015I13US;5
S21000;27DL200I20;13
S21000;27FP050I19;8
S21000;38EC015A18;6
S21000;49EV030I19;12
S21000;49GD035CB5;8
S21000;98BBDF015IM0;15
S21000;98BBGD050VE2;29
S21000;98BBHD050A0;7
S27000;52AS006G18;173
S28000;52AS006G18;229
S15;52AS006P19;76
S27000;52AS006P19;129
S28000;52AS006P19;292
S15;52BALLHOL20;1
S27000;52BALLHOL20;1
S28000;52BALLHOL20;1
S15;52BCRAC20;3
S27000;52BCRAC20;1
S28000;52BCRAC20;2
S15;52BGERIB18;6
S27000;52BGERIB18;4
S28000;52BGERIB18;3
S15;52BY001I19;34
S27000;52BY001I19;120
S28000;52BY001I19;231
S15;52CARDNO20;18
S27000;52CARDNO20;8
S28000;52CARDNO20;16
S15;52CCRAC20;3
S27000;52CCRAC20;1
S28000;52CCRAC20;2
S15;52CD0015A18;49
S27000;52CD0015A18;49
S28000;52CD0015A18;97
S15;52CL0015K18;183
S27000;52CL0015K18;144
S28000;52CL0015K18;232
S27000;52CLASANO19;6
S15;52CLASANO20;23
S27000;52CLASANO20;1
S28000;52CLASANO20;15
S15;52CP0015I19;2
S27000;52CP0015I19;62
S28000;52CP0015I19;297
S15;52CP006K17;74
S27000;52CP006K17;128
S28000;52CP006K17;300
S15;52CV0015K18;124
S27000;52CV0015K18;130
S28000;52CV0015K18;337
S15;52DB001I17;10
S15;27EV200I19;15
S27000;27EV200I19;9
S28000;27EV200I19;15
S15;27KTFCAPAC20;16
S27000;27KTFCAPAC20;3
S28000;27KTFCAPAC20;6
S15;27MP150I20;11
S27000;27MP150I20;8
S28000;27MP150I20;13
S15;29BP100A18;10
S90000;49BM010K19;11
S90000;49BO015CS19;18
S90000;49BOTNO20;217
S24000;49CM030I19;11
S90000;49CM030I19;124
S90000;49DC008I17;16
S24000;49DC008I20;5
S90000;49DC008I20;11
S90000;49GD035R14;225
S90000;49HBMD19;9
S24000;49IC1POU20;10
S90000;49IC1POU20;9
S90000;49IC3POU20;7
S24000;49JEWNO19;66
S90000;49JEWNO19;3
S90000;49PO1RE19;6
S90000;49TRSOL15;16
S24000;52SP001I19;106
S90000;52SP001I19;153
S24000;52SPBAHOL20;1
S90000;52STINO19;1
S24000;52STINO20;13
S90000;52STINO20;1
S24000;52SYBAHOL20;1
S90000;52TBOM20;28
S90000;52TRIHDTS19;26
S90000;52TRSAM19;15
S90000;52WC0015A18;97
S24000;52WC0015A19;218
S90000;52WM0015A18;150
S24000;52WRAPNO20;3
S24000;54S1BALLH20;1
S24000;52BGERIB18;1
S90000;52BGERIB18;2
S90000;52BOWEB117;2372
S90000;52BOWEB217;5566
S90000;52BOWEB317;2349
S24000;52BY001I19;230
S90000;52BY001I19;151
S90000;52CARDENV18;6
S24000;52CARDNO20;4
S90000;52CARDNO20;3
S24000;52CCRAC20;2
S24000;52CD0015A18;105
S90000;52CD0015A18;171
S24000;52CL0015K18;122
S90000;52CL0015K18;72
S90000;52CLASANO19;32
S24000;52CLASANO20;2
S90000;52CLASANO20;1
S90000;52COTLTM19;4
S24000;52CP0015I19;161
S90000;52CP0015I19;132
S10;52WC0015A19;50
S10;52WRAPNO20;4
S10;52WS001A18;34
S10;54WKIMM20;1
S10;54WKRESET20;1
S10;01CL200K17;8
S10;01CP050K19H;1
S10;01HD250K17;6
S10;01MA150K18;14
S10;11SD100CS19;4
S10;15CL150VM20H;8
S10;15GD250VB17;12
S10;15LC250VA5;9
S10;17AF100G20;9
S10;17SH075E19;72
S10;17SH300G18;14
S10;20MP030H20;10
S10;24MA030CB4;40
S10;24RO010CB4;11
S10;24SA050R18;12
S10;27DC030I20;19
S10;27OR030I18;2
S10;29VC240A16;7
S10;49BLALM20;8
S10;49DC004I20;2
S10;49OR005I18;15
S10;49OR005I19;10
S10;52ACRAC20;2
S10;52AF006G20;72
S10;52AS006E19;354
S10;52AS006G18;511
S10;52AS006N18;37
S10;52AS006P19;360
S10;52BCRAC20;2
S10;52BY001I19;125
S10;52CARDNO20;4
S10;52CCRAC20;2
S10;52CD0015A18;253
S10;52CL0015K18;132
S10;52CLASANO20;3
S10;52CP0015I19;92
S10;52CP006K17;98
S10;52CV0015K18;158
S10;52DB001I17;170
S10;52DB001I20;151
S10;52DC0015I20;127
S10;01SA250VE16;18
S10;10QUAGD20;63
S10;11CM125I19;10
S10;11ET010H20;2
S10;11LC250H19;19
S10;11SP200SH19;17
S10;17MC200N18;7
S10;17SH075G18;8
S10;18ET010TL17;12
S20;20ET075OC20;8
S20;24MA075P15;16
S20;27DC050I20;19
S20;27DE015I13US;14
S20;27DL200I20;19
S20;27DS030I17A;4
S20;27FP050I19;5
S20;38EC015A18;6
S20;98BBDF015IM0;18
S20;98BBGD050VE2;30
S20;98BBHD050A0;7
S20;01KTKAR20;4
S20;10QCRAC20;93
S20;11CM030H19;22
S20;15ET010VB19;4
S20;15MA075VB4;17
S20;17AS075E19;38
S20;17HI001G19;153
S20;17SE125D15;9
S20;17SH300N18;6
S20;17SH500G18;10
S20;27MI150I17;5
S20;27RM300I20;11
S20;29KTAMA20;2
S20;38RC050A18;8
S20;49BF2NO20;38
S20;49DH004I17;23
S24000;52CP006K17;64
S90000;52CP006K17;150
S24000;52CV0015K18;105
S90000;52CV0015K18;54
S24000;52DB001I17;152
S24000;52DB001I20;113
S90000;52DB001I20;140
S24000;52DC0015I20;285
S90000;52DC0015I20;270
S24000;01SA250VE16;15
S90000;01SA250VE16;14
S24000;10QUAGD20;23
S90000;10QUAGD20;7
S24000;11CM125I19;14
S90000;11CM125I19;11
S24000;11ET010H20;8
S90000;11ET010H20;9
S24000;11LC250H19;16
S90000;11LC250H19;24
S24000;11SP200SH19;8
S90000;11SP200SH19;11
S24000;17MC200N18;7
S90000;17MC200N18;8
S24000;17SH075G18;20
S90000;17SH075G18;1
S24000;18ET010TL17;37
S90000;18ET010TL17;11
S90000;20AR075H16;1
S24000;20ET075HC20;6
S90000;20ET075HC20;6
S24000;20ET075OC20;8
S90000;20ET075OC20;10
S24000;24MA075P15;19
S90000;24MA075P15;11
S24000;27DC050I20;10
S90000;27DC050I20;10
S24000;27DE015I13US;11
S90000;27DE015I13US;14
S24000;27DL200I20;11
S90000;27DL200I20;14
S90000;27DS030I17A;2
S24000;27FP050I19;8
S90000;27FP050I19;8
S90000;38BV050A17;1
S24000;38EC015A18;7
S90000;38EC015A18;8
S90000;38UV030A18;7
S90000;49ED030K17;26
S90000;49ET007CB19;4
S90000;49ET007CB4;1
S24000;49EV030I19;24
S90000;49EV030I19;10
S90000;49LC035CB6;127
S90000;49MA010CB4;142
S90000;49MA010L16;17
S90000;49MIRCB19;2
S90000;49PI010K1;31
S90000;49PI010K18;132
S90000;49POURS20;17
S24000;98BBDF015IM0;23
S90000;98BBDF015IM0;67
S24000;98BBGD050VE2;27
S90000;98BBGD050VE2;19
S24000;98BBHD050A0;11
S90000;01KTKAR19;8
S24000;01KTKAR20;4
S90000;01KTKAR20;16
S24000;10QCRAC20;44
S90000;10QCRAC20;101
S24000;11CM030H19;17
S90000;11CM030H19;11
S90000;11GD050H20;1
S24000;15ET010VB19;8
S24000;15MA075VB4;13
S90000;15MA075VB4;10
S24000;17AS075E19;68
S90000;17AS075E19;46
S24000;17HI001G19;170
S90000;17RC500F18;1
S24000;17SE125D15;25
S90000;17SE125D15;11
S24000;17SH300N18;7
S90000;17SH300N18;18
S24000;17SH500G18;13
S90000;17SH500G18;56
S90000;18LC050TL17ET;2
S24000;20GD250OC16;5
S24000;27RM300I20;12
S90000;27RM300I20;17
S90000;29KTAMA19;2
S90000;29KTAMA20;5
S24000;38RC050A18;10
S90000;38RC050A18;10
S24000;49BF2NO20;68
S90000;49BF2NO20;28
S24000;49BL004B20H;7
S90000;49BL004B20H;80
S24000;49DH004I17;31
S90000;49DH004I17;19
S90000;49MA010VB3;127
S90000;49MF010W19H;5
S90000;49PASSSA19;16
S90000;49TF2CH19;35
S90000;49TFACH18;30
S27000;29BP100A18;8
S28000;29BP100A18;16
S15;29MA075A19;17
S27000;29MA075A19;5
S28000;29MA075A19;10
S15;38ST016A18;9
S27000;38ST016A18;12
S28000;38ST016A18;11
S15;38UV030A18;14
S27000;38UV030A18;10
S28000;38UV030A18;15
S15;49BAG2NO20;8
S27000;49BAG2NO20;22
S28000;49BAG2NO20;3
S15;49CM030I19;16
S27000;49CM030I19;6
S28000;49CM030I19;5
S15;49DC008I20;5
S27000;49DC008I20;5
S28000;49DC008I20;5
S15;52SP001I19;191
S27000;52SP001I19;105
S28000;52SP001I19;198
S15;52SPBAHOL20;2
S15;52STARNO20;1
S15;52STINO20;15
S27000;52STINO20;13
S28000;52STINO20;19
S15;52SYBAHOL20;2
S27000;52TBRESET20;1
S15;52TFRNO20;1
S27000;52WC0015A18;24
S28000;52WC0015A18;5
S15;52WC0015A19;69
S27000;52WC0015A19;250
S28000;52WC0015A19;221
S15;52WHS1NO20;1
S15;52WRAPNO20;4
S27000;52WRAPNO20;3
S28000;52WRAPNO20;4
S27000;52WS001A18;5
S28000;52WS001A18;3
S15;52YEBAHOL20;1
S15;52YGERIB18;2
S15;54S1BALLH20;1
S27000;54S1BALLH20;1
S28000;54S1BALLH20;1
S27000;52DB001I17;83
S15;52DB001I20;396
S27000;52DB001I20;100
S28000;52DB001I20;316
S15;52DC0015I20;179
S27000;52DC0015I20;50
S10;20ET075HC20;8
S10;20ET075OC20;8
S10;24MA075P15;14
S10;27DC050I20;13
S10;27DE015I13US;12
S10;27DL200I20;10
S10;27FP050I19;9
S10;38EC015A18;10
S10;49EV030I19;1
S10;49GD035CB5;17
S10;98BBDF015IM0;33
S10;98BBGD050VE2;29
S10;98BBHD050A0;7
S10;98BBSH050AR2;15
S10;01KTKAR20;10
S10;10QCRAC20;73
S10;11CM030H19;28
S10;15ET010VB19;8
S10;15MA075VB4;13
S10;17AS075E19;72
S10;17HI001G19;86
S10;17SE125D15;12
S10;17SH300N18;7
S10;17SH500G18;11
S10;27RM300I20;16
S10;29KTAMA20;4
S10;38RC050A18;9
S10;49BF2NO20;72
S10;49BL004B20H;3
S10;49DH004I17;1
S21000;98BBSH050A0;11
S21000;98BBSH050AR2;6
S21000;01KTKAR20;10
S21000;01SA250LV16;1
S21000;10QCRAC20;33
S21000;11CM030H19;24
S21000;15ET010VB19;8
S21000;15MA075VB4;12
S21000;17AS075E19;46
S21000;17HI001G19;104
S21000;17SE125D15;6
S21000;17SH300N18;6
S21000;17SH500G18;7
S21000;27MI150I17;2
S21000;27RM300I20;22
S21000;29KTAMA20;10
S21000;38RC050A18;5
S21000;49BF2NO20;46
S21000;49DH004I17;10
S28000;52DC0015I20;178
S27000;98BBHD050A0;4
S28000;98BBHD050A0;15
S28000;98BBSH050AR2;18
S15;01KTKAR20;16
S27000;01KTKAR20;8
S28000;01KTKAR20;11
S15;10QCRAC20;87
S27000;10QCRAC20;73
S28000;10QCRAC20;50
S15;11CM030H19;23
S27000;11CM030H19;17
S28000;11CM030H19;36
S15;15ET010VB19;10
S27000;15ET010VB19;5
S28000;15ET010VB19;7
S15;15MA075VB4;16
S27000;15MA075VB4;11
S28000;15MA075VB4;19
S15;17AS075E19;98
S27000;17AS075E19;11
S28000;17AS075E19;114
S15;17HI001G19;20
S27000;17HI001G19;98
S28000;17HI001G19;417
S28000;17RC500F18;1
S15;17SE125D15;18
S27000;17SE125D15;6
S28000;17SE125D15;17
S15;17SH300N18;8
S27000;17SH300N18;5
S28000;17SH300N18;8
S15;17SH500G18;16
S27000;17SH500G18;10
S28000;17SH500G18;24
S27000;20GD250OC16;1
S28000;20GD250OC16;4
S15;27MI150I17;2
S28000;27MI150I17;8
S15;27RM300I20;21
S27000;27RM300I20;11
S28000;27RM300I20;17
S15;29KTAMA20;26
S27000;29KTAMA20;4
S28000;29KTAMA20;3
S15;38RC050A18;10
S27000;38RC050A18;5
S28000;38RC050A18;9
S15;49BF2NO20;98
S27000;49BF2NO20;11
S28000;49BF2NO20;114
S27000;49BL004B20H;2
S15;49DH004I17;31
S27000;49DH004I17;25
S28000;49DH004I17;31
