S15;01LH300KB19;10
S27000;01LH300KB19;8
S28000;01LH300KB19;10
S15;01PR015R19;9
S27000;01PR015R19;7
S28000;01PR015R19;11
S15;01SA100VE20;15
S27000;01SA100VE20;10
S28000;01SA100VE20;8
S15;01SA250LV20;14
S27000;01SA250LV20;8
S28000;01SA250LV20;17
S15;01SL0045K13;21
S27000;01SL0045K13;15
S28000;01SL0045K13;16
S28000;11BG140SH19;11
S15;11BG140SI19;12
S27000;11BG140SI19;8
S28000;11BG140SI19;13
S15;11GD250H19;14
S27000;11GD250H19;13
S28000;11GD250H19;16
S15;11GD250H20;19
S27000;11GD250H20;15
S28000;11GD250H20;18
S15;11LC250O21;18
S27000;11LC250O21;16
S28000;11LC250O21;20
S15;11SD100SI19;12
S27000;11SD100SI19;8
S28000;11SD100SI19;14
S15;24BR050CB6;13
S27000;24BR050CB6;5
S28000;24BR050CB6;15
S15;01MR030K14;26
S27000;01MR030K14;13
S28000;01MR030K14;22
S15;01SA050KL20;12
S27000;01SA050KL20;10
S28000;01SA050KL20;13
S15;01SE125K21;12
S27000;01SE125K21;3
S28000;01SE125K21;4
S15;11LC250H20;15
S27000;11LC250H20;14
S28000;11LC250H20;18
S15;11PM100SI19;8
S27000;11PM100SI19;7
S28000;11PM100SI19;3
S15;20AR075O20;12
S27000;20AR075O20;8
S28000;20AR075O20;13
S15;01BP050K21;5
S27000;01BP050K21;4
S28000;01BP050K21;10
S15;01CL050K21;7
S27000;01CL050K21;11
S28000;01CL050K21;10
S15;01CM500K20;11
S27000;01CM500K20;5
S28000;01CM500K20;14
S15;01HN075C21H;16
S27000;01HN075C21H;6
S28000;01HN075C21H;14
S15;01HN075K21H;14
S27000;01HN075K21H;9
S28000;01HN075K21H;8
S15;01PI030K18;10
S27000;01PI030K18;8
S28000;01PI030K18;14
S15;01SA250LT20;17
S27000;01SA250LT20;6
S28000;01SA250LT20;19
S15;11BG140SL19;10
S27000;11BG140SL19;8
S28000;11BG140SL19;9
S15;11CM030H19;16
S27000;11CM030H19;14
S28000;11CM030H19;22
S15;11ET050H20;10
S27000;11ET050H20;7
S28000;11ET050H20;8
S15;11GN195A18;14
S27000;11GN195A18;8
S15;24MA030RV19;12
S28000;24ET050RJ21H;13
S28000;24EF050R18;5
S27000;24EF050R18;7
S15;24EF050R18;4
S28000;20ET075HC20;8
S27000;20ET075HC20;6
S15;20ET075HC20;12
S28000;17RC500P19;20
S27000;17RC500P19;5
S15;17RC500P19;12
S28000;17AS500P19;10
S27000;17AS500P19;7
S15;17AS500P19;8
S28000;17AS500E19;12
S27000;17AS500E19;8
S15;17AS500E19;11
S28000;15MA030L11;35
S27000;15MA030L11;20
S15;15MA030L11;21
S28000;15LC250VA20;12
S27000;15LC250VA20;4
S15;15LC250VA20;7
S28000;15GD250VB17;18
S27000;15GD250VB17;11
S15;15GD250VB17;17
S28000;15ETKAR21;78
S27000;15ETKAR21;38
S15;15ETKAR21;63
S28000;15ET010VB19;8
S27000;15ET010VB19;4
S15;15ET010VB19;8
S28000;15DO050VA5;16
S27000;15DO050VA5;7
S15;15DO050VA5;14
S28000;01HV030K16;8
S27000;01HV030K16;5
S15;01HV030K16;4
S28000;01CM300K20;13
S27000;01CM300K20;6
S15;01CM300K20;10
S28000;01CL200K17;10
S27000;01CL200K17;8
S15;01CL200K17;9
S28000;24MA030R18;25
S27000;24MA030R18;19
S15;24MA030R18;19
S28000;24KTCBL21;43
S27000;24KTCBL21;19
S15;24KTCBL21;37
S28000;24GD250R20;22
S27000;24GD250R20;12
S15;24GD250R20;18
S28000;20DO050O20;10
S27000;20DO050O20;6
S15;20DO050O20;11
S28000;18SA075TL17ET;9
S27000;18SA075TL17ET;4
S15;18SA075TL17ET;6
S28000;17AF100G20;18
S27000;17AF100G20;11
S15;17AF100G20;18
S28000;15RC500VB17;26
S27000;15RC500VB17;3
S15;15RC500VB17;24
S28000;15LC250VB3;18
S27000;15LC250VB3;8
S15;15LC250VB3;18
S28000;01CP200K17;18
S27000;01CP200K17;12
S15;01CP200K17;17
S28000;11GN195A18;18
S15;11LH200I19;13
S27000;11LH200I19;7
S28000;11LH200I19;15
S15;11PM100SL19;8
S27000;11PM100SL19;6
S28000;11PM100SL19;5
S15;11SP200CS19;12
S27000;11SP200CS19;1
S28000;11SP200CS19;13
S15;15GD250L14;14
S27000;15GD250L14;12
S28000;15GD250L14;10
S15;17MC200G21;14
S27000;17MC200G21;11
S28000;17MC200G21;16
S15;17SH075G21;13
S28000;17SH075G21;3
S15;18BI030TL17ET;14
S27000;18BI030TL17ET;18
S28000;18BI030TL17ET;18
S15;20NV150H20;9
S27000;20NV150H20;12
S28000;20NV150H20;14
S15;24MA030RA19;12
S27000;24MA030RA19;9
S28000;24MA030RA19;16
S15;27DB015I20;11
S27000;27DB015I20;6
S15;01CMJ075K21;16
S27000;01CMJ075K21;14
S28000;01CMJ075K21;15
S15;01HN0075K19;14
S27000;01HN0075K19;7
S28000;01HN0075K19;16
S15;01LC250F21H;13
S27000;01LC250F21H;9
S28000;01LC250F21H;10
S15;01MA075K18;22
S27000;01MA075K18;29
S28000;01MA075K18;25
S15;01MF150F21H;7
S27000;01MF150F21H;13
S28000;01MF150F21H;9
S15;11CM030O21;28
S27000;11CM030O21;38
S28000;11CM030O21;45
S15;11SP200SH19;12
S27000;11SP200SH19;6
S28000;11SP200SH19;7
S15;15GD500VB17;15
S27000;15GD500VB17;10
S28000;15GD500VB17;13
S15;15MA075VB4;14
S27000;15MA075VB4;10
S28000;15MA075VB4;17
S15;17AS250E19;13
S27000;17AS250E19;3
S28000;17AS250E19;12
S15;17AS250P19;10
S27000;17AS250P19;4
S28000;17AS250P19;8
S15;17RS500FV21;37
S27000;17RS500FV21;22
S28000;17RS500FV21;30
S15;17SH060SG21;9
S27000;17SH060SG21;10
S28000;17SH060SG21;11
S15;17SH500P19;15
S27000;17SH500P19;8
S28000;17SH500P19;20
S15;20ET075OC20;4
S27000;20ET075OC20;6
S28000;20ET075OC20;4
S15;20SA050O20;6
S27000;20SA050O20;6
S28000;20SA050O20;6
S15;24MA030P15;15
S27000;24MA030P15;14
S28000;24MA030P15;18
S15;27BY015I19;6
S27000;27BY015I19;6
S28000;27BY015I19;11
S15;27DC030I20;10
S27000;27DC030I20;8
S28000;27DC030I20;12
S15;27DH030I20;12
S27000;27DH030I20;16
S28000;27DH030I20;33
S15;01LC250K17;18
S27000;01LC250K17;15
S28000;01LC250K17;22
S15;01MA150K18;34
S27000;01MA150K18;26
S28000;01MA150K18;42
S15;01SA100LV20;18
S27000;01SA100LV20;10
S28000;01SA100LV20;11
S15;01SB020K21;21
S27000;01SB020K21;17
S28000;01SB020K21;30
S15;01SL300LV20;10
S27000;01SL300LV20;8
S28000;01SL300LV20;9
S15;11EH150A18;6
S27000;11EH150A18;4
S28000;11EH150A18;8
S15;11SP200SI19;10
S27000;11SP200SI19;5
S28000;11SP200SI19;8
S15;15AS250VA18;9
S27000;15AS250VA18;6
S28000;15AS250VA18;11
S15;15ET100VA20;9
S27000;15ET100VA20;3
S28000;15ET100VA20;7
S15;15HE005L14;11
S27000;15HE005L14;3
S28000;15HE005L14;12
S15;15SE400VB5;9
S27000;15SE400VB5;6
S28000;15SE400VB5;9
S15;17RS500G21;44
S27000;17RS500G21;19
S28000;17RS500G21;28
S15;17SH060SP21;8
S27000;17SH060SP21;10
S28000;17SH060SP21;8
S15;17SH300P19;13
S27000;17SH300P19;11
S28000;17SH300P19;15
S15;17SH500FV21;17
S27000;17SH500FV21;11
S28000;17SH500FV21;16
S15;18GD250TL17ET;12
S27000;18GD250TL17ET;12
S28000;18GD250TL17ET;16
S15;20GD250CD20;13
S27000;20GD250CD20;12
S28000;20GD250CD20;13
S27000;24GD500R19;8
S28000;24GD500R19;15
S28000;24GP010RJ21H;36
S15;24MA030S6;16
S27000;24MA030S6;15
S28000;24MA030S6;17
S15;27DC050I20;14
S27000;27DC050I20;9
S28000;27DC050I20;27
S15;27HC050I18;8
S27000;27HC050I18;4
S28000;27HC050I18;8
S15;27MP150I20;12
S15;01BV050K16;11
S27000;01BV050K16;6
S28000;01BV050K16;8
S15;01HD250K17;11
S27000;01HD250K17;4
S28000;01HD250K17;12
S15;01MF030F21H;62
S27000;01MF030F21H;37
S28000;01MF030F21H;55
S15;01PI075K18;9
S27000;01PI075K18;10
S28000;01PI075K18;12
S15;01SA250VE20;16
S27000;01SA250VE20;11
S28000;01SA250VE20;19
S15;11ET010O21;13
S27000;11ET010O21;18
S28000;11ET010O21;8
S15;11LT300I20;3
S27000;11LT300I20;4
S28000;11LT300I20;9
S15;11MA030A20;14
S27000;11MA030A20;6
S28000;11MA030A20;16
S15;15GM280VB20;3
S27000;15GM280VB20;5
S28000;15GM280VB20;6
S15;15LM300L11;15
S27000;15LM300L11;12
S28000;15LM300L11;15
S15;15SA070VB6;12
S27000;15SA070VB6;5
S28000;15SA070VB6;11
S15;17AS250FV21;13
S27000;17AS250FV21;4
S28000;17AS250FV21;23
S15;17DO050F13;12
S27000;17DO050F13;12
S28000;17DO050F13;13
S15;17HI100G19;16
S27000;17HI100G19;7
S28000;17HI100G19;14
S15;18ET010TL17;6
S27000;18ET010TL17;8
S28000;18ET010TL17;8
S15;20DO130HC20;11
S27000;20DO130HC20;8
S28000;20DO130HC20;10
S27000;20MP030H20;6
S28000;20MP030H20;4
S15;24MA030RE19;13
S27000;24MA030RE19;8
S28000;24MA030RE19;16
S28000;24MA030RJ21H;43
S15;27HS030I18;7
S27000;27HS030I18;7
S28000;27HS030I18;7
S15;27RM300I20;12
S27000;27RM300I20;11
S28000;27RM300I20;16
S15;01BL012K18;16
S27000;01BL012K18;9
S28000;01BL012K18;20
S15;01EC200K17;8
S27000;01EC200K17;4
S28000;01EC200K17;3
S15;01MA150C21H;37
S27000;01MA150C21H;22
S28000;01MA150C21H;47
S15;01SL500VE20;12
S27000;01SL500VE20;6
S28000;01SL500VE20;10
S15;10KTPWPXM21;19
S27000;10KTPWPXM21;14
S28000;10KTPWPXM21;12
S15;11BP100I19;8
S27000;11BP100I19;6
S28000;11BP100I19;8
S15;11BR100A20;11
S27000;11BR100A20;6
S28000;11BR100A20;7
S15;11ET010H20;13
S27000;11ET010H20;12
S28000;11ET010H20;9
S15;11GM200I19;11
S27000;11GM200I19;11
S28000;11GM200I19;22
S15;11SD100SH19;13
S27000;11SD100SH19;11
S28000;11SD100SH19;14
S15;15LC250L14;17
S27000;15LC250L14;10
S28000;15LC250L14;18
S27000;15RG500VA20;6
S28000;15RG500VA20;10
S15;17HI001G19;52
S27000;17HI001G19;144
S28000;17HI001G19;215
S15;20ET075CD20;8
S27000;20ET075CD20;5
S28000;20ET075CD20;7
S15;24MA075R18;16
S27000;24MA075R18;12
S28000;24MA075R18;17
S15;27FP050I19;13
S27000;27FP050I19;5
S28000;27FP050I19;6
S15;27OR030I21;21
S27000;27OR030I21;32
S28000;27OR030I21;25
S15;29CHALM21;126
S27000;29CHALM21;32
S28000;29CHALM21;113
S15;29CHCHB21;62
S27000;29CHCHB21;46
S28000;29CHCHB21;67
S15;29KTAMA21;32
S27000;29KTAMA21;14
S28000;29KTAMA21;22
S15;29SH240A20;10
S15;01PI150K18;16
S27000;01PI150K18;7
S28000;01PI150K18;15
S15;01SL500LV20;12
S27000;01SL500LV20;4
S28000;01SL500LV20;12
S15;11BO100CS19;33
S27000;11BO100CS19;12
S28000;11BO100CS19;38
S15;11EP010H19;8
S27000;11EP010H19;7
S28000;11EP010H19;8
S15;11GE075I20;9
S27000;11GE075I20;3
S28000;11GE075I20;11
S15;11PM100SH19;7
S27000;11PM100SH19;5
S28000;11PM100SH19;2
S15;15BA500L16A;15
S27000;15BA500L16A;7
S28000;15BA500L16A;12
S15;15KTVER21;26
S27000;15KTVER21;21
S28000;15KTVER21;25
S15;15MA030VA5;16
S27000;15MA030VA5;8
S28000;15MA030VA5;13
S15;15MA075L11;12
S27000;15MA075L11;16
S28000;15MA075L11;20
S15;17SH075E19;20
S28000;17SH075E19;3
S15;18ET090TL17;4
S27000;18ET090TL17;6
S28000;18ET090TL17;3
S15;18LC250TL17ET;18
S27000;18LC250TL17ET;14
S28000;18LC250TL17ET;15
S15;20DO075CD20;15
S27000;20DO075CD20;8
S28000;20DO075CD20;10
S15;24GD500R19;15
S28000;24LC250RJ21H;21
S15;27DF125I17;18
S27000;27DF125I17;18
S28000;27DF125I17;34
S15;27ER050I21;13
S27000;27ER050I21;17
S28000;27ER050I21;19
S15;29HD500A15;46
S27000;29HD500A15;20
S28000;29HD500A15;42
S15;29SE125A21;12
S27000;29SE125A21;8
S28000;29SE125A21;16
S15;49CAB1NO21;61
S27000;49CAB1NO21;26
S28000;49CAB1NO21;12
S15;01BM050K19;13
S27000;01BM050K19;4
S28000;01BM050K19;13
S15;01MA030C21H;70
S27000;01MA030C21H;44
S28000;01MA030C21H;68
S15;01MA030K21H;44
S27000;01MA030K21H;48
S28000;01MA030K21H;53
S15;01SA050KV20;12
S27000;01SA050KV20;9
S28000;01SA050KV20;13
S15;11SA100H19;12
S27000;11SA100H19;6
S28000;11SA100H19;13
S15;11SP200SL19;11
S27000;11SP200SL19;6
S28000;11SP200SL19;8
S15;15CP250VA5;6
S27000;15CP250VA5;8
S28000;15CP250VA5;1
S15;15GM065VB20;19
S27000;15GM065VB20;19
S28000;15GM065VB20;31
S15;15RG500VA20;16
S15;20GD250HC20;19
S27000;20GD250HC20;10
S28000;20GD250HC20;11
S15;24BR050R19;12
S27000;24BR050R19;7
S28000;24BR050R19;13
S15;24GD250CB4;15
S27000;24GD250CB4;16
S28000;24GD250CB4;25
S15;24LC250CB4;18
S27000;24LC250CB4;12
S28000;24LC250CB4;20
S15;27DE015I21;10
S27000;27DE015I21;5
S28000;27DE015I21;12
S15;27ER150I21;30
S27000;27ER150I21;15
S28000;27ER150I21;44
S15;27EV200I19;11
S27000;27EV200I19;5
S28000;27EV200I19;15
S15;29GE200A21;20
S27000;29GE200A21;15
S28000;29GE200A21;18
S15;29MA030A17;29
S27000;29MA030A17;20
S28000;29MA030A17;35
S15;38MI150A18;8
S27000;38MI150A18;5
S28000;38MI150A18;8
S15;38UV030A18;11
S27000;38UV030A18;5
S28000;38UV030A18;12
S15;49DISC3NO21;116
S27000;49DISC3NO21;56
S28000;49DISC3NO21;45
S15;01EM075K20;8
S27000;01EM075K20;5
S28000;01EM075K20;8
S15;01KTKAR21;20
S27000;01KTKAR21;13
S28000;01KTKAR21;16
S15;01MA150K21H;21
S27000;01MA150K21H;10
S28000;01MA150K21H;17
S15;11BG140CS19;22
S27000;11BG140CS19;7
S28000;11BG140CS19;16
S15;11LD200I19;12
S27000;11LD200I19;7
S28000;11LD200I19;17
S15;11SD100CS19;15
S27000;11SD100CS19;8
S28000;11SD100CS19;19
S15;11SV080I19;7
S27000;11SV080I19;7
S28000;11SV080I19;7
S15;15ET100VB3;6
S27000;15ET100VB3;6
S28000;15ET100VB3;12
S15;17RC500E20;21
S27000;17RC500E20;15
S28000;17RC500E20;17
S15;17SE100FV21;15
S27000;17SE100FV21;6
S28000;17SE100FV21;19
S15;20SA050CD20;8
S27000;20SA050CD20;5
S28000;20SA050CD20;7
S15;24LC250R20;14
S27000;24LC250R20;12
S28000;24LC250R20;23
S15;24RO010R18;7
S27000;24RO010R18;6
S28000;24RO010R18;11
S15;27ER015I20;17
S27000;27ER015I20;16
S28000;27ER015I20;32
S15;27MI150I20;8
S27000;27MI150I20;5
S28000;27MI150I20;7
S15;27TS001I20;210
S27000;27TS001I20;116
S28000;27TS001I20;258
S15;29HD250A15;21
S27000;29HD250A15;16
S28000;29HD250A15;32
S15;38WC050A21;13
S27000;38WC050A21;5
S28000;38WC050A21;13
S15;49ETKAR21;7
S27000;49ETKAR21;5
S15;49ETVER21;7
S27000;49ETVER21;5
S15;01CD250F21H;15
S27000;01CD250F21H;9
S28000;01CD250F21H;11
S15;01CMR500K20;16
S27000;01CMR500K20;2
S28000;01CMR500K20;4
S15;01CV050K18;5
S27000;01CV050K18;5
S28000;01CV050K18;12
S15;01HDR500K20;19
S27000;01HDR500K20;8
S28000;01HDR500K20;16
S15;11CD050A18;8
S27000;11CD050A18;5
S28000;11CD050A18;8
S27000;15ET100VA5;1
S15;15GM065L20;26
S27000;15GM065L20;16
S28000;15GM065L20;28
S15;15MA030VB3;20
S27000;15MA030VB3;10
S28000;15MA030VB3;17
S15;15SH250VA20;14
S27000;15SH250VA20;5
S28000;15SH250VA20;11
S15;17CS150P19;32
S27000;17CS150P19;44
S28000;17CS150P19;2
S15;17SH300E19;16
S27000;17SH300E19;9
S28000;17SH300E19;17
S15;17SH300G21;15
S27000;17SH300G21;12
S28000;17SH300G21;16
S15;24BL012CB5;12
S27000;24BL012CB5;6
S28000;24BL012CB5;16
S15;27CP050I19;14
S27000;27CP050I19;8
S28000;27CP050I19;19
S15;27HCR050I16;6
S27000;27HCR050I16;5
S28000;27HCR050I16;6
S15;27OR075I21;37
S27000;27OR075I21;14
S28000;27OR075I21;37
S15;29LC200A21X;46
S27000;29LC200A21X;30
S28000;29LC200A21X;44
S15;38EV075A18;10
S27000;38EV075A18;10
S28000;38EV075A18;13
S15;49BO015CS19;18
S27000;49BO015CS19;10
S28000;49BO015CS19;9
S15;49SH035E20;9
S15;49SH035E21;10
S27000;49SH035E21;10
S28000;49SH035E21;20
S15;01RL500K20;11
S27000;01RL500K20;5
S28000;01RL500K20;21
S15;10QCRAC21;100
S27000;10QCRAC21;69
S28000;10QCRAC21;103
S15;11CF100TR19;20
S27000;11CF100TR19;14
S28000;11CF100TR19;18
S15;11CM030H20;23
S27000;11CM030H20;19
S28000;11CM030H20;36
S15;11ET075O21;11
S27000;11ET075O21;9
S28000;11ET075O21;10
S15;11FAG10TR19;12
S27000;11FAG10TR19;6
S28000;11FAG10TR19;14
S15;11LC250H19;12
S27000;11LC250H19;9
S28000;11LC250H19;14
S15;11MH075A19;7
S27000;11MH075A19;4
S28000;11MH075A19;6
S15;11SD100SL19;15
S27000;11SD100SL19;8
S28000;11SD100SL19;13
S15;15GD250VA20;10
S27000;15GD250VA20;12
S28000;15GD250VA20;15
S15;15RG500L14;30
S27000;15RG500L14;10
S28000;15RG500L14;21
S15;17RC500G21;43
S27000;17RC500G21;17
S28000;17RC500G21;27
S15;17SH060SE21;10
S27000;17SH060SE21;9
S28000;17SH060SE21;10
S15;17SH500E19;25
S27000;17SH500E19;8
S28000;17SH500E19;31
S15;20SA050HC20;7
S27000;20SA050HC20;5
S28000;20SA050HC20;8
S28000;24GD250RJ21H;7
S28000;24MA030RV19;14
S15;27BP050I19;11
S27000;27BP050I19;4
S15;29HD250A21X;59
S27000;29HD250A21X;48
S28000;29HD250A21X;55
S15;29MA075A21;23
S27000;29MA075A21;16
S28000;29MA075A21;17
S15;38FT200A21;12
S27000;38FT200A21;6
S28000;38FT200A21;15
S15;38WM065A18;8
S27000;38WM065A18;4
S28000;38WM065A18;5
S15;01BL012C21H;55
S27000;01BL012C21H;24
S28000;01BL012C21H;52
S15;01BL012F21H;17
S27000;01BL012F21H;14
S28000;01BL012F21H;16
S15;01BM150K19;17
S27000;01BM150K19;8
S28000;01BM150K19;11
S15;01CL200F21H;23
S27000;01CL200F21H;18
S28000;01CL200F21H;22
S15;01HF100K17;6
S27000;01HF100K17;3
S28000;01HF100K17;3
S15;11BG140SH19;13
S27000;11BG140SH19;8
S15;11EP050H19;6
S27000;11EP050H19;1
S28000;11EP050H19;1
S27000;11EP090H19;3
S15;11GD250O21;35
S27000;11GD250O21;18
S28000;11GD250O21;39
S15;11SA050O21;12
S27000;11SA050O21;11
S28000;11SA050O21;14
S15;17AS500FV21;12
S27000;17AS500FV21;8
S28000;17AS500FV21;15
S15;17SH300FV21;15
S27000;17SH300FV21;9
S28000;17SH300FV21;17
S15;20FE050H20;7
S27000;20FE050H20;4
S28000;20FE050H20;6
S15;20GD250OC20;13
S27000;20GD250OC20;9
S28000;20GD250OC20;18
S15;20HR050H20;7
S27000;20HR050H20;4
S28000;20HR050H20;7
S15;24AF050R18;5
S27000;24AF050R18;5
S28000;24AF050R18;6
S15;24SA050CB6;13
S27000;24SA050CB6;8
S28000;24SA050CB6;16
S28000;27BP050I19;13
S15;27DH015I20;14
S27000;27DH015I20;13
S28000;27DH015I20;15
S15;29MAV075A19;5
S27000;29MAV075A19;6
S28000;29MAV075A19;13
S15;38BV050A19;8
S27000;38BV050A19;2
S28000;38BV050A19;9
S15;52BGERIB18;1
S27000;52BGERIB18;3
S28000;52BGERIB18;1
S15;01BL012K21H;35
S27000;01BL012K21H;16
S28000;01BL012K21H;36
S15;01CL300KB20;10
S27000;01CL300KB20;8
S28000;01CL300KB20;12
S15;01LC500K20;16
S27000;01LC500K20;10
S28000;01LC500K20;18
S24000;01CD250F21H;13
S90000;01CL200K21;1
S24000;01CMR500K20;12
S24000;01CV050K18;10
S90000;01EM075K18;1
S90000;01EN300KB19;152
S24000;01HDR500K20;7
S24000;11CD050A18;7
S24000;15ET100VA5;1
S90000;15ET100VA5;1
S90000;15GD250VCL21;6
S24000;15GM065L20;11
S24000;15MA030VB3;16
S90000;15MA030VB3;15
S24000;15SH250VA20;10
S90000;17AS075E19;73
S90000;17AS075P19;109
S24000;17CS150P19;32
S90000;17CS150P19;13
S24000;17SH300E19;13
S90000;17SH300E19;40
S24000;17SH300G21;11
S90000;17SH300G21;33
S24000;24BL012CB5;5
S24000;27CP050I19;10
S90000;27DH030I17A;1
S24000;27HCR050I16;6
S90000;27HCR050I16;3
S24000;27OR075I21;11
S24000;29LC200A21X;28
S24000;38EV075A18;10
S24000;49BO015CS19;11
S90000;49CP020K18;86
S90000;49DC008I20;17
S90000;49ET007CB4;45
S90000;49MA010R18;142
S90000;49PFCWC21;90
S90000;49SH035E20;34
S24000;49SH035E21;10
S90000;49SH035E21;160
S90000;52COTLTM19;4
S24000;52DB001I20;159
S90000;52DB001I20;157
S24000;01CMJ075K21;21
S24000;01HN0075K19;10
S24000;01LC250F21H;11
S24000;01MA075K18;28
S24000;01MF150F21H;13
S24000;11CM030O21;28
S90000;11LC050H19;30
S90000;11LC050H20;18
S24000;11SP200SH19;7
S24000;15GD500VB17;5
S15;01LT300K20;18
S27000;01LT300K20;7
S28000;01LT300K20;17
S15;01RC300KB20;4
S27000;01RC300KB20;6
S15;01SA100LT20;16
S27000;01SA100LT20;8
S15;01SL300VE20;9
S27000;01SL300VE20;8
S28000;01SL300VE20;4
S15;11BC100G21;43
S27000;11BC100G21;47
S28000;11BC100G21;38
S15;11CM125I19;14
S27000;11CM125I19;9
S28000;11CM125I19;12
S15;11SA100H20;13
S27000;11SA100H20;5
S28000;11SA100H20;17
S15;15ETVER21;147
S27000;15ETVER21;87
S28000;15ETVER21;158
S15;17AS500G21;14
S27000;17AS500G21;11
S28000;17AS500G21;17
S15;17RS500P19;39
S27000;17RS500P19;11
S28000;17RS500P19;27
S15;18ET050TL17;6
S27000;18ET050TL17;4
S15;24MA075P15;11
S27000;24MA075P15;8
S28000;24MA075P15;12
S15;27HSR030I16;6
S27000;27HSR030I16;6
S28000;27HSR030I16;8
S15;38EC015A18;6
S27000;38EC015A18;8
S28000;38EC015A18;5
S27000;38ST016A18;5
S28000;38ST016A18;2
S15;49CHALM21;7
S27000;49CHALM21;5
S15;49CHCHB21;7
S27000;49CHCHB21;5
S28000;49MS008I20;86
S15;52BY001I19;87
S27000;52BY001I19;242
S28000;52BY001I19;344
S15;52CV0015K18;105
S27000;52CV0015K18;190
S15;27OR050I21;34
S27000;27OR050I21;33
S20;01CD250F21H;26
S20;01CMR500K20;22
S20;01CV050K18;2
S20;01HDR500K20;8
S20;11CD050A18;5
S20;15GM065L20;39
S20;15MA030VB3;25
S20;15SH250VA20;15
S20;17CS150P19;35
S20;17SH300E19;15
S20;17SH300G21;13
S20;24BL012CB5;12
S20;27CP050I19;10
S20;27HCR050I16;5
S20;27OR075I21;48
S20;29LC200A21X;29
S20;38EV075A18;5
S20;49BO015CS19;7
S20;49SH035E21;5
S20;52DB001I20;104
S20;01CMJ075K21;21
S20;01HN0075K19;12
S20;01LC250F21H;7
S20;01MA075K18;39
S20;01MF150F21H;28
S20;11CM030O21;34
S20;11SP200SH19;8
S20;15GD500VB17;16
S20;15LC250VA5;4
S20;15MA075VB4;25
S20;17AS250E19;9
S20;17AS250P19;7
S20;17RS500FV21;21
S20;17SH060SG21;7
S20;17SH500P19;12
S20;20ET075OC20;7
S20;20SA050O20;13
S20;24MA030P15;18
S20;27BY015I19;6
S20;27DC030I20;9
S20;27DH030I20;19
S20;27OR050I21;25
S20;29HD500A21X;51
S20;52ACRAC21;3
S20;52AF006G20;94
S20;52LABANO21;46
S20;52MMBBNO21;69
S20;52SGEBAG19;158
S20;01LC250K17;22
S20;01MA150K18;33
S20;01SA100LV20;15
S20;01SB020K21;20
S20;01SL300LV20;10
S20;11EH150A18;8
S20;11SP200SI19;9
S29000;01CMJ075K21;62
S29000;01HN0075K19;16
S29000;01LC250F21H;4
S29000;01MA075K18;27
S29000;01MF150F21H;7
S29000;11CM030O21;48
S29000;11SP200SH19;14
S29000;15GD500VB17;15
S29000;15MA075VB4;21
S29000;17AS250E19;10
S29000;17AS250P19;3
S29000;17RS500FV21;38
S29000;17SH060SG21;12
S29000;17SH500P19;16
S29000;20ET075OC20;7
S29000;20SA050O20;8
S29000;24MA030P15;17
S29000;27BY015I19;6
S29000;27DC030I20;2
S29000;27DH030I20;21
S29000;27OR050I21;29
S29000;29HD500A21X;70
S29000;52ACRAC21;1
S29000;52AF006G20;232
S29000;52LABANO21;4
S29000;52MMBBNO21;57
S29000;01LC250K17;39
S29000;01MA150K18;21
S29000;01SA100LV20;11
S29000;01SB020K21;17
S29000;01SL300LV20;10
S29000;11EH150A18;7
S29000;11SP200SI19;13
S29000;15AS250VA18;14
S29000;15ET100VA20;4
S29000;15HE005L14;12
S29000;15SE400VB5;4
S29000;17RS500G21;34
S29000;17SH060SP21;9
S29000;17SH300P19;16
S29000;17SH500FV21;16
S29000;18GD250TL17ET;19
S29000;20GD250CD20;15
S29000;24GD500R19;18
S29000;24MA030S6;21
S29000;27DC050I20;12
S29000;27HC050I18;6
S29000;27MP150I20;13
S29000;27MQ065I15A;9
S29000;27SP030I19;6
S29000;29ASH240A20;11
S29000;29EC200A21;11
S10;01CMJ075K21;17
S10;01HN0075K19;8
S10;01LC250F21H;14
S10;01MA075K18;23
S10;01MF150F21H;15
S10;11CM030O21;43
S10;11SP200SH19;8
S10;15GD500VB17;10
S10;15MA075VB4;13
S10;17AS250E19;11
S10;17AS250P19;9
S10;17RS500FV21;17
S10;17SH060SG21;9
S10;17SH500P19;12
S10;20ET075OC20;6
S10;20SA050O20;7
S10;24MA030P15;13
S10;27BY015I19;10
S10;27DC030I20;8
S10;27DH030I20;14
S10;27OR050I21;39
S10;29HD500A21X;53
S10;49GD035CB5;4
S10;52ACRAC21;3
S10;52LABANO21;97
S10;52MMBBNO21;67
S10;52RC0015A18;109
S10;52SGEBAG19;455
S10;01LC250K17;18
S10;01MA150K18;22
S10;01SA100LV20;12
S10;01SB020K21;23
S10;01SL300LV20;8
S10;11EH150A18;4
S10;11GD250O21;15
S10;11SP200SI19;9
S10;15AS250VA18;10
S10;15ET100VA20;2
S10;15HE005L14;4
S10;15SE400VB5;7
S10;17RS500G21;27
S10;17SH060SP21;10
S10;17SH300P19;12
S10;17SH500FV21;15
S10;18GD250TL17ET;14
S10;20GD250CD20;12
S10;24MA030S6;20
S10;27DC050I20;14
S10;27HC050I18;6
S10;27MP150I20;11
S10;27MQ065I15A;7
S10;27SP030I19;11
S10;29ASH240A20;5
S10;29EC200A13;6
S10;29EC200A21;13
S21000;01CMJ075K21;35
S21000;01HN0075K19;10
S21000;01LC250F21H;13
S21000;01MA075K18;19
S21000;01MF150F21H;7
S21000;11CM030O21;33
S21000;11SP200SH19;5
S21000;15GD500VB17;8
S21000;15LC250VA5;2
S21000;15MA075VB4;14
S21000;17AS250E19;5
S21000;17AS250P19;7
S21000;17RS500FV21;35
S21000;17SH060SG21;7
S21000;17SH500P19;11
S21000;20ET075OC20;3
S21000;24MA030P15;14
S21000;27BY015I19;5
S21000;27DC030I20;7
S21000;27DH030I20;11
S21000;27OR050I21;54
S21000;29HD500A21X;53
S21000;49GD035CB5;36
S21000;52ACRAC21;2
S21000;52AF006G20;165
S21000;52LABANO21;91
S21000;52MMBBNO21;75
S21000;52SGEBAG19;543
S21000;01LC250K17;15
S21000;01MA150K18;13
S21000;01SA100LV20;9
S21000;01SB020K21;16
S21000;01SL300LV20;8
S21000;11EH150A18;7
S21000;11SP200SI19;6
S21000;15AS250VA18;5
S21000;15ET100VA20;4
S21000;15HE005L14;6
S21000;15SE400VB5;3
S21000;17RS500G21;45
S21000;17SH060SP21;2
S21000;17SH300P19;12
S21000;17SH500FV21;14
S21000;18GD250TL17ET;10
S21000;20GD250CD20;12
S21000;24GD500R19;10
S21000;24MA030S6;13
S21000;27DC050I20;8
S21000;27HC050I18;5
S21000;27MP150I20;3
S21000;27MQ065I15A;5
S21000;27SP030I19;6
S21000;29ASH240A20;6
S29000;29EC200A21X;36
S29000;29MA030A21X;77
S29000;49OR005I21;84
S29000;52AS006FV21;91
S29000;52GIF2NO21;2
S29000;52RBO1NO21;1
S29000;52STINO21;6
S29000;01RL500K20;29
S29000;10QCRAC21;97
S29000;11CF100TR19;15
S29000;11CM030H20;20
S29000;11ET075O21;11
S29000;11FAG10TR19;14
S29000;11LC250H19;24
S29000;11MH075A19;8
S29000;11SD100SL19;12
S29000;15GD250VA20;14
S29000;15RG500L14;24
S29000;17RC500G21;29
S29000;17SH060SE21;12
S29000;17SH500E19;21
S29000;20SA050HC20;10
S29000;24MA030RV19;7
S29000;29HD250A21X;58
S29000;29MA075A21;19
S29000;38FT200A21;11
S29000;38WM065A18;9
S29000;52AS006E19;133
S29000;52SMBBNO21;20
S29000;01BL012K21H;21
S29000;01CL300KB20;14
S29000;01LC500K20;23
S29000;01LT300K20;18
S29000;01SA100LT20;12
S29000;01SL300VE20;13
S29000;11BC100G21;36
S29000;11CM125I19;15
S29000;11SA100H20;13
S29000;15ETVER21;85
S29000;15GD075L15;23
S29000;17AS500G21;16
S29000;17RS500P19;23
S29000;18ET050TL17;4
S29000;24MA075P15;19
S29000;27HSR030I16;21
S29000;38EC015A18;10
S29000;38ST016A18;4
S29000;49CHALM21;3
S29000;49CHCHB21;3
S29000;52BY001I19;173
S29000;52CV0015K18;103
S29000;52DC0015I20;220
S29000;52HS001I17;69
S20;15AS250VA18;8
S20;15ET100VA20;6
S20;15HE005L14;12
S20;15SE400VB5;9
S20;17RS500G21;26
S20;17SH060SP21;9
S20;17SH300P19;12
S20;17SH500FV21;14
S20;18GD250TL17ET;28
S20;20GD250CD20;14
S20;24GD500R19;17
S20;24GP010RJ21H;36
S20;24MA030S6;18
S20;27DC050I20;12
S20;27HC050I18;9
S20;27MP150I20;12
S20;27MQ065I15A;5
S20;27SP030I19;10
S20;29ASH240A20;3
S20;29EC200A21;13
S20;29EC200A21X;30
S20;29MA030A21X;59
S20;49OR005I21;129
S20;52GIF2NO21;3
S20;52RBO1NO21;5
S20;52STINO21;6
S20;01RL500K20;17
S20;10QCRAC21;76
S20;11CF100TR19;24
S20;11CM030H20;31
S20;11ET075O21;13
S20;11FAG10TR19;9
S20;11LC250H19;14
S20;11MH075A19;7
S20;11SD100SL19;13
S20;15GD250VA20;19
S20;15RG500L14;18
S20;17RC500G21;20
S20;17SH060SE21;8
S20;17SH500E19;17
S20;20SA050HC20;16
S20;24GD250RJ21H;26
S20;27BP050I19;7
S20;29HD250A21X;47
S20;29MA075A21;24
S20;38FT200A21;8
S20;38WM065A18;5
S20;52AS006E19;70
S20;52MMBANO21;340
S20;52SMBBNO21;46
S20;01BL012K21H;16
S20;01CL300KB20;12
S20;01LC500K20;9
S20;01LT300K20;13
S20;01SA100LT20;18
S20;01SL300VE20;11
S20;11BC100G21;39
S20;11CM125I19;14
S20;11SA100H20;10
S20;15ETVER21;81
S20;17AS500G21;12
S20;17RS500P19;13
S20;18ET050TL17;5
S20;24MA075P15;22
S20;27HSR030I16;8
S20;38EC015A18;4
S20;49CHALM21;7
S20;49CHCHB21;7
S20;52BY001I19;148
S20;52CV0015K18;109
S20;52DC0015I20;284
S20;52HS001I17;115
S20;52HS004A18;229
S20;52MMBYNO21;43
S20;52SH006E19;218
S20;52SMBANO21;231
S20;01BP050K21;9
S20;01CL050K21;6
S20;01CM500K20;15
S20;01HN075C21H;2
S20;01HN075K21H;3
S20;01PI030K18;8
S20;01SA250LT20;22
S20;11BG140SL19;14
S20;11CM030H19;28
S20;11ET050H20;10
S20;11GN195A18;14
S20;11LH200I19;12
S20;11PM100SL19;11
S20;11SP200CS19;12
S20;15GD250L14;16
S20;17MC200G21;7
S20;17SH075G21;11
S20;18BI030TL17ET;30
S20;20NV150H20;15
S20;24MA030RA19;13
S20;27DB015I20;11
S20;29BP100A19;9
S20;49LC020A20;80
S20;52DCRAC21;3
S20;52LASANO21;193
S20;52MMBPNO21;65
S20;52OR001I21;299
S20;01CL125C21H;13
S20;01LC250K21H;24
S20;01RV500K20;29
S20;15MA030VCL21;20
S20;17AS250G21;17
S20;52MGENSA21;138
S28000;27OR050I21;46
S15;29HD500A21X;60
S27000;29HD500A21X;47
S28000;29HD500A21X;71
S15;52ACRAC21;2
S27000;52ACRAC21;2
S15;52AF006G20;108
S27000;52AF006G20;188
S28000;52AF006G20;243
S15;52LABANO21;31
S27000;52LABANO21;108
S15;52MMBBNO21;98
S27000;52MMBBNO21;60
S28000;52MMBBNO21;116
S15;52SGEBAG19;473
S27000;52SGEBAG19;260
S28000;52SGEBAG19;264
S28000;52CV0015K18;166
S15;52DC0015I20;144
S27000;52DC0015I20;529
S28000;52DC0015I20;443
S15;52HS001I17;81
S27000;52HS001I17;172
S28000;52HS001I17;216
S15;52HS004A18;4
S27000;52HS004A18;120
S28000;52HS004A18;364
S15;52LT002R21;197
S27000;52LT002R21;342
S28000;52LT002R21;256
S15;52MA003K16A;292
S27000;52MA003K16A;162
S28000;52MA003K16A;297
S15;52MGEBOX18;59
S27000;52MGEBOX18;36
S28000;52MGEBOX18;56
S15;52MGENSA21;81
S27000;52MGENSA21;65
S28000;52MGENSA21;87
S15;52MMBYNO21;109
S27000;52MMBYNO21;39
S28000;52MMBYNO21;103
S15;52SH006E19;167
S27000;52SH006E19;207
S28000;52SH006E19;371
S15;52SMBANO21;391
S27000;52SMBANO21;494
S28000;52SMBANO21;188
S15;SGOCVKI00175;68
S27000;SGOCVKI00175;14
S28000;SGOCVKI00175;58
S15;SGOCVKI00176;42
S27000;SGOCVKI00176;24
S29000;52HS004A18;184
S29000;52LT002R21;82
S29000;52MA003K16A;191
S29000;52MGEBOX18;59
S29000;52MMBYNO21;52
S29000;52SH006E19;227
S29000;01BP050K21;17
S29000;01CL050K21;16
S29000;01CM500K20;14
S29000;01HN075C21H;13
S29000;01HN075K21H;13
S29000;01PI030K18;8
S29000;01SA250LT20;22
S29000;11BG140SL19;11
S29000;11CM030H19;19
S29000;11ET050H20;6
S29000;11GN195A18;15
S29000;11LH200I19;22
S29000;11PM100SL19;8
S29000;11SP200CS19;19
S29000;15GD250L14;9
S29000;17MC200G21;24
S29000;17SH075G21;11
S29000;18BI030TL17ET;26
S29000;20NV150H20;13
S29000;24MA030RA19;13
S29000;27DB015I20;15
S29000;29BP100A19;11
S29000;49LC020A20;44
S29000;52DCRAC21;1
S29000;52LASANO21;360
S29000;52MMBPNO21;60
S29000;52OR001I21;289
S29000;01CD250F21H;7
S29000;01CMR500K20;38
S29000;01CV050K18;12
S29000;01HDR500K20;17
S29000;11CD050A18;10
S29000;SGOCVKI00202;121
S29000;SGOCVKI00200;18
S29000;SGOCVKI00199;17
S29000;SGOCVKI00198;18
S29000;SGOCVKI00197;8
S29000;SGOCVKI00196;1
S29000;SGOCVKI00195;13
S29000;SGOCVKI00194;12
S29000;SGOCVKI00193;6
S29000;SGOCVKI00192;18
S29000;SGOCVKI00191;22
S29000;SGOCVKI00190;25
S29000;SGOCVKI00189;44
S29000;SGOCVKI00188;16
S24000;15MA075VB4;13
S90000;15MA075VB4;15
S24000;17AS250E19;4
S24000;17AS250P19;5
S90000;17AS250P19;20
S90000;17AS500G18;74
S24000;17RS500FV21;11
S24000;17SH060SG21;10
S90000;17SH060SG21;7
S24000;17SH500P19;12
S90000;18GD050TL17ET;6
S24000;20ET075OC20;5
S24000;20SA050O20;6
S90000;20SA050O20;1
S90000;24GM030C21;9
S24000;24MA030P15;14
S90000;24MA030P15;22
S24000;27BY015I19;11
S24000;27DC030I20;8
S24000;27DH030I20;14
S24000;27OR050I21;29
S24000;29HD500A21X;50
S90000;38WC050A18;35
S90000;49BI010TL17;87
S90000;49BP010K19;20
S90000;49CM010O21;101
S90000;49P2DTS19;14
S90000;49PADCL20;101
S90000;49POU2VE20;9
S90000;49POUM20;125
S90000;49POUM21;72
S90000;49TOTWC21;192
S90000;49TRSOL15;16
S24000;52ACRAC21;3
S24000;52AF006G20;115
S90000;52AF006G20;100
S90000;52DL002I17;100
S24000;52LABANO21;75
S24000;52MMBBNO21;73
S24000;52RC0015A18;3
S24000;52SGEBAG19;196
S90000;J6185;13
S90000;JIMPN16;141
S90000;SGOCVKI00137;1
S90000;SGOCVKI00138;2
S90000;SGOCVKI00157;5
S24000;01BL012K21H;16
S24000;01CL300KB20;7
S24000;01LC500K20;9
S24000;01LT300K20;18
S24000;01RC300KB20;5
S24000;01SA100LT20;11
S90000;01SA100LT20;3
SLM001;01CMR500K20;27
SLM001;01HDR500K20;20
SLM001;11CD050A18;10
SLM001;15GM065L20;35
SLM001;15MA030VB3;13
SLM001;17AS075E19;146
SLM001;17AS075P19;22
SLM001;17SH300E19;31
SLM001;17SH300G21;18
SLM001;24BL012CB5;13
SLM001;27CP050I19;15
SLM001;49BO015CS19;33
SLM001;49CP020K18;14
SLM001;49SH035E20;67
SLM001;01MA075K18;22
SLM001;15LC250VA5;8
SLM001;17AS250E19;32
SLM001;17AS250P19;12
SLM001;17AS500G18;24
SLM001;17RS500FV21;21
SLM001;17SH060SG21;31
SLM001;17SH500P19;103
SLM001;24MA030P15;27
SLM001;27DC030I20;10
SLM001;27DH030I20;11
SLM001;49GD008A18;41
SLM001;49GD035CB5;346
SLM001;49MA010A17;160
SLM001;52DL002I17;9
SLM001;52MMBBNO20;83
SLM001;J6185;269
SLM001;JIMCP16;119
SLM001;01LC250K17;32
SLM001;01MA150K18;44
SLM001;01SL300LV20;14
SLM001;17MC200G18;14
SLM001;17RS500G21;36
SLM001;17SH060SP21;36
SLM001;17SH300G18;13
SLM001;17SH300P19;29
SLM001;17SH500FV21;101
SLM001;20GD250CD20;7
SLM001;24GD075CB5;40
SLM001;24MA030S6;20
SLM001;27MP150I20;22
SLM001;27SP030I19;14
SLM001;29ASH075A20;35
SLM001;29ASH240A20;19
SLM001;29EC200A13;21
SLM001;49CP004I19;55
SLM001;52AS006FV21;264
SLM001;SGOCVE700011;60
SLM001;SGOCVE700013;6
S29000;SGOCVKI00187;58
S29000;SGOCVKI00186;29
S29000;SGOCVKI00185;23
S29000;SGOCVKI00184;30
S29000;SGOCVKI00183;73
S29000;SGOCVKI00182;41
S29000;SGOCVKI00181;61
S29000;SGOCVKI00180;28
S29000;SGOCVKI00179;37
S29000;SGOCVKI00178;4
S29000;SGOCVKI00177;111
S29000;SGOCVKI00176;12
S29000;SGOCVKI00175;24
S29000;15GM065L20;21
S29000;15MA030VB3;17
S29000;15SH250VA20;13
S29000;17CS150P19;23
S29000;17SH300E19;15
S29000;17SH300G21;16
S29000;24BL012CB5;12
S29000;27CP050I19;14
S29000;27HCR050I16;13
S29000;27OR075I21;29
S29000;29LC200A21X;44
S29000;38EV075A18;20
S29000;52DB001I20;194
S29000;01LC250K21H;24
S29000;01RV500K20;30
S29000;15MA030VCL21;32
S29000;17AS250G21;17
S29000;17ER075P19;18
S29000;17RS500E20;37
S29000;24ET050R18;6
S29000;24MA030CB4;28
S29000;24RO010CB4;10
S29000;27DCB060I17;4
S29000;27DS030I20;5
S29000;29LC200A20US;25
S29000;29RH500A15;56
S29000;29VC240A16;17
S29000;52CARDNO21;8
S29000;52CL0015K18;6
S29000;52CL0015K21;208
S29000;52HV001K18;20
S29000;52SH006FV21;236
S29000;01BV050K16;16
S29000;01HD250K17;18
S29000;01MF030F21H;52
S29000;01PI075K18;16
S29000;01SA250VE20;20
S29000;11ET010O21;10
S29000;11LT300I20;16
S10;29EC200A21X;29
S10;29MA030A21X;79
S10;49OR005I21;139
S10;52GIF2NO21;3
S10;52MIBANO21;352
S10;52RBO1NO21;4
S10;52STINO21;6
S10;SGOCVE600004;1
S10;01RL500K20;8
S10;10QCRAC21;82
S10;11CF100TR19;14
S10;11CM030H20;22
S10;11ET075O21;8
S10;11FAG10TR19;10
S10;11LC250H19;13
S10;11MH075A19;6
S10;11SD100SL19;10
S10;15GD250VA20;10
S10;15RG500L14;10
S10;17RC500G21;11
S10;17SH060SE21;10
S10;17SH500E19;19
S10;20SA050HC20;7
S10;24GC150C21;4
S10;27BP050I19;3
S10;29HD250A21X;47
S10;29MA075A21;17
S10;38FT200A21;7
S10;38WM065A18;4
S10;52AS006E19;162
S10;52HF004K17;1
S10;52MMBANO21;390
S10;52SMBBNO21;60
S10;98BBHD050A0;44
S10;01BL012K21H;21
S10;01CL300KB20;8
S10;01LC500K20;13
S10;01LT300K20;11
S10;01SA100LT20;17
S10;01SL300VE20;8
S10;11BC100G21;53
S10;11CM125I19;12
S10;11SA100H20;12
S10;15ETVER21;70
S10;17AS500G21;9
S10;17RS500P19;15
S10;18ET050TL17;5
S10;24MA075P15;10
S10;24MA075R18;16
S10;27HSR030I16;6
S10;38EC015A18;6
S10;38ST016A18;1
S10;49CHALM21;7
S10;49CHCHB21;7
S10;49MS008I20;54
S21000;29EC200A13;5
S21000;29EC200A21;13
S21000;29EC200A21X;30
S21000;29MA030A21X;59
S21000;49OR005I21;81
S21000;52GIF2NO21;3
S21000;52MIBANO21;344
S21000;52RBO1NO21;2
S21000;52STINO21;6
S21000;01RL500K20;21
S21000;10QCRAC21;69
S21000;11CF100TR19;11
S21000;11CM030H20;20
S21000;11ET075O21;6
S21000;11FAG10TR19;10
S21000;11LC250H19;12
S21000;11MH075A19;4
S21000;11SD100SL19;10
S21000;15GD250VA20;14
S21000;15RG500L14;22
S21000;17RC500G21;26
S21000;17SH060SE21;1
S21000;17SH500E19;4
S21000;27BP050I19;5
S21000;29HD250A21X;47
S21000;29MA075A21;11
S21000;38FT200A21;11
S21000;38WM065A18;6
S21000;52AS006E19;125
S21000;52MMBANO21;371
S21000;52SMBBNO21;46
S21000;98BBHD050A0;28
S21000;01BL012K21H;20
S21000;01CL300KB20;10
S21000;01LC500K20;10
S21000;01LT300K20;10
S21000;01RC300KB20;3
S21000;01SA100LT20;8
S21000;01SL300VE20;6
S21000;11BC100G21;50
S21000;11CM125I19;4
S21000;11SA100H20;10
S21000;15ETVER21;87
S21000;17AS500G21;14
S21000;17RS500P19;22
S21000;18ET050TL17;6
S21000;24MA075P15;9
S21000;27HSR030I16;4
S21000;38EC015A18;5
S21000;49CHALM21;6
S21000;49CHCHB21;6
S21000;49MS008I20;49
S21000;52BY001I19;166
S20;52MGEBOX18;40
S20;52MA003K16A;243
S20;52LT002R21;114
S20;52MIBANO21;345
S20;SGOCVKI00202;63
S20;SGOCVKI00200;30
S20;SGOCVKI00199;21
S20;SGOCVKI00198;12
S20;SGOCVKI00197;8
S20;SGOCVKI00196;9
S20;SGOCVKI00195;11
S20;SGOCVKI00194;10
S20;SGOCVKI00193;17
S20;SGOCVKI00192;15
S20;SGOCVKI00191;17
S20;SGOCVKI00190;25
S20;SGOCVKI00189;24
S20;SGOCVKI00188;15
S20;SGOCVKI00187;35
S20;SGOCVKI00186;18
S20;SGOCVKI00185;19
S20;SGOCVKI00184;23
S20;SGOCVKI00183;56
S20;SGOCVKI00182;24
S20;SGOCVKI00181;52
S20;SGOCVKI00180;15
S20;SGOCVKI00179;37
S20;SGOCVKI00178;14
S20;SGOCVKI00177;89
S20;SGOCVKI00176;25
S20;SGOCVKI00175;59
S20;98BBMA010KA3;5
S20;98BBHD050A0;4
S20;17ER075P19;8
S20;17RS500E20;22
S20;24ET050R18;6
S20;24MA030CB4;36
S20;24RO010CB4;8
S20;27DCB060I17;7
S20;27DS030I20;7
S20;29LC200A20US;26
S20;29RH500A15;17
S20;29VC240A16;12
S20;52CARDNO21;4
S20;52CL0015K18;30
S20;52CL0015K21;100
S20;52HV001K18;38
S20;52SH006FV21;221
S20;52SMBPNO21;51
S20;01BV050K16;9
S20;01HD250K17;11
S20;01MF030F21H;42
S20;01PI075K18;7
S20;01SA250VE20;19
S28000;SGOCVKI00176;48
S15;SGOCVKI00177;153
S27000;SGOCVKI00177;85
S28000;SGOCVKI00177;131
S15;SGOCVKI00178;45
S27000;SGOCVKI00178;18
S28000;SGOCVKI00178;27
S15;SGOCVKI00179;55
S27000;SGOCVKI00179;33
S28000;SGOCVKI00179;47
S15;SGOCVKI00180;27
S27000;SGOCVKI00180;14
S28000;SGOCVKI00180;28
S15;SGOCVKI00181;110
S27000;SGOCVKI00181;56
S28000;SGOCVKI00181;87
S15;SGOCVKI00182;43
S27000;SGOCVKI00182;23
S28000;SGOCVKI00182;44
S15;SGOCVKI00183;99
S27000;SGOCVKI00183;50
S28000;SGOCVKI00183;96
S15;SGOCVKI00184;39
S27000;SGOCVKI00184;24
S28000;SGOCVKI00184;40
S15;SGOCVKI00185;20
S27000;SGOCVKI00185;16
S27000;27MP150I20;5
S28000;27MP150I20;14
S15;27MQ065I15A;6
S27000;27MQ065I15A;6
S28000;27MQ065I15A;6
S15;27SP030I19;7
S27000;27SP030I19;6
S28000;27SP030I19;6
S15;29ASH240A20;8
S27000;29ASH240A20;6
S28000;29ASH240A20;12
S15;29EC200A21;13
S27000;29EC200A21;9
S28000;29EC200A21;13
S15;29EC200A21X;44
S27000;29EC200A21X;23
S28000;29EC200A21X;46
S15;29MA030A21X;119
S27000;29MA030A21X;49
S28000;29MA030A21X;115
S15;49OR005I21;85
S27000;49OR005I21;121
S28000;49OR005I21;253
S27000;52AS006FV21;155
S28000;52AS006FV21;327
S15;52GIF2NO21;3
SLM001;01RL500K20;27
SLM001;15RG500L14;24
SLM001;17RC500G18;21
SLM001;17RC500G21;36
SLM001;17SH060SE21;36
SLM001;17SH500E19;285
SLM001;27MP050I20;40
SLM001;29MA075A21;17
SLM001;49TOWVE18;26
SLM001;52AS006E19;689
SLM001;01LT300K20;17
SLM001;01SL300VE20;14
SLM001;15MA030VBL21;19
SLM001;17AS500G21;24
SLM001;17RS500P19;23
SLM001;17SH075FV21;120
SLM001;24MA075P15;14
SLM001;49POURS20;17
SLM001;49POURS21;25
SLM001;52BY001I19;117
SLM001;52DC0015I20;27
SLM001;52SH006E19;1200
SLM001;01CM500K20;22
SLM001;01EC200K17;13
SLM001;01PI030K18;10
SLM001;01SA250LT20;43
SLM001;11GN195A18;16
SLM001;15CF150VBL21;15
SLM001;15GD250L14;33
SLM001;17MC200G21;20
SLM001;20NV150H20;8
SLM001;29LC100A20;99
SLM001;49LC020A20;86
SLM001;49MA010K20DTS;52
SLM001;01RV500K20;31
SLM001;17AS250G21;18
SLM001;17ER075P19;13
SLM001;17RS500E20;24
SLM001;24MA030CB4;24
SLM001;27DS030I20;15
SLM001;29LC200A20US;51
SLM001;29MA075A19;7
SLM001;29RH500A15;288
SLM001;49MA010CB4;47
SLM001;49OR005I18;50
SLM001;52SH006FV21;265
SLM001;98BBAS035AR3;230
SLM001;01HD250K17;15
SLM001;01PI075K18;10
SLM001;01SA250VE20;42
SLM001;15LM300L11;31
SLM001;17AS075FV21;80
SLM001;17AS250FV21;26
S29000;11MA030A20;13
S29000;15GM280VB20;12
S29000;15LM300L11;12
S29000;15SA070VB6;17
S29000;17AS250FV21;14
S29000;17DO050F13;19
S29000;17HI100G19;16
S29000;18ET010TL17;10
S29000;20DO130HC20;6
S29000;20MP030H20;2
S29000;24MA030RE19;11
S29000;27HS030I18;6
S29000;27RM300I20;17
S29000;52BCRAC21;1
S29000;52GD0015A18;60
S29000;52MOCOL316;4
S29000;52SH006G21;191
S29000;01CL200K17;13
S29000;01CM300K20;12
S29000;01HV030K16;7
S29000;01MR030K14;19
S29000;01SA050KL20;1
S29000;01SE125K21;7
S29000;11LC250H20;18
S29000;11PM100SI19;8
S29000;15DO050VA5;13
S29000;15ET010VB19;4
S29000;15ETKAR21;46
S29000;15GD250VB17;17
S29000;15LC250VA20;10
S29000;15MA030L11;24
S29000;17AS500E19;14
S29000;17AS500P19;16
S29000;17RC500P19;13
S29000;20AR075O20;17
S29000;20ET075HC20;7
S29000;24EF050R18;3
S29000;24MA150R19;12
S29000;29HS100A21;18
S29000;29RC200A20;50
S29000;49MA010L16;23
S29000;52ER002I21;272
S29000;52LC006A20;209
S29000;52LGEBOX18;5
S29000;01PI150K18;12
S29000;01SL500LV20;13
S29000;11BO100CS19;31
S29000;11EP010H19;12
S29000;11GE075I20;4
S29000;11PM100SH19;11
S29000;15BA500L16A;12
S29000;15KTVER21;24
S29000;15MA030VA5;9
S10;52BY001I19;607
S10;52CV0015K18;123
S10;52DC0015I20;205
S10;52HS001I17;24
S10;52HS004A18;253
S10;52LT002R21;352
S10;52MA003K16A;148
S10;52MGEBOX18;41
S10;52MGENSA18;65
S10;52MGENSA21;120
S10;52MMBYNO21;52
S10;52SH006E19;450
S10;52SMBANO21;409
S10;SGOCVKI00175;38
S10;SGOCVKI00176;23
S10;SGOCVKI00177;97
S10;SGOCVKI00178;23
S10;SGOCVKI00179;31
S10;SGOCVKI00180;15
S10;SGOCVKI00181;61
S10;SGOCVKI00182;23
S10;SGOCVKI00183;54
S10;SGOCVKI00184;24
S10;SGOCVKI00185;20
S10;SGOCVKI00186;18
S10;SGOCVKI00187;31
S10;SGOCVKI00188;13
S10;SGOCVKI00189;27
S10;SGOCVKI00190;23
S10;SGOCVKI00191;15
S10;SGOCVKI00192;16
S10;SGOCVKI00193;17
S10;SGOCVKI00194;10
S10;SGOCVKI00195;9
S10;SGOCVKI00196;11
S10;SGOCVKI00197;7
S10;SGOCVKI00198;11
S10;SGOCVKI00199;22
S10;SGOCVKI00200;35
S10;SGOCVKI00202;65
S10;01BP050K21;12
S10;01CL050K21;7
S10;01CM500K20;5
S10;01HN075C21H;9
S10;01HN075K21H;9
S10;01PI030K18;8
S10;01SA250LT20;10
S10;11BG140SL19;8
S10;11CM030H19;16
S10;11ET050H20;7
S10;11GN195A18;13
S10;11LH200I19;11
S10;11PM100SL19;4
S10;11SP200CS19;13
S21000;52CV0015K18;39
S21000;52DC0015I20;171
S21000;52HS001I17;103
S21000;52HS004A18;227
S21000;52LT002R21;296
S21000;52MA003K16A;278
S21000;52MGEBOX18;49
S21000;52MGENSA21;98
S21000;52MMBYNO21;48
S21000;52SH006E19;172
S21000;52SMBANO21;416
S21000;98BBMA010KA3;52
S21000;SGOCVKI00175;53
S21000;SGOCVKI00176;28
S21000;SGOCVKI00177;92
S21000;SGOCVKI00178;25
S21000;SGOCVKI00179;38
S21000;SGOCVKI00180;16
S21000;SGOCVKI00181;60
S21000;SGOCVKI00182;24
S21000;SGOCVKI00183;57
S21000;SGOCVKI00184;27
S21000;SGOCVKI00185;19
S21000;SGOCVKI00186;15
S21000;SGOCVKI00187;39
S21000;SGOCVKI00188;14
S21000;SGOCVKI00189;25
S21000;SGOCVKI00190;24
S21000;SGOCVKI00191;14
S21000;SGOCVKI00192;17
S21000;SGOCVKI00193;21
S21000;SGOCVKI00194;10
S21000;SGOCVKI00195;10
S21000;SGOCVKI00196;12
S21000;SGOCVKI00197;12
S21000;SGOCVKI00198;12
S21000;SGOCVKI00199;18
S21000;SGOCVKI00200;37
S21000;SGOCVKI00202;62
S21000;01BP050K21;7
S21000;01CL050K21;5
S21000;01CM500K20;9
S21000;01HN075C21H;10
S21000;01HN075K21H;3
S21000;01PI030K18;8
S21000;01SA250LT20;10
S21000;11BG140SL19;8
S21000;11CM030H19;18
S21000;11ET050H20;6
S21000;11GN195A18;12
S21000;11LH200I19;10
S21000;11PM100SL19;4
S20;11ET010O21;13
S20;11LT300I20;9
S20;11MA030A20;10
S20;15GM280VB20;4
S20;15LM300L11;8
S20;15SA070VB6;7
S20;17AS250FV21;7
S20;17DO050F13;18
S20;17HI100G19;8
S20;18ET010TL17;8
S20;20DO130HC20;7
S20;20MP030H20;4
S20;24MA030RE19;13
S20;24MA030RJ21H;56
S20;27HS030I18;8
S20;27RM300I20;18
S20;52BCRAC21;3
S20;52GD0015A18;58
S20;52MOCOL316;3
S20;52SH006G21;175
S20;01CL200K17;8
S20;01CM300K20;11
S20;01HV030K16;4
S20;01MR030K14;28
S20;01SA050KL20;7
S20;01SE125K21;6
S20;11LC250H20;17
S20;11PM100SI19;7
S20;15DO050VA5;14
S20;15ET010VB19;8
S20;15ETKAR21;37
S20;15GD250VB17;27
S20;15LC250VA20;12
S20;15MA030L11;33
S20;17AS500E19;10
S20;17AS500P19;8
S20;17RC500P19;4
S20;20AR075O20;9
S20;20ET075HC20;6
S20;24EF050R18;6
S20;24ET050RJ21H;16
S20;24MA030RV19;14
S20;24MA150R19;15
S20;29HS100A21;23
S20;29RC200A20;32
S20;52ER002I21;363
S20;52LC006A20;280
S20;52LGEBAG19;92
S20;52LGEBOX18;10
S20;52MGEBAG19;137
S20;01PI150K18;16
S20;01SL500LV20;9
S20;11BO100CS19;30
S20;11EP010H19;11
S24000;01SL300VE20;7
S90000;01SL300VE20;8
S24000;11BC100G21;50
S24000;11CM125I19;13
S24000;11SA100H20;7
S90000;11SA100H20;7
S24000;15ETVER21;78
S90000;15GD250VA5;1
S90000;15LC250VBL20;1
S90000;15MA030VAL21;101
S90000;15MA030VBL21;1
S24000;17AS500G21;11
S24000;17RS500P19;19
S90000;17SH075FV21;25
S90000;17SH300D15;25
S90000;18ET050TL17;3
S24000;24MA075P15;13
S90000;24MA075P15;16
S24000;27HSR030I16;6
S90000;27HSR030I16;4
S24000;38EC015A18;6
S90000;38ST016A18;7
S24000;49CHALM21;7
S24000;49CHCHB21;7
S90000;49DH004I17;51
S90000;49HD035K19H;8
S90000;49MS008I20;159
S90000;49PO2RS21;46
S90000;49PO2SA19;44
S90000;49POURS21;212
S90000;49TC1NO20;20
S90000;49TC2NO19;26
S24000;52BY001I19;316
S24000;52CV0015K18;69
S24000;52DC0015I20;194
S24000;52HS001I17;53
S24000;52HS004A18;49
S24000;52LT002R21;75
S90000;52LT002R21;100
S24000;52MA003K16A;151
S90000;52MA003K16A;128
S24000;52MGEBOX18;36
S90000;52MGEBOX18;99
S24000;52MGENSA21;107
S90000;52MMBYNO19;85
S24000;52MMBYNO21;45
S24000;52SH006E19;311
S24000;52SMBANO21;402
S24000;SGOCVKI00175;58
S90000;SGOCVKI00175;198
S24000;SGOCVKI00176;31
S24000;SGOCVKI00177;96
S90000;SGOCVKI00177;144
S27000;52GIF2NO21;3
S28000;52GIF2NO21;3
S15;52MIBANO21;239
S27000;52MIBANO21;468
S28000;52MIBANO21;233
S15;52RBO1NO21;5
S27000;52RBO1NO21;3
S15;52STINO21;6
S27000;52STINO21;6
S28000;52STINO21;6
S15;52AS006E19;95
S27000;52AS006E19;250
S28000;52AS006E19;181
S15;52MMBANO21;323
S27000;52MMBANO21;360
S28000;52MMBANO21;296
S15;52SMBBNO21;94
S27000;52SMBBNO21;56
S28000;52SMBBNO21;87
S15;98BBHD050A0;29
S28000;SGOCVKI00185;22
S15;SGOCVKI00186;24
S27000;SGOCVKI00186;16
S28000;SGOCVKI00186;22
S15;SGOCVKI00187;71
S27000;SGOCVKI00187;36
S28000;SGOCVKI00187;72
S15;SGOCVKI00188;19
S27000;SGOCVKI00188;12
S28000;SGOCVKI00188;18
S15;SGOCVKI00189;58
S27000;SGOCVKI00189;25
S28000;SGOCVKI00189;56
S15;SGOCVKI00190;38
S27000;SGOCVKI00190;25
S28000;SGOCVKI00190;38
S15;SGOCVKI00191;31
S27000;SGOCVKI00191;17
S28000;SGOCVKI00191;29
S15;SGOCVKI00192;19
S27000;SGOCVKI00192;10
S28000;SGOCVKI00192;11
S15;SGOCVKI00193;38
S27000;SGOCVKI00193;18
S28000;SGOCVKI00193;41
S15;SGOCVKI00194;17
S27000;SGOCVKI00194;7
S28000;SGOCVKI00194;18
S15;SGOCVKI00195;13
S27000;SGOCVKI00195;7
S28000;SGOCVKI00195;15
S15;SGOCVKI00196;14
S27000;SGOCVKI00196;8
SLM001;17HI100G19;14
SLM001;18ET010TL17;12
SLM001;20DO130HC20;11
SLM001;27RM300I20;21
SLM001;49BAGVE18;38
SLM001;49LC035CB6;20
SLM001;49PASSSA19;16
SLM001;52MOCOL316;5
SLM001;52SH006G18;333
SLM001;52SH006G21;1200
SLM001;01CM300K20;10
SLM001;01SA050KL20;8
SLM001;15MA030L11;32
SLM001;17AS500E19;20
SLM001;17AS500P19;11
SLM001;17RC500P19;50
SLM001;20AR075O20;9
SLM001;29HS100A21;30
SLM001;29RC200A20;158
SLM001;49MA010L16;68
SLM001;49SACCH19;22
SLM001;52ER002I21;1300
SLM001;52LC006A18;430
SLM001;52LC006A20;720
SLM001;01PI150K18;25
SLM001;01SL500LV20;12
SLM001;15MA030VA5;13
SLM001;15MA075L11;20
SLM001;17SH075E19;26
SLM001;20DO075CD20;7
SLM001;27DF125I17;12
SLM001;27ER050I21;22
SLM001;27OR030I19;84
SLM001;29HD500A15;211
SLM001;29SH075A20;43
SLM001;49CRM1NO19;33
SLM001;49OR005I19;20
SLM001;52DH001I20;616
SLM001;98BBSH035AR2;501
SLM001;01BL012K18;12
SLM001;01SL500VE20;17
SLM001;15LC250L14;16
SLM001;29SH240A20;23
SLM001;49DRASA19;27
SLM001;49HS015A18;23
SLM001;49TBOM21;2
SLM001;52SH006P19;200
SLM001;98BBDF015IM0;58
SLM001;01BM150K19;8
SLM001;17AS250G18;17
SLM001;17AS500FV21;31
SLM001;17SH300FV21;28
SLM001;20FE050H20;8
S29000;15MA075L11;28
S29000;17SH075E19;11
S29000;18LC250TL17ET;16
S29000;20DO075CD20;10
S29000;27DF125I17;22
S29000;27ER050I21;11
S29000;29HD500A15;31
S29000;29SE125A21;14
S29000;49CAB1NO21;78
S29000;49POURE18;40
S29000;52CP0015I19;143
S29000;52DH001I20;289
S29000;52FP0015I19;57
S29000;52RIB1NO21;3
S29000;52RIB2NO21;6
S29000;52SP001I19;109
S29000;01BL012K18;19
S29000;01MA150C21H;7
S29000;01SL500VE20;16
S29000;10KTPWPXM21;18
S29000;11BP100I19;8
S29000;11BR100A20;12
S29000;11ET010H20;9
S29000;11GM200I19;23
S29000;11SD100SH19;15
S29000;15LC250L14;20
S29000;15RG500VA20;30
S29000;17HI001G19;185
S29000;20ET075CD20;5
S29000;24MA075R18;23
S29000;27FP050I19;5
S29000;27OR030I21;23
S29000;29CHALM21;17
S29000;29CHCHB21;44
S29000;29KTAMA21;6
S29000;29SH240A20;14
S29000;38WS030A21;12
S29000;52AS006P19;142
S29000;52EV002I19;105
S29000;52GIF1NO21;2
S29000;52MC006G21;140
S29000;52SH006P19;187
S29000;98BBDF015IM0;11
S29000;01BL012C21H;35
S29000;01BL012F21H;12
S29000;01BM150K19;25
S29000;01CL200F21H;10
S29000;01HF100K17;13
S29000;11EP050H19;6
S29000;11EP090H19;2
S29000;11GD250O21;79
S29000;11SA050O21;8
S29000;17AS500FV21;13
S10;15GD250L14;21
S10;17MC200G21;11
S10;17SH075G21;24
S10;18BI030TL17ET;19
S10;20NV150H20;8
S10;24MA030RA19;7
S10;27DB015I20;11
S10;29BP100A19;6
S10;49LC020A20;171
S10;52DCRAC21;3
S10;52LASANO21;223
S10;52MMBPNO21;67
S10;52OR001I21;555
S10;01CD250F21H;12
S10;01CMR500K20;10
S10;01CV050K18;7
S10;01HDR500K20;5
S10;11CD050A18;6
S10;15ET100VA5;1
S10;15GM065L20;17
S10;15MA030VB3;13
S10;15SH250VA20;6
S10;17AS075P19;8
S10;17CS150P19;38
S10;17SH300E19;13
S10;17SH300G21;22
S10;24BL012CB5;6
S10;27CP050I19;11
S10;27HCR050I16;7
S10;27OR075I21;21
S10;29LC200A21X;29
S10;49BO015CS19;36
S10;49SH035E21;10
S10;52DB001I20;115
S10;01CL125C21H;11
S10;01LC250K21H;23
S10;01RV500K20;8
S10;15MA030VCL21;20
S10;17AS250G21;20
S10;17ER075P19;8
S10;17RS500E20;16
S10;24ET050R18;5
S10;24MA030CB4;18
S10;24RO010CB4;10
S10;27DCB060I17;4
S10;27DS030I20;8
S10;29LC200A20US;25
S10;29RH500A15;30
S10;29VC240A16;11
S10;38EV075A18;6
S10;52CARDNO21;8
S10;52CL0015K18;61
S10;52SH006FV21;230
S10;52SMBPNO21;48
S21000;11SP200CS19;5
S21000;15GD250L14;24
S21000;17MC200G21;12
S21000;17SH075G21;12
S21000;18BI030TL17ET;19
S21000;20NV150H20;11
S21000;24MA030RA19;6
S21000;27DB015I20;6
S21000;29BP100A19;4
S21000;49LC020A20;155
S21000;52DCRAC21;2
S21000;52LASANO21;219
S21000;52MMBPNO21;66
S21000;52OR001I21;935
S21000;01CD250F21H;14
S21000;01CMR500K20;12
S21000;01CV050K18;9
S21000;01EN300KB19;9
S21000;01HDR500K20;11
S21000;11CD050A18;8
S21000;15ET100VA5;1
S21000;15GM065L20;19
S21000;15MA030VB3;12
S21000;15SH250VA20;8
S21000;17CS150P19;17
S21000;17SH300E19;8
S21000;17SH300G21;24
S21000;24BL012CB5;8
S21000;27CP050I19;10
S21000;27HCR050I16;5
S21000;27OR075I21;30
S21000;29LC200A21X;30
S21000;38EV075A18;4
S21000;49BO015CS19;26
S21000;49SH035E21;10
S21000;52DB001I20;167
S21000;01CL125C21H;13
S21000;01LC250K21H;28
S21000;01RV500K20;28
S21000;15MA030VCL21;29
S21000;17AS250G21;9
S21000;17ER075P19;2
S21000;17RS500E20;47
S21000;24ET050R18;6
S21000;24MA030CB4;19
S21000;24RO010CB4;10
S21000;27DCB060I17;4
S21000;27DS030I20;4
S21000;29LC200A20US;21
S21000;29RH500A15;57
S21000;29VC240A16;8
S21000;52CARDNO21;8
S21000;52CL0015K21;64
S20;11GE075I20;5
S20;11PM100SH19;12
S20;15BA500L16A;11
S20;15KTVER21;16
S20;15MA030VA5;22
S20;15MA075L11;23
S20;17SH075E19;11
S20;18ET090TL17;4
S20;18LC250TL17ET;15
S20;20DO075CD20;8
S20;24LC250RJ21H;30
S20;27DF125I17;20
S20;27ER050I21;15
S20;29HD500A15;33
S20;29SE125A21;9
S20;49CAB1NO21;20
S20;49DC004I20;10
S20;49POURE18;36
S20;52CP0015I19;163
S20;52DH001I20;389
S20;52FP0015I19;13
S20;52RIB1NO21;7
S20;52RIB2NO21;7
S20;52SP001I19;169
S20;98BBSH050A0;29
S20;01BL012K18;15
S20;01EC200K17;13
S20;01MA150C21H;33
S20;01SL500VE20;10
S20;10KTPWPXM21;15
S20;11BP100I19;6
S20;11BR100A20;14
S20;11ET010H20;10
S20;11GM200I19;13
S20;11SD100SH19;11
S20;15LC250L14;18
S20;15RG500VA20;13
S20;17HI001G19;105
S20;20ET075CD20;8
S20;24MA075R18;27
S20;27FP050I19;8
S20;27OR030I21;28
S20;29CHALM21;45
S20;29CHCHB21;51
S20;29KTAMA21;19
S20;29SH240A20;3
S20;38WS030A21;10
S20;52AS006P19;100
S20;52EV002I19;68
S20;52GIF1NO21;3
S20;52MC006G21;145
S20;52SH006P19;170
S20;98BBDF015IM0;11
S20;01BL012C21H;29
S20;01BL012F21H;6
S24000;SGOCVKI00178;22
S90000;SGOCVKI00178;65
S24000;SGOCVKI00179;29
S24000;01LC250K17;15
S24000;01MA150K18;20
S24000;01SA100LV20;13
S24000;01SB020K21;16
S24000;01SL300LV20;8
S90000;01SL300LV20;6
S24000;11EH150A18;4
S24000;11SP200SI19;4
S90000;15AS150VCL21;97
S24000;15AS250VA18;4
S24000;15ET100VA20;6
S90000;15ET100VA20;8
S24000;15HE005L14;6
S24000;15SE400VB5;4
S90000;17MC200G18;44
S24000;17RS500G21;14
S24000;17SH060SP21;8
S90000;17SH060SP21;7
S90000;17SH300G18;124
S24000;17SH300P19;11
S90000;17SH300P19;16
S24000;17SH500FV21;14
S24000;18GD250TL17ET;15
S90000;18GD250TL17ET;14
S90000;20AR075H16;17
S24000;20GD250CD20;10
S90000;24GD075CB5;121
S24000;24GD500R19;12
S24000;24MA030S6;20
S90000;24MA030S6;12
S24000;27DC050I20;14
S24000;27HC050I18;2
S90000;27HC050I18;6
S24000;27MP150I20;11
S24000;27MQ065I15A;6
S24000;27SP030I19;7
S90000;27SP030I19;8
S24000;29ASH240A20;5
S24000;29EC200A21;9
S24000;29EC200A21X;30
S24000;29MA030A21X;58
S90000;38SM025A19;37
S24000;49EV030I19;1
S24000;49OR005I21;92
S90000;49OR005I21;118
S90000;49TOTMC20;117
S24000;52AS006FV21;152
S90000;52AS006FV21;317
S24000;52GIF2NO21;3
SLM001;20GD250OC20;9
SLM001;27BP050I19;9
SLM001;27DE015I13US;13
SLM001;27DH015I20;46
SLM001;49LT030R21;40
SLM001;49MA010K16;469
SLM001;49TLDTS17;10
SLM001;49TOBAGSA20;12
SLM001;52DF002I17;9
SLM001;01SA050KV20;8
SLM001;15GM065VB20;41
SLM001;17AS075G21;80
SLM001;20GD250HC20;10
SLM001;24GD250CB4;36
SLM001;24LC250CB4;40
SLM001;27ER150I21;86
SLM001;27EV200I19;15
SLM001;29GE200A21;29
SLM001;29MA030A17;62
SLM001;49DH004I20;8
SLM001;49IC2POU20;16
SLM001;49MA010VB3;26
SLM001;49POUID20;20
SLM001;49POUIS19;31
SLM001;52AS006G18;290
SLM001;52OR001I19;1390
SLM001;01HD500K20;13
SLM001;01MA030K16;44
SLM001;11GD050A18;14
SLM001;15GN300L11;22
SLM001;17SH500G21;92
SLM001;17VI100P19;13
SLM001;24MA075CB4;13
SLM001;27MS050I20;41
SLM001;27TS050I20;1
SLM001;29HD075A15;38
SLM001;29LC200A14US;1
SLM001;01CP200K17;7
SLM001;01SA250LV20;56
SLM001;15DF200VBL21;16
SLM001;17RS500G19;23
SLM001;17SH500G18;20
SLM001;20DO050O20;9
SLM001;24BR050CB6;12
SLM001;17RC500E20;27
SLM001;17SE100FV21;18
SLM001;27ER015I20;19
SLM001;27TS001I20;432
SLM001;29HD250A15;24
SLM001;49HD035A15;181
SLM001;49LC020A15;38
SLM001;49PO3MD19;26
SLM001;52CP006K17;112
SLM001;52HD006A18;914
SLM001;52MS001I20;60
S29000;17SH300FV21;13
S29000;20FE050H20;5
S29000;20GD250OC20;20
S29000;20HR050H20;6
S29000;24AF050R18;5
S29000;24SA050CB6;15
S29000;27BP050I19;3
S29000;27DH015I20;16
S29000;29MAV075A19;8
S29000;38BV050A19;10
S29000;52CCRAC21;1
S29000;52CD0015A18;34
S29000;52DF002I17;234
S29000;52DS001I20;42
S29000;52PS0015R21;101
S29000;52SGENSA18;74
S29000;52TS001R21;137
S29000;01BM050K19;13
S29000;01MA030C21H;59
S29000;01MA030K21H;52
S29000;01SA050KV20;4
S29000;11SA100H19;15
S29000;11SP200SL19;14
S29000;15CP250VA5;5
S29000;15GM065VB20;21
S29000;20GD250HC20;22
S29000;24BR050R19;16
S29000;24GD250CB4;34
S29000;24LC250CB4;19
S29000;27DE015I21;12
S29000;27ER150I21;21
S29000;27EV200I19;14
S29000;29GE200A21;17
S29000;29MA030A17;21
S29000;38MI150A18;4
S29000;38UV030A18;17
S29000;49DISC3NO21;44
S29000;52AS006G21;245
S29000;52DE001I21;149
S29000;01BK010K14;11
S29000;01HD500K20;14
S29000;01KTPWP21;17
S29000;01MA030K16;32
S29000;11BH050A18;14
S29000;11GD050A18;11
S29000;11MWC200I19;10
S29000;11PEP050I20;6
S29000;15GN300L11;11
S29000;17SH500G21;17
S29000;17VI100P19;14
S29000;24ET075CB4;16
S29000;24MA075CB4;26
S29000;27MS050I20;6
S21000;52SH006FV21;119
S21000;52SMBPNO21;59
S21000;01BV050K16;5
S21000;01HD250K17;9
S21000;01MF030F21H;43
S21000;01PI075K18;8
S21000;01SA250VE20;11
S21000;11ET010O21;17
S21000;11LT300I20;4
S21000;11MA030A20;18
S21000;15GM280VB20;6
S21000;15LM300L11;10
S21000;15SA070VB6;5
S21000;17AS250FV21;6
S21000;17DO050F13;11
S21000;17HI100G19;7
S21000;18ET010TL17;10
S21000;20DO130HC20;7
S21000;20MP030H20;5
S21000;24MA030RE19;8
S21000;27HS030I18;5
S21000;27RM300I20;21
S21000;52BCRAC21;2
S21000;52GD0015A18;101
S21000;52MOCOL316;3
S21000;52SAMPENV18;30
S21000;52SH006G21;146
S21000;01CL200K17;8
S21000;01CM300K20;8
S21000;01HV030K16;5
S21000;01MR030K14;74
S21000;01SA050KL20;8
S21000;01SE125K21;10
S21000;11LC250H20;14
S21000;11PM100SI19;7
S21000;15DO050VA5;8
S21000;15ET010VB19;7
S21000;15ETKAR21;36
S21000;15GD250VB17;19
S21000;15LC250VA20;5
S21000;15MA030L11;20
S21000;17AS500E19;7
S21000;17AS500P19;5
S21000;17RC500P19;5
S21000;20AR075O20;3
S21000;20ET075HC20;7
S21000;24EF050R18;7
S21000;24MA030RV19;8
S21000;24MA150R19;6
S21000;29HS100A21;4
S21000;29RC200A20;36
S21000;52ER002I21;313
S21000;52LC006A20;209
S10;01BV050K16;7
S10;01HD250K17;7
S10;01MF030F21H;44
S10;01PI075K18;39
S10;01SA250VE20;17
S10;11ET010O21;20
S10;11LT300I20;12
S10;11MA030A20;11
S10;15GM280VB20;3
S10;15LM300L11;9
S10;15SA070VB6;3
S10;17AS250FV21;6
S10;17DO050F13;12
S10;17HI100G19;8
S10;18ET010TL17;7
S10;20DO130HC20;8
S10;20MP030H20;5
S10;24MA030RE19;8
S10;27HS030I18;6
S10;27RM300I20;11
S10;52BCRAC21;3
S10;52GD0015A18;68
S10;52MOCOL316;3
S10;52SAMPENV18;200
S10;52SH006G21;656
S10;01CL200K17;8
S10;01CM300K20;8
S10;01HV030K16;8
S10;01MR030K14;18
S10;01SA050KL20;8
S10;01SE125K21;10
S10;11LC250H20;14
S10;11PM100SI19;7
S10;15DO050VA5;9
S10;15ET010VB19;9
S10;15ETKAR21;39
S10;15GD250VB17;13
S10;15LC250VA20;8
S10;15MA030L11;17
S10;17AS500E19;5
S10;17AS500P19;8
S10;17RC500P19;7
S10;20AR075O20;8
S10;20ET075HC20;6
S10;24EF050R18;7
S10;24MA030RV19;9
S10;24MA150R19;11
S10;29HS100A21;17
S10;29RC200A20;30
S10;52ER002I21;591
S10;52LC006A20;374
S10;52LGEBOX18;10
S10;52MGEBAG19;157
S10;01PI150K18;13
S10;01SL500LV20;5
S28000;SGOCVKI00196;13
S15;SGOCVKI00197;19
S27000;SGOCVKI00197;13
S28000;SGOCVKI00197;11
S15;SGOCVKI00198;23
S27000;SGOCVKI00198;13
S28000;SGOCVKI00198;23
S15;SGOCVKI00199;29
S27000;SGOCVKI00199;18
S28000;SGOCVKI00199;5
S15;SGOCVKI00200;38
S27000;SGOCVKI00200;33
S28000;SGOCVKI00200;30
S15;SGOCVKI00202;106
S27000;SGOCVKI00202;54
S28000;SGOCVKI00202;120
S28000;27DB015I20;13
S15;29BP100A19;3
S27000;29BP100A19;4
S28000;29BP100A19;13
S15;49LC020A20;125
S27000;49LC020A20;66
S28000;49LC020A20;90
S15;52DCRAC21;2
S27000;52DCRAC21;2
S15;52LASANO21;334
S27000;52LASANO21;199
S28000;52LASANO21;238
S15;52MMBPNO21;118
S27000;52MMBPNO21;57
S28000;52MMBPNO21;117
S15;52OR001I21;532
S27000;52OR001I21;760
S28000;52OR001I21;813
S15;52DB001I20;116
S27000;52DB001I20;81
S28000;52DB001I20;312
S15;01CL125C21H;15
S27000;01CL125C21H;12
S28000;01CL125C21H;10
S15;01LC250K21H;40
S27000;01LC250K21H;18
S28000;01LC250K21H;47
S15;01RV500K20;12
S27000;01RV500K20;8
S28000;01RV500K20;26
S15;15MA030VCL21;38
S27000;15MA030VCL21;28
S28000;15MA030VCL21;44
S15;17AS250G21;12
S27000;17AS250G21;9
S28000;17AS250G21;12
S15;17ER075P19;11
S20;01BM150K19;22
S20;01CL200F21H;15
S20;01HF100K17;9
S20;11BG140SH19;13
S20;11EP050H19;4
S20;11GD250O21;28
S20;11SA050O21;16
S20;17AS500FV21;11
S20;17SH300FV21;16
S20;20FE050H20;5
S20;20GD250OC20;21
S20;20HR050H20;5
S20;24SA050CB6;12
S20;27DH015I20;11
S20;29MAV075A19;9
S20;38BV050A19;6
S20;52BGERIB18;1
S20;52CCRAC21;3
S20;52CD0015A18;88
S20;52DF002I17;222
S20;52DS001I20;94
S20;52PS0015R21;25
S20;52SGENSA18;215
S20;52TS001R21;116
S20;01BM050K19;11
S20;01MA030C21H;45
S20;01MA030K21H;41
S20;01SA050KV20;7
S20;11SA100H19;11
S20;11SP200SL19;10
S20;15CP250VA5;6
S20;15GM065VB20;44
S20;20GD250HC20;22
S20;24BR050R19;14
S20;24GD250CB4;27
S20;24LC250CB4;18
S20;27DE015I21;10
S20;27ER150I21;16
S20;27EV200I19;8
S20;29GE200A21;15
S20;29MA030A17;25
S20;38MI150A18;5
S20;38UV030A18;10
S20;49DISC3NO21;74
S20;52AS006G21;188
S20;52DE001I21;217
S20;01BK010K14;13
S20;01HD500K20;11
S20;01KTPWP21;5
S20;01MA030K16;59
S20;11BH050A18;9
S20;11GD050A18;10
S20;11MWC200I19;3
S20;11PEP050I20;9
S20;15GN300L11;6
S00;27CN050I14;2
S21000;52LGEBAG19;29
S21000;52LGEBOX18;7
S21000;52MGEBAG19;94
S21000;01PI150K18;11
S21000;01SL500LV20;5
S21000;11BO100CS19;16
S21000;11EP010H19;8
S21000;11GE075I20;4
S21000;11PM100SH19;5
S21000;15BA500L16A;8
S21000;15KTVER21;21
S21000;15MA030VA5;9
S21000;15MA075L11;12
S21000;17SH075E19;12
S21000;18ET090TL17;3
S21000;18LC250TL17ET;14
S21000;20DO075CD20;9
S21000;27DF125I17;9
S21000;27ER050I21;20
S21000;29HD500A15;25
S21000;29SE125A21;10
S21000;49CAB1NO21;28
S21000;49DC004I20;12
S21000;49OR005I19;18
S21000;49POURE18;30
S21000;52CP0015I19;136
S21000;52DH001I20;355
S21000;52FP0015I19;118
S21000;52RIB1NO21;7
S21000;52RIB2NO21;7
S21000;52SP001I19;137
S21000;98BBSH050A0;27
S21000;01BL012K18;11
S21000;01EC200K17;7
S21000;01MA150C21H;28
S21000;01SL500VE20;8
S21000;10KTPWPXM21;16
S21000;11BP100I19;4
S21000;11BR100A20;6
S21000;11ET010H20;11
S21000;11GM200I19;10
S21000;11SD100SH19;10
S21000;15LC250L14;15
S21000;15RG500VA20;30
S21000;17HI001G19;153
S21000;20ET075CD20;5
S21000;24MA075R18;17
S21000;27FP050I19;9
S21000;27OR030I21;54
S21000;29CHALM21;90
S21000;29CHCHB21;45
S21000;29KTAMA21;16
S21000;29SH240A20;7
S10;11BO100CS19;20
S10;11EP010H19;8
S10;11GE075I20;6
S10;11PM100SH19;8
S10;15BA500L16A;6
S10;15KTVER21;20
S10;15MA030VA5;12
S10;15MA075L11;16
S10;17SH075E19;24
S10;18LC250TL17ET;14
S10;20DO075CD20;8
S10;24GD500R19;11
S10;27DF125I17;17
S10;27ER050I21;14
S10;29HD500A15;26
S10;29SE125A21;10
S10;49CAB1NO21;47
S10;49DC004I20;12
S10;49OR005I19;15
S10;49POURE18;34
S10;52CP0015I19;477
S10;52DH001I20;483
S10;52FP0015I19;152
S10;52RIB1NO21;7
S10;52RIB2NO21;7
S10;52SP001I19;265
S10;98BBSH050A0;30
S10;01BL012K18;12
S10;01EC200K17;6
S10;01MA150C21H;30
S10;01SL500VE20;6
S10;10KTPWPXM21;12
S10;11BP100I19;6
S10;11BR100A20;6
S10;11ET010H20;10
S10;11GM200I19;13
S10;11SD100SH19;9
S10;15LC250L14;9
S10;17HI001G19;163
S10;20ET075CD20;6
S10;24MA030R18;19
S10;27FP050I19;6
S10;27OR030I21;34
S10;29CHALM21;62
S10;29CHCHB21;45
S10;29KTAMA21;24
S10;29SH240A20;7
S10;38WS030A21;8
S10;52AS006P19;145
S10;52EV002I19;10
S10;52GIF1NO21;3
S10;52MC006G21;105
S10;52SH006P19;170
S10;98BBDF015IM0;27
S10;01BL012C21H;31
S29000;38RC050A18;10
S29000;52MMSANO21;96
S29000;01CP200K17;21
S29000;01LH300KB19;14
S29000;01PR015R19;12
S29000;01SA100VE20;15
S29000;01SA250LV20;19
S29000;01SL0045K13;23
S29000;11BG140SH19;11
S29000;11BG140SI19;13
S29000;11GD250H19;19
S29000;11GD250H20;24
S29000;11LC250O21;54
S29000;11SD100SI19;15
S29000;15LC250VB3;16
S29000;15RC500VB17;39
S29000;17AF100G20;17
S29000;18SA075TL17ET;12
S29000;20DO050O20;16
S29000;24BR050CB6;18
S29000;24GD250R20;26
S29000;24KTCBL21;23
S29000;24MA030R18;21
S29000;24SA050R18;14
S29000;27DL200I20;12
S29000;29SA050A17;15
S29000;52LGENSA18;3
S29000;52RBO2NO21;1
S29000;52RBO3NO21;1
S29000;01EM075K20;3
S29000;01KTKAR21;11
S29000;11BG140CS19;18
S29000;11LD200I19;16
S29000;11SD100CS19;15
S29000;11SV080I19;9
S29000;15ET100VB3;12
S29000;17RC500E20;25
S29000;17SE100FV21;15
S29000;20SA050CD20;10
S29000;24LC250R20;20
S29000;24RO010R18;5
S29000;27ER015I20;25
S29000;27MI150I20;7
S29000;27TS001I20;141
S29000;29HD250A15;21
S29000;38WC050A21;12
S29000;49ETKAR21;3
S29000;49ETVER21;3
S29000;52CP006K17;186
S29000;52HD006A18;268
S29000;52MS001I20;74
S29000;52SMSANO21;375
S90000;52GIF2NO21;1
S24000;52MIBANO21;208
S24000;52RBO1NO21;4
S24000;52STINO21;6
S90000;52STINO21;1
S24000;SGOCVE600004;2
S24000;01RL500K20;2
S24000;10QCRAC21;75
S24000;11CF100TR19;13
S90000;11CF100TR19;61
S24000;11CM030H20;24
S90000;11CM030H20;12
S24000;11ET075O21;5
S24000;11FAG10TR19;8
S24000;11LC250H19;10
S90000;11LC250H19;37
S24000;11MH075A19;4
S24000;11SD100SL19;8
S90000;11SD100SL19;21
S24000;15GD250VA20;7
S24000;15RG500L14;3
S90000;17AS075FV21;110
S90000;17RC500G18;61
S24000;17RC500G21;11
S24000;17SH060SE21;8
S24000;17SH500E19;22
S90000;17SH500N18;1
S24000;20SA050HC20;4
S90000;20SA050HC20;6
S90000;24GC150C21;49
S90000;24LC250R18;2
S90000;24MA030RV19;8
S24000;27BP050I19;6
S24000;27MP050I20;1
S90000;29GE200A18;1
S24000;29HD250A21X;43
S24000;29MA075A21;15
S90000;29MA075A21;12
S24000;38FT200A21;6
S24000;38WM065A18;4
S90000;49DB004I20;30
S90000;49ET007R18;6
S90000;49PI010K18;94
S24000;52AS006E19;305
S24000;52MMBANO21;398
S24000;52SMBBNO21;62
S90000;98BBHD050A0;52
S90000;SGOCVKI00179;83
S24000;SGOCVKI00180;14
S24000;SGOCVKI00181;64
S90000;SGOCVKI00181;186
S24000;SGOCVKI00182;23
S24000;SGOCVKI00183;55
S20;17SH500G21;16
S20;17VI100P19;8
S20;24ET075CB4;7
S20;24MA075CB4;25
S20;27MS050I20;12
S20;29HD075A15;14
S20;38RC050A18;4
S20;52AS006FV21;180
S20;52MMSANO21;254
S20;01CP200K17;14
S20;01LH300KB19;7
S20;01PR015R19;8
S20;01SA100VE20;24
S20;01SA250LV20;19
S20;01SL0045K13;19
S20;11BG140SI19;14
S20;11GD250H19;23
S20;11GD250H20;23
S20;11LC250O21;18
S20;11SD100SI19;14
S20;15LC250VB3;14
S20;15RC500VB17;24
S20;17AF100G20;10
S20;18SA075TL17ET;8
S20;20DO050O20;11
S20;24BR050CB6;16
S20;24GD250R20;29
S20;24KTCBL21;26
S20;24MA030R18;36
S20;24SA050R18;10
S20;27DL200I20;7
S20;29SA050A17;10
S20;52LGENSA18;144
S20;52RBO2NO21;5
S20;52RBO3NO21;5
S20;01EM075K20;7
S20;01KTKAR21;16
S20;01MA150K21H;18
S20;11BG140CS19;16
S20;11LD200I19;12
S20;11SD100CS19;14
S20;11SV080I19;8
S20;15ET100VB3;8
S20;17RC500E20;14
S20;17SE100FV21;9
S20;20SA050CD20;17
S20;24LC250R20;15
S20;24RO010R18;7
S20;27ER015I20;13
S20;27MI150I20;7
S20;27TS001I20;386
S20;29HD250A15;27
S20;38WC050A21;7
S20;49ETKAR21;7
S20;49ETVER21;7
S27000;17ER075P19;4
S28000;17ER075P19;13
S15;17RS500E20;50
S27000;17RS500E20;15
S28000;17RS500E20;25
S15;24ET050R18;11
S27000;24ET050R18;8
S28000;24ET050R18;12
S15;24MA030CB4;32
S27000;24MA030CB4;20
S28000;24MA030CB4;40
S15;24RO010CB4;11
S27000;24RO010CB4;6
S28000;24RO010CB4;12
S15;27DCB060I17;6
S27000;27DCB060I17;5
S28000;27DCB060I17;7
S15;27DS030I20;9
S27000;27DS030I20;7
S28000;27DS030I20;12
S15;29LC200A20US;25
S27000;29LC200A20US;17
S28000;29LC200A20US;59
S15;29RH500A15;66
S27000;29RH500A15;19
S28000;29RH500A15;58
S15;29VC240A16;6
S27000;29VC240A16;14
S28000;29VC240A16;14
S15;52CARDNO21;5
S27000;52CARDNO21;8
S28000;52CARDNO21;10
S15;52CL0015K18;136
S27000;52CL0015K18;19
S27000;52CL0015K21;150
S28000;52CL0015K21;24
S15;52HV001K18;15
S15;52SH006FV21;134
S27000;52SH006FV21;250
S28000;52SH006FV21;183
S15;52SMBPNO21;100
S27000;52SMBPNO21;41
S28000;52SMBPNO21;115
S15;52BCRAC21;2
S27000;52BCRAC21;2
S15;52GD0015A18;71
S27000;52GD0015A18;136
S28000;52GD0015A18;114
S15;52MOCOL316;2
S27000;52MOCOL316;3
S28000;52MOCOL316;4
S27000;52SAMPENV18;108
S28000;52SAMPENV18;528
S20;52CP006K17;133
S20;52HD006A18;274
S20;52MIGEBAG19;86
S20;52MS001I20;140
S20;52SMSANO21;322
S10;01BL012F21H;14
S10;01BM150K19;9
S10;01CL200F21H;16
S10;01HF100K17;8
S10;11BG140SH19;8
S10;11SA050O21;16
S10;17AS500FV21;11
S10;17SH300FV21;8
S10;20FE050H20;5
S10;20GD250OC20;13
S10;20HR050H20;5
S10;24AF050R18;6
S10;24SA050CB6;11
S10;27DH015I20;13
S10;29MAV075A19;6
S10;38BV050A19;7
S10;49LD030I20;1
S10;52CCRAC21;3
S10;52CD0015A18;196
S10;52DF002I17;392
S10;52DS001I20;150
S10;52PS0015R21;60
S10;52SGENSA18;199
S10;52TS001R21;238
S10;01BM050K19;18
S10;01MA030C21H;49
S10;01MA030K21H;47
S10;01SA050KV20;10
S10;11SA100H19;9
S10;11SP200SL19;5
S10;15CP250VA5;3
S10;15GM065VB20;20
S10;15RG500VA20;13
S10;20GD250HC20;11
S10;24BR050R19;9
S10;24GD250CB4;15
S10;24LC250CB4;10
S10;27DE015I21;10
S10;27ER150I21;27
S10;27EV200I19;12
S10;29GE200A21;11
S10;29MA030A17;23
S10;38MI150A18;8
S10;38UV030A18;11
S10;49DISC3NO21;109
S10;52AS006G21;451
S10;52DE001I21;110
S10;52LGEBAG18;116
S10;52OR001I19;156
S10;01BK010K14;14
S10;01HD500K20;7
S10;01KTPWP21;33
S10;01MA030K16;43
S10;11BH050A18;8
S10;11GD050A18;6
S21000;38WS030A21;8
S21000;52AS006P19;69
S21000;52GIF1NO21;3
S21000;52MC006G21;67
S21000;52SH006P19;111
S21000;98BBDF015IM0;34
S21000;01BL012C21H;25
S21000;01BL012F21H;14
S21000;01BM150K19;10
S21000;01CL200F21H;15
S21000;01HF100K17;6
S21000;11BG140SH19;8
S21000;11EP050H19;3
S21000;11GD250O21;29
S21000;11SA050O21;16
S21000;17AS500FV21;5
S21000;17SH300FV21;14
S21000;20GD250OC20;10
S21000;20HR050H20;1
S21000;24AF050R18;5
S21000;24SA050CB6;10
S21000;27DH015I20;10
S21000;29MAV075A19;6
S21000;38BV050A19;3
S21000;52CCRAC21;2
S21000;52CD0015A18;142
S21000;52DF002I17;197
S21000;52DS001I20;148
S21000;52PS0015R21;47
S21000;52SGENSA18;271
S21000;52TS001R21;61
S21000;01BM050K19;7
S21000;01MA030C21H;49
S21000;01MA030K21H;47
S21000;01SA050KV20;9
S21000;11SA100H19;8
S21000;11SP200SL19;7
S21000;15CP250VA5;4
S21000;15GM065VB20;17
S21000;20GD250HC20;11
S21000;24BR050R19;5
S21000;24GD250CB4;24
S21000;24LC250CB4;13
S21000;27DE015I21;8
S21000;27ER150I21;31
S21000;27EV200I19;9
S21000;29GE200A21;12
S21000;29MA030A17;13
S21000;38MI150A18;2
S21000;38UV030A18;8
S21000;49DISC3NO21;106
S21000;52AS006G21;156
S21000;52DE001I21;37
S90000;SGOCVKI00183;13
S24000;SGOCVKI00184;17
S90000;SGOCVKI00184;47
S24000;SGOCVKI00185;17
S24000;SGOCVKI00186;17
S24000;SGOCVKI00187;27
S90000;SGOCVKI00187;44
S24000;SGOCVKI00188;14
S24000;SGOCVKI00189;18
S90000;SGOCVKI00189;40
S24000;SGOCVKI00190;21
S90000;SGOCVKI00190;29
S24000;SGOCVKI00191;17
S24000;SGOCVKI00192;14
S24000;SGOCVKI00193;12
S90000;SGOCVKI00193;36
S24000;SGOCVKI00194;12
S90000;SGOCVKI00194;9
S24000;SGOCVKI00195;9
S90000;SGOCVKI00195;1
S24000;SGOCVKI00196;13
S24000;SGOCVKI00197;5
S90000;SGOCVKI00197;24
S24000;SGOCVKI00198;12
S24000;SGOCVKI00199;23
S24000;SGOCVKI00200;27
S90000;SGOCVKI00200;23
S24000;SGOCVKI00202;62
S90000;SGOCVKI00202;120
S90000;SGOCVKI00204;47
S90000;SGOCVKI00205;71
S90000;01BG070K21;8
S24000;01BP050K21;9
S24000;01CL050K21;7
S24000;01CM500K20;8
S24000;01HN075C21H;7
S24000;01HN075K21H;10
S24000;01PI030K18;8
S90000;01PI030K18;15
S24000;01SA250LT20;10
S90000;10BOWEB219;1100
S90000;10BOWEB319;2100
S90000;10BOWEB419;1000
S24000;11BG140SL19;8
S90000;11BG140SL19;10
S24000;11CM030H19;19
S24000;11ET050H20;6
S90000;11ET050H20;1
S24000;11GN195A18;10
S24000;11LH200I19;14
S90000;11MW200I19;17
S24000;11PM100SL19;5
S10;11MWC200I19;5
S10;11PEP050I20;8
S10;15GN300L11;11
S10;17SH500G21;17
S10;17VI100P19;7
S10;24ET075CB4;5
S10;24MA075CB4;16
S10;27MS050I20;15
S10;29HD075A15;108
S10;38RC050A18;6
S10;52AS006FV21;211
S10;52MMSANO21;367
S10;01CP200K17;12
S10;01LH300KB19;8
S10;01PR015R19;7
S10;01SA100VE20;14
S10;01SA250LV20;16
S10;01SL0045K13;17
S10;11BG140SI19;7
S10;11GD250H19;13
S10;11GD250H20;18
S10;11LC250O21;17
S10;11SD100SI19;9
S10;15LC250VB3;11
S10;15RC500VB17;11
S10;17AF100G20;12
S10;18SA075TL17ET;5
S10;20DO050O20;5
S10;24BR050CB6;11
S10;24GD250R20;16
S10;24KTCBL21;27
S10;24SA050R18;7
S10;27DL200I20;8
S10;29SA050A17;11
S10;52LGENSA18;110
S10;52RBO2NO21;4
S10;52RBO3NO21;4
S10;98BBSA050LT1;22
S10;01EM075K20;7
S10;01KTKAR21;11
S10;01MA150K21H;17
S10;11BG140CS19;10
S10;11LD200I19;13
S10;11SD100CS19;15
S10;11SV080I19;7
S10;15ET100VB3;5
S10;17RC500E20;32
S10;17SE100FV21;11
S10;20SA050CD20;7
S10;24LC250R20;12
S10;24RO010R18;7
S10;27ER015I20;13
S10;27MI150I20;8
S10;27TS001I20;426
S21000;01BK010K14;10
S21000;01HD500K20;8
S21000;01KTPWP21;28
S21000;01MA030K16;140
S21000;11BH050A18;6
S21000;11GD050A18;5
S21000;11MWC200I19;4
S21000;11PEP050I20;5
S21000;15GN300L11;9
S21000;17SH500G21;4
S21000;17VI100P19;4
S21000;24ET075CB4;4
S21000;24MA075CB4;18
S21000;27MS050I20;6
S21000;29HD075A15;106
S21000;38RC050A18;7
S21000;52AS006FV21;87
S21000;52MMSANO21;335
S21000;01CP200K17;15
S21000;01LH300KB19;8
S21000;01PR015R19;14
S21000;01SA100VE20;12
S21000;01SA250LV20;9
S21000;01SL0045K13;19
S21000;11BG140SI19;8
S21000;11GD250H19;15
S21000;11GD250H20;20
S21000;11LC250O21;15
S21000;11SD100SI19;8
S21000;15LC250VB3;13
S21000;15RC500VB17;34
S21000;17AF100G20;10
S21000;18SA075TL17ET;6
S21000;20DO050O20;8
S21000;24BR050CB6;10
S21000;24GD250R20;17
S21000;24KTCBL21;29
S21000;24MA030R18;18
S21000;24SA050R18;5
S21000;27DL200I20;5
S21000;29SA050A17;4
S21000;52LGENSA18;116
S21000;52RBO2NO21;2
S21000;52RBO3NO21;2
S21000;98BBSA050LT1;27
S21000;01EM075K20;6
S21000;01KTKAR21;16
S21000;01MA150K21H;21
S21000;11BG140CS19;7
S21000;11LD200I19;11
S21000;11SD100CS19;12
S21000;11SV080I19;4
S21000;15ET100VB3;4
S10;29HD250A15;19
S10;38WC050A21;6
S10;49ETKAR21;7
S10;49ETVER21;7
S10;49HD035A15;60
S10;52CP006K17;124
S10;52HD006A18;346
S10;52MS001I20;132
S10;52SMSANO21;310
S21000;17RC500E20;22
S21000;17SE100FV21;9
S21000;24LC250R20;11
S21000;24RO010R18;6
S21000;27ER015I20;9
S21000;27MI150I20;7
S21000;27TS001I20;436
S21000;29HD250A15;17
S21000;38WC050A21;16
S21000;49ETKAR21;6
S21000;49ETVER21;6
S21000;52CP006K17;78
S21000;52HD006A18;152
S21000;52MIGEBAG19;244
S21000;52MS001I20;120
S21000;52SMSANO21;327
S90000;11PM100SL19;4
S24000;11SP200CS19;4
S90000;15CF150VBL21;1
S90000;15GC150VBL20;17
S24000;15GD250L14;18
S90000;15LC070VB5;69
S24000;17MC200G21;12
S90000;17SH075G21;23
S24000;18BI030TL17ET;20
S24000;20NV150H20;11
S90000;24LC250S6;6
S24000;24MA030RA19;14
S90000;24MA030RA19;4
S24000;27DB015I20;10
S24000;29BP100A19;5
S90000;49BM010K19;26
S90000;49CL008K21;92
S90000;49CL1SA18;334
S24000;49LC020A20;100
S90000;49MA010K20DTS;7
S90000;49PO2HER20;22
S24000;52DCRAC21;3
S24000;52LASANO21;217
S90000;52LASANO21;60
S24000;52MMBPNO21;81
S24000;52OR001I21;533
S24000;01CL125C21H;8
S24000;01LC250K21H;21
S24000;01RV500K20;5
S90000;01SA250VE16;1
S90000;15CC150VA19;4
S90000;15LC075L15;7
S24000;15MA030VCL21;32
S90000;15MA030VCL21;41
S90000;15MF030VM20H;8
S24000;17AS250G21;11
S90000;17AS250G21;8
S24000;17ER075P19;4
S24000;17RS500E20;21
S24000;24ET050R18;10
S24000;24MA030CB4;38
S24000;24RO010CB4;7
S24000;27DCB060I17;6
S90000;27DCB060I17;4
S24000;27DS030I20;8
S24000;29LC200A20US;21
S90000;29MA075A19;1
S24000;29RH500A15;31
S24000;29VC240A16;13
S90000;29VC240A16;11
S90000;49CM030I19;116
S24000;52CARDNO21;8
S90000;52CARDNO21;2
S15;52SH006G21;158
S27000;52SH006G21;302
S28000;52SH006G21;458
S27000;52YGERIB18;1
S27000;24MA030RV19;9
S15;24MA150R19;11
S27000;24MA150R19;6
S28000;24MA150R19;14
S15;29HS100A21;15
S27000;29HS100A21;15
S28000;29HS100A21;12
S15;29RC200A20;51
S27000;29RC200A20;27
S28000;29RC200A20;57
S15;52ER002I21;290
S27000;52ER002I21;660
S28000;52ER002I21;791
S15;52LC006A20;212
S27000;52LC006A20;352
S28000;52LC006A20;450
S15;52LGEBAG19;105
S27000;52LGEBAG19;114
S28000;52LGEBAG19;77
S15;52LGEBOX18;10
S27000;52LGEBOX18;10
S28000;52LGEBOX18;12
S15;52MGEBAG19;93
S27000;52MGEBAG19;108
S28000;52MGEBAG19;184
S15;49DC004I20;10
S27000;49DC004I20;10
S28000;49DC004I20;7
S28000;49OR005I19;32
S15;49POURE18;56
S27000;49POURE18;43
S28000;49POURE18;42
S15;52CP0015I19;403
S27000;52CP0015I19;175
S28000;52CP0015I19;443
S15;52DH001I20;156
S27000;52DH001I20;421
S28000;52DH001I20;618
S15;52FP0015I19;36
S27000;52FP0015I19;142
S28000;52FP0015I19;126
S15;52RIB1NO21;8
S27000;52RIB1NO21;7
S28000;52RIB1NO21;8
S15;52RIB2NO21;8
S27000;52RIB2NO21;7
S28000;52RIB2NO21;8
S15;52SP001I19;131
S27000;52SP001I19;269
S24000;52CL0015K21;124
S90000;52CL0015K21;121
S24000;52HV001K18;2
S24000;52SH006FV21;151
S90000;52SH006FV21;516
S24000;52SMBPNO21;43
S24000;01BV050K16;4
S24000;01HD250K17;2
S24000;01MF030F21H;51
S24000;01PI075K18;7
S90000;01PI075K18;15
S24000;01SA250VE20;9
S24000;11ET010O21;14
S90000;11GN040A19;88
S24000;11LT300I20;6
S24000;11MA030A20;10
S90000;15ET100VBL21;1
S24000;15GM280VB20;5
S90000;15GM280VB20;11
S24000;15LM300L11;10
S90000;15LM300L11;1
S24000;15SA070VB6;4
S24000;17AS250FV21;10
S24000;17DO050F13;11
S24000;17HI100G19;9
S24000;18ET010TL17;8
S24000;20DO130HC20;6
S90000;20ET075CD19;7
S24000;20MP030H20;4
S24000;24MA030RE19;19
S90000;24MA030RE19;9
S24000;27HS030I18;5
S90000;27HS030I18;4
S24000;27RM300I20;15
S90000;49LC035CB6;55
S24000;52BCRAC21;3
S24000;52ER006P19;50
S24000;52GD0015A18;89
S24000;52MOCOL316;6
S90000;52MOCOL316;20
S24000;52SH006G21;356
S90000;52SH006G21;582
S24000;52YGERIB18;2
S24000;01CL200K17;7
S24000;01CM300K20;8
S90000;01CM300K20;1
S24000;01HV030K16;2
S24000;01MR030K14;24
S24000;01SA050KL20;12
S24000;11LC250H20;17
S90000;11LP040028M19;42
S24000;11PM100SI19;5
S90000;11PM100SI19;4
S28000;52SP001I19;215
S15;98BBSH050A0;29
S27000;98BBSH050A0;50
S28000;98BBSH050A0;30
S27000;29SH240A20;6
S28000;29SH240A20;12
S15;38WS030A21;12
S27000;38WS030A21;4
S28000;38WS030A21;11
S15;52AS006P19;123
S27000;52AS006P19;218
S28000;52AS006P19;274
S27000;52EV002I19;89
S15;52GIF1NO21;3
S27000;52GIF1NO21;3
S28000;52GIF1NO21;3
S15;52MC006G21;205
S27000;52MC006G21;180
S28000;52MC006G21;453
S15;52SH006P19;296
S27000;52SH006P19;306
S28000;52SH006P19;405
S28000;98BBDF015IM0;3
S15;52CCRAC21;2
S27000;52CCRAC21;2
S15;52CD0015A18;4
S27000;52CD0015A18;153
S28000;52CD0015A18;163
S15;52DF002I17;238
S27000;52DF002I17;114
S28000;52DF002I17;386
S15;52DS001I20;74
S27000;52DS001I20;387
S28000;52DS001I20;619
S15;52PS0015R21;55
S27000;52PS0015R21;221
S28000;52PS0015R21;224
S15;52SGENSA18;111
S27000;52SGENSA18;306
S28000;52SGENSA18;335
S15;52TS001R21;119
S27000;52TS001R21;223
S28000;52TS001R21;285
S15;52AS006G18;44
S15;52AS006G21;60
S27000;52AS006G21;345
S28000;52AS006G21;398
S15;52DE001I21;42
S27000;52DE001I21;135
S28000;52DE001I21;222
S15;01BK010K14;9
S27000;01BK010K14;15
S28000;01BK010K14;16
S24000;15DO050VA5;3
S24000;15ET010VB19;7
S24000;15ETKAR21;35
S24000;15GD250VB17;18
S90000;15GD250VB17;6
S90000;15GG150VAL21;159
S24000;15LC250VA20;7
S90000;15LC250VA20;12
S24000;15MA030L11;23
S90000;17AS075N18;10
S24000;17AS500E19;12
S24000;17AS500P19;4
S24000;17RC500P19;7
S90000;17SH075N18;11
S24000;20AR075O20;7
S90000;20AR075O20;3
S24000;20ET075HC20;5
S24000;24EF050R18;1
S24000;24MA030RV19;14
S24000;24MA150R19;6
S90000;24VF050R18;16
S24000;29HS100A21;11
S24000;29RC200A20;24
S90000;49EP005H20;66
S90000;49TF2CH19;35
S90000;49TFACH18;30
S24000;52ER002I21;422
S24000;52LC006A20;431
S24000;52LGEBAG19;28
S24000;52LGEBOX18;10
S24000;52MGEBAG19;1
S90000;52MGEBAG19;100
S90000;98BBSH050AR2;86
S90000;01BL012B20H;1
S24000;01PI150K18;9
S24000;01SL500LV20;5
S24000;11BO100CS19;27
S24000;11EP010H19;8
S24000;11GE075I20;10
S90000;11PM100DE20H;13
S24000;11PM100SH19;4
S24000;15BA500L16A;10
S24000;15KTVER21;17
S24000;15MA030VA5;12
S90000;15MA030VA5;16
S24000;15MA075L11;14
S90000;15MA075L11;13
S90000;17HR100G13;4
S24000;17SH075E19;7
S90000;17SH075E19;138
S90000;18ET090TL17;1
S24000;18LC250TL17ET;15
S90000;18LC250TL17ET;25
S15;01HD500K20;13
S27000;01HD500K20;5
S28000;01HD500K20;13
S15;01KTPWP21;37
S27000;01KTPWP21;33
S28000;01KTPWP21;35
S15;01MA030K16;66
S27000;01MA030K16;43
S28000;01MA030K16;86
S15;11BH050A18;12
S27000;11BH050A18;7
S28000;11BH050A18;7
S15;11GD050A18;11
S27000;11GD050A18;5
S28000;11GD050A18;14
S15;11MWC200I19;6
S27000;11MWC200I19;3
S28000;11MWC200I19;6
S15;11PEP050I20;7
S27000;11PEP050I20;6
S28000;11PEP050I20;8
S15;15GN300L11;11
S27000;15GN300L11;10
S28000;15GN300L11;8
S15;17SH500G21;14
S27000;17SH500G21;16
S28000;17SH500G21;30
S15;17VI100P19;9
S27000;17VI100P19;4
S28000;17VI100P19;9
S15;24ET075CB4;8
S27000;24ET075CB4;4
S28000;24ET075CB4;12
S15;24MA075CB4;18
S27000;24MA075CB4;15
S28000;24MA075CB4;22
S15;27MS050I20;13
S27000;27MS050I20;4
S28000;27MS050I20;8
S15;29HD075A15;116
S27000;29HD075A15;56
S15;38RC050A18;8
S27000;38RC050A18;4
S28000;38RC050A18;7
S15;52AS006FV21;115
S15;52MMSANO21;482
S27000;52MMSANO21;161
S28000;52MMSANO21;413
S15;24SA050R18;11
S27000;24SA050R18;7
S28000;24SA050R18;15
S15;27DL200I20;10
S27000;27DL200I20;7
S28000;27DL200I20;12
S15;29SA050A17;14
S27000;29SA050A17;8
S28000;29SA050A17;16
S15;52LGENSA18;89
S27000;52LGENSA18;85
S28000;52LGENSA18;128
S15;52RBO2NO21;5
S27000;52RBO2NO21;3
S15;52RBO3NO21;5
S27000;52RBO3NO21;3
S15;98BBSA050LT1;10
S28000;98BBSA050LT1;1
S15;52CP006K17;249
S27000;52CP006K17;236
S28000;52CP006K17;381
S15;52HD006A18;301
S27000;52HD006A18;325
S28000;52HD006A18;594
S15;52MIGEBAG19;59
S27000;52MIGEBAG19;72
S28000;52MIGEBAG19;57
S27000;52MS001I20;99
S28000;52MS001I20;300
S15;52SMSANO21;386
S27000;52SMSANO21;280
S28000;52SMSANO21;320
S24000;20DO075CD20;5
S90000;20DO075CD20;1
S90000;24LC075CB5;11
S24000;27DF125I17;29
S24000;27ER050I21;7
S90000;27OR030I19;49
S24000;29HD500A15;24
S24000;29SE125A21;9
S90000;29SH075A20;7
S24000;49CAB1NO21;30
S90000;49CRM1NO20;2
S90000;49CRM2NO19;68
S24000;49DC004I20;11
S90000;49MASKNO21;100
S90000;49MWC030I19;101
S90000;49NOTNO21;231
S90000;49POCB19;1
S24000;49POURE18;21
S24000;52CP0015I19;317
S24000;52DH001I20;448
S24000;52FP0015I19;107
S90000;52FP0015I19;100
S24000;52RIB1NO21;7
S24000;52RIB2NO21;7
S24000;52SP001I19;142
S90000;52SP001I19;203
S24000;98BBSH050A0;30
S90000;98BBSH050A0;10
S24000;01BL012K18;11
S90000;01CM030K21;4
S24000;01EC200K17;4
S24000;01MA150C21H;26
S24000;01SL500VE20;6
S90000;01SL500VE20;1
S24000;10KTPWPXM21;14
S24000;11BP100I19;6
S90000;11BP100I19;8
S24000;11BR100A20;6
S90000;11BR100A20;4
S24000;11ET010H20;10
S90000;11ET010H20;5
S24000;11GM200I19;19
S24000;11SD100SH19;7
S90000;11SD100SH19;7
S24000;15LC250L14;15
S90000;15LC250L14;22
S24000;15RG500VA20;10
S24000;17HI001G19;135
S90000;17HI001G19;100
S24000;20ET075CD20;7
S90000;20ET075CD20;5
S90000;24BR050C21;1
S90000;24GD075R18;115
S90000;24GD075R20;3
S24000;24MA075R18;9
S90000;24MA075R18;25
S90000;24SACHB20;3
S90000;27DL200I13US;8
S24000;27FP050I19;4
S90000;27FP050I19;2
S24000;27OR030I21;20
S24000;29CHALM21;85
S24000;29CHCHB21;35
S24000;29KTAMA21;19
S24000;29SH240A20;8
S24000;38WS030A21;7
S90000;49CO1NO19;5
S90000;49HS015A18;6
S24000;52AS006P19;180
S90000;52EV002I19;27
S24000;52GIF1NO21;3
S90000;52GIF1NO21;1
S24000;52MC006G21;153
S90000;52MC006G21;100
S90000;52SH006N18;101
S24000;52SH006P19;137
S90000;52SH006P19;12
S24000;98BBDF015IM0;7
S90000;98BBDF015IM0;59
S24000;01BL012C21H;24
S24000;01BL012F21H;13
S24000;01BM150K19;12
S24000;01CL200F21H;14
S90000;01CP100K21;13
S24000;01HF100K17;3
S24000;11BG140SH19;8
S24000;11EP050H19;4
S90000;11EP050H19;29
S24000;11EP090H19;5
S24000;11GD250O21;23
S24000;11SA050O21;13
S90000;15ET100VCL21;89
S90000;15MF075VM20H;7
S90000;17AS250G18;110
S24000;17AS500FV21;10
S90000;17RC500N18;1
S90000;17SE125D15;23
S24000;17SH300FV21;18
S90000;17SH300FV21;25
S24000;20FE050H20;4
S90000;20FE050H20;16
S24000;20GD250OC20;10
S24000;20HR050H20;6
S90000;20HR050H20;9
S90000;20NV150CD16A;1
S90000;24AF050R18;1
S24000;24SA050CB6;11
S90000;27DE015I13US;37
S24000;27DH015I20;12
S90000;29BP100A18;1
S24000;29MAV075A19;7
S24000;38BV050A19;3
S90000;38BV050A19;1
S90000;49ET010V13;13
S24000;49LD030I20;1
S90000;49LT030R21;9
S90000;49MA010K16;107
S90000;49TOBACH20;181
S90000;49TOBAGSA20;32
S90000;49VANSA19;32
S24000;52BGERIB18;2
S90000;52BGERIB18;2
S24000;52CCRAC21;3
S24000;52CD0015A18;103
S24000;52DF002I17;210
S90000;52DF002I17;38
S24000;52DS001I20;60
S90000;52DS001I20;230
S24000;52PS0015R21;59
S90000;52PS0015R21;100
S24000;52SGENSA18;109
S90000;52TBO1M21;60
S90000;52TBO2M21;37
S24000;52TS001R21;94
S90000;52TS001R21;100
S24000;01BK010K14;12
S24000;01HD500K20;8
S24000;01KTPWP21;32
S24000;01MA030K16;48
S24000;11BH050A18;7
S24000;11GD050A18;8
S90000;11GD050H19;12
S24000;11MWC200I19;3
S90000;11MWC200I19;1
S24000;11PEP050I20;4
S90000;15ET100VAL21;25
S24000;15GN300L11;8
S24000;17SH500G21;15
S24000;17VI100P19;5
S24000;24ET075CB4;6
S90000;24LC250C21;13
S24000;24MA075CB4;25
S90000;24MA075CB4;31
S24000;27MS050I20;3
S90000;27MS050I20;9
S90000;27TS050I20;24
S24000;29HD075A15;90
S90000;29HD075A15;133
S24000;38RC050A18;10
S90000;38RC050A18;1
S90000;49MASKRS21;29
S24000;52MMSANO21;406
S90000;52MMSANO21;120
S24000;01BM050K19;6
S24000;01MA030C21H;44
S24000;01MA030K21H;44
S24000;01SA050KV20;12
S90000;01SA050KV20;11
S90000;11BG240DE20H;4
S90000;11GD050H20;19
S90000;11GD075O21;111
S24000;11SA100H19;10
S90000;11SA100H19;11
S24000;11SP200SL19;10
S24000;15CP250VA5;4
S90000;15CP250VA5;4
S24000;15GM065VB20;20
S90000;17AS075G18;112
S90000;17AS075G21;87
S24000;17SH075G18;7
S90000;17SH075G18;11
S90000;18LC050TL17ET;2
S90000;20AR075CD16A;6
S24000;20GD250HC20;9
S24000;24BR050R19;9
S90000;24EDT10C21;124
S24000;24GD250CB4;19
S90000;24GD250CB4;24
S24000;24LC250CB4;22
S24000;27DE015I21;10
S90000;27DS030I17A;3
S24000;27ER150I21;15
S24000;27EV200I19;10
S24000;29GE200A21;11
S24000;29MA030A17;31
S90000;38FT200A18;20
S24000;38MI150A18;10
S24000;38UV030A18;8
S90000;38WS030A18;22
S90000;49BF2NO20;71
S90000;49CP008I19;32
S90000;49DH004I20;484
S24000;49DISC3NO21;90
S90000;49DISC3NO21;2
S90000;49DRANO19;17
S90000;49FCROL21;7
S90000;49IC1POU20;164
S90000;49IC3POU20;27
S90000;49MR010K14;141
S90000;49POUCB21;6
S90000;49POUID20;77
S90000;49POUIS19;138
S90000;52AS006G18;1
S24000;52AS006G21;314
S90000;52AS006G21;299
S90000;52BOX1M21;11
S24000;52DE001I21;107
S90000;52DE001I21;100
S90000;52HCTM21;25
S90000;98BBGD050VE2;214
S24000;01CP200K17;11
S24000;01LH300KB19;8
S24000;01PR015R19;6
S90000;01PR015R19;2
S24000;01SA100VE20;13
S24000;01SA250LV20;13
S24000;01SL0045K13;28
S90000;11BG140SH19;20
S24000;11BG140SI19;8
S90000;11EH040A19;11
S24000;11GD250H19;13
S90000;11GD250H19;5
S24000;11GD250H20;19
S24000;11LC250O21;18
S90000;11LC250O21;26
S24000;11SD100SI19;8
S90000;11SD100SI19;16
S90000;15ET100VM20H;1
S90000;15GD070VB17;14
S24000;15LC250VB3;9
S24000;15RC500VB17;12
S24000;17AF100G20;14
S90000;17AS250N18;11
S90000;17RS500G19;90
S90000;17SH300N18;5
S90000;17SH500G18;64
S24000;18SA075TL17ET;1
S90000;18SA075TL17ET;12
S24000;20DO050O20;6
S90000;20DO050O20;1
S24000;24BR050CB6;10
S90000;24BR050CB6;9
S24000;24GD250R20;16
S90000;24GD250R20;21
S24000;24KTCBL21;21
S24000;24MA030R18;32
S24000;24SA050R18;8
S24000;27DL200I20;6
S24000;29SA050A17;9
S90000;52CARDENV18;3
S90000;52HR004G17;100
S24000;52LGENSA18;97
S24000;52RBO2NO21;4
S24000;52RBO3NO21;4
S90000;98BBSA050LT1;30
S24000;01EM075K20;5
S90000;01EM075K20;10
S24000;01KTKAR21;13
S24000;11BG140CS19;13
S90000;11BG140CS19;14
S24000;11LD200I19;12
S24000;11SD100CS19;11
S90000;11SD100CS19;23
S24000;11SV080I19;5
S90000;11SV080I19;10
S90000;15CL150VM20H;8
S24000;15ET100VB3;8
S24000;17RC500E20;10
S24000;17SE100FV21;14
S24000;20SA050CD20;4
S90000;20SA050CD20;5
S24000;24LC250R20;18
S24000;24RO010R18;9
S24000;27ER015I20;17
S90000;27KTFCAPAC20;6
S24000;27MI150I20;5
S24000;27TS001I20;346
S90000;27TS001I20;236
S24000;29HD250A15;19
S24000;38WC050A21;10
S90000;49AF015G20;160
S90000;49EP005TL17ET;9
S24000;49ETKAR21;7
S24000;49ETVER21;7
S90000;49JEWNO19;64
S90000;49LC020A15;5
S90000;49POVCI21;158
S24000;52CP006K17;77
S90000;52CP006K17;156
S24000;52HD006A18;429
S24000;52MS001I20;250
S90000;52MS001I20;378
S24000;52SMSANO21;255
