S15;01CMR500K20;2
S27000;01CMR500K20;3
S28000;01CMR500K20;11
S15;01CP100K21;15
S27000;01CP100K21;11
S28000;01CP100K21;12
S15;01HD500K20;9
S27000;01HD500K20;8
S28000;01HD500K20;17
S15;01LT300K20;12
S27000;01LT300K20;6
S28000;01LT300K20;8
S15;01SL300LV20;8
S27000;01SL300LV20;7
S28000;01SL300LV20;11
S15;11BG140SL19;10
S27000;11BG140SL19;8
S28000;11BG140SL19;8
S15;11EH150A18;6
S27000;11EH150A18;7
S28000;11EH150A18;7
S15;11SP200SH19;9
S27000;11SP200SH19;6
S28000;11SP200SH19;8
S15;17SH500P19;10
S27000;17SH500P19;14
S28000;17SH500P19;19
S15;20ET075CD20;13
S27000;20ET075CD20;8
S28000;20ET075CD20;9
S15;24BR050CB6;20
S27000;24BR050CB6;12
S28000;24BR050CB6;14
S15;01BM150K19;13
S27000;01BM150K19;6
S28000;01BM150K19;48
S15;01BV050K16;7
S27000;01BV050K16;7
S28000;01BV050K16;8
S15;01SA250LT20;12
S27000;01SA250LT20;13
S28000;01SA250LT20;28
S15;01SE125K21;18
S27000;01SE125K21;14
S28000;01SE125K21;7
S15;11BP100I19;10
S27000;11BP100I19;8
S28000;11BP100I19;7
S15;11BR100A20;24
S27000;11BR100A20;11
S28000;11BR100A20;10
S15;11GD250H19;17
S27000;11GD250H19;18
S28000;11GD250H19;13
S15;11GD250H20;11
S27000;11GD250H20;10
S28000;11GD250H20;15
S15;11LP040028M19;9
S27000;11LP040028M19;5
S28000;11LP040028M19;9
S15;11MW200I19;10
S27000;11MW200I19;7
S28000;11MW200I19;6
S15;11MWC200I19;8
S27000;11MWC200I19;8
S28000;11MWC200I19;7
S15;11PEP050I20;12
S27000;11PEP050I20;6
S28000;11PEP050I20;10
S15;15DO050VA5;16
S27000;15DO050VA5;8
S15;24GD500R19;9
S28000;20AR075H16;8
S15;20AR075H16;8
S28000;17MC200G18;13
S27000;17MC200G18;5
S15;17MC200G18;12
S28000;15SE400VB5;10
S27000;15SE400VB5;3
S15;15SE400VB5;6
S28000;15RC500VB17;23
S27000;15RC500VB17;15
S15;15RC500VB17;20
S28000;15GD250VA5;15
S27000;15GD250VA5;8
S15;15GD250VA5;11
S28000;15ET100VM20H;12
S15;15ET100VM20H;2
S28000;11MA030A20;7
S28000;11LT300I20;12
S27000;11LT300I20;8
S15;11LT300I20;12
S28000;11LC250H20;7
S27000;11LC250H20;11
S15;11LC250H20;16
S28000;01CD250K21;4
S28000;01BL012K18;27
S27000;01BL012K18;17
S15;01BL012K18;12
S15;24BR050R19;9
S28000;24BL012CB5;23
S27000;24BL012CB5;12
S15;24BL012CB5;12
S28000;24AF050R18;17
S27000;24AF050R18;8
S15;24AF050R18;7
S28000;20HR050H20;8
S27000;20HR050H20;4
S15;20HR050H20;2
S28000;20FE050H20;10
S27000;20FE050H20;4
S15;20FE050H20;5
S28000;20ET075HC6;10
S27000;20ET075HC6;3
S28000;18ET050TL17;6
S27000;18ET050TL17;6
S15;18ET050TL17;7
S28000;17SH500E19;20
S27000;17SH500E19;13
S15;17SH500E19;9
S28000;17SH060SP21;17
S15;17SH060SP21;12
S28000;17SH060SG21;18
S15;17SH060SG21;12
S28000;17SH060SE21;18
S15;17SH060SE21;12
S27000;17SE125D15;5
S28000;17RS500E20;29
S27000;17RS500E20;14
S15;17RS500E20;3
S15;17AS075P19;3
S28000;15MF075VM20H;1
S28000;15LC250VB3;21
S27000;15LC250VB3;9
S15;15LC250VB3;18
S27000;15GM065VB20;20
S15;15GM065VB20;28
S15;15DF200VM20H;1
S28000;11SD100SL19;6
S27000;11SD100SL19;8
S15;11SD100SL19;10
S28000;11FAG10TR19;9
S27000;11FAG10TR19;8
S15;11FAG10TR19;20
S28000;11ET050H20;6
S27000;11ET050H20;7
S15;11ET050H20;9
S28000;11CF100TR19;11
S27000;11CF100TR19;5
S15;11CF100TR19;6
S28000;01SA100VE20;22
S27000;01SA100VE20;7
S15;01SA100VE20;28
S28000;01MA030K16;22
S15;01MA030K16;37
S27000;01EM075K18;4
S15;01CP050K19H;23
S28000;01CL300KB20;7
S27000;01CL300KB20;6
S15;01CL300KB20;3
S28000;01BM050K19;42
S27000;01BM050K19;9
S15;01BM050K19;14
S28000;01MR030K14;35
S27000;01MR030K14;15
S15;01MR030K14;20
S28000;24MA150R19;10
S27000;24MA150R19;8
S15;24MA150R19;7
S28000;15DO050VA5;21
S15;17AS500FV21;22
S27000;17AS500FV21;18
S28000;17AS500FV21;36
S15;17MC200N18;6
S27000;17MC200N18;4
S28000;17MC200N18;7
S15;17SH300G18;16
S27000;17SH300G18;11
S28000;17SH300G18;17
S15;18ET090TL17;7
S27000;18ET090TL17;6
S28000;18ET090TL17;8
S15;20ET100OC13;2
S28000;20ET100OC13;7
S27000;24GD500R19;10
S28000;24GD500R19;12
S15;24MA030P15;23
S27000;24MA030P15;13
S28000;24MA030P15;26
S15;27DL200I20;13
S27000;27DL200I20;6
S28000;27DL200I20;19
S15;01BK010K14;18
S27000;01BK010K14;17
S28000;01BK010K14;26
S28000;01EM075K20;7
S15;01MA075K18;12
S28000;01MA075K18;12
S15;01PI030K18;19
S27000;01PI030K18;9
S28000;01PI030K18;17
S15;01RC300KB20;5
S27000;01RC300KB20;15
S15;01SA250LV20;20
S27000;01SA250LV20;7
S28000;01SA250LV20;18
S15;11SD100SI19;7
S27000;11SD100SI19;6
S28000;11SD100SI19;5
S15;15AS250VA18;9
S27000;15AS250VA18;8
S28000;15AS250VA18;12
S15;15ET010VB19;9
S27000;15ET010VB19;8
S28000;15ET010VB19;8
S15;15GD250L14;13
S27000;15GD250L14;12
S28000;15GD250L14;13
S15;15LC250L14;6
S27000;15LC250L14;9
S28000;15LC250L14;1
S15;15MA030VB3;26
S27000;15MA030VB3;14
S28000;15MA030VB3;24
S15;15MA075VB4;18
S27000;15MA075VB4;12
S28000;15MA075VB4;17
S27000;15RG500VA20;9
S28000;15RG500VA20;19
S15;17AS500G18;12
S27000;17AS500G18;11
S28000;17AS500G18;21
S15;17HI100G19;11
S27000;17HI100G19;9
S28000;17HI100G19;4
S15;18SA075TL17ET;10
S27000;18SA075TL17ET;8
S28000;18SA075TL17ET;9
S15;20DO075CD20;10
S27000;20DO075CD20;8
S28000;20DO075CD20;7
S15;20SA050CD20;11
S27000;20SA050CD20;8
S28000;20SA050CD20;9
S15;24GD250C21;7
S15;27BP050I19;12
S27000;27BP050I19;8
S15;27BY015I19;13
S27000;27BY015I19;7
S28000;27BY015I19;27
S15;27DB015I20;12
S27000;27DB015I20;11
S28000;27DB015I20;15
S15;27MI150I20;7
S27000;27MI150I20;5
S28000;27MI150I20;8
S15;01BG070K21;19
S27000;01BG070K21;16
S28000;01BG070K21;22
S15;01CL200K17;8
S27000;01CL200K17;6
S28000;01CL200K17;9
S15;01RL500K20;10
S27000;01RL500K20;10
S28000;01RL500K20;22
S90000;01BLKAR19;21
S24000;01BM050K19;6
S90000;01BM050K19;12
S24000;01CL300KB20;5
S90000;01CL300KB20;7
S90000;01EM075K18;1
S90000;01HD250K19H;1
S24000;01MA030K16;13
S90000;01MA030K16;18
S90000;01MA150K16;2
S24000;01SA100VE20;8
S90000;01SA100VE20;15
S24000;11CF100TR19;9
S90000;11CF100TR19;9
S24000;11ET050H20;7
S90000;11ET050H20;6
S90000;11FAG10TR19;13
S24000;11SD100SL19;6
S90000;11SD100SL19;9
S24000;15GM065VB20;16
S90000;15GM065VB20;16
S24000;15LC250VB3;8
S90000;15LC250VB3;10
S90000;17AS075N18;13
S90000;17AS075P19;41
S24000;17RS500E20;7
S90000;17RS500E20;10
S24000;17SE125D15;10
S90000;17SE125D15;1
S24000;17SH060SE21;15
S90000;17SH060SE21;5
S24000;17SH060SG21;12
S90000;17SH060SG21;6
S24000;17SH060SP21;11
S90000;17SH060SP21;6
S24000;17SH500E19;9
S90000;17SH500E19;7
S24000;18ET050TL17;8
S90000;18ET050TL17;6
S24000;20ET075HC6;4
S24000;20FE050H20;5
S90000;20FE050H20;7
S24000;20HR050H20;5
S90000;20HR050H20;10
S90000;01KTKAR19;8
S90000;10BOWEB419;2600
S90000;10BOWEB319;2500
S90000;10BOWEB219;1900
S24000;24AF050R18;14
S90000;24AF050R18;5
S24000;24BL012CB5;11
S90000;24BL012CB5;8
S24000;24BR050R19;5
S15;11CD050A18;11
S27000;11CD050A18;14
S28000;11CD050A18;14
S15;11ET010H20;8
S27000;11ET010H20;6
S28000;11ET010H20;17
S28000;11LB000TR19;10
S15;11SA100H19;12
S27000;11SA100H19;10
S28000;11SA100H19;14
S15;15CC150VA19;7
S27000;15CC150VA19;5
S28000;15CC150VA19;7
S28000;15ET100VAL20;1
S15;15HE005L14;6
S27000;15HE005L14;5
S28000;15HE005L14;3
S15;17AS500P19;12
S27000;17AS500P19;8
S28000;17AS500P19;9
S15;17RS500FV21;34
S27000;17RS500FV21;13
S28000;17RS500FV21;9
S15;17SH075FV21;1
S15;17SH300D15;11
S27000;17SH300D15;15
S28000;17SH300D15;3
S15;17SH300N18;5
S27000;17SH300N18;5
S28000;17SH300N18;19
S15;20DO130HC20;11
S27000;20DO130HC20;8
S28000;20DO130HC20;13
S15;20GD250CD20;10
S27000;20GD250CD20;11
S28000;20GD250CD20;22
S28000;24EDT050C21;3
S15;24EDT10C21;30
S27000;24EDT10C21;22
S28000;24EDT10C21;22
S15;24ET050C19;1
S28000;24ET050C20;2
S15;24MA075P15;12
S27000;24MA075P15;11
S28000;24MA075P15;17
S15;27DC030I20;16
S27000;27DC030I20;18
S28000;27DC030I20;22
S15;27HCR050I16;7
S27000;27HCR050I16;6
S28000;27HCR050I16;9
S15;27HS030I18;7
S27000;27HS030I18;7
S90000;24BR050R19;9
S24000;24EF050R18;2
S90000;24ET075P15;2
S24000;24GD250CB4;12
S90000;24GD250CB4;11
S90000;27BP050I19;9
S24000;27DH030I17A;2
S90000;27DH030I17A;17
S90000;29HD250A21C;9
S24000;29LC200A14US;2
S24000;01BL012K18;7
S90000;01BL012K18;12
S24000;01CMR500K20;3
S90000;01CMR500K20;7
S24000;01CP100K21;7
S90000;01CP100K21;13
S90000;01ETKAR20;3
S24000;01HD500K20;8
S90000;01HD500K20;13
S24000;01LT300K20;10
S90000;01LT300K20;12
S24000;01SL300LV20;8
S90000;01SL300LV20;13
S24000;11BG140SL19;7
S90000;11BG140SL19;9
S24000;11EH150A18;7
S90000;11EH150A18;10
S90000;11GD020A19;11
S24000;11LC250H20;6
S90000;11LC250H20;10
S24000;11LT300I20;9
S90000;11LT300I20;10
S24000;11MA030A20;14
S90000;11MA030A20;38
S24000;11SP200SH19;7
S90000;11SP200SH19;9
S24000;15ET100VM20H;2
S24000;15GD250VA5;10
S90000;15GD250VA5;12
S24000;15RC500VB17;22
S90000;15RC500VB17;23
S24000;15SE400VB5;7
S90000;15SE400VB5;9
S24000;17MC200G18;4
S90000;17MC200G18;1
S90000;17SH300D14;1
S24000;17SH500P19;11
S90000;17SH500P19;14
S90000;18LC050TL17ET;2
S90000;20AR075H16;1
S24000;20ET075CD20;8
S90000;20ET075CD20;9
S24000;24BR050CB6;13
S28000;27HS030I18;7
S15;29MA030A17;31
S15;01EN300KB19;30
S27000;01EN300KB19;22
S28000;01EN300KB19;29
S15;01HD250K17;17
S27000;01HD250K17;8
S28000;01HD250K17;8
S15;01LH300KB19;9
S27000;01LH300KB19;6
S28000;01LH300KB19;8
S15;01MA150K18;17
S28000;01MA150K18;45
S15;01PI075K18;12
S27000;01PI075K18;8
S28000;01PI075K18;10
S15;01RV500K20;12
S27000;01RV500K20;10
S28000;01RV500K20;23
S15;01SA100VE16;4
S27000;01SA100VE16;12
S28000;01SA100VE16;4
S27000;11BG240DE20H;1
S28000;11BG240DE20H;5
S15;11GD050A18;9
S27000;11GD050A18;8
S28000;11GD050A18;12
S15;11MH075A19;7
S27000;11MH075A19;8
S28000;11MH075A19;10
S15;15MA030VA5;21
S27000;15MA030VA5;15
S28000;15MA030VA5;20
S15;15SH250VA17;12
S27000;15SH250VA17;10
S28000;15SH250VA17;20
S15;17SH500FV21;31
S27000;17SH500FV21;8
S28000;17SH500FV21;22
S15;20AR075O20;4
S27000;20AR075O20;2
S28000;20AR075O20;12
S15;20ET010CD19;9
S28000;20ET010CD19;13
S27000;20ET010HC19;4
S15;24MA030RA19;10
S27000;24MA030RA19;12
S28000;24MA030RA19;19
S15;27DB015I16;5
S27000;27DB015I16;1
S15;27DS030I17A;9
S28000;27DS030I17A;1
S15;27OR030I19;67
S27000;27OR030I19;49
S28000;27OR030I19;69
S15;27TS050I20;36
S27000;27TS050I20;28
S28000;27TS050I20;31
S15;29MA075A19;18
S27000;29MA075A19;10
S28000;29MA075A19;23
S15;29SA050A17;13
S27000;29SA050A17;9
S28000;29SA050A17;13
S15;38WC050A18;8
S27000;38WC050A18;7
S15;01SA100LT16;20
S27000;01SA100LT16;14
S28000;01SA100LT16;32
S15;01SA100LV20;40
S27000;01SA100LV20;16
S28000;01SA100LV20;28
S15;11BH050A18;11
S27000;11BH050A18;9
S28000;11BH050A18;11
S15;11EP050H19;8
S27000;11EP050H19;8
S28000;11EP050H19;8
S15;11EP090H19;12
S27000;11EP090H19;6
S28000;11EP090H19;8
S15;11GM200I19;8
S27000;11GM200I19;10
S28000;11GM200I19;7
S15;11LP080028M19;5
S27000;11LP080028M19;6
S28000;11LP080028M19;4
S15;11SD100CS19;5
S27000;11SD100CS19;7
S28000;11SD100CS19;12
S15;15GN300L11;12
S27000;15GN300L11;7
S28000;15GN300L11;6
S15;15MA075L11;20
S27000;15MA075L11;11
S28000;15MA075L11;14
S15;17AS500E19;11
S27000;17AS500E19;14
S28000;17AS500E19;23
S15;17HI001G19;120
S27000;17HI001G19;171
S28000;17HI001G19;311
S15;18GD250TL17ET;16
S27000;18GD250TL17ET;12
S28000;18GD250TL17ET;22
S15;20SA050HC20;12
S27000;20SA050HC20;8
S28000;20SA050HC20;9
S15;24LC250CB4;18
S27000;24LC250CB4;4
S28000;24LC250CB4;26
S15;24MA030RE19;8
S27000;24MA030RE19;14
S28000;24MA030RE19;20
S15;27DC065I21;1
S27000;27DC065I21;9
S15;27MQ065I15A;6
S27000;27MQ065I15A;8
S28000;27MQ065I15A;3
S15;27RM300I20;18
S27000;27RM300I20;10
S28000;27RM300I20;20
S15;29HS100A18;9
S27000;29HS100A18;9
S28000;29HS100A18;40
S15;29SE125A21;13
S27000;29SE125A21;6
S28000;29SE125A21;4
S15;49CP008I19;5
S27000;49CP008I19;5
S15;01CP200K17;9
S27000;01CP200K17;6
S28000;01CP200K17;15
S15;11CM030H19;27
S27000;11CM030H19;24
S28000;11CM030H19;30
S15;11LC250H19;14
S27000;11LC250H19;10
S28000;11LC250H19;18
S15;11SA100H20;15
S27000;11SA100H20;8
S28000;11SA100H20;12
S15;15ET100VA5;6
S27000;15ET100VA5;8
S28000;15ET100VA5;9
S15;15GM280VB20;6
S27000;15GM280VB20;9
S28000;15GM280VB20;4
S15;15RG500L14;15
S27000;15RG500L14;8
S28000;15RG500L14;15
S15;17AS075FV21;1
S15;17AS250G18;16
S27000;17AS250G18;11
S28000;17AS250G18;17
S15;17RS500P19;29
S27000;17RS500P19;13
S28000;17RS500P19;17
S15;17SH300FV21;25
S27000;17SH300FV21;16
S28000;17SH300FV21;12
S15;20DO050O20;11
S27000;20DO050O20;8
S28000;20DO050O20;12
S15;20MP030H20;9
S27000;20MP030H20;6
S28000;20MP030H20;8
S15;24MA030R18;30
S27000;24MA030R18;18
S28000;24MA030R18;32
S15;24RO010R18;12
S27000;24RO010R18;9
S28000;24RO010R18;12
S15;24VF050R18;5
S27000;24VF050R18;9
S28000;24VF050R18;8
S15;27DCB060I17;7
S27000;27DCB060I17;6
S28000;27DCB060I17;14
S15;27EV200I19;11
S27000;27EV200I19;3
S28000;27EV200I19;11
S28000;27MI150I17;2
S15;29HD500A15;11
S27000;29HD500A15;19
S28000;29HD500A15;41
S15;29SH240A20;7
S27000;29SH240A20;4
S28000;29SH240A20;7
S15;38MI150A18;10
S27000;38MI150A18;3
S28000;38MI150A18;14
S15;49DB004I20;4
S27000;49DB004I20;1
S27000;01CL200B20H;2
S15;01CV050K15;4
S27000;01CV050K15;6
S28000;01CV050K15;9
S15;01HV030K16;8
S27000;01HV030K16;6
S28000;01HV030K16;7
S15;01LC250K17;1
S27000;01LC250K17;4
S28000;01LC250K17;2
S15;01PR015R19;8
S27000;01PR015R19;17
S28000;01PR015R19;8
S27000;11GE075I20;8
S28000;11GE075I20;8
S15;11LH200I19;11
S27000;11LH200I19;9
S28000;11LH200I19;8
S15;11SP200CS19;13
S27000;11SP200CS19;10
S28000;11SP200CS19;14
S15;15GC150VBL20;15
S27000;15GC150VBL20;4
S28000;15GC150VBL20;7
S15;15GD500VB17;15
S27000;15GD500VB17;8
S28000;15GD500VB17;18
S15;15SA070VB6;8
S27000;15SA070VB6;8
S28000;15SA070VB6;6
S15;17AS250P19;12
S27000;17AS250P19;10
S28000;17AS250P19;8
S15;17RC500E20;9
S27000;17RC500E20;4
S28000;17RC500E20;32
S15;17SH500G18;14
S27000;17SH500G18;7
S28000;17SH500G18;34
S15;17VI100P19;8
S27000;17VI100P19;5
S28000;17VI100P19;8
S15;20GR150CD16A;3
S15;24LC250C21;6
S28000;24LC250C21;7
S28000;24MA030RV19;19
S15;27ER015I20;17
S27000;27ER015I20;13
S28000;27ER015I20;5
S15;29BP100A19;9
S28000;29BP100A19;8
S15;29RH500A15;42
S27000;29RH500A15;27
S28000;29RH500A15;26
S15;38UV030A18;4
S27000;38UV030A18;20
S28000;38UV030A18;22
S15;38WS030A21;20
S27000;38WS030A21;15
S28000;38WS030A21;27
S28000;49GD035CB5;94
S15;49MA010K16;53
S27000;49MA010K16;31
S28000;49MA010K16;48
S15;01CL050K21;13
S27000;01CL050K21;8
S28000;01CL050K21;8
S15;01CM500K20;12
S27000;01CM500K20;3
S28000;01CM500K20;13
S15;01EC200K17;8
S27000;01EC200K17;9
S28000;01EC200K17;17
S15;01HN0075K19;10
S27000;01HN0075K19;8
S28000;01HN0075K19;21
S15;01SA050KL20;8
S27000;01SA050KL20;10
S28000;01SA050KL20;23
S15;11BG140CS19;6
S27000;11BG140CS19;7
S28000;11BG140CS19;3
S15;11CM125I19;7
S27000;11CM125I19;8
S28000;11CM125I19;11
S15;11GN195A18;7
S27000;11GN195A18;6
S28000;11GN195A18;12
S15;11SV080I19;8
S27000;11SV080I19;7
S28000;11SV080I19;7
S15;15LC250VBL20;2
S27000;15LC250VBL20;3
S15;15MA030L11;26
S27000;15MA030L11;11
S28000;15MA030L11;21
S15;15RG500VA20;19
S15;20ET075HC20;13
S27000;20ET075HC20;8
S28000;20ET075HC20;7
S15;20GD250OC20;14
S27000;20GD250OC20;10
S28000;20GD250OC20;21
S15;24GC150C21;19
S27000;24GC150C21;10
S28000;24GC150C21;17
S15;24MA030RV19;8
S27000;24MA030RV19;15
S15;24MA075R18;14
S27000;24MA075R18;14
S28000;24MA075R18;33
S15;24SA050CB6;19
S27000;24SA050CB6;10
S28000;24SA050CB6;15
S15;38BV050A19;12
S27000;38BV050A19;10
S28000;38BV050A19;16
S28000;38WM100A16;5
S15;49CRM1NO20;2
S15;49HD035A15;15
S27000;49HD035A15;60
S28000;49HD035A15;35
S15;49MR010K14;23
S27000;49MR010K14;21
S28000;49MR010K14;28
S15;49PFCWC21;27
S27000;49PFCWC21;24
S28000;49PFCWC21;43
S15;01CL200K21;15
S27000;01CL200K21;15
S28000;01CL200K21;18
S15;01MA030K21;2
S15;11CM030H20;26
S27000;11CM030H20;16
S28000;11CM030H20;13
S15;11LD200I19;7
S27000;11LD200I19;10
S28000;11LD200I19;16
S15;11PM100SI19;8
S27000;11PM100SI19;8
S28000;11PM100SI19;16
S15;11SP200SL19;8
S27000;11SP200SL19;8
S28000;11SP200SL19;15
S15;15BA500L16A;4
S27000;15BA500L16A;4
S28000;15BA500L16A;2
S27000;15CL150VM20H;10
S15;15LC250VA5;9
S27000;15LC250VA5;8
S28000;15LC250VA5;10
S15;17AS250FV21;15
S27000;17AS250FV21;9
S28000;17AS250FV21;16
S15;17ER075P19;10
S27000;17ER075P19;7
S28000;17ER075P19;15
S28000;17RC500F18;1
S15;17RS500G19;28
S27000;17RS500G19;18
S28000;17RS500G19;44
S15;17RS500N18;9
S27000;17RS500N18;5
S28000;17RS500N18;10
S15;17SH500N18;6
S27000;17SH500N18;6
S28000;17SH500N18;7
S15;24ET050R18;11
S27000;24ET050R18;9
S28000;24ET050R18;11
S15;24MA030S6;28
S27000;24MA030S6;19
S28000;24MA030S6;37
S15;27DH015I20;16
S27000;27DH015I20;19
S28000;27DH015I20;18
S27000;27DL200I13US;1
S90000;24BR050CB6;9
S24000;24MA150R19;9
S90000;24MA150R19;10
S24000;24RO010CB4;12
S90000;24RO010CB4;8
S24000;27DC050I20;5
S90000;27DC050I20;15
S24000;27DF125I17;31
S90000;27DF125I17;9
S24000;27DH015I17;15
S24000;27FP050I19;6
S90000;27FP050I19;7
S24000;29GE200A18;10
S90000;29GE200A18;11
S24000;01EN300KB19;19
S90000;01EN300KB19;9
S24000;01HD250K17;4
S90000;01HD250K17;12
S90000;01LH100KB19;8
S24000;01LH300KB19;2
S90000;01LH300KB19;7
S24000;01MA150K18;10
S90000;01MA150K18;20
S90000;01MF030B20H;6
S24000;01PI030KA;3
S24000;01PI075K18;10
S90000;01PI075K18;10
S24000;01RV500K20;9
S90000;01RV500K20;20
S90000;01SA100LV16;2
S24000;01SA100VE16;1
S90000;10CACLA20;1
S24000;11BG240DE20H;1
S90000;11EH040A19;11
S24000;11GD050A18;9
S90000;11GD050A18;9
S90000;11GD050H19;13
S24000;11MH075A19;8
S90000;11MH075A19;9
S24000;15MA030VA5;16
S90000;15MA030VA5;13
S24000;15SH250VA17;10
S90000;15SH250VA17;13
S90000;17SH075E19;77
S24000;17SH500FV21;6
S90000;17SH500FV21;20
S24000;38WC050A21;13
S90000;38FT200A21;10
S24000;38FT200A21;10
S90000;38EC015A18;7
S24000;38EC015A18;5
S90000;26PM100FC15;5
S24000;20AR075O20;1
S90000;20AR075O20;10
S24000;20ET010CD19;5
S90000;20ET010CD19;4
S24000;20ET010HC19;5
S90000;24GD075C21;15
S90000;24LC250S6;20
S24000;24MA030RA19;9
S90000;24MA030RA19;10
S90000;24SACHB20;133
S24000;27DB015I16;2
S90000;27DS030I17A;2
S24000;27OR030I19;29
S90000;27OR030I19;54
S24000;27TS050I20;6
S90000;27TS050I20;25
S24000;29MA075A19;3
S90000;29MA075A19;12
S24000;29SA050A17;8
S90000;29SA050A17;8
S24000;38WC050A18;11
S90000;38WC050A18;9
S90000;49CL008K15;16
S90000;49CL008K21;92
S90000;49DRASA19;27
S90000;49MA010CB4;79
S90000;49TC1NO20;1
S90000;49TC2NO19;26
S90000;52BGERIB18;2
S24000;52CD0015A18;137
S24000;52DS001I17;136
S24000;01BL012B20H;1
S90000;01BL012B20H;5
S24000;01CL050K21;9
S90000;01CL050K21;13
S24000;01CM500K20;15
S90000;01CM500K20;9
S24000;01EC200K17;4
S90000;01EC200K17;8
S24000;01HN0075K19;9
S90000;01HN0075K19;9
S24000;01SA050KL20;17
S90000;01SA050KL20;15
S90000;01SA250VE20;10
S24000;11BG140CS19;2
S90000;11BG140CS19;8
S24000;11CM125I19;13
S90000;11CM125I19;11
S24000;11GN195A18;4
S90000;11GN195A18;7
S24000;11SV080I19;6
S90000;11SV080I19;9
S24000;15MA030L11;12
S90000;15MA030L11;11
S15;27MP150I20;8
S27000;27MP150I20;4
S28000;27MP150I20;12
S15;38RC050A18;8
S27000;38RC050A18;6
S28000;38RC050A18;9
S15;49CM030I19;17
S27000;49CM030I19;6
S28000;49CM030I19;5
S15;52CP006K17;6
S27000;52CP006K17;257
S28000;52CP006K17;45
S15;52DF002I17;9
S27000;52DF002I17;196
S28000;52DF002I17;93
S15;01CM030K21;42
S27000;01CM030K21;15
S28000;01CM030K21;35
S15;01SL500VE20;14
S27000;01SL500VE20;8
S28000;01SL500VE20;16
S15;10KTMC00M20;1
S15;11BO100CS19;24
S27000;11BO100CS19;15
S28000;11BO100CS19;26
S27000;11LP050028M19;5
S27000;11PM100DE20H;4
S28000;11PM100DE20H;6
S15;11PM100SH19;8
S27000;11PM100SH19;10
S28000;11PM100SH19;8
S15;15GD075L15;53
S27000;15GD075L15;16
S28000;15GD075L15;113
S15;15GM065L20;20
S27000;15GM065L20;17
S28000;15GM065L20;7
S15;15LM300L11;5
S27000;15LM300L11;9
S28000;15LM300L11;8
S15;17BD125G14;8
S27000;17BD125G14;7
S28000;17BD125G14;14
S15;17RC500G18;23
S27000;17RC500G18;9
S28000;17RC500G18;33
S15;20ET075CD19;7
S27000;20ET075CD19;4
S28000;20ET075CD19;10
S27000;20GD250OC16;1
S28000;20GD250OC16;4
S27000;24GD250R18;7
S28000;24GD250R18;14
S90000;17IC075D15;6
S24000;20ET075HC20;8
S90000;20ET075HC20;9
S24000;20GD250OC20;16
S90000;20GD250OC20;15
S24000;24GC150C21;12
S90000;24GC150C21;8
S90000;24LC075C20;18
S90000;24LC075C21;15
S24000;24MA030RV19;10
S24000;24MA075R18;18
S90000;24MA075R18;11
S24000;24SA050CB6;10
S90000;24SA050CB6;12
S90000;24SA050S6;15
S90000;27CP050I14A;3
S90000;29SAALM20;85
S90000;38BV050A17;1
S24000;38BV050A19;15
S90000;38BV050A19;10
S24000;38WM100A16;3
S90000;49BM010K19;14
S90000;49CRM1NO19;1
S90000;49CRM1NO20;11
S90000;49CRM2NO19;69
S90000;49ED030K17;26
S24000;49HD035A15;45
S90000;49HD035A15;53
S90000;49MA010H19H;5
S90000;49MR010K14;55
S24000;49PFCWC21;25
S90000;49TBL2CH19;13
S24000;52BY001I19;213
S24000;52CV0015K18;76
S90000;52CV0015K18;1
S24000;52ER006P19;158
S90000;52GIF1NO19;1
S90000;52GIF1NO20;1
S90000;52GIF2NO19;1
S90000;52GIF2NO20;1
S24000;01BM150K19;18
S90000;01BM150K19;12
S24000;01BV050K16;8
S90000;01BV050K16;8
S24000;01MR030K14;9
S90000;01MR030K14;3
S24000;01SA250LT20;10
S90000;01SA250LT20;16
S24000;01SE125K21;11
S90000;01SE125K21;13
S24000;11BP100I19;8
S90000;11BP100I19;9
S24000;11BR100A20;6
S90000;11BR100A20;16
S24000;11GD250H19;13
S90000;11GD250H19;9
S24000;11GD250H20;12
S90000;11GD250H20;11
S24000;11LP040028M19;2
S90000;11LP040028M19;15
S24000;11MW200I19;4
S90000;11MW200I19;2
S24000;11MWC200I19;8
S90000;11MWC200I19;8
S24000;11PEP050I20;5
S90000;11PEP050I20;12
S24000;15DO050VA5;9
S90000;15DO050VA5;10
S24000;17AS500FV21;11
S90000;17AS500FV21;11
S24000;17MC200N18;6
S90000;17MC200N18;5
S90000;17SH075F15;14
S24000;17SH300G18;13
S90000;17SH300G18;18
S24000;18ET090TL17;4
S90000;18ET090TL17;1
S24000;20ET100OC13;4
S24000;24GD500R19;7
S90000;24GD500R19;10
S24000;24MA030P15;5
S90000;24MA030P15;12
S24000;27DL200I20;8
S90000;27DL200I20;12
S24000;27HC050I18;8
S90000;27HC050I18;12
S24000;27MS050I20;12
S90000;27MS050I20;8
S90000;27RM300I14;2
S24000;27SP030I19;7
S90000;27SP030I19;12
S24000;29VC240A16;6
S90000;29VC240A16;13
S24000;49LD030I20;11
S90000;49LD030I20;16
S90000;49PASSSA19;16
S90000;49POURS20;17
S24000;49TOTMC20;13
S90000;49TOTMC20;3
S90000;52CARDENV18;6
S90000;52CARDNO20;3
S24000;52FT002A18;1
S90000;52FT002A18;73
S24000;01CP200K17;6
S90000;01CP200K17;2
S90000;01MA150K20H;4
S90000;01MF150B20H;3
S90000;10QCRAC20;20
S24000;11CM030H19;18
S90000;11CM030H19;11
S24000;11LC250H19;10
S90000;11LC250H19;15
S24000;11SA100H20;13
S90000;11SA100H20;11
S24000;15ET100VA5;8
S90000;15ET100VA5;8
S24000;15GM280VB20;11
S90000;15GM280VB20;13
S24000;15RG500L14;5
S90000;15RG500L14;15
S90000;17AS075F15;14
S24000;17AS075FV21;1
S90000;17AS075FV21;53
S24000;17AS250G18;13
S90000;17AS250G18;15
S24000;17RS500P19;16
S90000;17RS500P19;41
S24000;17SH300FV21;10
S90000;17SH300FV21;11
S24000;20DO050O20;7
S90000;20DO050O20;8
S24000;20MP030H20;7
S90000;20MP030H20;10
S90000;24GD250S6;1
S24000;24MA030R18;7
S90000;24MA030R18;11
S24000;24RO010R18;11
S90000;24RO010R18;9
S24000;24VF050R18;13
S90000;24VF050R18;2
S24000;27DCB060I17;6
S90000;27DCB060I17;8
S24000;27EV200I19;12
S90000;27EV200I19;11
S24000;29HD500A15;21
S90000;29HD500A15;59
S24000;29SH240A20;5
S90000;29SH240A20;15
S24000;38MI150A18;5
S90000;38MI150A18;8
S90000;38UV030A18;8
S90000;49BP010K19;20
S90000;49DB004I20;3
S90000;49DC008I17;16
S24000;49DC008I20;4
S90000;49DC008I20;14
S24000;49DH004I20;10
S90000;49DH004I20;6
S90000;49DOPAQ19;6
S15;24GD250R20;15
S28000;24GD250R20;20
S15;24GM030C21;19
S27000;24GM030C21;12
S28000;24GM030C21;36
S15;24SA050R18;18
S27000;24SA050R18;10
S28000;24SA050R18;24
S15;27DE015I13US;5
S27000;27DE015I13US;7
S28000;27DE015I13US;11
S28000;27LD200I14;2
S15;29HD250A15;23
S27000;29HD250A15;25
S15;38WM065A18;8
S27000;38WM065A18;6
S28000;38WM065A18;5
S15;49AF015G20;53
S27000;49AF015G20;16
S28000;49AF015G20;113
S15;49DC004I20;27
S27000;49DC004I20;24
S28000;49DC004I20;43
S15;52HV001K18;44
S27000;52HV001K18;110
S28000;52HV001K18;186
S15;01HDR500K20;11
S27000;01HDR500K20;10
S28000;01HDR500K20;18
S15;01PI150K18;1
S27000;01PI150K18;10
S28000;01PI150K18;36
S15;01SA250VE16;29
S27000;01SA250VE16;16
S28000;01SA250VE16;25
S15;01SL500LV20;15
S27000;01SL500LV20;8
S28000;01SL500LV20;8
S15;11EP010H19;11
S27000;11EP010H19;7
S28000;11EP010H19;15
S15;11PM100SL19;8
S27000;11PM100SL19;7
S28000;11PM100SL19;8
S15;11SP200SI19;8
S27000;11SP200SI19;7
S28000;11SP200SI19;9
S15;15ET100VB3;8
S27000;15ET100VB3;8
S28000;15ET100VB3;10
S15;17AS075E19;2
S15;17AS250N18;7
S28000;17AS250N18;23
S24000;49DRANO19;29
S90000;49DRANO19;1
S90000;49MA010P15;1
S90000;49MW030I19;20
S90000;49TRPIV16;15
S24000;52DE001I17;227
S24000;52HF004K17;68
S90000;01CL050K18;1
S24000;01SA100LT16;10
S90000;01SA100LT16;14
S24000;01SA100LV20;7
S90000;01SA100LV20;11
S24000;11BH050A18;16
S90000;11BH050A18;11
S24000;11EP050H19;5
S90000;11EP050H19;8
S24000;11EP090H19;8
S90000;11EP090H19;9
S24000;11GM200I19;4
S90000;11GM200I19;6
S24000;11LP080028M19;6
S90000;11LP080028M19;48
S24000;11SD100CS19;6
S90000;11SD100CS19;8
S24000;15GN300L11;7
S90000;15GN300L11;17
S24000;15MA075L11;13
S90000;15MA075L11;6
S24000;17AS500E19;8
S90000;17AS500E19;16
S24000;17HI001G19;156
S24000;18GD250TL17ET;16
S90000;18GD250TL17ET;20
S24000;20SA050HC20;8
S90000;20SA050HC20;9
S90000;24GD075CB5;42
S24000;24LC250CB4;12
S90000;24LC250CB4;11
S90000;24MA030RE19;8
S24000;27MQ065I15A;6
S90000;27MQ065I15A;4
S24000;27RM300I20;10
S90000;27RM300I20;22
S24000;29HS100A18;12
S90000;29HS100A18;8
S90000;29LC200A14;21
S24000;29SE125A21;16
S90000;29SE125A21;11
S24000;29SH075A20;7
S90000;29SH075A20;13
S24000;49CP008I19;15
S90000;49CP008I19;9
S24000;49LC020A15;13
S90000;49LC020A15;8
S90000;49P2DTS19;14
S90000;49PADCL20;124
S90000;49POUCB21;15
S90000;49POUID20;55
S24000;49POUIS19;28
S90000;49POUIS19;31
S24000;52AS006G18;194
S90000;52AS006G18;10
S24000;52MA003K16A;124
S90000;52MA003K16A;150
S90000;52MMSANO19;240
S90000;52MMSANO20;120
S24000;52MS001I20;146
S90000;52MS001I20;287
S90000;52STINO19;1
S90000;52STINO20;1
S24000;01BK010K14;13
S90000;01BK010K14;9
S24000;01EM075K20;8
S90000;01EM075K20;18
S24000;01MA075K18;6
S90000;01MA075K18;11
S24000;01PI030K18;7
S90000;01PI030K18;15
S24000;01RC300KB20;6
S90000;01RC300KB20;1
S24000;01SA250LV20;4
S90000;01SA250LV20;13
S90000;10QUAGD19;21
S24000;11SD100SI19;8
S90000;11SD100SI19;9
S24000;15AS250VA18;7
S90000;15AS250VA18;10
S24000;15ET010VB19;6
S90000;15GD070VB17;77
S24000;15GD250L14;7
S90000;15GD250L14;11
S24000;15LC250L14;2
S90000;15LC250L14;17
S24000;15MA030VB3;17
S90000;15MA030VB3;10
S24000;15MA075VB4;16
S90000;15MA075VB4;9
S24000;15RG500VA20;6
S90000;15RG500VA20;15
S90000;15RG500VA4;3
S24000;17AS500G18;13
S90000;17AS500G18;19
S24000;17HI100G19;4
S90000;17SH075N18;18
S90000;18GD050TL17ET;6
S24000;18SA075TL17ET;10
S29000;01BM150K19;17
S29000;01BV050K16;10
S29000;01MR030K14;11
S29000;01SA250LT20;17
S29000;01SE125K21;16
S29000;11BP100I19;31
S29000;11BR100A20;24
S29000;11GD250H19;15
S29000;11GD250H20;11
S29000;11LP040028M19;12
S29000;11MW200I19;6
S29000;11MWC200I19;8
S29000;11PEP050I20;8
S29000;15DO050VA5;12
S29000;17AS500FV21;34
S29000;17MC200N18;7
S29000;17SH300G18;16
S29000;18ET090TL17;9
S29000;20NV150CD16A;1
S29000;24GD500R19;13
S29000;24LC250RC20H;2
S29000;24MA030P15;20
S29000;27DL200I20;13
S29000;27HC050I18;13
S29000;27MS050I20;14
S29000;27SP030I19;10
S29000;29VC240A16;14
S29000;49LD030I20;22
S29000;49TOTMC20;15
S29000;01CP200K17;20
S29000;11CM030H19;14
S29000;11LC250H19;18
S29000;11SA100H20;13
S29000;15ET100VA5;9
S29000;15GM280VB20;13
S29000;15RG500L14;24
S29000;17AS250G18;12
S29000;17RS500P19;45
S29000;17SH300FV21;16
S29000;20DO050O20;10
S29000;20MP030H20;6
S29000;24MA030R18;20
S29000;24RO010R18;15
S29000;24VF050R18;12
S29000;27DCB060I17;7
S29000;27EV200I19;11
S29000;27KTFCAPAC20;10
S29000;29HD500A15;41
S29000;29SH240A20;8
S29000;38MI150A18;8
S29000;49DH004I20;36
S29000;52DE001I17;145
S29000;52HF004K17;200
S27000;17HE010R14;2
S15;17HR100G13;11
S27000;17HR100G13;8
S28000;17HR100G13;22
S15;17RC500P19;14
S27000;17RC500P19;8
S28000;17RC500P19;11
S15;18ET010TL17;15
S27000;18ET010TL17;10
S28000;18ET010TL17;15
S27000;20ET075OC20;11
S28000;20ET075OC20;11
S15;24ET075CB4;11
S27000;24ET075CB4;7
S28000;24ET075CB4;11
S15;27DH030I20;14
S27000;27DH030I20;5
S28000;27DH030I20;27
S15;27HSR030I16;8
S27000;27HSR030I16;6
S28000;27HSR030I16;11
S15;29EC200A13;2
S27000;29EC200A13;10
S28000;29EC200A13;7
S15;38FT200A18;7
S27000;38FT200A18;9
S28000;38FT200A18;7
S15;38WS030A18;9
S27000;38WS030A18;7
S28000;38WS030A18;5
S15;49BF2NO20;1
S28000;49DH004I17;10
S15;52AF006G20;126
S27000;52AF006G20;129
S28000;52AF006G20;92
S15;52LGEBAG18;50
S27000;52LGEBAG18;69
S15;27HC050I18;8
S27000;27HC050I18;8
S28000;27HC050I18;8
S27000;27MS050I20;9
S28000;27MS050I20;15
S15;27SP030I19;10
S27000;27SP030I19;8
S28000;27SP030I19;8
S15;29VC240A16;15
S27000;29VC240A16;9
S28000;29VC240A16;7
S15;49LD030I20;16
S27000;49LD030I20;11
S28000;49LD030I20;13
S15;49TOTMC20;15
S27000;49TOTMC20;15
S20;01BM150K19;10
S20;01BV050K16;10
S20;01MR030K14;15
S20;01SA250LT20;8
S20;01SE125K21;22
S20;11BP100I19;8
S20;11BR100A20;10
S20;11GD250H19;19
S20;11GD250H20;20
S20;11LP040028M19;6
S20;11MW200I19;7
S20;11MWC200I19;8
S20;11PEP050I20;12
S20;15DO050VA5;13
S20;17AS500FV21;19
S20;17MC200N18;4
S20;17SH300G18;9
S20;18ET090TL17;6
S20;24GD500R19;8
S20;24MA030P15;15
S20;27DL200I20;14
S20;27HC050I18;8
S20;27MS050I20;11
S20;27SP030I19;10
S20;29VC240A16;14
S20;49LD030I20;9
S20;49TOTMC20;14
S20;52CARDENV18;1
S20;01CP200K17;12
S20;01MF150B20H;2
S20;11CM030H19;16
S20;11LC250H19;15
S20;11SA100H20;13
S20;15ET100VA5;8
S20;15GM280VB20;12
S20;15RG500L14;2
S20;17AS250G18;9
S20;17RS500P19;32
S20;17SH300FV21;19
S20;20DO050O20;8
S20;20MP030H20;6
S20;24MA030R18;16
S20;24RO010R18;10
S20;24VF050R18;5
S20;27DCB060I17;6
S20;27EV200I19;7
S20;27KTFCAPAC20;2
S20;29HD500A15;30
S20;29SH240A20;10
S20;38MI150A18;2
S20;49DB004I20;5
S20;49DC008I20;5
S20;49DH004I20;29
S20;52DE001I17;180
S21000;01BM150K19;10
S21000;01BV050K16;7
S21000;01MR030K14;89
S21000;01SA250LT20;12
S21000;01SE125K21;17
S21000;11BP100I19;8
S21000;11BR100A20;5
S21000;11GD250H19;14
S21000;11GD250H20;17
S21000;11LP040028M19;3
S21000;11MW200I19;6
S21000;11MWC200I19;8
S21000;11PEP050I20;10
S21000;15DO050VA5;9
S21000;17AS500FV21;20
S21000;17MC200N18;8
S21000;17SH300G18;14
S21000;18ET090TL17;8
S21000;24GD500R19;9
S21000;24MA030P15;19
S21000;27DL200I20;11
S21000;27HC050I18;8
S21000;27MS050I20;6
S21000;27SP030I19;9
S21000;29VC240A16;8
S21000;49LD030I20;9
S21000;49TOTMC20;14
S21000;01CP200K17;11
S21000;11CM030H19;13
S21000;11LC250H19;8
S21000;11SA100H20;51
S21000;15ET100VA5;8
S21000;15GM280VB20;13
S21000;15RG500L14;8
S21000;17AS250G18;11
S21000;17RS500P19;30
S21000;17SH300FV21;11
S21000;20DO050O20;11
S21000;20MP030H20;8
S21000;24MA030R18;17
S21000;24RO010R18;8
S21000;24VF050R18;6
S21000;27DCB060I17;5
S21000;27EV200I19;10
S21000;27KTFCAPAC20;1
S21000;27MI150I17;1
S21000;29HD500A15;17
S21000;29SH240A20;11
S21000;38MI150A18;5
S21000;49DH004I20;41
S21000;52DE001I17;226
S21000;01HDR500K20;5
S21000;01PI150K18;5
S21000;01SA250VE16;11
S21000;01SL500LV20;6
S21000;11EP010H19;6
S21000;11PM100SL19;7
S21000;11SP200SI19;4
S21000;15ET100VB3;7
S21000;17AS075E19;49
S21000;17AS250N18;6
S21000;17HR100G13;10
S21000;17RC500P19;10
S21000;18ET010TL17;3
S21000;20ET075OC20;12
S21000;24ET075CB4;9
S21000;27DH030I20;14
S21000;27HSR030I16;8
S21000;29EC200A13;9
S21000;38FT200A18;7
S21000;38WS030A18;3
S21000;49BF2NO20;49
S21000;49DH004I17;22
S21000;52AF006G20;74
S21000;52LGEBAG18;45
S21000;01BK010K14;15
S21000;01EM075K20;5
S21000;01PI030K18;6
S21000;01RC300KB20;6
S21000;01SA250LV20;15
S21000;11SD100SI19;6
S21000;15AS250VA18;8
S21000;15ET010VB19;6
S21000;15GD250L14;9
S21000;15LC250L14;8
S21000;15MA030VB3;17
S21000;15MA075VB4;12
S21000;15RG500VA20;7
S21000;17AS500G18;13
S21000;17HI100G19;11
S21000;18SA075TL17ET;8
S21000;20DO075CD20;11
S21000;20SA050CD20;9
S21000;27BP050I19;5
S21000;27BY015I19;12
S21000;27DB015I20;18
S21000;27MI150I20;10
S21000;27OR050I21C;6
S21000;29ASH240A20;9
S21000;52CL0015K18;54
S21000;52DC0015I20;1265
S21000;52TS001R21;121
S21000;01CL200K21;10
S21000;11CM030H20;40
S21000;11LD200I19;14
S21000;11PM100SI19;8
S29000;01HDR500K20;30
S29000;01PI150K18;9
S29000;01SA250VE16;30
S29000;01SL500LV20;12
S29000;11EP010H19;9
S29000;11PM100SL19;10
S29000;11SP200SI19;10
S29000;15ET100VB3;9
S29000;17AS250N18;10
S29000;17HR100G13;24
S29000;17RC500P19;32
S29000;18ET010TL17;8
S29000;20ET075OC20;8
S29000;24ET075CB4;8
S29000;24MA030RC20H;10
S29000;27DH030I20;14
S29000;27HSR030I16;10
S29000;29EC200A13;8
S29000;38FT200A18;11
S29000;38WS030A18;10
S29000;52AF006G20;87
S29000;52PS0015R21;100
S29000;52SGENSA18;93
S29000;01BK010K14;20
S29000;01EM075K20;8
S29000;01MA075K18;8
S29000;01PI030K18;9
S29000;01RC300KB20;11
S29000;01SA250LV20;16
S29000;11SD100SI19;8
S29000;15AS250VA18;17
S29000;15CC150VB19;3
S29000;15ET010VB19;10
S29000;15GD250L14;23
S29000;15LC250L14;11
S29000;15MA030VB3;16
S29000;15MA075VB4;18
S29000;15RG500VA20;19
S29000;17AS500G18;16
S29000;17HI100G19;22
S29000;18SA075TL17ET;11
S29000;20DO075CD20;9
S29000;20SA050CD20;15
S29000;27BY015I19;11
S29000;27DB015I20;31
S29000;27MI150I20;9
S29000;27OR050I21C;1
S29000;29ASH240A20;14
S29000;52CL0015K18;93
S29000;52DC0015I20;121
S29000;52TS001R21;84
S29000;01CL200K21;15
S20;52HF004K17;93
S20;52MGEBAG19;372
S20;98BBGD050VE2;29
S20;01HDR500K20;1
S20;01PI150K18;8
S20;01SA250VE16;16
S20;01SL500LV20;8
S20;11EP010H19;12
S20;11PM100SL19;10
S20;11SP200SI19;4
S20;15ET100VB3;8
S20;17AS250N18;5
S20;17HR100G13;14
S20;17RC500P19;12
S20;18ET010TL17;10
S20;20ET075OC20;7
S20;24ET075CB4;10
S20;27DH030I20;9
S20;27HSR030I16;7
S20;27OR075I20;4
S20;29EC200A13;8
S20;38FT200A18;7
S20;38WS030A18;6
S20;52AF006G20;187
S20;52LGEBAG18;59
S20;52PS0015R21;248
S20;52SGENSA18;122
S20;01BK010K14;11
S20;01EM075K20;6
S20;01PI030K18;14
S20;01RC300KB20;8
S20;01SA250LV20;15
S20;01SL300CI20;2
S20;11SD100SI19;6
S20;15AS250VA18;15
S20;15ET010VB19;6
S20;15GD250L14;8
S20;15LC250L14;6
S20;15MA030VB3;18
S20;15MA075VB4;13
S20;15RG500VA20;11
S20;17AS500G18;6
S20;17HI100G19;9
S20;18SA075TL17ET;10
S20;20DO075CD20;12
S20;20SA050CD20;19
S20;27BP050I19;6
S20;27BY015I19;6
S20;27DB015I20;10
S20;27MI150I20;4
S20;27OR050I21C;13
S20;29ASH240A20;10
S20;52CL0015K18;129
S20;52DC0015I20;391
S90000;18SA075TL17ET;11
S24000;20DO075CD20;8
S90000;20DO075CD20;8
S24000;20SA050CD20;8
S90000;20SA050CD20;9
S90000;24GD250C21;1
S24000;27BP050I19;10
S24000;27BY015I19;13
S90000;27BY015I19;9
S24000;27DB015I20;19
S90000;27DB015I20;12
S24000;27MI150I20;6
S90000;27OR050I21C;15
S24000;29ASH240A20;8
S90000;29ASH240A20;11
S90000;52BOWEB117;2372
S90000;52BOWEB217;5566
S90000;52BOWEB317;2349
S24000;52CL0015K18;48
S90000;52CLASANO19;32
S90000;52CLASANO20;1
S24000;52DC0015I20;148
S90000;52DC0015I20;296
S90000;52ER002I21;491
S90000;52TRSAM19;15
S24000;52TS001R21;96
S90000;52TS001R21;100
S90000;52MGEBAG18;54
S24000;52MGEBAG19;27
S90000;52MGEBAG19;100
S90000;52SMSANO19;152
S90000;52SMSANO20;120
S24000;98BBGD050VE2;26
S90000;98BBGD050VE2;19
S24000;01HDR500K20;9
S90000;01HDR500K20;8
S24000;01PI150K18;2
S90000;01PI150K18;14
S24000;01SA250VE16;12
S90000;01SA250VE16;4
S24000;01SL500LV20;7
S90000;01SL500LV20;10
S24000;11EP010H19;8
S90000;11EP010H19;7
S24000;11PM100SL19;7
S90000;11PM100SL19;7
S24000;11SP200SI19;7
S90000;11SP200SI19;11
S24000;15ET100VB3;7
S90000;15ET100VB3;6
S90000;15LC070VB5;69
S90000;17AS075E19;78
S24000;17AS250N18;7
S90000;17AS250N18;7
S24000;17HR100G13;8
S90000;17HR100G13;8
S24000;17RC500P19;11
S90000;17RC500P19;14
S24000;18ET010TL17;11
S90000;18ET010TL17;7
S24000;20ET075OC20;7
S90000;20ET075OC20;9
S24000;24ET075CB4;13
S90000;24ET075CB4;7
S24000;27DH030I20;13
S90000;27DH030I20;15
S24000;27HSR030I16;14
S90000;27HSR030I16;5
S24000;29EC200A13;8
S90000;29EC200A13;13
S24000;38FT200A18;8
S90000;38FT200A18;8
S24000;38WS030A18;10
S90000;38WS030A18;7
S90000;49BF2NO20;83
S24000;49DH004I17;27
S90000;49DH004I17;19
S90000;49ET007CB19;4
S90000;49ET007CB4;3
S90000;49PCRKO17;22
S90000;49TOBAGSA20;77
S24000;52AF006G20;188
S90000;52DH001I17;2
S24000;52PS0015R21;87
S90000;52PS0015R21;100
S24000;52PSAC18;1
S24000;52SGENSA18;6
S90000;52SGENSA18;112
S24000;01CL200K21;12
S90000;01CL200K21;9
S90000;01MA030K20H;4
S90000;01MA030K21;6
S24000;11CM030H20;12
S90000;11CM030H20;12
S24000;11LD200I19;6
S90000;11LD200I19;10
S24000;11PM100SI19;8
S90000;11PM100SI19;10
S24000;11SP200SL19;6
S90000;11SP200SL19;14
S24000;15BA500L16A;7
S90000;15BA500L16A;16
S24000;15CL150VM20H;4
S24000;15LC250VA5;6
S90000;15LC250VA5;10
S28000;49TOTMC20;16
S28000;49DB004I20;16
S15;49DC008I20;2
S27000;49DC008I20;2
S28000;49DC008I20;10
S15;49DH004I20;40
S27000;49DH004I20;30
S28000;49DH004I20;15
S28000;49DRANO19;19
S15;49HD035K19H;8
S15;52DE001I17;115
S27000;52DE001I17;252
S28000;52DE001I17;246
S27000;52HF004K17;110
S28000;52HF004K17;108
S15;52MGEBAG19;121
S27000;52MGEBAG19;66
S28000;52MGEBAG19;688
S15;98BBGD050VE2;47
S27000;98BBGD050VE2;28
S28000;98BBGD050VE2;13
S15;52PS0015R21;53
S27000;52PS0015R21;57
S28000;52PS0015R21;25
S28000;52PSAC18;1
S15;52SGENSA18;8
S27000;52SGENSA18;212
S28000;52SGENSA18;196
S28000;52YGERIB18;2
S15;27OR050I21C;24
S27000;27OR050I21C;11
S15;29ASH240A20;7
S27000;29ASH240A20;6
S28000;29ASH240A20;9
S15;52CL0015K18;153
S27000;52CL0015K18;159
S28000;52CL0015K18;116
S27000;52CLASANO19;6
S15;52DC0015I20;114
S27000;52DC0015I20;349
S28000;52DC0015I20;115
S15;52TS001R21;151
S27000;52TS001R21;125
S28000;52TS001R21;37
S15;52DS001I20;380
S27000;52DS001I20;308
S28000;52DS001I20;132
S27000;52EV002I19;55
S28000;52EV002I19;4
S15;52FP0015I19;18
S27000;52FP0015I19;194
S28000;52FP0015I19;132
S15;52K20BIM20;2
S20;52MC006N18;3
S20;52TS001R21;261
S20;01CL200K21;10
S20;11CM030H20;24
S20;11LD200I19;10
S20;11PM100SI19;8
S20;11SP200SL19;4
S20;15BA500L16A;13
S20;15LC250VA5;9
S20;17AS250FV21;15
S20;17ER075P19;6
S20;17RS500G19;41
S20;17RS500N18;5
S20;17SH500N18;5
S20;24ET050R18;9
S20;24MA030S6;15
S20;27DH015I20;13
S20;27DL200I13US;4
S20;27MP150I20;6
S20;38RC050A18;8
S20;49CM030I19;10
S20;52CP006K17;210
S20;52DF002I17;87
S20;52DS001I20;188
S20;52EV002I19;103
S20;52FP0015I19;71
S20;52OR001I19;351
S20;01SA050KV20;11
S20;01SL300VE20;9
S20;11BG140SH19;9
S20;11SD100SH19;5
S20;15GD250VB17;18
S20;17AS500N18;5
S20;17DO050F13;18
S20;17SH075G18;9
S20;18LC250TL17ET;7
S20;20SA050O20;20
S20;24MA030CB4;15
S20;27DS030I20;15
S20;29BP100A18;1
S20;38ST016A18;6
S20;49POUM20;18
S20;52AS006FV21;229
S20;52DH001I20;516
S20;52SGEBAG19;427
S20;01BP050K21;9
S20;01HF100K17;7
S20;01SL0045K13;34
S20;15CP250VA5;4
S20;17AS075G18;13
S20;17RC500N18;7
S20;17SH300E19;14
S20;17SH300P19;9
S20;18BI030TL17ET;19
S24000;17AS250FV21;10
S90000;17AS250FV21;15
S24000;17ER075P19;9
S90000;17ER075P19;8
S90000;17RC500F18;1
S24000;17RS500G19;19
S90000;17RS500G19;23
S24000;17RS500N18;7
S90000;17RS500N18;11
S24000;17SH500N18;4
S90000;17SH500N18;6
S24000;24ET050R18;8
S90000;24ET050R18;7
S24000;24MA030S6;24
S90000;24MA030S6;16
S24000;27DH015I20;9
S24000;27MP150I20;9
S90000;27MP150I20;15
S24000;38RC050A18;5
S90000;38RC050A18;9
S24000;49CM030I19;10
S90000;49CM030I19;57
S90000;49EP005H20;1
S90000;49FC030A15;3
S90000;49LC035CB6;127
S24000;52CP006K17;130
S90000;52CP006K17;200
S24000;52DF002I17;239
S90000;52DF002I17;334
S24000;52DS001I20;199
S90000;52DS001I20;140
S24000;52EV002I19;24
S24000;52FP0015I19;146
S24000;52K20BIM20;2
S24000;52OR001I19;302
S90000;52OR001I19;700
S24000;52RC0015A18;33
S90000;01CM300K11;4
S24000;01SA050KV20;18
S90000;01SA050KV20;12
S24000;01SL300VE20;7
S90000;01SL300VE20;13
S24000;11BG140SH19;6
S90000;11GN040A19;5
S24000;11SD100SH19;8
S90000;11SD100SH19;11
S24000;15GD250VB17;13
S90000;15GD250VB17;15
S90000;15RS500VB3;13
S24000;17AS500N18;7
S90000;17AS500N18;13
S24000;17DO050F13;10
S90000;17DO050F13;12
S29000;11CM030H20;16
S29000;11LD200I19;12
S29000;11PM100SI19;8
S29000;11SP200SL19;14
S29000;15BA500L16A;8
S29000;15CL150VM20H;5
S29000;15LC250VA5;10
S29000;17AS250FV21;18
S29000;17ER075P19;17
S29000;17RS500G19;45
S29000;17RS500N18;27
S29000;17SH500N18;18
S29000;20AR075CD16A;7
S29000;24ET050R18;10
S29000;24ET050RC20H;2
S29000;24MA030S6;18
S29000;27DH015I20;17
S29000;27DL200I13US;4
S29000;27MP150I20;4
S29000;38RC050A18;12
S29000;49CM030I19;24
S29000;52CP006K17;74
S29000;52DF002I17;137
S29000;52DS001I20;268
S29000;52EV002I19;226
S29000;52FP0015I19;69
S29000;52K20BIM20;2
S29000;52OR001I19;243
S29000;52RC0015A18;66
S29000;01SA050KV20;30
S29000;01SL300VE20;6
S29000;11SD100SH19;8
S29000;15GD250VB17;18
S29000;17AS500N18;11
S29000;17DO050F13;13
S29000;17SH075G18;22
S29000;18LC250TL17ET;15
S29000;20SA050O20;14
S29000;24MA030CB4;15
S29000;27DS030I20;32
S29000;29BP100A18;9
S29000;38ST016A18;11
S29000;49ET007R18;32
S29000;52AS006FV21;133
S29000;52DH001I20;167
S29000;01BP050K21;18
S29000;01HF100K17;8
S29000;01SL0045K13;33
S29000;15CP250VA5;12
S29000;17AS075G18;22
S29000;17RC500N18;15
S29000;17SH300E19;13
S29000;17SH300P19;15
S10;01BM150K19;22
S10;01BV050K16;6
S10;01MR030K14;19
S10;01SA250LT20;17
S10;01SE125K21;12
S10;11BP100I19;10
S10;11GD250H19;15
S10;11GD250H20;17
S10;11LP040028M19;2
S10;11MW200I19;9
S10;11MWC200I19;8
S10;11PEP050I20;9
S10;15DO050VA5;11
S10;17AS500FV21;29
S10;17MC200N18;6
S10;17SH300G18;17
S10;18ET090TL17;5
S10;24MA030P15;30
S10;27DL200I20;16
S10;27HC050I18;8
S10;27MS050I20;7
S10;27SP030I19;15
S10;29VC240A16;10
S10;49LD030I20;13
S10;49TOTMC20;15
S10;52FT002A18;87
S10;01CP200K17;13
S10;11CM030H19;23
S10;11LC250H19;23
S10;11SA100H20;6
S10;15ET100VA5;8
S10;15GM280VB20;5
S10;15RG500L14;24
S10;17AS250G18;11
S10;17RS500P19;36
S10;17SH300FV21;13
S10;20DO050O20;12
S10;20MP030H20;6
S10;24RO010R18;12
S10;24VF050R18;8
S10;27DCB060I17;6
S10;27EV200I19;19
S10;27KTFCAPAC20;6
S10;29HD500A15;15
S10;29SH240A20;9
S10;38MI150A18;8
S10;49DC008I20;4
S10;49DH004I20;15
S10;52DE001I17;176
S10;52HF004K17;98
S10;52MGEBAG18;181
S10;52MGEBAG19;300
S10;98BBGD050VE2;26
S10;01HDR500K20;6
S28000;52K20BIM20;2
S15;52OR001I19;186
S27000;52OR001I19;330
S28000;52OR001I19;148
S27000;52RC0015A18;5
S28000;52RC0015A18;67
S15;01CM300K11;2
S28000;01CM300K11;1
S15;01SA050KV20;20
S27000;01SA050KV20;4
S28000;01SA050KV20;31
S15;01SL300VE20;6
S27000;01SL300VE20;7
S28000;01SL300VE20;10
S15;11BG140SH19;10
S27000;11BG140SH19;7
S15;11SD100SH19;10
S27000;11SD100SH19;8
S28000;11SD100SH19;6
S15;15GD250VB17;23
S27000;15GD250VB17;12
S28000;15GD250VB17;22
S15;17AS500N18;6
S27000;17AS500N18;7
S28000;17AS500N18;8
S15;17DO050F13;18
S27000;17DO050F13;8
S28000;17DO050F13;20
S27000;17IC200D15;1
S28000;17IC200D15;1
S15;17SH075G18;27
S27000;17SH075G18;11
S28000;17SH075G18;14
S15;18LC250TL17ET;16
S27000;18LC250TL17ET;14
S28000;18LC250TL17ET;18
S28000;20ET100CD16A;2
S15;20SA050O20;12
S27000;20SA050O20;7
S28000;20SA050O20;9
S15;24MA030CB4;46
S27000;24MA030CB4;15
S28000;24MA030CB4;46
S15;27DS030I20;11
S27000;27DS030I20;9
S28000;27DS030I20;15
S28000;27SP030I14;5
S15;29BP100A18;1
S27000;29BP100A18;4
S15;29MA075A16;4
S27000;29MA075A16;4
S28000;29MA075A16;4
S15;38ST016A18;8
S27000;38ST016A18;11
S28000;38ST016A18;13
S15;49POUM20;33
S27000;49POUM20;18
S28000;49POUM20;19
S15;52AS006FV21;163
S27000;52AS006FV21;90
S28000;52AS006FV21;228
S15;52DH001I20;77
S27000;52DH001I20;426
S28000;52DH001I20;447
S27000;52ORT001I18;78
S15;52SGEBAG19;231
S27000;52SGEBAG19;557
S28000;52SGEBAG19;190
S28000;01BL012H19H;1
S15;01BP050K21;13
S27000;01BP050K21;12
S28000;01BP050K21;32
S15;01HF100K17;10
S27000;01HF100K17;7
S28000;01HF100K17;7
S15;01SL0045K13;53
S27000;01SL0045K13;19
S28000;01SL0045K13;58
S15;15CP250VA5;7
S27000;15CP250VA5;8
S28000;15CP250VA5;6
S15;17AS075G18;32
S27000;17AS075G18;15
S28000;17AS075G18;18
S15;17RC500N18;5
S27000;17RC500N18;5
S28000;17RC500N18;11
S15;17SH300E19;17
S27000;17SH300E19;14
S28000;17SH300E19;12
S15;17SH300P19;15
S27000;17SH300P19;11
S28000;17SH300P19;18
S15;18BI030TL17ET;31
S27000;18BI030TL17ET;27
S28000;18BI030TL17ET;41
S15;24BR050C21;12
S27000;24BR050C21;5
S28000;24BR050C21;11
S15;24MA075CB4;16
S27000;24MA075CB4;14
S28000;24MA075CB4;36
S15;49MS008I20;23
S27000;49MS008I20;18
S28000;49MS008I20;8
S15;49SH035E20;53
S90000;17IC200D15;1
S24000;17SH075G18;17
S90000;17SH075G18;23
S24000;18LC250TL17ET;9
S90000;18LC250TL17ET;12
S24000;20SA050O20;8
S90000;20SA050O20;11
S90000;24GD075C19;2
S24000;24LC250P15A;1
S90000;24LC250P15A;1
S24000;24MA030CB4;8
S90000;24MA030CB4;9
S24000;27DS030I20;10
S90000;27DS030I20;12
S24000;27SP030I14;3
S90000;27SP030I14;1
S24000;29BP100A18;3
S90000;29MA075A16;1
S24000;38ST016A18;8
S90000;38ST016A18;6
S90000;49CP008I14A;27
S90000;49ET007R18;53
S24000;49IC1POU20;10
S90000;49IC1POU20;9
S90000;49IC3POU20;10
S24000;49JEWNO19;66
S90000;49JEWNO19;3
S90000;49POCB19;1
S24000;49POUM20;18
S90000;49POUM20;12
S90000;49TRSOL15;16
S90000;52AS006F17;63
S24000;52AS006FV21;75
S90000;52AS006FV21;288
S90000;52COTLTM19;4
S24000;52DH001I20;209
S90000;52DH001I20;294
S90000;52MMBANO20;50
S24000;52SGEBAG19;130
S90000;52SGEBAG19;293
S24000;01BP050K21;14
S90000;01BP050K21;9
S24000;01HF100K17;6
S90000;01HF100K17;6
S90000;01LT300K12;3
S24000;01SL0045K13;23
S90000;01SL0045K13;10
S90000;11LC050H19;30
S90000;11LC050H20;1
S24000;15CP250VA5;5
S90000;15CP250VA5;9
S24000;17AS075G18;11
S90000;17AS075G18;38
S10;01PI150K18;9
S10;01SA250VE16;13
S10;01SL500LV20;7
S10;11EP010H19;10
S10;11PM100SL19;13
S10;11SP200SI19;11
S10;15ET100VB3;10
S10;17AS250N18;5
S10;17HR100G13;10
S10;17RC500P19;19
S10;18ET010TL17;11
S10;20ET075OC20;8
S10;24ET075CB4;7
S10;27DH030I20;19
S10;27HSR030I16;7
S10;29EC200A13;9
S10;38FT200A18;5
S10;38WS030A18;7
S10;52AF006G20;189
S10;52LGEBAG18;141
S10;52PS0015R21;261
S10;52SGENSA18;143
S10;01BK010K14;18
S10;01EM075K20;9
S10;01MA075K18;6
S10;01PI030K18;9
S10;01RC300KB20;4
S10;01SA250LV20;17
S10;11SD100SI19;8
S10;15AS250VA18;10
S10;15ET010VB19;7
S10;15GD250L14;12
S10;15LC250L14;9
S10;15MA030VB3;18
S10;15MA075VB4;14
S10;17AS500G18;21
S10;17HI100G19;10
S10;18SA075TL17ET;8
S10;20DO075CD20;15
S10;20SA050CD20;7
S10;24GD250C21;10
S10;24MA030R18;17
S10;27BP050I19;9
S10;27BY015I19;9
S10;27DB015I20;12
S10;27MI150I20;6
S10;27OR050I21C;29
S10;29ASH240A20;9
S10;52CL0015K18;117
S10;52DC0015I20;170
S10;52MC006N18;15
S10;52TS001R21;253
S10;01CL200K21;6
S10;01MA030K21;13
S29000;18BI030TL17ET;18
S29000;24BR050C21;9
S29000;24MA075CB4;18
S29000;49SH035E20;33
S29000;01BM050K19;11
S29000;01CL300KB20;8
S29000;01MA030K16;29
S29000;01SA100VE20;10
S29000;11CF100TR19;8
S29000;11ET050H20;13
S29000;11FAG10TR19;10
S29000;11SD100SL19;7
S29000;15GM065VB20;34
S29000;15LC250VB3;19
S29000;15MF075VM20H;13
S29000;17RS500E20;10
S29000;17SH060SE21;18
S29000;17SH060SG21;18
S29000;17SH060SP21;18
S29000;17SH500E19;16
S29000;18ET050TL17;9
S29000;20FE050H20;4
S29000;20HR050H20;4
S29000;24AF050R18;14
S29000;24BL012CB5;11
S29000;24BR050R19;10
S29000;24EF050R18;2
S29000;24GD075R18;32
S29000;24GD250CB4;18
S29000;27BP050I19;11
S29000;29HD250A21C;1
S29000;29LC200A14US;25
S29000;29MAV075A19;20
S29000;52DB001I20;228
S29000;52HD006A18;68
S29000;52SH006N18;149
S29000;52SH006P19;170
S29000;01EN300KB19;31
S29000;01HD250K17;12
S29000;01LH300KB19;14
S29000;01MA150K18;4
S29000;01PI075K18;12
S29000;01RV500K20;5
S29000;01SA100VE16;11
S29000;11BG240DE20H;5
S29000;11GD050A18;10
S29000;11MH075A19;9
S29000;15MA030VA5;11
S29000;15SH250VA17;9
S29000;17SH500FV21;18
S29000;20AR075O20;12
S29000;20ET010CD19;8
SLM001;01BM150K19;15
SLM001;17AS500FV21;12
SLM001;17MC200N18;17
SLM001;17SH300G18;17
SLM001;18ET090TL17;13
SLM001;24MA030P15;22
SLM001;27MS050I20;31
SLM001;49LD030I20;17
SLM001;15RG500L14;9
SLM001;17AS250G18;26
SLM001;17RS500P19;36
SLM001;17SH300FV21;12
SLM001;24GD250S6;2
SLM001;27DCB060I17;10
SLM001;27MI150I17;1
SLM001;29HD500A15;106
SLM001;29SH240A20;7
SLM001;49BP010K19;20
SLM001;49DC008I20;8
SLM001;49DH004I20;26
SLM001;49MA010P15;16
SLM001;01PI150K18;12
SLM001;10KTCMAPAC20;2
SLM001;15LC070VB5;17
SLM001;17AS250N18;10
SLM001;17HR100G13;10
SLM001;17RC500P19;29
SLM001;18ET010TL17;6
SLM001;24ET075CB4;1
SLM001;27DH030I20;10
SLM001;29EC200A13;4
SLM001;38WS030A18;23
SLM001;49ET007CB4;66
SLM001;49TOBAGSA20;1
SLM001;52SGEBOX18;48
SLM001;01BK010K14;9
SLM001;01MA075K18;34
SLM001;01MA150K19H;2
SLM001;15GD070VB17;23
SLM001;15GD250L14;31
SLM001;15LC250L14;21
SLM001;15MA030VB3;32
SLM001;17AS500G18;15
SLM001;17HI100G19;6
SLM001;17SH075N18;12
SLM001;29ASH240A20;9
SLM001;49TRARO15;42
SLM001;52CLASANO20;2
SLM001;52DC0015I20;33
SLM001;15BA500L16A;7
SLM001;15LC250VA5;18
SLM001;17AS250F17;1
SLM001;17ER075P19;6
S20;24BR050C21;6
S20;24MA075CB4;13
S20;49MS008I20;12
S20;49SH035E20;47
S20;52MIGEBAG19;183
S20;01BM050K19;9
S20;01CL300KB20;12
S20;01MA030K16;17
S20;01SA100VE20;6
S20;11CF100TR19;14
S20;11ET050H20;10
S20;11SD100SL19;9
S20;15GM065VB20;13
S20;15LC250VB3;15
S20;15MF075VM20H;4
S20;17RS500E20;12
S20;17SE125D15;5
S20;17SH060SE21;15
S20;17SH060SG21;12
S20;17SH060SP21;12
S20;17SH500E19;14
S20;18ET050TL17;7
S20;20FE050H20;5
S20;20HR050H20;5
S20;24AF050R18;6
S20;24BL012CB5;6
S20;24BR050R19;7
S20;24GD250CB4;10
S20;29LC200A14US;24
S20;29MAV075A19;8
S20;49OR005I19;8
S20;52DB001I20;154
S20;52HD006A18;595
S20;52SH006N18;98
S20;52SH006P19;335
S20;01EN300KB19;30
S20;01HD250K17;12
S20;01LH100KB19;2
S20;01LH300KB19;11
S20;01MA150K18;13
S20;01PI030KA;2
S20;01PI075K18;13
S20;01RV500K20;11
S20;11BG240DE20H;2
S20;11GD050A18;10
S20;11MH075A19;7
S20;15MA030VA5;18
S20;15SH250VA17;14
S20;17SH500FV21;10
S20;20AR075O20;9
S20;20ET010CD19;4
S20;24MA030RA19;9
S20;27DB015I16;2
S20;27DS030I17A;3
S27000;49SH035E20;16
S28000;49SH035E20;113
S27000;52MIGEBAG19;127
S28000;52MIGEBAG19;133
S15;52MOCOL216;1
S28000;52MOCOL216;1
S27000;24BR050R19;13
S28000;24BR050R19;9
S15;24EF050R18;5
S27000;24EF050R18;6
S28000;24EF050R18;12
S15;24GD250CB4;17
S27000;24GD250CB4;12
S28000;24GD250CB4;24
S28000;27BP050I19;13
S15;27DH030I17A;7
S27000;27DH030I17A;1
S15;29LC200A14US;9
S27000;29LC200A14US;3
S15;29MAV075A19;10
S27000;29MAV075A19;3
S28000;29MAV075A19;10
S15;49CP020K18;1
S27000;49CP020K18;13
S15;49OR005I19;23
S27000;49OR005I19;9
S28000;49OR005I19;18
S15;52DB001I20;97
S27000;52DB001I20;228
S28000;52DB001I20;113
S15;52HD006A18;10
S27000;52HD006A18;141
S28000;52HD006A18;19
S27000;52KT10PCO18;1
S15;52SH006N18;155
S27000;52SH006N18;20
S28000;52SH006N18;168
S15;52SH006P19;292
S27000;52SH006P19;269
S28000;52SH006P19;41
S28000;38WC050A18;6
S15;49CL008K21;1
S15;52BGERIB18;2
S27000;52BGERIB18;2
S15;52CD0015A18;12
S27000;52CD0015A18;215
S28000;52CD0015A18;134
S27000;52DS001I17;131
S15;52HR004G17;15
S27000;52HR004G17;168
S28000;52HR004G17;52
S15;52SH006G18;259
S27000;52SH006G18;241
S21000;11SP200SL19;11
S21000;52SGENSA18;78
S21000;52PS0015R21;138
S21000;52MGEBAG19;103
S21000;98BBGD050VE2;26
S21000;15BA500L16A;6
S21000;15CL150VM20H;8
S21000;15LC250VA5;6
S21000;17AS250FV21;11
S21000;17ER075P19;8
S21000;17RS500G19;33
S21000;17RS500N18;4
S21000;17SH500D16;1
S21000;17SH500N18;6
S21000;24ET050R18;7
S21000;24MA030S6;19
S21000;27DH015I20;15
S21000;27DL200I13US;10
S21000;27MP150I20;10
S21000;38RC050A18;7
S21000;49CM030I19;8
S21000;52CP006K17;127
S21000;52DF002I17;99
S21000;52DS001I20;108
S21000;52FP0015I19;88
S21000;52K20BIM20;2
S21000;52OR001I19;91
S21000;01SL300VE20;8
S21000;11BG140SH19;4
S21000;11SD100SH19;7
S21000;15GD250VB17;11
S21000;17AS500N18;9
S21000;17DO050F13;8
S21000;17IC200D15;1
S21000;17SH075G18;1
S21000;18LC250TL17ET;11
S21000;20SA050O20;12
S21000;24MA030CB4;23
S21000;27DC050I17A;3
S21000;27DS030I20;8
S21000;29MA075A16;1
S21000;38ST016A18;6
S21000;49POUM20;14
S21000;52AS006FV21;97
S21000;52DH001I20;877
S21000;52SGEBAG19;294
S21000;01BP050K21;10
S21000;01HF100K17;7
S21000;01SL0045K13;38
S21000;15CP250VA5;5
S21000;17AS075G18;2
S21000;17RC500N18;8
S21000;17SH300E19;6
S29000;24LC250S6;1
S29000;24MA030RA19;9
S29000;27OR030I19;27
S29000;27TS050I20;34
S29000;29MA075A19;17
S29000;29SA050A17;12
S29000;38WC050A18;9
S29000;49TC1NO20;2
S29000;52CD0015A18;91
S29000;52DS001I17;130
S29000;52HR004G17;37
S29000;52SH006G18;145
S29000;01BG070K21;17
S29000;01CL200K17;27
S29000;01RL500K20;23
S29000;11CD050A18;6
S29000;11ET010H20;3
S29000;11SA100H19;9
S29000;15CC150VA19;4
S29000;15HE005L14;6
S29000;17AS500P19;9
S29000;17RS500FV21;11
S29000;17SH300D15;4
S29000;17SH300N18;6
S29000;20DO130HC20;10
S29000;20GD250CD20;22
S29000;24EDT050C21;8
S29000;24EDT10C21;25
S29000;24MA075P15;14
S29000;27DC030I20;21
S29000;27HCR050I16;16
S29000;27HS030I18;16
S29000;29HD075A15;10
S29000;29MA030A17;12
S29000;29RC200A19;22
S29000;49PO2HER20;33
S29000;52DB001I17;70
S29000;52SH006FV21;130
S29000;01SA100LT16;14
S29000;01SA100LV20;20
S29000;11BH050A18;7
S29000;11EP050H19;20
S29000;11EP090H19;13
S29000;11GM200I19;10
S29000;11LP080028M19;6
S29000;11SD100CS19;3
S29000;15GN300L11;22
S29000;15MA075L11;19
S29000;17AS500E19;14
S29000;17HI001G19;131
S29000;18GD250TL17ET;20
S29000;20SA050HC20;15
S29000;24LC250CB4;13
S20;27OR030I19;35
S20;27TS050I20;24
S20;29MA075A19;9
S20;29SA050A17;12
S20;38WC050A18;8
S20;52BGERIB18;1
S20;52CD0015A18;145
S20;52DS001I17;144
S20;52HR004G17;161
S20;52SH006G18;280
S20;01BG070K21;20
S20;01CL200K17;7
S20;01RL500K20;23
S20;11CD050A18;10
S20;11ET010H20;13
S20;11SA100H19;5
S20;15CC150VA19;8
S20;17AS500P19;10
S20;17RS500FV21;25
S20;17SH300D15;6
S20;17SH300N18;5
S20;20DO130HC20;7
S20;20GD250CD20;12
S20;24EDT050C21;3
S20;24EDT10C21;25
S20;24MA075P15;19
S20;27DC030I20;14
S20;27HCR050I16;5
S20;27HS030I18;8
S20;29MA030A17;15
S20;29RC200A19;8
S20;49PO2HER20;23
S20;52DB001I17;61
S20;52SH006FV21;214
S20;01CL050K18;9
S20;01SA100LT16;8
S20;01SA100LV20;22
S20;11BH050A18;12
S20;11EP050H19;10
S20;11EP090H19;11
S20;11GM200I19;6
S20;11LP080028M19;6
S20;11SD100CS19;6
S20;15GN300L11;7
S20;15MA075L11;14
S20;17AS500E19;13
S20;17HI001G19;174
S20;18GD250TL17ET;14
S20;20SA050HC20;20
S20;24LC250CB4;13
S20;24MA030RE19;7
S20;27DC065I21;11
S20;27MQ065I15A;3
S20;27RM300I20;14
S10;11CM030H20;18
S10;11LD200I19;6
S10;11PM100SI19;8
S10;11SP200SL19;8
S10;15BA500L16A;8
S10;15CL150VM20H;1
S10;15LC250VA5;10
S10;17AS250FV21;11
S10;17ER075P19;9
S10;17RS500G19;33
S10;17RS500N18;5
S10;17SH500N18;5
S10;24ET050R18;9
S10;24MA030S6;26
S10;27DH015I20;17
S10;27MP150I20;6
S10;38RC050A18;8
S10;49CM030I19;10
S10;52CP006K17;167
S10;52DF002I17;154
S10;52DS001I20;280
S10;52EV002I19;117
S10;52FP0015I19;252
S10;52OR001I19;384
S10;52RC0015A18;115
S10;01CM300K11;4
S10;01SL300VE20;8
S10;11BG140SH19;7
S10;11GN040A19;1
S10;11SD100SH19;8
S10;15GD250VB17;14
S10;17AS500N18;4
S10;17DO050F13;14
S10;17IC200D15;9
S10;17SH075G18;10
S10;18LC250TL17ET;10
S10;20SA050O20;5
S10;24LC250P15A;3
S10;24MA030CB4;35
S10;27DS030I20;11
S10;38ST016A18;8
S10;49POUM20;15
S10;52AS006FV21;138
S10;52DH001I20;398
S10;52MMBANO20;75
S10;52ORT001I18;145
S10;52SGEBAG19;293
S10;01BP050K21;17
S10;01HF100K17;4
S10;01SL0045K13;32
S10;15CP250VA5;5
S10;17AS075G18;10
S10;17RC500N18;8
S10;17SH300E19;11
S20;29HS100A18;13
S20;29SE125A21;13
S20;49CP008I19;7
S20;49LC020A15;10
S20;49POUIS19;15
S20;52AS006G18;240
S20;52MA003K16A;143
S20;52MS001I20;194
S20;01CV050K15;3
S20;01HV030K16;3
S20;01PR015R19;9
S20;11GE075I20;7
S20;11LH200I19;8
S20;11SP200CS19;9
S20;15GC150VBL20;6
S20;15GD500VB17;14
S20;15SA070VB6;6
S20;17AS250P19;17
S20;17RC500E20;16
S20;17SH500G18;15
S20;17VI100P19;10
S20;24RO010C20;3
S20;27ER015I20;17
S20;29BP100A19;10
S20;29RH500A15;14
S20;38UV030A18;10
S20;38WS030A21;14
S20;49MA010K16;29
S20;52HS001I17;104
S20;52HS004A18;203
S20;52LT002R21;253
S20;52MOCOL316;1
S20;52WC0015A19;82
S20;01CM300K20;6
S20;11BG140SI19;12
S20;17AF100G20;9
S20;17AS250E19;10
S20;17MM050A20;9
S20;17SE100FV21;11
S20;20GD250HC20;14
S20;20NV150H20;11
S20;24LC250R18;6
S20;24LC250R20;15
S20;27CP050I19;9
S20;27TS001I20;138
S20;38EV075A18;7
S20;52AS006N18;67
S20;52AS006P19;128
S20;52GD0015A18;175
S20;52MC006G18;140
S20;52SP001I19;229
S20;01CM030K21;33
S20;01SL500VE20;11
S20;11BO100CS19;7
S24000;17RC500N18;8
S90000;17RC500N18;8
S24000;17SH300E19;12
S90000;17SH300E19;11
S24000;17SH300P19;9
S90000;17SH300P19;13
S24000;18BI030TL17ET;35
S90000;18BI030TL17ET;11
S90000;24BR050C21;6
S90000;24LC075CB5;42
S90000;24LC250P15;11
S24000;24MA075CB4;22
S90000;24MA075CB4;9
S90000;49MA010K19H;5
S24000;49MS008I20;14
S90000;49MS008I20;99
S90000;49PO2SA19;45
S24000;49SH035E20;95
S90000;49SH035E20;69
S24000;52MIGEBAG19;69
S90000;52PMGBOX18;9
S90000;52TBOM20;28
S90000;52TRIHDTS19;26
S90000;29LC200A14US;29
S24000;29MAV075A19;8
S90000;29MAV075A19;16
S24000;49CP020K18;2
S90000;49CP020K18;164
S90000;49DF005I17;2
S90000;49EP005TL17ET;2
S90000;49GD035R14;5
S90000;49MIRCB19;2
S24000;49OR005I19;7
S90000;49OR005I19;96
S90000;49POU2VE20;140
S24000;52DB001I20;156
S90000;52DB001I20;140
S24000;52HD006A18;193
S90000;52HD006A18;527
S24000;52KT10PCO18;1
S90000;52MMBBNO20;100
S24000;52SH006N18;2
S90000;52SH006N18;101
S24000;52SH006P19;227
S90000;52SH006P19;7
S24000;52HR004G17;72
S90000;52HR004G17;129
S24000;52SH006G18;337
S90000;52WM0015A18;150
S24000;01BG070K21;19
S90000;01BG070K21;13
S24000;01CL200K17;6
S90000;01CL200K17;9
S10;17SH300P19;11
S10;18BI030TL17ET;28
S10;24BR050C21;8
S10;24MA075CB4;18
S10;49MS008I20;5
S10;49SH035E20;70
S10;52MIGEBAG19;335
S10;52PMARRON;2
S10;01BM050K19;15
S10;01CL300KB20;7
S10;01MA030K16;29
S10;01SA100VE20;12
S10;11CF100TR19;7
S10;11ET050H20;4
S10;11FAG10TR19;8
S10;11SD100SL19;9
S10;15GM065VB20;11
S10;15LC250VB3;8
S10;17RS500E20;19
S10;17SE125D15;3
S10;17SH060SE21;15
S10;17SH060SG21;10
S10;17SH060SP21;10
S10;17SH500E19;24
S10;18ET050TL17;6
S10;20FE050H20;6
S10;20HR050H20;6
S10;24AF050R18;8
S10;24BL012CB5;12
S10;24BR050R19;6
S10;24EF050R18;5
S10;24GD250CB4;16
S10;27DH030I17A;1
S10;29HD250A21C;4
S10;29LC200A14US;13
S10;29MAV075A19;8
S10;49OR005I19;11
S10;52DB001I20;76
S10;52HD006A18;260
S10;52MMBBNO20;3
S10;52SH006N18;139
S10;52SH006P19;437
S10;01EN300KB19;18
S10;01HD250K17;17
S10;01LH300KB19;9
S10;01MA150K18;11
S10;01PI075K18;29
S10;01RV500K20;14
S10;01SA100VE16;3
S10;11EH040A19;1
S10;11GD050A18;7
S10;11GD050H19;77
S10;11MH075A19;7
S10;15MA030VA5;19
S21000;17SH300P19;5
S21000;18BI030TL17ET;15
S21000;24MA075CB4;17
S21000;49MS008I20;11
S21000;49SH035E20;34
S21000;52MIGEBAG19;159
S21000;52OR001I18;355
S21000;01BM050K19;9
S21000;01CL300KB20;8
S21000;01MA030K16;102
S21000;01SA100VE20;6
S21000;11CF100TR19;21
S21000;11ET050H20;14
S21000;11FAG10TR19;4
S21000;11SD100SL19;8
S21000;15GM065VB20;24
S21000;15LC250VB3;9
S21000;17RS500E20;14
S21000;17SH500E19;15
S21000;18ET050TL17;8
S21000;20ET075HC6;2
S21000;20FE050H20;8
S21000;20HR050H20;6
S21000;24AF050R18;5
S21000;24BL012CB5;10
S21000;24BR050R19;7
S21000;24EF050R18;3
S21000;24GD250CB4;10
S21000;27DH030I17A;1
S21000;29LC200A14US;12
S21000;29MAV075A19;8
S21000;49OR005I19;90
S21000;52DB001I20;139
S21000;52HD006A18;292
S21000;52MMBBNO20;3
S21000;52SH006N18;160
S21000;52SH006P19;352
S21000;01EN300KB19;20
S21000;01HD250K17;10
S21000;01LH300KB19;7
S21000;01MA150K18;23
S21000;01PI075K18;10
S21000;01RV500K20;6
S21000;01SA100VE16;5
S21000;11GD050A18;14
S21000;11MH075A19;8
S21000;15MA030VA5;20
S21000;15SH250VA17;10
S21000;17SH075E19;49
S21000;17SH500FV21;14
S21000;20AR075O20;7
S21000;24MA030RA19;8
S21000;27DB015I16;2
S26000;29SH075A20;1
S26000;49LC020A15;1
S26000;52MGEBOX18;20
S26000;49MA010A17;1
S90000;01CP050K17;81
S24000;01RL500K20;9
S90000;01RL500K20;17
S24000;11CD050A18;10
S90000;11CD050A18;11
S24000;11ET010H20;9
S90000;11ET010H20;9
S24000;11SA100H19;18
S90000;11SA100H19;15
S24000;15CC150VA19;3
S90000;15CC150VA19;2
S90000;15ET100VAL20;1
S24000;15HE005L14;5
S90000;15HE005L14;9
S24000;17AS500P19;8
S90000;17AS500P19;16
S24000;17RS500FV21;27
S90000;17RS500FV21;12
S24000;17SH075FV21;2
S90000;17SH075FV21;42
S90000;17SH300D15;13
S24000;17SH300N18;8
S90000;17SH300N18;10
S24000;20DO130HC20;8
S90000;20DO130HC20;1
S24000;20GD250CD20;15
S90000;20GD250CD20;8
S24000;24EDT050C21;3
S90000;24EDT050C21;1
S24000;24EDT10C21;24
S90000;24EDT10C21;19
S90000;24ET050C19;2
S24000;24MA075P15;19
S90000;24MA075P15;9
S24000;27DC030I20;8
S90000;27DC030I20;9
S90000;27DS030I17;17
S24000;27HCR050I16;13
S90000;27HCR050I16;6
S24000;27HS030I18;7
S90000;27HS030I18;6
S90000;27MP050I20;24
S24000;29HD075A15;13
S90000;29HD075A15;32
S24000;29MA030A17;6
S90000;29MA030A17;6
S90000;49BAG2NO20;22
S90000;49FT030A18;12
S90000;49MF010W19H;5
S24000;49PO2HER20;30
S90000;49POUVE17;60
S90000;49VANSA19;32
S24000;52DB001I17;152
S00;27CN050I14;2
S29000;24MA030RE19;8
S29000;27MQ065I15A;6
S29000;27RM300I20;18
S29000;29HS100A18;15
S29000;29SE125A21;9
S29000;52AS006G18;156
S29000;52MA003K16A;47
S29000;52MS001I20;120
S29000;01CV050K15;5
S29000;01HV030K16;9
S29000;01PR015R19;12
S29000;11GE075I20;8
S29000;11LH200I19;10
S29000;11SP200CS19;13
S29000;15GC150VBL20;5
S29000;15GD500VB17;22
S29000;15MF030VM20H;16
S29000;15SA070VB6;18
S29000;17AS250P19;13
S29000;17RC500E20;37
S29000;17SH500G18;24
S29000;17VI100P19;27
S29000;24MA030RV19;10
S29000;27ER015I20;21
S29000;29BP100A19;10
S29000;29RH500A15;62
S29000;38UV030A18;14
S29000;38WS030A21;19
S29000;49MA010K16;5
S29000;52HS001I17;157
S29000;52HS004A18;56
S29000;52LT002R21;94
S29000;52WC0015A19;82
S29000;01CM300K20;14
S29000;11BG140SH19;8
S29000;11BG140SI19;8
S29000;17AF100G20;25
S29000;17AS250E19;8
S29000;17MM050A20;14
S29000;17SE100FV21;24
S29000;20GD250HC20;12
S29000;20NV150H20;12
S29000;24LC250R18;11
S29000;24LC250R20;18
S29000;27CP050I19;12
S29000;27TS001I20;182
S29000;38EV075A18;7
S29000;52AS006P19;18
S29000;52GD0015A18;76
S29000;52MC006G18;110
S29000;52SP001I19;172
S29000;SGOCVKI00135;8
S29000;SGOCVKI00156;2
S20;11PM100SH19;8
S20;11SD100DE20H;2
S20;15GD075L15;47
S20;15GD500VA20;10
S20;15GM065L20;26
S20;15LM300L11;6
S20;17BD125G14;8
S20;17RC500G18;35
S20;24GD250R18;12
S20;24GD250R20;18
S20;24GM030C21;18
S20;24SA050R18;17
S20;27DE015I13US;10
S20;29HD250A15;16
S20;29LC200A21C;6
S20;38WM065A18;5
S20;49AF015G20;47
S20;49DC004I20;25
S20;52HV001K18;47
S20;52LC006A18;435
S20;01CL050K21;12
S20;01CM500K20;8
S20;01EC200K17;8
S20;01HN0075K19;12
S20;01SA050KL20;13
S20;11BG140CS19;3
S20;11CM125I19;10
S20;11GN195A18;6
S20;11SV080I19;2
S20;15MA030L11;18
S20;20ET075HC20;6
S20;20GD250OC20;17
S20;24GC150C21;19
S20;24MA030RV19;8
S20;24MA075R18;8
S20;24SA050CB6;10
S20;38BV050A19;14
S20;49HD035A15;93
S20;49MR010K14;27
S20;49PFCWC21;25
S20;52BY001I19;145
S20;52ER006P19;2
S20;52LGENSA18;170
S20;52MGEBOX18;16
S20;52MGENSA18;213
S20;98BBHD050A0;2
S20;01BL012K18;10
S20;01CD250K21;15
S20;01CMR500K20;9
S20;01CP100K21;9
S20;01HD500K20;16
S20;01LT300K20;8
S20;01SL300LV20;14
S20;11BG140SL19;6
S10;15SH250VA17;14
S10;17SH500FV21;28
S10;20AR075O20;3
S10;20ET010CD19;3
S10;24MA030RA19;14
S10;27DB015I16;3
S10;27OR030I19;35
S10;27TS050I20;30
S10;29MA075A19;10
S10;29SA050A17;10
S10;38WC050A18;8
S10;52CD0015A18;195
S10;52DS001I17;130
S10;52HR004G17;125
S10;52SH006G18;513
S10;01BG070K21;19
S10;01CL200K17;16
S10;01RL500K20;22
S10;11CD050A18;8
S10;11ET010H20;17
S10;11SA100H19;15
S10;15CC150VA19;3
S10;15HE005L14;6
S10;17AS500P19;8
S10;17RS500FV21;36
S10;17SH300N18;8
S10;20DO130HC20;7
S10;20GD250CD20;30
S10;24EDT050C21;12
S10;24EDT10C21;22
S10;24MA075P15;27
S10;27DC030I20;12
S10;27HCR050I16;7
S10;27HS030I18;8
S10;29MA030A17;15
S10;29RC200A19;18
S10;49PO2HER20;23
S10;52DB001I17;170
S10;52SH006FV21;222
S10;01CL050K18;1
S10;01SA100LT16;19
S10;01SA100LV20;19
S10;11BH050A18;8
S10;11EP050H19;6
S10;11EP090H19;5
S10;11GM200I19;7
S10;11LP080028M19;6
S10;11SD100CS19;9
S10;15GN300L11;8
S10;15MA075L11;12
S10;17AS500E19;20
S10;17HI001G19;164
S10;18GD250TL17ET;13
S10;20SA050HC20;8
S90000;52MIBANO19;100
S90000;52SH006F17;63
S24000;52SH006FV21;34
S90000;52SH006FV21;288
S24000;01CV050K15;5
S90000;01CV050K15;4
S24000;01HV030K16;5
S90000;01HV030K16;7
S24000;01LC250K17;16
S90000;01LC250K17;3
S24000;01PR015R19;8
S90000;01PR015R19;11
S24000;11GE075I20;6
S90000;11GE075I20;12
S24000;11LH200I19;7
S90000;11LH200I19;8
S24000;11SP200CS19;9
S90000;11SP200CS19;9
S24000;15GC150VBL20;6
S24000;15GD500VB17;16
S90000;15GD500VB17;15
S90000;15LC075L15;10
S90000;15MF030VM20H;10
S24000;15SA070VB6;9
S90000;15SA070VB6;9
S24000;17AS250P19;8
S90000;17AS250P19;10
S24000;17RC500E20;12
S90000;17RC500E20;18
S90000;17SH075D15;19
S24000;17SH500G18;15
S90000;17SH500G18;20
S24000;17VI100P19;4
S90000;17VI100P19;12
S24000;24LC250C21;10
S90000;24LC250C21;1
S90000;24MA030RV19;12
S24000;27ER015I20;9
S90000;27ER015I20;19
S24000;29BP100A19;8
S90000;29BP100A19;10
S24000;29RH500A15;27
S90000;29RH500A15;61
S24000;38UV030A18;8
S24000;38WS030A21;12
S90000;38WS030A21;10
S90000;49BAGVE18;3
S90000;49BAGVE19;1
S90000;49BO015CS19;522
S90000;49GD035CB5;2
S24000;49MA010K16;22
S90000;49MA010K16;60
S90000;49PO1RE19;5
S28000;52SH006G18;148
S27000;29MA030A17;15
S28000;29MA030A17;25
S15;29RC200A19;5
S15;49PO2HER20;50
S27000;49PO2HER20;24
S28000;49PO2HER20;37
S27000;52DB001I17;83
S15;52SH006FV21;141
S27000;52SH006FV21;97
S28000;52SH006FV21;222
S28000;49CP008I19;15
S15;49LC020A15;37
S27000;49LC020A15;6
S28000;49LC020A15;47
S15;49POUIS19;29
S28000;49POUIS19;24
S15;52AS006G18;105
S27000;52AS006G18;229
S28000;52AS006G18;203
S15;52MA003K16A;162
S27000;52MA003K16A;210
S28000;52MA003K16A;216
S15;52MS001I20;86
S27000;52MS001I20;147
S28000;52MS001I20;223
S28000;98BBSH050AR2;72
S15;52HS001I17;208
S27000;52HS001I17;156
S28000;52HS001I17;189
S15;52HS004A18;80
S27000;52HS004A18;81
S28000;52HS004A18;135
S15;52LT002R21;175
S27000;52LT002R21;130
S28000;52LT002R21;19
S15;52WC0015A19;25
S27000;52WC0015A19;208
S28000;52WC0015A19;89
S15;01CM300K20;8
S27000;01CM300K20;8
S28000;01CM300K20;10
S28000;11BG140SH19;10
S15;11BG140SI19;8
S27000;11BG140SI19;8
S28000;11BG140SI19;6
S15;17AF100G20;15
S27000;17AF100G20;9
S28000;17AF100G20;6
S15;17AS250E19;9
S27000;17AS250E19;10
S28000;17AS250E19;14
S27000;17MM050A20;8
S29000;SGOCVKI00157;8
S29000;SGOCVKI00165;1
S29000;01CM030K21;34
S29000;01SL500VE20;10
S29000;11BO100CS19;20
S29000;11PM100DE20H;6
S29000;11PM100SH19;16
S29000;11SD100DE20H;4
S29000;15GD075L15;33
S29000;15GD500VA20;10
S29000;15GM065L20;30
S29000;15LM300L11;12
S29000;17BD125G14;14
S29000;17RC500G18;40
S29000;20ET075CD19;3
S29000;24GD250R18;8
S29000;24GD250R20;20
S29000;24GM030C21;17
S29000;24SA050R18;12
S29000;27DE015I13US;25
S29000;29HD250A15;21
S29000;38WM065A18;19
S29000;49AF015G20;33
S29000;49DC004I20;33
S29000;49OR005I18;14
S29000;49POU1VE20;32
S29000;52HV001K18;30
S29000;52LC006A18;67
S29000;01CL050K21;15
S29000;01CM500K20;12
S29000;01EC200K17;15
S29000;01HN0075K19;16
S29000;01SA050KL20;25
S29000;11BG140CS19;3
S29000;11CM125I19;10
S29000;11GN195A18;9
S29000;11SV080I19;8
S29000;15MA030L11;12
S29000;20ET075HC20;9
S29000;20GD250OC20;14
S29000;24GC150C21;18
S29000;24MA075R18;16
S29000;24SA050CB6;12
S29000;38BV050A19;18
S29000;49HD035A15;30
S29000;49PFCWC21;33
S29000;52BY001I19;88
S29000;52CV0015K18;3
S29000;52LGENSA18;53
S29000;52MGEBOX18;13
S29000;52MGENSA18;95
S29000;01BL012K18;12
S29000;01CMR500K20;16
SLM001;17RS500G19;96
SLM001;17RS500N18;10
SLM001;17SH500D16;15
SLM001;17SH500N18;31
SLM001;24MA030S6;11
SLM001;27DH015I20;49
SLM001;27MP150I20;20
SLM001;49CM030I19;5
SLM001;49ET010V13;14
SLM001;52DF002I17;258
SLM001;52OR001I19;472
SLM001;15GD250VB17;9
SLM001;17AS500N18;27
SLM001;17IC200D15;8
SLM001;17SH075G18;9
SLM001;24MA030CB4;58
SLM001;27DS030I20;9
SLM001;27MP150I13;1
SLM001;49ET007R18;14
SLM001;49IC1POU20;118
SLM001;49IC3POU20;30
SLM001;52AS006FV21;240
SLM001;52DH001I20;926
SLM001;01SA150H19H;2
SLM001;17AS075G18;9
SLM001;17SH300E19;13
SLM001;17SH300P19;14
SLM001;24LC075CB5;19
SLM001;24MA075CB4;5
SLM001;49MA010K19H;13
SLM001;49MA010K20DTS;60
SLM001;49SH035E20;60
SLM001;52OR001I18;953
SLM001;01CP050K19H;35
SLM001;01MA030K16;64
SLM001;17AS075N18;12
SLM001;17AS075P19;19
SLM001;17RS500E20;12
SLM001;17SH500E19;33
SLM001;18ET050TL17;18
SLM001;24GD250CB4;6
SLM001;27BP050I19;4
SLM001;27MP050I13;22
SLM001;29LC200A14US;7
SLM001;49CP020K18;50
SLM001;49EP005TL17ET;13
SLM001;49POU2VE20;80
SLM001;52DB001I20;9
SLM001;52HD006A18;633
SLM001;98BBAS035AR3;81
SLM001;01BL012K15;4
SLM001;01CL050K15;4
SLM001;01MA150K18;42
S21000;27OR030I19;24
S21000;27TS050I20;56
S21000;29MA075A19;13
S21000;29SA050A17;12
S21000;38WC050A18;8
S21000;52CD0015A18;156
S21000;52HR004G17;6
S21000;52SH006G18;209
S21000;52WM0015A18;76
S21000;01BG070K21;20
S21000;01CL200K17;7
S21000;01RL500K20;16
S21000;11CD050A18;13
S21000;11ET010H20;13
S21000;11SA100H19;8
S21000;15CC150VA19;4
S21000;15HE005L14;8
S21000;17AS500P19;7
S21000;17RS500FV21;29
S21000;17SH300D15;4
S21000;17SH300N18;6
S21000;20DO130HC20;8
S21000;20GD250CD20;10
S21000;24EDT050C21;12
S21000;24EDT10C21;28
S21000;24MA075P15;11
S21000;27DC030I20;19
S21000;27HCR050I16;7
S21000;27HS030I18;8
S21000;29HD075A15;1
S21000;29MA030A17;16
S21000;49PO2HER20;23
S21000;52SH006FV21;28
S21000;01CL050K18;3
S21000;01SA100LT16;18
S21000;01SA100LV20;23
S21000;11BH050A18;6
S21000;11EP050H19;12
S21000;11EP090H19;16
S21000;11GM200I19;6
S21000;11LP080028M19;6
S21000;11SD100CS19;5
S21000;15GN300L11;10
S21000;15MA075L11;9
S21000;17AS500E19;12
S21000;17HI001G19;110
S21000;18GD250TL17ET;11
S21000;20SA050HC20;10
S21000;24LC250CB4;11
S21000;24MA030RE19;8
S21000;27MQ065I15A;7
S21000;27RM300I20;16
S21000;29HS100A18;17
S28000;17MM050A20;2
S15;17SE100FV21;24
S27000;17SE100FV21;11
S28000;17SE100FV21;26
S15;17SH075P19;2
S15;20GD250HC20;16
S27000;20GD250HC20;12
S28000;20GD250HC20;21
S15;20NV150H20;10
S27000;20NV150H20;5
S28000;20NV150H20;19
S27000;24LC250R18;6
S15;24LC250R20;15
S28000;24LC250R20;12
S15;27CP050I19;14
S27000;27CP050I19;11
S28000;27CP050I19;19
S15;27TS001I20;89
S27000;27TS001I20;281
S28000;27TS001I20;310
S15;38EV075A18;4
S27000;38EV075A18;7
S28000;38EV075A18;18
S15;52AS006P19;242
S27000;52AS006P19;226
S28000;52AS006P19;81
S15;52GD0015A18;5
S27000;52GD0015A18;207
S28000;52GD0015A18;230
S15;52MC006G18;120
S27000;52MC006G18;216
S28000;52MC006G18;131
S15;52SP001I19;170
S27000;52SP001I19;193
S28000;52SP001I19;41
S15;SGOCVKI00157;1
S15;52LC006A18;9
S27000;52LC006A18;105
S28000;52LC006A18;81
S27000;52LGEBAG19;60
S28000;52LGEBAG19;117
S15;52BY001I19;179
S27000;52BY001I19;302
S28000;52BY001I19;375
S15;52CV0015K18;94
S27000;52CV0015K18;128
S28000;52CV0015K18;268
S15;52LGENSA18;100
S27000;52LGENSA18;125
S28000;52LGENSA18;198
S15;52MGEBOX18;17
S27000;52MGEBOX18;34
S28000;52MGEBOX18;10
S29000;01CP100K21;5
S29000;01HD500K20;3
S29000;01LT300K20;11
S29000;01SL300LV20;15
S29000;11BG140SL19;7
S29000;11EH150A18;8
S29000;11LC250H20;12
S29000;11LT300I20;19
S29000;11MA030A20;15
S29000;11SP200SH19;7
S29000;15ET100VM20H;4
S29000;15GD250VA5;11
S29000;15RC500VB17;48
S29000;15SE400VB5;13
S29000;17MC200G18;14
S29000;17SH500P19;25
S29000;20AR075H16;3
S29000;20ET075CD20;11
S29000;24BR050CB6;14
S29000;24MA150R19;9
S29000;24RO010CB4;14
S29000;27DC050I20;26
S29000;27DF125I17;16
S29000;27FP050I19;7
S29000;29GE200A18;21
S29000;38EC015A18;9
S29000;38FT200A21;15
S29000;38WC050A21;17
S29000;49MA010A17;3
S29000;52AS006E19;80
S29000;52CP0015I19;135
S29000;52DC0015I17;82
S29000;52SH006D17;252
S29000;52SH006E19;81
S29000;98BBDF015IM0;33
S15;52MGENSA18;55
S27000;52MGENSA18;164
S28000;52MGENSA18;227
S15;98BBHD050A0;14
S28000;98BBHD050A0;81
S15;24RO010CB4;12
S27000;24RO010CB4;9
S28000;24RO010CB4;12
S15;27DC050I20;19
S27000;27DC050I20;23
S28000;27DC050I20;24
S15;27DF125I17;8
S27000;27DF125I17;19
S28000;27DF125I17;8
S15;27DH015I17;3
S27000;27DH015I17;4
S15;27FP050I19;8
S27000;27FP050I19;10
S28000;27FP050I19;8
S15;29GE200A18;20
S27000;29GE200A18;12
S28000;29GE200A18;17
S15;38EC015A18;6
S27000;38EC015A18;6
S28000;38EC015A18;8
S15;38FT200A21;15
S27000;38FT200A21;13
S28000;38FT200A21;24
S15;38WC050A21;16
S27000;38WC050A21;10
S28000;38WC050A21;25
S15;52AS006E19;86
S27000;52AS006E19;306
S28000;52AS006E19;191
S15;52CP0015I19;109
S27000;52CP0015I19;207
S28000;52CP0015I19;103
S15;52K10BLAV20;8
S28000;52K10BLAV20;6
S15;52SH006D17;396
S27000;52SH006D17;200
S28000;52SH006D17;65
S15;52SH006E19;427
S27000;52SH006E19;355
S28000;52SH006E19;242
S15;98BBDF015IM0;27
S27000;98BBDF015IM0;24
S28000;98BBDF015IM0;36
SLM001;10CACLA20;2
SLM001;11GD050A18;20
SLM001;15MA030VA5;15
SLM001;27OR030I19;38
SLM001;27TS050I20;19
SLM001;49CL008K15;19
SLM001;49MA010CB4;118
SLM001;49TC1NO20;17
SLM001;52SH006G18;773
SLM001;01SA080K17;1
SLM001;15LC150V13;1
SLM001;17AS500P19;12
SLM001;17SH300D15;3
SLM001;17SH300N18;8
SLM001;24GD250P15;1
SLM001;24MA075P15;35
SLM001;27HCR050I16;1
SLM001;29ASH075A20;46
SLM001;29HD075A15;43
SLM001;29MA030A17;24
SLM001;49MF010W19H;13
SLM001;52SH006FV21;241
SLM001;01CL050K18;15
SLM001;15GN300L11;8
SLM001;17AS500E19;10
SLM001;24GD075CB5;94
SLM001;24LC250CB4;3
SLM001;27RM300I20;17
SLM001;29HS100A18;15
SLM001;29SH075A20;46
SLM001;49CP008I19;14
SLM001;49LC020A15;25
SLM001;49POUID20;91
SLM001;52AS006G18;658
SLM001;52MS001I20;80
SLM001;01LC250K17;8
SLM001;17AS250P19;25
SLM001;17RC500E20;12
SLM001;17SH500G18;25
SLM001;17VI100P19;6
SLM001;20GR150CD15;1
SLM001;27ER015I20;26
SLM001;29RH500A15;159
SLM001;49BO015CS19;281
SLM001;49GD035CB5;96
SLM001;49MA010K16;219
SLM001;52DL002I17;34
SLM001;17AS250E19;24
SLM001;17SE100FV21;6
SLM001;17SH075P19;15
SLM001;27CP050I19;11
SLM001;27TS001I20;841
SLM001;49HD035K17;34
S10;24LC250CB4;15
S10;24MA030RE19;15
S10;27DC065I21;5
S10;27MQ065I15A;8
S10;27RM300I20;9
S10;29HS100A18;14
S10;29SE125A21;11
S10;49CP008I19;1
S10;49LC020A15;23
S10;49POUIS19;33
S10;52AS006G18;436
S10;52MA003K16A;218
S10;52MS001I20;205
S10;98BBSH050AR2;30
S10;01CV050K15;7
S10;01HV030K16;6
S10;01LC250K17;1
S10;01PR015R19;3
S10;11GE075I20;1
S10;11LH200I19;11
S10;11SP200CS19;9
S10;15GC150VBL20;2
S10;15GD500VB17;9
S10;15SA070VB6;8
S10;17AS250P19;12
S10;17RC500E20;23
S10;17SH500G18;20
S10;17VI100P19;8
S10;24LC250C21;24
S10;24MA075R18;15
S10;27ER015I20;13
S10;29BP100A19;7
S10;29RH500A15;58
S10;38EV075A18;5
S10;38UV030A18;9
S10;38WS030A21;15
S10;49GD035CB5;52
S10;49MA010K16;31
S10;49PO1RE19;1
S10;52DL002I17;2
S10;52HS001I17;297
S10;52HS004A18;197
S10;52LT002R21;277
S10;52WC0015A18;46
S10;52WC0015A19;1
S10;01CM300K20;8
S10;11BG140SI19;8
S10;17AF100G20;8
S10;17AS250E19;10
S10;17MM050A20;16
S10;17SE100FV21;17
S10;20GD250HC20;15
S10;20NV150H20;6
S10;24LC250R18;16
S21000;29SE125A21;8
S21000;49CP008I19;5
S21000;49LC020A15;95
S21000;49POUIS19;13
S21000;52AS006G18;160
S21000;52KTSUPGEN17;1
S21000;52MA003K16A;61
S21000;52MS001I20;38
S21000;98BBSH050AR2;141
S21000;01CV050K15;7
S21000;01HV030K16;4
S21000;01PR015R19;18
S21000;11GE075I20;7
S21000;11LH200I19;7
S21000;11SP200CS19;14
S21000;15GC150VBL20;10
S21000;15GD500VB17;4
S21000;15SA070VB6;8
S21000;17AS250P19;11
S21000;17RC500E20;11
S21000;17SH500G18;12
S21000;17VI100P19;8
S21000;24LC250C21;15
S21000;27ER015I20;12
S21000;29BP100A19;6
S21000;29RH500A15;23
S21000;38UV030A18;9
S21000;38WS030A21;23
S21000;49GD035CB5;140
S21000;49MA010K16;31
S21000;52HS001I17;218
S21000;52HS004A18;23
S21000;52LT002R21;121
S21000;52WC0015A19;178
S21000;01CM300K20;7
S21000;11BG140SI19;6
S21000;17AF100G20;8
S21000;17AS250E19;7
S21000;17MM050A20;9
S21000;17SE100FV21;21
S21000;17SH075P19;1
S21000;20GD250HC20;10
S21000;20NV150H20;9
S21000;24LC250R20;12
S21000;27CP050I19;9
S21000;27TS001I20;239
S21000;38EV075A18;6
S21000;52AS006P19;385
S21000;52GD0015A18;85
S21000;52SP001I19;128
S21000;52WS001A18;48
S21000;98BBSH050A0;11
S21000;SGOCVKI00157;6
S10;24LC250R20;15
S10;27CP050I19;15
S10;27TS001I20;273
S10;52AS006N18;2
S10;52AS006P19;274
S10;52GD0015A18;148
S10;52MC006G18;238
S10;52SP001I19;166
S10;SGOCVKI00157;4
S10;01CM030K21;24
S10;01SL500VE20;9
S10;11BO100CS19;16
S10;11EP005H19;93
S10;11PM100SH19;14
S10;15GD075L15;70
S10;15GD500VA20;16
S10;15GM065L20;8
S10;15LM300L11;9
S10;17BD125G14;3
S10;17RC500G18;27
S10;24GD250R18;7
S10;24GD250R20;12
S10;24GM030C21;5
S10;24SA050R18;14
S10;27DE015I13US;8
S10;29HD250A15;28
S10;38WM065A18;6
S10;49AF015G20;70
S10;49DC004I20;30
S10;49OR005I18;3
S10;52HV001K18;42
S10;52LC006A18;201
S10;52MMBPNO20;2
S10;01CL050K21;12
S10;01CM500K20;6
S10;01EC200K17;11
S10;01HN0075K19;12
S10;11BG140CS19;6
S10;11CM125I19;5
S10;11GN195A18;9
S10;11SV080I19;8
S10;15MA030L11;28
S10;15RG500VA20;11
S10;20ET075HC20;8
S10;20GD250OC20;13
S10;24GC150C21;5
S10;24MA030RV19;13
S10;24SA050CB6;15
S10;38BV050A19;12
S10;49HD035A15;70
S10;49MR010K14;33
S10;49PFCWC21;23
S10;52BY001I19;157
S10;52CV0015K18;159
S90000;49TF2CH19;35
S90000;49TFACH18;30
S90000;49WS004A18;9
S90000;52DL002I17;153
S24000;52HS001I17;269
S24000;52HS004A18;142
S90000;52HS004A18;2
S24000;52LT002R21;134
S90000;52LT002R21;100
S90000;52MOCOL316;50
S90000;52WC0015A18;97
S24000;52WC0015A19;97
S24000;01CM300K20;5
S90000;01CM300K20;13
S90000;11BG140SH19;9
S24000;11BG140SI19;5
S90000;11BG140SI19;10
S90000;11GD050H20;1
S24000;17AF100G20;8
S90000;17AF100G20;8
S24000;17AS250E19;9
S90000;17AS250E19;13
S24000;17MM050A20;8
S90000;17MM050A20;10
S24000;17SE100FV21;9
S90000;17SE100FV21;9
S90000;17SH075P19;29
S24000;20GD250HC20;13
S90000;20GD250HC20;8
S24000;20NV150H20;13
S90000;20NV150H20;8
S90000;24GD075P15;1
S90000;24LC250R18;6
S24000;24LC250R20;15
S90000;24LC250R20;10
S24000;27CP050I19;13
S90000;27CP050I19;7
S24000;27TS001I20;247
S90000;27TS001I20;406
S24000;38EV075A18;4
S90000;38EV075A18;9
S90000;49BO015R14;12
S90000;49HD035K17;87
S24000;52AS006P19;265
S90000;52AS006P19;103
S24000;52GD0015A18;112
S90000;52GD0015A18;3
S24000;52MC006G18;107
S24000;52SP001I19;95
S90000;52SP001I19;153
S90000;SGOCVE600003;9
S90000;SGOCVE700005;10
S90000;SGOCVE700009;2
S20;11EH150A18;10
S20;11LC250H20;16
S20;11LT300I20;10
S20;11MA030A20;14
S20;11SP200SH19;5
S20;15ET100VM20H;2
S20;15GD250VA5;10
S20;15RC500VB17;19
S20;15SE400VB5;9
S20;17MC200G18;7
S20;17SH500P19;15
S20;20ET075CD20;8
S20;24BR050CB6;9
S20;24MA150R19;5
S20;24RO010CB4;11
S20;27DC050I20;19
S20;27DF125I17;11
S20;27DH015I17;2
S20;27FP050I19;6
S20;29GE200A18;18
S20;38FT200A21;11
S20;38WC050A21;11
S20;52AS006E19;227
S20;52CP0015I19;150
S20;52ROSE20;2
S20;52SH006D17;112
S20;52SH006E19;261
S20;98BBDF015IM0;25
S20;J6185;2
S21000;01BL012K20H;2
S21000;01CM030K21;12
S21000;01SL500VE20;5
S21000;11BO100CS19;15
S21000;11PM100DE20H;3
S21000;11PM100SH19;7
S21000;11SD100DE20H;2
S21000;15GD075L15;34
S21000;15GM065L20;20
S21000;15LM300L11;10
S21000;17BD125G14;4
S21000;17RC500G18;32
S21000;24GD250R18;6
S21000;24GD250R20;13
S21000;24GM030C21;12
S21000;24SA050R18;7
S21000;27DE015I13US;18
S21000;29HD250A15;23
S21000;38WM065A18;7
S21000;49AF015G20;34
S21000;49DC004I20;47
S21000;49EV030I19;12
S21000;52HV001K18;157
S21000;52LC006A18;223
S21000;01CL050K21;12
S21000;01CM500K20;7
S21000;01EC200K17;11
S21000;01HN0075K19;5
S21000;11BG140CS19;2
S21000;11CM125I19;8
S21000;11GN195A18;9
S21000;11SV080I19;7
S21000;15MA030L11;20
S21000;20ET075HC20;11
S21000;20GD250OC20;12
S21000;24GC150C21;3
S21000;24MA030RV19;10
S21000;24MA075R18;14
S21000;24SA050CB6;8
S21000;38BV050A19;13
S21000;49HD035A15;52
S21000;49PFCWC21;12
S21000;52BY001I19;222
S21000;52CV0015K18;305
S21000;52LASANO20;204
S21000;52LGENSA18;108
S21000;52MGEBOX18;26
S21000;52MGENSA18;69
S21000;98BBHD050A0;67
S21000;01BL012K18;9
S21000;01CP100K21;11
S21000;01HD500K20;10
S21000;01LT300K20;10
S10;52KTPPLV17;1
S10;52LABANO20;44
S10;52LGENSA18;39
S10;52MGEBOX18;15
S10;52MGENSA18;145
S10;52MMBYNO20;2
S10;98BBHD050A0;56
S10;01BL012K18;13
S10;01CMR500K20;7
S10;01CP100K21;8
S10;01HD500K20;9
S10;01LT300K20;3
S10;01SL300LV20;7
S10;11BG140SL19;8
S10;11EH150A18;6
S10;11GD020A19;1
S10;11LC250H20;22
S10;11LT300I20;15
S10;11MA030A20;26
S10;11SP200SH19;7
S10;15ET100VM20H;4
S10;15GD250VA5;16
S10;15RC500VB17;19
S10;15SE400VB5;8
S10;17MC200G18;9
S10;17SH500P19;20
S10;20ET075CD20;7
S10;24BR050CB6;13
S10;24GD500R19;6
S10;24MA150R19;10
S10;24RO010CB4;10
S10;27DC050I20;15
S10;27DF125I17;13
S10;27DH015I17;8
S10;27FP050I19;8
S10;29GE200A18;18
S10;38EC015A18;10
S10;38FT200A21;13
S10;38WC050A21;14
S10;52AS006E19;408
S10;52CP0015I19;238
S10;52SH006D17;100
S10;52SH006E19;407
S10;98BBDF015IM0;19
SLM001;98BBSH035AR2;81
SLM001;SGOCVE700006;1
SLM001;SGOCVKI00135;4
SLM001;SGOCVKI00147;3
SLM001;SGOCVKI00148;1
SLM001;SGOCVKI00153;9
SLM001;SGOCVKI00159;4
SLM001;15GM065L20;24
SLM001;15LM300L11;26
SLM001;17RC500G18;13
SLM001;27DE015I13US;18
SLM001;29HD250A15;110
SLM001;49CO1NO19;13
SLM001;49DC004I20;21
SLM001;49HS015A18;39
SLM001;49MA010VB3;29
SLM001;52LC006A18;404
SLM001;11GN195A18;27
SLM001;15MA030L11;15
SLM001;24SA050CB6;2
SLM001;38BV050A17;6
SLM001;49BM010K19;29
SLM001;49CRM1NO19;48
SLM001;49ED030K17;18
SLM001;49HD035A15;318
SLM001;49MA010H19H;13
SLM001;49MA010R14;3
SLM001;49MR010K14;89
SLM001;52BY001I19;197
SLM001;98BBHD035A0;48
SLM001;01BL012K18;8
SLM001;17MC200G18;10
SLM001;17SH500P19;25
SLM001;24BR050CB6;9
SLM001;24RO010CB4;2
SLM001;27DF125I17;17
SLM001;49MA010A17;431
SLM001;49MA010L16;150
SLM001;52AS006E19;396
SLM001;52SH006E19;396
SLM001;98BBDF015IM0;136
S21000;01SL300LV20;8
S21000;11BG140SL19;4
S21000;11EH150A18;8
S21000;11LC250H20;13
S21000;11LT300I20;6
S21000;11MA030A20;47
S21000;11SP200SH19;8
S21000;15ET100VM20H;2
S21000;15GD250VA5;10
S21000;15RC500VB17;16
S21000;15SE400VB5;4
S21000;17MC200G18;6
S21000;17SH500P19;12
S21000;20ET075CD20;9
S21000;24BR050CB6;13
S21000;24MA150R19;9
S21000;24RO010CB4;10
S21000;27DC050I20;13
S21000;27DF125I17;11
S21000;27DH015I17;5
S21000;27FP050I19;10
S21000;29GE200A18;11
S21000;38EC015A18;4
S21000;38FT200A21;19
S21000;38WC050A21;19
S21000;52AS006E19;151
S21000;52CP0015I19;102
S21000;52SH006D17;92
S21000;52SH006E19;117
S21000;J6185;9
S90000;SGOCVE700011;62
S90000;SGOCVE700012;21
S90000;SGOCVE700013;55
S90000;SGOCVKI00079;2
S90000;SGOCVKI00080;7
S90000;SGOCVKI00102;6
S90000;SGOCVKI00104;6
S90000;SGOCVKI00105;4
S90000;SGOCVKI00107;10
S90000;SGOCVKI00108;3
S90000;SGOCVKI00109;2
S90000;SGOCVKI00111;2
S90000;SGOCVKI00112;5
S90000;SGOCVKI00113;5
S90000;SGOCVKI00114;4
S90000;SGOCVKI00116;3
S90000;SGOCVKI00117;10
S90000;SGOCVKI00119;14
S90000;SGOCVKI00121;5
S90000;SGOCVKI00122;5
S90000;SGOCVKI00123;10
S90000;SGOCVKI00126;1
S24000;SGOCVKI00131;6
S90000;SGOCVKI00131;14
S90000;SGOCVKI00133;9
S24000;SGOCVKI00135;1
S90000;SGOCVKI00136;2
S90000;SGOCVKI00137;34
S90000;SGOCVKI00138;3
S90000;SGOCVKI00139;2
S90000;SGOCVKI00143;6
S90000;SGOCVKI00144;10
S90000;SGOCVKI00147;2
S90000;SGOCVKI00154;1
S24000;SGOCVKI00157;4
S90000;SGOCVKI00158;1
S24000;01CM030K21;23
S90000;01CM030K21;22
S90000;01KTCNTAPAC20;1
S24000;01SL500VE20;7
S90000;01SL500VE20;18
S90000;10KTMC00M20;8
S24000;11BO100CS19;8
S90000;11BO100CS19;12
S90000;11LP050028M19;1
S24000;11PM100DE20H;3
S24000;11PM100SH19;4
S90000;11PM100SH19;8
S24000;11SD100DE20H;4
S24000;15GD075L15;95
S90000;15GD075L15;100
S24000;15GM065L20;9
S90000;15GM065L20;17
S24000;15LM300L11;10
S90000;15LM300L11;13
S24000;17BD125G14;9
S90000;17BD125G14;2
S24000;17RC500G18;13
S90000;17RC500G18;32
S24000;20ET075CD19;5
S24000;20GD250OC16;5
S24000;24GD250R18;5
S90000;24GD250R18;7
S24000;24GD250R20;15
S90000;24GD250R20;10
S90000;24GM030C21;14
S24000;24SA050R18;11
S90000;24SA050R18;10
S24000;27DE015I13US;7
S90000;27DE015I13US;8
S24000;29HD250A15;28
S90000;29HD250A15;19
S90000;29KTAMA19;2
S90000;29LC200A21C;5
S24000;38WM065A18;5
S90000;38WM065A18;6
S24000;49AF015G20;95
S90000;49AF015G20;69
S90000;49CO1NO19;5
S24000;49DC004I20;24
S90000;49DC004I20;13
S24000;49EV030I19;20
S90000;49EV030I19;10
S90000;49HS015A18;2
S90000;49MA010VB3;111
S90000;49TOWSA19;19
S90000;49TOWVE18;56
S90000;49TPOCH20;150
S24000;52HV001K18;20
S90000;52HV001K18;104
S24000;52LC006A18;101
S90000;52LC006A18;157
S24000;52LGEBAG19;146
S90000;52LGEBOX18;92
S90000;52LASANO19;60
S90000;52LASANO20;60
S24000;52LGENSA18;26
S90000;52LGENSA18;163
S24000;52MGEBOX18;10
S90000;52MGEBOX18;30
S24000;52MGENSA18;37
S90000;52MGENSA18;207
S90000;52MMBYNO19;85
S24000;98BBHD050A0;6
S90000;38WC050A21;7
S90000;49HBMD19;9
S24000;49MA010A17;7
S90000;49MA010L16;81
S90000;49PI010K1;31
S90000;49PI010K18;132
S24000;52AS006E19;189
S90000;52AS006E19;207
S24000;52CP0015I19;240
S90000;52CP0015I19;93
S24000;52K10BLAV20;4
S90000;52RIB1NO20;1
S90000;52RIB2NO20;1
S90000;52SH006D17;149
S24000;52SH006E19;181
S90000;52SH006E19;144
S24000;98BBDF015IM0;25
S90000;98BBDF015IM0;39
S90000;J6183;25
S24000;J6185;3
S90000;JIMCP16;3
S90000;JIMPN16;104
