S28000;01BL012H19H;1
S27000;01EM075K18;8
S15;01HD500K20;10
S27000;01HD500K20;7
S28000;01HD500K20;18
S15;01SL300VE20;6
S27000;01SL300VE20;7
S28000;01SL300VE20;11
S15;11CM030H20;22
S27000;11CM030H20;19
S28000;11CM030H20;39
S15;11SD100SH19;8
S27000;11SD100SH19;9
S28000;11SD100SH19;8
S15;15BA500L16A;5
S27000;15BA500L16A;5
S28000;15BA500L16A;8
S15;15CC150VA19;7
S27000;15CC150VA19;5
S28000;15CC150VA19;7
S15;15GM280VB20;4
S27000;15GM280VB20;12
S28000;15GM280VB20;18
S15;15LC250VA5;7
S27000;15LC250VA5;5
S28000;15LC250VA5;11
S15;15MA030L11;5
S27000;15MA030L11;14
S28000;15MA030L11;26
S15;15SH250VA17;12
S27000;15SH250VA17;9
S28000;15SH250VA17;18
S15;17AS500N18;10
S27000;17AS500N18;8
S28000;17AS500N18;10
S28000;17RC500F18;1
S15;17SH300P19;7
S27000;17SH300P19;12
S28000;17SH300P19;19
S15;17SH500G18;9
S27000;17SH500G18;12
S28000;17SH500G18;33
S15;20GD250CD20;14
S27000;20GD250CD20;7
S28000;20GD250CD20;24
S15;20SA050CD20;10
S27000;20SA050CD20;6
S28000;20SA050CD20;12
S15;24GD250R18;1
S27000;24GD250R18;1
S28000;24GD250R18;36
S27000;24GD500R19;6
S28000;24GD500R19;15
S15;24LC250CB4;9
S27000;24LC250CB4;10
S28000;24LC250CB4;21
S15;24MA075P15;11
S27000;24MA075P15;14
S28000;24MA075P15;18
S15;24SACHB20;1
S15;27DC030I20;15
S27000;27DC030I20;11
S28000;27DC030I20;20
S15;27DL200I20;9
S27000;01CL200B20H;8
S15;01CP050K19H;23
S28000;01CP050K19H;5
S15;01EC200K17;12
S27000;01EC200K17;9
S28000;01EC200K17;14
S15;01HD250K17;1
S27000;01HD250K17;9
S28000;01HD250K17;10
S15;01RC300KB20;13
S27000;01RC300KB20;16
S28000;01RC300KB20;16
S15;01SA100LV20;33
S27000;01SA100LV20;17
S28000;01SA100LV20;31
S15;01SE125K21;20
S27000;01SE125K21;18
S28000;01SE125K21;20
S27000;11BG240DE20H;1
S28000;11BG240DE20H;8
S15;11EP005H19;81
S27000;11EP005H19;69
S28000;11EP005H19;28
S15;11SD100SI19;4
S27000;11SD100SI19;9
S28000;11SD100SI19;5
S15;15DO050VA5;14
S27000;15DO050VA5;8
S28000;15DO050VA5;18
S15;15GC150VBL20;15
S27000;15GC150VBL20;4
S28000;15GC150VBL20;9
S15;15RG500L14;18
S27000;15RG500L14;10
S28000;15RG500L14;19
S15;17AS075E19;1
S15;17AS500E19;7
S27000;17AS500E19;10
S28000;17AS500E19;9
S15;17RC500N18;8
S27000;17RC500N18;5
S28000;17RC500N18;11
S15;17SH300G18;14
S27000;17SH300G18;9
S28000;17SH300G18;19
S15;17SH500D16;27
S27000;17SH500D16;16
S28000;17SH500D16;32
S15;17SH500P19;10
S27000;17SH500P19;9
S28000;17SH500P19;25
S27000;20ET075OC20;7
S28000;20ET075OC20;12
S15;20SA050HC20;7
S27000;20SA050HC20;5
S28000;20SA050HC20;13
S15;24MA150R19;5
S27000;24MA150R19;6
S28000;24MA150R19;11
S15;27DH015I20;21
S27000;27DH015I20;10
S28000;27DH015I20;16
S15;27DS030I17A;9
S28000;27DS030I17A;1
S15;01EN300KB19;31
S27000;01EN300KB19;22
S28000;01EN300KB19;31
S27000;01MA030K16;10
S28000;01MA030K16;39
S15;01MA075K18;10
S27000;01MA075K18;26
S28000;01MA075K18;21
S15;01SA250LV20;20
S27000;01SA250LV20;10
S28000;01SA250LV20;26
S15;01SL300LV20;6
S27000;01SL300LV20;7
S28000;01SL300LV20;14
S15;11ET050H20;4
S27000;11ET050H20;8
S28000;11ET050H20;16
S15;11FAG10TR19;6
S27000;11FAG10TR19;8
S28000;11FAG10TR19;1
S15;11PM100SL19;5
S27000;11PM100SL19;8
S28000;11PM100SL19;9
S15;15GD250VB17;14
S27000;15GD250VB17;18
S28000;15GD250VB17;21
S27000;15LC250L14;4
S28000;15LC250L14;24
S15;15LM300L11;9
S27000;15LM300L11;7
S28000;15LM300L11;11
S27000;15MF075VM20H;1
S28000;15MF075VM20H;3
S15;15SA070VB6;11
S27000;15SA070VB6;8
S28000;15SA070VB6;9
S15;17HI100G19;11
S27000;17HI100G19;10
S28000;17HI100G19;9
S15;17VI100P19;7
S27000;17VI100P19;6
S28000;17VI100P19;8
S15;20DO050O20;14
S27000;20DO050O20;9
S28000;20DO050O20;13
S15;20ET075HC20;11
S27000;20ET075HC20;8
S28000;20ET075HC20;13
S15;20GR150CD16A;3
S15;24AF050R18;9
S27000;24AF050R18;7
S28000;24AF050R18;10
S15;24ET050R18;8
S27000;24ET050R18;11
S28000;24ET050R18;10
S28000;24GD075R18;1
S15;24GD250CB4;16
S27000;24GD250CB4;14
S28000;24GD250CB4;16
S15;24RO010CB4;8
S27000;24RO010CB4;7
S28000;24RO010CB4;11
S15;27MP150I20;13
S27000;27MP150I20;9
S15;01BM150K19;11
S27000;01BM150K19;7
S28000;01BM150K19;33
S15;01CP100K21;22
S27000;01CP100K21;14
S28000;01CP100K21;21
S15;01HDR500K20;4
S27000;01HDR500K20;8
S28000;01HDR500K20;11
S15;01RV500K20;11
S27000;01RV500K20;10
S28000;01RV500K20;17
S15;01SA100VE16;35
S27000;01SA100VE16;18
S28000;01SA100VE16;31
S15;11CM125I19;8
S27000;11CM125I19;10
S28000;11CM125I19;12
S27000;11GE075I20;8
S28000;11GE075I20;12
S24000;01EN300KB19;19
S90000;01EN300KB19;7
S90000;01HD250K19H;1
S24000;01MA030K16;30
S90000;01MA030K16;9
S24000;01MA075K18;10
S90000;01MA075K18;11
S24000;01SA250LV20;13
S90000;01SA250LV20;12
S24000;01SL300LV20;7
S90000;01SL300LV20;14
S24000;11ET050H20;8
S90000;11ET050H20;6
S24000;11FAG10TR19;17
S90000;11FAG10TR19;9
S24000;11PM100SL19;7
S90000;11PM100SL19;10
S90000;15GD075L15;19
S24000;15GD250VB17;15
S90000;15GD250VB17;12
S90000;15LC070VB5;69
S24000;15LC250L14;8
S90000;15LC250L14;9
S24000;15LM300L11;8
S90000;15LM300L11;15
S24000;15SA070VB6;8
S90000;15SA070VB6;7
S24000;17HI100G19;9
S24000;17VI100P19;7
S90000;17VI100P19;8
S90000;18GD050TL17ET;6
S24000;20DO050O20;8
S90000;20DO050O20;10
S24000;20ET075HC20;8
S90000;20ET075HC20;7
S24000;24AF050R18;17
S90000;24AF050R18;12
S24000;24ET050R18;9
S90000;24ET050R18;8
S90000;24ET075P15;2
S24000;24GD250CB4;15
S90000;24GD250CB4;9
S24000;24RO010CB4;11
S90000;10CACLA20;1
S90000;24RO010CB4;8
S90000;27DS030I17;17
S24000;27MP150I20;12
S90000;27MP150I20;14
S90000;27RM300I14;2
S90000;49CL008K15;16
S24000;49CL008K21;27
S90000;49CL008K21;125
S24000;49CM030I19;38
S10;01BL012B20H;2
S10;01MA150K18;34
S10;11CF100TR19;12
S10;11LH200I19;19
S10;11SA100H19;20
S10;15LC250VB3;7
S10;15MA075VB4;12
S10;17AS250P19;12
S10;17DO050F13;5
S10;17MC200N18;7
S10;17RS500P19;18
S10;17SH500E19;8
S10;17SH500N18;7
S10;18GD250TL17ET;11
S10;20ET075CD20;8
S10;20MP030H20;7
S10;20SA050O20;7
S10;24MA030CB4;33
S10;27SP030I19;7
S10;01CL200K21;11
S10;01CMR500K20;7
S10;01HN0075K19;7
S10;01MF150B20H;3
S10;11BH050A18;7
S10;11EP010H19;9
S10;11MH075A19;8
S10;11SP200CS19;12
S10;15DF200VM20H;5
S10;15HE005L14;5
S10;15SE400VB5;7
S10;17AS075G18;10
S10;17SH300N18;7
S10;18LC250TL17ET;12
S10;20GD250HC20;11
S10;24VF050R18;8
S10;01BM050K19;8
S10;01LT300K20;14
S10;01MA030K21;6
S10;01PR015R19;14
S10;11BG140SH19;10
S10;11GD250H19;19
S10;11GD250H20;17
S10;11LP040028M19;2
S10;15ET100VB3;9
S10;17MC200G18;5
S10;17RC500E20;7
S10;17RS500G19;17
S10;17RS500N18;8
S10;17SH300E19;10
S10;18ET090TL17;6
S10;24BR050R19;6
S10;24ET075CB4;8
S10;24MA030R18;14
S10;27BP050I19;7
S20;01BM050K19;7
S20;01LT300K20;15
S20;01MA030K20H;2
S20;01MA030K21;18
S20;01PR015R19;9
S20;11BG140SH19;9
S20;11GD250H19;20
S20;11GD250H20;20
S20;11LP040028M19;6
S20;15ET100VB3;8
S20;17MC200G18;6
S20;17RC500E20;29
S20;17RS500G19;39
S20;17RS500N18;12
S20;17SH300E19;12
S20;18ET090TL17;4
S20;24BR050R19;4
S20;24ET075CB4;2
S20;27BP050I19;12
S20;27DL200I13US;4
S20;27ER015I20;16
S20;27MI150I20;6
S20;01RL500K20;22
S20;01SA250LT20;20
S20;01SL0045K13;17
S20;11CD050A18;10
S20;11EP050H19;10
S20;11EP090H19;12
S20;11PM100SH19;13
S20;11SP200SI19;7
S20;11SP200SL19;10
S20;15AS250VA18;15
S20;15CL150VM20H;4
S20;17AF100G20;10
S20;17RC500P19;12
S20;20FE050H20;3
S20;27MQ065I15A;5
S20;29ASH240A20;10
S20;01CL200B20H;5
S20;01EC200K17;11
S20;01HD250K17;19
S20;01RC300KB20;5
S20;01SA100LV20;25
S20;01SE125K21;16
S20;11BG240DE20H;2
S20;11EP005H19;38
S20;11SD100SI19;12
S20;15DO050VA5;13
S20;15GC150VBL20;6
S20;15RG500L14;26
S20;17AS500E19;3
S20;17RC500N18;9
S20;17SH300G18;9
S20;17SH500D16;3
S21000;01BM050K19;8
S21000;01LT300K20;15
S21000;01MA030K21;20
S21000;01PR015R19;18
S21000;11BG140SH19;6
S21000;11GD250H19;14
S21000;11GD250H20;12
S21000;11LP040028M19;3
S21000;15ET100VB3;5
S21000;17MC200G18;10
S21000;17RC500E20;10
S21000;17RS500G19;37
S21000;17RS500N18;6
S21000;17SH300E19;9
S21000;18ET090TL17;8
S21000;24BR050R19;4
S21000;24ET075CB4;4
S21000;27BP050I19;6
S21000;27DL200I13US;10
S21000;27ER015I20;11
S21000;27MI150I20;8
S21000;01RL500K20;23
S21000;01SA250LT20;16
S21000;01SL0045K13;26
S21000;11CD050A18;14
S21000;11EP050H19;14
S21000;11EP090H19;16
S21000;11PM100DE20H;4
S21000;11PM100SH19;7
S21000;11SP200SI19;8
S21000;11SP200SL19;15
S21000;15AS250VA18;7
S21000;15CL150VM20H;9
S21000;17RC500P19;10
S21000;20FE050H20;8
S21000;27MQ065I15A;8
S21000;29ASH240A20;9
S21000;01EC200K17;10
S21000;01HD250K17;10
S21000;01RC300KB20;9
S21000;01SA100LV20;23
S21000;01SE125K21;18
S21000;11EP005H19;134
S21000;11SD100SI19;8
S21000;15DO050VA5;10
S21000;15GC150VBL20;10
S21000;15RG500L14;8
S21000;17AS075E19;50
S21000;17AS500E19;11
S21000;17RC500N18;11
S21000;17SH300G18;12
S21000;17SH500D16;10
S21000;17SH500P19;14
S29000;01BM050K19;10
S29000;01LT300K20;14
S29000;01MA030K21;22
S29000;01PR015R19;7
S29000;11GD250H19;12
S29000;11GD250H20;8
S29000;11LP040028M19;12
S29000;15ET100VB3;8
S29000;17MC200G18;14
S29000;17RC500E20;70
S29000;17RS500G19;54
S29000;17RS500N18;30
S29000;17SH300E19;13
S29000;18ET090TL17;9
S29000;24BR050R19;10
S29000;24ET075CB4;9
S29000;27DL200I13US;4
S29000;27ER015I20;30
S29000;27MI150I20;9
S29000;01ETKAR20;1
S29000;01RL500K20;39
S29000;01SA250LT20;29
S29000;01SL0045K13;34
S29000;11CD050A18;13
S29000;11EP050H19;17
S29000;11EP090H19;12
S29000;11PM100DE20H;10
S29000;11PM100SH19;18
S29000;11SP200SI19;10
S29000;11SP200SL19;14
S29000;15AS250VA18;20
S29000;15CL150VM20H;8
S29000;15RG500VA4;3
S29000;17AF100G20;19
S29000;17RC500P19;32
S29000;20ET075CD19;3
S29000;20FE050H20;4
S29000;24LC250S6;1
S29000;27MQ065I15A;11
S29000;29ASH240A20;16
S29000;01EC200K17;14
S29000;01HD250K17;15
S29000;01RC300KB20;12
S29000;01SA100LV20;5
S29000;01SE125K21;20
S29000;11BG240DE20H;6
S29000;11EP005H19;57
S29000;11SD100SI19;7
S29000;15CC150VB19;3
S29000;15DO050VA5;14
S29000;15GC150VBL20;5
S29000;15RG500L14;48
S29000;17AS500E19;27
S15;11MW200I19;6
S27000;11MW200I19;27
S28000;11MW200I19;9
S15;11MWC200I19;8
S28000;11MWC200I19;8
S15;11PEP050I20;15
S27000;11PEP050I20;6
S28000;11PEP050I20;12
S15;15ET100VA5;8
S27000;15ET100VA5;8
S28000;15ET100VA5;9
S15;15GN300L11;13
S27000;15GN300L11;5
S28000;15GN300L11;9
S15;17AS250N18;7
S27000;17AS250N18;5
S28000;17AS250N18;8
S15;17AS500G18;9
S27000;17AS500G18;20
S28000;17AS500G18;18
S15;17BD125G14;7
S27000;17BD125G14;7
S28000;17BD125G14;30
S27000;17HE010R14;3
S15;24MA030P15;17
S27000;24MA030P15;14
S28000;24MA030P15;29
S15;24MA030S6;16
S27000;24MA030S6;14
S28000;24MA030S6;40
S15;26PM100FC15;1
S15;27DC065I21;15
S27000;27DC065I21;20
S28000;27DC065I21;17
S15;27DH030I20;17
S27000;27DH030I20;13
S28000;27DH030I20;25
S15;27DS030I20;13
S27000;27DS030I20;10
S28000;27DS030I20;16
S15;27EV200I19;16
S27000;27EV200I19;5
S28000;27EV200I19;12
S15;01CL050K18;5
S27000;01CL050K18;2
S28000;01CL050K18;6
S28000;01LH100KB19;1
S15;01LH300KB19;6
S27000;01LH300KB19;5
S28000;01LH300KB19;8
S15;01MR030K14;14
S27000;01MR030K14;26
S28000;01MR030K14;36
S20;17SH500P19;13
S20;20ET075OC20;9
S20;20SA050HC20;20
S20;24MA150R19;6
S20;27DH015I20;15
S20;27DS030I17A;4
S20;38EC015A18;4
S20;38EV075A18;5
S20;38FT200A18;8
S20;38MI150A18;6
S20;38RC050A18;7
S20;38ST016A18;6
S20;38UV030A18;12
S20;38WC050A18;8
S20;38WM065A18;6
S20;38WS030A18;9
S20;49BLALM20;8
S20;49BLCHB20;8
S20;49BLKAR20;8
S20;49BLVER20;8
S20;49BO015CS19;1
S20;01BM150K19;11
S20;01CP100K21;17
S20;01HDR500K20;6
S20;01RV500K20;19
S20;01SA100VE16;14
S20;11CM125I19;7
S20;11GE075I20;9
S20;11MW200I19;4
S20;11PEP050I20;12
S20;15ET100VA5;8
S20;15GN300L11;13
S20;17AS250N18;4
S20;17AS500G18;10
S20;17BD125G14;9
S20;24MA030P15;11
S20;24MA030S6;10
S20;27DC065I21;19
S20;27DH030I20;16
S20;27DS030I20;14
S20;27EV200I19;15
S20;52MC006G18;184
S20;52MC006N18;49
S20;52MS001I20;140
S20;52OR001I18;376
S20;52OR001I19;248
S20;01HD500K20;15
S20;01SL300VE20;21
S20;11CM030H20;23
S20;11SD100SH19;11
S20;15BA500L16A;4
S20;15CC150VA19;8
S20;15GM280VB20;9
S20;15LC250VA5;10
S20;15MA030L11;14
S90000;49CM030I19;90
S90000;49CO1NO19;5
S90000;49CP008I14A;27
S24000;49CP008I19;16
S90000;49CP008I19;10
S90000;49CP020K18;106
S90000;49CRM1NO19;31
S90000;49CRM1NO20;11
S24000;49CRM2NO19;56
S90000;49CRM2NO19;69
S90000;01CP050K19H;25
S24000;01EC200K17;7
S90000;01EC200K17;6
S24000;01HD250K17;1
S90000;01HD250K17;9
S90000;01KTCNTAPAC20;22
S24000;01RC300KB20;9
S90000;01RC300KB20;1
S24000;01SA100LV20;18
S90000;01SA100LV20;13
S24000;01SE125K21;15
S90000;01SE125K21;15
S24000;11BG240DE20H;2
S24000;11EP005H19;18
S90000;11GN040A19;6
S24000;11SD100SI19;8
S90000;11SD100SI19;11
S24000;15DO050VA5;11
S90000;15DO050VA5;9
S24000;15GC150VBL20;7
S90000;15LC075L15;10
S24000;15RG500L14;10
S90000;15RG500L14;15
S90000;17AS075E19;80
S24000;17AS500E19;9
S90000;17AS500E19;17
S24000;17RC500N18;8
S90000;17RC500N18;6
S90000;17SH075D15;19
S24000;17SH300G18;14
S90000;17SH300G18;20
S24000;17SH500D16;26
S90000;17SH500D16;23
S24000;17SH500P19;16
S90000;17SH500P19;26
S90000;18LC050TL17ET;2
S24000;20ET075OC20;5
S90000;20ET075OC20;9
S24000;20SA050HC20;8
S90000;20SA050HC20;9
S24000;24MA150R19;10
S90000;24MA150R19;9
S24000;27DH015I20;11
S90000;27DH015I20;4
S90000;27DS030I17A;2
S90000;38BV050A17;1
S24000;38EC015A18;6
S90000;38EC015A18;9
S90000;38EV075A18;1
S24000;38FT200A18;10
S90000;38FT200A18;8
S24000;38MI150A18;4
S90000;38MI150A18;9
S24000;38RC050A18;9
S90000;38RC050A18;12
S24000;38ST016A18;8
S90000;38ST016A18;10
S24000;38UV030A18;10
S90000;38UV030A18;10
S24000;38WC050A18;9
S90000;38WC050A18;10
S24000;38WM065A18;7
S90000;38WM065A18;10
S90000;01EM075K18;1
S24000;01HD500K20;9
S90000;01HD500K20;12
S24000;01SL300VE20;7
S90000;01SL300VE20;17
S24000;11CM030H20;16
S90000;11CM030H20;14
S24000;11SD100SH19;8
S90000;11SD100SH19;10
S24000;15BA500L16A;6
S90000;15BA500L16A;11
S24000;15CC150VA19;3
S90000;15CC150VA19;2
S90000;15GD070VB17;122
S24000;15GM280VB20;13
S90000;15GM280VB20;13
S24000;15LC250VA5;8
S90000;15LC250VA5;10
S24000;15MA030L11;18
S90000;15MA030L11;7
S24000;15SH250VA17;14
S90000;15SH250VA17;13
S24000;17AS500N18;8
S90000;17AS500N18;16
S90000;17RC500F18;1
S24000;17SH300P19;9
S90000;17SH300P19;13
S24000;17SH500G18;24
S90000;17SH500G18;20
S24000;20GD250CD20;16
S90000;20GD250CD20;11
S24000;20SA050CD20;8
S90000;20SA050CD20;9
S24000;24GD250R18;15
S90000;24GD250R18;12
S24000;24GD500R19;13
S90000;24GD500R19;9
S24000;24LC250CB4;9
S90000;24LC250CB4;11
S24000;24MA075P15;15
S90000;24MA075P15;8
S24000;24SACHB20;1
S90000;24SACHB20;133
S24000;27DC030I20;12
S90000;27DC030I20;10
S24000;27DL200I20;10
S90000;27DL200I20;11
S24000;27HC050I18;8
S90000;27HC050I18;12
S24000;27OR050I21C;46
S90000;27OR050I21C;32
S24000;27TS001I20;410
S90000;27TS001I20;450
S24000;27TS050I20;24
S90000;27TS050I20;21
S90000;49MA010K19H;5
S90000;49MA010L16;21
S90000;49MA010P15;1
S90000;49MA010VB3;116
S90000;49MF010W19H;5
S90000;49MIRCB19;2
S90000;49MR010K14;34
S24000;49MS008I20;41
S24000;01CL050K18;6
S90000;01CL050K18;8
S90000;01LH100KB19;8
S24000;01LH300KB19;5
S90000;01LH300KB19;9
S24000;01MR030K14;14
S90000;01MR030K14;13
S24000;01SA250VE16;17
S90000;01SA250VE16;12
S24000;11BG140CS19;6
S90000;11BG140CS19;10
S90000;11EH040A19;12
S24000;11SD100DE20H;6
S24000;15GD500VA20;12
S24000;15RC500VB17;22
S90000;15RC500VB17;20
S24000;20GD250OC20;17
S90000;20GD250OC20;14
S90000;24GD075CB5;42
S24000;24MA030RE19;10
S90000;24MA030RE19;9
S24000;24MA075R18;22
S90000;24MA075R18;11
S90000;24SA050S6;15
S24000;27DE015I13US;12
S90000;27DE015I13US;10
S24000;27HCR050I16;8
S90000;27HCR050I16;6
S90000;27MP050I20;24
S24000;29EC200A13;1
S90000;29EC200A13;10
S24000;29GE200A18;14
S90000;29GE200A18;9
S24000;29HD075A15;13
S90000;29HD075A15;24
S24000;29HD250A15;29
S90000;29HD250A15;18
S24000;29HD250A21C;49
S90000;29HD250A21C;28
S24000;29HD500A15;21
S90000;29HD500A15;41
S24000;29HS100A18;12
S90000;29HS100A18;10
S90000;29KTAMA19;2
S90000;29LC200A14;21
S24000;29LC200A14US;22
S90000;29LC200A14US;27
S24000;29LC200A21C;31
S90000;29LC200A21C;27
S24000;29MA030A17;15
S90000;29MA030A17;10
S24000;29MA075A16;4
S90000;29MA075A16;6
S24000;29MA075A19;16
S90000;29MA075A19;9
S24000;29RC200A19;21
S90000;29RC200A19;6
S24000;29RH500A15;34
S90000;29RH500A15;62
S24000;29SA050A17;10
S90000;29SA050A17;10
S90000;29SAALM20;85
S24000;29SE125A21;16
S24000;01BK010K14;17
S90000;01BK010K14;13
S24000;01BL012K18;13
S90000;01BL012K18;11
S24000;01BP050K21;10
S90000;01BP050K21;12
S24000;01CL200K17;8
S90000;01CL200K17;11
S24000;01PI150K18;10
S90000;01PI150K18;12
S90000;10QCRAC20;20
S24000;11GM200I19;6
S90000;11GM200I19;10
S24000;11SA100H20;17
S90000;11SA100H20;10
S24000;15CP250VA5;6
S90000;15CP250VA5;12
S24000;15ET100VM20H;3
S24000;17AS500P19;9
S90000;17AS500P19;11
S24000;17IC200D15;11
S90000;17IC200D15;10
S24000;18ET050TL17;7
S90000;18ET050TL17;7
S24000;20HR050H20;6
S90000;20HR050H20;8
S24000;24BR050CB6;7
S90000;24BR050CB6;9
S24000;24LC250R18;12
S90000;24LC250R18;9
S24000;24MA030RV19;10
S24000;24SA050R18;10
S90000;24SA050R18;9
S24000;27DB015I16;2
S24000;27HSR030I16;8
S90000;27HSR030I16;7
S90000;49VANSA19;32
S90000;49WS004A18;9
S24000;52ACRAC20;2
S24000;52AF006G20;3
S24000;52AS006E19;347
S90000;52AS006E19;109
S90000;52AS006F17;63
S24000;52AS006G18;218
S90000;52AS006G18;199
S24000;52AS006P19;283
S90000;52AS006P19;208
S24000;01BM150K19;18
S90000;01BM150K19;11
S24000;01CP100K21;12
S90000;01CP100K21;15
S24000;01HDR500K20;11
S90000;01HDR500K20;8
S90000;01LT300K12;3
S24000;01RV500K20;10
S90000;01RV500K20;18
S24000;01SA100VE16;18
S90000;01SA100VE16;9
S24000;11CM125I19;9
S90000;11CM125I19;11
S24000;11GE075I20;4
S90000;11GE075I20;10
S24000;11MW200I19;5
S90000;11MW200I19;6
S24000;11MWC200I19;8
S24000;11PEP050I20;6
S21000;20ET075OC20;10
S21000;20SA050HC20;9
S21000;24MA150R19;7
S21000;27DH015I20;21
S21000;38EC015A18;6
S21000;38EV075A18;2
S21000;38FT200A18;8
S21000;38MI150A18;5
S21000;38RC050A18;6
S21000;38ST016A18;8
S21000;38UV030A18;7
S21000;38WC050A18;8
S21000;38WM065A18;6
S21000;38WS030A18;7
S21000;49BAG2NO20;1
S21000;49BF2NO20;50
S21000;49BLALM20;6
S21000;49BLCHB20;6
S21000;49BLKAR20;6
S21000;49BLVER20;6
S21000;01BM150K19;9
S21000;01CP100K21;13
S21000;01HDR500K20;6
S21000;01RV500K20;12
S21000;01SA100VE16;14
S21000;11CM125I19;9
S21000;11GE075I20;8
S21000;11MW200I19;6
S21000;11MWC200I19;8
S21000;11PEP050I20;10
S21000;15ET100VA5;8
S21000;15GN300L11;12
S21000;17AS250N18;6
S21000;17AS500G18;9
S21000;17BD125G14;7
S21000;24MA030P15;20
S21000;24MA030S6;19
S21000;27DC065I21;24
S21000;27DH030I20;19
S21000;27DS030I20;13
S21000;27EV200I19;11
S21000;52HD006A18;407
S21000;52HF004K17;3
S21000;52HR004G17;46
S21000;52HS001I17;295
S21000;52HS004A18;132
S21000;52HV001K18;156
S21000;52LABANO20;34
S21000;52LASANO20;272
S21000;52LC006A18;382
S21000;52LGEBAG18;78
S21000;52LGENSA18;112
S21000;52MA003K16A;201
S29000;17RC500N18;29
S29000;17SH300G18;11
S29000;17SH500D16;23
S29000;17SH500P19;21
S29000;20ET075OC20;12
S29000;20SA050HC20;13
S29000;24MA150R19;10
S29000;27DH015I20;36
S29000;38EC015A18;8
S29000;38EV075A18;7
S29000;38FT200A18;13
S29000;38MI150A18;8
S29000;38RC050A18;13
S29000;38ST016A18;7
S29000;38UV030A18;6
S29000;38WC050A18;11
S29000;38WM065A18;22
S29000;38WS030A18;13
S29000;49BLALM20;9
S29000;49BLCHB20;9
S29000;49BLKAR20;9
S29000;49BLVER20;9
S29000;01BM150K19;32
S29000;01CP100K21;16
S29000;01HDR500K20;42
S29000;01RV500K20;24
S29000;01SA100VE16;21
S29000;11CM125I19;16
S29000;11GE075I20;8
S29000;11MW200I19;4
S29000;11PEP050I20;9
S29000;15ET100VA5;12
S29000;15GN300L11;25
S29000;17AS250N18;11
S29000;17AS500G18;5
S29000;17BD125G14;26
S29000;20NV150CD16A;1
S29000;24MA030P15;18
S29000;24MA030S6;18
S29000;27DC065I21;11
S29000;27DH030I20;33
S29000;27DS030I20;36
S29000;27EV200I19;17
S29000;52HD006A18;184
S29000;52HF004K17;268
S29000;52HR004G17;146
S29000;52HS001I17;263
S29000;52HS004A18;156
S29000;52HV001K18;36
S29000;52LASANO20;44
S29000;52LGENSA18;136
S29000;52MA003K16A;238
S29000;52MC006G18;248
S15;11BG140CS19;17
S27000;11BG140CS19;11
S28000;11BG140CS19;8
S15;15RC500VB17;15
S27000;15RC500VB17;15
S28000;15RC500VB17;28
S15;20GD250OC20;16
S27000;20GD250OC20;7
S28000;20GD250OC20;24
S15;24GD500R19;6
S15;24MA030RE19;2
S27000;24MA030RE19;9
S28000;24MA030RE19;20
S28000;24MA075R18;48
S15;27DE015I13US;5
S27000;27DE015I13US;10
S28000;27DE015I13US;16
S15;27HCR050I16;4
S27000;27HCR050I16;7
S28000;27HCR050I16;11
S15;29EC200A13;4
S27000;29EC200A13;6
S28000;29EC200A13;11
S15;29GE200A18;3
S27000;29GE200A18;22
S28000;29GE200A18;16
S15;29HD250A15;26
S27000;29HD250A15;36
S28000;29HD250A15;47
S15;29HD250A21C;22
S27000;29HD250A21C;26
S28000;29HD250A21C;9
S28000;01SA250VE16;24
S27000;01SA250VE16;20
S15;01SA250VE16;10
S15;52GRBAHOL20;1
S15;29HD500A15;11
S27000;29HD500A15;26
S28000;29HD500A15;52
S15;29HS100A18;15
S27000;29HS100A18;4
S28000;29HS100A18;26
S15;29LC200A14US;1
S27000;29LC200A14US;1
S28000;29LC200A14US;31
S15;29LC200A21C;52
S27000;29LC200A21C;32
S28000;29LC200A21C;29
S27000;29MA030A17;23
S28000;29MA030A17;29
S15;29MA075A16;7
S27000;29MA075A16;9
S28000;29MA075A16;14
S15;29MA075A19;15
S27000;29MA075A19;18
S15;01BK010K14;18
S27000;01BK010K14;18
S28000;01BK010K14;27
S15;01BL012K18;17
S27000;01BL012K18;12
S28000;01BL012K18;34
S15;01BL012K20H;3
S27000;01BL012K20H;8
S15;01BP050K21;13
S27000;01BP050K21;9
S28000;01BP050K21;6
S15;01CL200K17;12
S27000;01CL200K17;8
S28000;01CL200K17;16
S15;01PI150K18;6
S27000;01PI150K18;4
S28000;01PI150K18;16
S15;11GM200I19;7
S27000;11GM200I19;7
S28000;11GM200I19;11
S15;11SA100H20;14
S27000;11SA100H20;9
S28000;11SA100H20;26
S15;15CP250VA5;8
S27000;15CP250VA5;8
S28000;15CP250VA5;6
S27000;15ET100VM20H;5
S28000;15ET100VM20H;12
S15;17AS500P19;11
S27000;17AS500P19;7
S28000;17AS500P19;6
S15;17IC200D15;3
S27000;17IC200D15;9
S28000;17IC200D15;8
S15;18ET050TL17;8
S27000;18ET050TL17;6
S28000;18ET050TL17;6
S15;20HR050H20;3
S27000;20HR050H20;4
S28000;20HR050H20;8
S15;24BR050CB6;11
S27000;24BR050CB6;10
S28000;24BR050CB6;13
S15;24LC250R18;14
S27000;24LC250R18;10
S28000;24LC250R18;16
S15;24MA030RV19;6
S27000;24MA030RV19;14
S15;24SA050R18;4
S27000;24SA050R18;9
S28000;24SA050R18;16
S20;15SH250VA17;13
S20;17AS500N18;6
S20;17SH300P19;10
S20;17SH500G18;11
S20;20GD250CD20;13
S20;20SA050CD20;18
S20;24GD250R18;2
S20;24GD500R19;14
S20;24LC250CB4;7
S20;24MA075P15;23
S20;27DC030I20;16
S20;27DL200I20;15
S20;27HC050I18;8
S20;27OR050I21C;48
S20;27TS001I20;174
S20;27TS050I20;24
S20;49MR010K14;27
S20;49MS008I20;40
S20;49NOTNO19;22
S20;49OR005I19;8
S20;52MOCOL316;5
S20;52MIGEBAG19;240
S20;52MGENSA18;200
S20;52MGEBOX18;21
S20;52MGEBAG19;300
S20;52MGEBAG18;22
S20;52MA003K16A;118
S20;52LGENSA18;234
S20;52LGEBAG19;100
S20;52LGEBAG18;27
S20;52LC006A18;597
S20;52HV001K18;47
S20;52HS004A18;171
S20;52HS001I17;212
S20;52HR004G17;132
S20;52HF004K17;91
S20;52HD006A18;776
S20;49POUID20;5
S20;49POUIS19;15
S20;49POUM20;18
S20;49TOBAGSA20;14
S20;49TOTMC20;15
S20;01BK010K14;20
S20;01BP050K21;12
S20;01CL200K17;9
S20;01PI150K18;23
S20;11GM200I19;4
S20;11SA100H20;11
S20;15CP250VA5;5
S20;15ET100VM20H;5
S20;17AS500P19;10
S20;17IC200D15;2
S20;18ET050TL17;8
S20;20HR050H20;5
S20;24BR050CB6;1
S21000;52MGEBAG19;200
S21000;52MGEBOX18;25
S21000;52MGENSA18;193
S21000;52MIBANO20;68
S21000;52MIGEBAG19;155
S21000;52MMBANO19;16
S21000;52MMBANO20;54
S21000;52MMBBNO20;22
S21000;52MMBPNO20;3
S21000;52MMBYNO20;7
S21000;52MMSANO20;143
S21000;52MOCOL316;7
S21000;52MS001I20;157
S21000;52OR001I18;916
S21000;52OR001I19;375
S21000;01CL300KB19;1
S21000;01HD500K20;10
S21000;01SA250LV16;1
S21000;01SL300VE20;7
S21000;11CM030H20;67
S21000;11SD100SH19;6
S21000;15BA500L16A;5
S21000;15CC150VA19;4
S21000;15GM280VB20;14
S21000;15LC250VA5;4
S21000;15MA030L11;17
S21000;15SH250VA17;8
S21000;17AS500N18;10
S21000;17SH300P19;9
S21000;17SH500G18;11
S21000;20GD250CD20;12
S21000;20SA050CD20;10
S21000;24GD500R19;5
S21000;24LC250CB4;8
S21000;24MA075P15;12
S21000;27DC030I20;21
S21000;27DL200I20;15
S21000;27HC050I18;8
S21000;27OR050I21C;47
S21000;27TS001I20;352
S21000;27TS050I20;56
S21000;49MS008I20;65
S21000;49OR005I18;14
S21000;49OR005I19;25
S21000;49POUID20;5
S21000;49POUIS19;12
S21000;49POUM20;14
S21000;49TOBAGSA20;11
S21000;49TOTMC20;14
S21000;01BK010K14;14
S21000;01BL012K18;11
S21000;01BL012K20H;3
S21000;01BP050K21;10
S10;27ER015I20;29
S10;27MI150I20;7
S10;01RL500K20;12
S10;01SA250LT20;21
S10;01SL0045K13;30
S10;11CD050A18;3
S10;11EP050H19;6
S10;11EP090H19;6
S10;11PM100DE20H;2
S10;11PM100SH19;16
S10;11SP200SI19;15
S10;11SP200SL19;11
S10;15AS250VA18;17
S10;98BBGD050VE2;27
S10;54WKRESET20;1
S10;54WKIMM20;1
S10;98BBDF015IM0;32
S10;15CL150VM20H;3
S10;17AF100G20;13
S10;17RC500P19;10
S10;20FE050H20;6
S10;27MQ065I15A;7
S10;29ASH240A20;9
S10;01CL200B20H;1
S10;01CP050K19H;1
S10;01EC200K17;11
S10;01HD250K17;5
S10;01RC300KB20;5
S10;01SA100LV20;11
S10;01SE125K21;18
S10;11EP005H19;93
S10;11SD100SI19;16
S10;15DO050VA5;12
S10;15GC150VBL20;4
S10;15RG500L14;14
S10;17AS500E19;5
S10;17RC500N18;7
S10;17SH300G18;23
S10;17SH500D16;7
S10;17SH500P19;10
S10;20ET075OC20;8
S10;20SA050HC20;7
S10;24MA150R19;7
S10;27DH015I20;8
S10;38EC015A18;10
S10;38EV075A18;8
S10;38FT200A18;7
S10;38MI150A18;8
S10;38RC050A18;10
S10;38ST016A18;7
S10;38UV030A18;13
S10;38WC050A18;10
S10;38WM065A18;6
S10;38WS030A18;12
S10;49BAG2NO20;2
S10;49BLALM20;8
S10;49BLCHB20;8
S10;49BLKAR20;8
S10;49BLVER20;8
S10;01BM150K19;18
S10;01CP100K21;11
S10;01HDR500K20;26
S10;01RV500K20;13
S10;01SA100VE16;14
S10;11CM125I19;9
S10;11GE075I20;4
S10;11MW200I19;12
S10;11MWC200I19;8
S10;11PEP050I20;9
S10;15ET100VA5;7
S10;15GN300L11;8
S10;17AS250N18;6
S10;17AS500G18;12
S10;17BD125G14;8
S10;24MA030P15;29
S10;24MA030S6;28
S10;27DC065I21;20
S10;27DH030I20;40
S10;27DS030I20;12
S10;27EV200I19;13
S10;52HD006A18;272
S10;52HF004K17;129
S10;52HR004G17;85
S10;52HS001I17;353
S10;52HS004A18;248
S10;52HV001K18;44
S10;52KTPPLV17;1
S10;52LABANO20;71
S10;52LASANO20;67
S10;52LC006A18;484
S10;52LGEBAG18;145
S10;52LGENSA18;87
S10;52MA003K16A;303
S10;52MC006G18;301
S10;52MC006N18;48
S10;52MGEBAG18;177
S10;52MGEBAG19;300
S10;52MGEBOX18;20
S10;52MGENSA18;11
S10;52MIBANO20;22
S10;52MIGEBAG19;226
S10;52MMBANO20;192
S10;52MMBBNO20;21
S10;52MMBPNO20;16
S10;52MMBYNO20;15
S10;52MMSANO20;67
S10;52MOCOL316;6
S10;52MS001I20;118
S10;52OR001I19;357
S10;52ORT001I18;111
S10;01HD500K20;7
S10;01SL300VE20;8
S10;11CM030H20;15
S10;11SD100SH19;7
S10;15BA500L16A;5
S10;15CC150VA19;3
S10;15GM280VB20;18
S10;15LC250VA5;9
S10;15MA030L11;28
S10;15SH250VA17;13
S10;17AS500N18;5
S10;17SH300P19;12
S10;17SH500G18;11
S10;20GD250CD20;23
S10;20SA050CD20;11
S10;24LC250CB4;4
S10;24MA075P15;33
S10;27DC030I20;15
S10;27DL200I20;15
S10;27HC050I18;7
S10;27OR050I21C;43
S10;27TS001I20;103
S10;27TS050I20;30
S10;49MR010K14;33
S10;49MS008I20;51
S10;49OR005I18;9
S10;49OR005I19;10
S10;49POUID20;5
S10;49POUIS19;34
S10;49POUM20;16
S10;49TC1NO20;2
S10;49TOBAGSA20;8
S10;49TOTMC20;15
S10;01BK010K14;19
S10;01BL012K18;11
S10;01BL012K20H;9
S10;01BP050K21;11
S10;01CL200K17;6
S10;01PI150K18;10
S10;10QCRAC20;1
S10;11GM200I19;5
S10;11SA100H20;17
S10;15CP250VA5;4
S10;15ET100VM20H;6
S10;17AS500P19;8
S10;17IC200D15;10
S10;18ET050TL17;6
S10;20HR050H20;6
S10;24BR050CB6;14
S10;24LC250R18;23
S10;24MA030RV19;15
S10;24SA050R18;14
S10;27DB015I16;3
S10;27HSR030I16;8
S29000;52MGEBOX18;18
S29000;52MGENSA18;189
S29000;52MOCOL216;3
S29000;52MOCOL316;7
S29000;52MS001I20;218
S29000;52OR001I18;41
S29000;52OR001I19;21
S29000;52PCRANO20;3
S29000;01HD500K20;19
S29000;01SL300VE20;15
S29000;10QUAGD20;5
S29000;11CM030H20;17
S29000;11SD100SH19;15
S29000;15BA500L16A;10
S29000;15CC150VA19;4
S29000;15GD070VB17;67
S29000;15GM280VB20;7
S29000;15LC250VA5;14
S29000;15MA030L11;26
S29000;15SH250VA17;20
S29000;17AS500N18;12
S29000;17SH300P19;9
S29000;17SH500G18;17
S29000;20GD250CD20;28
S29000;20SA050CD20;15
S29000;24GD250R18;3
S29000;24GD500R19;16
S29000;24LC250CB4;14
S29000;24MA075P15;14
S29000;27DC030I20;23
S29000;27DL200I20;15
S29000;27HC050I18;15
S29000;27OR050I21C;36
S29000;27TS001I20;277
S29000;27TS050I20;35
S29000;49MA010VB3;67
S29000;49MR010K14;58
S29000;49MS008I20;116
S29000;49NOTNO19;59
S29000;49OR005I18;12
S29000;49POU1VE20;33
S29000;49TC1NO20;6
S29000;49TOTMC20;15
S29000;01BK010K14;16
S29000;01BL012K18;13
S29000;01BP050K21;11
S29000;01CL200K17;31
S29000;01PI150K18;17
S29000;11GM200I19;22
S29000;11SA100H20;13
S29000;15CP250VA5;12
S29000;15ET100VM20H;6
S29000;17AS500P19;9
S90000;11PEP050I20;9
S24000;15ET100VA5;8
S90000;15ET100VA5;8
S24000;15GN300L11;7
S90000;15GN300L11;11
S90000;17AS250N18;22
S24000;17AS500G18;12
S90000;17AS500G18;15
S24000;17BD125G14;8
S90000;17BD125G14;8
S24000;17HE010R14;3
S24000;24MA030P15;24
S90000;24MA030P15;10
S24000;52CL0015K18;78
S90000;52CD0015A18;108
S24000;52CD0015A18;140
S24000;52CCRAC20;2
S90000;52CARDNO20;3
S24000;52CARDNO20;4
S90000;52CARDENV18;6
S90000;52BOWEB317;2349
S90000;52BOWEB217;5566
S90000;52BOWEB117;2372
S90000;52BY001I19;65
S24000;52BY001I19;282
S90000;52BGERIB18;2
S24000;52BGERIB18;1
S24000;52BCRAC20;2
S24000;52BALLHOL20;1
S24000;24MA030S6;26
S90000;24MA030S6;19
S90000;26PM100FC15;5
S24000;27DC065I21;21
S24000;27DH030I20;14
S90000;27DH030I20;12
S24000;27DS030I20;8
S90000;27DS030I20;12
S24000;27EV200I19;14
S90000;27EV200I19;10
S24000;52HD006A18;211
S90000;52HD006A18;410
S24000;52HF004K17;114
S24000;52HR004G17;78
S90000;52HR004G17;129
S24000;52HS001I17;180
S24000;52HS004A18;131
S90000;52HS004A18;2
S24000;52HV001K18;29
S90000;52HV001K18;104
S90000;52LASANO19;60
S90000;52LASANO20;60
S24000;52LC006A18;473
S90000;52LC006A18;134
S24000;52LGEBAG19;132
S90000;52LGEBOX18;75
S24000;52LGENSA18;97
S90000;52LGENSA18;163
S24000;52MA003K16A;283
S90000;52MA003K16A;150
S24000;52MC006G18;242
S90000;01BLKAR19;21
S24000;01BM050K19;7
S90000;01BM050K19;7
S24000;01LT300K20;12
S90000;01LT300K20;9
S90000;01MA030K20H;4
S24000;01MA030K21;22
S90000;01MA030K21;20
S24000;01PR015R19;25
S90000;01PR015R19;12
S24000;11BG140SH19;5
S24000;11GD250H19;19
S90000;11GD250H19;9
S24000;11GD250H20;20
S90000;11GD250H20;15
S24000;11LP040028M19;2
S90000;11LP040028M19;15
S24000;15ET100VB3;8
S90000;15ET100VB3;8
S24000;17MC200G18;11
S90000;17MC200G18;8
S24000;17RC500E20;15
S90000;17RC500E20;13
S24000;17RS500G19;28
S90000;17RS500G19;26
S24000;17RS500N18;7
S90000;17RS500N18;17
S24000;17SH300E19;25
S90000;17SH300E19;12
S24000;18ET090TL17;7
S90000;18ET090TL17;1
S24000;24BR050R19;7
S90000;24BR050R19;9
S24000;24ET075CB4;12
S90000;24ET075CB4;7
S90000;24GD075P15;1
S24000;27BP050I19;11
S90000;27CP050I14A;3
S24000;27ER015I20;13
S90000;27ER015I20;21
S24000;27MI150I20;7
S90000;01ETKAR20;3
S90000;01MA150K20H;4
S24000;01RL500K20;10
S90000;01RL500K20;19
S24000;01SA250LT20;19
S90000;01SA250LT20;15
S24000;01SL0045K13;33
S90000;01SL0045K13;9
S90000;10QUAGD19;21
S24000;11CD050A18;8
S90000;11CD050A18;10
S24000;11EP050H19;8
S90000;11EP050H19;9
S24000;11EP090H19;8
S90000;11EP090H19;11
S90000;11LC050H19;30
S90000;11LC050H20;1
S24000;11PM100DE20H;4
S24000;11PM100SH19;7
S90000;11PM100SH19;10
S24000;11SP200SI19;7
S90000;11SP200SI19;4
S24000;11SP200SL19;8
S90000;11SP200SL19;7
S24000;15AS250VA18;7
S90000;15AS250VA18;12
S24000;15CL150VM20H;4
S90000;15RG500VA4;3
S24000;17AF100G20;9
S90000;17AF100G20;11
S90000;17IC075D15;6
S24000;17RC500P19;12
S90000;17RC500P19;26
S90000;17SH075P19;22
S24000;20ET075CD19;5
S24000;20FE050H20;6
S90000;20FE050H20;8
S90000;24LC250S6;20
S24000;27MQ065I15A;6
S90000;27MQ065I15A;5
S24000;29ASH240A20;9
S90000;29ASH240A20;15
S24000;01LC250K17;11
S90000;01LC250K17;8
S90000;01MA150K16;2
S90000;10BOWEB219;1600
S90000;10BOWEB319;2100
S90000;10BOWEB419;2100
S24000;11BG140SL19;8
S90000;11BG140SL19;9
S24000;11EH150A18;7
S90000;11EH150A18;12
S24000;11GN195A18;8
S90000;11GN195A18;10
S24000;11SP200SH19;8
S90000;11SP200SH19;8
S24000;15MA075L11;12
S29000;17IC200D15;8
S29000;18ET050TL17;9
S29000;20HR050H20;4
S29000;24BR050CB6;10
S29000;24LC250R18;21
S29000;24SA050R18;9
S29000;27HSR030I16;13
S29000;52ACRAC20;3
S29000;52AF006G20;199
S29000;52AS006E19;277
S29000;52AS006G18;306
S29000;52AS006P19;80
S29000;52BALLHOL20;3
S29000;52BCRAC20;3
S29000;52BGERIB18;7
S29000;52BY001I19;147
S29000;52CARDNO20;8
S29000;52CCRAC20;3
S29000;52CD0015A18;141
S29000;52CL0015K18;159
S29000;52CP0015I19;148
S29000;52CP006K17;312
S29000;01CL200K21;24
S29000;01CMR500K20;32
S29000;01HN0075K19;2
S29000;01MF150B20H;4
S29000;01SA050KV20;30
S29000;01SA100LV16;1
S29000;11BH050A18;9
S29000;11EP010H19;7
S29000;11MH075A19;10
S29000;11SP200CS19;10
S29000;15DF200VM20H;2
S29000;15HE005L14;17
S29000;15SE400VB5;17
S29000;17AS075G18;21
S29000;17SH300N18;7
S29000;18LC250TL17ET;17
S29000;20ET075HC6;1
S29000;20GD250HC20;22
S29000;24VF050R18;13
S29000;98BBDF015IM0;22
S29000;01MF030B20H;4
S29000;01SA100LT16;15
S29000;01SL500LV20;22
S29000;11BO100CS19;28
S29000;11LC250H19;21
S29000;11PM100SI19;3
S29000;11SV080I19;19
S29000;17AS250E19;10
S29000;18BI030TL17ET;16
S29000;20DO130HC20;9
S21000;01CL200K17;7
S21000;01PI150K18;5
S21000;11GM200I19;6
S21000;11SA100H20;66
S21000;15CP250VA5;5
S21000;15ET100VM20H;10
S21000;17AS500P19;5
S21000;17IC200D15;7
S21000;18ET050TL17;8
S21000;20HR050H20;6
S21000;24BR050CB6;14
S21000;24LC250R18;11
S21000;24MA030RV19;10
S21000;24SA050R18;10
S21000;27DB015I16;2
S21000;27HSR030I16;8
S21000;52ACRAC20;1
S21000;52AF006G20;5
S21000;52AS006E19;135
S21000;52AS006G18;267
S21000;52AS006P19;474
S21000;52BALLHOL20;1
S21000;52BCRAC20;1
S21000;52BGERIB18;2
S21000;52BY001I19;254
S21000;52CARDNO20;12
S21000;52CCRAC20;1
S21000;52CD0015A18;172
S21000;52CL0015K18;119
S21000;52CLASANO20;2
S21000;52CP0015I19;78
S21000;52CP006K17;243
S21000;01BL012B20H;1
S21000;01MA150K18;14
S21000;11CF100TR19;23
S21000;11LH200I19;10
S21000;11SA100H19;8
S21000;15LC250VB3;9
S21000;15MA075VB4;12
S21000;17AS250P19;11
S21000;17DO050F13;12
S21000;17MC200N18;8
S21000;17RS500P19;34
S21000;17SH500E19;15
S21000;17SH500N18;2
S21000;18GD250TL17ET;26
S21000;20ET075CD20;10
S21000;20MP030H20;8
S21000;20SA050O20;11
S21000;24MA030CB4;17
S21000;27SP030I19;10
S21000;01CL200K21;12
S21000;01CMR500K20;10
S15;27DB015I16;5
S27000;27DB015I16;1
S15;27HSR030I16;7
S27000;27HSR030I16;7
S28000;27HSR030I16;11
S15;52ACRAC20;3
S27000;52ACRAC20;1
S28000;52ACRAC20;2
S15;52AF006G20;1
S27000;52AF006G20;6
S28000;52AF006G20;21
S15;52AS006E19;199
S27000;52AS006E19;283
S15;01SA100LT16;23
S27000;01SA100LT16;13
S28000;01SA100LT16;26
S15;01SL500LV20;14
S27000;01SL500LV20;7
S28000;01SL500LV20;11
S15;11BO100CS19;24
S27000;11BO100CS19;26
S28000;11BO100CS19;29
S15;11LC250H19;15
S27000;11LC250H19;9
S28000;11LC250H19;11
S15;11PM100SI19;8
S27000;11PM100SI19;6
S15;11SV080I19;8
S27000;11SV080I19;8
S28000;11SV080I19;7
S15;15LC250VBL20;2
S27000;15LC250VBL20;3
S15;17AS250E19;6
S27000;17AS250E19;9
S28000;17AS250E19;22
S15;18BI030TL17ET;20
S27000;18BI030TL17ET;38
S28000;18BI030TL17ET;41
S15;20DO130HC20;12
S27000;20DO130HC20;8
S28000;20DO130HC20;17
S15;20ET100OC13;2
S28000;20ET100OC13;7
S15;20NV150H20;11
S27000;20NV150H20;5
S28000;20NV150H20;27
S15;27DB015I20;14
S27000;27DB015I20;5
S28000;27DB015I20;23
S15;27KTFCAPAC20;2
S28000;27KTFCAPAC20;1
S28000;27MI150I17;7
S15;52CV0015K18;112
S20;24LC250R18;15
S20;24MA030RV19;7
S20;24SA050R18;20
S20;27DB015I16;2
S20;27HSR030I16;8
S20;52ACRAC20;2
S20;52AF006G20;5
S20;52AS006E19;188
S20;52AS006G18;223
S20;52AS006N18;89
S20;52AS006P19;149
S20;52BALLHOL20;1
S20;52BCRAC20;2
S20;52BGERIB18;3
S20;52BY001I19;169
S20;52CARDNO20;11
S20;52CCRAC20;2
S20;52CD0015A18;102
S20;52CL0015K18;154
S20;52CP0015I19;230
S20;52CP006K17;153
S20;01CL200K21;16
S20;01CMR500K20;19
S20;01HN0075K19;13
S20;01MF150B20H;17
S20;01SA050KV20;13
S20;11BH050A18;12
S20;11EP010H19;15
S20;11MH075A19;8
S20;11SP200CS19;10
S20;15HE005L14;10
S20;15SE400VB5;7
S20;17AS075G18;13
S20;17SH300N18;6
S20;18LC250TL17ET;11
S20;20GD250HC20;18
S20;24VF050R18;6
S20;98BBDF015IM0;17
S20;98BBGD050VE2;29
S20;98BBHD050A0;2
S20;01SA100LT16;31
S20;01SL500LV20;5
S20;11BO100CS19;14
S20;11LC250H19;15
S20;11SV080I19;6
S20;17AS250E19;10
S20;18BI030TL17ET;12
S20;20DO130HC20;8
S20;20NV150H20;8
S20;27DB015I20;16
S20;27KTFCAPAC20;8
S20;27MI150I17;5
S20;52CV0015K18;6
S20;52DB001I17;61
S21000;01HN0075K19;9
S21000;11BH050A18;10
S21000;11EP010H19;10
S21000;11MH075A19;8
S21000;11SP200CS19;15
S21000;15HE005L14;9
S21000;15SE400VB5;5
S21000;17AS075G18;3
S21000;17SH075E19;50
S21000;17SH300N18;5
S21000;18LC250TL17ET;25
S21000;20ET075HC6;2
S21000;20GD250HC20;10
S21000;24VF050R18;6
S21000;98BBDF015IM0;13
S21000;98BBGD050VE2;25
S21000;98BBHD050A0;66
S21000;98BBSH050A0;11
S21000;98BBSH050AR2;167
S21000;01SA100LT16;16
S21000;01SL500LV20;9
S21000;11BO100CS19;30
S21000;11LC250H19;7
S21000;11PM100SI19;4
S21000;11SV080I19;8
S21000;17AS250E19;10
S21000;18BI030TL17ET;16
S21000;20DO130HC20;6
S21000;20NV150H20;7
S21000;27DB015I20;18
S21000;27KTFCAPAC20;1
S21000;27MI150I17;1
S21000;52CV0015K18;313
S21000;52DB001I20;183
S21000;52DC0015I20;1368
S21000;52DCRAC20;1
S21000;52DS001I20;174
S21000;52GIF2NO20;2
S21000;01LC250K17;8
S21000;11BG140SL19;5
S21000;11EH150A18;6
S21000;11GN195A18;8
S21000;11SP200SH19;8
S21000;15MA075L11;8
S21000;17ER075P19;8
S21000;17HR100G13;11
S21000;18ET010TL17;10
S21000;24RO010R18;10
S21000;27DCB060I17;5
S21000;27DH030I17A;1
S21000;27OR075I20;40
S21000;52SGEBAG19;222
S27000;52CV0015K18;130
S28000;52CV0015K18;297
S15;52DB001I17;10
S27000;52DB001I17;83
S15;52DB001I20;222
S27000;52DB001I20;340
S28000;52DB001I20;176
S15;52DC0015I20;104
S27000;52DC0015I20;466
S28000;52DC0015I20;74
S15;52DCRAC20;3
S27000;52DCRAC20;1
S28000;52DCRAC20;2
S15;52DE001I17;253
S27000;52DE001I17;331
S28000;52DE001I17;87
S15;52DF002I17;199
S27000;52DF002I17;231
S28000;52DF002I17;139
S15;52DH001I20;90
S27000;52DH001I20;437
S28000;52DH001I20;437
S27000;52DS001I17;131
S15;52DS001I20;382
S15;01CL050K21;18
S27000;01CL050K21;12
S28000;01CL050K21;18
S15;01CM500K20;11
S27000;01CM500K20;6
S28000;01CM500K20;14
S15;01HF100K17;9
S27000;01HF100K17;7
S28000;01HF100K17;5
S15;01PI030K18;26
S27000;01PI030K18;7
S28000;01PI030K18;17
S15;01SL500VE20;12
S27000;01SL500VE20;8
S28000;01SL500VE20;17
S15;11BP100I19;15
S27000;11BP100I19;8
S28000;11BP100I19;8
S15;11BR100A20;32
S27000;11BR100A20;12
S28000;11BR100A20;9
S15;11ET010H20;10
S27000;11ET010H20;5
S28000;11ET010H20;25
S15;11LC250H20;13
S27000;11LC250H20;9
S28000;11LC250H20;29
S28000;15GM030VBL20;1
S15;15MA030VB3;11
S21000;52SGENSA18;240
S21000;52SH006D17;127
S21000;52SH006E19;96
S21000;52SH006G18;183
S21000;52SH006N18;170
S21000;52SH006P19;464
S21000;01CL050K21;12
S21000;01CM500K20;9
S21000;01HF100K17;8
S21000;01PI030K18;10
S21000;01SL500VE20;8
S21000;11BP100I19;8
S21000;11BR100A20;6
S21000;11ET010H20;12
S21000;11LC250H20;9
S21000;15MA030VB3;18
S21000;17RS500E20;9
S21000;17SH300D15;11
S21000;20AR075O20;8
S21000;24SA050CB6;8
S21000;27HS030I18;8
S21000;27RM300I20;18
S21000;01CM300K20;7
S21000;01CV050K15;12
S21000;01HV030K16;5
S21000;11LP080028M19;6
S21000;15GM065L20;37
S21000;15GM065VB20;70
S21000;17AS250G18;10
S21000;17MM050A20;14
S21000;17RC500G18;33
S21000;17SE125D15;8
S21000;20DO075CD20;10
S21000;24BL012CB5;9
S21000;24MA030RA19;9
S21000;27CP050I19;10
S21000;27DC050I17A;3
S21000;27FP050I19;8
S21000;27OR030I19;43
S21000;01CL300KB20;6
S21000;01CP200K17;12
S21000;01PI075K18;9
S21000;11BG140SI19;6
S21000;11LT300I20;7
S21000;11MA030A20;56
S21000;11SD100SL19;8
S21000;15GD250VA5;5
S21000;15GD500VB17;10
S21000;24EF050R18;3
S21000;24MA030R18;16
S21000;24MA075CB4;16
S21000;27DF125I17;12
S21000;27DH015I17;5
S29000;20NV150H20;8
S29000;27DB015I20;47
S29000;27KTFCAPAC20;10
S29000;52CV0015K18;28
S29000;52DB001I17;70
S29000;52DB001I20;458
S29000;52DC0015I17;82
S29000;52DC0015I20;385
S29000;52DCRAC20;3
S29000;52DE001I17;331
S29000;52DF002I17;410
S29000;52DH001I20;499
S29000;52DS001I17;130
S29000;52DS001I20;408
S29000;52EV002I19;273
S29000;52FP0015I19;119
S29000;52FT002A18;14
S29000;52GD0015A18;111
S29000;52GIF1NO20;4
S29000;52GIF2NO20;4
S29000;01BL012B20H;1
S29000;01MA150K18;29
S29000;01SA050KL20;28
S29000;01SF200H20;2
S29000;11CF100TR19;8
S29000;11LH200I19;5
S29000;11SA100H19;20
S29000;15LC250VB3;18
S29000;15MA075VB4;17
S29000;17AS250P19;14
S29000;17DO050F13;16
S29000;17MC200N18;13
S29000;17RS500P19;57
S29000;17SH500E19;18
S29000;17SH500N18;23
S29000;18GD250TL17ET;17
S29000;20ET075CD20;10
S29000;20MP030H20;8
S29000;20SA050O20;15
S29000;24MA030CB4;12
S29000;27BP050I19;11
S29000;27SP030I19;15
S29000;01ED200K17;2
S29000;01LC250K17;42
S29000;11BG140SL19;6
S29000;11EH150A18;12
S29000;11GN195A18;10
S29000;11SP200SH19;12
S29000;15MA075L11;18
S29000;17ER075P19;26
S29000;17HR100G13;28
S29000;18ET010TL17;8
S29000;20ET010CD19;8
SLM001;01CL050K15;4
SLM001;17AS250P19;16
SLM001;17MC200N18;6
SLM001;17SH075N18;12
SLM001;17SH500N18;16
SLM001;15LC150V13;1
SLM001;17AS075G18;5
SLM001;24GD250P15;1
SLM001;17MC200G18;10
SLM001;17RS500N18;10
SLM001;01SA080K17;1
SLM001;01MA150K19H;2
SLM001;17AS250F17;1
SLM001;17SH500D16;10
SLM001;17SH500P19;15
SLM001;27MP150I13;3
SLM001;38BV050A17;9
SLM001;38WS030A18;15
SLM001;01BM150K19;10
SLM001;17AS250N18;10
SLM001;17AS500G18;15
SLM001;52HD006A18;42
SLM001;52OR001I18;141
SLM001;15GD070VB17;18
SLM001;15LC250VA5;14
SLM001;17AS500N18;17
SLM001;17SH300P19;10
SLM001;17SH500G18;15
SLM001;49MA010K19H;13
SLM001;49MA010K20DTS;60
SLM001;49MA010P15;16
SLM001;49MA010R14;3
SLM001;49MF010W19H;13
SLM001;49TRARO15;42
SLM001;01BK010K14;9
SLM001;01BL012K18;8
SLM001;17IC200D15;11
SLM001;18ET050TL17;11
SLM001;52AS006G18;60
SLM001;01SA150H19H;2
SLM001;17AS250E19;2
SLM001;27MI150I17;3
SLM001;11GN195A18;11
SLM001;24LC075CB5;23
SLM001;27DCB060I17;10
SLM001;52SGEBOX18;1
SLM001;52SH006G18;150
SLM001;01BL012K15;4
SLM001;15MA030VB3;5
SLM001;17AS075N18;12
SLM001;17AS075P19;14
SLM001;17SH300D15;14
SLM001;24GD250S6;2
S90000;15MA075L11;10
S24000;17ER075P19;9
S90000;17ER075P19;8
S24000;17HR100G13;15
S90000;17HR100G13;8
S90000;17SH300D14;16
S24000;18ET010TL17;14
S90000;18ET010TL17;8
S24000;20ET010CD19;5
S90000;20ET010CD19;4
S24000;20ET010HC19;5
S90000;24LC075CB5;42
S24000;24RO010R18;11
S90000;24RO010R18;9
S24000;27DCB060I17;5
S90000;27DCB060I17;19
S24000;27DH030I17A;2
S90000;27DH030I17A;17
S24000;27OR075I20;13
S90000;27OR075I20;18
S90000;52PMGBOX18;9
S24000;52RBO2NO20;6
S24000;52RBO3NO20;6
S24000;52RC0015A18;55
S24000;52RIB1NO20;13
S90000;52RIB1NO20;1
S24000;52RIB2NO20;12
S90000;52RIB2NO20;1
S24000;52SGBAHOL20;1
S24000;52SGEBAG19;684
S90000;52SGEBAG19;293
S24000;52SGENSA18;164
S90000;52SGENSA18;112
S24000;52SH006D17;179
S90000;52SH006D17;149
S24000;52SH006E19;392
S90000;52SH006E19;56
S90000;52SH006F17;63
S24000;52SH006G18;107
S90000;52SH006G18;201
S24000;52SH006N18;21
S90000;52SH006N18;101
S24000;52SH006P19;220
S90000;52SH006P19;143
S90000;52SMSANO19;152
S24000;52SMSANO20;1
S90000;52SMSANO20;120
S24000;52SP001I19;91
S24000;38WM100A16;3
S24000;38WS030A18;11
S90000;38WS030A18;12
S90000;49BAG1NO19;118
S24000;49BAG1NO20;1
S20;52DB001I20;216
S20;52DC0015I20;653
S20;52DCRAC20;2
S20;52DE001I17;207
S20;52DF002I17;204
S20;52DH001I20;401
S20;52DS001I17;144
S20;52DS001I20;228
S20;52ER006P19;39
S20;52EV002I19;135
S20;52FP0015I19;102
S20;52FT002A18;22
S20;52GD0015A18;173
S20;52GIF1NO20;4
S20;52GIF2NO20;4
S20;01MA150K18;6
S20;01SA050KL20;14
S20;11CF100TR19;11
S20;11LH200I19;7
S20;11SA100H19;18
S20;15LC250VB3;13
S20;15MA075VB4;13
S20;17AS250P19;21
S20;17DO050F13;25
S20;17MC200N18;4
S20;17RS500P19;25
S20;17SH500E19;4
S20;17SH500N18;5
S20;18GD250TL17ET;17
S20;20ET075CD20;8
S20;20MP030H20;5
S20;20SA050O20;19
S20;24MA030CB4;6
S20;27SP030I19;10
S20;01LC250K17;7
S20;11BG140SL19;8
S20;11EH150A18;9
S20;11GN195A18;9
S20;11SP200SH19;10
S20;15MA075L11;14
S20;17ER075P19;7
S20;17HR100G13;10
S20;18ET010TL17;10
S20;20ET010CD19;4
S20;24RO010R18;11
S20;27DCB060I17;6
S20;27OR075I20;19
S20;52RBO2NO20;6
S20;52RBO3NO20;6
S20;52RIB1NO20;7
S20;52RIB2NO20;7
S20;52SAMPENV18;860
S20;52SGEBAG19;606
S20;52SGENSA18;220
S10;52ACRAC20;2
S10;52AF006G20;41
S10;52AS006E19;305
S10;52AS006G18;379
S10;52AS006N18;26
S10;52AS006P19;261
S10;52BCRAC20;2
S10;52BGERIB18;4
S10;52BY001I19;99
S10;52CARDENV18;3
S10;52CARDNO20;4
S10;52CCRAC20;2
S10;52CD0015A18;215
S10;52CL0015K18;131
S10;52CLASANO20;3
S10;52CP0015I19;16
S10;52CP006K17;208
S10;98BBHD050A0;55
S10;98BBSH050AR2;53
S10;01MF030B20H;1
S10;01SA100LT16;18
S10;01SL500LV20;7
S10;11BO100CS19;22
S10;11LC250H19;28
S10;11PM100SI19;7
S10;11SV080I19;8
S10;17AS250E19;8
S10;18BI030TL17ET;26
S10;20DO130HC20;6
S10;20NV150H20;4
S10;27DB015I20;11
S10;27KTFCAPAC20;12
S10;52CV0015K18;152
S10;52DB001I17;170
S10;52DB001I20;118
S10;52DC0015I20;333
S10;52DCRAC20;2
S10;52DE001I17;120
S10;52DF002I17;102
S10;52DH001I20;254
S10;52DL002I17;26
S10;52DS001I17;129
S10;52DS001I20;186
S10;52ER006P19;8
S10;52EV002I19;167
S10;52FP0015I19;96
S10;52FT002A18;115
S10;52GD0015A18;72
S10;52GIF1NO20;2
S10;52GIF2NO20;2
S10;01LC250K17;8
S10;11BG140SL19;7
S10;11EH150A18;8
S10;11GN195A18;9
S10;11SP200SH19;7
S90000;49BAG1NO20;2
S90000;49BAG2NO20;22
S90000;49BAGVE18;3
S90000;49BAGVE19;1
S90000;49BF2NO20;83
S24000;49BLALM20;8
S24000;49BLCHB20;8
S24000;49BLKAR20;8
S24000;49BLVER20;8
S90000;49BM010K19;15
S90000;49BO015CS19;8
S90000;49BO015R14;12
S90000;49BP010K19;20
S24000;52MC006N18;6
S90000;52MGEBAG18;54
S24000;52MGEBAG19;253
S90000;52MGEBAG19;100
S24000;52MGEBOX18;17
S90000;52MGEBOX18;30
S24000;52MGENSA18;158
S90000;52MGENSA18;207
S90000;52MIBANO19;100
S24000;52MIGEBAG19;258
S90000;52MMBANO20;50
S24000;52MMBBNO20;4
S90000;52MMBBNO20;100
S24000;52MMBPNO20;4
S90000;52MMBYNO19;85
S24000;52MMBYNO20;2
S90000;52MMSANO19;240
S90000;52MMSANO20;120
S24000;52MOCOL316;6
S90000;52MOCOL316;50
S24000;52MS001I20;390
S90000;52MS001I20;340
S24000;52OR001I19;342
S90000;52OR001I19;673
S24000;52ORT001I18;3
S24000;52PCRANO20;4
S90000;49MS008I20;132
S90000;49MW030I19;20
S24000;49NOTNO19;1
S90000;49NOTNO20;10
S24000;49OR005I18;3
S90000;49OR005I18;8
S24000;49OR005I19;6
S90000;49OR005I19;124
S90000;49P2DTS19;14
S90000;49PADCL20;124
S90000;49PASSSA19;16
S90000;49PCRKO17;22
S90000;49PI010K1;31
S90000;49PI010K18;132
S29000;24RO010R18;18
S29000;27DCB060I17;12
S29000;52RBO2NO20;10
S29000;52RBO3NO20;10
S29000;52RC0015A18;90
S29000;52RIB1NO20;12
S29000;52RIB2NO20;12
S29000;52SGBAHOL20;1
S29000;52SGENSA18;46
S29000;52SH006D17;381
S29000;52SH006E19;253
S29000;52SH006G18;265
S29000;52SH006N18;195
S29000;52SH006P19;336
S29000;52SMSANO19;120
S29000;52SP001I19;246
S29000;52SPBAHOL20;1
S29000;52STINO20;15
S29000;01CL050K21;18
S29000;01CM500K20;16
S29000;01HF100K17;6
S29000;01PI030K18;12
S29000;01SL500VE20;10
S29000;11BP100I19;34
S29000;11BR100A20;30
S29000;11ET010H20;5
S29000;11LC250H20;15
S29000;15ETVER20;2
S29000;15MA030VB3;8
S29000;17RS500E20;44
S29000;17SH300D15;8
S29000;20AR075O20;17
S29000;24SA050CB6;11
S29000;27HS030I18;23
S29000;27RM300I20;25
S29000;52SYBAHOL20;1
S29000;52WC0015A18;8
S29000;52WC0015A19;19
S29000;52WRAPNO20;4
S29000;52WS001A18;30
S29000;52YGERIB18;5
S29000;54S1BALLH20;2
S29000;01CM300K20;18
S29000;01CV050K15;13
S29000;01HV030K16;12
S29000;11LP080028M19;6
S29000;15GM065L20;50
S29000;15GM065VB20;56
S29000;17AS250G18;10
S29000;17MM050A20;15
S29000;17RC500G18;51
S29000;17SE125D15;18
S29000;20DO075CD20;16
S10;15MA075L11;22
S10;17ER075P19;12
S10;17HR100G13;17
S10;18ET010TL17;12
S10;20ET010CD19;3
S10;24RO010R18;11
S10;27DCB060I17;6
S10;27DH030I17A;1
S10;27OR075I20;12
S10;52RBO2NO20;6
S10;52RBO3NO20;6
S10;52RC0015A18;129
S10;52RIB1NO20;7
S10;52RIB2NO20;7
S10;52SGEBAG19;783
S10;52SGENSA18;253
S10;52SH006D17;169
S10;52SH006E19;326
S10;52SH006G18;339
S10;52SH006N18;156
S10;52SH006P19;128
S10;52SMBANO20;88
S10;52SMSANO20;67
S10;52SP001I19;217
S10;52STINO20;8
S10;01CL050K21;12
S10;01CM500K20;6
S10;01HF100K17;4
S10;01PI030K18;10
S10;01SL500VE20;9
S10;11BP100I19;10
S10;11BR100A20;4
S10;11ET010H20;20
S10;11LC250H20;18
S10;15ETVER20;7
S10;15MA030VB3;15
S10;17RS500E20;16
S10;17SH300D15;14
S10;20AR075O20;6
S10;24SA050CB6;10
S10;27HS030I18;7
S10;27RM300I20;14
S10;52TBRESET20;1
S10;52WC0015A18;61
S10;52WC0015A19;41
S10;52WRAPNO20;4
S10;52WS001A18;6
S10;01CM300K20;7
S10;01CV050K15;7
S10;01HV030K16;5
S10;11LP080028M19;6
S10;15GM065L20;18
S10;15GM065VB20;25
S10;17AS250G18;11
S10;17MM050A20;6
S20;52SH006D17;219
S20;52SH006E19;285
S20;52SH006G18;196
S20;52SH006N18;123
S20;52SH006P19;184
S20;52SP001I19;247
S20;52STINO20;13
S20;01CL050K21;12
S20;01CM500K20;9
S20;01HF100K17;9
S20;01PI030K18;15
S20;01SL500VE20;11
S20;11BP100I19;8
S20;11BR100A20;10
S20;11ET010H20;8
S20;11LC250H20;15
S20;15MA030VB3;16
S20;17RS500E20;30
S20;17SH300D15;9
S20;20AR075O20;12
S20;24SA050CB6;8
S20;27HS030I18;8
S20;27RM300I20;21
S20;52WC0015A18;18
S20;52WC0015A19;115
S20;52WRAPNO20;4
S20;52YGERIB18;2
S20;54S1BALLH20;1
S20;01CM300K20;10
S20;01CV050K15;10
S20;01HV030K16;5
S20;11LP080028M19;6
S20;15GM065L20;19
S20;15GM065VB20;14
S20;17AS250G18;7
S20;17MM050A20;11
S20;17RC500G18;26
S20;17SE125D15;12
S20;20DO075CD20;17
S20;24BL012CB5;3
S20;24MA030RA19;8
S20;24RO010C20;3
S20;27CP050I19;10
S20;27DC050I17A;3
S20;27FP050I19;6
S20;27OR030I19;34
S20;J6185;2
S20;01CL300KB20;10
S20;01CP200K17;15
S20;01PI030KA;3
S20;01PI075K18;17
S20;01SL300CI20;2
S20;11BG140SI19;14
S20;11LT300I20;8
S20;11MA030A20;16
S21000;29BP100A18;3
S21000;01EN300KB19;20
S21000;01MA030K16;110
S21000;01MA075K18;10
S21000;01SA250LV20;12
S21000;01SL300LV20;8
S21000;11ET050H20;13
S21000;11FAG10TR19;3
S21000;11PM100SL19;7
S21000;15GD250VB17;20
S21000;15LC250L14;1
S21000;15LM300L11;8
S21000;15SA070VB6;8
S21000;17HI100G19;6
S21000;17VI100P19;8
S21000;20DO050O20;12
S21000;20ET075HC20;12
S21000;24AF050R18;4
S21000;54S1BALLH20;1
S21000;52WS001A18;129
S21000;52WRAPNO20;4
S21000;52WM0015A18;114
S21000;52WC0015A19;40
S21000;52WC0015A18;21
S21000;52STINO20;13
S21000;52SP001I19;175
S21000;52SMSANO20;154
S21000;52SMBANO20;155
S21000;52SAMPENV18;650
S21000;52RIB2NO20;6
S21000;52RIB1NO20;12
S21000;52RBO3NO20;5
S21000;52RBO2NO20;5
S21000;52GIF1NO20;2
S21000;52GD0015A18;112
S21000;52FP0015I19;218
S21000;52EV002I19;13
S21000;52DL002I17;15
S21000;52DH001I20;1114
S21000;52DF002I17;159
S21000;52DE001I17;23
S21000;J6185;9
S21000;24ET050R18;8
S21000;24GD250CB4;12
S21000;24RO010CB4;8
S21000;27MP150I20;12
S21000;49CL008K21;56
S21000;49CM030I19;64
S21000;49CP008I19;5
S21000;49DH004I17;10
S21000;49DH004I20;47
S21000;49EV030I19;12
S21000;49GD035CB5;153
S27000;15MA030VB3;14
S28000;15MA030VB3;28
S15;17RS500E20;21
S27000;17RS500E20;13
S28000;17RS500E20;31
S15;17SH300D15;10
S27000;17SH300D15;15
S28000;17SH300D15;14
S15;20AR075O20;4
S27000;20AR075O20;5
S28000;20AR075O20;19
S15;20ET100CD16A;3
S28000;20ET100CD16A;2
S27000;20GD250OC16;1
S28000;20GD250OC16;4
S15;24ET050C19;1
S27000;24ET050C19;2
S28000;24ET050C20;4
S15;24SA050CB6;4
S27000;24SA050CB6;6
S28000;24SA050CB6;8
S15;27HS030I18;7
S27000;27HS030I18;8
S28000;27HS030I18;8
S15;27RM300I20;18
S27000;27RM300I20;10
S28000;27RM300I20;18
S15;52SYBAHOL20;2
S27000;52TBRESET20;1
S15;52TFRNO20;1
S27000;52WC0015A18;17
S15;52WC0015A19;77
S27000;52WC0015A19;391
S28000;52WC0015A19;193
S15;52WHS1NO20;1
S15;52HD006A18;80
S27000;52HD006A18;273
S27000;52HF004K17;135
S28000;52HF004K17;150
S15;52HR004G17;188
S27000;52HR004G17;219
S28000;52HR004G17;102
S15;52HS001I17;261
S27000;52HS001I17;217
S28000;52HS001I17;343
S15;52HS004A18;256
S27000;52HS004A18;188
S28000;52HS004A18;125
S15;52HV001K18;48
S27000;52HV001K18;112
S28000;52HV001K18;186
S15;52LABANO20;3
S27000;52LABANO20;48
S20;11SD100SL19;8
S20;15GD250VA5;14
S20;15GD500VB17;14
S20;17SH075G18;9
S20;24MA030R18;18
S20;24MA075CB4;12
S20;27DF125I17;8
S20;27DH015I17;2
S20;29BP100A18;3
S20;01EN300KB19;30
S20;01MA030K16;15
S20;01MA075K18;7
S20;01SA250LV20;21
S20;01SL300LV20;19
S20;11ET050H20;13
S20;11FAG10TR19;8
S20;11PM100SL19;10
S20;15GD075L15;1
S20;15GD250VB17;16
S20;15LC250L14;6
S20;15LM300L11;8
S20;15MF075VM20H;8
S20;15SA070VB6;5
S20;17HI100G19;7
S20;17VI100P19;10
S20;20DO050O20;12
S20;20ET075HC20;8
S20;24AF050R18;6
S20;24ET050R18;11
S20;24GD250CB4;15
S20;24RO010CB4;11
S20;27MP150I20;11
S20;49CL008K21;28
S20;49CM030I19;38
S20;49CP008I19;7
S20;49DB004I20;5
S20;49DC004I20;14
S20;49DC008I20;4
S20;49DH004I17;23
S20;49DH004I20;30
S20;49HD035A15;114
S20;49LC020A15;9
S20;49LD030I20;9
S20;49MA010K16;29
S20;01CL050K18;11
S20;01LH100KB19;2
S20;01LH300KB19;10
S20;01MR030K14;12
S20;01SA250VE16;20
S20;11BG140CS19;8
S20;11SD100DE20H;3
S20;15GD500VA20;11
S20;15RC500VB17;20
S20;20GD250OC20;16
S10;17RC500G18;21
S10;17SE125D15;7
S10;20DO075CD20;18
S10;24BL012CB5;11
S10;24MA030RA19;14
S10;27CP050I19;12
S10;27FP050I19;7
S10;27OR030I19;39
S10;J6183;1
S10;01CL300KB20;9
S10;01CP200K17;11
S10;01PI075K18;9
S10;11BG140SI19;8
S10;11LT300I20;15
S10;11MA030A20;30
S10;11SD100SL19;14
S10;15GD250VA5;4
S10;15GD500VB17;8
S10;24EF050R18;5
S10;24MA075CB4;34
S10;27DF125I17;18
S10;27DH015I17;8
S10;27OR030I18;2
S10;29BP100A18;5
S10;01EN300KB19;20
S10;01MA030K16;17
S10;01MA075K18;1
S10;01SA250LV20;18
S10;01SL300LV20;8
S10;11ET050H20;9
S10;11FAG10TR19;6
S10;11PM100SL19;13
S10;15GD250VB17;13
S10;15LM300L11;10
S10;15SA070VB6;7
S10;17HI100G19;10
S10;17VI100P19;8
S10;20DO050O20;7
S10;20ET075HC20;8
S10;24AF050R18;8
S10;24ET050R18;10
S10;24GD250CB4;10
S10;24RO010CB4;12
S10;27MP150I20;11
S10;49CL008K21;44
S10;49CM030I19;57
S10;49CP008I19;2
S10;49DB004I20;8
S10;49DC004I17;1
S10;49DH004I20;8
S10;49EV030I19;1
S10;49GD035CB5;58
S10;49HD035A15;109
S10;49LC020A15;29
S10;49LD030I20;15
S29000;24BL012CB5;10
S29000;24LC250RC20H;9
S29000;24MA030RA19;9
S29000;27CP050I19;8
S29000;27FP050I19;11
S29000;27OR030I19;28
S29000;01CL300KB20;7
S29000;01CP200K17;31
S29000;01PI030KA;1
S29000;01PI075K18;15
S29000;11BG140SH19;12
S29000;11BG140SI19;6
S29000;11LT300I20;21
S29000;11MA030A20;19
S29000;11SD100SL19;10
S29000;15GD250VA5;14
S29000;15GD500VB17;21
S29000;17SH075G18;21
S29000;20AR075H16;3
S29000;24EF050R18;4
S29000;24MA030R18;17
S29000;24MA075CB4;15
S29000;27DF125I17;16
S29000;27OR030I18;2
S29000;29BP100A18;15
S29000;01EN300KB19;31
S29000;01MA030K16;28
S29000;01MA075K18;32
S29000;01SA250LV20;36
S29000;01SL300LV20;17
S29000;11ET050H20;12
S29000;11FAG10TR19;16
S29000;11PM100SL19;12
S29000;15GD250VB17;19
S29000;15LC250L14;17
S29000;15LM300L11;14
S29000;15MF075VM20H;16
S29000;15SA070VB6;20
S29000;17HI100G19;29
S29000;17VI100P19;32
S29000;20AR075CD16A;7
S29000;20DO050O20;13
S29000;20ET075HC20;10
S29000;24AF050R18;13
S29000;24ET050R18;9
S29000;24ET050RC20H;4
S29000;24GD075R18;32
S29000;24GD250CB4;13
S29000;24MA030RC20H;20
S29000;24RO010CB4;14
S29000;27MP150I20;11
S29000;49CL008K21;116
S29000;49DC004I20;34
S90000;49PO1RE19;6
S90000;49PO2SA19;70
S90000;49POCB19;1
S90000;49POU2VE20;140
S24000;49POUID20;5
S90000;49POUID20;3
S24000;49POUIS19;28
S90000;49POUIS19;31
S24000;49POUM20;18
S90000;49POUM20;12
S90000;49POURS20;17
S90000;49POUVE17;20
S90000;49TBL2CH19;13
S90000;49TC1NO20;1
S90000;49TC2NO19;26
S90000;49TF2CH19;35
S90000;49TFACH18;30
S24000;49TOBAGSA20;10
S90000;49TOBAGSA20;6
S24000;49TOTMC20;12
S90000;49TOTMC20;3
S90000;49TOWSA19;19
S90000;49TOWVE18;56
S90000;49TRPIV16;15
S90000;49TRSOL15;16
S90000;52CL0015K18;36
S90000;52CLASANO19;32
S24000;52CLASANO20;2
S90000;52CLASANO20;1
S90000;52COTLTM19;4
S24000;52CP0015I19;227
S90000;52CP0015I19;19
S24000;52CP006K17;219
S90000;52CP006K17;150
S24000;01CL200K21;17
S90000;01CL200K21;16
S24000;01CMR500K20;7
S90000;01CMR500K20;16
S24000;01HN0075K19;5
S90000;01HN0075K19;5
S24000;01MF150B20H;10
S24000;01SA050KV20;20
S90000;01SA050KV20;8
S90000;01SA100LV16;2
S24000;11BH050A18;21
S90000;11BH050A18;12
S24000;11EP010H19;10
S90000;11EP010H19;7
S24000;11MH075A19;6
S90000;11MH075A19;10
S24000;11SP200CS19;10
S90000;11SP200CS19;6
S90000;15ET100VAL20;2
S15;52LASANO20;88
S27000;52LASANO20;76
S28000;52LASANO20;71
S15;52LC006A18;123
S27000;52LC006A18;270
S28000;52LC006A18;143
S15;52LGEBAG18;264
S27000;52LGEBAG18;83
S15;52LGEBAG19;110
S28000;52LGEBAG19;139
S28000;52LGEBOX18;1
S15;52LGENSA18;129
S27000;52LGENSA18;136
S28000;52LGENSA18;108
S15;52MA003K16A;192
S27000;52MA003K16A;248
S28000;52MA003K16A;479
S27000;52MC006G18;356
S28000;52MC006G18;127
S28000;52MC006N18;7
S15;52MGEBAG19;198
S27000;52MGEBAG19;176
S28000;52MGEBAG19;1093
S15;52MGEBOX18;19
S27000;52MGEBOX18;18
S28000;52MGEBOX18;17
S15;52MGENSA18;90
S27000;52MGENSA18;110
S28000;52MGENSA18;244
S15;52MIBANO20;37
S27000;52MIBANO20;46
S28000;52MIBANO20;16
S15;52MIBONO20;1
S15;52MIGEBAG19;174
S27000;52MIGEBAG19;32
S28000;52MIGEBAG19;66
S15;52MMBANO20;112
S27000;52MMBANO20;56
S28000;52MMBANO20;25
S15;52MMBBNO20;4
S27000;52MMBBNO20;7
S28000;52MMBBNO20;26
S15;52MMBPNO20;9
S27000;52MMBPNO20;6
S28000;52MMBPNO20;5
S15;52MMBYNO20;9
S15;01LC250K17;13
S27000;01LC250K17;14
S28000;01LC250K17;24
S15;11BG140SL19;9
S27000;11BG140SL19;5
S28000;11BG140SL19;7
S15;11EH150A18;7
S24000;15HE005L14;4
S90000;15HE005L14;9
S24000;15SE400VB5;6
S90000;15SE400VB5;9
S24000;17AS075G18;11
S90000;17AS075G18;18
S90000;17SH075E19;80
S24000;17SH300N18;7
S90000;17SH300N18;21
S24000;18LC250TL17ET;24
S90000;18LC250TL17ET;10
S24000;20ET075HC6;4
S24000;20GD250HC20;23
S90000;20GD250HC20;12
S90000;24LC250P15;11
S24000;24VF050R18;14
S90000;24VF050R18;6
S24000;98BBDF015IM0;21
S90000;98BBDF015IM0;53
S24000;98BBGD050VE2;27
S90000;98BBGD050VE2;19
S24000;98BBHD050A0;7
S90000;01CP050K17;81
S90000;01MF030B20H;6
S24000;01SA100LT16;18
S90000;01SA100LT16;12
S24000;01SL500LV20;7
S90000;01SL500LV20;14
S90000;10KTCMAPAC20;10
S24000;11BO100CS19;13
S90000;11BO100CS19;12
S90000;11GD020A19;12
S24000;11LC250H19;14
S90000;11LC250H19;23
S24000;11PM100SI19;6
S90000;11PM100SI19;7
S24000;11SV080I19;8
S90000;11SV080I19;9
S90000;15RS500VB3;13
S24000;17AS250E19;8
S90000;17AS250E19;12
S24000;18BI030TL17ET;28
S90000;18BI030TL17ET;11
S24000;20DO130HC20;8
S90000;20DO130HC20;10
S24000;20ET100OC13;4
S24000;20NV150H20;13
S90000;20NV150H20;11
S24000;27DB015I20;12
S90000;27DB015I20;10
S24000;52CV0015K18;87
S90000;52CV0015K18;100
S24000;52DB001I17;152
S24000;52DB001I20;246
S90000;52DB001I20;140
S24000;52DC0015I20;118
S90000;52DC0015I20;370
S24000;52DCRAC20;2
S24000;52DE001I17;289
S24000;52DF002I17;332
S90000;52DF002I17;281
S90000;52DH001I17;2
S24000;52DH001I20;391
S90000;52DH001I20;368
S90000;52DL002I17;153
S24000;52DS001I17;136
S24000;52DS001I20;297
S90000;52DS001I20;140
S24000;52ER006P19;155
S24000;52EV002I19;104
S24000;52FP0015I19;190
S24000;52FT002A18;1
S90000;52FT002A18;73
S24000;52GD0015A18;138
S90000;52GD0015A18;47
S90000;52GIF1NO19;1
S24000;52GIF1NO20;4
S90000;52GIF1NO20;1
S90000;52GIF2NO19;1
S24000;52GIF2NO20;4
S90000;52GIF2NO20;1
S24000;01BL012B20H;2
S90000;01BL012B20H;10
S24000;01MA150K18;16
S90000;01MA150K18;16
S24000;01SA050KL20;19
S90000;01SA050KL20;15
S24000;11CF100TR19;9
S90000;11CF100TR19;12
S24000;11LH200I19;10
S90000;11LH200I19;8
S24000;11SA100H19;17
S90000;11SA100H19;15
S24000;15LC250VB3;8
S90000;15LC250VB3;8
S24000;15MA075VB4;12
S90000;15MA075VB4;7
S24000;17AS250P19;9
S90000;17AS250P19;11
S24000;17DO050F13;15
S90000;17DO050F13;10
S24000;17MC200N18;4
S90000;17MC200N18;6
S24000;17RS500P19;23
S90000;17RS500P19;60
S27000;11EH150A18;8
S28000;11EH150A18;8
S15;11GN195A18;4
S27000;11GN195A18;9
S28000;11GN195A18;17
S15;11SP200SH19;8
S27000;11SP200SH19;8
S28000;11SP200SH19;8
S27000;15MA075L11;12
S28000;15MA075L11;18
S15;17ER075P19;11
S27000;17ER075P19;8
S28000;17ER075P19;16
S15;17HR100G13;13
S27000;17HR100G13;9
S28000;17HR100G13;22
S28000;17SH300D14;2
S15;18ET010TL17;14
S27000;18ET010TL17;8
S28000;18ET010TL17;14
S15;20ET010CD19;9
S28000;20ET010CD19;13
S27000;20ET010HC19;4
S15;24RO010R18;8
S27000;24RO010R18;9
S28000;24RO010R18;12
S15;27DCB060I17;6
S27000;27DCB060I17;6
S28000;27DCB060I17;8
S15;27DH030I17A;7
S27000;27DH030I17A;1
S15;27OR075I20;12
S27000;27OR075I20;10
S28000;27OR075I20;24
S27000;52PMARRON;1
S15;52RBO2NO20;8
S27000;52RBO2NO20;4
S28000;52RBO2NO20;7
S15;52RBO3NO20;8
S27000;52RBO3NO20;4
S28000;52RBO3NO20;7
S27000;52RC0015A18;20
S28000;52RC0015A18;128
S15;52RIB1NO20;12
S27000;52RIB1NO20;5
S28000;52RIB1NO20;11
S15;52RIB2NO20;12
S27000;52RIB2NO20;4
S28000;52RIB2NO20;11
S15;52SAMPENV18;150
S28000;52SAMPENV18;650
S15;52SGBAHOL20;2
S15;52SGEBAG19;301
S90000;17SH075N18;18
S24000;17SH500E19;16
S90000;17SH500E19;15
S24000;17SH500N18;6
S90000;17SH500N18;8
S24000;18GD250TL17ET;29
S90000;18GD250TL17ET;16
S24000;20ET075CD20;8
S90000;20ET075CD20;8
S24000;20MP030H20;8
S90000;20MP030H20;9
S24000;20SA050O20;8
S90000;20SA050O20;12
S24000;24MA030CB4;30
S90000;24MA030CB4;13
S90000;27BP050I19;8
S24000;27SP030I19;9
S90000;27SP030I19;12
S90000;52SP001I19;153
S24000;52SPBAHOL20;1
S90000;52STINO19;1
S24000;52STINO20;13
S90000;52STINO20;1
S24000;01CL050K21;12
S90000;01CL050K21;15
S24000;01CM500K20;14
S90000;01CM500K20;12
S24000;01HF100K17;7
S90000;01HF100K17;5
S24000;01PI030K18;10
S90000;01PI030K18;15
S24000;01SL500VE20;8
S90000;01SL500VE20;12
S24000;11BP100I19;8
S90000;11BP100I19;10
S24000;11BR100A20;5
S90000;11BR100A20;16
S24000;11ET010H20;10
S90000;11ET010H20;10
S24000;11LC250H20;20
S90000;11LC250H20;10
S24000;15MA030VB3;15
S90000;15MA030VB3;10
S90000;17AS075N18;14
S90000;17AS075P19;46
S24000;17RS500E20;15
S90000;17RS500E20;17
S24000;17SH300D15;15
S90000;17SH300D15;17
S24000;20AR075O20;10
S90000;20AR075O20;10
S24000;20GD250OC16;5
S90000;24ET050C19;2
S27000;52SGEBAG19;461
S28000;52SGEBAG19;361
S15;52SGENSA18;177
S27000;52SGENSA18;126
S15;01CL200K21;24
S27000;01CL200K21;15
S28000;01CL200K21;26
S15;01CMR500K20;9
S27000;01CMR500K20;9
S28000;01CMR500K20;10
S15;01HN0075K19;14
S27000;01HN0075K19;10
S28000;01HN0075K19;18
S15;01SA050KV20;20
S27000;01SA050KV20;7
S28000;01SA050KV20;39
S15;11BH050A18;9
S27000;11BH050A18;10
S28000;11BH050A18;15
S15;11EP010H19;9
S27000;11EP010H19;9
S28000;11EP010H19;14
S28000;11LB000TR19;13
S15;11MH075A19;8
S27000;11MH075A19;8
S28000;11MH075A19;10
S15;11SP200CS19;13
S27000;11SP200CS19;10
S28000;11SP200CS19;15
S15;15DF200VM20H;9
S27000;15DF200VM20H;8
S28000;15ET100VAL20;4
S15;15HE005L14;5
S27000;15HE005L14;9
S28000;15HE005L14;8
S15;15SE400VB5;4
S27000;15SE400VB5;4
S28000;15SE400VB5;7
S15;17AS075G18;32
S27000;17AS075G18;15
S28000;17AS075G18;18
S15;17SH075E19;1
S15;17SH300N18;6
S27000;17SH300N18;5
S28000;17SH300N18;7
S15;18LC250TL17ET;15
S27000;18LC250TL17ET;15
S28000;18LC250TL17ET;19
S15;20ET075HC6;3
S27000;20ET075HC6;3
S28000;20ET075HC6;10
S15;20GD250HC20;10
S27000;20GD250HC20;6
S28000;20GD250HC20;18
S15;24CM030C19;6
S15;24ET075HA17;1
S28000;24ET075HA17;1
S15;24VF050R18;8
S27000;24VF050R18;9
S28000;24VF050R18;7
S15;98BBDF015IM0;36
S27000;98BBDF015IM0;18
S28000;98BBDF015IM0;33
S15;98BBGD050VE2;47
S27000;98BBGD050VE2;29
S28000;98BBGD050VE2;13
S15;98BBHD050A0;15
S28000;98BBHD050A0;51
S15;01BM050K19;15
S27000;01BM050K19;9
S28000;01BM050K19;17
S15;01LT300K20;2
S27000;01LT300K20;5
S28000;01LT300K20;9
S15;01MA030K21;32
S27000;01MA030K21;9
S28000;01MA030K21;17
S15;01PR015R19;20
S27000;01PR015R19;16
S28000;01PR015R19;21
S15;11BG140SH19;10
S27000;11BG140SH19;5
S15;11GD250H19;15
S27000;11GD250H19;23
S28000;11GD250H19;16
S15;11GD250H20;14
S27000;11GD250H20;15
S28000;11GD250H20;27
S15;11LP040028M19;9
S27000;11LP040028M19;5
S28000;11LP040028M19;9
S15;15ET100VB3;7
S27000;15ET100VB3;6
S28000;15ET100VB3;12
S15;17MC200G18;13
S27000;17MC200G18;7
S28000;17MC200G18;15
S15;17RC500E20;12
S27000;17RC500E20;14
S28000;17RC500E20;28
S15;17RS500G19;27
S27000;17RS500G19;24
S28000;17RS500G19;64
S15;17RS500N18;10
S27000;17RS500N18;5
S28000;17RS500N18;10
S15;17SH300E19;14
S27000;17SH300E19;19
S28000;17SH300E19;14
S15;18ET090TL17;8
S27000;18ET090TL17;6
S28000;18ET090TL17;8
S15;24BR050R19;9
S27000;24BR050R19;21
S28000;24BR050R19;13
S15;24ET075CB4;11
S27000;24ET075CB4;8
S28000;24ET075CB4;9
S28000;24ET075S6;3
S15;27BP050I19;6
S27000;27BP050I19;6
S27000;27DL200I13US;1
S15;27ER015I20;16
S27000;27ER015I20;8
S28000;27ER015I20;17
S15;27MI150I20;6
S27000;27MI150I20;8
S28000;27MI150I20;6
S15;01RL500K20;11
S27000;01RL500K20;10
S28000;01RL500K20;24
S15;01SA250LT20;18
S27000;01SA250LT20;12
S28000;01SA250LT20;32
S15;01SL0045K13;53
S27000;01SL0045K13;41
S28000;01SL0045K13;44
S15;11CD050A18;11
S27000;11CD050A18;6
S28000;11CD050A18;16
S15;11EP050H19;8
S27000;11EP050H19;8
S28000;11EP050H19;8
S15;11EP090H19;13
S27000;11EP090H19;5
S28000;11EP090H19;8
S27000;11PM100DE20H;4
S28000;11PM100DE20H;8
S15;11PM100SH19;7
S27000;11PM100SH19;10
S28000;11PM100SH19;8
S15;11SP200SI19;7
S27000;11SP200SI19;8
S28000;11SP200SI19;10
S15;11SP200SL19;7
S27000;11SP200SL19;8
S28000;11SP200SL19;16
S15;15AS250VA18;10
S27000;15AS250VA18;8
S28000;15AS250VA18;11
S15;15CL150VM20H;7
S27000;15CL150VM20H;10
S28000;15CL150VM20H;2
S27000;15RG500VA4;2
S15;17AF100G20;18
S27000;17AF100G20;6
S28000;17AF100G20;17
S15;17RC500P19;14
S27000;17RC500P19;9
S28000;17RC500P19;10
S15;20ET075CD19;7
S27000;20ET075CD19;4
S28000;20ET075CD19;10
S15;20FE050H20;6
S27000;20FE050H20;4
S28000;20FE050H20;11
S15;27MQ065I15A;5
S27000;27MQ065I15A;8
S28000;27MQ065I15A;4
S15;29ASH240A20;10
S27000;29ASH240A20;7
S28000;29ASH240A20;10
S15;38EC015A18;9
S27000;38EC015A18;6
S28000;38EC015A18;7
S15;38EV075A18;7
S28000;38EV075A18;3
S15;38FT200A18;9
S27000;38FT200A18;8
S28000;38FT200A18;11
S15;38MI150A18;9
S27000;38MI150A18;4
S28000;38MI150A18;7
S15;38RC050A18;10
S27000;38RC050A18;6
S28000;38RC050A18;9
S15;38ST016A18;8
S27000;38ST016A18;12
S28000;38ST016A18;10
S15;38UV030A18;10
S27000;38UV030A18;12
S28000;38UV030A18;16
S15;38WC050A18;9
S27000;38WC050A18;8
S28000;38WC050A18;9
S15;38WM065A18;8
S27000;38WM065A18;6
S28000;38WM065A18;7
S28000;38WM100A16;5
S15;38WS030A18;8
S27000;38WS030A18;6
S28000;38WS030A18;13
S90000;24GD075C19;2
S90000;24GD250S6;1
S24000;24SA050CB6;7
S90000;24SA050CB6;12
S24000;27HS030I18;10
S90000;27HS030I18;6
S24000;27RM300I20;13
S90000;27RM300I20;22
S24000;52SYBAHOL20;1
S90000;52TBOM20;28
S90000;52TRIHDTS19;26
S90000;52TRSAM19;15
S90000;52WC0015A18;97
S24000;52WC0015A19;372
S90000;52WM0015A18;150
S24000;52WRAPNO20;3
S24000;54S1BALLH20;1
S24000;01CL050B20H;1
S24000;01CM300K20;10
S90000;01CM300K20;14
S24000;01CV050K15;10
S90000;01CV050K15;6
S24000;01HV030K16;6
S90000;01HV030K16;7
S90000;11GD050H20;1
S90000;11LP050028M19;1
S24000;11LP080028M19;6
S90000;11LP080028M19;48
S24000;15GM065L20;30
S90000;15GM065L20;19
S24000;15GM065VB20;22
S90000;15GM065VB20;17
S24000;17AS250G18;12
S90000;17AS250G18;11
S24000;17MM050A20;5
S90000;17MM050A20;8
S24000;17RC500G18;21
S90000;17RC500G18;34
S24000;17SE125D15;15
S90000;17SE125D15;9
S24000;20DO075CD20;8
S90000;20DO075CD20;8
S24000;24BL012CB5;12
S90000;24BL012CB5;6
S24000;24MA030RA19;10
S90000;24MA030RA19;9
S24000;27CP050I19;15
S90000;27CP050I19;11
S24000;27FP050I19;8
S90000;27FP050I19;6
S24000;27OR030I19;28
S90000;27OR030I19;68
S90000;J6183;25
S24000;J6185;4
S90000;JIMCP16;3
S90000;JIMPN16;104
S24000;01CL300KB20;3
S90000;01CL300KB20;12
S24000;01CP200K17;5
S90000;01CP200K17;6
S24000;01PI030KA;3
S24000;01PI075K18;8
S90000;01PI075K18;10
S90000;11BG140SH19;10
S24000;11BG140SI19;7
S90000;11BG140SI19;10
S24000;11LT300I20;11
S90000;11LT300I20;13
S24000;11MA030A20;15
S90000;11MA030A20;38
S24000;11SD100SL19;7
S90000;11SD100SL19;7
S24000;15GD250VA5;9
S90000;15GD250VA5;12
S24000;15GD500VB17;16
S90000;15GD500VB17;16
S90000;17AS075F15;14
S24000;17SH075G18;17
S90000;17SH075G18;14
S90000;20AR075H16;1
S24000;24EF050R18;5
S90000;24EF050R18;6
S90000;24LC075C20;18
S24000;24MA030R18;26
S90000;24MA030R18;12
S24000;24MA075CB4;20
S90000;24MA075CB4;10
S24000;27DF125I17;16
S90000;27DF125I17;12
S24000;27DH015I17;15
S24000;27SP030I14;3
S90000;27SP030I14;1
S24000;29BP100A18;5
S90000;49DB004I20;3
S24000;49DC004I20;16
S90000;49DC004I20;19
S90000;49DC008I17;16
S24000;49DC008I20;4
S90000;49DC008I20;14
S90000;49DF005I17;2
S24000;49DH004I17;31
S90000;49DH004I17;19
S24000;49DH004I20;10
S90000;49DH004I20;16
S90000;49DOPAQ19;6
S24000;49DRANO19;29
S15;49BF2NO20;1
S15;49BLALM20;9
S27000;49BLALM20;5
S28000;49BLALM20;7
S15;49BLCHB20;9
S27000;49BLCHB20;5
S28000;49BLCHB20;7
S15;49BLKAR20;9
S27000;49BLKAR20;5
S28000;49BLKAR20;7
S15;49BLMEN20;1
S15;49BLVER20;9
S27000;49BLVER20;5
S28000;49BLVER20;7
S28000;49BO015CS19;449
S27000;52MMBYNO20;5
S28000;52MMBYNO20;30
S15;52MMSANO20;116
S27000;52MMSANO20;22
S28000;52MMSANO20;17
S15;52MOCOL216;1
S28000;52MOCOL216;2
S15;52MOCOL316;6
S27000;52MOCOL316;6
S28000;52MOCOL316;8
S15;52MS001I20;162
S27000;52MS001I20;199
S28000;52MS001I20;205
S15;52OR001I19;620
S27000;52OR001I19;353
S28000;52OR001I19;490
S27000;52ORT001I18;99
S28000;52ORT001I18;75
S15;52PCRANO20;5
S28000;52PCRANO20;4
S15;52PIBAHOL20;1
S27000;27DL200I20;15
S28000;27DL200I20;10
S15;27HC050I18;8
S27000;27HC050I18;8
S28000;27HC050I18;8
S15;27OR050I21C;49
S27000;27OR050I21C;44
S28000;27OR050I21C;55
S15;27TS001I20;168
S27000;27TS001I20;348
S28000;27TS001I20;368
S15;27TS050I20;36
S27000;27TS050I20;28
S28000;27TS050I20;44
S15;49MR010K14;24
S27000;49MR010K14;21
S28000;49MR010K14;28
S15;49MS008I20;41
S27000;49MS008I20;57
S28000;49MS008I20;140
S15;49NOTNO19;3
S28000;49NOTNO19;1
S15;49NYBOXNO20;1
S15;49OR005I19;23
S27000;49OR005I19;9
S28000;49OR005I19;6
S15;49POUID20;5
S27000;49POUID20;3
S28000;49POUID20;4
S15;49POUIS19;29
S28000;49POUIS19;24
S15;49POUM20;31
S27000;49POUM20;18
S28000;49POUM20;19
S15;49QUA2NO20;1
S15;49TOBAGSA20;20
S27000;49TOBAGSA20;18
S28000;49TOBAGSA20;10
S15;49TOTMC20;15
S27000;49TOTMC20;15
S28000;49TOTMC20;16
S28000;52AS006E19;226
S15;52AS006G18;145
S27000;52AS006G18;202
S28000;52AS006G18;573
S15;52AS006P19;142
S27000;52AS006P19;282
S28000;52AS006P19;264
S15;52BALLHOL20;1
S27000;52BALLHOL20;1
S28000;52BALLHOL20;1
S15;52BCRAC20;3
S27000;52BCRAC20;1
S28000;52BCRAC20;2
S15;52BGERIB18;10
S27000;52BGERIB18;8
S28000;52BGERIB18;9
S15;52BY001I19;203
S27000;52BY001I19;329
S28000;52BY001I19;156
S15;52CARDENV18;4
S15;52CARDNO20;18
S27000;52CARDNO20;8
S28000;52CARDNO20;24
S15;52CCRAC20;3
S27000;52CCRAC20;1
S28000;52CCRAC20;2
S15;52CD0015A18;86
S27000;52CD0015A18;228
S28000;52CD0015A18;150
S15;52CL0015K18;214
S27000;52CL0015K18;174
S28000;52CL0015K18;172
S27000;52CLASANO19;6
S15;52CLASANO20;23
S27000;52CLASANO20;1
S15;52CP0015I19;159
S27000;52CP0015I19;310
S28000;52CP0015I19;122
S15;52CP006K17;134
S27000;52CP006K17;302
S28000;52CP006K17;203
S28000;98BBSH050AR2;37
S27000;52DS001I20;433
S28000;52DS001I20;347
S15;52ER006P19;1
S27000;52EV002I19;68
S28000;52EV002I19;41
S15;52FP0015I19;51
S27000;52FP0015I19;207
S28000;52FP0015I19;165
S27000;52FT002A18;5
S28000;52FT002A18;2
S15;52GD0015A18;64
S27000;52GD0015A18;194
S28000;52GD0015A18;129
S15;52GIF1NO20;5
S27000;52GIF1NO20;4
S28000;52GIF1NO20;4
S15;52GIF2NO20;5
S27000;52GIF2NO20;3
S28000;52GIF2NO20;4
S15;01BL012B20H;1
S15;01MA150K18;7
S27000;01MA150K18;12
S28000;01MA150K18;25
S15;01SA050KL20;8
S28000;01SA050KL20;29
S28000;01SA250LT16;2
S15;11CF100TR19;3
S27000;11CF100TR19;9
S28000;11CF100TR19;13
S15;11LH200I19;6
S27000;11LH200I19;10
S28000;11LH200I19;9
S15;11SA100H19;10
S27000;11SA100H19;9
S28000;11SA100H19;14
S15;15LC250VB3;10
S27000;15LC250VB3;8
S28000;15LC250VB3;20
S15;15MA075VB4;14
S27000;15MA075VB4;8
S28000;15MA075VB4;18
S15;17AS250P19;11
S27000;17AS250P19;10
S28000;17AS250P19;8
S15;17DO050F13;18
S27000;17DO050F13;10
S28000;17DO050F13;28
S15;17MC200N18;7
S27000;17MC200N18;5
S28000;17MC200N18;9
S15;17RS500P19;35
S27000;17RS500P19;25
S28000;17RS500P19;37
S15;17SH500E19;9
S27000;17SH500E19;12
S28000;17SH500E19;21
S15;17SH500N18;10
S27000;17SH500N18;5
S28000;17SH500N18;7
S15;18GD250TL17ET;14
S27000;18GD250TL17ET;17
S28000;18GD250TL17ET;20
S15;20ET075CD20;12
S27000;20ET075CD20;8
S28000;20ET075CD20;9
S15;20MP030H20;9
S27000;20MP030H20;6
S28000;20MP030H20;8
S15;20SA050O20;10
S27000;20SA050O20;8
S28000;20SA050O20;12
S15;24MA030CB4;35
S27000;24MA030CB4;27
S28000;24MA030CB4;54
S28000;27BP050I19;15
S15;27SP030I19;9
S27000;27SP030I19;7
S28000;27SP030I19;7
S28000;52SGENSA18;345
S15;52SH006D17;300
S27000;52SH006D17;331
S28000;52SH006D17;218
S15;52SH006E19;150
S27000;52SH006E19;287
S28000;52SH006E19;162
S15;52SH006G18;51
S27000;52SH006G18;320
S28000;52SH006G18;463
S15;52SH006N18;210
S27000;52SH006N18;50
S28000;52SH006N18;156
S15;52SH006P19;216
S27000;52SH006P19;228
S28000;52SH006P19;109
S15;52SMBANO20;129
S27000;52SMBANO20;64
S15;52SMBBNO20;1
S15;52SMSANO20;193
S27000;52SMSANO20;21
S28000;52SMSANO20;124
S15;52SP001I19;172
S27000;52SP001I19;206
S28000;52SP001I19;121
S15;52SPBAHOL20;2
S15;52STARNO20;1
S15;52STINO20;15
S27000;52STINO20;13
S28000;52STINO20;21
S15;52WRAPNO20;4
S27000;52WRAPNO20;3
S28000;52WRAPNO20;4
S27000;52WS001A18;5
S28000;52WS001A18;3
S15;52YEBAHOL20;1
S15;52YGERIB18;4
S15;54S1BALLH20;1
S27000;54S1BALLH20;1
S28000;54S1BALLH20;1
S15;01CM300K20;14
S27000;01CM300K20;8
S28000;01CM300K20;14
S15;01CV050K15;10
S27000;01CV050K15;9
S28000;01CV050K15;15
S15;01HV030K16;8
S27000;01HV030K16;6
S28000;01HV030K16;9
S27000;11LP050028M19;5
S15;11LP080028M19;5
S27000;11LP080028M19;6
S28000;11LP080028M19;4
S15;15GM065L20;20
S27000;15GM065L20;9
S28000;15GM065L20;25
S15;15GM065VB20;34
S27000;15GM065VB20;1
S28000;15GM065VB20;14
S15;17AS250G18;17
S27000;17AS250G18;11
S28000;17AS250G18;18
S15;17KTHOAPAC20;3
S27000;17MM050A20;10
S28000;17MM050A20;29
S15;17RC500G18;21
S27000;17RC500G18;23
S28000;17RC500G18;44
S15;17SE125D15;18
S27000;17SE125D15;21
S28000;17SE125D15;29
S15;20DO075CD20;10
S27000;20DO075CD20;7
S28000;20DO075CD20;14
S15;24BL012CB5;11
S27000;24BL012CB5;12
S28000;24BL012CB5;21
S15;24MA030RA19;6
S27000;24MA030RA19;15
S28000;24MA030RA19;19
S15;27CP050I19;15
S27000;27CP050I19;9
S28000;27CP050I19;18
S15;27DC050I17A;9
S15;27FP050I19;7
S27000;27FP050I19;10
S28000;27FP050I19;5
S15;27OR030I19;70
S27000;27OR030I19;53
S28000;27OR030I19;71
S15;01CL300KB20;9
S27000;01CL300KB20;6
S28000;01CL300KB20;10
S15;01CP200K17;11
S27000;01CP200K17;8
S28000;01CP200K17;22
S15;01PI075K18;12
S27000;01PI075K18;7
S28000;01PI075K18;12
S28000;11BG140SH19;10
S15;11BG140SI19;8
S27000;11BG140SI19;7
S28000;11BG140SI19;14
S15;11LT300I20;18
S27000;11LT300I20;8
S28000;11LT300I20;15
S15;11SD100SL19;4
S27000;11SD100SL19;11
S28000;11SD100SL19;6
S15;15GD250VA5;9
S27000;15GD250VA5;8
S28000;15GD250VA5;14
S15;15GD500VB17;3
S27000;15GD500VB17;8
S28000;15GD500VB17;19
S15;17SH075G18;27
S27000;17SH075G18;11
S28000;17SH075G18;14
S15;20AR075H16;8
S28000;20AR075H16;8
S15;24EF050R18;7
S27000;24EF050R18;6
S28000;24EF050R18;8
S15;24MA030R18;26
S27000;24MA030R18;17
S28000;24MA030R18;35
S15;24MA075CB4;13
S27000;24MA075CB4;20
S28000;24MA075CB4;33
S15;27DF125I17;14
S27000;27DF125I17;16
S28000;27DF125I17;21
S15;27DH015I17;20
S27000;27DH015I17;4
S28000;27LD200I14;2
S28000;27SP030I14;5
S15;29BP100A18;3
S27000;29BP100A18;6
S28000;29BP100A18;1
S28000;27MP150I20;17
S15;49CL008K21;21
S27000;49CL008K21;39
S28000;49CL008K21;132
S15;49CM030I19;37
S27000;49CM030I19;45
S28000;49CM030I19;137
S15;49CP008I19;5
S27000;49CP008I19;5
S28000;49CP008I19;15
S27000;49CP020K18;13
S28000;49CP020K18;2
S15;49DB004I20;3
S27000;49DB004I20;2
S28000;49DB004I20;16
S27000;49DC004I17;1
S15;49DC004I20;12
S27000;49DC004I20;29
S28000;49DC004I20;29
S15;49DC008I20;2
S27000;49DC008I20;5
S28000;49DC008I20;11
S15;49DH004I17;31
S27000;49DH004I17;25
S28000;49DH004I17;3
S15;49DH004I20;40
S27000;49DH004I20;30
S28000;49DH004I20;25
S15;49DRANO19;3
S28000;49DRANO19;24
S28000;49ET007R18;1
S28000;49GD035CB5;123
S15;49HD035A15;83
S27000;49HD035A15;172
S28000;49HD035A15;224
S15;49HD035K19H;8
S15;49LC020A15;34
S27000;49LC020A15;4
S90000;49DRANO19;1
S90000;49DRASA19;27
S90000;49ED030K17;26
S90000;49EP005H20;1
S90000;49EP005TL17ET;2
S90000;49ET007CB19;4
S90000;49ET007CB4;3
S90000;49ET007R18;53
S24000;49EV030I19;24
S90000;49EV030I19;10
S90000;49FC030A15;3
S90000;49FT030A18;12
S90000;49GD035CB5;2
S90000;49GD035R14;5
S90000;49HBMD19;9
S24000;49HD035A15;129
S90000;49HD035A15;178
S90000;49HD035K17;101
S90000;49HS015A18;15
S24000;49IC1POU20;10
S90000;49IC1POU20;9
S90000;49IC3POU20;15
S24000;49JEWNO19;66
S90000;49JEWNO19;3
S24000;49LC020A15;8
S90000;49LC020A15;16
S90000;49LC035CB6;127
S24000;49LD030I20;11
S90000;49LD030I20;16
S24000;49MA010A17;7
S90000;49MA010CB4;142
S90000;49MA010H19H;5
S24000;49MA010K16;23
S90000;49MA010K16;140
S90000;29SE125A21;15
S24000;29SH075A20;7
S90000;29SH075A20;9
S24000;29SH240A20;6
S90000;29SH240A20;15
S24000;29VC240A16;9
S90000;29VC240A16;9
S24000;01BV050K16;7
S90000;01BV050K16;11
S90000;01CM300K11;4
S90000;01KTKAR19;8
S90000;10KTMC00M20;8
S24000;11CM030H19;16
S90000;11CM030H19;11
S24000;11GD050A18;7
S90000;11GD050A18;11
S24000;11GD050H19;18
S90000;11GD050H19;13
S24000;11LD200I19;7
S90000;11LD200I19;9
S24000;11SD100CS19;7
S90000;11SD100CS19;7
S24000;15ET010VB19;6
S24000;15GD250L14;11
S90000;15GD250L14;12
S24000;15MA030VA5;14
S90000;15MA030VA5;14
S90000;15MF030VM20H;10
S24000;17HI001G19;216
S90000;17SH075F15;14
S24000;18SA075TL17ET;9
S90000;18SA075TL17ET;13
S24000;24LC250P15A;1
S90000;24LC250P15A;1
S90000;24MA030RV19;12
S24000;27BY015I19;15
S90000;27BY015I19;10
S24000;27DC050I20;11
S90000;27DC050I20;15
S24000;27MS050I20;10
S90000;27MS050I20;17
S90000;SGOCVE600003;9
S90000;SGOCVE700005;10
S90000;SGOCVE700009;2
S90000;SGOCVE700011;62
S90000;SGOCVE700012;21
S90000;SGOCVE700013;55
S90000;SGOCVKI00079;2
S90000;SGOCVKI00080;7
S90000;SGOCVKI00102;6
S90000;SGOCVKI00104;6
S90000;SGOCVKI00105;4
S90000;SGOCVKI00107;10
S90000;SGOCVKI00108;3
S90000;SGOCVKI00109;2
S90000;SGOCVKI00111;2
S90000;SGOCVKI00112;5
S90000;SGOCVKI00113;5
S90000;SGOCVKI00114;4
S90000;SGOCVKI00116;3
S90000;SGOCVKI00117;10
S24000;SGOCVKI00119;1
S90000;SGOCVKI00119;14
S90000;SGOCVKI00121;5
S90000;SGOCVKI00122;5
S90000;SGOCVKI00123;10
S90000;SGOCVKI00126;1
S24000;SGOCVKI00131;10
S90000;SGOCVKI00131;14
S90000;SGOCVKI00133;9
S24000;SGOCVKI00135;1
S26000;49LC020A15;1
S26000;49MA010A17;1
S26000;29SH075A20;1
S26000;52MGEBOX18;20
SLM001;27MP050I13;22
SLM001;15GD250VB17;7
SLM001;15LC070VB5;1
SLM001;20GR150CD15;1
SLM001;49CL008K15;19
SLM001;49CO1NO19;13
SLM001;49ED030K17;18
SLM001;49EP005TL17ET;14
SLM001;49ET007CB4;66
SLM001;49ET007R18;14
SLM001;49ET010V13;14
SLM001;49HD035K17;5
SLM001;49HS015A18;1
SLM001;49IC1POU20;118
SLM001;49MA010A17;47
SLM001;49MA010H19H;13
SLM001;24GD075CB5;94
SLM001;27HCR050I16;1
SLM001;15MA030VA5;8
SLM001;SGOCVE700006;1
S29000;49DH004I17;16
S29000;49DH004I20;36
S29000;49ET007R18;32
S29000;49EV030I19;14
S29000;49HD035A15;51
S29000;49IC1POU20;57
S29000;49LD030I20;22
S29000;49MA010A17;3
S29000;49MA010K16;5
S29000;01CL050K18;10
S29000;01LH300KB19;20
S29000;01MR030K14;12
S29000;01SA250VE16;27
S29000;11BG140CS19;8
S29000;11SD100DE20H;11
S29000;15GD500VA20;19
S29000;15RC500VB17;60
S29000;20GD250OC20;27
S29000;24MA030RE19;9
S29000;24MA075R18;1
S29000;27DE015I13US;41
S29000;27HCR050I16;21
S29000;29EC200A13;5
S29000;29GE200A18;23
S29000;29HD075A15;10
S29000;29HD250A15;28
S29000;29HD250A21C;28
S29000;29HD500A15;34
S29000;29HS100A18;22
S29000;29LC200A21C;49
S29000;29MA030A17;13
S29000;29MA075A16;6
S29000;29MA075A19;18
S29000;29RC200A19;52
S29000;29RH500A15;65
S29000;29SA050A17;12
S29000;29SE125A21;20
S29000;29SH240A20;14
S29000;29VC240A16;9
S29000;01BV050K16;15
S29000;11CM030H19;11
S29000;11GD050A18;15
S29000;11GD050H19;26
S29000;11LD200I19;20
S29000;11SD100CS19;3
S29000;15ET010VB19;10
S29000;15GD250L14;19
S29000;15MA030VA5;11
S29000;15MF030VM20H;24
S29000;17HI001G19;229
S29000;18SA075TL17ET;13
S29000;24MA030RV19;9
S29000;27BY015I19;17
S00;27CN050I14;2
S28000;49LC020A15;70
S15;49LD030I20;14
S27000;49LD030I20;11
S28000;49LD030I20;13
S27000;49MA010A17;1
S15;49MA010K16;53
S27000;49MA010K16;31
S28000;49MA010K16;45
S28000;29MA075A19;24
S15;29RC200A19;20
S27000;29RC200A19;9
S28000;29RC200A19;57
S15;29RH500A15;29
S27000;29RH500A15;40
S28000;29RH500A15;52
S15;29SA050A17;7
S27000;29SA050A17;8
S28000;29SA050A17;11
S28000;29SAALM20;1
S15;29SE125A21;21
S27000;29SE125A21;15
S28000;29SE125A21;18
S15;29SH240A20;10
S27000;29SH240A20;7
S28000;29SH240A20;9
S15;29VC240A16;9
S27000;29VC240A16;8
S28000;29VC240A16;20
S15;01BV050K16;7
S27000;01BV050K16;5
S28000;01BV050K16;8
S28000;01CD250K21;26
S15;01CM300K11;2
S28000;01CM300K11;1
S15;10KTMC00M20;1
S15;11CM030H19;20
S27000;11CM030H19;29
S28000;11CM030H19;36
S15;11GD050A18;9
S27000;11GD050A18;7
S28000;11GD050A18;16
S15;11GD050H19;60
S27000;11GD050H19;55
S28000;11GD050H19;19
S15;11LD200I19;6
S27000;11LD200I19;10
S28000;11LD200I19;16
S15;11SD100CS19;10
S27000;11SD100CS19;9
S28000;11SD100CS19;12
S15;15ET010VB19;9
S27000;15ET010VB19;7
S28000;15ET010VB19;8
S90000;SGOCVKI00136;2
S24000;SGOCVKI00137;2
S90000;SGOCVKI00137;34
S24000;SGOCVKI00138;1
S90000;SGOCVKI00138;3
S90000;SGOCVKI00139;2
S90000;SGOCVKI00141;10
S24000;SGOCVKI00143;9
S90000;SGOCVKI00143;6
S90000;SGOCVKI00144;10
S90000;SGOCVKI00147;2
S90000;SGOCVKI00154;1
S24000;SGOCVKI00157;4
S24000;SGOCVKI00158;1
S90000;SGOCVKI00158;1
S21000;49HD035A15;118
S21000;49LC020A15;61
S21000;49LD030I20;9
S21000;49MA010K16;31
S21000;01CL050K18;11
S21000;01LH300KB19;6
S21000;01MR030K14;91
S21000;01SA250VE16;15
S21000;11BG140CS19;3
S21000;11SD100DE20H;4
S21000;15RC500VB17;25
S21000;20GD250OC20;11
S21000;24MA030RE19;10
S21000;24MA075R18;4
S21000;27DE015I13US;9
S21000;27HCR050I16;8
S21000;29EC200A13;8
S21000;29GE200A18;14
S21000;29HD075A15;1
S21000;29HD250A15;25
S21000;29HD250A21C;27
S21000;29HD500A15;21
S21000;29HS100A18;15
S21000;29LC200A21C;32
S21000;29MA030A17;14
S21000;29MA075A16;6
S21000;29MA075A19;12
S21000;29RC200A19;25
S21000;29RH500A15;35
S21000;29SA050A17;4
S21000;29SE125A21;15
S21000;29SH240A20;10
S21000;29VC240A16;7
S21000;01BV050K16;8
S21000;11CM030H19;8
S21000;11GD050A18;14
S21000;11GD050H19;16
S21000;11LD200I19;11
S21000;11SD100CS19;3
S21000;15ET010VB19;8
S21000;15GD250L14;13
S21000;15MA030VA5;20
S21000;17HI001G19;144
S21000;18SA075TL17ET;8
S21000;27BY015I19;14
S21000;27DC050I20;15
S21000;27MS050I20;7
S21000;SGOCVKI00139;2
S21000;SGOCVKI00141;2
S21000;SGOCVKI00144;1
S21000;SGOCVKI00151;2
S21000;SGOCVKI00157;7
S20;24MA030RE19;7
S20;24MA075R18;10
S20;27DE015I13US;16
S20;27HCR050I16;7
S20;29EC200A13;17
S20;29GE200A18;19
S20;29HD250A15;28
S20;29HD250A21C;21
S20;29HD500A15;24
S20;29HS100A18;14
S20;29LC200A14US;1
S20;29LC200A21C;39
S20;29MA030A17;12
S20;29MA075A16;6
S20;29MA075A19;11
S20;29RC200A19;29
S20;29RH500A15;26
S20;29SA050A17;11
S20;29SE125A21;14
S20;29SH240A20;12
S20;29VC240A16;18
S20;01BV050K16;10
S20;01CD250K21;26
S20;11CM030H19;14
S20;11GD050A18;8
S20;11GD050H19;16
S20;11LD200I19;10
S20;11SD100CS19;11
S20;15ET010VB19;5
S20;15GD250L14;16
S20;15MA030VA5;19
S20;15MF030VM20H;1
S20;17HI001G19;107
S20;18SA075TL17ET;9
S20;27BY015I19;13
S20;27DC050I20;18
S20;27MS050I20;12
S20;SGOCVKI00138;1
S20;SGOCVKI00140;2
S20;SGOCVKI00154;2
S20;SGOCVKI00157;7
S29000;27DC050I20;29
S29000;27MS050I20;14
S29000;SGOCVE700010;2
S29000;SGOCVKI00135;15
S29000;SGOCVKI00138;6
S29000;SGOCVKI00139;3
S29000;SGOCVKI00140;4
S29000;SGOCVKI00143;8
S29000;SGOCVKI00144;4
S29000;SGOCVKI00145;1
S29000;SGOCVKI00147;1
S29000;SGOCVKI00149;2
S29000;SGOCVKI00153;4
S29000;SGOCVKI00154;9
S29000;SGOCVKI00155;1
S29000;SGOCVKI00156;6
S29000;SGOCVKI00157;11
S29000;SGOCVKI00158;1
S29000;SGOCVKI00161;1
S29000;SGOCVKI00165;4
S29000;SGOCVKI00169;1
S15;15GD250L14;11
S27000;15GD250L14;12
S28000;15GD250L14;13
S15;15MA030VA5;13
S27000;15MA030VA5;15
S28000;15MA030VA5;19
S28000;15MF030VM20H;12
S15;17HI001G19;167
S27000;17HI001G19;238
S28000;17HI001G19;497
S15;18SA075TL17ET;16
S27000;18SA075TL17ET;9
S28000;18SA075TL17ET;12
S15;24LC250P15A;2
S28000;24MA030RV19;20
S15;27BY015I19;11
S27000;27BY015I19;7
S28000;27BY015I19;13
S15;27DC050I20;15
S27000;27DC050I20;23
S28000;27DC050I20;23
S15;27MS050I20;7
S27000;27MS050I20;10
S28000;27MS050I20;19
S28000;SGOCVE700009;1
S28000;SGOCVKI00138;5
S15;SGOCVKI00140;2
S27000;SGOCVKI00141;1
S15;SGOCVKI00143;1
S27000;SGOCVKI00143;1
S15;SGOCVKI00144;1
S27000;SGOCVKI00147;1
S15;SGOCVKI00148;2
S15;SGOCVKI00157;2
S15;SGOCVKI00161;1
S15;SGOCVKI00166;1
S15;SGOCVKI00169;2
S10;49MA010K16;32
S10;01CL050K18;6
S10;01LH300KB19;6
S10;01MR030K14;15
S10;01SA250VE16;16
S10;11BG140CS19;6
S10;11SD100DE20H;1
S10;15RC500VB17;22
S10;20GD250OC20;14
S10;24GD500R19;7
S10;24MA030RE19;14
S10;27DE015I13US;11
S10;27HCR050I16;8
S10;29EC200A13;5
S10;29GE200A18;15
S10;29HD250A15;27
S10;29HD250A21C;34
S10;29HD500A15;33
S10;29HS100A18;16
S10;29LC200A21C;27
S10;29MA030A17;14
S10;29MA075A16;3
S10;29MA075A19;12
S10;29RC200A19;38
S10;29RH500A15;33
S10;29SA050A17;7
S10;29SAALM20;1
S10;29SE125A21;18
S10;29SH240A20;10
S10;29VC240A16;20
S10;01BV050K16;5
S10;01CM300K11;4
S10;01KTKAR20;1
S10;11CM030H19;27
S10;11GD050A18;10
S10;11GD050H19;77
S10;11LD200I19;5
S10;11SD100CS19;15
S10;15ET010VB19;8
S10;15GD250L14;16
S10;15MA030VA5;19
S10;17HI001G19;58
S10;18SA075TL17ET;8
S10;24LC250P15A;3
S10;27BY015I19;10
S10;27DC050I20;14
S10;27MS050I20;10
S10;SGOCVKI00137;1
S10;SGOCVKI00139;2
S10;SGOCVKI00140;1
S10;SGOCVKI00146;1
S10;SGOCVKI00151;1
S10;SGOCVKI00154;14
S10;SGOCVKI00157;5
S10;SGOCVKI00161;2
