S15;01RL500K20;10
S27000;01RL500K20;8
S28000;01RL500K20;21
S15;11BO100CS19;22
S27000;11BO100CS19;13
S28000;11BO100CS19;31
S15;11GD050A18;10
S27000;11GD050A18;5
S28000;11GD050A18;16
S27000;11LP050028M19;5
S15;11PM100SL19;6
S27000;11PM100SL19;8
S28000;11PM100SL19;7
S15;15DO050VA5;13
S27000;15DO050VA5;10
S28000;15DO050VA5;19
S15;17SH075G18;27
S27000;17SH075G18;11
S28000;17SH075G18;14
S27000;20ET075OC20;6
S28000;20ET075OC20;9
S15;20MP030H20;7
S27000;20MP030H20;6
S28000;20MP030H20;8
S15;24ET050R18;8
S27000;24ET050R18;12
S28000;24ET050R18;12
S27000;11BG240DE20H;1
S28000;11BG240DE20H;6
S15;11SA100H20;5
S27000;11SA100H20;8
S28000;11SA100H20;18
S15;17BD125G14;10
S27000;17BD125G14;7
S28000;17BD125G14;25
S15;17DO050F13;16
S27000;17DO050F13;7
S28000;17DO050F13;20
S15;17RC500G18;24
S27000;17RC500G18;11
S28000;17RC500G18;46
S15;17SH300D15;14
S27000;17SH300D15;12
S28000;17SH300D15;5
S15;17SH300P19;14
S27000;17SH300P19;10
S28000;17SH300P19;16
S15;17SH500G18;21
S27000;17SH500G18;10
S28000;17SH500G18;21
S15;20DO130HC20;11
S27000;20DO130HC20;8
S28000;20DO130HC20;17
S15;01HD500K20;6
S27000;01HD500K20;10
S28000;01HD500K20;15
S15;01SA050KL20;11
S27000;01SA050KL20;10
S28000;01SA050KL20;26
S15;11BG140SL19;10
S27000;11BG140SL19;8
S28000;11BG140SL19;7
S15;11EH150A18;6
S27000;11EH150A18;7
S28000;11EH150A18;6
S15;11GN195A18;6
S27000;11GN195A18;9
S28000;11GN195A18;16
S15;17RC500P19;12
S27000;17RC500P19;10
S28000;17RC500P19;9
S15;17VI100P19;7
S27000;17VI100P19;6
S28000;17VI100P19;8
S15;20ET075CD19;7
S27000;20ET075CD19;4
S28000;20ET075CD19;10
S15;20GD250HC20;7
S27000;20GD250HC20;4
S28000;20GD250HC20;23
S15;20HR050H20;2
S27000;20HR050H20;4
S28000;20HR050H20;8
S15;24BL012CB5;12
S27000;24BL012CB5;12
S28000;24BL012CB5;17
S15;01CL050K21;17
S27000;01CL050K21;9
S28000;01CL050K21;16
S15;01SA050KV20;20
S27000;01SA050KV20;4
S28000;01SA050KV20;32
S15;11SD100SL19;9
S27000;11SD100SL19;8
S28000;11SD100SL19;3
S15;15ET100VB3;6
S27000;15ET100VB3;7
S28000;15ET100VB3;10
S15;17AS075E19;2
S15;17AS500E19;14
S27000;17AS500E19;10
S28000;17AS500E19;8
S28000;17RC500F18;1
S15;20DO050O20;9
S27000;20DO050O20;9
S28000;20DO050O20;10
S27000;20ET075HC6;3
S28000;20ET075HC6;10
S15;24MA030RE19;8
S27000;24MA030RE19;13
S28000;24MA030RE19;19
S15;27DC065I21;10
S27000;27DC065I21;16
S28000;27DC065I21;11
S15;27MP150I20;10
S27000;27MP150I20;1
S28000;27MP150I20;11
S27000;01CL200B20H;6
S15;01HV030K16;8
S27000;01HV030K16;6
S28000;01HV030K16;8
S15;01SL300VE20;7
S27000;01SL300VE20;8
S28000;01SL300VE20;12
S15;11CM030H19;29
S27000;11CM030H19;26
S28000;11CM030H19;31
S15;11LC250H20;10
S27000;11LC250H20;2
S28000;11LC250H20;15
S15;11MH075A19;8
S27000;11MH075A19;8
S28000;11MH075A19;10
S15;11SP200CS19;5
S27000;11SP200CS19;10
S28000;11SP200CS19;15
S15;15GD250VA5;8
S27000;15GD250VA5;11
S28000;15GD250VA5;13
S15;15LM300L11;1
S27000;15LM300L11;7
S28000;15LM300L11;9
S15;17AS250E19;8
S27000;17AS250E19;10
S28000;17AS250E19;19
S15;17RC500E20;12
S27000;17RC500E20;9
S28000;17RC500E20;26
S15;17SH300N18;7
S27000;17SH300N18;5
S28000;17SH300N18;8
S15;18ET090TL17;7
S27000;18ET090TL17;6
S28000;18ET090TL17;4
S15;18SA075TL17ET;12
S27000;18SA075TL17ET;9
S28000;18SA075TL17ET;11
S15;20ET075HC20;6
S27000;20ET075HC20;7
S24000;01RL500K20;9
S90000;01RL500K20;7
S24000;01SL300LV20;8
S90000;01SL300LV20;14
S90000;10CACLA20;1
S24000;11BO100CS19;16
S90000;11BO100CS19;5
S24000;11GD050A18;10
S90000;11GD050A18;5
S90000;11GD050H19;13
S90000;11LP050028M19;1
S24000;11PM100SL19;8
S90000;11PM100SL19;2
S24000;11SV080I19;8
S90000;11SV080I19;9
S24000;15DO050VA5;12
S90000;15DO050VA5;5
S24000;15GM065L20;18
S90000;15GM065L20;12
S24000;15GM065VB20;11
S90000;15GM065VB20;12
S24000;17AS500P19;9
S90000;17AS500P19;9
S24000;17MC200N18;6
S90000;17MC200N18;3
S24000;17SH075G18;17
S24000;17SH500N18;6
S90000;17SH500N18;7
S90000;18GD050TL17ET;6
S24000;20ET075OC20;8
S90000;20ET075OC20;9
S24000;20MP030H20;8
S90000;20MP030H20;9
S24000;24EDT050C21;7
S90000;24EDT050C21;1
S24000;24EDT10C21;28
S90000;24EDT10C21;20
S24000;24ET050R18;9
S90000;24ET050R18;6
S24000;24MA030RA19;11
S90000;24MA030RA19;6
S24000;24MA075P15;22
S90000;24MA075P15;8
S24000;24RO010R18;12
S90000;24RO010R18;7
S24000;24SA050R18;11
S90000;24SA050R18;7
S24000;27DB015I20;10
S90000;27DB015I20;6
S24000;27DE015I13US;12
S90000;27DE015I13US;7
S24000;27TS001I20;411
S90000;27TS001I20;310
S28000;20ET075HC20;9
S15;20GR150CD16A;3
S15;27BY015I19;10
S27000;27BY015I19;5
S28000;27BY015I19;10
S15;27DH030I17A;7
S27000;27DH030I17A;1
S15;29RC200A19;12
S28000;29RC200A19;27
S15;49CRM1NO20;2
S15;01SL500VE20;11
S27000;01SL500VE20;7
S28000;01SL500VE20;18
S15;11CF100TR19;7
S27000;11CF100TR19;7
S28000;11CF100TR19;7
S15;11ET050H20;2
S27000;11ET050H20;7
S28000;11ET050H20;12
S15;11FAG10TR19;7
S27000;11FAG10TR19;8
S28000;11FAG10TR19;9
S15;11LH200I19;11
S27000;11LH200I19;9
S28000;11LH200I19;9
S15;11SD100CS19;7
S27000;11SD100CS19;7
S28000;11SD100CS19;7
S15;15ET100VM20H;4
S28000;15ET100VM20H;12
S15;17AS075G18;32
S27000;17AS075G18;15
S28000;17AS075G18;18
S15;17RC500N18;11
S27000;17RC500N18;4
S28000;17RC500N18;13
S27000;17SE125D15;8
S28000;17SE125D15;2
S15;18ET010TL17;14
S27000;18ET010TL17;10
S28000;18ET010TL17;16
S15;20ET100OC13;2
S28000;20ET100OC13;7
S27000;20GD250OC16;1
S28000;20GD250OC16;4
S15;24ET050C19;1
S28000;24ET050C20;4
S15;24GM030C21;32
S27000;24GM030C21;20
S28000;24GM030C21;61
S15;24LC250R18;8
S27000;24LC250R18;8
S28000;24LC250R18;4
S28000;24MA030RV19;20
S15;24MA075R18;21
S27000;24MA075R18;15
S28000;24MA075R18;40
S15;24RO010CB4;10
S27000;24RO010CB4;9
S28000;24RO010CB4;11
S28000;24GD250C21;9
S15;24GD250C21;3
S28000;17SH075FV21;93
S27000;17SH075FV21;22
S15;17SH075FV21;53
S28000;17RS500N18;10
S27000;17RS500N18;2
S15;17RS500N18;10
S28000;17RS500G19;59
S27000;17RS500G19;10
S15;17RS500G19;17
S27000;01BL012K20H;3
S28000;49CM030I19;5
S27000;49CM030I19;6
S15;49CM030I19;17
S28000;29LC200A14US;10
S27000;29LC200A14US;17
S15;29LC200A14US;27
S28000;29HD250A15;31
S27000;29HD250A15;35
S15;29HD250A15;39
S28000;29EC200A13;10
S27000;29EC200A13;1
S15;29EC200A13;2
S28000;20AR075H16;8
S15;20AR075H16;8
S28000;18ET050TL17;6
S27000;18ET050TL17;6
S15;18ET050TL17;8
S28000;17HE010R14;2
S27000;17HE010R14;2
S27000;15LC250VBL20;3
S15;15LC250VBL20;2
S28000;15CC150VA19;7
S27000;15CC150VA19;5
S15;15CC150VA19;7
S28000;01LC250K17;17
S27000;01LC250K17;10
S15;01LC250K17;12
S28000;01CM500K20;13
S27000;01CM500K20;4
S15;01CM500K20;12
S28000;01BV050K16;9
S27000;01BV050K16;8
S15;01BV050K16;8
S28000;38WC050A18;9
S27000;38WC050A18;5
S15;38WC050A18;8
S28000;29MA075A19;21
S27000;29MA075A19;4
S15;29MA075A19;14
S28000;27OR050I21C;33
S27000;27OR050I21C;35
S15;27OR050I21C;38
S28000;27FP050I19;8
S27000;27FP050I19;10
S15;27FP050I19;8
S28000;27ER015I20;15
S27000;27ER015I20;18
S15;27ER015I20;13
S27000;27DL200I13US;1
S28000;24LC250CB4;22
S27000;24LC250CB4;10
S15;24LC250CB4;5
S28000;24AF050R18;10
S27000;24AF050R18;8
S15;24AF050R18;7
S28000;17AS075FV21;93
S27000;17AS075FV21;22
S15;17AS075FV21;53
S28000;01CP200K17;6
S27000;01CP200K17;3
S15;01CP200K17;12
S28000;01CL300KB20;10
S27000;01CL300KB20;5
S15;01CL300KB20;7
S28000;27CP050I19;18
S27000;27CP050I19;9
S15;27CP050I19;18
S28000;24MA030CB4;39
S27000;24MA030CB4;6
S15;24MA030CB4;38
S28000;24GD250R18;22
S27000;24GD250R18;9
S28000;24BR050CB6;12
S27000;24BR050CB6;12
S15;24BR050CB6;17
S28000;20GD250CD20;22
S27000;20GD250CD20;8
S15;20GD250CD20;12
S28000;17AS500G18;17
S27000;17AS500G18;11
S15;17AS500G18;14
S28000;17AS250G18;16
S27000;17AS250G18;8
S15;17AS250G18;17
S28000;15MA030VB3;26
S27000;15MA030VB3;11
S15;15MA030VB3;25
S28000;15GD500VB17;24
S27000;15GD500VB17;5
S15;15GD500VB17;2
S28000;15ET010VB19;8
S27000;15ET010VB19;8
S15;15ET010VB19;10
S28000;15CP250VA5;6
S27000;15CP250VA5;8
S15;15CP250VA5;8
S28000;01SA100LT16;22
S27000;01SA100LT16;10
S15;01SA100LT16;15
S28000;01HDR500K20;11
S27000;01HDR500K20;7
S15;01HDR500K20;1
S15;24SA050R18;20
S28000;24RO010R18;12
S27000;24RO010R18;9
S15;24RO010R18;11
S28000;24MA075P15;19
S27000;24MA075P15;13
S15;24MA075P15;13
S28000;24MA030RA19;19
S27000;24MA030RA19;14
S15;24MA030RA19;7
S28000;24EDT10C21;28
S27000;24EDT10C21;23
S15;24EDT10C21;36
S28000;24EDT050C21;9
S27000;24EDT050C21;1
S15;24EDT050C21;9
S28000;17SH500N18;7
S27000;17SH500N18;5
S15;17SH500N18;8
S28000;17MC200N18;8
S27000;17MC200N18;5
S15;17MC200N18;8
S28000;17AS500P19;9
S27000;17AS500P19;6
S15;17AS500P19;12
S28000;15GM065VB20;17
S27000;15GM065VB20;26
S15;15GM065VB20;22
S28000;15GM065L20;24
S27000;15GM065L20;16
S15;15GM065L20;21
S28000;11SV080I19;7
S27000;11SV080I19;8
S15;11SV080I19;8
S28000;01SL300LV20;12
S27000;01SL300LV20;8
S15;01SL300LV20;6
S28000;24GC150C21;19
S27000;24GC150C21;11
S15;24GC150C21;19
S28000;24EF050R18;8
S27000;24EF050R18;6
S15;24EF050R18;5
S28000;20SA050O20;11
S27000;20SA050O20;7
S15;20SA050O20;12
S28000;20FE050H20;10
S27000;20FE050H20;4
S15;20FE050H20;6
S27000;20ET010HC19;4
S28000;20ET010CD19;13
S15;20ET010CD19;9
S28000;18BI030TL17ET;43
S27000;18BI030TL17ET;30
S15;18BI030TL17ET;35
S28000;17SH300G18;18
S27000;17SH300G18;10
S15;17SH300G18;14
S28000;17MC200G18;11
S27000;17MC200G18;2
S15;17MC200G18;11
S28000;17HR100G13;20
S27000;17HR100G13;9
S15;17HR100G13;13
S28000;15SH250VA17;17
S27000;15SH250VA17;7
S15;15SH250VA17;13
S28000;15SA070VB6;9
S27000;15SA070VB6;8
S15;15SA070VB6;11
S28000;15GD250VB17;24
S27000;15GD250VB17;13
S15;15GD250VB17;19
S15;15DF200VM20H;5
S28000;11PEP050I20;10
S27000;11PEP050I20;6
S15;11PEP050I20;14
S28000;11MWC200I19;8
S27000;11MWC200I19;8
S15;11MWC200I19;8
S28000;11MW200I19;8
S27000;11MW200I19;9
S15;11MW200I19;11
S28000;11LC250H19;14
S27000;11LC250H19;7
S15;11LC250H19;15
S28000;11EP090H19;8
S27000;11EP090H19;4
S15;11EP090H19;13
S28000;11EP050H19;7
S27000;11EP050H19;7
S24000;27TS050I20;24
S90000;27TS050I20;19
S24000;29MA075A16;1
S90000;29MA075A16;4
S24000;29SA050A17;12
S90000;29SA050A17;4
S24000;38EV075A18;5
S90000;38EV075A18;1
S24000;38UV030A18;10
S90000;49CL008K15;16
S24000;01BG070K21;22
S24000;01HDR500K20;12
S24000;01SA100LT16;18
S90000;01SA100LT16;1
S24000;11BG240DE20H;2
S24000;11SA100H20;20
S90000;11SA100H20;5
S24000;15CP250VA5;6
S90000;15CP250VA5;10
S24000;15ET010VB19;6
S24000;15GD500VB17;18
S90000;15GD500VB17;11
S90000;15LC070VB5;69
S24000;15MA030VB3;18
S90000;15MA030VB3;7
S24000;17AS250G18;13
S90000;17AS250G18;9
S24000;17AS500G18;16
S24000;17BD125G14;10
S90000;17BD125G14;2
S24000;17DO050F13;15
S90000;17IC075D15;6
S24000;17RC500G18;21
S24000;17SH300D15;1
S90000;17SH300D15;14
S24000;17SH300P19;11
S90000;17SH300P19;7
S24000;17SH500G18;24
S24000;20DO130HC20;7
S90000;20DO130HC20;7
S24000;20GD250CD20;18
S90000;20GD250CD20;10
S24000;24BR050CB6;13
S90000;24BR050CB6;6
S24000;24GD250R18;9
S90000;24GD250R18;9
S24000;24GD250R20;15
S90000;24LC075CB5;42
S24000;24MA030CB4;31
S90000;24MA030CB4;8
S90000;24SA050S6;15
S24000;27CP050I19;16
S90000;27CP050I19;6
S15;11EP050H19;8
S28000;11BR100A20;4
S27000;11BR100A20;12
S15;11BR100A20;29
S28000;11BP100I19;8
S27000;11BP100I19;8
S15;11BP100I19;14
S28000;01RC300KB20;5
S27000;01RC300KB20;15
S15;01RC300KB20;10
S28000;15BA500L16A;8
S27000;15BA500L16A;6
S15;15BA500L16A;4
S28000;01MA075K18;18
S27000;01MA075K18;5
S15;01MA075K18;21
S15;24VF050R18;5
S27000;24VF050R18;9
S28000;24VF050R18;7
S15;27HSR030I16;8
S27000;27HSR030I16;6
S28000;27HSR030I16;7
S15;49OR005I19;23
S27000;49OR005I19;9
S28000;01CD250K21;12
S15;01CM300K11;2
S28000;01CM300K11;1
S15;01HF100K17;7
S27000;01HF100K17;2
S28000;01HF100K17;14
S15;01LH300KB19;9
S27000;01LH300KB19;4
S28000;01LH300KB19;9
S15;01MA150K18;37
S27000;01MA150K18;20
S28000;01MA150K18;18
S15;01SA250VE16;18
S27000;01SA250VE16;8
S28000;01SA250VE16;24
S15;11GD250H19;20
S27000;11GD250H19;13
S28000;11GD250H19;19
S15;11GD250H20;8
S27000;11GD250H20;4
S28000;11GD250H20;14
S15;11LP080028M19;5
S27000;11LP080028M19;6
S28000;11LP080028M19;4
S15;11PM100SI19;3
S27000;11PM100SI19;5
S15;11SP200SI19;8
S27000;11SP200SI19;8
S28000;11SP200SI19;10
S27000;11SP200SL19;8
S28000;11SP200SL19;16
S15;15ET100VA5;8
S27000;15ET100VA5;7
S28000;15ET100VA5;10
S15;15GM280VB20;6
S27000;15GM280VB20;10
S28000;15GM280VB20;6
S15;15RG500L14;16
S27000;15RG500L14;8
S28000;15RG500L14;22
S15;20DO075CD20;9
S27000;20DO075CD20;6
S28000;20DO075CD20;10
S15;24BR050R19;11
S27000;24BR050R19;15
S28000;24BR050R19;14
S15;27DCB060I17;6
S27000;27DCB060I17;6
S28000;27DCB060I17;7
S15;27MS050I20;2
S27000;27MS050I20;9
S28000;27MS050I20;15
S15;29SE125A21;25
S27000;29SE125A21;13
S28000;29SE125A21;4
S15;38RC050A18;10
S27000;38RC050A18;5
S28000;38RC050A18;10
S15;38WS030A18;9
S27000;38WS030A18;5
S28000;38WS030A18;8
S15;49HD035K19H;8
S15;52CD0015A18;57
S27000;52CD0015A18;226
S15;01BP050K21;10
S27000;01BP050K21;10
S28000;01BP050K21;11
S27000;01EM075K18;6
S15;01HD250K17;17
S27000;01HD250K17;9
S28000;01HD250K17;7
S15;11GM200I19;7
S27000;11GM200I19;5
S28000;11GM200I19;4
S15;11LT300I20;13
S27000;11LT300I20;6
S28000;11LT300I20;14
S28000;11MA030A20;14
S15;15CL150VM20H;3
S27000;15CL150VM20H;10
S28000;15CL150VM20H;2
S28000;15ET100VAL20;2
S24000;27HCR050I16;8
S90000;27HCR050I16;4
S90000;27MP050I20;20
S24000;27SP030I19;10
S90000;27SP030I19;10
S24000;29RH500A15;44
S90000;38UV030A18;5
S24000;49CP020K18;40
S90000;49CP020K18;138
S24000;49DH004I20;10
S90000;49DH004I20;10
S90000;49DOPAQ19;6
S24000;49DRANO19;29
S90000;49DRANO19;1
S90000;49MA010K19H;5
S90000;49MF010W19H;5
S90000;49P2DTS19;14
S90000;49PADCL20;124
S90000;49POUCB21;25
S24000;49POUID20;5
S90000;01CP050K17;81
S24000;01HV030K16;6
S90000;01HV030K16;7
S24000;01SL300VE20;7
S90000;01SL300VE20;15
S90000;10KTCMAPAC20;10
S24000;11CM030H19;20
S90000;11CM030H19;6
S90000;11GD050H20;1
S24000;11LC250H20;10
S90000;11LC250H20;11
S24000;11MH075A19;8
S90000;11MH075A19;7
S24000;11SP200CS19;8
S90000;11SP200CS19;5
S24000;15GD075L15;60
S24000;15GD250VA5;10
S90000;15GD250VA5;4
S24000;15LM300L11;9
S90000;15LM300L11;12
S24000;17AS250E19;10
S90000;17AS250E19;10
S24000;17RC500E20;12
S90000;17RC500E20;11
S24000;17RS500G19;28
S24000;17RS500N18;8
S90000;17RS500N18;12
S24000;17SH075FV21;40
S90000;17SH075FV21;32
S90000;17SH300D14;16
S24000;17SH300N18;8
S90000;17SH300N18;21
S24000;18ET090TL17;8
S15;17AS250N18;8
S28000;17AS250N18;8
S27000;17IC200D15;2
S28000;17IC200D15;2
S15;18GD250TL17ET;13
S27000;18GD250TL17ET;12
S28000;18GD250TL17ET;15
S15;20ET075CD20;12
S27000;20ET075CD20;7
S28000;20ET075CD20;8
S15;24GD250CB4;9
S27000;24GD250CB4;12
S28000;24GD250CB4;26
S27000;24GD500R19;8
S28000;24GD500R19;14
S15;24MA030RV19;5
S27000;24MA030RV19;14
S15;27DC050I20;16
S27000;27DC050I20;23
S28000;27DC050I20;21
S15;27DS030I20;13
S27000;11BG140SH19;5
S15;11BG140SH19;10
S28000;01PI150K18;17
S27000;01PI150K18;16
S15;01PI150K18;4
S27000;27DS030I20;10
S28000;27DS030I20;15
S15;27EV200I19;11
S27000;27EV200I19;9
S28000;27EV200I19;14
S15;38ST016A18;8
S27000;38ST016A18;12
S28000;38ST016A18;10
S15;49LD030I20;16
S27000;49LD030I20;11
S28000;49LD030I20;13
S15;49PFCWC21;27
S27000;49PFCWC21;24
S28000;49PFCWC21;43
S15;52DS001I20;417
S27000;52DS001I20;365
S28000;52DS001I20;260
S15;52HD006A18;109
S27000;52HD006A18;223
S28000;52HD006A18;140
S28000;01BM150K19;3
S15;01CMR500K20;3
S27000;01CMR500K20;5
S28000;01CMR500K20;12
S15;01CV050K15;5
S27000;01CV050K15;8
S28000;01CV050K15;11
S15;01PI030K18;21
S27000;01PI030K18;8
S28000;01PI030K18;20
S15;01SL500LV20;11
S27000;01SL500LV20;7
S28000;01SL500LV20;9
S15;11CM030H20;12
S27000;11CM030H20;12
S28000;11CM030H20;8
S15;11ET010H20;3
S27000;11ET010H20;7
S28000;11ET010H20;21
S15;11SP200SH19;9
S27000;11SP200SH19;7
S28000;11SP200SH19;10
S15;15GC150VBL20;15
S27000;15GC150VBL20;4
S28000;15GC150VBL20;8
S15;15LC250VB3;13
S27000;15LC250VB3;8
S28000;15LC250VB3;19
S28000;15MF075VM20H;2
S15;15RC500VB17;15
S27000;15RC500VB17;12
S28000;15RC500VB17;27
S15;17AS250P19;11
S27000;17AS250P19;10
S28000;17AS250P19;8
S15;17SH300E19;15
S27000;17SH300E19;17
S28000;17SH300E19;13
S15;20SA050HC20;12
S27000;20SA050HC20;8
S28000;20SA050HC20;12
S15;24SA050CB6;23
S27000;24SA050CB6;7
S28000;24SA050CB6;15
S28000;27BP050I19;14
S15;27DC030I20;16
S27000;27DC030I20;19
S28000;27DC030I20;15
S15;27DH030I20;11
S27000;27DH030I20;9
S28000;27DH030I20;23
S27000;27OR075I20;9
S28000;27OR075I20;9
S15;38MI150A18;10
S27000;38MI150A18;4
S28000;38MI150A18;8
S28000;38WM100A16;5
S15;52AS006G18;127
S27000;52AS006G18;231
S28000;52AS006G18;346
S90000;18ET090TL17;1
S24000;18SA075TL17ET;10
S90000;18SA075TL17ET;11
S24000;20ET075HC20;8
S90000;20ET075HC20;4
S24000;24GD250C21;10
S90000;24GD250C21;1
S90000;26PM100FC15;5
S24000;27BY015I19;14
S90000;27BY015I19;4
S24000;27DH030I17A;2
S90000;27DH030I17A;17
S90000;29KTAMA19;2
S24000;29RC200A19;22
S90000;49BAG2NO20;22
S90000;49CRM1NO19;31
S90000;49CRM1NO20;11
S90000;49CRM2NO19;69
S90000;49DC008I17;16
S24000;49DC008I20;4
S90000;49DC008I20;11
S90000;49LC035CB6;127
S24000;49MS008I20;14
S90000;49MS008I20;99
S90000;49PO2SA19;45
S90000;52BOWEB117;2372
S90000;52BOWEB217;5566
S90000;52BOWEB317;2349
S24000;52LC006A18;209
S90000;52LC006A18;1
S24000;01CL300KB20;6
S90000;01CL300KB20;6
S24000;01CP200K17;7
S24000;01HD500K20;9
S90000;01LT300K12;3
S90000;01MA150K16;2
S90000;01MF030B20H;6
S24000;01SA050KL20;18
S90000;01SA050KL20;15
S90000;10BOWEB219;1600
S90000;10BOWEB319;2100
S90000;10BOWEB419;2100
S24000;11BG140SL19;8
S90000;11BG140SL19;9
S24000;11EH150A18;8
S90000;11EH150A18;11
S24000;11GN195A18;10
S90000;11GN195A18;5
S24000;11SD100DE20H;5
S90000;15GD070VB17;80
S90000;17AS075F15;14
S24000;17AS075FV21;40
S90000;17AS075FV21;32
S24000;17AS500FV21;24
S24000;17RC500P19;12
S90000;17RC500P19;12
S24000;17SH300FV21;12
S24000;17VI100P19;6
S90000;17VI100P19;9
S24000;20ET075CD19;5
S24000;20GD250HC20;18
S90000;20GD250HC20;9
S24000;20HR050H20;6
S90000;20HR050H20;7
S24000;24AF050R18;16
S90000;24AF050R18;12
S24000;24BL012CB5;15
S90000;24BL012CB5;3
S24000;24LC250CB4;13
S90000;24LC250CB4;8
S24000;27ER015I20;13
S90000;27ER015I20;10
S24000;27FP050I19;7
S90000;27FP050I19;5
S24000;27OR050I21C;37
S90000;27OR050I21C;2
S24000;29MA075A19;16
S90000;29MA075A19;2
S24000;38WC050A18;11
S90000;38WC050A18;9
S24000;49DC004I20;24
S90000;49DC004I20;15
S90000;49EP005TL17ET;2
S24000;49EV030I19;20
S90000;49EV030I19;10
S90000;49POCB19;1
S90000;49TF2CH19;35
S90000;49TFACH18;30
S90000;49TRSOL15;16
S24000;52BY001I19;243
S90000;52DL002I17;153
S24000;52EV002I19;50
S24000;52MC006G18;168
S24000;01BL012B20H;4
S90000;01BL012B20H;5
S90000;01BM150K19;2
S24000;01CMR500K20;8
S90000;01CMR500K20;5
S24000;01CV050K15;8
S90000;01CV050K15;7
S90000;01KTKAR19;8
S24000;01PI030K18;9
S90000;01PI030K18;15
S24000;01SL500LV20;8
S90000;01SL500LV20;9
S90000;10QCRAC20;20
S24000;11CM030H20;20
S90000;11CM030H20;12
S24000;11ET010H20;10
S90000;11ET010H20;9
S24000;11SP200SH19;7
S90000;11SP200SH19;9
S24000;15GC150VBL20;7
S24000;15LC250VB3;10
S24000;15RC500VB17;24
S24000;17AS250P19;8
S90000;17AS250P19;8
S24000;17RS500FV21;24
S90000;17SH075F15;14
S24000;17SH300E19;19
S90000;17SH300E19;10
S24000;20SA050HC20;8
S90000;20SA050HC20;9
S24000;24SA050CB6;10
S90000;24SA050CB6;6
S90000;27BP050I19;4
S24000;27DC030I20;11
S90000;27DC030I20;7
S24000;27DH030I20;12
S90000;27DH030I20;12
S24000;27OR075I20;13
S90000;27OR075I20;9
S24000;38MI150A18;6
S90000;38MI150A18;8
S24000;38WM100A16;3
S90000;49BP010K19;20
S90000;49CP008I14A;27
S90000;49DF005I17;2
S90000;49ET007CB19;4
S90000;49ET007CB4;3
S90000;49MW030I19;20
S90000;49POURS20;17
S24000;52AS006G18;261
S90000;52AS006G18;34
S24000;52DE001I17;206
S24000;52FT002A18;1
S90000;52FT002A18;73
S24000;52LGEBAG19;152
S90000;52LGEBOX18;50
S90000;52MMSANO19;240
S90000;52MMSANO20;120
S90000;52RIB1NO20;1
S90000;52RIB2NO20;1
S90000;52SMSANO19;152
S90000;52SMSANO20;120
S90000;52TRSAM19;15
S24000;01PR015R19;14
S90000;01PR015R19;12
S24000;01SA250LV20;13
S24000;11BH050A18;17
S90000;11BH050A18;6
S24000;11PM100DE20H;4
S24000;11PM100SH19;7
S90000;11PM100SH19;8
S24000;15LC250VA5;8
S90000;15LC250VA5;5
S24000;15MA030VA5;16
S90000;15MA030VA5;13
S24000;15MA075VB4;16
S90000;15MA075VB4;6
S24000;17AF100G20;12
S90000;17AF100G20;1
S24000;17MM050A20;13
S90000;17MM050A20;7
S24000;17RS500E20;16
S90000;17RS500E20;3
S90000;24GD075C19;2
S24000;27DB015I16;2
S24000;27DL200I20;8
S90000;27DL200I20;5
S24000;27MQ065I15A;6
S90000;27MQ065I15A;4
S24000;27RM300I20;15
S90000;27RM300I20;16
S24000;29HD500A15;29
S24000;29LC200A21C;1
S90000;29LC200A21C;1
S24000;29MAV075A19;8
S24000;29VC240A16;10
S90000;29VC240A16;1
S90000;49ET007R18;53
S90000;49PASSSA19;16
S24000;52LT002R21;100
S90000;52MGEBAG18;54
S24000;52MGEBAG19;92
S90000;52MGEBAG19;100
S90000;52MMBANO20;50
S24000;01BP050K21;18
S90000;01BP050K21;9
S90000;01EM075K18;1
S24000;01HD250K17;8
S90000;01HD250K17;9
S24000;01PI150K18;10
S90000;01PI150K18;3
S24000;11BG140SH19;8
S24000;11GM200I19;8
S90000;11GM200I19;2
S24000;11LT300I20;10
S90000;11LT300I20;10
S24000;11MA030A20;6
S90000;11MA030A20;38
S24000;15CL150VM20H;4
S21000;01PR015R19;20
S21000;01SA250LV20;17
S21000;11BH050A18;10
S21000;11PM100DE20H;4
S21000;11PM100SH19;8
S21000;15LC250VA5;6
S21000;15MA030VA5;20
S21000;15MA075VB4;12
S21000;17AF100G20;13
S21000;17MM050A20;14
S21000;17RS500E20;21
S21000;27DB015I16;2
S21000;27DL200I20;10
S21000;27MI150I17;1
S21000;27MQ065I15A;6
S21000;27RM300I20;20
S21000;29HD500A15;25
S21000;29MAV075A19;8
S21000;29VC240A16;9
S21000;01BL012K20H;3
S21000;01HV030K16;5
S21000;01SL300VE20;8
S21000;11CM030H19;13
S21000;11LC250H20;13
S21000;11MH075A19;8
S21000;11SP200CS19;15
S21000;15GD075L15;50
S21000;15GD250VA5;10
S21000;15LM300L11;10
S21000;17AS250E19;9
S21000;17RC500E20;13
S21000;17RS500G19;39
S21000;17RS500N18;5
S21000;17SH075FV21;47
S21000;17SH300N18;6
S21000;18ET090TL17;8
S21000;18SA075TL17ET;7
S21000;20ET075HC20;11
S21000;24GD250C21;16
S21000;27BY015I19;15
S21000;27DH030I17A;1
S21000;29RC200A19;30
S21000;49MS008I20;11
S21000;52LC006A18;280
S21000;52LT002R21;100
S21000;52MGEBAG19;103
S21000;01BP050K21;5
S21000;01HD250K17;10
S21000;01PI150K18;8
S21000;11BG140SH19;6
S21000;11GM200I19;9
S21000;11LT300I20;6
S21000;11MA030A20;55
S29000;01BP050K21;18
S29000;01HD250K17;15
S29000;01PI150K18;20
S29000;11GM200I19;13
S29000;11LT300I20;19
S29000;11MA030A20;15
S29000;15CL150VM20H;7
S29000;17AS250N18;10
S29000;18GD250TL17ET;23
S29000;20ET075CD20;11
S29000;24GD250CB4;21
S29000;24GD500R19;13
S29000;27DC050I20;28
S29000;27DS030I20;33
S29000;27EV200I19;12
S29000;38BV050A19;18
S29000;38ST016A18;11
S29000;49LD030I20;22
S29000;49PFCWC21;33
S29000;52DS001I20;276
S29000;52HD006A18;83
S29000;01PR015R19;11
S29000;01SA250LV20;22
S29000;11BH050A18;10
S29000;11PM100DE20H;9
S29000;11PM100SH19;17
S29000;15LC250VA5;11
S29000;15MA030VA5;12
S29000;15MA075VB4;20
S29000;17AF100G20;28
S29000;17MM050A20;15
S29000;17RS500E20;19
S29000;27DL200I20;15
S29000;27MQ065I15A;7
S29000;27RM300I20;23
S29000;29HD500A15;57
S29000;29LC200A21C;4
S29000;29MAV075A19;10
S29000;29VC240A16;17
S29000;49ET007R18;32
S29000;52DB001I20;283
S29000;52OR001I19;233
S29000;01HV030K16;10
S29000;01SL300VE20;8
S29000;11CM030H19;14
S29000;11LC250H20;15
S29000;11MH075A19;10
S29000;11SP200CS19;15
S29000;15GD075L15;60
S29000;15GD250VA5;12
S29000;15LM300L11;15
S29000;17AS250E19;10
S29000;17RC500E20;43
S20;01CL200B20H;4
S20;01HV030K16;5
S20;01SL300VE20;8
S20;11CM030H19;18
S20;11LC250H20;17
S20;11MH075A19;6
S20;11SP200CS19;8
S20;15GD250VA5;9
S20;15LM300L11;5
S20;17AS250E19;6
S20;17RC500E20;22
S20;17RS500G19;20
S20;17SH075FV21;38
S20;17SH300N18;6
S20;18ET090TL17;6
S20;18SA075TL17ET;9
S20;20ET075HC20;6
S20;24GD250C21;2
S20;27BY015I19;9
S20;49DC008I20;5
S20;49MS008I20;12
S20;52LC006A18;458
S20;52MGEBAG19;258
S20;01PR015R19;10
S20;01SA250LV20;18
S20;11BH050A18;11
S20;11PM100SH19;6
S20;15LC250VA5;8
S20;15MA030VA5;18
S20;15MA075VB4;13
S20;17AF100G20;9
S20;17MM050A20;10
S20;17RS500E20;10
S20;24RO010C20;3
S20;27DB015I16;2
S20;27DL200I20;13
S20;27MQ065I15A;5
S20;27RM300I20;17
S20;29HD500A15;16
S20;29LC200A21C;25
S20;29VC240A16;17
S20;52DB001I20;121
S20;52OR001I19;305
S20;01BP050K21;7
S20;01HD250K17;15
S20;01PI150K18;12
S20;01SL300CI20;2
S20;11BG140SH19;9
S20;11GM200I19;4
S20;11LT300I20;10
S20;11MA030A20;14
S20;15CL150VM20H;4
S20;18GD250TL17ET;10
S20;20ET075CD20;7
S90000;15ET100VAL20;2
S24000;17AS250N18;8
S90000;17AS250N18;22
S24000;17IC200D15;1
S90000;17IC200D15;1
S90000;17SH075D15;19
S24000;18GD250TL17ET;24
S90000;18GD250TL17ET;14
S24000;20ET075CD20;7
S90000;20ET075CD20;7
S90000;24GD075P15;1
S24000;24GD250CB4;16
S90000;52OR001I19;606
S24000;52OR001I19;356
S90000;49TRPIV16;15
S90000;52DB001I20;140
S24000;52DB001I20;147
S24000;24GD500R19;15
S90000;24LC075C20;18
S90000;24LC075C21;25
S24000;24MA030RV19;10
S24000;27DC050I20;12
S90000;27DC050I20;8
S24000;27DS030I20;10
S90000;27DS030I20;6
S24000;27EV200I19;11
S90000;29LC200A14;21
S90000;29SAALM20;85
S90000;38BV050A17;1
S24000;38BV050A19;15
S24000;38ST016A18;8
S90000;38ST016A18;7
S24000;49LD030I20;11
S90000;49LD030I20;16
S90000;49MIRCB19;2
S24000;49PFCWC21;25
S24000;52DS001I20;247
S90000;52DS001I20;140
S24000;52HD006A18;343
S90000;52HD006A18;252
S90000;49CL008K21;92
S90000;49DRASA19;27
S90000;49FC030A15;3
S24000;49HD035A15;103
S90000;49HD035A15;178
S90000;49MA010L16;42
S90000;49PI010K1;31
S90000;49PI010K18;132
S24000;52AS006P19;277
S90000;52AS006P19;157
S24000;52CL0015K18;71
S90000;52CLASANO19;32
S90000;52CLASANO20;1
S29000;17RS500G19;70
S29000;17RS500N18;28
S29000;17SH075FV21;18
S29000;17SH300N18;6
S29000;18ET090TL17;9
S29000;18SA075TL17ET;12
S29000;20ET075HC20;10
S29000;20NV150CD16A;1
S29000;27BY015I19;13
S29000;29RC200A19;39
S29000;52LC006A18;205
S29000;52LT002R21;100
S29000;01RL500K20;23
S29000;01SL300LV20;16
S29000;11BO100CS19;24
S29000;11GD050A18;12
S29000;11PM100SL19;10
S29000;11SV080I19;8
S29000;15DO050VA5;15
S29000;15GM065L20;35
S29000;15GM065VB20;37
S29000;17AS500P19;10
S29000;17MC200N18;11
S29000;17SH075G18;22
S29000;17SH500N18;19
S29000;20ET075OC20;10
S29000;20MP030H20;6
S29000;24EDT050C21;8
S29000;24EDT10C21;27
S29000;24ET050R18;10
S29000;24ET050RC20H;4
S29000;24MA030RA19;9
S29000;24MA075P15;15
S29000;24RO010R18;17
S29000;24SA050R18;12
S29000;27DB015I20;37
S29000;27DE015I13US;30
S29000;27TS001I20;95
S29000;27TS050I20;35
S29000;29MA075A16;1
S29000;29SA050A17;11
S29000;38EV075A18;8
S29000;38UV030A18;15
S29000;49HD035A15;45
S29000;52AF006G20;42
S29000;52AS006P19;44
S29000;52CL0015K18;100
S29000;52CP006K17;207
S29000;52SP001I19;183
S29000;01CL050K18;3
S29000;01RC300KB20;12
S29000;11BP100I19;31
S29000;11BR100A20;26
S10;01BP050K21;7
S10;01HD250K17;20
S10;01PI150K18;24
S10;11BG140SH19;9
S10;11GM200I19;6
S10;11LT300I20;15
S10;11MA030A20;28
S10;15CL150VM20H;1
S10;17AS250N18;5
S10;17IC200D15;9
S10;18GD250TL17ET;14
S10;20ET075CD20;8
S10;24GD250CB4;11
S10;24MA030RV19;14
S10;27DC050I20;15
S10;27DS030I20;11
S10;27EV200I19;2
S10;38ST016A18;4
S10;49LD030I20;13
S10;49PFCWC21;23
S10;52DS001I20;113
S10;52HD006A18;168
S10;01PR015R19;5
S10;01SA250LV20;13
S10;11BH050A18;7
S10;11EP005H19;93
S10;11PM100SH19;15
S10;15LC250VA5;10
S10;15MA030VA5;16
S10;15MA075VB4;13
S10;17AF100G20;17
S10;17MM050A20;16
S10;17RS500E20;4
S10;24GD500R19;5
S10;27DB015I16;3
S10;27DL200I20;7
S10;27MQ065I15A;6
S10;27RM300I20;12
S10;29HD500A15;36
S10;29VC240A16;12
S10;52DB001I20;113
S10;52OR001I19;349
S10;01HV030K16;6
S10;01SL300VE20;7
S10;11CM030H19;27
S10;11LC250H20;8
S10;11MH075A19;8
S10;11SP200CS19;9
S10;15GD250VA5;21
S10;15LM300L11;9
S10;17AS250E19;10
S10;17RC500E20;3
S10;17RS500G19;12
S10;17RS500N18;4
S20;24GD250CB4;1
S20;24GD500R19;9
S20;24MA030RV19;6
S20;27DC050I20;20
S20;27DS030I20;15
S20;27EV200I19;11
S20;38ST016A18;4
S20;49LD030I20;9
S20;49PFCWC21;25
S20;52DS001I20;198
S20;52HD006A18;638
S20;01RL500K20;4
S20;01SL300LV20;14
S20;11BO100CS19;8
S20;11GD050A18;7
S20;11PM100SL19;10
S20;11SV080I19;6
S20;15DO050VA5;8
S20;15GM065L20;19
S20;17AS500P19;10
S20;17MC200N18;5
S20;17SH075G18;9
S20;17SH500N18;6
S20;20ET075OC20;7
S20;20MP030H20;6
S20;24EDT050C21;7
S20;24EDT10C21;27
S20;24ET050R18;10
S20;24MA030RA19;10
S20;24MA075P15;19
S20;24RO010R18;10
S20;24SA050R18;19
S20;27DB015I20;12
S20;27DE015I13US;10
S20;27TS001I20;225
S20;27TS050I20;24
S20;29MA075A16;5
S20;29SA050A17;9
S20;38EV075A18;6
S20;38UV030A18;6
S20;49HD035A15;110
S20;52AS006N18;68
S20;52AS006P19;137
S20;52CL0015K18;135
S20;52CP006K17;171
S20;52SGEBAG19;324
S20;52SP001I19;239
S20;01CL050K18;10
S20;01RC300KB20;8
S20;11BP100I19;7
S20;11BR100A20;2
S20;11EP050H19;10
S20;11EP090H19;12
S20;11LC250H19;15
S21000;15CL150VM20H;8
S21000;17AS250N18;6
S21000;17IC200D15;1
S21000;18GD250TL17ET;14
S21000;20ET075CD20;10
S21000;24GD250CB4;16
S21000;24GD500R19;9
S21000;24MA030RV19;10
S21000;27DC050I20;20
S21000;27DS030I20;12
S21000;27EV200I19;11
S21000;38BV050A19;15
S21000;49LD030I20;9
S21000;49PFCWC21;12
S21000;52DS001I20;123
S21000;52HD006A18;411
S21000;01RL500K20;21
S21000;01SL300LV20;8
S21000;11BO100CS19;17
S21000;11GD050A18;15
S21000;11PM100SL19;8
S21000;11SV080I19;8
S21000;15DO050VA5;12
S21000;15GM065L20;28
S21000;15GM065VB20;60
S21000;17AS500P19;8
S21000;17MC200N18;8
S21000;17SH075G18;1
S21000;17SH500N18;6
S21000;20ET075OC20;12
S21000;20MP030H20;8
S21000;24EDT050C21;18
S21000;24EDT10C21;34
S21000;24ET050R18;10
S21000;24MA030RA19;10
S21000;24MA075P15;12
S21000;24RO010R18;10
S21000;24SA050R18;10
S21000;27DB015I20;20
S21000;27DE015I13US;16
S21000;27TS001I20;347
S21000;27TS050I20;56
S21000;29MA075A16;5
S21000;29SA050A17;11
S21000;38EV075A18;10
S21000;38UV030A18;15
S21000;49HD035A15;144
S21000;52AS006P19;389
S21000;52K20BIM20;2
S21000;52OR001I19;165
S21000;52DB001I20;152
S21000;98BBSH050AR2;184
S21000;52CL0015K18;76
S29000;11EP050H19;20
S29000;11EP090H19;13
S29000;11LC250H19;18
S29000;11MW200I19;6
S29000;11MWC200I19;8
S29000;11PEP050I20;9
S29000;15GD250VB17;15
S29000;15SA070VB6;19
S29000;15SH250VA17;12
S29000;17HR100G13;27
S29000;17MC200G18;15
S29000;17SH300G18;11
S29000;18BI030TL17ET;20
S29000;20ET010CD19;8
S29000;20FE050H20;4
S29000;20SA050O20;13
S29000;24EF050R18;2
S29000;24GC150C21;18
S29000;27HS030I18;16
S29000;29GE200A18;27
S29000;49OR005I18;14
S29000;52SH006FV21;100
S29000;01MA075K18;13
S29000;01SL500VE20;12
S29000;11CF100TR19;10
S29000;11ET050H20;13
S29000;11FAG10TR19;11
S29000;11LH200I19;10
S29000;11SD100CS19;9
S29000;15BA500L16A;12
S29000;15ET100VM20H;4
S29000;17AS075G18;22
S29000;17RC500N18;25
S29000;17SH500FV21;36
S29000;18ET010TL17;8
S29000;24GD075R18;32
S29000;24GM030C21;20
S29000;24LC250R18;15
S29000;24MA030RV19;10
S29000;24MA075R18;18
S29000;24RO010CB4;14
S29000;24VF050R18;12
S29000;27HSR030I16;11
S29000;38WS030A21;24
S29000;01BG070K21;24
S29000;01HDR500K20;35
S29000;01SA100LT16;23
S29000;11BG240DE20H;5
S29000;11SA100H20;14
S29000;15CP250VA5;12
S29000;15ET010VB19;10
S29000;15GD500VB17;27
S15;52DE001I17;212
S27000;52DE001I17;283
S28000;52DE001I17;137
S28000;52LGEBAG19;124
S28000;98BBSH050AR2;69
S15;49DC008I20;2
S27000;49DC008I20;2
S28000;49DC008I20;10
S15;49MS008I20;23
S27000;49MS008I20;18
S28000;49MS008I20;8
S15;52K20BIM20;2
S15;52LC006A18;64
S27000;52LC006A18;174
S15;52MGEBAG19;56
S27000;52MGEBAG19;41
S28000;52MGEBAG19;800
S15;01PR015R19;12
S27000;01PR015R19;18
S28000;01PR015R19;15
S15;01SA250LV20;23
S27000;01SA250LV20;6
S28000;01SA250LV20;21
S15;11BH050A18;12
S27000;11BH050A18;10
S28000;11BH050A18;13
S28000;11LB000TR19;10
S27000;11PM100DE20H;4
S28000;11PM100DE20H;6
S15;11PM100SH19;8
S27000;11PM100SH19;10
S28000;11PM100SH19;7
S15;15LC250VA5;8
S27000;15LC250VA5;8
S28000;15LC250VA5;11
S15;15MA030VA5;21
S27000;15MA030VA5;13
S28000;15MA030VA5;18
S15;15MA075VB4;12
S27000;15MA075VB4;11
S28000;15MA075VB4;18
S15;17AF100G20;2
S28000;17AF100G20;10
S27000;17MM050A20;10
S28000;17MM050A20;16
S15;17RS500E20;16
S27000;17RS500E20;11
S28000;17RS500E20;12
S15;24GD500R19;4
S15;27DB015I16;5
S27000;27DB015I16;1
S15;27DL200I20;8
S27000;27DL200I20;9
S24000;52CP006K17;246
S90000;52CP006K17;150
S24000;52SGEBAG19;518
S90000;52SGEBAG19;293
S24000;52SP001I19;63
S90000;52SP001I19;153
S90000;01CL050K18;1
S24000;01RC300KB20;8
S90000;01RC300KB20;1
S24000;11BP100I19;8
S90000;11BP100I19;10
S24000;11BR100A20;10
S90000;11BR100A20;16
S24000;11EP050H19;7
S90000;11EP050H19;9
S24000;11EP090H19;8
S90000;11EP090H19;9
S24000;11LC250H19;10
S90000;11LC250H19;23
S24000;11MW200I19;5
S90000;11MW200I19;3
S24000;11MWC200I19;8
S24000;11PEP050I20;6
S90000;11PEP050I20;6
S24000;15GD250VB17;13
S90000;15GD250VB17;11
S24000;15SA070VB6;10
S90000;15SA070VB6;1
S24000;15SH250VA17;14
S90000;15SH250VA17;3
S24000;17HR100G13;18
S24000;17MC200G18;12
S24000;17SH300G18;13
S90000;17SH300G18;19
S24000;18BI030TL17ET;38
S90000;18BI030TL17ET;9
S24000;20ET010CD19;5
S90000;20ET010CD19;4
S24000;20ET010HC19;5
S24000;20FE050H20;5
S90000;20FE050H20;8
S24000;20SA050O20;8
S90000;20SA050O20;10
S24000;24EF050R18;3
S90000;24EF050R18;6
S24000;24GC150C21;12
S90000;24GC150C21;9
S24000;27HS030I18;10
S90000;27HS030I18;6
S24000;29GE200A18;12
S90000;49BF2NO20;83
S90000;49BM010K19;10
S90000;49MA010H19H;5
S10;17SH075FV21;10
S10;17SH300N18;8
S10;18ET090TL17;5
S10;18SA075TL17ET;6
S10;20ET075HC20;8
S10;24GD250C21;24
S10;27BY015I19;9
S10;27DH030I17A;1
S10;29RC200A19;1
S10;49DC008I20;4
S10;49MS008I20;5
S10;52LC006A18;219
S10;52MGEBAG18;181
S10;52MGEBAG19;300
S10;52MMBANO20;115
S10;98BBSH050AR2;35
S10;01RL500K20;12
S10;01SL300LV20;8
S10;11BO100CS19;12
S10;11GD050A18;8
S10;11GD050H19;77
S10;11PM100SL19;13
S10;11SV080I19;6
S10;15DO050VA5;8
S10;15GM065L20;13
S10;15GM065VB20;17
S10;17AS500P19;9
S10;17MC200N18;7
S10;17SH500N18;4
S10;20ET075OC20;6
S10;20MP030H20;7
S10;24EDT050C21;15
S10;24EDT10C21;24
S10;24ET050R18;10
S10;24MA030RA19;14
S10;24MA075P15;27
S10;24RO010R18;12
S10;24SA050R18;12
S10;27DB015I20;9
S10;27DE015I13US;11
S10;27TS001I20;188
S10;27TS050I20;30
S10;29SA050A17;10
S10;38UV030A18;11
S10;49HD035A15;134
S10;52AS006N18;2
S10;52AS006P19;232
S10;52CL0015K18;123
S10;52CP006K17;126
S10;52SGEBAG19;472
S10;52SP001I19;179
S10;01CL050K18;2
S10;01RC300KB20;5
S10;11BP100I19;10
S29000;15MA030VB3;17
S29000;17AS250G18;12
S29000;17AS500G18;20
S29000;17BD125G14;19
S29000;17DO050F13;14
S29000;17RC500G18;47
S29000;17SH300D15;6
S29000;17SH300P19;14
S29000;17SH500G18;28
S29000;20DO130HC20;12
S29000;20GD250CD20;24
S29000;24BR050CB6;15
S29000;24GD250R18;9
S29000;24GD250R20;20
S29000;24MA030CB4;17
S29000;27CP050I19;15
S29000;27HCR050I16;17
S29000;27SP030I19;10
S29000;29RH500A15;91
S29000;49CP020K18;18
S29000;49DH004I20;36
S29000;52LGENSA18;95
S29000;01BV050K16;10
S29000;01CL050K21;17
S29000;49MA010A17;3
S29000;24LC250R20;18
S29000;52CV0015K18;6
S29000;49TC1NO20;2
S29000;49SH035E20;60
S29000;01CM500K20;14
S29000;01LC250K17;14
S29000;01SA050KV20;30
S29000;11SD100SL19;8
S29000;15CC150VA19;4
S29000;15ET100VB3;10
S29000;17AS500E19;18
S29000;18ET050TL17;9
S29000;20AR075H16;3
S29000;20DO050O20;12
S29000;24MA030RE19;10
S29000;27DC065I21;9
S29000;27MP150I20;10
S29000;29EC200A13;10
S29000;29HD250A15;29
S29000;29LC200A14US;36
S29000;38WC050A21;20
S29000;49CM030I19;24
S29000;49TOTMC20;15
S29000;52AS006E19;153
S29000;52HS001I17;178
S29000;52HS004A18;124
S29000;01CL200K17;28
S29000;01HN0075K19;12
S20;11MW200I19;8
S20;11MWC200I19;8
S20;11PEP050I20;12
S20;15GD250VB17;9
S20;15SA070VB6;4
S20;15SH250VA17;9
S20;17HR100G13;9
S20;17MC200G18;8
S20;17SH300G18;8
S20;18BI030TL17ET;16
S20;20ET010CD19;4
S20;20FE050H20;5
S20;20SA050O20;20
S20;24GC150C21;12
S20;27HS030I18;8
S20;52CV0015K18;4
S20;01HDR500K20;6
S20;01SA100LT16;8
S20;11BG240DE20H;2
S20;11SA100H20;9
S20;15CP250VA5;1
S20;15ET010VB19;3
S20;15GD500VB17;14
S20;15MA030VB3;18
S20;17AS250G18;8
S20;17AS500G18;5
S20;17BD125G14;7
S20;17DO050F13;15
S20;17RC500G18;18
S20;17SH300D15;6
S20;17SH300P19;8
S20;17SH500G18;6
S20;20DO130HC20;8
S20;20GD250CD20;14
S20;24BR050CB6;9
S20;24GD250R18;16
S20;24MA030CB4;17
S20;27CP050I19;10
S20;27HCR050I16;6
S20;27SP030I19;10
S20;49CP020K18;38
S20;49DH004I20;29
S20;49POUID20;5
S20;49POUIS19;15
S20;52LGENSA18;183
S20;52WC0015A19;82
S20;01MA075K18;11
S20;01SL500VE20;10
S20;11CF100TR19;12
S20;11ET050H20;8
S20;11FAG10TR19;6
S20;11LH200I19;8
S20;11SD100CS19;10
S20;15ET100VM20H;4
S28000;27DL200I20;10
S28000;27MI150I17;2
S15;27MQ065I15A;3
S27000;27MQ065I15A;8
S28000;27MQ065I15A;4
S15;27RM300I20;19
S27000;27RM300I20;9
S28000;27RM300I20;15
S15;29HD500A15;11
S27000;29HD500A15;31
S28000;29HD500A15;59
S15;29LC200A21C;3
S27000;29LC200A21C;9
S15;29VC240A16;13
S27000;29VC240A16;4
S28000;29VC240A16;21
S15;52DB001I20;206
S27000;52DB001I20;274
S28000;52DB001I20;170
S15;52OR001I19;133
S27000;52OR001I19;401
S28000;52OR001I19;371
S27000;24SA050R18;6
S28000;24SA050R18;31
S15;27DB015I20;9
S27000;27DB015I20;16
S28000;27DB015I20;13
S15;27DE015I13US;10
S27000;27DE015I13US;5
S28000;27DE015I13US;11
S15;27TS001I20;216
S27000;27TS001I20;208
S28000;27TS001I20;607
S15;27TS050I20;36
S27000;27TS050I20;28
S28000;27TS050I20;48
S15;29MA075A16;6
S27000;29MA075A16;5
S28000;29MA075A16;12
S15;29SA050A17;13
S27000;29SA050A17;8
S28000;29SA050A17;12
S15;38EV075A18;8
S27000;38EV075A18;6
S28000;38EV075A18;12
S15;38UV030A18;14
S27000;38UV030A18;9
S28000;38UV030A18;16
S15;49CL008K21;1
S15;49HD035A15;7
S27000;49HD035A15;91
S28000;49HD035A15;101
S15;52AS006P19;165
S29000;01SA100LV20;24
S29000;01SL0045K13;43
S29000;11LD200I19;12
S29000;11SD100SH19;8
S29000;17AS250FV21;18
S29000;17HI100G19;26
S29000;17SE100FV21;30
S29000;17SH500E19;23
S29000;17SH500P19;29
S29000;20GD250OC20;22
S29000;20SA050CD20;15
S29000;27DH015I20;27
S29000;27HC050I18;14
S29000;29HS100A18;17
S29000;49MA010K16;5
S29000;52DC0015I20;128
S29000;52HF004K17;225
S29000;52RC0015A18;68
S29000;52SH006N18;163
S29000;52SH006P19;227
S29000;01BM050K19;8
S29000;01LT300K20;16
S29000;01MR030K14;13
S29000;01RV500K20;18
S29000;01SE125K21;16
S29000;11CD050A18;9
S29000;15GN300L11;27
S29000;15MA030L11;16
S29000;15MA075L11;19
S29000;17HI001G19;149
S29000;20AR075O20;12
S29000;24ET075CB4;10
S29000;24LC250RC20H;6
S29000;27OR030I19;29
S29000;29BP100A18;12
S29000;38EC015A18;10
S29000;49AF015G20;60
S29000;52CP0015I19;179
S29000;52DC0015I17;82
S29000;52HV001K18;30
S29000;52MA003K16A;102
S29000;01BK010K14;15
S29000;01BL012K18;18
S29000;01CM300K20;14
S29000;01CP100K21;9
S29000;01EC200K17;15
S29000;11BG140CS19;8
S29000;11LP040028M19;12
S29000;11SA100H19;12
S29000;15HE005L14;9
S29000;15LC250L14;14
S29000;17AS500N18;11
S29000;24BR050C21;11
S90000;49MA010P15;1
S24000;49SH035E20;60
S90000;49TC1NO20;1
S90000;49TC2NO19;26
S90000;49TOWSA19;19
S90000;49TOWVE18;56
S24000;52CV0015K18;85
S90000;52CV0015K18;1
S90000;52SH006F17;63
S24000;52SH006FV21;100
S90000;49POUID20;3
S24000;49POUIS19;28
S90000;49POUIS19;31
S24000;52LGENSA18;54
S90000;52LGENSA18;163
S90000;52WC0015A18;97
S24000;52WC0015A19;112
S24000;01MA075K18;13
S90000;01MA075K18;11
S24000;01SL500VE20;8
S90000;01SL500VE20;4
S24000;11CF100TR19;11
S90000;11CF100TR19;9
S24000;11ET050H20;8
S90000;11ET050H20;6
S24000;11FAG10TR19;11
S90000;11FAG10TR19;9
S24000;11LH200I19;9
S90000;11LH200I19;3
S24000;11SD100CS19;8
S90000;11SD100CS19;6
S24000;15BA500L16A;9
S90000;15BA500L16A;3
S24000;15ET100VM20H;2
S90000;15RS500VB3;13
S24000;17AS075G18;11
S90000;17AS075G18;18
S24000;17RC500N18;8
S90000;17RC500N18;4
S24000;17SE125D15;17
S90000;17SE125D15;1
S24000;17SH500FV21;24
S24000;18ET010TL17;15
S90000;18ET010TL17;7
S24000;20ET100OC13;4
S24000;20GD250OC16;5
S90000;24ET050C19;2
S90000;24ET075P15;2
S24000;24GM030C21;15
S90000;24GM030C21;26
S24000;24LC250R18;4
S90000;24LC250R18;7
S24000;24LC250R20;15
S21000;52CP006K17;180
S21000;52SGEBAG19;384
S21000;52SP001I19;129
S21000;01CL050K18;8
S21000;01RC300KB20;6
S21000;11BP100I19;8
S21000;11BR100A20;6
S21000;11EP050H19;12
S21000;11EP090H19;16
S21000;11LC250H19;8
S21000;11MW200I19;8
S21000;11MWC200I19;8
S21000;11PEP050I20;10
S21000;15GD250VB17;13
S21000;15SA070VB6;8
S21000;15SH250VA17;10
S21000;17HR100G13;15
S21000;17MC200G18;10
S21000;17SH300G18;15
S21000;18BI030TL17ET;20
S21000;20FE050H20;8
S21000;20SA050O20;12
S21000;24EF050R18;4
S21000;24GC150C21;12
S21000;27HS030I18;6
S21000;29GE200A18;14
S21000;49BF2NO20;49
S21000;49SH035E20;50
S21000;52CV0015K18;307
S21000;52SH006FV21;100
S21000;01BG070K21;24
S21000;01HDR500K20;10
S21000;01SA100LT16;18
S21000;11SA100H20;55
S21000;15CP250VA5;5
S21000;15ET010VB19;7
S21000;15GD500VB17;12
S21000;15MA030VB3;20
S21000;17AS250G18;12
S21000;17AS500G18;14
S21000;17BD125G14;6
S21000;17DO050F13;11
S21000;17RC500G18;36
S21000;17SH300D15;7
S21000;17SH300P19;9
S21000;17SH500G18;18
S21000;20DO130HC20;8
S21000;20GD250CD20;11
S21000;24BR050CB6;15
S21000;24GD250R18;10
S21000;24GD250R20;13
S21000;24MA030CB4;30
S21000;27CP050I19;14
S10;11BR100A20;2
S10;11EP050H19;5
S10;11EP090H19;5
S10;11LC250H19;24
S10;11MW200I19;12
S10;11MWC200I19;8
S10;11PEP050I20;9
S10;15GD250VB17;14
S10;15SA070VB6;7
S10;15SH250VA17;7
S10;17HR100G13;11
S10;17MC200G18;5
S10;17SH300G18;17
S10;18BI030TL17ET;26
S10;20ET010CD19;3
S10;20FE050H20;6
S10;20SA050O20;8
S10;24EF050R18;5
S10;24GC150C21;12
S10;27HS030I18;5
S10;29GE200A18;10
S10;49OR005I18;3
S10;52CV0015K18;159
S10;01MA075K18;17
S10;01SL500VE20;9
S10;11CF100TR19;6
S10;11ET050H20;5
S10;11FAG10TR19;6
S10;11LH200I19;16
S10;11SD100CS19;12
S10;15BA500L16A;11
S10;15ET100VM20H;4
S10;17AS075G18;10
S10;17RC500N18;8
S10;17SE125D15;4
S10;18ET010TL17;12
S10;24GM030C21;6
S10;24LC250R18;18
S10;24RO010CB4;10
S10;24VF050R18;8
S10;27HSR030I16;8
S10;49OR005I19;12
S10;52KTPPLV17;1
S10;52MC006N18;30
S10;52MMBPNO20;2
S10;01HDR500K20;15
S10;01SA100LT16;18
S10;11SA100H20;13
S10;15CP250VA5;3
S10;15ET010VB19;8
S10;15GD500VB17;10
S10;15MA030VB3;16
S10;17AS250G18;11
S10;17AS500G18;14
SLM001;01PI150K18;12
SLM001;17AS250N18;10
SLM001;17IC200D15;11
SLM001;24GD250CB4;12
SLM001;27DS030I20;10
SLM001;27MP150I13;2
SLM001;38BV050A17;7
SLM001;49LD030I20;17
SLM001;52HD006A18;303
SLM001;98BBAS035AR3;81
SLM001;15LC250VA5;19
SLM001;15MA030VA5;16
SLM001;27MI150I17;1
SLM001;27RM300I20;20
SLM001;29HD500A15;129
SLM001;49ET007R18;14
SLM001;52DB001I20;10
SLM001;52OR001I19;472
SLM001;01MA150K19H;2
SLM001;15LM300L11;37
SLM001;17AS250E19;19
SLM001;17RS500G19;139
SLM001;17RS500N18;10
SLM001;17SH300N18;8
SLM001;18ET090TL17;14
SLM001;20GR150CD15;1
SLM001;49CRM1NO19;19
SLM001;49DC008I20;9
SLM001;52LC006A18;364
SLM001;01SA150H19H;2
SLM001;10CACLA20;2
SLM001;11GD050A18;23
SLM001;15GM065L20;24
SLM001;17MC200N18;17
SLM001;17SH075G18;16
SLM001;17SH500N18;31
SLM001;24MA075P15;41
SLM001;27DE015I13US;22
SLM001;27TS001I20;846
SLM001;27TS050I20;20
SLM001;49CL008K15;19
SLM001;49HD035A15;287
SLM001;49MA010L16;150
SLM001;52CLASANO20;2
SLM001;01CL050K18;15
SLM001;15GD250VB17;11
SLM001;17HR100G13;16
SLM001;17MC200G18;10
SLM001;17SH300G18;18
SLM001;49BM010K19;29
SLM001;49ET010V13;14
SLM001;49MA010H19H;13
SLM001;49MA010P15;16
S27000;52AS006P19;263
S28000;52AS006P19;152
S15;52CL0015K18;186
S27000;52CL0015K18;162
S28000;52CL0015K18;148
S27000;52CLASANO19;6
S15;52CP006K17;131
S27000;52CP006K17;372
S28000;52CP006K17;5
S15;52SGEBAG19;188
S27000;52SGEBAG19;556
S28000;52SGEBAG19;169
S15;52SP001I19;170
S27000;52SP001I19;196
S28000;52SP001I19;73
S15;27HS030I18;8
S27000;27HS030I18;7
S28000;27HS030I18;8
S15;29GE200A18;26
S27000;29GE200A18;11
S28000;29GE200A18;22
S15;49BF2NO20;1
S15;52CV0015K18;104
S27000;52CV0015K18;128
S28000;52CV0015K18;284
S15;27HCR050I16;8
S27000;27HCR050I16;6
S28000;27HCR050I16;8
S15;27SP030I19;9
S27000;27SP030I19;8
S28000;27SP030I19;7
S15;29RH500A15;34
S27000;29RH500A15;32
S28000;29RH500A15;53
S15;49CP020K18;53
S27000;49CP020K18;35
S28000;49CP020K18;93
S15;49DH004I20;40
S27000;49DH004I20;30
S28000;49DH004I20;15
S28000;49DRANO19;19
S15;49POUID20;5
S27000;49POUID20;3
S28000;49POUID20;4
S15;49POUIS19;29
S28000;49POUIS19;24
S15;52LGENSA18;65
S27000;52LGENSA18;79
S28000;52LGENSA18;27
S28000;52MOCOL216;1
S15;52WC0015A19;33
S27000;52WC0015A19;356
S28000;52WC0015A19;118
S20;17AS075G18;13
S20;17RC500N18;9
S20;17SE125D15;5
S20;18ET010TL17;9
S20;24GM030C21;16
S20;24LC250R18;11
S20;24MA075R18;7
S20;24RO010CB4;11
S20;24VF050R18;6
S20;27HSR030I16;9
S20;49OR005I19;8
S20;52MC006N18;18
S20;01BV050K16;9
S20;01CL050K21;12
S20;01LC250K17;1
S20;01SA050KV20;12
S20;11SD100SL19;6
S20;15CC150VA19;8
S20;15ET100VB3;3
S20;17AS500E19;9
S20;18ET050TL17;8
S20;20DO050O20;6
S20;24MA030RE19;6
S20;27DC065I21;5
S20;27MP150I20;11
S20;29EC200A13;10
S20;29HD250A15;32
S20;29LC200A14US;24
S20;49CM030I19;10
S20;49MR010K14;27
S20;49TOTMC20;14
S20;52AS006E19;164
S20;52HS001I17;140
S20;52HS004A18;178
S20;52MIGEBAG19;161
S20;52MOCOL316;1
S20;98BBGD050VE2;29
S20;01BM050K19;6
S20;01LT300K20;9
S20;01MR030K14;13
S20;01RV500K20;5
S20;01SE125K21;13
S20;11CD050A18;9
S20;15GN300L11;10
S20;15MA030L11;18
S20;15MA075L11;12
S20;17HI001G19;98
S20;20AR075O20;8
S20;24ET075CB4;10
S20;27OR030I19;33
S20;29BP100A18;2
S20;38EC015A18;6
S20;49DB004I20;5
S20;52CP0015I19;141
S29000;24LC250C21;2
S29000;24MA030R18;19
S29000;24MA030S6;20
S29000;24MA150R19;2
S29000;27MI150I20;9
S29000;29ASH240A20;15
S29000;29HD075A15;10
S29000;49POU1VE20;32
S29000;52SGENSA18;104
S29000;01BM150K19;5
S29000;01CMR500K20;20
S29000;01CV050K15;9
S29000;01PI030K18;11
S29000;01SL500LV20;12
S29000;11CM030H20;19
S29000;11ET010H20;5
S29000;11SP200SH19;10
S29000;15GC150VBL20;5
S29000;15LC250VB3;20
S29000;15MF075VM20H;15
S29000;15RC500VB17;59
S29000;17AS250P19;13
S29000;17RS500FV21;24
S29000;17SH300E19;14
S29000;20SA050HC20;15
S29000;24SA050CB6;8
S29000;27BP050I19;12
S29000;27DC030I20;23
S29000;27DH030I20;20
S29000;27OR075I20;4
S29000;29BP100A19;10
S29000;38MI150A18;8
S29000;52AS006G18;141
S29000;52DE001I17;193
S29000;52TS001R21;100
S29000;98BBDF015IM0;33
S29000;01HF100K17;11
S29000;01LH300KB19;16
S29000;01MA150K18;26
S29000;01SA250VE16;34
S29000;11GD250H19;13
S29000;11GD250H20;14
S29000;11LP080028M19;6
S29000;11SP200SI19;12
S29000;11SP200SL19;3
S29000;15CC150VB19;3
S29000;15ET100VA5;9
S29000;15GD500VA20;12
S29000;15GM280VB20;15
S29000;15RG500L14;32
S29000;20DO075CD20;12
S29000;24BR050R19;10
S29000;24LC250S6;1
S21000;27HCR050I16;8
S21000;27SP030I19;10
S21000;29RH500A15;41
S21000;49CP020K18;47
S21000;49DH004I20;50
S21000;49POUID20;5
S21000;49POUIS19;13
S21000;52LGENSA18;69
S21000;52WC0015A19;188
S21000;01MA075K18;5
S21000;01SL500VE20;8
S21000;11CF100TR19;22
S21000;11ET050H20;15
S21000;11FAG10TR19;7
S21000;11LH200I19;10
S21000;11SD100CS19;9
S21000;15BA500L16A;8
S21000;15ET100VM20H;4
S21000;17AS075G18;2
S21000;17RC500N18;8
S21000;17SH500FV21;24
S21000;18ET010TL17;10
S21000;24GM030C21;41
S21000;24LC250R18;6
S21000;24LC250R20;12
S21000;24MA075R18;15
S21000;24RO010CB4;10
S21000;24VF050R18;6
S21000;27HSR030I16;8
S21000;38WS030A21;18
S21000;49OR005I19;102
S21000;52OR001I18;355
S21000;01BV050K16;8
S21000;01CL050K21;12
S21000;01CM500K20;10
S21000;01LC250K17;10
S21000;11SD100SL19;10
S21000;15CC150VA19;4
S21000;15ET100VB3;7
S21000;17AS075E19;49
S21000;17AS500E19;13
S21000;18ET050TL17;8
S21000;20DO050O20;14
S21000;20ET075HC6;2
S21000;24MA030RE19;10
S21000;27DC065I21;1
S21000;27MP150I20;11
S21000;29EC200A13;9
S21000;29HD250A15;25
S21000;29LC200A14US;28
S21000;38WC050A21;15
S21000;49CM030I19;8
S21000;49TOTMC20;14
S28000;49OR005I19;19
S15;52K10BLAV20;8
S15;49MR010K14;23
S27000;49MR010K14;21
S28000;49MR010K14;28
S15;49TOTMC20;15
S27000;49TOTMC20;15
S28000;49TOTMC20;16
S15;52AS006E19;103
S27000;52AS006E19;183
S28000;52AS006E19;42
S15;52HS001I17;284
S27000;52HS001I17;197
S28000;52HS001I17;261
S15;52HS004A18;79
S27000;52HS004A18;87
S28000;52HS004A18;293
S15;52MIGEBAG19;46
S27000;52MIGEBAG19;21
S28000;52MIGEBAG19;77
S15;98BBGD050VE2;47
S27000;98BBGD050VE2;28
S28000;98BBGD050VE2;13
S28000;01BL012H19H;1
S15;01BM050K19;11
S27000;01BM050K19;5
S28000;01BM050K19;12
S27000;01LT300K20;3
S28000;01LT300K20;11
S15;01MR030K14;22
S27000;01MR030K14;22
S28000;01MR030K14;33
S15;01RV500K20;6
S27000;01RV500K20;10
S28000;01RV500K20;19
S15;01SE125K21;25
S27000;01SE125K21;16
S28000;01SE125K21;9
S15;10KTMC00M20;1
S15;11CD050A18;10
S27000;11CD050A18;6
S28000;11CD050A18;14
S15;15GN300L11;3
S27000;15GN300L11;8
S28000;15GN300L11;9
S15;15MA030L11;26
S27000;15MA030L11;10
S28000;15MA030L11;21
S15;15MA075L11;28
S27000;15MA075L11;9
S28000;15MA075L11;18
S15;17AS075P19;3
S15;17HI001G19;172
S10;17BD125G14;7
S10;17DO050F13;12
S10;17RC500G18;15
S10;17SH300D15;4
S10;17SH300P19;10
S10;17SH500G18;12
S10;20DO130HC20;4
S10;20GD250CD20;34
S10;24BR050CB6;14
S10;24GD250R18;7
S10;24MA030CB4;27
S10;24MA075R18;9
S10;27CP050I19;1
S10;27HCR050I16;8
S10;27SP030I19;8
S10;29RH500A15;44
S10;49CP020K18;10
S10;49DH004I20;14
S10;49POUID20;5
S10;49POUIS19;33
S10;52LGENSA18;53
S10;52WC0015A18;46
S10;52WC0015A19;8
S10;01BV050K16;6
S10;01CL050K21;12
S10;01CM500K20;7
S10;01LC250K17;16
S10;11SD100SL19;9
S10;15CC150VA19;3
S10;15ET100VB3;9
S10;17AS500E19;8
S10;18ET050TL17;6
S10;20DO050O20;14
S10;24MA030RE19;15
S10;27DC065I21;11
S10;27MP150I20;13
S10;29EC200A13;14
S10;29HD250A15;27
S10;29LC200A14US;19
S10;49CM030I19;10
S10;49MR010K14;33
S10;49TOTMC20;15
S10;52AS006E19;246
S10;52HS001I17;332
S10;52HS004A18;150
S10;52MIGEBAG19;96
S10;98BBGD050VE2;26
S10;01CL200K17;18
S10;01HN0075K19;8
S10;01SA100LV20;16
S10;01SL0045K13;15
S10;11LD200I19;8
S10;11SD100SH19;5
S10;17HI100G19;9
S10;17SH500E19;7
S90000;24MA030RV19;12
S24000;24MA075R18;22
S90000;24MA075R18;11
S24000;24RO010CB4;10
S90000;24RO010CB4;7
S24000;24VF050R18;13
S90000;24VF050R18;3
S24000;27HSR030I16;7
S90000;27HSR030I16;6
S24000;38WS030A21;18
S90000;49BAGVE18;3
S90000;49BAGVE19;1
S90000;49BO015R14;12
S90000;49GD035R14;5
S90000;49HS015A18;13
S24000;49MA010A17;7
S24000;49OR005I19;7
S90000;49OR005I19;124
S90000;49TBL2CH19;10
S90000;49WS004A18;9
S90000;52STINO19;1
S90000;52STINO20;1
S24000;01BV050K16;8
S90000;01BV050K16;8
S24000;01CL050K21;11
S90000;01CL050K21;14
S24000;01CM500K20;15
S90000;01CM500K20;3
S24000;01LC250K17;3
S24000;01SA050KV20;18
S90000;01SA050KV20;12
S90000;11GN040A19;5
S24000;11SD100SL19;7
S90000;11SD100SL19;9
S24000;15CC150VA19;3
S90000;15CC150VA19;2
S24000;15ET100VB3;8
S90000;15ET100VB3;7
S90000;15LC075L15;10
S90000;17AS075E19;80
S24000;17AS500E19;9
S90000;17AS500E19;13
S24000;17HE010R14;2
S90000;17RC500F18;1
S90000;17SH075N18;18
S24000;18ET050TL17;8
S90000;18ET050TL17;6
S90000;20AR075H16;1
S24000;20DO050O20;8
S90000;20DO050O20;9
S24000;20ET075HC6;4
S24000;24MA030RE19;12
S90000;24MA030RE19;9
SLM001;49TC1NO20;17
SLM001;01CL050K15;4
SLM001;01MA075K18;41
SLM001;15BA500L16A;10
SLM001;17AS075G18;12
SLM001;18ET010TL17;12
SLM001;24RO010CB4;3
SLM001;49HS015A18;39
SLM001;49MA010A17;398
SLM001;52OR001I18;953
SLM001;15LC070VB5;17
SLM001;15MA030VB3;32
SLM001;17AS250G18;22
SLM001;17AS500G18;15
SLM001;17RC500G18;23
SLM001;17SH300D15;10
SLM001;17SH300P19;10
SLM001;17SH500G18;15
SLM001;24BR050CB6;9
SLM001;24LC075CB5;23
SLM001;24MA030CB4;36
SLM001;27CP050I19;15
SLM001;27HCR050I16;1
SLM001;29RH500A15;217
SLM001;49CP020K18;50
SLM001;49DH004I20;27
SLM001;49MA010K19H;13
SLM001;49MA010K20DTS;60
SLM001;49MF010W19H;13
SLM001;49POUID20;92
SLM001;01LC250K17;23
SLM001;17AS500E19;14
SLM001;17SH075N18;12
SLM001;18ET050TL17;18
SLM001;27MP150I20;20
SLM001;29EC200A13;4
SLM001;29HD250A15;134
SLM001;29LC200A14US;17
SLM001;49CM030I19;5
SLM001;49ED030K17;18
SLM001;49MA010CB4;122
SLM001;49MR010K14;68
SLM001;49POU2VE20;80
SLM001;49TRARO15;42
SLM001;52AS006E19;56
SLM001;01BL012K15;4
SLM001;17AS250F17;1
SLM001;17SH500E19;39
SLM001;17SH500P19;15
SLM001;24GD075CB5;94
SLM001;27DH015I20;49
SLM001;29ASH075A20;61
SLM001;29HS100A18;18
S10;17SH500P19;7
S10;20SA050CD20;10
S10;24LC250P15A;3
S10;27DH015I20;12
S10;27HC050I18;7
S10;29HS100A18;12
S10;49MA010K16;31
S10;52DC0015I20;218
S10;52HF004K17;106
S10;52MMBYNO20;2
S10;52RC0015A18;117
S10;52SH006N18;141
S10;52SH006P19;134
S10;01BM050K19;6
S10;01LT300K20;4
S10;01MR030K14;16
S10;01RV500K20;13
S10;01SE125K21;17
S10;11CD050A18;7
S10;15GN300L11;6
S10;15MA030L11;25
S10;15MA075L11;15
S10;17HI001G19;85
S10;20AR075O20;3
S10;24ET075CB4;7
S10;27OR030I19;37
S10;38EC015A18;10
S10;49GD035CB5;41
S10;52CP0015I19;173
S10;52HV001K18;44
S10;52MA003K16A;200
S10;52ORT001I18;145
S10;01BK010K14;16
S10;01BL012K18;12
S10;01CM300K20;8
S10;01CP100K21;8
S10;01EC200K17;7
S10;01MA030K21;24
S10;11BG140CS19;7
S10;11LP040028M19;2
S10;11SA100H19;17
S10;15HE005L14;4
S10;15LC250L14;9
S10;17AS500N18;6
S10;24BR050C21;10
S10;24LC250C21;31
S10;24MA030S6;27
S10;24MA150R19;6
S10;27MI150I20;6
S10;29ASH240A20;9
S10;38EV075A18;10
S10;52LABANO20;46
S10;52LGEBAG18;142
S10;52SGENSA18;172
S27000;17HI001G19;187
S28000;17HI001G19;351
S27000;20AR075O20;4
S28000;20AR075O20;15
S15;24ET075CB4;10
S27000;24ET075CB4;8
S28000;24ET075CB4;12
S15;27OR030I19;63
S27000;27OR030I19;52
S28000;27OR030I19;70
S15;29BP100A18;1
S27000;29BP100A18;4
S15;38EC015A18;9
S27000;38EC015A18;6
S28000;38EC015A18;8
S15;49DB004I20;4
S27000;49DB004I20;1
S28000;49DB004I20;16
S28000;49GD035CB5;86
S15;52CP0015I19;127
S27000;52CP0015I19;239
S28000;52CP0015I19;180
S15;52HV001K18;44
S27000;52HV001K18;110
S28000;52HV001K18;186
S27000;52MA003K16A;308
S28000;52MA003K16A;454
S27000;52ORT001I18;89
S15;01CL200K17;10
S27000;01CL200K17;7
S28000;01CL200K17;15
S15;01HN0075K19;8
S27000;01HN0075K19;7
S28000;01HN0075K19;14
S15;01SA100LV20;42
S27000;01SA100LV20;17
S28000;01SA100LV20;32
S15;01SL0045K13;40
S27000;01SL0045K13;34
S28000;01SL0045K13;48
S15;11LD200I19;6
S27000;11LD200I19;3
S28000;11LD200I19;16
S15;11SD100SH19;9
S27000;11SD100SH19;9
S28000;11SD100SH19;7
S15;17HI100G19;9
S27000;17HI100G19;9
S28000;17HI100G19;10
S15;17SH500E19;14
S27000;17SH500E19;11
S28000;17SH500E19;14
S15;17SH500P19;6
S24000;27DC065I21;5
S24000;27MP150I20;9
S90000;27MP150I20;3
S24000;29EC200A13;7
S90000;29EC200A13;1
S24000;29HD250A15;32
S90000;29HD250A15;14
S24000;29LC200A14US;23
S90000;29LC200A14US;11
S24000;38WC050A21;15
S24000;49CM030I19;10
S90000;49CM030I19;57
S90000;49ED030K17;26
S90000;49MA010CB4;79
S90000;49MR010K14;80
S90000;49PO1RE19;5
S90000;49POU2VE20;140
S24000;49TOTMC20;13
S90000;49TOTMC20;3
S24000;52AS006E19;263
S90000;52AS006E19;62
S24000;52HS001I17;117
S24000;52HS004A18;64
S90000;52HS004A18;2
S24000;52MIGEBAG19;256
S90000;52MOCOL316;50
S90000;52TBOM20;28
S24000;98BBGD050VE2;26
S90000;98BBGD050VE2;19
S24000;01CL200K17;7
S90000;01CL200K17;10
S24000;01HN0075K19;12
S24000;01SA100LV20;14
S90000;01SA100LV20;5
S24000;01SL0045K13;41
S24000;11LD200I19;7
S90000;11LD200I19;2
S24000;11SD100SH19;8
S90000;11SD100SH19;9
S24000;17AS250FV21;12
S24000;17HI100G19;8
S24000;17SE100FV21;24
S24000;17SH500E19;17
S90000;17SH500E19;3
S24000;17SH500P19;16
S90000;17SH500P19;17
S24000;20GD250OC20;18
S90000;20GD250OC20;9
S24000;20SA050CD20;8
S90000;20SA050CD20;9
S90000;24GD075CB5;42
S24000;24LC250P15A;1
S90000;24LC250P15A;1
S29000;24MA030RC20H;13
S29000;27DCB060I17;7
S29000;27KTFCAPAC20;10
S29000;27MS050I20;14
S29000;29SE125A21;14
S29000;38RC050A18;12
S29000;38WS030A18;10
S29000;52CD0015A18;95
S29000;52DH001I20;189
S29000;52FP0015I19;92
S29000;52HR004G17;84
S29000;52SH006D17;280
S29000;52SH006E19;177
S29000;01CL200K21;15
S29000;01EN300KB19;31
S29000;01MA030K16;37
S29000;01SA100LV16;3
S29000;01SA250LT20;22
S29000;11CM125I19;10
S29000;11GE075I20;8
S29000;11SD100SI19;8
S29000;17ER075P19;20
S29000;17RS500P19;59
S29000;18LC250TL17ET;15
S29000;24MA030P15;20
S29000;27DF125I17;23
S29000;29HD250A21C;4
S29000;29MA030A17;17
S29000;38FT200A18;11
S29000;52AS006FV21;100
S29000;52DS001I17;130
S29000;52SH006G18;112
S29000;01CL300KB20;8
S29000;01CP200K17;20
S29000;01HD500K20;15
S29000;01SA050KL20;27
S29000;11BG140SL19;8
S29000;11EH150A18;10
S29000;11GN195A18;10
S29000;11SD100DE20H;5
S29000;17AS075FV21;18
S29000;17AS500FV21;36
S29000;17RC500P19;32
S29000;17SH300FV21;18
S29000;17VI100P19;30
S29000;20ET075CD19;3
S29000;20GD250HC20;15
S29000;20HR050H20;5
S29000;24AF050R18;14
S29000;24BL012CB5;12
S29000;24LC250CB4;15
S29000;27DL200I13US;4
S27000;17SH500P19;5
S28000;17SH500P19;16
S15;20GD250OC20;8
S28000;20GD250OC20;19
S15;20SA050CD20;11
S27000;20SA050CD20;4
S28000;20SA050CD20;12
S15;27DH015I20;18
S27000;27DH015I20;13
S28000;27DH015I20;19
S15;27HC050I18;8
S27000;27HC050I18;7
S28000;27HC050I18;8
S27000;29HS100A18;5
S28000;29HS100A18;18
S15;49MA010K16;53
S27000;49MA010K16;31
S28000;49MA010K16;48
S15;52DC0015I20;198
S27000;52DC0015I20;411
S28000;52DC0015I20;91
S27000;52HF004K17;120
S28000;52HF004K17;128
S27000;52RC0015A18;5
S28000;52RC0015A18;76
S15;52SH006N18;177
S27000;52SH006N18;35
S28000;52SH006N18;168
S15;52SH006P19;275
S27000;52SH006P19;353
S28000;52SH006P19;193
S15;01BK010K14;24
S27000;01BK010K14;20
S28000;01BK010K14;26
S15;01BL012K18;13
S27000;01BL012K18;18
S28000;01BL012K18;34
S15;01CM300K20;8
S27000;01CM300K20;7
S28000;01CM300K20;13
S15;01CP100K21;17
S27000;01CP100K21;13
S28000;01CP100K21;14
S15;01EC200K17;9
S27000;01EC200K17;7
S28000;01EC200K17;16
S15;01MA030K21;21
S27000;01MA030K21;4
S28000;01MA030K21;3
S15;11BG140CS19;9
S27000;11BG140CS19;7
S28000;11BG140CS19;9
S15;11LP040028M19;9
S21000;52AS006E19;111
S21000;52HS001I17;246
S21000;52HS004A18;66
S21000;52MIGEBAG19;246
S21000;52WS001A18;57
S21000;98BBGD050VE2;26
S21000;01BM050K19;4
S21000;01LT300K20;15
S21000;01MR030K14;94
S21000;01RV500K20;12
S21000;01SE125K21;22
S21000;11CD050A18;15
S21000;15GN300L11;12
S21000;15MA030L11;20
S21000;15MA075L11;15
S21000;17HI001G19;167
S21000;17SH075E19;49
S21000;20AR075O20;7
S21000;24ET075CB4;10
S21000;27OR030I19;29
S21000;38EC015A18;6
S21000;49AF015G20;50
S21000;49GD035CB5;176
S21000;52CP0015I19;98
S21000;52HV001K18;157
S21000;52MA003K16A;134
S21000;01CL200K17;8
S21000;01HN0075K19;9
S21000;01SA100LV20;22
S21000;01SL0045K13;20
S21000;11LD200I19;14
S21000;11SD100SH19;8
S21000;17AS250FV21;12
S21000;17HI100G19;10
S21000;17SE100FV21;24
S21000;17SH500E19;18
S21000;17SH500P19;15
S21000;20GD250OC20;14
S21000;20SA050CD20;10
S21000;27DC050I17A;3
S21000;27DH015I20;19
S21000;27HC050I18;7
S21000;29HS100A18;10
S21000;49MA010K16;31
S21000;52DC0015I20;1187
S21000;52SH006N18;166
S21000;52SH006P19;376
S21000;52WM0015A18;81
S21000;J6185;9
S21000;01BK010K14;19
S21000;01BL012K18;12
S21000;01CM300K20;8
S21000;01CP100K21;12
S10;01BM150K19;5
S10;01CMR500K20;7
S10;01CV050K15;7
S10;01PI030K18;9
S10;01SL500LV20;6
S10;11CM030H20;24
S10;11ET010H20;18
S10;11SP200SH19;7
S10;15GC150VBL20;3
S10;15LC250VB3;8
S10;15RC500VB17;20
S10;17AS250P19;11
S10;17SH300E19;11
S10;20SA050HC20;7
S10;24SA050CB6;14
S10;27DC030I20;13
S10;27DH030I20;22
S10;27OR075I20;10
S10;38MI150A18;8
S10;52AS006G18;287
S10;52DE001I17;120
S10;52FT002A18;95
S10;98BBDF015IM0;19
S10;01CM300K11;4
S10;01HF100K17;4
S10;01LH300KB19;6
S10;01MA150K18;30
S10;01SA250VE16;13
S10;11GD250H19;17
S10;11GD250H20;2
S10;11LP080028M19;6
S10;11PM100SI19;5
S10;11SP200SI19;13
S10;11SP200SL19;8
S10;15ET100VA5;6
S10;15GD500VA20;19
S10;15GM280VB20;5
S10;15RG500L14;33
S10;20DO075CD20;20
S10;24BR050R19;7
S10;27DCB060I17;2
S10;27KTFCAPAC20;8
S10;27MS050I20;8
S10;29SE125A21;16
S10;38RC050A18;10
S10;38WS030A18;9
S10;52CD0015A18;199
S10;52DH001I20;133
S10;52FP0015I19;167
S10;52HR004G17;136
S10;52SH006D17;108
S10;52SH006E19;256
S10;98BBHD050A0;56
S10;01CL200K21;10
S24000;27DH015I20;15
S90000;27DS030I17;17
S24000;27HC050I18;8
S90000;27HC050I18;12
S24000;29HS100A18;5
S90000;49BO015CS19;454
S24000;49MA010K16;22
S90000;49MA010K16;140
S90000;49POUVE17;20
S24000;52DC0015I20;261
S90000;52DC0015I20;297
S90000;52DH001I17;2
S90000;52GIF1NO19;1
S90000;52GIF1NO20;1
S90000;52GIF2NO19;1
S90000;52GIF2NO20;1
S24000;52HF004K17;103
S90000;52MIBANO19;100
S90000;52MMBYNO19;85
S24000;52RC0015A18;39
S24000;52SH006N18;5
S90000;52SH006N18;101
S24000;52SH006P19;299
S90000;52SH006P19;55
S90000;52WM0015A18;150
S90000;J6183;25
S24000;J6185;3
S90000;JIMCP16;3
S90000;JIMPN16;104
S90000;01BLKAR19;21
S24000;01BM050K19;10
S90000;01BM050K19;6
S24000;01LT300K20;13
S90000;01MA150K20H;4
S24000;01MR030K14;19
S90000;01MR030K14;11
S24000;01RV500K20;10
S24000;01SE125K21;13
S90000;01SE125K21;13
S90000;10KTMC00M20;8
S24000;11CD050A18;8
S90000;11CD050A18;7
S90000;11GD020A19;11
S90000;11LC050H19;30
S90000;11LC050H20;1
S24000;15GN300L11;9
S24000;15MA030L11;19
S24000;15MA075L11;16
S90000;15MA075L11;5
S90000;17AS075N18;14
S90000;17AS075P19;46
S24000;17HI001G19;128
S90000;17SH075E19;80
SLM001;49BO015CS19;251
SLM001;49MA010K16;139
SLM001;52DC0015I20;39
SLM001;15GN300L11;4
SLM001;15MA030L11;30
SLM001;17AS075N18;12
SLM001;17AS075P19;19
SLM001;24ET075CB4;1
SLM001;27OR030I19;56
SLM001;49GD035CB5;100
SLM001;01BK010K14;9
SLM001;01BL012K18;8
SLM001;15LC250L14;27
SLM001;17AS500N18;27
SLM001;24MA030S6;20
SLM001;29ASH240A20;13
SLM001;29HD075A15;43
SLM001;49CO1NO19;13
SLM001;49HD035K17;35
SLM001;49IC1POU20;118
SLM001;49IC3POU20;31
SLM001;49TOBAGSA20;1
SLM001;52SGEBOX18;51
SLM001;01BM150K19;15
SLM001;17AS250P19;16
SLM001;17SH300E19;13
SLM001;24SA050CB6;2
SLM001;27BP050I19;9
SLM001;27DH030I20;10
SLM001;49BP010K19;20
SLM001;49ET007CB4;66
SLM001;52AS006G18;618
SLM001;98BBDF015IM0;99
SLM001;98BBSH035AR2;81
SLM001;01MA150K18;75
SLM001;15LC150V13;1
SLM001;15RG500L14;10
SLM001;27DCB060I17;10
SLM001;27MS050I20;33
SLM001;29SH075A20;61
SLM001;38WS030A18;24
SLM001;52DH001I20;651
SLM001;52SH006E19;36
SLM001;98BBHD035A0;48
SLM001;01CP050K19H;10
SLM001;01MA030K16;93
SLM001;01SA080K17;1
SLM001;17RS500P19;52
SLM001;17SH075P19;20
SLM001;17SH500D16;15
SLM001;24GD250S6;2
SLM001;24MA030P15;24
SLM001;27DF125I17;20
S20;52HV001K18;47
S20;52MA003K16A;202
S20;01CL200K17;10
S20;01HN0075K19;11
S20;01SA100LV20;17
S20;01SL0045K13;22
S20;11LD200I19;10
S20;11SD100SH19;9
S20;17HI100G19;8
S20;17SH500E19;9
S20;17SH500P19;10
S20;20GD250OC20;12
S20;20SA050CD20;20
S20;27DC050I17A;3
S20;27DH015I20;11
S20;27HC050I18;8
S20;29HS100A18;1
S20;49MA010K16;29
S20;52DC0015I20;506
S20;52HF004K17;114
S20;52SH006N18;105
S20;52SH006P19;172
S20;J6185;2
S20;01BK010K14;17
S20;01BL012K18;1
S20;01CM300K20;6
S20;01CP100K21;13
S20;01EC200K17;10
S20;01MA030K21;8
S20;11BG140CS19;7
S20;11LP040028M19;6
S20;11SA100H19;10
S20;15HE005L14;5
S20;15LC250L14;9
S20;17AS500N18;6
S20;24BR050C21;10
S20;24LC250C21;6
S20;24MA030R18;16
S20;24MA030S6;14
S20;24MA150R19;5
S20;27MI150I20;6
S20;29ASH240A20;8
S20;52LGEBAG18;74
S20;52SGENSA18;159
S20;01BM150K19;1
S20;01CV050K15;6
S20;01PI030K18;11
S20;01SL500LV20;9
S20;11CM030H20;25
S20;11ET010H20;14
S20;11SP200SH19;7
S20;15GC150VBL20;6
S20;15LC250VB3;13
S20;15MF075VM20H;5
S20;15RC500VB17;17
S21000;01EC200K17;13
S21000;01MA030K21;6
S21000;11BG140CS19;6
S21000;11LP040028M19;3
S21000;11SA100H19;10
S21000;15HE005L14;9
S21000;15LC250L14;10
S21000;17AS500N18;10
S21000;24BR050C21;6
S21000;24LC250C21;20
S21000;24MA030R18;20
S21000;24MA030S6;20
S21000;24MA150R19;7
S21000;27MI150I20;8
S21000;29ASH240A20;10
S21000;29HD075A15;1
S21000;52LASANO20;204
S21000;52LGEBAG18;46
S21000;52SGENSA18;151
S21000;01CMR500K20;9
S21000;01CV050K15;11
S21000;01PI030K18;9
S21000;01SL500LV20;10
S21000;11CM030H20;50
S21000;11ET010H20;13
S21000;11SP200SH19;8
S21000;15GC150VBL20;10
S21000;15LC250VB3;6
S21000;15RC500VB17;25
S21000;17AS250P19;11
S21000;17RS500FV21;24
S21000;17SH300E19;10
S21000;20SA050HC20;10
S21000;24SA050CB6;10
S21000;27DC030I20;19
S21000;27DH030I20;18
S21000;27OR075I20;50
S21000;29BP100A19;6
S21000;38MI150A18;6
S21000;52AS006G18;231
S21000;52DE001I17;181
S21000;52TS001R21;100
S21000;98BBSH050A0;11
S21000;01HF100K17;8
S21000;01LH300KB19;8
S21000;01MA150K18;32
S21000;01SA250VE16;16
S21000;11GD250H19;15
S21000;11GD250H20;20
S21000;11LP080028M19;6
S21000;11PM100SI19;4
S21000;11SP200SI19;8
S21000;11SP200SL19;10
S27000;11LP040028M19;5
S28000;11LP040028M19;9
S15;11SA100H19;9
S27000;11SA100H19;9
S28000;11SA100H19;14
S15;15HE005L14;6
S27000;15HE005L14;8
S28000;15HE005L14;5
S15;15LC250L14;9
S27000;15LC250L14;8
S28000;15LC250L14;3
S15;17AS500N18;8
S27000;17AS500N18;8
S28000;17AS500N18;8
S15;24BR050C21;19
S27000;24BR050C21;11
S28000;24BR050C21;17
S15;24LC250C21;10
S28000;24LC250C21;16
S15;24MA030R18;26
S27000;24MA030R18;18
S28000;24MA030R18;30
S15;24MA030S6;28
S27000;24MA030S6;19
S28000;24MA030S6;37
S15;24MA150R19;2
S27000;24MA150R19;6
S28000;24MA150R19;9
S28000;27LD200I14;2
S15;27MI150I20;4
S27000;27MI150I20;8
S28000;27MI150I20;5
S15;29ASH240A20;10
S27000;29ASH240A20;8
S28000;29ASH240A20;8
S15;52LGEBAG18;67
S27000;52LGEBAG18;76
S15;52SGENSA18;91
S27000;52SGENSA18;187
S28000;52SGENSA18;177
S15;98BBDF015IM0;27
S27000;98BBDF015IM0;24
S28000;98BBDF015IM0;43
S28000;52CD0015A18;142
S15;52DH001I20;121
S27000;52DH001I20;454
S28000;52DH001I20;217
S15;52FP0015I19;32
S27000;52FP0015I19;199
S28000;52FP0015I19;141
S15;52HR004G17;97
S27000;52HR004G17;189
S28000;52HR004G17;60
S90000;18LC050TL17ET;2
S24000;20AR075O20;6
S90000;20AR075O20;10
S24000;24ET075CB4;15
S24000;27OR030I19;34
S90000;27OR030I19;44
S24000;29BP100A18;4
S24000;38EC015A18;6
S90000;38EC015A18;8
S24000;49AF015G20;60
S90000;49DB004I20;3
S90000;49GD035CB5;2
S24000;52CP0015I19;127
S90000;52CP0015I19;1
S24000;52HV001K18;23
S90000;52HV001K18;104
S24000;52MA003K16A;274
S90000;52MA003K16A;150
S24000;01BK010K14;18
S90000;01BK010K14;1
S24000;01BL012K18;13
S90000;01BL012K18;4
S24000;01CM300K20;7
S90000;01CM300K20;13
S24000;01CP100K21;9
S90000;01CP100K21;13
S24000;01EC200K17;4
S90000;01HD250K19H;1
S90000;01MA030K20H;4
S24000;01MA030K21;5
S90000;01MA030K21;11
S24000;11BG140CS19;7
S90000;11BG140CS19;9
S90000;11EH040A19;11
S24000;11LP040028M19;2
S90000;11LP040028M19;15
S24000;11SA100H19;20
S90000;11SA100H19;15
S24000;15HE005L14;5
S90000;15HE005L14;5
S24000;15LC250L14;8
S90000;15LC250L14;5
S24000;17AS500N18;8
S90000;17AS500N18;13
S24000;24BR050C21;11
S90000;24BR050C21;2
S24000;24LC250C21;15
S90000;24LC250C21;7
S24000;24MA030R18;29
S90000;24MA030R18;8
S24000;24MA030S6;30
S90000;24MA030S6;18
S24000;24MA150R19;6
S20;17AS250P19;17
S20;17SH300E19;11
S20;20SA050HC20;20
S20;24SA050CB6;9
S20;27DC030I20;12
S20;27DH030I20;14
S20;27OR075I20;12
S20;38MI150A18;5
S20;52AS006G18;211
S20;52DE001I17;149
S20;98BBDF015IM0;25
S20;01CD250K21;18
S20;01HF100K17;4
S20;01LH100KB19;2
S20;01LH300KB19;10
S20;01MA150K18;4
S20;01MF150B20H;9
S20;01SA250VE16;8
S20;11GD250H19;17
S20;11GD250H20;19
S20;11LP080028M19;6
S20;11SP200SI19;6
S20;11SP200SL19;8
S20;15ET100VA5;6
S20;15GD500VA20;8
S20;15GM280VB20;12
S20;20DO075CD20;9
S20;24BR050R19;7
S20;27DCB060I17;6
S20;27KTFCAPAC20;4
S20;27MS050I20;11
S20;29SE125A21;5
S20;38RC050A18;8
S20;38WS030A18;6
S20;52CD0015A18;97
S20;52DH001I20;451
S20;52ER006P19;19
S20;52FP0015I19;84
S20;52HR004G17;121
S20;52SH006D17;133
S20;52SH006E19;190
S20;98BBHD050A0;2
S20;01CL200K21;12
S20;01EN300KB19;30
S20;01MA030K16;3
S20;01SA250LT20;6
S20;11CM125I19;9
S20;11GE075I20;9
S20;11SD100SI19;3
S20;17ER075P19;7
S20;17RS500P19;24
S20;18LC250TL17ET;6
S20;24MA030P15;13
S20;27DF125I17;7
S90000;24MA150R19;8
S90000;24SACHB20;133
S24000;27MI150I20;7
S24000;29ASH240A20;10
S90000;29ASH240A20;7
S24000;29HD075A15;13
S90000;29HD075A15;11
S90000;49CO1NO19;5
S90000;49EP005H20;1
S90000;49HD035K17;93
S24000;49IC1POU20;10
S90000;49IC1POU20;9
S90000;49IC3POU20;13
S24000;49JEWNO19;66
S90000;49JEWNO19;3
S90000;49PCRKO17;22
S90000;49TOBAGSA20;77
S90000;52LASANO19;60
S90000;52LASANO20;60
S24000;52SGENSA18;135
S90000;52SGENSA18;112
S24000;52TS001R21;100
S24000;98BBDF015IM0;25
S90000;98BBDF015IM0;46
S90000;01CM300K11;4
S90000;01ETKAR20;3
S24000;01HF100K17;7
S90000;01LH100KB19;8
S24000;01LH300KB19;8
S90000;01LH300KB19;9
S24000;01MA150K18;23
S24000;01MF150B20H;2
S90000;01MF150B20H;3
S24000;01SA250VE16;18
S24000;11GD250H19;19
S90000;11GD250H19;4
S24000;11GD250H20;17
S90000;11GD250H20;12
S24000;11LP080028M19;6
S90000;11LP080028M19;48
S24000;11PM100SI19;6
S90000;11PM100SI19;6
S24000;11SP200SI19;7
S90000;11SP200SI19;9
S24000;11SP200SL19;4
S90000;11SP200SL19;1
S24000;15ET100VA5;8
S90000;15ET100VA5;8
S24000;15GD500VA20;6
S24000;15GM280VB20;6
S90000;15GM280VB20;13
S24000;15RG500L14;7
S21000;15ET100VA5;8
S21000;15GM280VB20;4
S21000;15RG500L14;10
S21000;20DO075CD20;10
S21000;24BR050R19;10
S21000;27DCB060I17;4
S21000;27KTFCAPAC20;3
S21000;27MS050I20;10
S21000;29SE125A21;22
S21000;38RC050A18;5
S21000;38WS030A18;5
S21000;52CD0015A18;158
S21000;52DH001I20;971
S21000;52FP0015I19;125
S21000;52HR004G17;10
S21000;52SH006D17;151
S21000;52SH006E19;91
S21000;98BBHD050A0;101
S21000;01CL200K21;11
S21000;01EN300KB19;20
S21000;01MA030K16;122
S21000;01SA250LT20;15
S21000;11CM125I19;8
S21000;11GE075I20;8
S21000;11SD100SI19;8
S21000;17ER075P19;10
S21000;17RS500P19;34
S21000;17SH075P19;1
S21000;17SH500D16;1
S21000;18LC250TL17ET;16
S21000;24MA030P15;19
S21000;27DF125I17;25
S21000;27DH015I17;5
S21000;29HD250A21C;8
S21000;29MA030A17;19
S21000;38FT200A18;8
S21000;49CP008I19;5
S21000;49DH004I17;22
S21000;52AS006FV21;100
S21000;52SH006G18;163
S21000;01CL300KB20;7
S21000;01CP200K17;14
S21000;01HD500K20;10
S21000;11BG140SL19;6
S21000;11EH150A18;8
S21000;11GN195A18;10
S21000;11SD100DE20H;3
S21000;17AS075FV21;47
S21000;17AS500FV21;24
S21000;17RC500P19;10
S21000;17SH300FV21;12
S21000;17VI100P19;8
S21000;20GD250HC20;12
S15;52SH006D17;318
S27000;52SH006D17;250
S28000;52SH006D17;84
S15;52SH006E19;407
S27000;52SH006E19;226
S28000;52SH006E19;135
S15;98BBHD050A0;14
S28000;98BBHD050A0;61
S15;01CL200K21;20
S27000;01CL200K21;15
S28000;01CL200K21;20
S15;01CP050K19H;23
S15;01EN300KB19;30
S27000;01EN300KB19;22
S28000;01EN300KB19;29
S15;01MA030K16;48
S27000;01MA030K16;22
S28000;01MA030K16;27
S15;01SA250LT20;16
S27000;01SA250LT20;13
S28000;01SA250LT20;28
S15;11CM125I19;8
S27000;11CM125I19;8
S28000;11CM125I19;11
S27000;11GE075I20;7
S28000;11GE075I20;11
S15;11SD100SI19;6
S27000;11SD100SI19;8
S28000;11SD100SI19;4
S15;17ER075P19;7
S27000;17ER075P19;6
S28000;17ER075P19;9
S15;17RS500P19;29
S27000;17RS500P19;20
S28000;17RS500P19;34
S15;17SH075P19;2
S27000;17SH500D16;1
S15;18LC250TL17ET;17
S27000;18LC250TL17ET;10
S28000;18LC250TL17ET;9
S28000;20ET100CD16A;2
S15;24MA030P15;22
S27000;24MA030P15;11
S28000;24MA030P15;26
S15;27DF125I17;5
S27000;27DF125I17;18
S28000;27DF125I17;18
S15;27DH015I17;3
S27000;27DH015I17;4
S15;27DS030I17A;9
S28000;27DS030I17A;1
S28000;27SP030I14;5
S15;29HD250A21C;3
S24000;20DO075CD20;7
S90000;20DO075CD20;4
S24000;24BR050R19;10
S90000;24BR050R19;5
S90000;24LC250P15;11
S90000;24LC250S6;20
S24000;27DCB060I17;6
S90000;27DCB060I17;18
S24000;27MS050I20;15
S90000;27MS050I20;15
S90000;27RM300I14;2
S24000;29SE125A21;9
S90000;29SE125A21;11
S24000;29SH075A20;7
S90000;29SH075A20;5
S24000;38RC050A18;7
S90000;38RC050A18;10
S24000;38WS030A18;10
S90000;38WS030A18;11
S24000;52CD0015A18;105
S90000;52CD0015A18;26
S90000;52COTLTM19;4
S24000;52DH001I20;366
S90000;52DH001I20;295
S24000;52ER006P19;180
S24000;52FP0015I19;161
S24000;52HR004G17;48
S90000;52HR004G17;129
S24000;52SH006D17;40
S90000;52SH006D17;149
S24000;52SH006E19;259
S90000;52SH006E19;2
S90000;52TRIHDTS19;26
S24000;98BBHD050A0;6
S24000;01CL200K21;15
S90000;01CL200K21;11
S90000;01CP050K19H;25
S24000;01EN300KB19;19
S90000;01EN300KB19;7
S24000;01MA030K16;36
S90000;01SA100LV16;2
S24000;01SA250LT20;19
S90000;01SA250LT20;8
S90000;10QUAGD19;21
S24000;11CM125I19;9
S90000;11CM125I19;9
S24000;11GE075I20;6
S90000;11GE075I20;6
S24000;11SD100SI19;7
S90000;11SD100SI19;10
S24000;17ER075P19;9
S90000;17ER075P19;8
S24000;17RS500P19;27
S90000;17RS500P19;5
S90000;17SH075P19;9
S90000;17SH500D16;3
S24000;18LC250TL17ET;18
S90000;18LC250TL17ET;7
S90000;24GD075C21;25
S90000;24GD250S6;1
S24000;24MA030P15;30
S90000;24MA030P15;8
S90000;27CP050I14A;3
S24000;27DF125I17;12
S90000;27DF125I17;3
S24000;27DH015I17;15
S90000;27DS030I17A;2
S24000;27SP030I14;3
S90000;27SP030I14;1
S24000;29HD250A21C;28
S90000;29HD250A21C;1
S24000;29MA030A17;13
S90000;29MA030A17;6
S24000;38FT200A18;10
S90000;38FT200A18;8
S24000;49CP008I19;15
S90000;49CP008I19;10
S24000;49DH004I17;27
S90000;49DH004I17;19
S90000;49FT030A18;12
S90000;52AS006F17;63
S24000;52AS006FV21;100
S24000;52DS001I17;136
S90000;52PMGBOX18;9
S24000;52SH006G18;424
S90000;52SH006G18;12
S24000;52MS001I20;279
S90000;52MS001I20;340
S90000;SGOCVKI00079;2
S90000;SGOCVKI00080;7
S90000;SGOCVKI00102;6
S90000;SGOCVKI00104;6
S90000;SGOCVKI00105;4
S90000;SGOCVKI00107;10
S90000;SGOCVKI00108;3
S90000;SGOCVKI00109;2
S90000;SGOCVKI00111;2
S90000;SGOCVKI00112;5
S90000;SGOCVKI00113;5
S90000;SGOCVKI00114;4
S90000;SGOCVKI00116;3
S90000;SGOCVKI00117;10
S90000;SGOCVKI00119;14
S90000;SGOCVKI00121;5
S90000;SGOCVKI00122;5
S00;27CN050I14;2
S26000;49MA010A17;1
S26000;29SH075A20;1
S26000;49LC020A15;1
S26000;52MGEBOX18;20
S10;01EN300KB19;20
S10;01MA030K16;20
S10;01SA250LT20;18
S10;11CM125I19;9
S10;11GE075I20;1
S10;11SD100SI19;12
S10;17ER075P19;9
S10;17RS500P19;17
S10;18LC250TL17ET;11
S10;24MA030P15;26
S10;27DF125I17;20
S10;27DH015I17;8
S10;27OR030I18;2
S10;29HD250A21C;17
S10;29MA030A17;10
S10;38FT200A18;5
S10;49CP008I19;1
S10;52DS001I17;130
S10;52SH006G18;251
S10;01CL300KB20;8
S10;01CP200K17;9
S10;01HD500K20;7
S10;11BG140SL19;8
S10;11EH150A18;8
S10;11GN195A18;8
S10;17AS075FV21;10
S10;17RC500P19;12
S10;17VI100P19;8
S10;20GD250HC20;18
S10;20HR050H20;6
S10;24AF050R18;8
S10;24BL012CB5;12
S10;24LC250CB4;10
S10;27ER015I20;19
S10;27FP050I19;8
S10;27OR050I21C;35
S10;29MA075A19;7
S10;38WC050A18;9
S10;49DC004I20;37
S10;52BY001I19;164
S10;52DL002I17;2
S10;52EV002I19;130
S10;52MC006G18;270
S10;52MS001I20;152
S10;SGOCVKI00154;7
S10;SGOCVKI00157;4
S10;01PI075K18;32
S10;01SA100VE16;13
S10;11BG140SI19;7
S10;11EP010H19;7
S10;15AS250VA18;11
S10;15GD250L14;11
S10;15RG500VA20;18
S10;15SE400VB5;5
S27000;29HD250A21C;5
S15;29MA030A17;37
S27000;29MA030A17;14
S28000;29MA030A17;25
S15;38FT200A18;7
S27000;38FT200A18;10
S28000;38FT200A18;9
S15;49CP008I19;5
S27000;49CP008I19;5
S28000;49CP008I19;15
S28000;49DH004I17;37
S27000;52DS001I17;131
S15;52SH006G18;239
S27000;52SH006G18;228
S28000;52SH006G18;256
S15;49DC004I20;27
S27000;49DC004I20;24
S28000;49DC004I20;63
S15;52BY001I19;193
S27000;52BY001I19;318
S28000;52BY001I19;212
S27000;52EV002I19;57
S28000;52EV002I19;4
S27000;52MC006G18;213
S28000;52MC006G18;35
S15;52MS001I20;189
S27000;52MS001I20;205
S28000;52MS001I20;68
S15;SGOCVKI00157;1
S15;01PI075K18;11
S27000;01PI075K18;7
S28000;01PI075K18;12
S15;01SA100VE16;20
S27000;01SA100VE16;16
S28000;01SA100VE16;29
S28000;11BG140SH19;11
S15;11BG140SI19;8
S27000;11BG140SI19;8
S28000;11BG140SI19;12
S15;11EP010H19;11
S27000;11EP010H19;10
S28000;11EP010H19;15
S15;15AS250VA18;9
S27000;15AS250VA18;7
S28000;15AS250VA18;11
S15;15GD250L14;7
S27000;15GD250L14;6
S28000;15GD250L14;12
S28000;15MF030VM20H;4
S15;15RG500VA20;29
S27000;15RG500VA20;13
S28000;15RG500VA20;34
S28000;15RG500VA4;4
S90000;SGOCVKI00123;10
S90000;SGOCVKI00126;1
S24000;SGOCVKI00131;8
S90000;SGOCVKI00131;14
S90000;SGOCVKI00133;9
S24000;SGOCVKI00135;1
S90000;SGOCVKI00136;2
S90000;SGOCVKI00137;34
S90000;SGOCVKI00138;3
S90000;SGOCVKI00139;2
S90000;SGOCVKI00141;10
S90000;SGOCVKI00143;6
S90000;SGOCVKI00144;10
S90000;SGOCVKI00147;2
S90000;SGOCVKI00154;1
S24000;SGOCVKI00157;4
S90000;SGOCVKI00158;1
S24000;01CM030K21;36
S24000;01EM075K20;8
S90000;01KTCNTAPAC20;1
S24000;01PI030KA;3
S24000;01PI075K18;10
S90000;01PI075K18;10
S24000;01SA100VE16;15
S90000;11BG140SH19;9
S24000;11BG140SI19;7
S90000;11BG140SI19;10
S24000;11EP010H19;9
S90000;11EP010H19;4
S24000;15AS250VA18;7
S90000;15AS250VA18;12
S24000;15GD250L14;12
S90000;15MF030VM20H;10
S24000;15RG500VA20;12
S90000;15RG500VA4;3
S24000;15SE400VB5;8
S90000;15SE400VB5;7
S24000;20NV150H20;14
S90000;20NV150H20;7
S24000;24MA075CB4;22
S90000;24MA075CB4;7
S24000;27BP050I19;12
S24000;29SH240A20;8
S90000;29SH240A20;1
S24000;38FT200A21;12
S24000;38WM065A18;7
S90000;38WM065A18;9
S90000;49HBMD19;9
S24000;49LC020A15;13
S90000;49LC020A15;10
S90000;49MA010VB3;113
S24000;49POUM20;18
S29000;27ER015I20;23
S29000;27FP050I19;8
S29000;27OR050I21C;19
S29000;29MA075A19;23
S29000;38WC050A18;9
S29000;49DC004I20;33
S29000;52BY001I19;117
S29000;52EV002I19;243
S29000;52MC006G18;173
S29000;52MS001I20;159
S29000;SGOCVKI00135;14
S29000;SGOCVKI00156;2
S29000;SGOCVKI00157;8
S29000;SGOCVKI00165;4
S29000;01CM030K21;44
S29000;01EM075K20;8
S29000;01PI075K18;11
S29000;01SA100VE16;21
S29000;11BG140SH19;7
S29000;11BG140SI19;8
S29000;11EP010H19;10
S29000;15AS250VA18;19
S29000;15GD250L14;27
S29000;15MF030VM20H;17
S29000;15RG500VA20;24
S29000;15SE400VB5;15
S29000;20AR075CD16A;7
S29000;20NV150H20;13
S29000;24MA075CB4;14
S29000;29SH240A20;12
S29000;38FT200A21;18
S29000;38WM065A18;19
S29000;52DB001I17;70
S29000;52DF002I17;218
S29000;52GD0015A18;86
S29000;52MGEBOX18;18
S29000;52MGENSA18;133
SLM001;29MA030A17;38
SLM001;49CP008I19;15
SLM001;52SH006G18;758
SLM001;11GN195A18;32
SLM001;15GD070VB17;23
SLM001;17RC500P19;36
SLM001;24GD250P15;1
SLM001;24LC250CB4;7
SLM001;27ER015I20;29
SLM001;27MP050I13;22
SLM001;49DC004I20;21
SLM001;49EP005TL17ET;14
SLM001;49MA010R14;3
SLM001;52BY001I19;197
SLM001;52DL002I17;36
SLM001;52MS001I20;80
SLM001;SGOCVKI00135;4
SLM001;SGOCVKI00147;3
SLM001;SGOCVKI00148;1
SLM001;SGOCVKI00153;9
SLM001;SGOCVKI00159;4
SLM001;15GD250L14;35
SLM001;24MA075CB4;7
SLM001;29SH240A20;15
SLM001;49LC020A15;25
SLM001;49MA010VB3;29
SLM001;52DF002I17;263
SLM001;SGOCVE700006;1
S10;20NV150H20;8
S10;24MA030R18;13
S10;24MA075CB4;16
S10;27BP050I19;9
S10;29SH240A20;4
S10;38WM065A18;6
S10;49LC020A15;13
S10;49POUM20;15
S10;52DB001I17;170
S10;52DF002I17;170
S10;52GD0015A18;55
S10;52MGEBOX18;20
S10;52MGENSA18;105
S10;52MMBBNO20;3
S21000;20HR050H20;6
S21000;24AF050R18;6
S21000;24BL012CB5;10
S21000;24LC250CB4;10
S21000;27DL200I13US;10
S21000;27ER015I20;15
S21000;27FP050I19;12
S21000;27OR050I21C;29
S21000;29MA075A19;14
S21000;38WC050A18;8
S21000;49DC004I20;60
S21000;49EV030I19;12
S21000;52BY001I19;230
S21000;52MS001I20;63
S21000;SGOCVKI00157;6
S21000;01CM030K21;36
S21000;01EM075K20;6
S21000;01PI075K18;9
S21000;01SA100VE16;18
S21000;11BG140SI19;6
S21000;11EP010H19;10
S21000;15AS250VA18;8
S21000;15GD250L14;11
S21000;15RG500VA20;16
S21000;15SE400VB5;6
S21000;20NV150H20;8
S21000;24MA075CB4;17
S21000;27BP050I19;9
S21000;29SH240A20;12
S21000;38FT200A21;12
S21000;38WM065A18;6
S21000;49LC020A15;116
S21000;49POUM20;14
S21000;52DF002I17;226
S21000;52GD0015A18;87
S21000;52MGEBOX18;40
S21000;52MGENSA18;114
S21000;52MMBBNO20;3
S20;27DH015I17;2
S20;27DS030I17A;4
S20;29HD250A21C;2
S20;29MA030A17;7
S20;38FT200A18;7
S20;49CP008I19;7
S20;52DS001I17;144
S20;52SH006G18;171
S20;01CL300KB20;12
S20;01CP200K17;10
S20;01HD500K20;12
S20;01SA050KL20;14
S20;11BG140SL19;8
S20;11EH150A18;10
S20;11GN195A18;7
S20;11SD100DE20H;2
S20;17AS075FV21;38
S20;17RC500P19;12
S20;17VI100P19;9
S20;20GD250HC20;15
S20;20HR050H20;6
S20;24AF050R18;5
S20;24BL012CB5;1
S20;24LC250CB4;11
S20;27DL200I13US;4
S20;27ER015I20;15
S20;27FP050I19;6
S20;27OR050I21C;15
S20;29MA075A19;12
S20;38WC050A18;10
S20;49DC004I20;25
S20;52BY001I19;164
S20;52EV002I19;119
S20;52MC006G18;111
S20;52MS001I20;227
S20;SGOCVKI00157;7
S20;01PI030KA;2
S20;01PI075K18;14
S20;01SA100VE16;8
S20;11BG140SI19;14
S20;11EP010H19;15
S20;15AS250VA18;16
S20;15GD250L14;1
S20;15RG500VA20;14
S20;15SE400VB5;4
S20;20NV150H20;8
S20;24MA075CB4;14
S20;27BP050I19;7
S20;29SH240A20;7
S20;38WM065A18;6
S20;49LC020A15;10
S20;49POUM20;18
S20;52BGERIB18;1
S20;52DB001I17;61
S20;52DF002I17;85
S20;52GD0015A18;137
S20;52MGEBOX18;17
S20;52MGENSA18;248
S15;15SE400VB5;4
S27000;15SE400VB5;6
S28000;15SE400VB5;7
S15;20NV150H20;8
S27000;20NV150H20;2
S28000;20NV150H20;20
S15;24MA075CB4;15
S27000;24MA075CB4;11
S28000;24MA075CB4;38
S15;27BP050I19;9
S27000;27BP050I19;7
S15;29SH240A20;10
S27000;29SH240A20;7
S28000;29SH240A20;8
S15;38WM065A18;8
S27000;38WM065A18;5
S28000;38WM065A18;8
S15;49LC020A15;37
S27000;49LC020A15;6
S28000;49LC020A15;29
S15;49POUM20;33
S27000;49POUM20;18
S28000;49POUM20;19
S27000;52BGERIB18;2
S27000;52DB001I17;83
S15;52DF002I17;148
S27000;52DF002I17;266
S28000;52DF002I17;302
S15;52GD0015A18;9
S27000;52GD0015A18;146
S28000;52GD0015A18;51
S15;52MGEBOX18;2
S27000;52MGEBOX18;39
S28000;52MGEBOX18;20
S15;52MGENSA18;83
S27000;52MGENSA18;96
S28000;52MGENSA18;200
S90000;49POUM20;12
S90000;49VANSA19;32
S90000;52BGERIB18;2
S90000;52CARDENV18;6
S90000;52CARDNO20;3
S24000;52DB001I17;152
S24000;52DF002I17;207
S90000;52DF002I17;281
S24000;52GD0015A18;122
S24000;52MGEBOX18;17
S90000;52MGEBOX18;30
S24000;52MGENSA18;118
S90000;52MGENSA18;207
S90000;52MMBBNO20;100
S90000;SGOCVE600003;9
S90000;SGOCVE700005;10
S90000;SGOCVE700009;2
S90000;SGOCVE700011;62
S90000;SGOCVE700012;21
S90000;SGOCVE700013;55
