S15;15SH250VA20;10
S27000;15SH250VA20;7
S28000;15SH250VA20;13
S15;15MA030VB3;16
S27000;15MA030VB3;5
S28000;15MA030VB3;15
S15;15RC500VB17;21
S27000;15RC500VB17;14
S28000;15RC500VB17;23
S15;15SE400VB5;9
S27000;15SE400VB5;5
S28000;15SE400VB5;13
S15;17AS075G21;12
S27000;17AS075G21;3
S28000;17AS075G21;5
S15;17RS500FV21;21
S27000;17RS500FV21;21
S28000;17RS500FV21;25
S15;17SH060SE21;2
S27000;17SH060SE21;2
S28000;17SH060SE21;2
S15;18ET050TL17;7
S27000;18ET050TL17;5
S28000;18ET050TL17;3
S15;11EP050H19;6
S27000;11EP050H19;5
S28000;11EP050H19;5
S27000;11EP090H19;3
S15;15AS150VCL21;14
S27000;15AS150VCL21;10
S28000;15AS150VCL21;16
S15;15MA030L11;12
S27000;15MA030L11;9
S28000;15MA030L11;20
S15;17AS500FV21;15
S27000;17AS500FV21;12
S28000;17AS500FV21;16
S15;18ET090TL17;5
S27000;18ET090TL17;6
S28000;18ET090TL17;2
S15;20SA050O20;8
S27000;20SA050O20;7
S28000;20SA050O20;11
S15;24MA030RE19;9
S27000;24MA030RE19;12
S28000;24MA030RE19;9
S15;27DF125I17;17
S27000;27DF125I17;17
S28000;27DF125I17;17
S15;27ER015I20;15
S27000;27ER015I20;9
S28000;27ER015I20;15
S15;01BM150K19;19
S27000;01BM150K19;16
S28000;01BM150K19;19
S15;01CM300K20;12
S27000;01CM300K20;3
S28000;01CM300K20;13
S15;01MR030K14;13
S27000;01MR030K14;10
S28000;01MR030K14;17
S15;01RL500K20;14
S27000;01RL500K20;6
S28000;01RL500K20;13
S15;01SL500LV20;12
S27000;01SL500LV20;4
S28000;01SL500LV20;12
S15;11CM030H20;15
S27000;11CM030H20;7
S28000;11CM030H20;26
S15;11MH075A19;8
S27000;11MH075A19;8
S28000;11MH075A19;8
S15;11SP200SH19;13
S27000;11SP200SH19;6
S28000;11SP200SH19;6
S15;15DO050VA5;12
S27000;15DO050VA5;7
S28000;15DO050VA5;14
S15;15SA070VB6;12
S27000;15SA070VB6;5
S28000;15SA070VB6;12
S15;20ET075CD20;8
S27000;20ET075CD20;6
S28000;20ET075CD20;8
S15;20GD250CD20;11
S27000;20GD250CD20;5
S28000;20GD250CD20;14
S15;01CMR500K20;10
S27000;01CMR500K20;10
S28000;01CMR500K20;10
S15;01CV050K18;9
S27000;01CV050K18;6
S28000;01CV050K18;13
S15;11ET010O21;24
S27000;11ET010O21;24
S28000;11ET010O21;23
S15;11LT300I20;4
S27000;11LT300I20;3
S28000;11LT300I20;12
S15;11MA030A20;12
S27000;11MA030A20;6
S28000;11MA030A20;9
S15;11SA100H19;9
S27000;11SA100H19;6
S28000;11SA100H19;11
S15;11SD100SL19;9
S27000;11SD100SL19;8
S28000;11SD100SL19;9
S15;15GD500VB17;15
S27000;15GD500VB17;9
S28000;15GD500VB17;19
S15;17AS075FV21;11
S27000;17AS075FV21;3
S28000;17AS075FV21;11
S15;17SH300FV21;8
S27000;17SH300FV21;14
S28000;17SH300FV21;9
S15;18ET010TL17;9
S27000;18ET010TL17;5
S28000;29MAV075A19;15
S27000;29MAV075A19;6
S15;29MAV075A19;9
S28000;29HS100A21;17
S27000;29HS100A21;10
S15;29HS100A21;15
S28000;29HD250A15;25
S27000;29HD250A15;27
S15;29HD250A15;14
S28000;27OR075I21;51
S27000;27OR075I21;50
S15;27OR075I21;30
S28000;24AF050R18;8
S27000;24AF050R18;6
S15;24AF050R18;5
S28000;17SH300G21;22
S27000;17SH300G21;17
S15;17SH300G21;18
S28000;15LC250L14;14
S27000;15LC250L14;9
S15;15LC250L14;11
S28000;01MA150K18;12
S27000;01MA150K18;15
S15;01MA150K18;19
S27000;27FP050I19;8
S15;27FP050I19;7
S28000;27CP050I19;11
S27000;27CP050I19;6
S15;27CP050I19;11
S28000;24EF050R18;6
S27000;24EF050R18;8
S15;24EF050R18;6
S28000;20GD250HC20;11
S27000;20GD250HC20;10
S15;20GD250HC20;10
S28000;20FE050H20;9
S27000;20FE050H20;4
S15;20FE050H20;9
S28000;20DO075CD20;11
S27000;20DO075CD20;5
S15;20DO075CD20;9
S28000;20AR075O20;12
S27000;20AR075O20;4
S15;20AR075O20;13
S28000;17RC500P19;12
S27000;17RC500P19;7
S15;17RC500P19;9
S28000;15HE005L14;10
S27000;15HE005L14;6
S15;15HE005L14;9
S28000;01RV500K20;18
S27000;01RV500K20;10
S15;01RV500K20;14
S28000;01CP200K17;11
S27000;01CP200K17;10
S15;01CP200K17;1
S28000;01BP050K21;16
S27000;01BP050K21;8
S15;01BP050K21;12
S15;27ER050I21;21
S28000;24MA030P15;15
S27000;24MA030P15;17
S15;24MA030P15;13
S28000;24GD250R20;12
S27000;24GD250R20;6
S15;24GD250R20;11
S28000;20SA050HC20;8
S27000;20SA050HC20;6
S15;20SA050HC20;8
S28000;17AS500P19;11
S27000;17AS500P19;8
S15;17AS500P19;10
S28000;15ET010VB19;8
S27000;15ET010VB19;4
S15;15ET010VB19;8
S28000;11SP200CS19;13
S27000;11SP200CS19;4
S15;11SP200CS19;13
S28000;11LH200I19;14
S27000;11LH200I19;7
S15;11LH200I19;10
S28000;11FAG10TR19;9
S27000;11FAG10TR19;5
S15;11FAG10TR19;13
S28000;11ET075O21;17
S27000;11ET075O21;14
S15;11ET075O21;17
S28000;11BH050A18;12
S27000;11BH050A18;8
S15;11BH050A18;9
S28000;01LC500K20;16
S27000;01LC500K20;14
S15;01LC500K20;14
S28000;01EC200K17;14
S27000;01EC200K17;5
S15;01EC200K17;12
S27000;01CMJ075K21;11
S15;01CMJ075K21;11
S28000;01CL050K21;14
S27000;01CL050K21;11
S15;01CL050K21;8
S28000;24BR050CB6;11
S27000;24BR050CB6;6
S15;24BR050CB6;6
S28000;18LC250TL17ET;17
S27000;18LC250TL17ET;12
S15;18LC250TL17ET;16
S28000;18BI030TL17ET;35
S27000;18BI030TL17ET;19
S15;18BI030TL17ET;19
S28000;17SH060SP21;10
S27000;17SH060SP21;6
S15;17SH060SP21;8
S28000;17SH060SG21;13
S27000;17SH060SG21;5
S15;17SH060SG21;8
S28000;17AS500E19;9
S27000;17AS500E19;8
S15;17AS500E19;16
S28000;15RG500L14;21
S27000;15RG500L14;10
S15;15RG500L14;12
S28000;15MA030VA5;11
S27000;15MA030VA5;5
S15;15MA030VA5;21
S28000;15GD250VA20;9
S27000;15GD250VA20;12
S15;15GD250VA20;8
S28000;15CP250VA5;6
S27000;15CP250VA5;8
S15;15CP250VA5;7
S28000;15AS250VA18;12
S27000;15AS250VA18;7
S15;15AS250VA18;11
S28000;11SD100SI19;8
S27000;11SD100SI19;6
S15;11SD100SI19;9
S28000;11PEP050I20;8
S27000;11PEP050I20;6
S15;11PEP050I20;7
S28000;11MWC200I19;4
S27000;11MWC200I19;5
S15;11MWC200I19;6
S28000;01SE125K21;6
S27000;01SE125K21;5
S15;01SE125K21;12
S28000;01PI030K18;9
S27000;01PI030K18;3
S15;01PI030K18;9
S28000;01MA030K16;40
S27000;01MA030K16;21
S15;01MA030K16;19
S28000;01LH300KB19;10
S27000;01LH300KB19;5
S15;01LH300KB19;9
S28000;01HN0075K19;1
S27000;01HN0075K19;4
S15;01HN0075K19;7
S28000;24MA030RV19;10
S28000;18ET010TL17;9
S27000;20ET075OC20;6
S28000;20ET075OC20;7
S15;20NV150H20;13
S27000;20NV150H20;7
S28000;20NV150H20;12
S15;24MA030CB4;23
S27000;24MA030CB4;19
S28000;24MA030CB4;29
S15;24MA030R18;18
S27000;24MA030R18;19
S28000;24MA030R18;35
S15;24MA075P15;12
S27000;24MA075P15;12
S28000;24MA075P15;8
S28000;27BP050I19;12
S15;27DC050I20;16
S27000;27DC050I20;26
S28000;27DC050I20;19
S15;27MI150I20;8
S27000;27MI150I20;6
S28000;27MI150I20;7
S27000;27MS050I20;6
S28000;27MS050I20;11
S15;29ASH240A20;9
S27000;29ASH240A20;8
S28000;29ASH240A20;14
S15;38WC050A21;8
S27000;38WC050A21;7
S28000;38WC050A21;12
S15;01HD250K17;11
S27000;01HD250K17;7
S28000;01HD250K17;11
S15;01SA100VE20;18
S27000;01SA100VE20;12
S28000;01SA100VE20;16
S15;01SA250VE20;10
S27000;01SA250VE20;12
S28000;01SA250VE20;19
S15;01SL300VE20;9
S27000;01SL300VE20;6
S28000;01SL300VE20;12
S15;11BG140SH19;12
S27000;11BG140SH19;7
S15;11CM030O21;47
S27000;11CM030O21;48
S28000;11CM030O21;46
S15;11LC250O21;24
S27000;11LC250O21;24
S28000;11LC250O21;24
S15;11PM100SH19;8
S27000;11PM100SH19;5
S28000;11PM100SH19;7
S15;11SD100SH19;9
S27000;11SD100SH19;5
S28000;11SD100SH19;10
S15;17AS075P19;15
S27000;17AS075P19;8
S28000;17AS075P19;15
S15;17CS150P19;40
S27000;17CS150P19;48
S28000;17CS150P19;25
S15;17SH300P19;8
S27000;17SH300P19;11
S28000;17SH300P19;13
S15;17SH500P19;17
S27000;17SH500P19;13
S28000;17SH500P19;17
S27000;20MP030H20;6
S28000;20MP030H20;4
S15;24ET050R18;11
S27000;24ET050R18;7
S28000;24ET050R18;12
S15;24GD250CB4;13
S27000;24GD250CB4;13
S28000;24GD250CB4;15
S15;24MA075CB4;10
S27000;24MA075CB4;12
S28000;24MA075CB4;16
S15;27OR030I19;4
S27000;27OR030I19;14
S28000;27OR030I19;4
S15;27OR030I21;39
S27000;27OR030I21;36
S28000;27OR030I21;53
S15;01EM075K20;8
S27000;01EM075K20;6
S28000;01EM075K20;9
S15;01HD500K20;12
S27000;01HD500K20;6
S28000;01HD500K20;14
S15;01LT300K20;16
S27000;01LT300K20;12
S28000;01LT300K20;17
S15;01SA250LV20;22
S27000;01SA250LV20;12
S28000;01SA250LV20;20
S15;01SL500VE20;10
S27000;01SL500VE20;6
S28000;01SL500VE20;14
S15;11BO100CS19;12
S27000;11BO100CS19;9
S28000;11BO100CS19;13
S15;15RG500VA20;13
S15;17AS250G21;15
S27000;17AS250G21;15
S28000;17AS250G21;21
S15;17ER075P19;12
S27000;17ER075P19;6
S28000;17ER075P19;11
S15;17RS500E20;22
S27000;17RS500E20;13
S28000;17RS500E20;31
S15;17SH075G21;15
S27000;17SH075G21;13
S28000;17SH075G21;6
S15;17SH500E19;20
S27000;17SH500E19;16
S28000;17SH500E19;22
S15;17SH500G21;14
S27000;17SH500G21;17
S28000;17SH500G21;19
S15;18GD250TL17ET;11
S27000;18GD250TL17ET;10
S28000;18GD250TL17ET;15
S15;24MA150R19;8
S27000;24MA150R19;3
S28000;24MA150R19;10
S15;27OR050I21;51
S27000;27OR050I21;55
S28000;27OR050I21;39
S27000;38ST016A18;6
S28000;38ST016A18;2
S15;01CL300KB20;12
S27000;01CL300KB20;4
S28000;01CL300KB20;11
S15;01MA075K18;14
S27000;01MA075K18;17
S28000;01MA075K18;16
S15;01RC300KB20;10
S27000;01RC300KB20;10
S28000;01RC300KB20;4
S27000;11BP100I19;7
S15;11BR100A20;8
S27000;11BR100A20;8
S28000;11BR100A20;9
S15;11EH150A18;7
S27000;11EH150A18;4
S28000;11EH150A18;8
S15;11GM200I19;11
S27000;11GM200I19;9
S28000;11GM200I19;16
S15;11SD100CS19;12
S27000;11SD100CS19;7
S28000;11SD100CS19;10
S27000;15GD250VA5;1
S15;15MA030VCL21;38
S27000;15MA030VCL21;28
S28000;15MA030VCL21;44
S15;17SH300E19;13
S27000;17SH300E19;4
S28000;17SH300E19;13
S15;17VI100P19;12
S27000;17VI100P19;6
S28000;17VI100P19;9
S15;20DO130HC20;9
S27000;20DO130HC20;5
S28000;20DO130HC20;8
S15;27BP050I19;13
S27000;27BP050I19;8
S15;27DC030I20;15
S27000;27DC030I20;6
S28000;27DC030I20;9
S15;27DL200I20;13
S27000;27DL200I20;7
S28000;27DL200I20;13
S15;29HD500A15;40
S27000;29HD500A15;29
S28000;29HD500A15;47
S15;29SA050A17;13
S27000;29SA050A17;3
S28000;29SA050A17;13
S15;38WM065A18;5
S27000;38WM065A18;5
S28000;38WM065A18;7
S15;01PI150K18;16
S27000;01PI150K18;11
S28000;01PI150K18;15
S15;01SA250LT20;19
S27000;01SA250LT20;12
S28000;01SA250LT20;20
S15;11BC100G21;49
S27000;11BC100G21;53
S28000;11BC100G21;51
S15;11BG140CS19;10
S27000;11BG140CS19;6
S28000;11BG140CS19;14
S15;11ET010H20;9
S27000;11ET010H20;4
S28000;11ET010H20;12
S15;11SA050O21;18
S27000;11SA050O21;17
S28000;11SA050O21;18
S15;11SV080I19;8
S27000;11SV080I19;8
S28000;11SV080I19;8
S15;15GD250VB17;13
S27000;15GD250VB17;9
S28000;15GD250VB17;9
S15;15LC250VB3;12
S27000;15LC250VB3;8
S28000;15LC250VB3;8
S15;15MA075L11;12
S27000;15MA075L11;10
S28000;15MA075L11;12
S27000;15RG500VA20;11
S28000;15RG500VA20;18
S27000;24GD500R19;10
S28000;24GD500R19;17
S15;24MA030S6;16
S27000;24MA030S6;15
S28000;24MA030S6;20
S15;27HCR050I16;8
S27000;27HCR050I16;8
S28000;27HCR050I16;9
S15;29BP100A19;8
S27000;29BP100A19;6
S28000;29BP100A19;13
S15;38MI150A18;8
S27000;38MI150A18;5
S28000;38MI150A18;8
S15;01HDR500K20;10
S27000;01HDR500K20;13
S28000;01HDR500K20;14
S15;01SA050KV20;9
S27000;01SA050KV20;5
S28000;01SA050KV20;8
S15;11EP010H19;7
S27000;11EP010H19;8
S28000;11EP010H19;9
S15;11GD250O21;24
S27000;11GD250O21;24
S28000;11GD250O21;24
S15;11SA100H20;8
S27000;11SA100H20;5
S28000;11SA100H20;12
S15;15MA030VAL21;17
S27000;15MA030VAL21;14
S28000;15MA030VAL21;15
S15;17AF100G20;14
S27000;17AF100G20;10
S28000;17AF100G20;15
S15;18SA075TL17ET;7
S27000;18SA075TL17ET;4
S28000;18SA075TL17ET;9
S15;20ET075HC20;12
S27000;20ET075HC20;6
S28000;20ET075HC20;8
S15;20GD250OC20;11
S27000;20GD250OC20;10
S28000;20GD250OC20;13
S15;24BL012CB5;7
S27000;24BL012CB5;5
S15;52BGERIB18;2
S28000;49PO2RS21;6
S27000;49PO2RS21;4
S15;49PO2RS21;7
S28000;29VC240A16;14
S27000;29VC240A16;15
S15;29VC240A16;13
S28000;24ET075CB4;13
S27000;24ET075CB4;4
S15;24ET075CB4;10
S28000;01SA050KL20;9
S27000;01SA050KL20;4
S15;01SA050KL20;10
S28000;01BV050K16;8
S27000;01BV050K16;7
S15;01BV050K16;10
S15;52AS006E19;93
S28000;49OR005I21;167
S27000;49OR005I21;107
S15;49OR005I21;67
S28000;27HSR030I16;9
S27000;27HSR030I16;7
S15;27HSR030I16;8
S28000;15ET100VB3;11
S27000;15ET100VB3;7
S15;15ET100VB3;8
S15;49EV030I19;70
S28000;27TS001I20;340
S27000;27TS001I20;248
S15;27TS001I20;305
S27000;24VF050R18;8
S28000;24GD075CB5;46
S27000;24GD075CB5;15
S15;24GD075CB5;28
S28000;17HI001G19;257
S27000;17HI001G19;190
S15;17HI001G19;45
S28000;15GM280VB20;13
S27000;15GM280VB20;7
S15;15GM280VB20;11
S28000;27SP030I19;7
SLM001;01EC200K17;13
SLM001;01HDR500K20;20
SLM001;01SA050KV20;8
SLM001;20GD250OC20;9
SLM001;24BL012CB5;13
SLM001;27ER150I21;86
SLM001;29ASH075A20;35
SLM001;29MA030A17;62
SLM001;29SH075A20;43
SLM001;52HD006A18;914
SLM001;01BM150K19;8
SLM001;01CM300K20;10
SLM001;01MA150K18;44
SLM001;01RL500K20;27
SLM001;01SL500LV20;12
SLM001;15LC250L14;16
SLM001;17AS250G18;17
SLM001;17SH075FV21;120
SLM001;17SH300G21;18
SLM001;20GD250CD20;7
SLM001;29HD250A15;24
SLM001;29HS100A21;30
SLM001;01CM500K20;22
SLM001;15LM300L11;31
SLM001;17AS250FV21;26
SLM001;17RC500E20;27
SLM001;29RH500A15;288
SLM001;49PO3MD19;26
SLM001;52AS006G18;290
SLM001;01HD500K20;13
SLM001;01LT300K20;17
SLM001;01SA250LV20;56
SLM001;01SL500VE20;17
SLM001;17AS250G21;18
SLM001;17ER075P19;13
SLM001;17RS500E20;24
SLM001;17SH500E19;285
SLM001;17SH500G18;20
SLM001;17SH500G21;92
SLM001;24GD075CB5;40
SLM001;27TS001I20;432
SLM001;52AS006FV21;264
SLM001;01PI075K18;10
SLM001;17HI100G19;14
SLM001;17MC200G18;14
SLM001;17MC200G21;20
SLM001;17SE100FV21;18
SLM001;01LC250K17;32
SLM001;15GM065VB20;41
SLM001;17AS075E19;146
SLM001;17RS500P19;23
SLM001;17SH075E19;26
SLM001;17SH500FV21;101
SLM001;29HD075A15;38
SLM001;15LC250VA5;8
SLM001;17AS500G18;24
SLM001;17AS500G21;24
SLM001;17RC500G18;21
SLM001;17RC500G21;36
SLM001;27DH030I20;11
SLM001;27DS030I20;15
SLM001;27EV200I19;15
SLM001;01MA030K16;44
SLM001;01PI030K18;10
SLM001;15MA030VA5;13
SLM001;15RG500L14;24
SLM001;17AS500E19;20
SLM001;17SH060SG21;31
SLM001;17SH060SP21;36
SLM001;24BR050CB6;12
SLM001;01MA075K18;22
SLM001;17SH300E19;31
SLM001;17VI100P19;13
SLM001;20DO130HC20;11
SLM001;27DC030I20;10
SLM001;29HD500A15;211
SLM001;49OR005I19;20
SLM001;52AS006E19;689
SLM001;01HD250K17;15
SLM001;01SA250VE20;42
SLM001;01SL300VE20;14
SLM001;17AS075P19;22
SLM001;17SH300P19;29
SLM001;17SH500P19;103
SLM001;24GD250CB4;36
SLM001;24MA075CB4;13
SLM001;27OR030I19;84
SLM001;27SP030I19;14
SLM001;15DF200VBL21;16
SLM001;15MA030VB3;13
SLM001;17AS075G21;80
SLM001;17AS500P19;11
SLM001;17RS500FV21;21
SLM001;17SH060SE21;36
SLM001;24MA030P15;27
SLM001;27DE015I13US;13
SLM001;27ER050I21;22
SLM001;27MP050I20;40
SLM001;27RM300I20;21
SLM001;29MA075A19;7
SLM001;29MA075A21;17
SLM001;49PASSSA19;16
SLM001;11CD050A18;10
SLM001;11GN195A18;16
SLM001;15GN300L11;22
SLM001;15MA030VBL21;19
S29000;01HDR500K20;24
S29000;01SA050KV20;15
S29000;11EP010H19;12
S29000;11GD250O21;24
S29000;11SA100H20;14
S29000;15MA030VAL21;16
S29000;17AF100G20;36
S29000;18SA075TL17ET;15
S29000;20ET075HC20;8
S29000;20GD250OC20;40
S29000;24BL012CB5;4
S29000;27ER150I21;23
S29000;27HC050I18;12
S29000;29MA030A17;28
S29000;29SE125A21;35
S29000;38EC015A18;12
S29000;38RC050A18;15
S29000;38UV030A18;17
S29000;52HD006A18;349
S29000;52OR001I21;669
S29000;01BM150K19;56
S29000;01CM300K20;10
S29000;01MA150K18;14
S29000;01MR030K14;27
S29000;01RL500K20;46
S29000;01SL500LV20;22
S29000;11CM030H20;13
S29000;11MH075A19;8
S29000;11SP200SH19;20
S29000;15DO050VA5;33
S29000;15LC250L14;18
S29000;15SA070VB6;26
S29000;17SH300G21;21
S29000;20ET075CD20;6
S29000;20GD250CD20;24
S29000;24AF050R18;7
S29000;27OR075I21;22
S29000;29HD250A15;35
S29000;29HS100A21;33
S29000;29MAV075A19;12
S29000;38FT200A21;18
S29000;49CP004I19;89
S29000;49MA010R18;142
S29000;52AF006G20;134
S29000;52CV0015K18;117
S29000;52DC0015I20;166
S29000;52DH001I20;456
S29000;01BK010K14;15
S29000;01BL012K18;16
S29000;01CL200K17;12
S29000;01CM500K20;29
S29000;01HF100K17;32
S29000;01SA100LV20;36
S27000;27SP030I19;7
S15;27SP030I19;6
S28000;24SA050CB6;21
S27000;24SA050CB6;10
S15;24SA050CB6;17
S28000;24BL012CB5;28
S15;24GD500R19;16
S15;24MA030RV19;7
S27000;24MA030RV19;11
S15;27ER150I21;26
S27000;27ER150I21;28
S28000;27ER150I21;31
S15;27HC050I18;8
S27000;27HC050I18;6
S28000;27HC050I18;8
S15;29MA030A17;18
S27000;29MA030A17;13
S28000;29MA030A17;15
S15;29SE125A21;14
S27000;29SE125A21;4
S28000;29SE125A21;16
S15;38EC015A18;6
S27000;38EC015A18;8
S28000;38EC015A18;8
S15;38RC050A18;8
S27000;38RC050A18;6
S28000;38RC050A18;9
S15;38UV030A18;15
S27000;38UV030A18;11
S28000;38UV030A18;13
S15;52HD006A18;452
S27000;52HD006A18;402
S28000;52HD006A18;682
S15;52OR001I21;689
S27000;52OR001I21;1272
S28000;52OR001I21;1076
S15;38FT200A21;13
S27000;38FT200A21;10
S28000;38FT200A21;9
S15;52AF006G20;169
S27000;52AF006G20;159
S28000;52AF006G20;223
S15;52CV0015K18;129
S27000;52CV0015K18;190
S28000;52CV0015K18;174
S15;52DC0015I20;351
S28000;52DC0015I20;613
S15;52DH001I20;198
S27000;52DH001I20;693
S28000;52DH001I20;728
S15;52HV001K18;20
S27000;52HV001K18;106
S28000;52HV001K18;163
S20;01HDR500K20;15
S20;01SA050KV20;6
S20;11EP010H19;11
S20;11GD250O21;22
S20;11SA100H20;11
S20;15MA030VAL21;22
S20;17AF100G20;16
S20;18SA075TL17ET;9
S20;20ET075HC20;6
S20;20GD250OC20;15
S20;24BL012CB5;8
S20;24MA030RV19;7
S20;27ER150I21;27
S20;27HC050I18;9
S20;29MA030A17;15
S20;29SE125A21;12
S20;38EC015A18;8
S20;38RC050A18;7
S20;38UV030A18;8
S20;52HD006A18;520
S20;52OR001I21;676
S20;01BM150K19;17
S20;01CM300K20;12
S20;01MA150K18;16
S20;01MR030K14;13
S20;01RL500K20;14
S20;01SL500LV20;8
S20;11CM030H20;14
S20;11MH075A19;7
S20;11SP200SH19;7
S20;15DO050VA5;14
S20;15LC250L14;13
S20;15SA070VB6;5
S20;17SH300G21;21
S20;20ET075CD20;8
S20;20GD250CD20;12
S20;24AF050R18;2
S20;27OR075I21;42
S20;29HD250A15;21
S20;29HS100A21;10
S20;29MAV075A19;11
S20;38FT200A21;9
S20;52AF006G20;120
S20;52CV0015K18;119
S20;52DC0015I20;222
S20;52DH001I20;541
S20;52HV001K18;43
S20;52SGEBAG19;383
S20;01BK010K14;16
S20;01BL012K18;14
S20;01CL200K17;9
S20;01CM500K20;13
S20;01HF100K17;11
S20;01SA100LV20;23
S21000;01HDR500K20;12
S21000;01SA050KV20;6
S21000;11EP010H19;6
S21000;11GD250O21;21
S21000;11SA100H20;10
S21000;15MA030VAL21;7
S21000;17AF100G20;8
S21000;18SA075TL17ET;5
S21000;20ET075HC20;7
S21000;20GD250OC20;11
S21000;24BL012CB5;9
S21000;24MA030RV19;5
S21000;27ER150I21;36
S21000;27HC050I18;5
S21000;29MA030A17;13
S21000;29SE125A21;13
S21000;38EC015A18;6
S21000;38RC050A18;8
S21000;38UV030A18;8
S21000;52HD006A18;247
S21000;52OR001I21;825
S21000;01BM150K19;17
S21000;01CM300K20;7
S21000;01MA150K18;12
S21000;01MR030K14;73
S21000;01RL500K20;12
S21000;01SL500LV20;5
S21000;11CM030H20;5
S21000;11MH075A19;7
S21000;11SP200SH19;5
S21000;15DO050VA5;11
S21000;15LC250L14;7
S21000;15SA070VB6;5
S21000;17SH300G21;27
S21000;20ET075CD20;5
S21000;20GD250CD20;7
S21000;24AF050R18;5
S21000;27OR075I21;55
S21000;29HD250A15;18
S21000;29HS100A21;12
S21000;29MAV075A19;6
S21000;38FT200A21;13
S21000;52AF006G20;227
S21000;52CV0015K18;46
S21000;52DC0015I20;65
S21000;52DH001I20;681
S21000;52LT002R21;384
S21000;52SGEBAG19;515
S21000;01BK010K14;12
S21000;01BL012K18;10
S21000;01CL200K17;4
S21000;01CM500K20;9
S21000;01HF100K17;6
S15;52LT002R21;241
S27000;52LT002R21;370
S28000;52LT002R21;170
S15;52MGEBOX18;13
S27000;52MGEBOX18;9
S28000;52MGEBOX18;8
S27000;52MGENSA18;24
S28000;52MGENSA18;61
S15;52SGEBAG19;398
S27000;52SGEBAG19;396
S28000;52SGEBAG19;377
S15;98BBDF015IM0;17
S27000;98BBDF015IM0;23
S28000;98BBDF015IM0;49
S15;01BK010K14;12
S27000;01BK010K14;15
S28000;01BK010K14;15
S15;01BL012K18;15
S27000;01BL012K18;11
S28000;01BL012K18;15
S15;01CL200K17;9
S27000;01CL200K17;5
S28000;01CL200K17;9
S15;01CM500K20;11
S27000;01CM500K20;5
S28000;01CM500K20;13
S15;01HF100K17;9
S27000;01HF100K17;4
S28000;01HF100K17;5
S15;01SA100LV20;17
S27000;01SA100LV20;14
S28000;01SA100LV20;17
S15;01SB020K21;24
S27000;01SB020K21;22
S28000;01SB020K21;35
S15;11GD250H19;12
S27000;11GD250H19;5
S28000;11GD250H19;12
S15;11GD250H20;12
S27000;11GD250H20;11
S28000;11GD250H20;17
S15;11LC250H19;12
S27000;11LC250H19;7
S28000;11LC250H19;9
S15;15ET100VCL21;14
S27000;15ET100VCL21;11
S28000;15ET100VCL21;14
S15;15LM300L11;10
S27000;15LM300L11;3
S28000;15LM300L11;13
S15;17AS250FV21;14
S27000;17AS250FV21;6
S28000;17AS250FV21;7
S10;01HDR500K20;15
S10;01SA050KV20;10
S10;11EP010H19;5
S10;11SA100H20;9
S10;15MA030VAL21;22
S10;17AF100G20;7
S10;18SA075TL17ET;6
S10;20ET075HC20;7
S10;20GD250OC20;6
S10;24BL012CB5;5
S10;24GD500R19;6
S10;24MA030RV19;11
S10;27ER150I21;26
S10;27HC050I18;3
S10;29SE125A21;8
S10;38EC015A18;7
S10;38RC050A18;5
S10;38UV030A18;14
S10;52HD006A18;129
S10;01BM150K19;10
S10;01CM300K20;6
S10;01MA150K18;12
S10;01RL500K20;7
S10;01SL500LV20;4
S10;11MH075A19;7
S10;11SP200SH19;7
S10;15DO050VA5;8
S10;15LC250L14;7
S10;15SA070VB6;4
S10;17SH300G21;24
S10;20ET075CD20;5
S10;20GD250CD20;13
S10;24AF050R18;7
S10;27OR075I21;30
S10;29HS100A21;7
S10;29MAV075A19;7
S10;38FT200A21;8
S10;52AF006G20;111
S10;52CV0015K18;131
S10;52DC0015I20;169
S10;52DH001I20;573
S10;52HV001K18;34
S10;52LT002R21;374
S10;52MGEBOX18;7
S10;52MGENSA18;129
S10;52RC0015A18;109
S10;52SGEBAG19;682
S10;98BBDF015IM0;37
S10;01BK010K14;11
S10;01BL012K18;12
S10;01CL200K17;7
S10;01CM500K20;6
S10;01HF100K17;8
S10;01SA100LV20;10
S24000;01HDR500K20;11
S24000;01SA050KV20;5
S90000;01SA050KV20;9
S24000;11EP010H19;10
S90000;11EP010H19;5
S24000;11GD250O21;23
S90000;11GD250O21;18
S24000;11SA100H20;6
S90000;11SA100H20;4
S90000;15CF150VBL21;7
S24000;15MA030VAL21;11
S90000;15MA030VAL21;7
S90000;15MF075VM20H;7
S24000;17AF100G20;12
S24000;18SA075TL17ET;7
S90000;18SA075TL17ET;12
S24000;20ET075HC20;7
S90000;20ET075HC20;3
S24000;20GD250OC20;7
S24000;24BL012CB5;11
S90000;24BL012CB5;4
S24000;24MA030RV19;5
S90000;24SA050S6;15
S24000;27ER150I21;23
S24000;27HC050I18;5
S90000;27HC050I18;6
S90000;29LC200A21C;1
S24000;29MA030A17;18
S90000;29MA030A17;21
S24000;29SE125A21;9
S90000;29SH075A20;7
S24000;38EC015A18;6
S24000;38RC050A18;6
S90000;38RC050A18;8
S24000;38UV030A18;7
S90000;49BP010K19;40
S90000;49ET007CB19;4
S90000;49ET007CB4;17
S90000;49FT030A18;12
S90000;49HS015A18;6
S90000;49POCB19;1
S24000;52ER006P19;63
S24000;52HD006A18;550
S24000;52OR001I21;660
S90000;52TBO1M21;40
S90000;52TBO2M21;18
S90000;52TBOM20;28
S24000;01BM150K19;11
S24000;01CM300K20;5
S90000;01CM300K20;6
S24000;01MA150K18;23
S24000;01MR030K14;14
S90000;01MR030K14;1
S10;01SB020K21;23
S10;11GD250H19;5
S10;11LC250H19;16
S10;15ET100VCL21;8
S10;15GD500VA20;6
S10;15LM300L11;5
S10;17AS250FV21;7
S10;17RC500E20;43
S10;24MA030R18;18
S10;27BY015I19;6
S10;29RH500A15;12
S10;52AS006G21;500
S10;52CARDENV18;1
S10;52DB001I20;73
S10;52ER002I21;278
S10;52HF004K17;7
S10;01EM075K20;7
S10;01HD500K20;5
S10;01LT300K20;5
S10;01SA250LV20;12
S10;01SL500VE20;7
S10;15GD250VCL21;8
S10;15GM280VB20;10
S10;15RG500VA20;12
S10;17AS250G21;23
S10;17ER075P19;7
S10;17HI001G19;66
S10;17RS500E20;25
S10;17SH075G21;24
S10;17SH500E19;19
S10;17SH500G21;7
S10;18GD250TL17ET;4
S10;24MA150R19;12
S10;24VF050R18;5
S10;27OR050I21;48
S10;27TS001I20;233
S10;38ST016A18;3
S10;49EV030I19;2
S10;52CP0015I19;128
S10;52DE001I21;137
S10;52DS001I20;218
S10;01BM050K19;22
S10;01PI075K18;40
S10;11CM030H19;23
S10;11ET050H20;5
S10;11GE075I20;3
S10;11PM100SL19;7
S10;15BA500L16A;8
S10;15ET100VA5;4
S10;15MA075VB4;10
S10;17HI100G19;6
S10;17MC200G21;24
S10;17SE100FV21;6
S10;24LC250CB4;9
S10;01LC250K17;16
S10;11CF100TR19;8
S10;11PM100SI19;7
S10;11SP200SL19;8
S10;15ET100VA20;2
S10;17AS075E19;7
S10;17RS500P19;17
S10;17SH075E19;23
S10;17SH500FV21;10
S10;24MA075R18;5
S10;27DCB060I17;4
S10;27DE015I21;5
S10;38WS030A21;6
S10;49BO015CS19;53
S10;52MS001I20;116
S10;52SH006G21;480
S10;11BG140SL19;5
S10;11CM125I19;10
S10;11LD200I19;9
S10;17AS500G21;16
S10;17RC500G21;25
S10;20HR050H20;5
S10;20SA050CD20;6
S10;24MA030RA19;6
S10;24SA050R18;7
S10;27DB015I20;4
S10;27DH030I20;20
S10;27DS030I20;7
S10;27EV200I19;11
S10;27HS030I18;7
S10;27MQ065I15A;7
S10;49LC020A20;72
S10;49POUID20;8
S10;01HN0075K19;11
S10;01LH300KB19;7
S10;01MA030K16;8
S10;01PI030K18;9
S10;01SA100LT16;6
S10;01SE125K21;11
S10;11MWC200I19;6
S10;11PEP050I20;9
S10;11SD100SI19;7
S10;15AS250VA18;8
S10;15CP250VA5;4
S10;15GD250VA20;7
S10;15MA030VA5;17
S10;15RG500L14;3
S10;15SH250VA20;6
S10;24LC250R20;10
S10;24RO010CB4;9
S10;98BBHD050A0;49
S10;52PS0015R21;61
S10;98BBSA050LT1;59
S10;52CL0015K18;80
S24000;01RL500K20;5
S24000;01SL500LV20;5
S90000;01SL500LV20;7
S24000;11CM030H20;4
S90000;11CM030H20;9
S90000;11GD020A19;11
S24000;11MH075A19;5
S90000;11MH075A19;2
S24000;11SP200SH19;8
S24000;15DO050VA5;10
S24000;15LC250L14;6
S24000;15SA070VB6;7
S90000;17AS250G18;112
S90000;17SH075FV21;26
S24000;17SH300G21;14
S90000;17SH300G21;16
S24000;20ET075CD20;7
S90000;20ET075CD20;5
S24000;20GD250CD20;8
S90000;20GD250CD20;9
S90000;24AF050R18;4
S90000;24LC250R18;2
S24000;27OR075I21;62
S24000;29HD250A15;17
S24000;29HS100A21;10
S24000;29MAV075A19;7
S90000;29MAV075A19;1
S24000;38FT200A21;5
S90000;49DC008I20;17
S90000;49MWC030I19;101
S90000;49PFCWC21;93
S24000;52AF006G20;154
S90000;52AF006G20;100
S24000;52CV0015K18;81
S24000;52DC0015I20;182
S90000;52DC0015I20;127
S24000;52DH001I20;618
S24000;52HV001K18;2
S90000;52HV001K18;106
S24000;52LT002R21;125
S90000;52LT002R21;100
S24000;52MGEBOX18;18
S24000;52MGENSA18;22
S24000;52RC0015A18;6
S24000;52SGEBAG19;531
S24000;98BBDF015IM0;17
S90000;98BBDF015IM0;51
S24000;01BK010K14;12
S24000;01BL012K18;11
S24000;01CL200K17;6
S90000;01CL200K17;1
S24000;01CM500K20;8
S90000;01CM500K20;2
S24000;01HF100K17;3
S24000;01SA100LV20;10
S24000;01SB020K21;17
S90000;11EH040A19;11
S24000;11GD250H19;11
S24000;11GD250H20;12
S90000;11GD250H20;6
S24000;11LC250H19;5
S90000;11LC250H19;7
S24000;15ET100VCL21;13
S24000;15LM300L11;4
S90000;15LM300L11;4
S24000;17AS250FV21;6
S90000;17AS250FV21;4
S24000;17RC500E20;8
S24000;17SH075G18;7
S90000;17SH075G18;11
S24000;27BY015I19;9
S24000;29RH500A15;24
S90000;49ED030K17;26
S90000;49GD035R14;5
S90000;49MW030I19;20
S90000;49TC1NO20;20
S90000;49TC2NO19;26
S90000;52AS006G18;1
S24000;52AS006G21;354
S90000;52AS006G21;300
S90000;52CARDENV18;3
S24000;52DB001I20;185
S90000;52DB001I20;157
S90000;52DL002I17;153
S24000;52ER002I21;498
S24000;52MOCOL316;3
S90000;52MOCOL316;14
S90000;01CP050K17;81
S24000;01EM075K20;5
S90000;01EM075K20;14
S24000;01HD500K20;10
S24000;01LT300K20;12
S24000;01SA250LV20;13
S24000;01SL500VE20;5
S90000;01SL500VE20;14
S24000;11BO100CS19;15
S90000;11GN040A19;88
S90000;15GD250VCL21;1
S24000;15GM280VB20;5
S90000;15GM280VB20;11
S90000;15LC250VBL20;2
S24000;17AS250G21;10
S90000;17AS250G21;12
S24000;17ER075P19;6
S90000;17ER075P19;3
S24000;17HI001G19;141
S29000;01SB020K21;23
S29000;11GD250H19;28
S29000;11GD250H20;32
S29000;11LC250H19;26
S29000;15ET100VCL21;16
S29000;15GD500VA20;20
S29000;15LM300L11;24
S29000;17AS250FV21;20
S29000;17RC500E20;32
S29000;27BY015I19;8
S29000;29RH500A15;171
S29000;52AS006G21;304
S29000;52DB001I20;70
S29000;52ER002I21;569
S29000;52MOCOL316;3
S29000;01EM075K20;4
S29000;01HD500K20;32
S29000;01LT300K20;37
S29000;01SA250LV20;34
S29000;01SL500VE20;24
S29000;11BO100CS19;19
S29000;15GM280VB20;25
S29000;17AS250G21;21
S29000;17ER075P19;31
S29000;17HI001G19;172
S29000;17RS500E20;90
S29000;98BBDF015IM0;27
S29000;52LT002R21;100
S29000;52HV001K18;24
S29000;52MGEBOX18;19
S29000;17SH075G21;16
S29000;17SH500E19;51
S29000;17SH500G21;17
S29000;18GD250TL17ET;21
S29000;24MA150R19;7
S29000;27OR050I21;49
S29000;27TS001I20;640
S29000;38ST016A18;9
S29000;49EV030I19;190
S29000;52AS006FV21;204
S29000;52CP0015I19;233
S29000;52DE001I21;155
S29000;52DS001I20;23
S29000;52LGENSA18;143
S29000;52PS0015R21;182
S29000;01BM050K19;12
S29000;01PI075K18;16
S29000;11CM030H19;24
S29000;11ET050H20;8
S29000;11GE075I20;5
S29000;11PM100SL19;12
S29000;15BA500L16A;27
S29000;15ET100VA5;3
S15;17RC500E20;15
S27000;17RC500E20;10
S28000;17RC500E20;13
S15;27BY015I19;8
S27000;27BY015I19;6
S28000;27BY015I19;11
S15;29RH500A15;41
S27000;29RH500A15;33
S28000;29RH500A15;50
S15;52AS006G18;44
S15;52AS006G21;248
S27000;52AS006G21;334
S28000;52AS006G21;619
S15;52DB001I20;75
S27000;52DB001I20;154
S28000;52DB001I20;283
S15;52ER002I21;566
S27000;52ER002I21;818
S28000;52ER002I21;746
S27000;52HF004K17;18
S27000;52MOCOL316;3
S27000;49EV030I19;57
S28000;49EV030I19;108
S27000;52AS006FV21;218
S28000;52AS006FV21;244
S15;52CP0015I19;53
S27000;52CP0015I19;264
S28000;52CP0015I19;181
S15;52DE001I21;162
S27000;52DE001I21;145
S28000;52DE001I21;217
S15;52DS001I20;154
S27000;52DS001I20;471
S28000;52DS001I20;686
S27000;52LGENSA18;161
S28000;52LGENSA18;114
S15;52PS0015R21;61
S27000;52PS0015R21;326
S28000;52PS0015R21;325
S15;98BBHD050A0;29
S27000;98BBHD050A0;19
S28000;98BBHD050A0;64
S15;01LC250K17;13
S27000;01LC250K17;15
S28000;01LC250K17;22
S15;11CF100TR19;11
S27000;11CF100TR19;7
S28000;11CF100TR19;9
S15;11PM100SI19;8
S27000;11PM100SI19;8
S28000;11PM100SI19;8
S15;11SP200SL19;12
S27000;11SP200SL19;5
S20;01SB020K21;23
S20;11GD250H19;13
S20;11GD250H20;16
S20;11LC250H19;9
S20;15ET100VCL21;9
S20;15LM300L11;13
S20;17AS250FV21;7
S20;17RC500E20;12
S20;27BY015I19;7
S20;29RH500A15;58
S20;52AS006G21;273
S20;52DB001I20;143
S20;52ER002I21;544
S20;01EM075K20;7
S20;01HD500K20;11
S20;01LT300K20;14
S20;01SA250LV20;20
S20;01SL500VE20;12
S20;11BO100CS19;21
S20;15GM280VB20;3
S20;17AS250G21;21
S20;17ER075P19;8
S20;17HI001G19;136
S20;17RS500E20;15
S20;17SH075G21;13
S20;17SH500E19;17
S20;98BBDF015IM0;24
S20;52LT002R21;133
S20;52MGENSA18;1
S20;52MGEBOX18;27
S20;17SH500G21;13
S20;18GD250TL17ET;14
S20;24GD075CB5;2
S20;24MA150R19;8
S20;27OR050I21;43
S20;27TS001I20;640
S20;49EV030I19;70
S20;52CP0015I19;171
S20;52DE001I21;177
S20;52DS001I20;160
S20;52LGENSA18;87
S20;52PS0015R21;127
S20;98BBHD050A0;22
S20;01LC250K17;19
S20;11CF100TR19;16
S20;11PM100SI19;7
S20;11SP200SL19;9
S20;15ET100VA20;6
S20;15GM065VB20;17
S20;17AS075E19;3
S20;17RS500P19;24
S20;17SH075E19;13
S20;17SH500FV21;21
S20;24LC250R20;12
S21000;01SA100LV20;11
S21000;01SB020K21;23
S21000;11GD250H19;10
S21000;11GD250H20;13
S21000;11LC250H19;3
S21000;15ET100VCL21;10
S21000;15LM300L11;4
S21000;17AS250FV21;6
S21000;17RC500E20;15
S21000;27BY015I19;9
S21000;29RH500A15;42
S21000;52AS006G21;274
S21000;52DB001I20;217
S21000;52ER002I21;554
S21000;01EM075K20;6
S21000;01HD500K20;10
S21000;01LT300K20;10
S21000;01SA250LV20;15
S21000;01SL500VE20;7
S21000;11BO100CS19;14
S21000;15GD250VCL21;1
S21000;15GM280VB20;6
S21000;17AS250G21;16
S21000;17ER075P19;10
S21000;17HI001G19;195
S21000;17RS500E20;20
S21000;17SH075G21;12
S21000;98BBDF015IM0;50
S21000;52MGENSA18;27
S21000;52MGEBOX18;15
S21000;17SH500E19;22
S21000;17SH500G21;13
S21000;18GD250TL17ET;12
S21000;24GD075CB5;2
S21000;24MA150R19;4
S21000;27OR050I21;50
S21000;27TS001I20;654
S21000;49EV030I19;88
S21000;52CP0015I19;238
S21000;52DE001I21;234
S21000;52DS001I20;148
S21000;52LGENSA18;48
S21000;52PS0015R21;120
S21000;98BBHD050A0;36
S21000;01LC250K17;15
S21000;11CF100TR19;4
S21000;11PM100SI19;8
S21000;11SP200SL19;9
S21000;15ET100VA20;4
S21000;15GM065VB20;11
S21000;17AS075E19;9
S21000;17RS500P19;18
S21000;17SH075E19;10
SLM001;17AS075FV21;80
SLM001;17AS250E19;32
SLM001;17RS500G19;23
SLM001;17RS500G21;36
SLM001;27MP150I20;22
SLM001;29RC200A20;158
SLM001;01CP200K17;7
SLM001;01RV500K20;31
SLM001;15MA030L11;32
SLM001;17AS500FV21;31
SLM001;17RC500P19;50
SLM001;17SH300G18;13
SLM001;20AR075O20;9
SLM001;20DO075CD20;7
SLM001;20FE050H20;8
SLM001;20GD250HC20;10
SLM001;27CP050I19;15
SLM001;27DF125I17;12
SLM001;27ER015I20;19
SLM001;27TS050I20;1
SLM001;29SH240A20;23
SLM001;49GD008A18;41
SLM001;01CMR500K20;27
SLM001;15GM065L20;35
SLM001;17SH300FV21;28
SLM001;18ET010TL17;12
SLM001;20NV150H20;8
SLM001;24MA030CB4;24
SLM001;24MA075P15;14
SLM001;27BP050I19;9
SLM001;27MS050I20;41
SLM001;29ASH240A20;19
SLM001;49MA010VB3;26
SLM001;01SL300LV20;14
SLM001;11GD050A18;14
SLM001;17AS250P19;12
SLM001;20DO050O20;9
SLM001;27DH015I20;46
SLM001;29EC200A13;21
SLM001;49DH004I20;8
SLM001;49MA010K16;469
SLM001;49OR005I18;50
SLM001;52OR001I19;1390
SLM001;01PI150K18;25
SLM001;01SA050KL20;8
SLM001;01SA250LT20;43
SLM001;15MA075L11;20
SLM001;24MA030S6;20
SLM001;52CP006K17;112
SLM001;52DF002I17;9
SLM001;15GD250L14;33
SLM001;SGOCVE700013;6
SLM001;SGOCVE700011;60
S28000;11SP200SL19;9
S15;15ET100VA20;9
S27000;15ET100VA20;3
S28000;15ET100VA20;8
S15;15GM065VB20;32
S27000;15GM065VB20;18
S28000;15GM065VB20;15
S15;17AS075E19;6
S27000;17AS075E19;3
S28000;17AS075E19;7
S15;17RS500P19;19
S27000;17RS500P19;16
S28000;17RS500P19;27
S15;17SH075E19;18
S27000;17SH075E19;10
S28000;17SH075E19;3
S15;17SH500FV21;16
S27000;17SH500FV21;17
S28000;17SH500FV21;17
S15;24LC250R20;10
S27000;24LC250R20;8
S28000;24LC250R20;10
S15;27DCB060I17;6
S27000;27DCB060I17;6
S28000;27DCB060I17;7
S15;27DE015I21;12
S27000;27DE015I21;10
S28000;27DE015I21;13
S15;38WS030A21;9
S27000;38WS030A21;7
S28000;38WS030A21;9
S15;49BO015CS19;16
S27000;49BO015CS19;14
S28000;49BO015CS19;33
S15;52CL0015K18;181
S27000;52CL0015K18;39
S27000;52CL0015K21;150
S28000;52CL0015K21;87
S27000;52LGEBAG18;1
S15;52MS001I20;130
S27000;52MS001I20;147
S28000;52MS001I20;412
S15;52SH006G21;373
S27000;52SH006G21;333
S28000;52SH006G21;538
S15;98BBSA050LT1;10
S27000;98BBSA050LT1;10
S28000;98BBSA050LT1;60
S15;01BM050K19;6
S27000;01BM050K19;2
S28000;01BM050K19;12
S15;01PI075K18;8
S27000;01PI075K18;9
S29000;15MA075VB4;14
S29000;17HI100G19;31
S29000;17MC200G21;19
S29000;17SE100FV21;28
S29000;24LC250CB4;30
S29000;24RO010CB4;14
S29000;49GD035CB5;190
S29000;52FP0015I19;74
S29000;01LC250K17;56
S29000;11CF100TR19;6
S29000;11PM100SI19;14
S29000;11SP200SL19;21
S29000;15ET100VA20;7
S29000;15GM065VB20;58
S29000;17AS075E19;12
S29000;17RS500P19;41
S29000;17SH075E19;105
S29000;17SH500FV21;48
S29000;24LC250R20;19
S29000;27DCB060I17;7
S29000;27DE015I21;36
S29000;38WS030A21;18
S29000;52CL0015K18;6
S29000;52CL0015K21;230
S29000;52MS001I20;88
S29000;52SH006G21;250
S29000;11BG140SL19;11
S29000;11CM125I19;24
S29000;11LD200I19;14
S29000;15LC250VA5;1
S29000;17AS500G21;15
S29000;17RC500G21;20
S29000;20HR050H20;7
S29000;20SA050CD20;15
S29000;24MA030RA19;3
S29000;24MA075R18;17
S29000;24SA050R18;12
S29000;27DB015I20;27
S29000;27DH030I20;32
S29000;27DS030I20;15
S29000;27EV200I19;23
S29000;27HS030I18;4
S29000;27MQ065I15A;13
S29000;49LC020A20;26
S29000;01HN0075K19;13
S29000;01LH300KB19;24
S29000;01MA030K16;49
S29000;01PI030K18;6
S29000;01SA100LT16;6
S29000;01SE125K21;4
S29000;11MWC200I19;12
S29000;11PEP050I20;7
S29000;11SD100SI19;14
S20;27DCB060I17;7
S20;27DE015I21;7
S20;38WS030A21;12
S20;49BO015CS19;12
S20;52CL0015K18;50
S20;52CL0015K21;100
S20;52MS001I20;140
S20;52SH006G21;258
S20;98BBSA050LT1;10
S20;01BM050K19;11
S20;01PI075K18;7
S20;11CM030H19;12
S20;11ET050H20;6
S20;11GE075I20;8
S20;11PM100SL19;11
S20;15BA500L16A;16
S20;15ET100VA5;1
S20;15MA075VB4;7
S20;17HI100G19;9
S20;17MC200G21;15
S20;17SE100FV21;16
S20;24LC250CB4;11
S20;24RO010CB4;9
S20;49GD035CB5;67
S20;49MR010K14;2
S20;52FP0015I19;88
S20;01BG070K21;7
S20;11BG140SL19;6
S20;11CM125I19;8
S20;11LD200I19;8
S20;17AS500G21;12
S20;17RC500G21;23
S20;20HR050H20;6
S20;20SA050CD20;17
S20;24MA030RA19;8
S20;24MA075R18;7
S20;24SA050R18;8
S20;27DB015I20;7
S20;27DH030I20;14
S20;27DS030I20;8
S20;27EV200I19;10
S20;27HS030I18;8
S20;27MQ065I15A;5
S20;49LC020A20;33
S20;49POUID20;10
S20;01HN0075K19;10
S20;01LH300KB19;7
S20;01MA030K16;25
S20;01PI030K18;11
S20;01SE125K21;8
S20;11MWC200I19;5
S20;11PEP050I20;9
S20;11SD100SI19;14
S20;15AS250VA18;7
S21000;17SH500FV21;16
S21000;24LC250R20;10
S21000;27DCB060I17;5
S21000;27DE015I21;12
S21000;38WS030A21;10
S21000;49BO015CS19;49
S21000;52CL0015K21;97
S21000;52MS001I20;209
S21000;52SH006G21;266
S21000;98BBSA050LT1;48
S21000;01BM050K19;10
S21000;01PI075K18;8
S21000;11CM030H19;6
S21000;11ET050H20;6
S21000;11GE075I20;6
S21000;11PM100SL19;5
S21000;15BA500L16A;9
S21000;15ET100VA5;1
S21000;15MA075VB4;6
S21000;17HI100G19;6
S21000;17MC200G21;27
S21000;17SE100FV21;17
S21000;24LC250CB4;16
S21000;24RO010CB4;6
S21000;49GD035CB5;84
S21000;49MR010K14;2
S21000;52FP0015I19;209
S21000;11BG140SL19;5
S21000;11CM125I19;13
S21000;11LD200I19;6
S21000;15LC250VA5;3
S21000;17AS500G21;23
S21000;17RC500G21;17
S21000;20HR050H20;5
S21000;20SA050CD20;10
S21000;24MA030RA19;7
S21000;24MA075R18;6
S21000;24SA050R18;7
S21000;27DB015I20;7
S21000;27DH030I20;10
S21000;27DS030I20;5
S21000;27EV200I19;15
S21000;27HS030I18;6
S21000;27MQ065I15A;5
S21000;49LC020A20;35
S21000;49POUID20;12
S21000;01HN0075K19;7
S21000;01LH300KB19;6
S21000;01MA030K16;118
S21000;01PI030K18;4
S21000;01SE125K21;11
S21000;11MWC200I19;5
S21000;11PEP050I20;5
S29000;15AS250VA18;17
S29000;15CP250VA5;7
S29000;15GD070VB17;7
S29000;15GD250VA20;19
S29000;15MA030VA5;4
S29000;15RG500L14;34
S29000;15SH250VA20;29
S29000;17AS500E19;41
S29000;17SH060SG21;16
S29000;17SH060SP21;8
S29000;18BI030TL17ET;35
S29000;18LC250TL17ET;26
S29000;24BR050CB6;15
S29000;24MA030RV19;6
S29000;49PO2HER20;7
S29000;52CD0015A18;68
S29000;01CL300KB20;21
S29000;01MA075K18;33
S29000;01RC300KB20;6
S29000;11BP100I19;26
S29000;11BR100A20;14
S29000;11EH150A18;11
S29000;11GM200I19;18
S29000;11SD100CS19;25
S29000;15ET100VB3;20
S29000;15MA030VCL21;32
S29000;17SH300E19;18
S29000;17VI100P19;22
S29000;20DO130HC20;11
S29000;24GD075R18;142
S29000;27DC030I20;11
S29000;27DL200I20;17
S29000;27HSR030I16;17
S29000;29HD500A15;89
S29000;29SA050A17;22
S29000;38WM065A18;9
S29000;49OR005I21;168
S29000;52AS006E19;312
S29000;52SH006FV21;267
S29000;01HD250K17;23
S29000;01SA100VE20;44
S29000;01SA250VE20;36
S29000;01SL300VE20;9
S29000;11CM030O21;47
S29000;11LC250O21;24
S29000;11PM100SH19;17
S29000;11SD100SH19;20
S29000;17AS075P19;16
S29000;17CS150P19;38
S29000;17SH300P19;24
S29000;17SH500P19;34
S29000;20MP030H20;3
S28000;01PI075K18;10
S15;11CM030H19;9
S27000;11CM030H19;6
S28000;11CM030H19;14
S15;11ET050H20;12
S27000;11ET050H20;10
S28000;11ET050H20;7
S15;11GE075I20;9
S27000;11GE075I20;5
S28000;11GE075I20;9
S15;11PM100SL19;8
S27000;11PM100SL19;8
S28000;11PM100SL19;7
S15;15BA500L16A;9
S27000;15BA500L16A;5
S28000;15BA500L16A;17
S27000;15ET100VA5;2
S15;15MA075VB4;12
S27000;15MA075VB4;5
S28000;15MA075VB4;13
S15;17HI100G19;8
S27000;17HI100G19;9
S28000;17HI100G19;10
S15;17MC200G21;12
S27000;17MC200G21;27
S28000;17MC200G21;16
S15;17SE100FV21;19
S27000;17SE100FV21;12
S28000;17SE100FV21;13
S15;24LC250CB4;11
S27000;24LC250CB4;9
S28000;24LC250CB4;15
S15;24RO010CB4;10
S27000;24RO010CB4;6
S28000;24RO010CB4;13
S15;49GD035CB5;92
S27000;49GD035CB5;52
S28000;49GD035CB5;124
S15;49MR010K14;28
S27000;49MR010K14;15
S28000;49MR010K14;46
S15;52FP0015I19;88
S27000;52FP0015I19;161
S28000;52FP0015I19;79
S15;52YGERIB18;2
S28000;52YGERIB18;1
S15;11BG140SL19;9
S27000;11BG140SL19;7
S28000;11BG140SL19;8
S15;11CM125I19;7
S27000;11CM125I19;6
S28000;11CM125I19;14
S15;11LD200I19;13
S90000;17HI001G19;100
S24000;17RS500E20;16
S90000;17SH075G21;41
S24000;17SH500E19;19
S90000;17SH500G18;64
S24000;17SH500G21;18
S24000;18GD250TL17ET;12
S90000;20AR075H16;17
S24000;24GD075CB5;17
S90000;24GD075CB5;10
S90000;24LC250S6;6
S24000;24MA150R19;2
S24000;24VF050R18;9
S90000;24VF050R18;19
S24000;27OR050I21;52
S24000;27TS001I20;478
S90000;27TS001I20;267
S90000;29HD250A21C;1
S90000;29LC100A20;157
S90000;38ST016A18;7
S90000;49CP008I14A;27
S24000;49EV030I19;67
S90000;49HBMD19;9
S90000;49LC020A15;5
S90000;49LT030R21;9
S24000;52AS006FV21;149
S90000;15LC075L15;17
S90000;52GIF2NO20;1
S90000;52GIF2NO19;1
S90000;52GIF1NO20;1
S90000;52GIF1NO19;1
S90000;52BOX1M21;11
S90000;49MASKRS21;29
S90000;52AS006FV21;317
S24000;52CP0015I19;211
S24000;52DE001I21;196
S90000;52DE001I21;100
S24000;52DS001I20;140
S90000;52DS001I20;240
S24000;52LGENSA18;69
S24000;52PS0015R21;140
S90000;52PS0015R21;100
S24000;98BBHD050A0;25
S90000;98BBSH050A0;10
S24000;01BM050K19;6
S90000;01MA030K21;1
S24000;01PI075K18;6
S90000;01PI075K18;15
S24000;11CM030H19;9
S24000;11ET050H20;7
S90000;11ET050H20;5
S24000;11GE075I20;7
S24000;11PM100SL19;4
S27000;11LD200I19;7
S28000;11LD200I19;13
S28000;15LC250VA5;3
S15;17AS500G21;19
S27000;17AS500G21;11
S28000;17AS500G21;17
S15;17RC500G21;18
S27000;17RC500G21;24
S28000;17RC500G21;19
S15;20HR050H20;8
S27000;20HR050H20;4
S28000;20HR050H20;7
S15;20SA050CD20;9
S27000;20SA050CD20;7
S28000;20SA050CD20;8
S15;24MA030RA19;9
S27000;24MA030RA19;11
S28000;24MA030RA19;8
S15;24MA075R18;12
S27000;24MA075R18;12
S28000;24MA075R18;12
S15;24SA050R18;9
S27000;24SA050R18;3
S28000;24SA050R18;11
S15;27DB015I20;12
S27000;27DB015I20;6
S28000;27DB015I20;13
S15;27DH030I20;15
S27000;27DH030I20;28
S28000;27DH030I20;10
S15;27DS030I20;12
S27000;27DS030I20;9
S28000;27DS030I20;10
S15;27EV200I19;11
S27000;27EV200I19;8
S28000;27EV200I19;15
S15;27HS030I18;7
S27000;27HS030I18;8
S28000;27HS030I18;8
S15;27MQ065I15A;7
S27000;27MQ065I15A;7
S28000;27MQ065I15A;8
S15;49LC020A20;10
S27000;49LC020A20;10
S28000;49LC020A20;78
S15;49POUID20;15
S27000;49POUID20;10
S28000;49POUID20;14
S15;49MS008I20;10
S27000;49MS008I20;28
S28000;49MS008I20;57
S15;49POUM21;28
S27000;49POUM21;15
S00;27CN050I14;2
S10;52LGEBAG18;127
S10;52FP0015I19;172
S10;52LGENSA18;138
S10;17AS500E19;5
S10;17SH060SG21;9
S10;17SH060SP21;8
S10;18BI030TL17ET;15
S10;18LC250TL17ET;8
S10;24BR050CB6;13
S10;49MS008I20;56
S10;52CD0015A18;146
S10;52MGEBAG19;289
S10;01CL300KB20;8
S10;01MA075K18;4
S10;01RC300KB20;5
S10;11BP100I19;6
S10;11BR100A20;8
S10;11EH150A18;5
S10;11GM200I19;8
S10;11SD100CS19;7
S10;15ET100VB3;8
S10;15MA030VCL21;20
S10;17SH300E19;10
S10;17VI100P19;6
S10;20DO130HC20;9
S10;24GC150C21;4
S10;27BP050I19;9
S10;27DC030I20;9
S10;27DL200I20;7
S10;27HSR030I16;3
S10;29HD500A15;18
S10;29SA050A17;9
S10;38WM065A18;5
S10;49OR005I21;52
S10;52AS006E19;278
S10;52MIGEBAG19;49
S10;52SH006FV21;319
S10;01HD250K17;8
S10;01SA100VE20;10
S10;01SL300VE20;8
S10;11BG140SH19;7
S10;11CM030O21;47
S10;11LC250O21;23
S10;11PM100SH19;6
S10;11SD100SH19;8
S10;17AS075P19;8
S10;17CS150P19;45
S10;17SH300P19;9
S10;17SH500P19;8
S10;20MP030H20;6
S10;24ET050R18;5
S10;24GD250CB4;8
S10;24MA075CB4;3
S10;24SA050CB6;11
S20;15CP250VA5;6
S20;15GD250VA20;6
S20;15MA030VA5;16
S20;15RG500L14;22
S20;15SH250VA20;16
S20;17AS500E19;16
S20;17SH060SG21;4
S20;17SH060SP21;7
S20;18BI030TL17ET;19
S20;18LC250TL17ET;13
S20;24BR050CB6;8
S20;49MS008I20;21
S20;49POUM21;2
S20;52CD0015A18;94
S20;52MGEBAG19;117
S20;01CL300KB20;11
S20;01MA075K18;14
S20;01RC300KB20;2
S20;11BR100A20;12
S20;11EH150A18;10
S20;11GM200I19;11
S20;11SD100CS19;16
S20;15ET100VB3;6
S20;15MA030VCL21;20
S20;17SH300E19;14
S20;17VI100P19;8
S20;20DO130HC20;8
S20;27BP050I19;8
S20;27DC030I20;12
S20;27DL200I20;10
S20;27HSR030I16;10
S20;29HD500A15;38
S20;29SA050A17;6
S20;38WM065A18;5
S20;49OR005I21;137
S20;52AS006E19;162
S20;52MIGEBAG19;278
S20;52SH006FV21;212
S20;01HD250K17;9
S20;01SA100VE20;30
S20;01SA250VE20;24
S20;01SL300VE20;14
S20;11BG140SH19;8
S20;11CM030O21;47
S20;11LC250O21;23
S20;11PM100SH19;12
S20;11SD100SH19;7
S20;17AS075P19;6
S20;17CS150P19;39
S20;17SH300P19;7
S20;17SH500P19;12
S20;20MP030H20;5
S20;24ET050R18;9
S20;24GD250CB4;22
S21000;11SD100SI19;4
S21000;15AS250VA18;7
S21000;15CP250VA5;5
S21000;15GD250VA20;10
S21000;15MA030VA5;16
S21000;15RG500L14;13
S21000;15SH250VA20;9
S21000;17AS500E19;11
S21000;17SH060SG21;9
S21000;17SH060SP21;8
S21000;18BI030TL17ET;18
S21000;18LC250TL17ET;11
S21000;24BR050CB6;7
S21000;49MS008I20;43
S21000;49POUM21;2
S21000;52CD0015A18;155
S21000;52MGEBAG19;122
S21000;01CL300KB20;6
S21000;01MA075K18;17
S21000;01RC300KB20;10
S21000;11BR100A20;8
S21000;11EH150A18;8
S21000;11GM200I19;11
S21000;11SD100CS19;8
S21000;15ET100VB3;6
S21000;15MA030VCL21;29
S21000;17SH300E19;5
S21000;17VI100P19;6
S21000;20DO130HC20;6
S21000;27BP050I19;6
S21000;27DC030I20;10
S21000;27DL200I20;6
S21000;27HSR030I16;7
S21000;29HD500A15;22
S21000;29SA050A17;7
S21000;38WM065A18;7
S21000;49OR005I21;86
S21000;52AS006E19;204
S21000;52MIGEBAG19;175
S21000;52SH006FV21;230
S21000;01HD250K17;10
S21000;01SA100VE20;16
S21000;01SA250VE20;16
S21000;01SL300VE20;5
S21000;11BG140SH19;6
S21000;11CM030O21;46
S21000;11LC250O21;24
S21000;11PM100SH19;6
S21000;11SD100SH19;7
S21000;15SH250VA17;1
S21000;17AS075P19;9
S21000;17CS150P19;27
S90000;11PM100SL19;8
S24000;15BA500L16A;8
S90000;15BA500L16A;2
S24000;15ET100VA5;2
S90000;15ET100VA5;1
S24000;15MA075VB4;10
S90000;15MA075VB4;1
S24000;17HI100G19;8
S90000;17MC200G18;47
S24000;17MC200G21;11
S24000;17SE100FV21;18
S90000;20ET010CD19;1
S90000;24BR050C21;1
S90000;24GM030C21;9
S24000;24LC250CB4;14
S24000;24RO010CB4;10
S90000;24RO010CB4;5
S90000;24SACHB20;3
S90000;27OR050I21C;1
S90000;49BAGVE19;1
S90000;49CP008I19;32
S24000;49GD035CB5;61
S90000;49GD035CB5;15
S24000;49MR010K14;17
S90000;49MR010K14;89
S90000;49TOTWC21;255
S24000;52FP0015I19;153
S90000;52FP0015I19;100
S90000;52LASANO19;60
S24000;52YGERIB18;1
S24000;01LC250K17;15
S24000;11CF100TR19;5
S90000;11CF100TR19;2
S24000;11PM100SI19;6
S90000;11PM100SI19;3
S24000;11SP200SL19;9
S90000;11SP200SL19;2
S24000;15ET100VA20;6
S90000;15ET100VA20;8
S24000;15GM065VB20;10
S24000;17AS075E19;5
S90000;17AS075E19;44
S90000;17HR100G13;4
S24000;17RS500P19;19
S24000;17SH075E19;4
S90000;17SH300D15;25
S24000;17SH500FV21;17
S90000;24LC250C21;13
S24000;24LC250R20;13
S90000;24LC250R20;9
S24000;27DCB060I17;6
S90000;27DCB060I17;5
S24000;27DE015I21;8
S21000;17SH300P19;5
S21000;17SH500P19;13
S21000;20MP030H20;5
S21000;24ET050R18;7
S21000;24GD250CB4;13
S21000;24MA075CB4;16
S21000;24SA050CB6;12
S21000;27OR030I19;25
S21000;27OR030I21;57
S21000;27SP030I19;6
S21000;49SH035E20;12
S21000;52BY001I19;106
S21000;52SAMPENV18;47
S21000;52SGENSA18;199
S21000;52SH006P19;27
S21000;01CL050K21;5
S21000;01CMJ075K21;1
S21000;01EC200K17;8
S21000;01LC500K20;13
S21000;11BH050A18;6
S21000;11ET075O21;12
S21000;11FAG10TR19;9
S21000;11LH200I19;9
S21000;11SP200CS19;7
S21000;15ET010VB19;9
S21000;15MA030VB3;11
S21000;15RC500VB17;23
S21000;15SE400VB5;5
S21000;17AS075G21;4
S21000;17AS500P19;7
S21000;17RS500FV21;22
S21000;17SH060SE21;7
S21000;18ET050TL17;8
S21000;20SA050HC20;9
S21000;24GD250R20;7
S21000;24MA030P15;7
S21000;27ER050I21;17
S21000;27MP050I20;95
S21000;27RM300I20;13
S21000;29LC200A20US;26
S21000;29MA075A21;12
S21000;49DC004I20;13
S21000;52MA003K16A;251
S21000;01HV030K16;5
S21000;01PR015R19;14
S21000;01SA100LT20;8
S21000;01SL0045K13;23
S21000;52TS001R21;124
S21000;11CD050A18;11
S21000;11GN195A18;11
S21000;15GG150VAL21;22
S21000;15GN300L11;13
S21000;17AS250E19;6
SLM001;98BBAS035AR3;230
SLM001;49POURS21;25
SLM001;49POURS20;17
SLM001;29GE200A21;29
SLM001;52SH006E19;1200
SLM001;52LC006A20;720
SLM001;52LC006A18;430
SLM001;49LC035CB6;20
SLM001;49CP020K18;14
SLM001;52MMBBNO20;83
SLM001;49TOBAGSA20;12
SLM001;49TLDTS17;10
SLM001;49POUIS19;31
SLM001;49MA010CB4;47
SLM001;29LC200A20US;51
SLM001;52SH006P19;200
SLM001;52BY001I19;117
SLM001;49SH035E20;67
SLM001;49MA010K20DTS;52
SLM001;49HD035A15;181
SLM001;52SH006FV21;265
SLM001;49CRM1NO19;33
SLM001;49POUID20;20
SLM001;49MA010L16;68
SLM001;49LC020A20;86
SLM001;49DRASA19;27
SLM001;52SH006G21;1200
SLM001;52SH006G18;333
SLM001;52MS001I20;60
SLM001;49MA010A17;160
SLM001;49IC2POU20;16
SLM001;49BO015CS19;33
SLM001;29LC200A14US;1
SLM001;49GD035CB5;346
SLM001;49BAGVE18;38
SLM001;24LC250CB4;40
SLM001;49LT030R21;40
SLM001;49LC020A15;38
SLM001;29LC100A20;99
SLM001;52MOCOL316;5
SLM001;52ER002I21;1300
SLM001;52DL002I17;9
SLM001;49TOWVE18;26
SLM001;01BL012K18;12
SLM001;98BBDF015IM0;58
SLM001;52DH001I20;616
SLM001;52DC0015I20;27
SLM001;49SACCH19;22
SLM001;49CP004I19;55
SLM001;49TBOM21;2
SLM001;49HS015A18;23
SLM001;15CF150VBL21;15
SLM001;JIMCP16;119
SLM001;J6185;269
SLM001;98BBSH035AR2;501
S20;24MA075CB4;9
S20;24SA050CB6;14
S20;27OR030I19;15
S20;27OR030I21;43
S20;27SP030I19;10
S20;49SH035E20;5
S20;52BY001I19;77
S20;52EV002I19;83
S20;52SGENSA18;247
S20;52SH006P19;51
S20;52TS001R21;120
S20;01CL050K21;7
S20;01CMJ075K21;1
S20;01EC200K17;14
S20;01LC500K20;16
S20;11BH050A18;10
S20;11ET075O21;17
S20;11FAG10TR19;13
S20;11LH200I19;9
S20;11SP200CS19;12
S20;15ET010VB19;8
S20;15MA030VB3;13
S20;15RC500VB17;26
S20;15SE400VB5;11
S20;17AS075G21;2
S20;17AS500P19;8
S20;17RS500FV21;23
S20;17SH060SE21;5
S20;18ET050TL17;7
S20;20SA050HC20;17
S20;24GD250R20;10
S20;24MA030P15;8
S20;27ER050I21;20
S20;27MP050I20;77
S20;27RM300I20;16
S20;29LC200A20US;20
S20;29MA075A21;11
S20;49DC004I20;7
S20;52MA003K16A;280
S20;01HV030K16;3
S20;01PR015R19;8
S20;01SL0045K13;16
S20;11CD050A18;5
S20;11GN195A18;13
S20;15GG150VAL21;18
S20;15GN300L11;16
S20;17AS250E19;9
S20;17RS500G21;27
S20;24RO010R18;8
S20;27MP150I20;12
S20;29RC200A20;37
S20;38BV050A19;7
S20;52AS006P19;129
S20;52LC006A20;471
S29000;24ET050R18;6
S29000;24GD250CB4;33
S29000;24MA075CB4;28
S29000;24SA050CB6;20
S29000;27OR030I19;10
S29000;27OR030I21;43
S29000;27SP030I19;8
S29000;49HD035A15;3
S29000;52BY001I19;103
S29000;52EV002I19;132
S29000;52SGENSA18;109
S29000;52SH006P19;22
S29000;52TS001R21;199
S29000;01CL050K21;14
S29000;01CMJ075K21;3
S29000;01EC200K17;26
S29000;01LC500K20;34
S29000;11BH050A18;17
S29000;11ET075O21;17
S29000;11FAG10TR19;17
S29000;11LH200I19;29
S29000;11SP200CS19;26
S29000;15ET010VB19;8
S29000;15MA030VB3;15
S29000;15RC500VB17;80
S29000;15SE400VB5;11
S29000;17AS075G21;12
S29000;17AS500P19;20
S29000;17RS500FV21;54
S29000;17SH060SE21;7
S29000;18ET050TL17;7
S29000;20SA050HC20;15
S29000;24GD250R20;8
S29000;24MA030P15;15
S29000;27ER050I21;14
S29000;27MP050I20;190
S29000;27RM300I20;18
S29000;29LC200A20US;64
S29000;29MA075A21;23
S29000;52MA003K16A;194
S29000;01HV030K16;7
S29000;01PR015R19;12
S29000;01SA100LT20;20
S29000;01SL0045K13;26
S29000;11CD050A18;6
S29000;11GN195A18;13
S29000;15GG150VAL21;18
S29000;15GN300L11;30
S29000;17AS250E19;11
S29000;17RS500G21;25
S29000;24RO010R18;8
S29000;27MP150I20;27
S29000;29RC200A20;66
S10;27OR030I19;15
S10;27OR030I21;42
S10;27SP030I19;12
S10;49HD035A15;60
S10;49SH035E20;2
S10;52BY001I19;222
S10;52EV002I19;28
S10;52SAMPENV18;300
S10;52SGENSA18;1
S10;52SH006N18;100
S10;52SH006P19;47
S10;52TS001R21;272
S10;01CL050K21;8
S10;01CMJ075K21;14
S10;01EC200K17;6
S10;01LC500K20;2
S10;11BH050A18;7
S10;11ET075O21;14
S10;11FAG10TR19;8
S10;11LH200I19;9
S10;11SP200CS19;13
S10;15ET010VB19;8
S10;15MA030VB3;9
S10;15RC500VB17;10
S10;15SE400VB5;8
S10;17AS075G21;8
S10;17AS500P19;5
S10;17RS500FV21;6
S10;17SH060SE21;7
S10;18ET050TL17;4
S10;20SA050HC20;8
S10;24GD250R20;6
S10;24MA030P15;18
S10;27ER050I21;45
S10;27MP050I20;6
S10;27RM300I20;10
S10;29LC200A20US;15
S10;29MA075A21;2
S10;49DC004I20;8
S10;52MA003K16A;200
S10;01HV030K16;9
S10;01PR015R19;7
S10;01SA100LT20;7
S10;01SL0045K13;11
S10;11CD050A18;6
S10;11GN195A18;6
S10;15GG150VAL21;22
S10;15GN300L11;3
S10;17AS250E19;9
S10;17RS500G21;5
S10;24RO010R18;6
S10;27MP150I20;9
S10;29RC200A20;1
S10;38BV050A19;8
S28000;49POUM21;46
S15;52CD0015A18;92
S27000;52CD0015A18;165
S28000;52CD0015A18;203
S15;52MGEBAG19;103
S27000;52MGEBAG19;186
S28000;52MGEBAG19;142
S27000;52AS006E19;231
S28000;52AS006E19;222
S15;52MIGEBAG19;96
S27000;52MIGEBAG19;345
S28000;52MIGEBAG19;200
S15;52SH006FV21;323
S27000;52SH006FV21;362
S28000;52SH006FV21;292
S15;49SH035E20;9
S27000;49SH035E20;20
S15;52BY001I19;133
S27000;52BY001I19;255
S28000;52BY001I19;210
S27000;52EV002I19;126
S27000;52SAMPENV18;150
S15;52SGENSA18;121
S27000;52SGENSA18;233
S28000;52SGENSA18;253
S15;52SH006P19;3
S27000;52SH006P19;48
S15;52TS001R21;174
S27000;52TS001R21;308
S28000;52TS001R21;257
S27000;27ER050I21;13
S28000;27ER050I21;16
S15;27MP050I20;107
S27000;27MP050I20;61
S28000;27MP050I20;112
S15;27RM300I20;14
S27000;27RM300I20;8
S28000;27RM300I20;16
S15;29LC200A20US;20
S27000;29LC200A20US;23
S28000;29LC200A20US;40
S28000;29MA075A19;3
S15;29MA075A21;12
S27000;29MA075A21;13
S28000;29MA075A21;13
S28000;49DC004I20;11
S15;52MA003K16A;361
S27000;52MA003K16A;261
S28000;52MA003K16A;530
S28000;52VRACFUR600;1
S15;01HV030K16;7
S27000;01HV030K16;5
S28000;01HV030K16;8
S90000;27DL200I13US;8
S90000;29HD075A15;350
S90000;38FT200A18;20
S24000;38WS030A21;10
S90000;38WS030A21;3
S90000;49BI010TL17;87
S24000;49BO015CS19;16
S90000;49EP005TL17ET;13
S90000;49IC1POU20;164
S90000;49IC2POU20;2
S90000;49IC3POU20;27
S90000;49MA010A17;23
S24000;52CL0015K21;109
S90000;52CL0015K21;121
S90000;52CLASANO19;32
S24000;52MS001I20;128
S90000;52MS001I20;398
S24000;52SH006G21;380
S90000;52SH006G21;300
S90000;52SMSANO19;152
S24000;98BBSA050LT1;10
S24000;01BG070K21;1
S90000;01BG070K21;2
S24000;11BG140SL19;7
S90000;11BG140SL19;10
S24000;11CM125I19;9
S24000;11LD200I19;10
S90000;11MW200I19;17
S90000;15CL150VM20H;8
S24000;15LC250VA5;1
S90000;15LC250VA5;7
S90000;17AS500G18;74
S24000;17AS500G21;13
S90000;17RC500G18;61
S24000;17RC500G21;25
S90000;17SH075N18;11
S90000;17SH500N18;1
S90000;20AR075CD16A;6
S24000;20HR050H20;6
S90000;20HR050H20;10
S24000;20SA050CD20;5
S90000;20SA050CD20;9
S24000;24MA030RA19;5
S90000;24MA030RA19;7
S24000;24MA075R18;10
S90000;24MA075R18;6
S24000;24SA050R18;7
S24000;27DB015I20;11
S90000;27DB015I20;6
S24000;27DH030I20;33
S24000;27DS030I20;7
S90000;27DS030I20;7
S24000;27EV200I19;9
S29000;38BV050A19;15
S29000;49CP020K18;7
S29000;52AS006P19;92
S29000;52LC006A20;354
S29000;52SH006E19;296
S29000;01CMR500K20;14
S29000;01CV050K18;7
S29000;11ET010O21;22
S29000;11LT300I20;16
S29000;11MA030A20;3
S29000;11SA100H19;18
S29000;11SD100SL19;14
S29000;15GD500VB17;50
S29000;17AS075FV21;12
S29000;17SH300FV21;21
S29000;18ET010TL17;14
S29000;20ET075OC20;13
S29000;20NV150H20;17
S29000;24MA030CB4;33
S29000;24MA030R18;32
S29000;24MA075P15;18
S29000;27BP050I19;5
S29000;27DC050I20;40
S29000;27MI150I20;8
S29000;27MS050I20;16
S29000;29ASH240A20;23
S29000;38WC050A21;20
S29000;49POVCI21;35
S29000;52GD0015A18;91
S29000;SGOCVE600004;190
S29000;01EN300KB19;23
S29000;01SL300LV20;11
S29000;11BG140SH19;16
S29000;11BG140SI19;10
S29000;11GD050A18;13
S29000;11LC250H20;26
S29000;11SP200SI19;18
S29000;15GD250L14;35
S29000;15LC250VA20;12
S29000;17AS250P19;10
S29000;20DO050O20;26
S29000;24BR050R19;11
S29000;27DH015I20;33
S29000;29EC200A13;7
S29000;49DH004I20;60
S29000;52LGEBOX18;5
S29000;52OR001I19;26
S29000;01BV050K16;19
S29000;01PI150K18;48
S29000;01SA050KL20;2
S29000;01SA250LT20;37
S29000;11BC100G21;46
S29000;11BG140CS19;28
S24000;27HS030I18;5
S90000;27HS030I18;5
S24000;27MQ065I15A;6
S90000;27MQ065I15A;5
S90000;49DB004I20;30
S24000;49LC020A20;10
S90000;49LC020A20;15
S90000;49POUCB21;6
S24000;49POUID20;12
S90000;49POUID20;11
S90000;49TOTMC20;117
S90000;52FT002A18;73
S90000;01BL012H19H;1
S90000;01CM030K21;8
S24000;01HN0075K19;7
S24000;01LH300KB19;7
S24000;01MA030K16;13
S24000;01PI030K18;8
S90000;01PI030K18;15
S90000;01SA100LT16;1
S24000;01SE125K21;7
S90000;11LC050H19;30
S24000;11MWC200I19;5
S90000;11MWC200I19;2
S24000;11PEP050I20;5
S90000;11PEP050I20;1
S24000;11SD100SI19;5
S90000;11SD100SI19;5
S24000;15AS250VA18;5
S90000;15CC150VA19;43
S24000;15CP250VA5;5
S90000;15CP250VA5;6
S24000;15GD250VA20;7
S90000;15GD250VA20;3
S90000;15LC070VB5;81
S24000;15MA030VA5;11
S90000;15MA030VA5;16
S24000;15RG500L14;9
S24000;15SH250VA20;9
S24000;17AS500E19;6
S24000;17SH060SG21;6
S90000;17SH060SG21;11
S24000;17SH060SP21;7
S90000;17SH060SP21;14
S24000;18BI030TL17ET;22
S90000;18BI030TL17ET;8
S24000;18LC250TL17ET;12
S90000;18LC250TL17ET;2
S24000;24BR050CB6;10
S90000;24BR050CB6;10
S90000;24GD250S6;1
S90000;24MA030RV19;8
S15;01PR015R19;9
S27000;01PR015R19;7
S28000;01PR015R19;11
S15;01SA100LT20;16
S27000;01SA100LT20;6
S28000;01SA100LT20;14
S15;01SL0045K13;28
S27000;01SL0045K13;30
S28000;01SL0045K13;21
S15;11CD050A18;8
S27000;11CD050A18;6
S28000;11CD050A18;12
S15;11GN195A18;14
S27000;11GN195A18;12
S28000;11GN195A18;13
S15;15GG150VAL21;17
S27000;15GG150VAL21;22
S28000;15GG150VAL21;22
S15;15GN300L11;11
S27000;15GN300L11;8
S28000;15GN300L11;13
S15;17AS250E19;9
S27000;17AS250E19;7
S28000;17AS250E19;8
S15;17RS500G21;20
S27000;17RS500G21;21
S28000;17RS500G21;24
S15;24RO010R18;6
S27000;24RO010R18;6
S28000;24RO010R18;9
S15;27MP150I20;12
S27000;27MP150I20;6
S28000;27MP150I20;12
S15;29RC200A20;18
S27000;29RC200A20;28
S28000;29RC200A20;44
S15;38BV050A19;10
S27000;38BV050A19;5
S28000;38BV050A19;9
S15;52AS006P19;160
S27000;52AS006P19;218
S28000;52AS006P19;326
S15;52LC006A20;455
S27000;52LC006A20;410
S28000;52LC006A20;468
S15;52SH006E19;273
S27000;52SH006E19;305
S28000;52SH006E19;437
S15;98BBMA010KA3;9
S27000;98BBMA010KA3;10
S28000;98BBMA010KA3;59
S15;49LD030I20;14
S27000;49LD030I20;9
S20;52SH006E19;193
S20;98BBMA010KA3;10
S20;01BP050K21;12
S20;01CP200K17;21
S20;01RV500K20;20
S20;11EP050H19;5
S20;15AS150VCL21;13
S20;15HE005L14;12
S20;15MA030L11;14
S20;17AS500FV21;14
S20;17RC500P19;9
S20;18ET090TL17;4
S20;20AR075O20;14
S20;20DO075CD20;13
S20;20FE050H20;6
S20;20GD250HC20;18
S20;20SA050O20;13
S20;24EF050R18;7
S20;24MA030RE19;6
S20;27CP050I19;11
S20;27DF125I17;12
S20;27ER015I20;8
S20;27FP050I19;7
S20;27TS050I20;5
S20;29GE200A21;16
S20;29SH240A20;8
S20;38SM025A19;5
S20;49POURS21;24
S20;52SP001I19;173
S20;01CMR500K20;21
S20;01CV050K18;6
S20;11ET010O21;18
S20;11LT300I20;9
S20;11MA030A20;6
S20;11SA100H19;13
S20;11SD100SL19;12
S20;15GD500VB17;21
S20;17AS075FV21;7
S20;17SH300FV21;12
S20;18ET010TL17;8
S20;20ET075OC20;8
S20;20NV150H20;11
S20;24MA030CB4;16
S20;24MA030R18;20
S20;24MA075P15;9
S20;27DC050I20;15
S20;27MI150I20;7
S20;27MS050I20;12
S20;29ASH240A20;7
S20;38WC050A21;9
S20;49LD030I20;10
S20;49POVCI21;8
S20;52AS006FV21;212
S20;52GD0015A18;95
S29000;11ET010H20;10
S29000;11SA050O21;18
S29000;11SV080I19;6
S29000;15GD250VB17;27
S29000;15LC250VB3;31
S29000;15MA075L11;5
S29000;15RG500VA20;41
S29000;24ET075CB4;23
S29000;24GD500R19;21
S29000;24MA030S6;28
S29000;27HCR050I16;15
S29000;29BP100A19;15
S29000;29VC240A16;22
S29000;38MI150A18;6
S29000;52CP006K17;373
S29000;52HS001I17;173
S29000;52HS004A18;282
S29000;52MC006G21;154
S29000;01BP050K21;29
S29000;01CP200K17;14
S29000;01RV500K20;57
S29000;11EP050H19;6
S29000;11EP090H19;4
S29000;15AS150VCL21;16
S29000;15HE005L14;10
S29000;15MA030L11;24
S29000;17AS500FV21;34
S29000;17RC500P19;6
S29000;18ET090TL17;2
S29000;20AR075O20;24
S29000;20DO075CD20;14
S29000;20FE050H20;6
S29000;20GD250HC20;40
S29000;20SA050O20;7
S29000;24EF050R18;8
S29000;24MA030RE19;3
S29000;27CP050I19;18
S29000;27DF125I17;42
S29000;27ER015I20;32
S29000;27FP050I19;7
S29000;27TS050I20;10
S29000;29GE200A21;57
S29000;29SH240A20;26
S29000;49POURS21;22
S29000;52SHEANUTS20;1
S29000;52SP001I19;117
S29000;JIMPN16;142
S28000;49LD030I20;13
S15;49POVCI21;27
S27000;49POVCI21;7
S28000;49POVCI21;20
S15;52AS006FV21;193
S15;52GD0015A18;56
S27000;52GD0015A18;162
S28000;52GD0015A18;155
S15;SGOCVE600004;72
S27000;SGOCVE600004;52
S28000;SGOCVE600004;99
S15;01EN300KB19;24
S27000;01EN300KB19;13
S28000;01EN300KB19;40
S15;01SL300LV20;9
S27000;01SL300LV20;7
S28000;01SL300LV20;10
S28000;11BG140SH19;6
S15;11BG140SI19;9
S27000;11BG140SI19;8
S28000;11BG140SI19;8
S15;11GD050A18;9
S27000;11GD050A18;7
S28000;11GD050A18;15
S15;11LC250H20;5
S27000;11LC250H20;5
S28000;11LC250H20;16
S15;11SP200SI19;13
S27000;11SP200SI19;7
S28000;11SP200SI19;9
S27000;15GC200VB21;9
S15;15GD250L14;16
S27000;15GD250L14;12
S28000;15GD250L14;16
S15;15LC250VA20;9
S27000;15LC250VA20;4
S28000;15LC250VA20;9
S15;17AS250P19;12
S27000;17AS250P19;5
S28000;17AS250P19;8
S15;20DO050O20;9
S27000;20DO050O20;5
S28000;20DO050O20;12
S15;24BR050R19;7
S27000;24BR050R19;12
S28000;24BR050R19;13
S15;27DH015I20;13
S27000;27DH015I20;15
S28000;27DH015I20;17
S15;29EC200A13;7
S27000;29EC200A13;3
S28000;29EC200A13;10
S15;49DH004I20;90
S20;SGOCVE600004;67
S20;01EN300KB19;22
S20;01SL300LV20;8
S20;11BG140SI19;8
S20;11GD050A18;12
S20;11LC250H20;13
S20;11SP200SI19;7
S20;15GC200VB21;4
S20;15GD250L14;26
S20;15LC250VA20;12
S20;17AS250P19;8
S20;20DO050O20;12
S20;24BR050R19;13
S20;27DH015I20;14
S20;29EC200A13;11
S20;49DH004I20;65
S20;52LGEBAG19;113
S20;52LGEBOX18;9
S20;01BV050K16;9
S20;01PI150K18;19
S20;01SA050KL20;6
S20;01SA250LT20;12
S20;11BC100G21;40
S20;11BG140CS19;9
S20;11ET010H20;8
S20;11SA050O21;18
S20;11SV080I19;9
S20;15GD250VB17;14
S20;15LC250VB3;17
S20;15MA075L11;13
S20;15RG500VA20;18
S20;24ET075CB4;8
S20;24GD500R19;16
S20;24MA030S6;15
S20;27HCR050I16;6
S20;29BP100A19;8
S20;29VC240A16;15
S20;38MI150A18;11
S20;49PO2RS21;5
S20;52BGERIB18;1
S20;52CP006K17;249
S20;52DF002I17;44
S20;52HS001I17;119
S20;52HS004A18;240
S20;52MC006G21;176
S21000;17DO050F13;11
S21000;17RS500G21;16
S21000;24RO010R18;5
S21000;27MP150I20;7
S21000;29RC200A20;28
S21000;38BV050A19;4
S21000;52AS006P19;125
S21000;52LC006A20;319
S21000;52SH006E19;154
S21000;98BBMA010KA3;104
S21000;01CMR500K20;9
S21000;01CV050K18;10
S21000;11ET010O21;23
S21000;11LT300I20;5
S21000;11MA030A20;29
S21000;11SA100H19;5
S21000;11SD100SL19;10
S21000;15GD500VB17;12
S21000;17AS075FV21;8
S21000;17SH300FV21;7
S21000;18ET010TL17;11
S21000;20ET075OC20;5
S21000;20NV150H20;10
S21000;24MA030CB4;19
S21000;24MA030R18;17
S21000;24MA075P15;6
S21000;27DC050I20;28
S21000;27MI150I20;7
S21000;27MS050I20;7
S21000;29ASH240A20;7
S21000;38WC050A21;10
S21000;49LD030I20;11
S21000;49POVCI21;20
S21000;52AS006FV21;112
S21000;52GD0015A18;142
S21000;SGOCVE600004;79
S21000;SGOCVKI00157;3
S21000;01EN300KB19;10
S21000;01SL300LV20;5
S21000;11BG140SI19;4
S21000;11GD050A18;6
S21000;11LC250H20;9
S21000;11SP200SI19;6
S21000;15GD250L14;13
S21000;15LC250VA20;2
S21000;17AS250P19;8
S21000;20DO050O20;6
S21000;24BR050R19;7
S21000;27DH015I20;15
S21000;29EC200A13;12
S21000;49DH004I20;69
S21000;52LGEBAG19;22
S21000;52LGEBOX18;9
S10;52AS006P19;160
S10;52LC006A20;225
S10;52SH006D17;90
S10;52SH006E19;292
S10;98BBMA010KA3;45
S10;01CMR500K20;6
S10;01CV050K18;6
S10;11ET010O21;24
S10;11LT300I20;13
S10;11MA030A20;5
S10;11SA100H19;8
S10;11SD100SL19;5
S10;17AS075FV21;8
S10;17SH300FV21;8
S10;18ET010TL17;7
S10;20ET075OC20;7
S10;20NV150H20;4
S10;24MA030CB4;17
S10;24MA075P15;10
S10;27DC050I20;11
S10;27MI150I20;8
S10;27MS050I20;18
S10;29ASH240A20;7
S10;38WC050A21;2
S10;49LD030I20;9
S10;49POVCI21;21
S10;52AS006FV21;48
S10;52GD0015A18;89
S10;SGOCVKI00157;2
S10;01EN300KB19;11
S10;01SL300LV20;8
S10;11BG140SI19;7
S10;11GD050A18;7
S10;11SP200SI19;8
S10;15GC150VBL20;1
S10;15GC200VB21;1
S10;15LC250VA20;7
S10;17AS250P19;11
S10;20DO050O20;7
S10;24BR050R19;12
S10;27DH015I20;15
S10;29EC200A13;10
S10;49DH004I20;61
S10;52LGEBOX18;8
S10;52OR001I19;163
S10;01BV050K16;7
S10;01PI150K18;13
S10;01SA050KL20;7
S10;01SA250LT20;13
S10;11BC100G21;55
S10;11BG140CS19;8
S10;11ET010H20;7
S10;11SA050O21;18
S10;11SV080I19;7
S27000;49DH004I20;59
S28000;49DH004I20;77
S15;52LGEBAG19;48
S27000;52LGEBAG19;170
S28000;52LGEBAG19;93
S15;52LGEBOX18;9
S27000;52LGEBOX18;8
S28000;52LGEBOX18;5
S15;52OR001I19;165
S27000;52OR001I19;13
S28000;52OR001I19;5
S27000;52BGERIB18;5
S28000;52BGERIB18;1
S15;52CP006K17;141
S27000;52CP006K17;201
S28000;52CP006K17;337
S27000;52DF002I17;98
S28000;52DF002I17;1
S15;52HS001I17;142
S27000;52HS001I17;200
S28000;52HS001I17;334
S15;52HS004A18;271
S27000;52HS004A18;133
S28000;52HS004A18;409
S15;52MC006G21;286
S27000;52MC006G21;274
S28000;52MC006G21;287
S28000;27FP050I19;8
S28000;27TS050I20;4
S15;29GE200A21;19
S27000;29GE200A21;20
S28000;29GE200A21;23
S15;29SH240A20;12
S27000;29SH240A20;7
S28000;29SH240A20;15
S15;38SM025A19;7
S27000;38SM025A19;4
S28000;38SM025A19;6
S15;49POURS21;46
S27000;49POURS21;22
S28000;49POURS21;42
S15;52SHEANUTS20;2
S27000;52SHEANUTS20;2
S28000;52SHEANUTS20;2
S15;52SP001I19;151
S27000;52SP001I19;286
S28000;52SP001I19;180
S90000;27DH030I17A;6
S90000;29GE200A18;1
S90000;49ET010V13;13
S24000;49MS008I20;24
S90000;49MS008I20;159
S90000;49PO2HER20;15
S90000;49POUM20;125
S24000;49POUM21;17
S90000;49TRSOL15;16
S24000;52CD0015A18;64
S24000;52MGEBAG19;114
S90000;52MGEBAG19;100
S90000;52SH006F17;63
S24000;01CL300KB20;5
S90000;01CL300KB20;1
S24000;01MA075K18;14
S24000;01RC300KB20;12
S90000;01RC300KB20;2
S24000;11BP100I19;8
S90000;11BP100I19;8
S24000;11BR100A20;9
S90000;11BR100A20;6
S24000;11EH150A18;6
S90000;11EH150A18;1
S24000;11GM200I19;11
S24000;11SD100CS19;8
S24000;15ET100VB3;8
S90000;15ET100VB3;2
S90000;15GD250VA5;1
S24000;15MA030VCL21;32
S90000;15MA030VCL21;41
S24000;17SH300E19;9
S90000;17SH300E19;2
S24000;17VI100P19;5
S90000;17VI100P19;5
S24000;20DO130HC20;6
S90000;24GC150C21;49
S90000;24GD075R18;32
S24000;27BP050I19;6
S24000;27DC030I20;8
S90000;27DC030I20;1
S24000;27DL200I20;6
S90000;27DL200I20;9
S24000;27HSR030I16;6
S90000;27HSR030I16;4
S90000;29BP100A18;1
S24000;29HD500A15;24
S24000;29SA050A17;5
S90000;29SA050A17;13
S90000;38EV075A18;1
S24000;38WM065A18;2
S90000;38WM065A18;1
S90000;49AF015G20;35
S21000;52OR001I19;38
S21000;01BV050K16;4
S21000;01PI150K18;14
S21000;01SA050KL20;6
S21000;01SA250LT20;16
S21000;11BC100G21;54
S21000;11BG140CS19;5
S21000;11ET010H20;10
S21000;11SA050O21;18
S21000;11SV080I19;5
S21000;15GD250VB17;9
S21000;15LC250VB3;10
S21000;15MA075L11;6
S21000;15RG500VA20;23
S21000;24ET075CB4;7
S21000;24GD500R19;12
S21000;24MA030S6;13
S21000;27HCR050I16;6
S21000;29BP100A19;6
S21000;29VC240A16;10
S21000;38MI150A18;5
S21000;49PO2RS21;5
S21000;52CP006K17;34
S21000;52HS001I17;213
S21000;52HS004A18;173
S21000;52MC006G21;166
S21000;01BP050K21;9
S21000;01CP200K17;10
S21000;01RV500K20;9
S21000;11EP050H19;6
S21000;15AS150VCL21;9
S21000;15HE005L14;6
S21000;15MA030L11;12
S21000;17AS500FV21;9
S21000;17RC500P19;6
S21000;18ET090TL17;6
S21000;20AR075O20;5
S21000;20DO075CD20;8
S21000;20FE050H20;6
S21000;20GD250HC20;10
S21000;20SA050O20;10
S21000;24EF050R18;7
S21000;24MA030RE19;6
S21000;27CP050I19;15
S21000;27DF125I17;17
S21000;27ER015I20;16
S21000;27FP050I19;10
S21000;27TS050I20;1
S21000;29GE200A21;15
S21000;29SH240A20;8
S21000;38SM025A19;5
S21000;49POURS21;24
S21000;52SHEANUTS20;2
S10;15GD250VB17;5
S10;15LC250VB3;8
S10;15MA075L11;5
S10;24ET075CB4;7
S10;24MA030S6;17
S10;27HCR050I16;5
S10;29BP100A19;6
S10;29VC240A16;4
S10;38MI150A18;9
S10;49PO2RS21;5
S10;52CP006K17;189
S10;52DF002I17;44
S10;52HS001I17;92
S10;52HS004A18;209
S10;52MC006G21;139
S10;01BP050K21;22
S10;01CP200K17;11
S10;01RV500K20;12
S10;11EP050H19;3
S10;11GD250O21;23
S10;15AS150VCL21;6
S10;15HE005L14;7
S10;15MA030L11;14
S10;17AS500FV21;9
S10;17RC500P19;6
S10;18ET090TL17;2
S10;20AR075O20;8
S10;20DO075CD20;10
S10;20FE050H20;4
S10;20GD250HC20;16
S10;20SA050O20;6
S10;24EF050R18;8
S10;24MA030RE19;9
S10;27CP050I19;11
S10;27DF125I17;9
S10;27ER015I20;11
S10;27FP050I19;7
S10;27TS050I20;3
S10;29GE200A21;14
S10;29SH240A20;9
S10;38SM025A19;5
S10;49POURS21;23
S10;52SHEANUTS20;2
S10;52SP001I19;268
S21000;52SP001I19;62
S90000;49CRM1NO20;2
S90000;49CRM2NO19;68
S90000;49JEWNO19;64
S90000;49MIRCB19;2
S24000;49OR005I21;90
S90000;49TF2CH19;35
S90000;49TFACH18;30
S24000;52AS006E19;244
S90000;52HR004G17;129
S24000;52MIGEBAG19;146
S24000;52SH006FV21;316
S90000;52SH006FV21;517
S90000;52STINO19;1
S90000;52STINO20;1
S90000;01CP100K21;13
S24000;01HD250K17;7
S90000;01HD250K17;3
S24000;01SA100VE20;10
S90000;01SA100VE20;2
S24000;01SA250VE20;12
S24000;01SL300VE20;6
S90000;01SL300VE20;13
S24000;11BG140SH19;7
S24000;11CM030O21;46
S90000;11CM030O21;36
S24000;11LC250O21;23
S90000;11LC250O21;16
S90000;11PM100DE20H;13
S24000;11PM100SH19;6
S24000;11SD100SH19;7
S90000;15ET100VAL20;1
S90000;15ET100VAL21;32
S90000;17AS075N18;10
S24000;17AS075P19;9
S90000;17AS075P19;36
S24000;17CS150P19;43
S90000;17CS150P19;44
S90000;17SE125D15;24
S24000;17SH300P19;7
S90000;17SH300P19;8
S24000;17SH500P19;12
S24000;20MP030H20;7
S90000;20MP030H20;1
S24000;24ET050R18;9
S90000;24ET050R18;3
S24000;24GD250CB4;16
S24000;24MA075CB4;13
S24000;24SA050CB6;13
S90000;27DS030I17A;3
S24000;27OR030I19;24
S24000;27OR030I21;41
S24000;27SP030I19;7
S90000;27SP030I19;9
S90000;29MA075A16;1
S90000;49CM030I19;116
S90000;49DF005I17;2
S90000;49EP005H20;46
S90000;49FCROL21;17
S90000;49HD035A15;6
S90000;49MA010K20DTS;7
S24000;49SH035E20;20
S24000;52BY001I19;154
S90000;52EV002I19;27
S90000;52HCTM21;25
S90000;52MMBYNO19;85
S24000;52SGENSA18;189
S90000;52SH006N18;101
S24000;52SH006P19;8
S90000;52SH006P19;13
S90000;52TRSAM19;15
S24000;52TS001R21;121
S90000;52TS001R21;100
S24000;01CL050K21;10
S90000;01CL050K21;2
S24000;01EC200K17;5
S24000;01LC500K20;17
S24000;11BH050A18;9
S24000;11ET075O21;14
S90000;11ET075O21;10
S24000;11FAG10TR19;8
S24000;11LH200I19;8
S90000;11LH200I19;7
S24000;11SP200CS19;8
S24000;15ET010VB19;7
S24000;15MA030VB3;11
S90000;15MA030VB3;19
S24000;15RC500VB17;12
S24000;15SE400VB5;5
S90000;17AS075G18;118
S24000;17AS075G21;7
S90000;17AS075G21;56
S90000;17AS250N18;11
S24000;17AS500P19;8
S90000;17AS500P19;9
S24000;17RS500FV21;21
S24000;17SH060SE21;4
S90000;17SH060SE21;5
S24000;18ET050TL17;2
S90000;18ET050TL17;5
S24000;20SA050HC20;6
S90000;20SA050HC20;8
S24000;24GD250R20;7
S90000;24GD250R20;7
S24000;24MA030P15;11
S90000;24MA030P15;33
S90000;27DE015I13US;37
S24000;27ER050I21;11
S24000;27MP050I20;73
S24000;27RM300I20;7
S24000;29LC200A20US;18
S90000;29MA075A19;1
S24000;29MA075A21;11
S90000;29MA075A21;12
S90000;38WC050A18;35
S24000;49DC004I20;24
S90000;49DC004I20;92
S90000;49MA010CB4;19
S90000;49POUIS19;138
S90000;49TOBACH20;195
S90000;49TOBAGSA20;32
S90000;49VANSA19;32
S24000;52MA003K16A;275
S90000;52MA003K16A;150
S90000;98BBSH050AR2;87
S24000;01HV030K16;6
S24000;01PR015R19;6
S90000;01PR015R19;2
S24000;01SA100LT20;11
S90000;01SA100LT20;10
S24000;01SL0045K13;27
S24000;11CD050A18;3
S24000;11GN195A18;7
S90000;15ET100VBL21;8
S24000;15GG150VAL21;23
S90000;15GG150VAL21;5
S24000;15GN300L11;11
S90000;15MA030VBL21;7
S90000;15MF030VM20H;8
S24000;17AS250E19;8
S90000;17AS250E19;8
S90000;17DO050F13;1
S90000;17RS500G19;90
S24000;17RS500G21;14
S24000;24RO010R18;9
S90000;24RO010R18;3
S24000;27MP150I20;8
S24000;29RC200A20;18
S90000;38BV050A17;1
S24000;38BV050A19;5
S90000;38BV050A19;3
S90000;49BM010K19;31
S90000;49HD035K19H;8
S90000;49LC035CB6;55
S90000;49MA010P15;1
S90000;49P2DTS19;14
S90000;49PADCL20;101
S24000;52AS006P19;215
S24000;52LC006A20;469
S24000;52SH006E19;255
S24000;98BBMA010KA3;10
S24000;01BP050K21;12
S90000;01BP050K21;4
S24000;01CP200K17;10
S90000;01KTCNTAPAC20;1
S24000;01RV500K20;7
S90000;11BG240DE20H;4
S24000;11EP050H19;5
S90000;11EP050H19;36
S24000;11EP090H19;6
S90000;11EP090H19;6
S90000;11LP040028M19;42
S24000;15AS150VCL21;14
S90000;15AS150VCL21;1
S90000;15ET100VM20H;1
S24000;15HE005L14;7
S90000;15HE005L14;7
S24000;15MA030L11;15
S24000;17AS500FV21;12
S24000;17RC500P19;6
S90000;17SH075F15;14
S90000;17SH300G18;126
S24000;18ET090TL17;3
S90000;18ET090TL17;5
S24000;20AR075O20;5
S90000;20AR075O20;5
S24000;20DO075CD20;6
S90000;20DO075CD20;6
S24000;20FE050H20;5
S90000;20FE050H20;10
S24000;20GD250HC20;8
S24000;20SA050O20;6
S90000;20SA050O20;10
S24000;24EF050R18;2
S24000;24MA030RE19;10
S90000;24MA030RE19;9
S24000;27CP050I19;7
S24000;27DF125I17;19
S24000;27ER015I20;13
S24000;27FP050I19;4
S90000;27FP050I19;6
S90000;27TS050I20;1
S24000;29GE200A21;16
S24000;29SH240A20;11
S90000;29SH240A20;1
S24000;38SM025A19;6
S90000;49HD035K17;14
S90000;49PI010K1;31
S90000;49PI010K18;94
S24000;49POURS21;25
S90000;49POURS21;12
S90000;49WS004A18;9
S90000;52COTLTM19;4
S90000;52RIB1NO20;1
S90000;52RIB2NO20;1
S24000;52SHEANUTS20;2
S24000;52SP001I19;150
S90000;52SP001I19;203
S90000;52WM0015A18;149
S90000;01CL200K21;1
S24000;01CMR500K20;3
S24000;01CV050K18;10
S90000;01HD250K19H;1
S24000;11ET010O21;24
S90000;11ET010O21;17
S24000;11LT300I20;7
S90000;11LT300I20;3
S24000;11MA030A20;7
S90000;11MA030A20;19
S24000;11SA100H19;5
S90000;11SA100H19;11
S24000;11SD100SL19;6
S90000;11SD100SL19;4
S24000;15GD500VB17;12
S90000;15GD500VB17;1
S90000;17AS075F15;14
S24000;17AS075FV21;9
S90000;17AS075FV21;47
S90000;17IC075D15;6
S90000;17RC500N18;1
S24000;17SH300FV21;11
S90000;17SH300FV21;10
S24000;18ET010TL17;11
S90000;18ET010TL17;5
S24000;20ET075OC20;6
S90000;20ET075OC20;5
S24000;20NV150H20;7
S90000;24LC075C21;6
S24000;24MA030CB4;20
S24000;24MA030R18;18
S24000;24MA075P15;5
S90000;24MA075P15;19
S90000;27BP050I19;7
S24000;27DC050I20;26
S90000;27KTFCAPAC20;6
S24000;27MI150I20;4
S24000;27MS050I20;7
S90000;27MS050I20;15
S24000;29ASH240A20;6
S90000;29ASH240A20;1
S24000;38WC050A21;8
S90000;38WC050A21;6
S90000;49BF2NO20;71
S90000;49CO1NO19;5
S24000;49LD030I20;12
S90000;49LD030I20;64
S24000;49POVCI21;20
S90000;52AS006F17;63
S24000;52GD0015A18;74
S24000;SGOCVE600004;61
S90000;SGOCVKI00137;1
S90000;SGOCVKI00138;2
S90000;SGOCVKI00154;1
S90000;01BL012B20H;1
S24000;01EN300KB19;9
S90000;01EN300KB19;13
S90000;01SA250VE16;1
S24000;01SL300LV20;4
S90000;01SL300LV20;9
S90000;10BOWEB219;1100
S90000;10BOWEB319;2100
S90000;10BOWEB419;1000
S90000;11BG140SH19;10
S24000;11BG140SI19;6
S90000;11BG140SI19;1
S24000;11GD050A18;10
S90000;11GD050H19;12
S24000;11LC250H20;9
S90000;11LC250H20;4
S24000;11SP200SI19;7
S90000;11SP200SI19;6
S90000;15GC150VBL20;16
S24000;15GC200VB21;8
S24000;15GD250L14;13
S24000;15LC250VA20;7
S90000;15LC250VA20;12
S24000;17AS250P19;6
S90000;17AS250P19;20
S90000;18LC050TL17ET;2
S24000;20DO050O20;6
S90000;20DO050O20;8
S24000;24BR050R19;11
S90000;24EDT10C21;124
S24000;27DH015I20;12
S24000;29EC200A13;7
S90000;38WS030A18;22
S24000;49DH004I20;82
S90000;49DH004I20;33
S90000;49DOPAQ19;6
S90000;49DRANO19;17
S90000;49MA010K16;49
S24000;52LGEBAG19;77
S24000;52LGEBOX18;10
S90000;52MIBANO19;100
S24000;52OR001I19;3
S90000;98BBGD050VE2;242
S24000;01BV050K16;5
S90000;01EM075K18;1
S24000;01PI150K18;14
S24000;01SA050KL20;5
S90000;01SA050KL20;2
S24000;01SA250LT20;10
S90000;10CACLA20;2
S24000;11BC100G21;55
S90000;11BC100G21;10
S24000;11BG140CS19;7
S24000;11ET010H20;7
S90000;11ET010H20;5
S90000;11LP080028M19;48
S24000;11SA050O21;18
S90000;11SA050O21;12
S24000;11SV080I19;6
S90000;11SV080I19;10
S24000;15GD250VB17;6
S90000;15GD250VB17;5
S24000;15LC250VB3;8
S24000;15MA075L11;10
S24000;15RG500VA20;9
S90000;15RG500VA20;6
S90000;17SH075D15;19
S90000;17SH300N18;5
S90000;18GD050TL17ET;6
S90000;20ET075CD19;18
S90000;20NV150CD16A;1
S24000;24ET075CB4;11
S90000;24GD075C21;6
S24000;24GD500R19;13
S90000;24LC075CB5;40
S24000;24MA030S6;12
S90000;24MA030S6;16
S24000;27HCR050I16;7
S90000;27HCR050I16;3
S24000;29BP100A19;6
S90000;29KTAMA19;1
S24000;29VC240A16;11
S90000;29VC240A16;12
S24000;38MI150A18;5
S90000;38WM100A16;1
S90000;49CL008K15;16
S90000;49CL008K21;92
S90000;49DH004I17;51
S90000;49ET007R18;18
S90000;49FC030A15;3
S24000;49PO2RS21;6
S90000;49PO2SA19;44
S90000;49POU2VE20;59
S24000;52BGERIB18;2
S90000;52BGERIB18;2
S24000;52CP006K17;110
S90000;52CP006K17;95
S24000;52DF002I17;4
S90000;52DF002I17;169
S24000;52HS001I17;19
S24000;52HS004A18;84
S24000;52MC006G21;135
S90000;52MC006G21;100
S90000;52MMSANO19;240
S90000;52TRIHDTS19;26
S90000;J6185;13
