S15;01BK010K14;22
S27000;01BK010K14;11
S28000;01BK010K14;25
S15;01BV050K16;8
S27000;01BV050K16;7
S28000;01BV050K16;9
S15;01CL300KB20;9
S27000;01CL300KB20;6
S28000;01CL300KB20;11
S15;01LC250K17;12
S27000;01LC250K17;5
S28000;01LC250K17;26
S15;11BP100I19;2
S27000;11BP100I19;7
S15;11BR100A20;8
S27000;11BR100A20;8
S28000;11BR100A20;13
S15;11ET050H20;5
S27000;11ET050H20;7
S28000;11ET050H20;7
S15;11ET075O21;17
S27000;11ET075O21;14
S28000;11ET075O21;17
S15;11FAG10TR19;2
S27000;11FAG10TR19;8
S28000;11FAG10TR19;10
S15;11LT300I20;8
S27000;11LT300I20;8
S28000;11LT300I20;12
S15;11MA030A20;6
S27000;11MA030A20;8
S28000;11MA030A20;11
S15;11SV080I19;8
S27000;11SV080I19;8
S28000;11SV080I19;8
S15;15LC250VB3;16
S27000;15LC250VB3;7
S28000;15LC250VB3;20
S15;15RG500L14;11
S27000;15RG500L14;5
S28000;15RG500L14;20
S15;18LC250TL17ET;25
S27000;18LC250TL17ET;14
S28000;18LC250TL17ET;10
S15;20GD250CD20;16
S27000;20GD250CD20;7
S28000;20GD250CD20;13
S15;20MP030H20;2
S27000;20MP030H20;6
S28000;20MP030H20;7
S15;24GD500R19;6
S15;24SA050CB6;20
S27000;24SA050CB6;26
S28000;24SA050CB6;57
S15;27DC050I20;12
S27000;27DC050I20;26
S28000;27DC050I20;13
S15;27DH030I20;20
S27000;27DH030I20;15
S28000;27DH030I20;29
S15;27HS030I18;8
S27000;27HS030I18;8
S28000;27HS030I18;8
S15;27TS001I20;217
S15;01PR015R19;8
S27000;01PR015R19;17
S28000;01PR015R19;14
S15;01SA250LT20;7
S27000;01SA250LT20;9
S28000;01SA250LT20;29
S28000;11BG140SH19;11
S15;11BG140SI19;7
S27000;11BG140SI19;7
S28000;11BG140SI19;7
S15;11GD050A18;12
S27000;11GD050A18;6
S28000;11GD050A18;15
S15;11SD100SI19;4
S27000;11SD100SI19;6
S28000;11SD100SI19;6
S15;15BA500L16A;5
S27000;15BA500L16A;7
S28000;15BA500L16A;6
S15;15ET010VB19;10
S27000;15ET010VB19;8
S28000;15ET010VB19;7
S15;15GD250VA5;2
S27000;15GD250VA5;5
S15;15GM280VB20;8
S27000;15GM280VB20;8
S28000;15GM280VB20;12
S15;15MA075L11;15
S27000;15MA075L11;2
S28000;15MA075L11;20
S15;15RG500VA20;15
S15;17AS250E19;8
S27000;17AS250E19;9
S28000;17AS250E19;9
S15;17AS500G18;15
S27000;17AS500G18;13
S28000;17AS500G18;23
S15;17SH060SE21;10
S27000;17SH060SE21;6
S28000;17SH060SE21;10
S15;17SH300P19;15
S27000;17SH300P19;9
S28000;17SH300P19;17
S15;18BI030TL17ET;45
S27000;18BI030TL17ET;16
S28000;18BI030TL17ET;44
S15;18SA075TL17ET;8
S27000;18SA075TL17ET;10
S28000;18SA075TL17ET;9
S15;24MA030RE19;8
S27000;24MA030RE19;14
S28000;24MA030RE19;19
S15;24MA075P15;15
S27000;24MA075P15;14
S28000;24MA075P15;18
S15;24MA150R19;8
S27000;24MA150R19;9
S28000;24MA150R19;10
S15;27DE015I21;23
S27000;27DE015I21;18
S28000;27DE015I21;29
S15;29RH500A15;50
S27000;29RH500A15;8
S28000;29RH500A15;52
S15;01EN300KB19;6
S27000;01EN300KB19;6
S28000;01EN300KB19;24
S15;01HV030K16;8
S27000;01HV030K16;1
S28000;01HV030K16;8
S15;01SA100LV20;36
S27000;01SA100LV20;20
S28000;01SA100LV20;32
S15;01SL300LV20;6
S27000;01SL300LV20;8
S28000;01SL300LV20;11
S15;11BG140SH19;7
S27000;11BG140SH19;7
S15;11ET010H20;8
S27000;11ET010H20;3
S28000;11ET010H20;8
S15;11LC250H19;15
S27000;11LC250H19;10
S28000;11LC250H19;11
S15;11SP200SI19;8
S27000;11SP200SI19;6
S28000;11SP200SI19;9
S15;15GD250L14;19
S27000;15GD250L14;7
S28000;15GD250L14;18
S15;17AS250FV21;14
S27000;17AS250FV21;8
S28000;17AS250FV21;21
S15;17AS500P19;11
S27000;17AS500P19;6
S28000;17AS500P19;10
S15;17RC500E20;13
S27000;17RC500E20;14
S28000;17RC500E20;29
S15;17RS500G19;27
S27000;17RS500G19;17
S28000;17RS500G19;69
S15;17RS500N18;1
S15;17SH075G18;2
S15;20DO050O20;12
S27000;20DO050O20;8
S28000;20DO050O20;13
S27000;20ET075OC20;8
S28000;20ET075OC20;10
S15;24GD250CB4;18
S27000;24GD250CB4;9
S28000;24GD250CB4;31
S15;27CP050I19;16
S27000;27CP050I19;11
S28000;27CP050I19;18
S15;27MP150I20;13
S27000;27MP150I20;9
S28000;27MP150I20;17
S15;27RM300I20;22
S27000;27RM300I20;10
S28000;27RM300I20;20
S15;29ASH240A20;11
S27000;29ASH240A20;6
S28000;29ASH240A20;8
S28000;29GE200A18;12
S15;29VC240A16;16
S28000;29VC240A16;21
S15;38MI150A18;5
S15;01BM150K19;12
S27000;01BM150K19;20
S28000;01BM150K19;34
S15;01CMR500K20;8
S27000;01CMR500K20;7
S28000;01CMR500K20;12
S27000;01CV050K15;1
S15;01LT300K20;14
S27000;01LT300K20;6
S28000;01LT300K20;11
S15;01RC300KB20;10
S27000;01RC300KB20;7
S28000;01RC300KB20;12
S15;01SL500VE20;13
S27000;01SL500VE20;6
S28000;01SL500VE20;9
S15;11GE075I20;10
S27000;11GE075I20;8
S28000;11GE075I20;10
S15;11MW200I19;1
S15;11MWC200I19;8
S27000;11MWC200I19;8
S28000;11MWC200I19;8
S15;11PEP050I20;9
S27000;11PEP050I20;6
S28000;11PEP050I20;8
S15;15MA030VB3;27
S27000;15MA030VB3;14
S28000;15MA030VB3;27
S15;17HI001G19;151
S27000;17HI001G19;122
S28000;17HI001G19;157
S15;17MM050A20;3
S27000;17MM050A20;5
S28000;17MM050A20;3
S15;17SH300E19;16
S27000;17SH300E19;10
S28000;17SH300E19;12
S15;20ET075HC20;8
S27000;20ET075HC20;6
S28000;20ET075HC20;9
S28000;24GD250R18;1
S28000;24MA030RV19;20
S15;24MA075R18;16
S27000;24MA075R18;14
S28000;24MA075R18;20
S15;24RO010R18;10
S27000;24RO010R18;9
S28000;24RO010R18;11
S15;27DB015I20;15
S27000;27DB015I20;11
S28000;27DB015I20;14
S15;27ER150I21;13
S27000;27ER150I21;34
S28000;27ER150I21;56
S15;27FP050I19;5
S27000;27FP050I19;8
S28000;27FP050I19;8
S15;29GE200A21;17
S27000;29GE200A21;2
S28000;29GE200A21;33
S15;49TOTWC21;43
S27000;49TOTWC21;17
S28000;49TOTWC21;39
S15;01BG070K21;3
S27000;01BG070K21;9
S15;01CP200K17;15
S27000;01CP200K17;5
S28000;01CP200K17;17
S15;01HD500K20;8
S27000;01HD500K20;7
S28000;01HD500K20;19
S15;01MA030K16;61
S27000;01MA030K16;6
S28000;01MA030K16;51
S15;01SA050KV20;18
S27000;01SA050KV20;7
S28000;01SA050KV20;16
S15;11EH150A18;8
S27000;11EH150A18;8
S28000;11EH150A18;8
S15;11GM200I19;9
S27000;11GM200I19;9
S28000;11GM200I19;13
S15;11SD100CS19;4
S27000;11SD100CS19;8
S28000;11SD100CS19;13
S15;15ET100VB3;8
S27000;15ET100VB3;6
S28000;15ET100VB3;12
S15;15GD500VB17;17
S27000;15GD500VB17;10
S28000;15GD500VB17;26
S15;15MA030VA5;23
S27000;15MA030VA5;15
S28000;15MA030VA5;19
S15;17AS250P19;13
S27000;17AS250P19;9
S28000;17AS250P19;8
S15;17SH300FV21;13
S27000;17SH300FV21;8
S28000;17SH300FV21;18
S15;18GD250TL17ET;17
S27000;18GD250TL17ET;12
S28000;18GD250TL17ET;17
S15;24BR050CB6;20
S27000;24BR050CB6;10
S28000;24BR050CB6;14
S15;24MA030S6;20
S27000;24MA030S6;19
S28000;24MA030S6;40
S15;27BP050I19;9
S27000;27BP050I19;7
S15;29HD500A15;25
S27000;29HD500A15;6
S28000;29HD500A15;62
S15;49BO015CS19;10
S27000;49BO015CS19;10
S28000;49BO015CS19;53
S27000;49DC004I20;24
S28000;49DC004I20;17
S15;49LC020A20;52
S27000;49LC020A20;36
S28000;49LC020A20;135
S15;52DH001I20;245
S27000;52DH001I20;485
S28000;52DH001I20;262
S27000;52HR004G17;57
S15;01BL012K18;17
S27000;01BL012K18;16
S28000;01BL012K18;36
S15;01CM030K21;19
S15;01PI075K18;10
S27000;01PI075K18;6
S28000;01PI075K18;11
S15;11CF100TR19;7
S27000;11CF100TR19;6
S28000;11CF100TR19;14
S27000;11GD050H20;3
S15;11LD200I19;11
S27000;11LD200I19;12
S28000;11LD200I19;21
S15;11SA100H19;9
S27000;11SA100H19;8
S28000;11SA100H19;15
S15;15DO050VA5;12
S27000;15DO050VA5;8
S28000;15DO050VA5;20
S27000;15ET100VA20;3
S15;15GD250VB17;22
S27000;15GD250VB17;10
S28000;15GD250VB17;24
S15;15GM065VB20;14
S27000;15GM065VB20;11
S28000;15GM065VB20;16
S15;15MA030L11;26
S27000;15MA030L11;13
S28000;15MA030L11;29
S27000;15RG500VA20;11
S28000;15RG500VA20;19
S15;17RC500P19;13
S27000;17RC500P19;10
S28000;17RC500P19;14
S15;17SH500E19;8
S27000;17SH500E19;11
S28000;17SH500E19;24
S15;18ET010TL17;15
S27000;18ET010TL17;9
S28000;18ET010TL17;9
S15;24LC250R20;17
S27000;24LC250R20;8
S28000;24LC250R20;21
S28000;27BP050I19;15
S15;27DC030I20;15
S27000;27DC030I20;9
S28000;27DC030I20;11
S15;29SA050A17;16
S27000;29SA050A17;8
S28000;29SA050A17;16
S15;38WM065A18;8
S27000;38WM065A18;6
S28000;38WM065A18;8
S15;49ET007CB4;9
S27000;49ET007CB4;16
S28000;49ET007CB4;25
S15;49SH035E20;10
S27000;49SH035E20;20
S28000;49SH035E20;134
S15;52CP0015I19;1
S27000;52CP0015I19;158
S28000;52CP0015I19;115
S15;52MGEBAG19;18
S15;01EM075K20;7
S27000;01EM075K20;6
S28000;01EM075K20;8
S15;11CD050A18;12
S27000;11CD050A18;6
S28000;11CD050A18;15
S15;11GD250H19;16
S27000;11GD250H19;17
S28000;11GD250H19;15
S15;11GD250H20;9
S27000;11GD250H20;13
S28000;11GD250H20;14
S15;11SA050O21;18
S27000;11SA050O21;17
S28000;11SA050O21;18
S15;11SP200CS19;12
S27000;11SP200CS19;9
S28000;11SP200CS19;14
S15;15GN300L11;15
S27000;15GN300L11;8
S28000;15GN300L11;11
S15;17SH075G21;30
S27000;17SH075G21;9
S28000;17SH075G21;80
S15;18ET090TL17;7
S27000;18ET090TL17;6
S28000;18ET090TL17;8
S15;20DO075CD20;12
S27000;20DO075CD20;8
S28000;20DO075CD20;12
S15;24BR050R19;9
S27000;24BR050R19;9
S28000;24BR050R19;13
S15;24ET050R18;8
S27000;24ET050R18;11
S28000;24ET050R18;9
S27000;24GD500R19;7
S28000;24GD500R19;9
S15;24MA030P15;24
S27000;24MA030P15;15
S28000;24MA030P15;29
S15;27EV200I19;16
S27000;27EV200I19;4
S28000;27EV200I19;14
S15;27MS050I20;9
S27000;27MS050I20;7
S28000;27MS050I20;17
S27000;27TS050I20;10
S28000;27TS050I20;14
S15;29HD075A15;48
S27000;29HD075A15;33
S28000;29HD075A15;37
S27000;29HS100A18;1
S15;29HS100A21;7
S27000;29HS100A21;9
S28000;29HS100A21;30
S15;29MAV075A19;8
S27000;29MAV075A19;5
S28000;29MAV075A19;7
S27000;49HD035A15;5
S27000;52EV002I19;175
S28000;52EV002I19;29
S15;52MS001I20;133
S27000;52MS001I20;227
S15;01BP050K21;13
S27000;01BP050K21;11
S28000;01BP050K21;19
S15;01CV050K18;8
S27000;01CV050K18;7
S28000;01CV050K18;10
S15;01HD250K17;7
S27000;01HD250K17;10
S28000;01HD250K17;9
S15;01MR030K14;30
S27000;01MR030K14;20
S28000;01MR030K14;35
S15;01RV500K20;12
S27000;01RV500K20;11
S28000;01RV500K20;22
S15;01SE125K21;7
S27000;01SE125K21;9
S28000;01SE125K21;13
S15;11CM030H19;19
S27000;11CM030H19;19
S28000;11CM030H19;38
S15;11LC250O21;24
S27000;11LC250O21;24
S28000;11LC250O21;24
S15;15GD250VA20;12
S27000;15GD250VA20;12
S28000;15GD250VA20;14
S15;15SA070VB6;12
S27000;15SA070VB6;8
S28000;15SA070VB6;10
S15;17AF100G20;2
S27000;17AF100G20;6
S28000;17AF100G20;12
S15;17AS500E19;13
S27000;17AS500E19;5
S28000;17AS500E19;26
S15;17HI100G19;11
S27000;17HI100G19;11
S28000;17HI100G19;4
S15;17MC200G18;12
S27000;17MC200G18;6
S28000;17MC200G18;15
S15;20AR075O20;5
S27000;20AR075O20;11
S28000;20AR075O20;19
S15;20NV150H20;10
S27000;20NV150H20;4
S28000;20NV150H20;24
S15;24SA050R18;12
S27000;24SA050R18;9
S28000;24SA050R18;15
S15;27ER050I21;27
S27000;27ER050I21;26
S28000;27ER050I21;46
S15;27HSR030I16;8
S27000;27HSR030I16;8
S28000;27HSR030I16;9
S15;27OR030I19;69
S27000;27OR030I19;52
S28000;27OR030I19;77
S15;52GD0015A18;28
S27000;52GD0015A18;230
S28000;52GD0015A18;103
S15;52PS0015R21;150
S15;01CL200K17;8
S27000;01CL200K17;7
S28000;01CL200K17;16
S15;01RL500K20;13
S27000;01RL500K20;10
S28000;01RL500K20;23
S15;11EP050H19;8
S27000;11EP050H19;7
S28000;11EP050H19;7
S15;11EP090H19;10
S27000;11EP090H19;3
S15;15AS250VA18;9
S27000;15AS250VA18;8
S28000;15AS250VA18;12
S15;15CP250VA5;8
S27000;15CP250VA5;8
S28000;15CP250VA5;5
S27000;15LC250VA20;2
S28000;15LC250VA20;2
S15;15SH250VA17;1
S27000;15SH250VA17;1
S28000;15SH250VA17;13
S15;17ER075P19;10
S27000;17ER075P19;8
S28000;17ER075P19;14
S15;17HR100G13;20
S27000;17HR100G13;2
S28000;17HR100G13;12
S15;17SH075E19;13
S28000;17SH075E19;4
S15;17VI100P19;14
S27000;17VI100P19;5
S28000;17VI100P19;8
S15;24LC250CB4;16
S27000;24LC250CB4;7
S28000;24LC250CB4;24
S15;24RO010CB4;8
S27000;24RO010CB4;9
S28000;24RO010CB4;12
S15;27HCR050I16;5
S27000;27HCR050I16;8
S28000;27HCR050I16;12
S15;29RC200A20;13
S27000;29RC200A20;34
S28000;29RC200A20;46
S15;38UV030A18;8
S27000;38UV030A18;17
S28000;38UV030A18;9
S15;49OR005I19;18
S27000;49OR005I19;45
S28000;49OR005I19;191
S15;52AF006G20;181
S27000;52AF006G20;171
S28000;52AF006G20;284
S15;52HV001K18;41
S27000;52HV001K18;108
S28000;52HV001K18;178
S15;52MA003K16A;185
S27000;52MA003K16A;170
S28000;52MA003K16A;239
S15;52MIGEBAG19;146
S27000;52MIGEBAG19;221
S28000;52MIGEBAG19;354
S15;52SH006E19;295
S15;01BM050K19;15
S27000;01BM050K19;10
S28000;01BM050K19;16
S15;01LH300KB19;10
S27000;01LH300KB19;3
S28000;01LH300KB19;8
S15;01SA250LV20;25
S27000;01SA250LV20;9
S28000;01SA250LV20;23
S15;11BG140CS19;8
S27000;11BG140CS19;8
S28000;11BG140CS19;11
S27000;11LC050H20;3
S15;11MH075A19;7
S27000;11MH075A19;7
S28000;11MH075A19;10
S15;11SD100SL19;10
S27000;11SD100SL19;7
S28000;11SD100SL19;8
S15;15HE005L14;7
S27000;15HE005L14;4
S28000;15HE005L14;8
S15;15LM300L11;13
S27000;15LM300L11;9
S28000;15LM300L11;12
S15;17RS500FV21;19
S27000;17RS500FV21;5
S28000;17RS500FV21;33
S15;17SH300G18;18
S27000;17SH300G18;12
S28000;17SH300G18;14
S15;17SH500P19;13
S27000;17SH500P19;7
S28000;17SH500P19;27
S15;20GD250HC20;14
S27000;20GD250HC20;3
S28000;20GD250HC20;15
S15;20SA050HC20;12
S27000;20SA050HC20;7
S28000;20SA050HC20;12
S15;24MA030RA19;10
S27000;24MA030RA19;14
S28000;24MA030RA19;21
S15;24MA075CB4;18
S27000;24MA075CB4;18
S28000;24MA075CB4;39
S15;27BY015I19;12
S27000;27BY015I19;7
S28000;27BY015I19;13
S15;38EC015A18;8
S27000;38EC015A18;8
S28000;38EC015A18;7
S27000;49DH004I20;16
S28000;49DH004I20;1
S15;52BY001I19;149
S27000;52BY001I19;279
S28000;52BY001I19;282
S15;52DE001I21;216
S27000;52DE001I21;154
S28000;52DE001I21;235
S15;52LT002R21;308
S27000;52LT002R21;276
S28000;52LT002R21;253
S15;52TS001R21;171
S15;01CM500K20;12
S27000;01CM500K20;3
S28000;01CM500K20;13
S15;01EC200K17;10
S27000;01EC200K17;5
S28000;01EC200K17;14
S15;01SA050KL20;11
S27000;01SA050KL20;6
S28000;01SA050KL20;15
S15;01SA250VE20;11
S27000;01SA250VE20;14
S28000;01SA250VE20;11
S15;11BO100CS19;25
S27000;11BO100CS19;12
S28000;11BO100CS19;29
S15;11ET010O21;24
S27000;11ET010O21;24
S28000;11ET010O21;23
S15;11LC250H20;12
S27000;11LC250H20;11
S28000;11LC250H20;10
S15;11PM100SI19;6
S27000;11PM100SI19;8
S28000;11PM100SI19;8
S15;11SP200SL19;9
S27000;11SP200SL19;8
S28000;11SP200SL19;8
S15;15ET100VA5;2
S27000;15ET100VA5;5
S28000;15ET100VA5;2
S15;15LC250VA5;7
S27000;15LC250VA5;8
S28000;15LC250VA5;9
S15;15RC500VB17;20
S27000;15RC500VB17;12
S28000;15RC500VB17;35
S15;17AS500FV21;9
S27000;17AS500FV21;3
S28000;17AS500FV21;24
S15;20SA050O20;11
S27000;20SA050O20;8
S28000;20SA050O20;12
S15;24BL012CB5;13
S27000;24BL012CB5;9
S28000;24BL012CB5;23
S15;24VF050R18;4
S27000;24VF050R18;8
S15;27DF125I17;11
S27000;27DF125I17;22
S90000;01KTCNTAPAC20;1
S24000;01PR015R19;12
S90000;01PR015R19;8
S24000;01SA250LT20;18
S90000;11BG140SH19;10
S24000;11BG140SI19;8
S90000;11BG140SI19;7
S24000;11GD050A18;9
S90000;11GD050H19;12
S24000;11SD100SI19;8
S90000;11SD100SI19;9
S24000;15BA500L16A;6
S24000;15ET010VB19;6
S24000;15GD250VA5;4
S90000;15GD250VA5;1
S24000;15GM280VB20;8
S90000;15GM280VB20;8
S24000;15MA075L11;11
S90000;15MA075L11;5
S24000;17AS250E19;9
S90000;17AS250E19;10
S24000;17AS500G18;6
S24000;17SH060SE21;12
S90000;17SH060SE21;7
S90000;17SH075N18;11
S24000;17SH300P19;11
S90000;17SH300P19;9
S24000;18BI030TL17ET;17
S24000;18SA075TL17ET;10
S90000;18SA075TL17ET;9
S90000;24EDT050C21;2
S90000;24EDT10C21;137
S90000;24LC075C21;6
S24000;24MA030RE19;11
S90000;24MA030RE19;6
S24000;24MA075P15;13
S90000;24MA075P15;23
S24000;24MA150R19;9
S90000;24MA150R19;9
S24000;27DE015I21;14
S90000;27DE015I21;23
S90000;29HD250A21C;1
S24000;29RH500A15;32
S24000;38RC050A18;8
S90000;38RC050A18;9
S90000;38WM100A16;5
S90000;49IC1POU20;196
S90000;49IC2POU20;49
S90000;49IC3POU20;27
S90000;49JEWNO19;68
S90000;49MA010CB4;19
S90000;49MA010P15;1
S24000;49MS008I20;24
S90000;49MS008I20;109
S90000;49POCB19;1
S90000;49TOBACH20;178
S90000;49TOBAGSA20;77
S90000;49WS004A18;9
S90000;52COTLTM19;4
S90000;52MOCOL316;5
S24000;52SP001I19;152
S90000;52SP001I19;203
S24000;98BBDF015IM0;45
S90000;01EN300KB19;137
S24000;01HV030K16;4
S90000;01HV030K16;5
S24000;01SA100LV20;18
S90000;01SA100LV20;8
S24000;01SL300LV20;8
S90000;01SL300LV20;13
S90000;10BOWEB219;600
S90000;10BOWEB319;900
S90000;10BOWEB419;600
S24000;11BG140SH19;8
S24000;11ET010H20;10
S90000;11ET010H20;6
S24000;11LC250H19;9
S90000;11LC250H19;10
S24000;11SP200SI19;10
S90000;11SP200SI19;2
S24000;15GD250L14;5
S24000;17AS250FV21;12
S90000;17AS250FV21;11
S24000;17AS500P19;9
S90000;17AS500P19;21
S24000;17RC500E20;15
S90000;17RC500E20;8
S24000;17RS500G19;13
S90000;17RS500N18;34
S24000;17SH075G18;7
S90000;17SH075G18;17
S24000;20DO050O20;8
S90000;20DO050O20;7
S24000;20ET075OC20;8
S90000;20ET075OC20;6
S24000;24GD250CB4;19
S90000;24LC075CB5;41
S24000;27CP050I19;13
S90000;27CP050I19;3
S24000;27MP150I20;11
S24000;27RM300I20;14
S24000;29ASH240A20;7
S90000;29ASH240A20;7
S24000;29GE200A18;10
S90000;29GE200A18;1
S00;27CN050I14;2
S24000;29VC240A16;11
S90000;29VC240A16;12
S24000;38MI150A18;6
S90000;38MI150A18;7
S24000;38WC050A21;7
S90000;38WC050A21;4
S90000;49BF2NO20;71
S90000;49CP008I19;32
S90000;49EP005H20;16
S90000;49LC035CB6;55
S90000;49MR010K14;178
S24000;52AS006P19;245
S90000;52AS006P19;35
S24000;52CD0015A18;95
S24000;52DB001I20;162
S90000;52DB001I20;157
S24000;52DS001I20;174
S90000;52DS001I20;240
S90000;52MIBANO19;100
S90000;52TRIHDTS19;26
S24000;98BBSA050LT1;10
S90000;01CL200K21;13
S24000;01SL500LV20;8
S90000;01SL500LV20;12
S24000;11BH050A18;13
S90000;11BH050A18;7
S24000;11GD250O21;23
S90000;11GD250O21;18
S24000;11SD100SH19;8
S90000;11SD100SH19;8
S24000;15LC250L14;6
S24000;15MA075VB4;7
S90000;15MA075VB4;11
S24000;15SH250VA20;4
S90000;15SH250VA20;5
S24000;17AS250G18;13
S90000;17AS250G18;7
S24000;17RC500G18;14
S24000;17SE100FV21;4
S90000;18GD050TL17ET;6
S24000;20ET075CD20;8
S90000;20ET075CD20;6
S24000;20SA050CD20;8
S90000;20SA050CD20;10
S24000;24ET075CB4;10
S90000;24ET075CB4;6
S24000;24GD250R20;14
S90000;24GD250R20;14
S24000;24MA030CB4;24
S90000;24MA030CB4;8
S90000;27DL200I13US;11
S24000;27ER015I20;4
S24000;27MI150I20;7
S28000;27DF125I17;24
S15;52AS006FV21;219
S27000;52AS006FV21;123
S28000;52AS006FV21;364
S15;52MGEBOX18;18
S27000;52MGEBOX18;12
S28000;52MGEBOX18;29
S15;52MGENSA18;103
S27000;52MGENSA18;185
S28000;52MGENSA18;234
S27000;52SGENSA18;23
S28000;52SGENSA18;105
S15;98BBMA010KA3;10
S27000;98BBMA010KA3;10
S28000;98BBMA010KA3;74
S15;01SL500LV20;13
S27000;01SL500LV20;6
S28000;01SL500LV20;12
S15;11BH050A18;12
S27000;11BH050A18;10
S28000;11BH050A18;16
S15;11GD250O21;24
S27000;11GD250O21;24
S28000;11GD250O21;24
S15;11SD100SH19;8
S27000;11SD100SH19;7
S28000;11SD100SH19;8
S15;15LC250L14;9
S27000;15LC250L14;6
S28000;15LC250L14;20
S15;15MA075VB4;17
S27000;15MA075VB4;10
S28000;15MA075VB4;19
S15;15SH250VA20;7
S27000;15SH250VA20;2
S28000;15SH250VA20;6
S15;17AS250G18;16
S27000;17AS250G18;11
S28000;17AS250G18;16
S15;17RC500G18;25
S27000;17RC500G18;6
S28000;17RC500G18;41
S15;17SE100FV21;10
S27000;17SE100FV21;2
S28000;17SE100FV21;14
S15;20ET075CD20;9
S27000;20ET075CD20;7
S28000;20ET075CD20;9
S15;20SA050CD20;12
S27000;20SA050CD20;8
S28000;20SA050CD20;12
S15;24ET075CB4;12
S27000;24ET075CB4;10
S28000;24ET075CB4;12
S15;24GD250R20;14
S27000;24GD250R20;13
S28000;24GD250R20;20
S15;24MA030CB4;34
S27000;24MA030CB4;14
S28000;24MA030CB4;53
S15;27ER015I20;17
S27000;27ER015I20;16
S28000;27ER015I20;19
S15;27MI150I20;7
S27000;27MI150I20;6
S28000;27MI150I20;10
S15;29LC200A20US;31
S27000;29LC200A20US;25
S28000;29LC200A20US;16
S15;29SH240A20;10
S27000;29SH240A20;6
S28000;29SH240A20;7
S15;38FT200A21;10
S27000;38FT200A21;17
S28000;38FT200A21;13
S27000;52LGEBAG18;39
S27000;52SH006E19;191
S28000;52SH006E19;238
S15;01HN0075K19;6
S27000;01HN0075K19;7
S28000;01HN0075K19;23
S15;01SA100LT16;13
S27000;01SA100LT16;10
S28000;01SA100LT16;28
S15;11CM030H20;18
S27000;11CM030H20;18
S28000;11CM030H20;15
S15;11CM030O21;47
S27000;11CM030O21;48
S28000;11CM030O21;46
S15;17RS500P19;39
S27000;17RS500P19;22
S28000;17RS500P19;36
S15;17SH500G18;16
S27000;17SH500G18;15
S28000;17SH500G18;30
S15;18ET050TL17;8
S27000;18ET050TL17;6
S28000;18ET050TL17;6
S15;20DO130HC20;12
S27000;20DO130HC20;7
S28000;20DO130HC20;17
S15;20FE050H20;10
S27000;20FE050H20;4
S28000;20FE050H20;10
S15;27DS030I20;14
S24000;29LC200A20US;21
S90000;29LC200A20US;8
S24000;29SH240A20;6
S24000;38FT200A21;8
S90000;38FT200A21;7
S90000;49DB004I20;30
S90000;49ET010V13;13
S90000;49GD035R14;5
S90000;49MA010K16;123
S90000;49MW030I19;20
S90000;49MWC030I19;101
S90000;52DL002I17;153
S90000;52HCTM21;4
S24000;01CL200K17;7
S90000;01CL200K17;3
S90000;01HD250K19H;1
S90000;01MF030B20H;3
S24000;01RL500K20;10
S90000;01RL500K20;11
S24000;11EP050H19;7
S90000;11EP050H19;42
S24000;11EP090H19;7
S90000;11EP090H19;6
S90000;11LB000TR19;2
S24000;15AS250VA18;8
S90000;15AS250VA18;9
S24000;15CP250VA5;6
S90000;15CP250VA5;4
S90000;15ET100VAL20;1
S90000;15LC250VA20;12
S24000;15SH250VA17;9
S24000;17ER075P19;9
S90000;17ER075P19;8
S90000;17HR100G13;18
S90000;17SE125D15;24
S24000;17SH075E19;7
S90000;17SH075E19;173
S24000;17VI100P19;6
S90000;17VI100P19;9
S90000;24GD075CB5;9
S24000;24LC250CB4;14
S90000;24LC250CB4;1
S24000;24RO010CB4;11
S90000;24RO010CB4;1
S90000;27DE015I13US;62
S24000;27HCR050I16;8
S90000;27HCR050I16;4
S90000;27OR050I21C;1
S90000;29BP100A18;1
S24000;29RC200A20;28
S24000;38UV030A18;12
S90000;49CO1NO19;5
S24000;49OR005I19;72
S21000;01SL500LV20;10
S21000;11BH050A18;9
S21000;11GD250O21;21
S21000;11SD100SH19;8
S21000;15LC250L14;9
S21000;15MA075VB4;12
S21000;15SH250VA20;4
S21000;17AS250G18;12
S21000;17RC500G18;28
S21000;20ET075CD20;10
S21000;20SA050CD20;10
S21000;24ET075CB4;10
S21000;24GD250R20;15
S21000;24MA030CB4;23
S21000;27ER015I20;8
S21000;27MI150I20;8
S21000;29LC200A20US;58
S21000;29SH240A20;10
S21000;38FT200A21;7
S21000;52HCTM21;8
S21000;52LGEBAG18;20
S21000;01CL200K17;7
S21000;01RL500K20;6
S21000;15AS250VA18;7
S21000;15CP250VA5;5
S21000;15SH250VA17;4
S21000;17ER075P19;2
S21000;17HR100G13;10
S21000;17SH075E19;46
S21000;17VI100P19;7
S21000;24LC250CB4;2
S21000;24RO010CB4;8
S21000;27HCR050I16;8
S21000;29RC200A20;49
S21000;38UV030A18;11
S21000;49OR005I19;52
S21000;52AF006G20;188
S21000;52HV001K18;100
S21000;52MA003K16A;106
S21000;52MIGEBAG19;201
S21000;52SH006E19;117
S21000;01HN0075K19;8
S21000;01SA100LT16;18
S21000;11CM030H20;17
S21000;11CM030O21;46
S21000;17RS500P19;29
S21000;17SH500G18;10
S21000;18ET050TL17;8
S21000;20DO130HC20;6
S21000;20FE050H20;7
S21000;27DS030I20;10
S21000;29LC100A20;28
S21000;29MA030A17;17
S20;01SL500LV20;13
S20;11BH050A18;11
S20;11GD250O21;22
S20;11SD100SH19;8
S20;15LC250L14;10
S20;15MA075VB4;14
S20;15SH250VA20;11
S20;17AS250G18;10
S20;17RC500G18;13
S20;17SE100FV21;4
S20;20ET075CD20;8
S20;20SA050CD20;19
S20;24ET075CB4;9
S20;24GD250R20;15
S20;24MA030CB4;18
S20;27ER015I20;19
S20;27MI150I20;5
S20;29LC200A20US;37
S20;29SH240A20;11
S20;38FT200A21;10
S20;52HCTM21;5
S20;52LGEBAG18;8
S20;01CL200K17;9
S20;01RL500K20;8
S20;15AS250VA18;9
S20;15CP250VA5;5
S20;15LC250VA20;5
S20;17ER075P19;7
S20;17HR100G13;12
S20;17SH075E19;7
S20;17VI100P19;9
S20;24LC250CB4;13
S20;24RO010CB4;10
S20;27HCR050I16;7
S20;29RC200A20;10
S20;38UV030A18;13
S20;49OR005I19;61
S20;52AF006G20;100
S20;52HV001K18;47
S20;52MA003K16A;182
S20;52MIGEBAG19;310
S20;52SH006E19;263
S20;01HN0075K19;14
S20;01SA100LT16;13
S20;11CM030H20;21
S20;11CM030O21;47
S20;17DO050F13;3
S20;17RS500P19;9
S20;17SH500G18;13
S20;18ET050TL17;8
S20;20DO130HC20;8
S20;20FE050H20;5
S20;27DS030I20;16
S20;29LC100A20;24
S29000;01SL500LV20;6
S29000;11BH050A18;10
S29000;11GD250O21;24
S29000;11SD100SH19;6
S29000;15LC250L14;12
S29000;15MA075VB4;17
S29000;15SH250VA20;6
S29000;17AS250G18;7
S29000;17RC500G18;27
S29000;17SE100FV21;11
S29000;20ET075CD20;10
S29000;20SA050CD20;13
S29000;24ET075CB4;4
S29000;24GD250R20;19
S29000;24MA030CB4;23
S29000;27ER015I20;27
S29000;27MI150I20;9
S29000;29LC200A20US;32
S29000;29SH240A20;7
S29000;38FT200A21;9
S29000;01CL200K17;20
S29000;01RL500K20;19
S29000;11EP090H19;7
S29000;15AS250VA18;12
S29000;15CP250VA5;9
S29000;15LC250VA20;2
S29000;15SH250VA17;3
S29000;17ER075P19;10
S29000;17HR100G13;6
S29000;17SH075E19;20
S29000;17VI100P19;25
S29000;24LC250CB4;5
S29000;24RO010CB4;12
S29000;27HCR050I16;19
S29000;29RC200A20;59
S29000;38UV030A18;7
S29000;49OR005I19;38
S29000;52AF006G20;89
S29000;52HV001K18;26
S29000;52MA003K16A;1
S29000;52SH006E19;77
S29000;01BM150K19;6
S29000;01CMR500K20;15
S29000;01LT300K20;13
S29000;01RC300KB20;3
S29000;01SL500VE20;6
S29000;11GE075I20;8
S29000;11MWC200I19;7
S29000;11PEP050I20;8
S29000;15MA030VB3;9
S29000;17HI001G19;51
S29000;17SH300E19;14
S29000;20ET075HC20;8
SLM001;01SL500LV20;15
SLM001;15LC250L14;22
SLM001;17AS250G18;26
SLM001;17RC500G18;69
SLM001;17SE100FV21;25
SLM001;24ET075CB4;1
SLM001;24MA030CB4;48
SLM001;27ER015I20;22
SLM001;29LC200A20US;24
SLM001;29SH240A20;34
SLM001;49MA010K16;367
SLM001;52DL002I17;9
SLM001;01RL500K20;21
SLM001;17ER075P19;18
SLM001;17HR100G13;23
SLM001;17SH075E19;30
SLM001;17VI100P19;14
SLM001;24GD075CB5;40
SLM001;24LC250CB4;22
SLM001;27DE015I13US;17
SLM001;27HCR050I16;1
SLM001;29RC200A20;144
SLM001;49OR005I19;21
SLM001;52SH006E19;536
SLM001;01BM150K19;21
SLM001;01CMR500K20;16
SLM001;01LT300K20;32
SLM001;01SL500VE20;17
SLM001;15MA030VB3;20
SLM001;17SH300E19;36
SLM001;27ER150I21;113
SLM001;49CRM1NO19;33
SLM001;52AS006G18;430
SLM001;52DF002I17;9
SLM001;98BBSH035AR2;255
SLM001;01EC200K17;10
SLM001;17AS250N18;5
SLM001;17RS500P19;86
SLM001;17SH500G18;45
SLM001;20DO130HC20;14
SLM001;20FE050H20;10
SLM001;27DS030I20;13
SLM001;29LC100A20;70
SLM001;29MA030A17;62
SLM001;38WS030A18;1
SLM001;49GD035CB5;412
SLM001;52AS006E19;571
SLM001;52ER002I21;1049
SLM001;52HD006A18;949
SLM001;01SA250LT20;21
SLM001;11GD050A18;19
SLM001;15MA075L11;18
SLM001;17AS250E19;34
S10;01SL500LV20;8
S10;11BH050A18;7
S10;11GD250O21;23
S10;11SD100SH19;7
S10;15LC250L14;9
S10;15MA075VB4;14
S10;17AS250G18;13
S10;17RC500G18;15
S10;17SE100FV21;7
S10;20ET075CD20;8
S10;20SA050CD20;8
S10;24ET075CB4;8
S10;24GD250R20;12
S10;24MA030CB4;39
S10;27ER015I20;8
S10;27MI150I20;5
S10;29LC200A20US;36
S10;29SH240A20;10
S10;38FT200A21;16
S10;52LGEBAG18;140
S10;01CL200K17;10
S10;01RL500K20;10
S10;11EP050H19;6
S10;15AS250VA18;6
S10;15CP250VA5;5
S10;15SH250VA17;6
S10;17ER075P19;10
S10;17HR100G13;10
S10;17VI100P19;8
S10;24LC250CB4;12
S10;24RO010CB4;12
S10;27HCR050I16;7
S10;29RC200A20;27
S10;38UV030A18;8
S10;49OR005I19;69
S10;52AF006G20;203
S10;52HV001K18;34
S10;52MA003K16A;137
S10;52MIGEBAG19;254
S10;52SH006D17;90
S10;52SH006E19;157
S10;01BM150K19;31
S10;01CMR500K20;6
S10;01LT300K20;1
S10;01SL500VE20;7
S10;11GE075I20;7
S10;11MWC200I19;9
S10;11PEP050I20;9
S10;15MA030VB3;20
S10;17HI001G19;94
S10;17SH300E19;21
S10;20ET075HC20;6
S10;24RO010R18;13
S10;27DB015I20;9
S27000;27DS030I20;14
S28000;27DS030I20;16
S15;29LC100A20;35
S27000;29LC100A20;26
S28000;29LC100A20;39
S15;29MA030A17;36
S27000;29MA030A17;11
S28000;29MA030A17;36
S15;49ET007R18;11
S27000;49ET007R18;6
S28000;49ET007R18;9
S15;52AS006E19;240
S27000;52AS006E19;203
S28000;52AS006E19;199
S15;52BOX1M21;25
S27000;52BOX1M21;7
S28000;52BOX1M21;16
S15;52ER002I21;34
S28000;52ER002I21;142
S15;52HD006A18;343
S27000;52HD006A18;104
S28000;52HD006A18;281
S15;52SGEBAG19;219
S27000;52SGEBAG19;365
S28000;52SGEBAG19;419
S15;01CL050K21;12
S27000;01CL050K21;7
S28000;01CL050K21;13
S15;01PI030K18;20
S27000;01PI030K18;9
S28000;01PI030K18;20
S15;01SA100VE20;23
S27000;01SA100VE20;15
S28000;01SA100VE20;32
S15;11CM125I19;8
S27000;11CM125I19;9
S28000;11CM125I19;12
S15;11LH200I19;12
S27000;11LH200I19;8
S28000;11LH200I19;12
S15;11PM100SL19;7
S27000;11PM100SL19;8
S28000;11PM100SL19;8
S15;11SP200SH19;10
S27000;11SP200SH19;6
S28000;11SP200SH19;9
S15;15GM065L20;17
S27000;15GM065L20;18
S28000;15GM065L20;18
S15;17SH500FV21;19
S27000;17SH500FV21;9
S28000;17SH500FV21;20
S15;24MA030RV19;8
S24000;52AF006G20;194
S24000;52FT002A18;1
S90000;52FT002A18;73
S24000;52HV001K18;9
S90000;52HV001K18;106
S24000;52MA003K16A;118
S90000;52MA003K16A;150
S24000;52MIGEBAG19;131
S90000;52PMGBOX18;9
S24000;52SH006E19;132
S90000;98BBDF015IM0;32
S24000;01HN0075K19;6
S24000;01SA100LT16;17
S90000;01SA100LT16;9
S24000;11CM030H20;13
S90000;11CM030H20;9
S24000;11CM030O21;46
S90000;11CM030O21;36
S90000;11GN040A19;88
S90000;17AS250N18;25
S90000;17DO050F13;1
S24000;17RS500P19;11
S24000;17SH500G18;15
S24000;18ET050TL17;6
S90000;18ET050TL17;10
S24000;20DO130HC20;7
S90000;20DO130HC20;7
S24000;20FE050H20;5
S90000;20FE050H20;10
S24000;27DS030I20;8
S90000;27DS030I20;8
S24000;29LC100A20;21
S90000;29LC100A20;39
S24000;29MA030A17;26
S90000;29MA030A17;4
S90000;38WS030A18;53
S90000;49CL008K15;16
S90000;49CL008K21;92
S90000;49ET007R18;35
S90000;49GD035CB5;89
S90000;49HD035K17;66
S24000;52AS006E19;130
S90000;52BOX1M21;31
S24000;52ER002I21;220
S24000;52HD006A18;217
S24000;52SGEBAG19;331
S24000;01CL050K21;10
S90000;01CL050K21;10
S24000;01PI030K18;13
S90000;01PI030K18;18
S24000;01SA100VE20;17
S90000;01SA100VE20;15
S24000;11CM125I19;15
SLM001;17AS500G18;35
SLM001;17SH300P19;49
SLM001;24MA075P15;13
SLM001;29RH500A15;441
SLM001;49DRASA19;27
SLM001;49IC2POU20;18
SLM001;49MA010CB4;157
SLM001;49TLDTS17;29
SLM001;49TOBAGSA20;31
SLM001;52MOCOL316;5
SLM001;98BBDF015IM0;126
SLM001;01PI030K18;10
SLM001;15GM065L20;31
SLM001;17SH500FV21;51
SLM001;27SP030I19;15
SLM001;49LC020A15;47
SLM001;49MA010L16;74
SLM001;49PASSSA19;16
SLM001;52CP006K17;116
SLM001;52DC0015I20;27
SLM001;52SH006G18;475
SLM001;01HD250K17;15
SLM001;01RV500K20;18
SLM001;01SA080K17;1
SLM001;17AS250F17;1
SLM001;17AS500E19;17
SLM001;17HI100G19;18
SLM001;17MC200G18;28
SLM001;20AR075O20;8
SLM001;20NV150H20;11
SLM001;27ER050I21;30
SLM001;27OR030I19;92
SLM001;49HS015A18;47
SLM001;49MA010A17;134
SLM001;01CP200K17;21
SLM001;01HD500K20;12
SLM001;01MA030K16;50
SLM001;01SA050KV20;8
SLM001;15MA030VA5;15
SLM001;17AS250P19;15
SLM001;17SH300FV21;32
SLM001;24BR050CB6;20
SLM001;24MA030S6;20
SLM001;29HD500A15;246
SLM001;29LC200A14US;23
SLM001;49BAGVE18;38
SLM001;49BO015CS19;33
SLM001;49LC020A20;79
SLM001;52DH001I20;591
SLM001;01SA250LV20;25
SLM001;15LM300L11;22
SLM001;17RS500FV21;34
SLM001;17SH300G18;17
S27000;24MA030RV19;15
S15;27DL200I20;10
S27000;27DL200I20;5
S28000;27DL200I20;10
S15;27MQ065I15A;6
S27000;27MQ065I15A;8
S28000;27MQ065I15A;5
S15;27SP030I19;10
S27000;27SP030I19;8
S28000;27SP030I19;8
S15;29BP100A19;12
S27000;29BP100A19;8
S28000;29BP100A19;11
S15;49EP005TL17ET;14
S27000;49EP005TL17ET;1
S28000;49EP005TL17ET;5
S27000;49LC020A15;6
S15;52CP006K17;13
S27000;52CP006K17;111
S15;52DC0015I20;153
S27000;52DC0015I20;266
S28000;52DC0015I20;24
S27000;52HF004K17;54
S28000;52HF004K17;101
S15;52SH006G18;243
S27000;52SH006G18;274
S28000;52SH006G18;237
S15;52AS006G18;306
S27000;52AS006G18;152
S28000;52AS006G18;297
S15;52DF002I17;220
S27000;52DF002I17;63
S15;52LGEBAG19;164
S27000;52LGEBAG19;50
S28000;52LGEBAG19;170
S15;52SH006N18;102
S28000;52SH006N18;91
S15;52SH006P19;179
S27000;52SH006P19;162
S28000;52SH006P19;231
S15;38RC050A18;8
S27000;38RC050A18;5
S28000;38RC050A18;8
S15;49MS008I20;10
S27000;49MS008I20;28
S28000;49MS008I20;73
S15;52SP001I19;165
S27000;52SP001I19;310
S28000;52SP001I19;144
S15;98BBDF015IM0;14
S27000;98BBDF015IM0;9
S28000;98BBDF015IM0;66
S27000;52PS0015R21;235
S21000;49ET007R18;8
S21000;52AS006E19;149
S21000;52BOX1M21;19
S21000;52ER002I21;164
S21000;52HD006A18;172
S21000;52SGEBAG19;480
S21000;01CL050K21;11
S21000;01PI030K18;10
S21000;01SA100VE20;14
S21000;11CM125I19;8
S21000;11LH200I19;5
S21000;11PM100SL19;7
S21000;11SP200SH19;7
S21000;15GM065L20;14
S21000;17SH500FV21;9
S21000;24MA030RV19;10
S21000;27DL200I20;11
S21000;27MQ065I15A;6
S21000;27SP030I19;9
S21000;29BP100A19;8
S21000;49EP005TL17ET;11
S21000;52CP006K17;123
S21000;52CV0015K15;270
S21000;52DC0015I20;216
S21000;52SH006G18;253
S21000;01BM150K19;7
S21000;01CMR500K20;6
S21000;01LT300K20;13
S21000;01RC300KB20;7
S21000;01SL500VE20;9
S21000;11GE075I20;5
S21000;11MWC200I19;6
S21000;11PEP050I20;7
S21000;15MA030VB3;18
S21000;17HI001G19;194
S21000;17MM050A20;5
S21000;17SH300E19;9
S21000;20ET075HC20;8
S21000;24MA075R18;14
S21000;24RO010R18;7
S21000;27DB015I20;11
S21000;27ER150I21;30
S21000;27FP050I19;7
S21000;29GE200A21;14
S21000;52AS006G18;42
S21000;52DF002I17;2
S21000;52SAMPENV18;118
S21000;52SH006P19;261
S21000;01PR015R19;18
S21000;01SA250LT20;16
S21000;11BG140SI19;5
S21000;11GD050A18;14
S21000;11SD100SI19;8
S90000;11CM125I19;4
S24000;11LH200I19;9
S24000;11PM100SL19;8
S90000;11PM100SL19;9
S24000;11SP200SH19;4
S90000;11SP200SH19;1
S90000;15GC150VBL20;34
S24000;15GM065L20;11
S90000;15GM065L20;4
S90000;15LC075L15;24
S90000;15RS500VB3;2
S90000;17RS500E20;1
S24000;17SH500FV21;13
S90000;24GD075R18;32
S24000;24MA030RV19;10
S90000;24SA050S6;15
S24000;27DL200I20;12
S90000;27DL200I20;9
S24000;27MQ065I15A;4
S90000;27MQ065I15A;9
S24000;27SP030I19;10
S90000;27SP030I19;11
S24000;29BP100A19;8
S90000;49CM030I19;169
S90000;49EP005TL17ET;22
S90000;49MA010L16;7
S90000;49POU2VE20;140
S90000;49TF2CH19;35
S90000;49TFACH18;30
S24000;52CP006K17;133
S90000;52CP006K17;95
S24000;52DC0015I20;193
S90000;52DC0015I20;131
S24000;52SH006G18;181
S90000;52SH006G18;1
S24000;01BM150K19;21
S24000;01CMR500K20;12
S90000;01CMR500K20;13
S90000;01EM075K18;1
S24000;01LT300K20;13
S24000;01RC300KB20;6
S24000;01SL500VE20;7
S90000;01SL500VE20;13
S90000;11BG240DE20H;8
S24000;11GE075I20;5
S90000;11GE075I20;8
S90000;11MW200I19;25
S24000;11MWC200I19;7
S90000;11MWC200I19;9
S24000;11PEP050I20;6
S90000;11PEP050I20;7
S24000;15MA030VB3;15
S20;29MA030A17;19
S20;49ET007R18;4
S20;52AS006E19;193
S20;52BOX1M21;11
S20;52ER002I21;105
S20;52HD006A18;234
S20;52SGEBAG19;254
S20;01CL050K21;8
S20;01PI030K18;7
S20;01SA100VE20;5
S20;11CM125I19;10
S20;11LH200I19;9
S20;11PM100SL19;9
S20;11SP200SH19;9
S20;15GM065L20;17
S20;17SH500FV21;7
S20;24MA030RV19;7
S20;27DL200I20;15
S20;27MQ065I15A;5
S20;27SP030I19;9
S20;29BP100A19;9
S20;49EP005TL17ET;7
S20;52CP006K17;14
S20;52DC0015I20;286
S20;52HF004K17;8
S20;52SH006G18;170
S20;01BM150K19;14
S20;01CMR500K20;15
S20;01LT300K20;8
S20;01RC300KB20;4
S20;01SL500VE20;9
S20;11GE075I20;8
S20;11MWC200I19;6
S20;11PEP050I20;10
S20;15MA030VB3;19
S20;17HI001G19;112
S20;17SH300E19;10
S20;20ET075HC20;8
S20;24MA075R18;9
S20;24RO010R18;11
S20;27DB015I20;14
S20;27ER150I21;29
S20;27FP050I19;4
S20;29GE200A21;6
S20;52AS006G18;221
S20;52LGEBAG19;50
S20;52SH006N18;95
S20;52SH006P19;167
S20;01PR015R19;9
S20;01SA250LT20;9
S20;11BG140SI19;8
S20;11GD050A18;8
S20;11SD100SI19;5
S20;15BA500L16A;4
S29000;24MA030RV19;10
S29000;24MA075R18;12
S29000;24RO010R18;10
S29000;27DB015I20;9
S29000;27ER150I21;19
S29000;27FP050I19;6
S29000;29GE200A21;17
S29000;52AS006G18;162
S29000;52SH006N18;130
S29000;52SH006P19;110
S29000;01HN0075K19;9
S29000;01SA100LT16;15
S29000;11CM030H20;13
S29000;11CM030O21;47
S29000;17RS500P19;31
S29000;17SH500G18;12
S29000;18ET050TL17;7
S29000;20DO130HC20;11
S29000;20FE050H20;5
S29000;27DS030I20;24
S29000;29LC100A20;29
S29000;29MA030A17;1
S29000;49ET007R18;5
S29000;52AS006E19;135
S29000;52BOX1M21;14
S29000;52ER002I21;106
S29000;52HD006A18;99
S29000;01PR015R19;12
S29000;01SA250LT20;10
S29000;11BG140SH19;4
S29000;11BG140SI19;4
S29000;11GD050A18;12
S29000;11SD100SI19;4
S29000;15BA500L16A;4
S29000;15ET010VB19;9
S29000;15GD250VA5;13
S29000;15GM280VB20;13
S29000;15MA075L11;18
S29000;17AS250E19;9
S29000;17AS500G18;10
S29000;17SH060SE21;12
S29000;17SH300P19;8
S29000;18BI030TL17ET;21
S29000;18SA075TL17ET;20
S29000;24MA030RE19;7
S29000;24MA075P15;11
S29000;24MA150R19;1
S29000;27DE015I21;14
S29000;29RH500A15;40
S29000;38RC050A18;11
S29000;52SP001I19;138
S29000;98BBDF015IM0;31
S29000;01CL050K21;8
S10;27ER150I21;20
S10;27FP050I19;6
S10;29GE200A21;10
S10;49PFCWC21;9
S10;49TOTWC21;21
S10;52AS006G18;257
S10;52DF002I17;143
S10;52SH006N18;100
S10;52SH006P19;335
S10;01PR015R19;15
S10;01SA250LT20;11
S10;11BG140SI19;6
S10;11GD050A18;9
S10;11SD100SI19;5
S10;15BA500L16A;5
S10;15ET010VB19;8
S10;15GD250VA5;10
S10;15GM280VB20;17
S10;15MA075L11;10
S10;15RG500VA20;8
S10;17AS250E19;11
S10;17AS500G18;13
S10;17SH060SE21;9
S10;17SH300P19;13
S10;18BI030TL17ET;37
S10;18SA075TL17ET;9
S10;24MA030RE19;12
S10;24MA075P15;13
S10;24MA150R19;7
S10;27DE015I21;14
S10;29RH500A15;22
S10;38RC050A18;6
S10;49MS008I20;65
S10;49TOBACH20;21
S10;52SP001I19;128
S10;98BBDF015IM0;67
S10;01HN0075K19;11
S10;11CM030H20;18
S10;11CM030O21;47
S10;11GN040A19;1
S10;17RS500P19;14
S10;17SH500G18;10
S10;18ET050TL17;6
S10;20DO130HC20;9
S10;20FE050H20;5
S10;27DS030I20;12
S10;29LC100A20;23
S10;29MA030A17;20
S10;49ET007R18;5
S10;52AS006E19;209
S10;52BOX1M21;12
S10;52ER002I21;86
S10;52HD006A18;128
S10;52SGEBAG19;170
S28000;52PS0015R21;183
S15;52TBO1M21;8
S27000;52TBO1M21;3
S28000;52TBO1M21;25
S15;52TBO2M21;10
S27000;52TBO2M21;16
S28000;52TBO2M21;25
S15;98BBHD050A0;33
S27000;98BBHD050A0;20
S28000;98BBHD050A0;117
S27000;52TS001R21;284
S28000;52TS001R21;130
S15;01CM300K20;10
S27000;01CM300K20;8
S28000;01CM300K20;14
S15;01HF100K17;7
S27000;01HF100K17;7
S28000;01HF100K17;8
S15;01MA075K18;18
S27000;01MA075K18;25
S28000;01MA075K18;22
S15;01PI150K18;9
S27000;01PI150K18;6
S28000;01PI150K18;18
S15;01SL300VE20;7
S27000;01SL300VE20;8
S28000;01SL300VE20;10
S15;11BG140SL19;9
S27000;11BG140SL19;7
S28000;11BG140SL19;8
S15;11SA100H20;9
S27000;11SA100H20;9
S28000;11SA100H20;13
S15;15SE400VB5;5
S27000;15SE400VB5;6
S28000;15SE400VB5;9
S15;17SH060SG21;10
S27000;17SH060SG21;8
S28000;17SH060SG21;10
S15;17SH060SP21;10
S27000;17SH060SP21;8
S28000;17SH060SP21;10
S15;20GD250OC20;12
S27000;20GD250OC20;9
S28000;20GD250OC20;12
S15;20HR050H20;7
S27000;20HR050H20;4
S28000;20HR050H20;8
S15;24MA030R18;41
S27000;24MA030R18;14
S28000;24MA030R18;39
S15;27HC050I18;8
S27000;27HC050I18;8
SLM001;17SH500P19;54
SLM001;20GD250HC20;11
SLM001;24MA075CB4;26
SLM001;27MP050I20;50
SLM001;29ASH075A20;35
SLM001;49LT030R21;40
SLM001;49SACCH19;22
SLM001;52BY001I19;117
SLM001;98BBAS035AR3;257
SLM001;01CM300K20;11
SLM001;01MA075K18;34
SLM001;01PI150K18;34
SLM001;01SL300VE20;20
SLM001;20GD250OC20;13
SLM001;29HD250A15;49
SLM001;29MA075A19;21
SLM001;29SH075A20;43
SLM001;49MA010K20DTS;52
SLM001;49OR005I18;61
SLM001;49POUID20;22
SLM001;49POUIS19;31
SLM001;01HDR500K20;24
SLM001;01MA150K18;76
SLM001;11GN195A18;20
SLM001;15CF150VBL21;17
SLM001;20GR150CD15;1
SLM001;27DCB060I17;6
SLM001;27DH015I20;48
SLM001;29EC200A13;10
SLM001;52LC006A18;576
SLM001;01BL012K18;24
SLM001;01PI075K18;10
SLM001;15GM065VB20;26
SLM001;15MA030L11;49
SLM001;17RC500P19;38
SLM001;17SH500E19;78
SLM001;18ET010TL17;19
SLM001;27BP050I19;14
SLM001;27DC030I20;12
SLM001;49CP020K18;14
SLM001;49GD008A18;50
SLM001;49SH035E20;67
SLM001;52SH006FV21;265
SLM001;JIMCP16;19
SLM001;SGOCVE700011;60
SLM001;SGOCVE700013;17
SLM001;01SL300LV20;14
SLM001;15GD250L14;28
SLM001;17AS250FV21;34
SLM001;17AS500P19;17
SLM001;17RC500E20;17
SLM001;17RS500G19;120
SLM001;20DO050O20;13
S90000;15MA030VB3;43
S90000;15MF075VM20H;9
S24000;17HI001G19;187
S90000;17MM050A20;29
S24000;17SH300E19;14
S90000;17SH300E19;11
S90000;17SH300N18;37
S90000;18LC050TL17ET;2
S90000;20AR075H16;18
S24000;20ET075HC20;8
S90000;20ET075HC20;9
S90000;24GD250R18;2
S90000;24MA030RV19;8
S24000;24MA075R18;15
S90000;24MA075R18;10
S24000;24RO010R18;12
S90000;24RO010R18;7
S24000;27DB015I20;12
S90000;27DB015I20;9
S24000;27ER150I21;17
S24000;27FP050I19;8
S90000;27FP050I19;7
S24000;29GE200A21;5
S90000;49CRM1NO20;2
S90000;49CRM2NO19;68
S24000;49DH004I17;39
S90000;49DH004I17;12
S90000;49PFCWC21;86
S24000;49TOTWC21;15
S90000;49TOTWC21;120
S24000;52AS006G18;208
S24000;52DF002I17;111
S90000;52DF002I17;394
S24000;52LGEBAG19;2
S90000;52MMSANO19;240
S90000;52SH006N18;101
S24000;52SH006P19;218
S90000;98BBSH035AR2;88
S90000;98BBSH050A0;10
S24000;01BP050K21;6
S90000;01BP050K21;6
S24000;01CV050K18;12
S90000;01CV050K18;4
S24000;01HD250K17;7
S90000;01HD250K17;9
S24000;01MR030K14;17
S90000;01MR030K14;7
S24000;01RV500K20;9
S90000;01RV500K20;7
S24000;01SE125K21;8
S90000;01SE125K21;13
S24000;11CM030H19;19
S24000;11LC250O21;23
S21000;15BA500L16A;6
S21000;15ET010VB19;8
S21000;15GD250VA5;4
S21000;15GM280VB20;8
S21000;15MA075L11;11
S21000;17AS250E19;10
S21000;17AS500G18;11
S21000;17SH060SE21;10
S21000;17SH300P19;9
S21000;18BI030TL17ET;30
S21000;18SA075TL17ET;6
S21000;24MA030RE19;10
S21000;24MA075P15;10
S21000;24MA150R19;9
S21000;27DE015I21;14
S21000;29RH500A15;37
S21000;38RC050A18;5
S21000;49MS008I20;69
S21000;52MOCOL316;1
S21000;52SP001I19;90
S21000;98BBDF015IM0;68
S21000;01BP050K21;14
S21000;01CV050K18;12
S21000;01HD250K17;10
S21000;01MR030K14;88
S21000;01RV500K20;11
S21000;11CM030H19;14
S21000;11LC250O21;24
S21000;15GD250VA20;10
S21000;15SA070VB6;7
S21000;17AF100G20;13
S21000;17AS500E19;11
S21000;17HI100G19;11
S21000;17MC200G18;8
S21000;20AR075O20;5
S21000;20NV150H20;9
S21000;24SA050R18;9
S21000;27ER050I21;57
S21000;27HSR030I16;8
S21000;27OR030I19;16
S21000;52GD0015A18;47
S21000;52PS0015R21;192
S21000;52TBO1M21;6
S21000;52TBO2M21;17
S21000;01CP200K17;6
S21000;01HD500K20;10
S21000;01MA030K16;121
S21000;01SA050KV20;8
S21000;11EH150A18;7
S21000;11GM200I19;6
S21000;11SD100CS19;7
S21000;15ET100VB3;7
S21000;15GD500VB17;7
S28000;27HC050I18;8
S15;29HD250A15;43
S27000;29HD250A15;19
S28000;29HD250A15;44
S15;29MA075A19;22
S27000;29MA075A19;10
S28000;29MA075A19;25
S15;29SE125A21;7
S27000;29SE125A21;5
S28000;29SE125A21;10
S15;38EV075A18;8
S27000;38EV075A18;6
S28000;38EV075A18;8
S27000;52BGERIB18;2
S15;52CL0015K18;287
S27000;52CL0015K18;143
S27000;52CL0015K21;150
S28000;52CL0015K21;104
S15;52CV0015K18;44
S27000;52CV0015K18;146
S28000;52CV0015K18;148
S28000;52MC006G18;113
S15;01HDR500K20;9
S27000;01HDR500K20;6
S28000;01HDR500K20;16
S15;01MA150K18;36
S27000;01MA150K18;16
S28000;01MA150K18;26
S15;01SL0045K13;10
S27000;01SL0045K13;32
S28000;01SL0045K13;48
S15;11EP010H19;11
S27000;11EP010H19;9
S28000;11EP010H19;15
S15;11GN195A18;10
S27000;11GN195A18;5
S28000;11GN195A18;10
S15;11PM100SH19;5
S27000;11PM100SH19;10
S28000;11PM100SH19;10
S15;17AS075G21;30
S27000;17AS075G21;9
S28000;17AS075G21;76
S15;24AF050R18;7
S27000;24AF050R18;3
S28000;24AF050R18;8
S15;27DCB060I17;7
S27000;27DCB060I17;6
S28000;27DCB060I17;6
S15;27DH015I20;22
S27000;27DH015I20;19
S28000;27DH015I20;23
S15;29EC200A13;6
S20;15ET010VB19;3
S20;15GM280VB20;4
S20;15MA075L11;11
S20;17AS250E19;8
S20;17AS500G18;14
S20;17SH060SE21;10
S20;17SH300P19;8
S20;18BI030TL17ET;21
S20;18SA075TL17ET;9
S20;24MA030RE19;7
S20;24MA075P15;11
S20;24MA150R19;8
S20;27DE015I21;14
S20;29RH500A15;22
S20;38RC050A18;6
S20;49MS008I20;22
S20;52SP001I19;194
S20;98BBDF015IM0;26
S20;01BP050K21;6
S20;01CV050K18;9
S20;01HD250K17;15
S20;01MR030K14;8
S20;01RV500K20;2
S20;01SE125K21;10
S20;11CM030H19;19
S20;11LC250O21;23
S20;15GD250VA20;10
S20;15SA070VB6;4
S20;17AF100G20;5
S20;17AS500E19;13
S20;17HI100G19;7
S20;17MC200G18;8
S20;20AR075O20;8
S20;20NV150H20;10
S20;24SA050R18;10
S20;27ER050I21;40
S20;27HSR030I16;9
S20;27OR030I19;19
S20;52GD0015A18;98
S20;52PS0015R21;222
S20;52TBO1M21;1
S20;52TBO2M21;9
S20;01BG070K21;8
S20;01CP200K17;9
S20;01HD500K20;13
S20;01MA030K16;18
S20;01SA050KV20;9
S20;11EH150A18;10
S20;11GM200I19;4
S20;11SD100CS19;9
S20;15ET100VB3;5
S20;15GD500VB17;16
S20;15MA030VA5;19
S20;17SH300FV21;11
S29000;01PI030K18;6
S29000;01SA100VE20;17
S29000;11CM125I19;5
S29000;11LH200I19;4
S29000;11PM100SL19;7
S29000;11SP200SH19;11
S29000;15GM065L20;20
S29000;17SH500FV21;11
S29000;27DL200I20;7
S29000;27MQ065I15A;8
S29000;27SP030I19;8
S29000;29BP100A19;9
S29000;49EP005TL17ET;9
S29000;52DC0015I20;100
S29000;52HF004K17;92
S29000;52SH006G18;181
S29000;01BP050K21;9
S29000;01CV050K18;8
S29000;01HD250K17;30
S29000;01MR030K14;8
S29000;01RV500K20;10
S29000;01SE125K21;8
S29000;11CM030H19;10
S29000;11LC250O21;24
S29000;15SA070VB6;8
S29000;17AF100G20;1
S29000;17AS500E19;16
S29000;17MC200G18;1
S29000;20AR075O20;2
S29000;20NV150H20;7
S29000;24SA050R18;8
S29000;27ER050I21;36
S29000;27HSR030I16;18
S29000;27OR030I19;15
S29000;52GD0015A18;92
S29000;52PS0015R21;83
S29000;52TBO1M21;22
S29000;52TBO2M21;23
S29000;01CP200K17;15
S29000;01HD500K20;11
S29000;01SA050KV20;30
S29000;11EH150A18;9
S29000;11GM200I19;2
S29000;11SD100CS19;2
S29000;15ET100VB3;10
S29000;15GD500VB17;6
S29000;15MA030VA5;8
S29000;17AS250P19;11
S29000;17SH300FV21;10
S29000;18GD250TL17ET;16
S29000;24BR050CB6;15
S29000;24MA030S6;11
S29000;29HD500A15;23
S10;01CL050K21;10
S10;01PI030K18;17
S10;01SA100VE20;13
S10;11CM125I19;9
S10;11LH200I19;5
S10;11PM100SL19;7
S10;11SP200SH19;8
S10;15GC150VBL20;1
S10;15GM065L20;11
S10;17SH500FV21;7
S10;24MA030RV19;14
S10;27DL200I20;7
S10;27MQ065I15A;8
S10;27SP030I19;13
S10;29BP100A19;5
S10;49EP005TL17ET;8
S10;52CP006K17;94
S10;52DC0015I20;140
S10;52HF004K17;45
S10;52SH006G18;338
S10;01BP050K21;30
S10;01CV050K18;7
S10;01HD250K17;5
S10;01MR030K14;19
S10;01RV500K20;17
S10;01SE125K21;8
S10;11CM030H19;29
S10;11LC250O21;23
S10;15GD250VA20;11
S10;15SA070VB6;8
S10;17AF100G20;12
S10;17AS500E19;9
S10;17HI100G19;9
S10;17MC200G18;10
S10;20AR075O20;5
S10;20NV150H20;6
S10;24MA075R18;15
S10;24SA050R18;13
S10;27ER050I21;44
S10;27HSR030I16;7
S10;27OR030I19;34
S10;52GD0015A18;114
S10;52PS0015R21;156
S10;52TBO1M21;6
S10;52TBO2M21;20
S10;01BG070K21;2
S10;01CP200K17;11
S10;01HD500K20;9
S10;01MA030K16;32
S10;01SA050KV20;11
S10;11EH150A18;6
S10;11GM200I19;4
S10;11SD100CS19;3
S10;15ET100VB3;9
S90000;11LC250O21;16
S24000;15GD250VA20;10
S90000;15GD250VA20;13
S24000;15SA070VB6;10
S24000;17AF100G20;9
S24000;17AS500E19;8
S90000;17AS500E19;9
S24000;17HI100G19;5
S90000;17HI100G19;2
S24000;17MC200G18;8
S24000;20AR075O20;7
S90000;20AR075O20;13
S24000;20NV150H20;14
S90000;20NV150H20;3
S90000;24BR050C21;2
S24000;24EF050R18;2
S90000;24GM030C21;13
S24000;24SA050R18;12
S90000;24SA050R18;3
S90000;24SACHB20;5
S90000;27DC050I17A;1
S24000;27ER050I21;22
S24000;27HSR030I16;8
S90000;27HSR030I16;6
S24000;27OR030I19;19
S90000;29MA075A16;1
S90000;49BI010TL17;87
S90000;49HS015A18;6
S90000;49MA010A17;41
S90000;49PI010K1;31
S90000;49PI010K18;131
S90000;49POU1VE20;32
S90000;49VANSA19;32
S24000;52GD0015A18;57
S24000;52PS0015R21;181
S90000;52PS0015R21;100
S90000;52SMSANO19;152
S90000;52TBO1M21;15
S24000;52TBO2M21;3
S90000;52TBO2M21;6
S90000;52TBOM20;28
S24000;01BG070K21;7
S90000;01BG070K21;2
S90000;01BL012H19H;1
S90000;01CL050K18;2
S90000;01CP050K17;81
S24000;01CP200K17;6
S24000;01HD500K20;10
S24000;01MA030K16;32
S90000;01MA030K16;7
S24000;01SA050KV20;13
S90000;01SA050KV20;14
S24000;11EH150A18;7
SLM001;24GD250CB4;32
SLM001;27CP050I19;21
SLM001;27MP150I20;32
SLM001;27RM300I20;35
SLM001;29ASH240A20;26
SLM001;49LC035CB6;28
SLM001;49PO3MD19;26
SLM001;52MMBBNO20;98
SLM001;11CD050A18;9
SLM001;15GN300L11;19
SLM001;17AS075E19;30
SLM001;17AS500N18;17
SLM001;20DO075CD20;17
SLM001;24MA030P15;16
SLM001;27EV200I19;22
SLM001;27MS050I20;41
SLM001;27TS050I20;12
SLM001;29HD075A15;50
SLM001;29HS100A18;1
SLM001;29HS100A21;8
SLM001;49HD035A15;250
SLM001;49POURS20;17
SLM001;49POURS21;7
SLM001;49TBOM21;18
SLM001;49TOWVE18;41
SLM001;52MS001I20;60
SLM001;01CM500K20;8
SLM001;01SA050KL20;8
SLM001;01SA250VE20;45
SLM001;15DF200VBL21;30
SLM001;15LC250VA5;14
SLM001;15MA030VBL21;30
SLM001;17AS075FV21;9
SLM001;17AS500FV21;17
SLM001;17SH500N18;16
SLM001;24BL012CB5;12
SLM001;27DF125I17;16
SLM001;52AS006FV21;264
SLM001;01BL012K15;4
SLM001;01LC250K17;38
SLM001;15RG500L14;16
SLM001;17AS075P19;38
SLM001;17MC200N18;1
SLM001;17SH075FV21;100
SLM001;20GD250CD20;8
SLM001;27DH030I20;21
SLM001;27TS001I20;435
SLM001;52OR001I19;999
S27000;29EC200A13;8
S28000;29EC200A13;14
S15;38ST016A18;7
S27000;38ST016A18;8
S28000;38ST016A18;10
S15;38WS030A21;11
S27000;38WS030A21;7
S28000;38WS030A21;11
S15;49MA010VB3;30
S27000;49MA010VB3;9
S28000;49MA010VB3;76
S15;52HS001I17;102
S27000;52HS001I17;140
S28000;52HS001I17;157
S15;52HS004A18;346
S27000;52HS004A18;127
S28000;52HS004A18;214
S15;52LC006A20;230
S27000;52LC006A20;157
S28000;52LC006A20;281
S27000;52MGEBAG19;164
S28000;52MGEBAG19;235
S15;52SH006FV21;288
S27000;52SH006FV21;152
S28000;52SH006FV21;357
S27000;38MI150A18;3
S28000;38MI150A18;8
S15;38WC050A21;13
S27000;38WC050A21;12
S28000;38WC050A21;10
S15;49EP005H20;9
S27000;49EP005H20;3
S28000;49EP005H20;25
S15;52AS006P19;234
S27000;52AS006P19;292
S28000;52AS006P19;207
S15;52CD0015A18;12
S27000;52CD0015A18;194
S28000;52CD0015A18;157
S15;52DB001I20;223
S27000;52DB001I20;185
S28000;52DB001I20;173
S15;52DS001I20;276
S27000;52DS001I20;368
S28000;52DS001I20;143
S15;98BBSA050LT1;10
S27000;98BBSA050LT1;10
S28000;98BBSA050LT1;80
S28000;52MS001I20;290
S27000;52RC0015A18;3
S28000;SGOCVKI00131;2
S27000;27TS001I20;243
S28000;27TS001I20;351
S90000;11EH150A18;4
S24000;11GM200I19;13
S24000;11SD100CS19;7
S90000;11SD100CS19;4
S24000;15ET100VB3;5
S90000;15ET100VB3;3
S24000;15GD500VB17;9
S90000;15GD500VB17;3
S24000;15MA030VA5;15
S90000;15MA030VA5;17
S24000;17AS250P19;8
S90000;17AS250P19;41
S90000;17SH075D15;19
S24000;17SH300FV21;11
S90000;17SH300FV21;12
S24000;18GD250TL17ET;13
S90000;18GD250TL17ET;5
S90000;20ET010CD19;4
S90000;20GD250OC16;1
S90000;20NV150CD16A;1
S24000;24BR050CB6;14
S90000;24BR050CB6;10
S24000;24MA030S6;17
S90000;24MA030S6;35
S24000;27BP050I19;9
S90000;27DH030I17A;11
S90000;27DS030I17A;4
S24000;29HD500A15;22
S90000;49BAGVE19;1
S24000;49BO015CS19;10
S90000;49CP008I14A;27
S24000;49DC004I20;24
S90000;49DC004I20;86
S90000;49FCROL21;38
S90000;49HBMD19;9
S24000;49LC020A20;34
S90000;49LC020A20;27
S90000;49MASKRS21;29
S90000;49PO2RS21;32
S90000;49PO2SA19;44
S90000;49TOTMC20;102
S24000;52DH001I20;207
S90000;52DH001I20;197
S90000;52GIF1NO19;1
S90000;52GIF1NO20;1
S90000;52GIF2NO19;1
S90000;52GIF2NO20;1
S24000;52HR004G17;75
S90000;52HR004G17;129
S24000;98BBHD050A0;26
S24000;01BM050K19;13
S90000;01BM050K19;8
S90000;01LH100KB19;4
S15;38BV050A19;15
S27000;38BV050A19;8
S28000;38BV050A19;7
S15;52FP0015I19;22
S27000;52FP0015I19;180
S28000;52FP0015I19;201
S15;52LGENSA18;63
S27000;52LGENSA18;197
S28000;52LGENSA18;123
S15;52OR001I19;97
S27000;52OR001I19;457
S28000;52OR001I19;420
S21000;15MA030VA5;20
S21000;17SH300FV21;11
S21000;18GD250TL17ET;11
S21000;24BR050CB6;13
S21000;24MA030S6;21
S21000;27BP050I19;9
S21000;29HD500A15;39
S21000;49BO015CS19;31
S21000;49DC004I20;29
S21000;49LC020A20;77
S21000;52DH001I20;286
S21000;52HR004G17;54
S21000;98BBHD050A0;22
S21000;01BM050K19;8
S21000;01LH300KB19;6
S21000;01SA250LV20;8
S21000;11BG140CS19;5
S21000;11MH075A19;8
S21000;11SD100SL19;5
S21000;15HE005L14;8
S21000;15LM300L11;10
S21000;17RS500FV21;29
S21000;17SH300G18;14
S21000;17SH500P19;13
S21000;20GD250HC20;4
S21000;20SA050HC20;9
S21000;24MA030RA19;9
S21000;24MA075CB4;17
S21000;27BY015I19;13
S21000;38EC015A18;8
S21000;49PO2HER20;17
S21000;52BY001I19;153
S21000;52DE001I21;141
S21000;52LT002R21;235
S21000;52TS001R21;240
S21000;01CM300K20;4
S21000;01HF100K17;7
S21000;01MA075K18;12
S21000;01PI150K18;5
S21000;01SL300VE20;7
S21000;11BG140SL19;5
S21000;11SA100H20;29
S21000;15SE400VB5;5
S21000;17SH060SG21;10
S21000;17SH060SP21;10
S21000;20GD250OC20;8
S21000;20HR050H20;6
S21000;24MA030R18;17
S21000;27HC050I18;7
S21000;29HD250A15;15
S21000;29MA075A19;6
S21000;38EV075A18;6
S21000;52CL0015K18;122
S29000;49LC020A20;33
S29000;52DH001I20;52
S29000;01BM050K19;18
S29000;01LH300KB19;7
S29000;01SA250LV20;21
S29000;11BG140CS19;5
S29000;11MH075A19;8
S29000;11SD100SL19;6
S29000;15HE005L14;7
S29000;15LM300L11;12
S29000;17RS500FV21;68
S29000;17SH300G18;12
S29000;17SH500P19;16
S29000;20GD250HC20;9
S29000;20SA050HC20;11
S29000;24MA030RA19;8
S29000;24MA075CB4;6
S29000;27BY015I19;8
S29000;38EC015A18;8
S29000;52BY001I19;83
S29000;52DE001I21;56
S29000;52LT002R21;62
S29000;52TS001R21;124
S29000;01CM300K20;9
S29000;01HF100K17;5
S29000;01MA075K18;11
S29000;01PI150K18;12
S29000;01SL300VE20;3
S29000;11BG140SL19;7
S29000;11SA100H20;12
S29000;15SE400VB5;6
S29000;17SH060SG21;10
S29000;17SH060SP21;9
S29000;20GD250OC20;9
S29000;20HR050H20;4
S29000;24MA030R18;17
S29000;27HC050I18;13
S29000;29HD250A15;8
S29000;29MA075A19;16
S29000;29SE125A21;2
S29000;38EV075A18;14
S29000;52CL0015K18;17
S29000;52CL0015K21;50
S29000;52CV0015K18;36
S29000;52MC006G18;6
S29000;01HDR500K20;52
S29000;01MA150K18;9
S29000;01SL0045K13;26
S29000;11EP010H19;8
S29000;11GN195A18;4
S29000;11PM100SH19;12
S29000;17AS075G21;16
S29000;27DCB060I17;7
S20;18GD250TL17ET;14
S20;24BR050CB6;7
S20;24MA030S6;16
S20;27BP050I19;6
S20;29HD500A15;20
S20;49BO015CS19;10
S20;49DC004I20;7
S20;49LC020A20;35
S20;52DH001I20;254
S20;52HR004G17;127
S20;98BBHD050A0;22
S20;01BM050K19;11
S20;01LH300KB19;11
S20;01SA250LV20;16
S20;11BG140CS19;8
S20;11MH075A19;7
S20;11SD100SL19;8
S20;15LM300L11;9
S20;17RS500FV21;17
S20;17SH300G18;11
S20;17SH500P19;9
S20;20GD250HC20;10
S20;20SA050HC20;19
S20;24MA030RA19;9
S20;24MA075CB4;15
S20;27BY015I19;4
S20;38EC015A18;6
S20;52BY001I19;129
S20;52DE001I21;116
S20;52LT002R21;185
S20;52TS001R21;249
S20;01CM300K20;6
S20;01HF100K17;11
S20;01MA075K18;14
S20;01PI150K18;15
S20;01SL300VE20;8
S20;11BG140SL19;7
S20;11SA100H20;10
S20;15SE400VB5;5
S20;17SH060SG21;10
S20;17SH060SP21;8
S20;20GD250OC20;10
S20;20HR050H20;6
S20;24MA030R18;15
S20;27HC050I18;9
S20;29HD250A15;24
S20;29MA075A19;9
S20;29SE125A21;5
S20;38EV075A18;7
S20;52CL0015K18;76
S20;52CL0015K21;100
S20;52CV0015K18;130
S20;52MC006G18;58
S20;01HDR500K20;9
S10;15GD500VB17;10
S10;15MA030VA5;20
S10;17AS250P19;12
S10;17SH300FV21;10
S10;18GD250TL17ET;10
S10;24BR050CB6;13
S10;24MA030S6;21
S10;27BP050I19;10
S10;29HD500A15;17
S10;29LC200A14US;1
S10;49BO015CS19;70
S10;49DC004I20;15
S10;49LC020A20;92
S10;49TOTMC20;15
S10;52DH001I20;220
S10;52HR004G17;113
S10;98BBHD050A0;106
S10;01BM050K19;32
S10;01LH300KB19;10
S10;01SA250LV20;5
S10;11BG140CS19;9
S10;11GD020A19;1
S10;11LC050H20;6
S10;11MH075A19;7
S10;11SD100SL19;8
S10;15HE005L14;4
S10;15LM300L11;8
S10;17RS500FV21;29
S10;17SH300G18;14
S10;17SH500P19;11
S10;20GD250HC20;32
S10;20SA050HC20;5
S10;24MA030RA19;13
S10;24MA075CB4;14
S10;27BY015I19;11
S10;38EC015A18;8
S10;49DH004I20;11
S10;49PO2HER20;14
S10;52BY001I19;164
S10;52DE001I21;97
S10;52LT002R21;208
S10;52TS001R21;124
S10;01CM300K20;6
S10;01HF100K17;6
S10;01MA075K18;18
S10;01PI150K18;1
S10;01SL300VE20;8
S10;11BG140SL19;5
S10;11EH040A19;1
S10;11SA100H20;11
S10;15SE400VB5;6
S10;17SH060SG21;10
S10;17SH060SP21;10
S10;20GD250OC20;17
S24000;01LH300KB19;6
S90000;01LH300KB19;7
S24000;01SA250LV20;12
S24000;11BG140CS19;8
S90000;11BG140CS19;9
S90000;11GD020A19;11
S90000;11LC050H19;30
S90000;11LC050H20;79
S24000;11MH075A19;8
S90000;11MH075A19;6
S24000;11SD100SL19;7
S90000;11SD100SL19;6
S90000;15GD075L15;12
S24000;15HE005L14;6
S90000;15HE005L14;7
S24000;15LM300L11;10
S90000;15LM300L11;7
S90000;15MF030VM20H;8
S90000;17AS075F15;14
S90000;17AS075FV21;38
S24000;17RS500FV21;4
S90000;17RS500FV21;7
S24000;17SH300G18;15
S90000;17SH300G18;16
S24000;17SH500P19;14
S90000;20AR075CD16A;7
S90000;20ET075CD19;20
S90000;20ET100OC13;3
S24000;20GD250HC20;12
S90000;20GD250HC20;9
S24000;20SA050HC20;8
S90000;20SA050HC20;8
S24000;24MA030RA19;12
S90000;24MA030RA19;9
S24000;24MA075CB4;13
S90000;24MA075CB4;2
S24000;27BY015I19;13
S90000;27KTFCAPAC20;6
S90000;29LC200A21C;1
S24000;38EC015A18;4
S90000;38EC015A18;4
S90000;49AF015G20;35
S90000;49BM010K19;40
S24000;49DH004I20;6
S90000;49DH004I20;61
S90000;49DOPAQ19;6
S90000;49DRANO19;48
S90000;49LT030R21;9
S90000;49MIRCB19;2
S90000;49PO2HER20;148
S24000;52BY001I19;245
S24000;52DE001I21;142
S24000;52LT002R21;158
S90000;52LT002R21;100
S90000;52TRSAM19;15
S24000;52TS001R21;155
S90000;52TS001R21;100
S90000;98BBSH050AR2;87
S24000;01CM300K20;7
S90000;01CM300K20;9
S24000;01HF100K17;8
S24000;01MA075K18;19
S90000;01MA075K18;7
S24000;01PI150K18;3
S24000;01SL300VE20;8
S90000;01SL300VE20;12
S24000;11BG140SL19;8
S90000;11BG140SL19;1
S90000;11EH040A19;11
S90000;11LP040028M19;63
S24000;11SA100H20;10
S90000;11SA100H20;8
S90000;15CL150VM20H;10
S90000;15LC070VB5;82
S24000;15SE400VB5;6
S90000;17IC200D15;7
S24000;17SH060SG21;8
S90000;17SH060SG21;4
S24000;17SH060SP21;7
S90000;17SH060SP21;4
S90000;17SH300D15;47
S24000;20GD250OC20;11
S90000;20GD250OC20;9
S24000;20HR050H20;6
S90000;20HR050H20;8
S90000;24LC250R18;2
S24000;24MA030R18;30
S90000;24MA030R18;6
S24000;27HC050I18;7
S90000;27HC050I18;2
S24000;29HD250A15;11
S90000;29KTAMA19;1
S24000;29MA075A19;14
S90000;29MA075A19;1
S24000;29SE125A21;4
S90000;29SH075A20;7
S24000;38EV075A18;6
S90000;49BP010K19;40
S90000;49DC008I20;25
S90000;49MA010K20DTS;7
S90000;49OR005I18;14
S90000;49POUCB21;6
S90000;49POUID20;41
S90000;49POUIS19;105
S90000;52BGERIB18;2
S21000;52CV0015K18;250
S21000;01HDR500K20;2
S21000;01MA150K18;27
S21000;01SL0045K13;19
S21000;11EP010H19;10
S21000;11GN195A18;7
S21000;11PM100SH19;7
S21000;17AS075G21;4
S21000;24AF050R18;6
S21000;27DCB060I17;5
S21000;27DH015I20;14
S21000;29EC200A13;5
S21000;38WS030A21;7
S21000;49MA010VB3;4
S21000;52HS001I17;73
S21000;52HS004A18;127
S21000;52LC006A18;5
S21000;52LC006A20;166
S21000;01BL012K18;11
S21000;01PI075K18;9
S21000;11CF100TR19;10
S21000;11LD200I19;16
S21000;11SA100H19;10
S21000;15DO050VA5;10
S21000;15ET100VA20;4
S21000;15GD250VB17;9
S21000;15GM065VB20;16
S21000;15MA030L11;16
S21000;15RG500VA20;12
S21000;17RC500P19;9
S21000;17SH500E19;13
S21000;18ET010TL17;5
S21000;24LC250R20;13
S21000;27DC030I20;16
S21000;29SA050A17;7
S21000;38WM065A18;7
S21000;49ET007CB4;17
S21000;49SH035E20;36
S21000;52CP0015I19;92
S21000;52MGEBAG18;65
S21000;52SH006FV21;231
S21000;01EN300KB19;5
S21000;01HV030K16;5
S21000;01SA100LV20;24
S21000;01SL300LV20;7
S21000;11BG140SH19;4
S21000;11ET010H20;7
S21000;11LC250H19;8
S21000;11SP200SI19;8
S21000;15GD250L14;4
S21000;17AS250FV21;8
S21000;17AS500P19;7
S21000;17RC500E20;3
S29000;27DH015I20;8
S29000;29EC200A13;10
S29000;38ST016A18;11
S29000;38WS030A21;8
S29000;49MA010VB3;16
S29000;52HS001I17;87
S29000;52HS004A18;13
S29000;52LC006A20;1
S29000;01BL012K18;7
S29000;01PI075K18;14
S29000;11CF100TR19;8
S29000;11LD200I19;12
S29000;11SA100H19;13
S29000;15DO050VA5;1
S29000;15GD250VB17;15
S29000;15GM065VB20;4
S29000;15MA030L11;9
S29000;15RG500VA20;23
S29000;17RC500P19;19
S29000;17SH500E19;12
S29000;18ET010TL17;5
S29000;24LC250R20;10
S29000;27BP050I19;12
S29000;27DC030I20;18
S29000;29SA050A17;7
S29000;38WM065A18;17
S29000;49ET007CB4;23
S29000;52CP0015I19;51
S29000;52SH006FV21;131
S29000;01EN300KB19;6
S29000;01HV030K16;8
S29000;01SA100LV20;21
S29000;01SL300LV20;9
S29000;11ET010H20;4
S29000;11LC250H19;11
S29000;11SP200SI19;8
S29000;15GD250L14;12
S29000;17AS250FV21;10
S29000;17AS500P19;14
S29000;17RC500E20;35
S29000;17RS500G19;22
S29000;17RS500N18;3
S29000;20DO050O20;6
S29000;20ET075OC20;10
S29000;24GD250CB4;3
S29000;27CP050I19;5
S29000;27MP150I20;22
S29000;27RM300I20;16
S29000;29ASH240A20;14
S29000;29GE200A18;3
S29000;29VC240A16;13
S29000;38MI150A18;6
S29000;38WC050A21;10
S20;01MA150K18;14
S20;01SL0045K13;11
S20;11EP010H19;15
S20;11GN195A18;9
S20;11PM100SH19;10
S20;17AS075G21;43
S20;24AF050R18;6
S20;27DCB060I17;4
S20;27DH015I20;14
S20;29EC200A13;10
S20;38WS030A21;9
S20;49MA010VB3;43
S20;52HS001I17;152
S20;52HS004A18;129
S20;52LC006A20;168
S20;01BL012K18;3
S20;01CM030K21;5
S20;01PI030KA;2
S20;01PI075K18;9
S20;11CF100TR19;10
S20;11LD200I19;8
S20;11SA100H19;5
S20;15DO050VA5;11
S20;15GD250VB17;15
S20;15GM065VB20;14
S20;15MA030L11;17
S20;15RG500VA20;7
S20;17RC500P19;7
S20;17SH500E19;11
S20;18ET010TL17;8
S20;24LC250R20;15
S20;27DC030I20;13
S20;29SA050A17;12
S20;38WM065A18;3
S20;49ET007CB4;9
S20;49SH035E20;20
S20;52CP0015I19;147
S20;52MGEBAG19;137
S20;52SH006FV21;174
S20;01EN300KB19;12
S20;01HV030K16;5
S20;01SA100LV20;5
S20;01SL300LV20;9
S20;11BG140SH19;7
S20;11ET010H20;7
S20;11LC250H19;7
S20;11SP200SI19;8
S20;15GD250L14;21
S20;17AS250FV21;12
S20;17AS500P19;9
S20;17RC500E20;11
S20;17RS500G19;15
S20;20DO050O20;9
S20;20ET075OC20;8
S20;24GD250CB4;14
S10;20HR050H20;5
S10;24LC250R18;2
S10;27HC050I18;7
S10;29HD250A15;22
S10;29MA075A19;9
S10;29SE125A21;4
S10;49POUIS19;33
S10;52CL0015K18;124
S10;52CV0015K18;141
S10;52MC006G18;162
S10;01HDR500K20;29
S10;01MA150K18;11
S10;01SL0045K13;25
S10;11EP010H19;10
S10;11GN195A18;8
S10;11PM100SH19;6
S10;17AS075G21;13
S10;24AF050R18;7
S10;24GC150C21;8
S10;27DCB060I17;6
S10;27DH015I20;28
S10;29EC200A13;6
S10;38ST016A18;4
S10;38WS030A21;6
S10;49MA010VB3;13
S10;52HS001I17;191
S10;52HS004A18;187
S10;52LC006A20;13
S10;01BL012K18;11
S10;01CM030K21;5
S10;01PI075K18;44
S10;11CF100TR19;4
S10;11GD050H20;6
S10;11LD200I19;9
S10;11SA100H19;14
S10;15DO050VA5;11
S10;15GD250VB17;13
S10;15GM065VB20;16
S10;15MA030L11;28
S10;17RC500P19;10
S10;17SH500E19;11
S10;18ET010TL17;9
S10;24LC250R20;19
S10;27DC030I20;12
S10;29SA050A17;10
S10;38WM065A18;6
S10;49ET007CB4;20
S10;49SH035E20;95
S10;52CP0015I19;99
S10;52MGEBAG19;344
S10;52SH006FV21;178
S10;01EM075K20;6
S10;11CD050A18;8
S10;11GD250H19;11
S10;11GD250H20;24
S24000;52CL0015K21;108
S90000;52CL0015K21;21
S90000;52CLASANO19;32
S24000;52CV0015K18;95
S24000;52ER006P19;98
S90000;52MMBYNO19;85
S90000;52WM0015A18;149
S90000;98BBGD050VE2;242
S24000;01HDR500K20;8
S90000;01HDR500K20;9
S24000;01MA150K18;19
S24000;01SL0045K13;41
S90000;01SL0045K13;6
S24000;11EP010H19;10
S90000;11EP010H19;8
S24000;11GN195A18;8
S90000;11PM100DE20H;15
S24000;11PM100SH19;8
S90000;11PM100SH19;9
S90000;15ET100VM20H;5
S90000;17AS075G18;120
S24000;17AS075G21;60
S90000;17AS075G21;26
S90000;17SH075P19;10
S24000;24AF050R18;12
S90000;24AF050R18;4
S90000;24GC150C21;50
S90000;24LC250C21;19
S90000;27DB015I16;3
S24000;27DCB060I17;8
S24000;27DH015I20;17
S24000;29EC200A13;9
S24000;38ST016A18;5
S90000;38ST016A18;13
S24000;38WS030A21;10
S90000;38WS030A21;9
S90000;49ED030K17;26
S24000;49MA010VB3;60
S90000;49MA010VB3;20
S90000;49POUM20;132
S24000;52HS001I17;139
S24000;52HS004A18;175
S24000;52LC006A18;2
S24000;52LC006A20;319
S90000;52LC006A20;158
S24000;01BL012K18;10
S90000;01CM030K21;10
S90000;01CP100K21;27
S24000;01PI075K18;10
S90000;01PI075K18;15
S90000;01SA250VE16;1
S24000;11CF100TR19;10
S90000;11CF100TR19;9
S29000;49EP005H20;21
S29000;52AS006P19;65
S29000;52CD0015A18;88
S29000;52DB001I20;81
S29000;52DS001I20;159
S29000;01EM075K20;7
S29000;11CD050A18;10
S29000;11GD250H19;9
S29000;11GD250H20;4
S29000;11SA050O21;18
S29000;11SP200CS19;3
S29000;15GN300L11;17
S29000;17SH075G21;36
S29000;18ET090TL17;6
S29000;20DO075CD20;11
S29000;24BR050R19;12
S29000;24ET050R18;5
S29000;24GD500R19;2
S29000;24MA030P15;10
S29000;27EV200I19;5
S29000;27MS050I20;12
S29000;27TS050I20;15
S29000;29HD075A15;51
S29000;29HS100A21;4
S29000;29MAV075A19;12
S29000;49HD035A15;3
S29000;52EV002I19;212
S29000;52MS001I20;78
S29000;01CM500K20;4
S29000;01EC200K17;8
S29000;01SA050KL20;21
S29000;01SA250VE20;17
S29000;11BO100CS19;12
S29000;11ET010O21;22
S29000;11LC250H20;15
S29000;11PM100SI19;8
S29000;11SP200SL19;7
S29000;15ET100VA5;8
S29000;15LC250VA5;9
S29000;15RC500VB17;22
S29000;17AS500FV21;22
S29000;20SA050O20;12
S29000;24BL012CB5;11
S29000;24VF050R18;11
S29000;27DF125I17;15
S29000;52AS006FV21;175
S29000;52MGEBOX18;13
S29000;52MGENSA18;86
S29000;52SGENSA18;83
S29000;SGOCVKI00157;4
S29000;01BK010K14;12
S29000;01BV050K16;8
S29000;01CL300KB20;6
S21000;17RS500G19;33
S21000;17SH075G18;2
S21000;20DO050O20;11
S21000;20ET075OC20;7
S21000;24GD250CB4;10
S21000;27CP050I19;9
S21000;27MP150I20;9
S21000;27RM300I20;16
S21000;29ASH240A20;9
S21000;29GE200A18;1
S21000;29VC240A16;9
S21000;38MI150A18;5
S21000;38WC050A21;5
S21000;49EP005H20;6
S21000;52AS006P19;336
S21000;52CD0015A18;132
S21000;52DB001I20;113
S21000;52DS001I20;153
S21000;98BBSA050LT1;11
S21000;01EM075K20;6
S21000;11CD050A18;15
S21000;11GD250H19;14
S21000;11GD250H20;13
S21000;11SA050O21;18
S21000;11SP200CS19;14
S21000;15GN300L11;9
S21000;17SH075G21;19
S21000;18ET090TL17;8
S21000;20DO075CD20;10
S21000;24BR050R19;6
S21000;24ET050R18;9
S21000;24GD500R19;3
S21000;24MA030P15;20
S21000;27EV200I19;10
S21000;27MS050I20;8
S21000;29HD075A15;53
S21000;29HS100A21;5
S21000;29MAV075A19;8
S21000;52EV002I19;5
S21000;52MS001I20;287
S21000;01CM500K20;8
S21000;01EC200K17;11
S21000;01SA050KL20;10
S21000;01SA250VE20;13
S21000;11BO100CS19;13
S21000;11ET010O21;23
S21000;11LC250H20;9
S21000;11PM100SI19;8
S21000;11SP200SL19;14
S21000;15ET100VA5;4
S21000;15LC250VA5;5
S21000;15RC500VB17;18
S21000;17AS500FV21;10
S90000;11GD050H20;79
S24000;11LD200I19;15
S90000;11LD200I19;4
S24000;11SA100H19;11
S90000;11SA100H19;7
S24000;15DO050VA5;9
S90000;15DO050VA5;3
S90000;15ET100VA20;8
S24000;15GD250VB17;14
S90000;15GD250VB17;5
S24000;15GM065VB20;8
S90000;15GM065VB20;6
S90000;15LC250VBL20;2
S24000;15MA030L11;15
S90000;15MA030L11;10
S24000;15RG500VA20;12
S90000;15RG500VA20;35
S24000;17RC500P19;12
S90000;17RC500P19;29
S24000;17SH500E19;12
S24000;18ET010TL17;12
S90000;18ET010TL17;9
S24000;24LC250R20;15
S90000;24LC250R20;9
S90000;27BP050I19;5
S24000;27DC030I20;9
S90000;27DC030I20;7
S24000;29SA050A17;11
S90000;38FT200A18;54
S24000;38WM065A18;6
S90000;38WM065A18;7
S90000;49CP020K18;96
S90000;49ET007CB19;4
S24000;49ET007CB4;3
S90000;49ET007CB4;6
S24000;49SH035E20;20
S90000;49SH035E20;35
S90000;49TRSOL15;16
S24000;52CP0015I19;213
S90000;52LASANO19;60
S24000;52MGEBAG19;83
S90000;52MGEBAG19;100
S90000;52SH006F17;63
S24000;52SH006FV21;120
S90000;52SH006FV21;317
S90000;J6185;13
S90000;JIMCP16;88
S90000;JIMPN16;161
S90000;01BL012B20H;2
S24000;01EM075K20;8
S90000;01EM075K20;17
S90000;01MA030K21;1
S90000;10CACLA20;2
S10;11SA050O21;18
S10;11SP200CS19;8
S10;15GN300L11;13
S10;17SH075G21;13
S10;18ET090TL17;6
S10;20DO075CD20;3
S10;24BR050R19;4
S10;24ET050R18;8
S10;24MA030P15;30
S10;27EV200I19;19
S10;27MS050I20;22
S10;27TS050I20;4
S10;29HD075A15;51
S10;29HS100A18;1
S10;29HS100A21;14
S10;29MAV075A19;9
S10;52EV002I19;58
S10;52MS001I20;181
S10;52RC0015A18;108
S10;01EN300KB19;1
S10;01HV030K16;9
S10;01SA100LV20;19
S10;01SL300LV20;8
S10;11BG140SH19;9
S10;11ET010H20;10
S10;11LC250H19;19
S10;11SP200SI19;8
S10;15GD250L14;12
S10;17AS250FV21;8
S10;17AS500P19;8
S10;17RC500E20;61
S10;17RS500G19;18
S10;20DO050O20;7
S10;20ET075OC20;7
S10;24GD250CB4;12
S10;27CP050I19;6
S10;27MP150I20;15
S10;27RM300I20;15
S10;29ASH240A20;9
S10;29GE200A18;3
S10;29VC240A16;24
S10;38MI150A18;7
S10;38WC050A21;5
S10;49EP005H20;6
S10;52AS006P19;200
S10;52CD0015A18;165
S10;52DB001I20;102
S10;52DS001I20;133
S10;98BBSA050LT1;55
S10;01CM500K20;5
S10;01EC200K17;9
S10;01SA050KL20;8
S10;11BO100CS19;10
S10;11ET010O21;24
S20;27CP050I19;9
S20;27MP150I20;9
S20;27RM300I20;9
S20;29ASH240A20;9
S20;29GE200A18;1
S20;29VC240A16;14
S20;38MI150A18;1
S20;38WC050A21;8
S20;49EP005H20;1
S20;52AS006N18;62
S20;52AS006P19;77
S20;52CD0015A18;102
S20;52DB001I20;149
S20;52DS001I20;77
S20;98BBSA050LT1;10
S20;01EM075K20;5
S20;11CD050A18;9
S20;11GD250H19;19
S20;11GD250H20;11
S20;11SA050O21;18
S20;11SP200CS19;7
S20;15GN300L11;13
S20;17SH075G21;50
S20;18ET090TL17;6
S20;20DO075CD20;10
S20;24BR050R19;4
S20;24ET050R18;7
S20;24GD500R19;10
S20;24MA030P15;15
S20;27EV200I19;6
S20;27MS050I20;10
S20;27TS050I20;11
S20;29HD075A15;47
S20;29HS100A21;11
S20;29MAV075A19;8
S20;52EV002I19;112
S20;52MS001I20;218
S20;01CM500K20;7
S20;01EC200K17;8
S20;01SA050KL20;10
S20;01SA250VE20;14
S20;11BO100CS19;15
S20;11ET010O21;18
S20;11LC250H20;12
S20;11PM100SI19;9
S20;11SP200SL19;9
S20;15ET100VA5;5
S20;15LC250VA5;3
S20;15RC500VB17;11
S20;17AS500FV21;7
S20;20SA050O20;18
S20;24BL012CB5;7
S20;27DF125I17;9
S20;52AS006FV21;159
S29000;01LC250K17;11
S29000;11BP100I19;28
S29000;11BR100A20;17
S29000;11ET050H20;9
S29000;11ET075O21;17
S29000;11FAG10TR19;7
S29000;11LT300I20;19
S29000;11MA030A20;7
S29000;11SV080I19;5
S29000;15GD500VA20;14
S29000;15LC250VB3;3
S29000;15RG500L14;21
S29000;18LC250TL17ET;16
S29000;20GD250CD20;16
S29000;20MP030H20;4
S29000;24SA050CB6;30
S29000;27DC050I20;11
S29000;27DH030I20;6
S29000;27HS030I18;9
S29000;27TS001I20;73
S29000;38BV050A19;16
S29000;52FP0015I19;45
S29000;52LGENSA18;365
S29000;52OR001I19;159
S24000;11CD050A18;8
S90000;11CD050A18;6
S24000;11GD250H19;9
S24000;11GD250H20;7
S90000;11GD250H20;5
S90000;11LP080028M19;48
S24000;11SA050O21;18
S90000;11SA050O21;12
S24000;11SP200CS19;10
S90000;11SP200CS19;2
S24000;15GN300L11;9
S90000;17AS075E19;94
S90000;17AS500N18;13
S90000;17RC500N18;3
S24000;17SH075G21;60
S90000;17SH075G21;26
S24000;18ET090TL17;6
S90000;18ET090TL17;11
S24000;20DO075CD20;8
S90000;20DO075CD20;10
S24000;24BR050R19;14
S90000;24BR050R19;2
S24000;24ET050R18;9
S90000;24ET050R18;7
S24000;24GD500R19;6
S90000;24GD500R19;9
S24000;24MA030P15;19
S90000;24MA030P15;39
S24000;27EV200I19;11
S90000;27EV200I19;4
S24000;27MS050I20;11
S90000;27MS050I20;11
S24000;27TS050I20;2
S24000;29HD075A15;50
S24000;29HS100A18;4
S24000;29HS100A21;10
S24000;29MAV075A19;11
S90000;29MAV075A19;12
S90000;49CP004I19;14
S90000;49FC030A15;3
S90000;49HD035A15;86
S90000;49P2DTS19;14
S90000;49PADCL20;101
S90000;49POURS21;12
S90000;49TBL2CH19;6
S24000;52EV002I19;7
S90000;52EV002I19;27
S24000;52MS001I20;247
S90000;52MS001I20;198
S24000;52RC0015A18;17
S24000;01CM500K20;11
S90000;01CM500K20;13
S24000;01EC200K17;8
S21000;20SA050O20;12
S21000;24BL012CB5;5
S21000;27DF125I17;25
S21000;52AS006FV21;98
S21000;52MGEBOX18;32
S21000;52MGENSA18;48
S21000;52SGENSA18;193
S21000;98BBMA010KA3;61
S21000;SGOCVKI00157;4
S21000;01BK010K14;13
S21000;01BV050K16;8
S21000;01CL300KB20;6
S21000;01LC250K17;12
S21000;11BR100A20;9
S21000;11ET050H20;8
S21000;11ET075O21;12
S21000;11FAG10TR19;4
S21000;11LT300I20;6
S21000;11MA030A20;37
S21000;15LC250VB3;9
S21000;15RG500L14;7
S21000;18LC250TL17ET;13
S21000;20GD250CD20;6
S21000;20MP030H20;5
S21000;24SA050CB6;23
S21000;27DC050I20;14
S21000;27DH030I20;16
S21000;27HS030I18;6
S21000;27TS001I20;251
S21000;38BV050A19;8
S21000;52FP0015I19;152
S21000;52LGENSA18;117
S21000;52OR001I19;177
S20;52MGEBOX18;14
S20;52MGENSA18;126
S20;52SGENSA18;72
S20;98BBMA010KA3;10
S20;01BK010K14;10
S20;01BV050K16;10
S20;01CL300KB20;9
S20;01LC250K17;8
S20;11BR100A20;3
S20;11ET050H20;6
S20;11ET075O21;17
S20;11FAG10TR19;8
S20;11LT300I20;9
S20;11MA030A20;9
S20;11SV080I19;5
S20;15GD500VA20;9
S20;15LC250VB3;16
S20;15RG500L14;10
S20;18LC250TL17ET;9
S20;20GD250CD20;6
S20;20MP030H20;5
S20;24SA050CB6;18
S20;27DC050I20;17
S20;27DH030I20;16
S20;27HS030I18;6
S20;27TS001I20;206
S20;38BV050A19;7
S20;52FP0015I19;87
S20;52LGENSA18;163
S20;52OR001I19;208
S10;11LC250H20;12
S10;11PM100SI19;8
S10;11SP200SL19;8
S10;15ET100VA5;6
S10;15LC250VA5;5
S10;15RC500VB17;17
S10;17AS500FV21;7
S10;20SA050O20;7
S10;24BL012CB5;11
S10;24VF050R18;5
S10;27DF125I17;4
S10;38EV075A18;6
S10;52AS006FV21;109
S10;52MGEBOX18;17
S10;52MGENSA18;227
S10;52SGENSA18;30
S10;98BBMA010KA3;33
S10;SGOCVKI00157;4
S10;01BK010K14;16
S10;01BV050K16;6
S10;01CL300KB20;7
S10;01LC250K17;9
S10;11BP100I19;7
S10;11BR100A20;9
S10;11ET050H20;9
S10;11ET075O21;14
S10;11FAG10TR19;7
S10;11LT300I20;13
S10;11MA030A20;20
S10;11SV080I19;8
S10;15GD500VA20;13
S10;15LC250VB3;10
S10;15RG500L14;13
S10;18LC250TL17ET;16
S10;20GD250CD20;24
S10;20MP030H20;6
S10;24GD500R19;6
S10;24MA030R18;26
S10;24SA050CB6;30
S10;27DC050I20;8
S10;27DH030I20;30
S10;27HS030I18;8
S10;27TS001I20;369
S10;38BV050A19;8
S10;52FP0015I19;203
S10;52LGENSA18;336
S10;52OR001I19;149
S24000;01SA050KL20;13
S90000;01SA050KL20;11
S24000;01SA250VE20;13
S24000;11BO100CS19;14
S24000;11ET010O21;24
S90000;11ET010O21;17
S24000;11LC250H20;3
S90000;11LC250H20;12
S24000;11PM100SI19;7
S90000;11PM100SI19;9
S24000;11SP200SL19;7
S90000;11SP200SL19;4
S24000;15ET100VA5;6
S90000;15ET100VA5;4
S90000;15GD070VB17;87
S24000;15LC250VA5;7
S90000;15LC250VA5;15
S24000;15RC500VB17;19
S24000;17AS500FV21;6
S90000;17AS500FV21;6
S90000;17SH075F15;14
S90000;17SH500N18;17
S24000;20SA050O20;8
S90000;20SA050O20;9
S24000;24BL012CB5;11
S90000;24BL012CB5;8
S90000;24GD250S6;1
S24000;24VF050R18;12
S90000;24VF050R18;19
S24000;27DF125I17;3
S90000;27DH015I17;17
S90000;49DF005I17;2
S90000;49TC1NO20;20
S90000;49TC2NO19;26
S90000;52AS006F17;63
S24000;52AS006FV21;168
S90000;52AS006FV21;317
S24000;52MGEBOX18;15
S24000;52MGENSA18;191
S90000;52RIB1NO20;1
S90000;52RIB2NO20;1
S24000;52SGENSA18;100
S24000;98BBMA010KA3;10
S90000;SGOCVKI00137;4
S90000;SGOCVKI00138;3
S90000;SGOCVKI00154;1
S24000;01BK010K14;11
S24000;01BV050K16;8
S90000;01BV050K16;4
S24000;01CL300KB20;7
S24000;01LC250K17;13
S24000;11BP100I19;8
S90000;11BP100I19;13
S24000;11BR100A20;10
S90000;11BR100A20;9
S24000;11ET050H20;8
S90000;11ET050H20;8
S24000;11ET075O21;14
S90000;11ET075O21;10
S24000;11FAG10TR19;7
S90000;11FAG10TR19;4
S24000;11LT300I20;8
S90000;11LT300I20;5
S24000;11MA030A20;8
S90000;11MA030A20;30
S24000;11SV080I19;8
S90000;11SV080I19;15
S90000;15CC150VA19;43
S24000;15GD500VA20;8
S24000;15LC250VB3;9
S24000;15RG500L14;12
S90000;17AS075N18;10
S90000;17AS075P19;37
S90000;17IC075D15;6
S90000;17MC200N18;1
S90000;17SH075FV21;26
S24000;18LC250TL17ET;10
S90000;18LC250TL17ET;4
S24000;20GD250CD20;14
S90000;20GD250CD20;9
S24000;20MP030H20;7
S90000;20MP030H20;3
S90000;24GD075C21;6
S24000;24SA050CB6;9
S24000;27DC050I20;12
S24000;27DH030I20;12
S24000;27HS030I18;7
S90000;27HS030I18;6
S24000;27TS001I20;268
S90000;27TS001I20;721
S90000;38BV050A17;1
S24000;38BV050A19;8
S90000;38BV050A19;9
S90000;38WC050A18;53
S90000;49FT030A18;12
S90000;49HD035K19H;8
S90000;49LD030I20;153
S90000;52CARDENV18;1
S24000;52FP0015I19;101
S24000;52LGENSA18;202
S24000;52OR001I19;319
S90000;52STINO19;1
S90000;52STINO20;1
