S15;01BL012K21H;25
S27000;01BL012K21H;9
S28000;01BL012K21H;23
S15;01BP050K21;6
S27000;01BP050K21;3
S28000;01BP050K21;9
S15;01CL125C21H;2
S27000;01CL125C21H;1
S28000;01CL125C21H;1
S15;01SA250LT20;4
S27000;01SA250LT20;5
S28000;01SA250LT20;14
S15;01SL300VE20;5
S27000;01SL300VE20;1
S28000;01SL300VE20;7
S15;11BC100G21;40
S27000;11BC100G21;43
S28000;11BC100G21;35
S15;11CM030H20;13
S27000;11CM030H20;27
S28000;11CM030H20;18
S15;11ET010O21;11
S27000;11ET010O21;18
S28000;11ET010O21;9
S15;11LD200I19;10
S27000;11LD200I19;3
S28000;11LD200I19;14
S15;11SA100H20;10
S27000;11SA100H20;5
S28000;11SA100H20;11
S15;11SP200CS19;9
S27000;11SP200CS19;4
S28000;11SP200CS19;12
S15;15AS250VA18;8
S27000;15AS250VA18;6
S28000;15AS250VA18;9
S15;15GD250VA20;10
S27000;15GD250VA20;9
S28000;15GD250VA20;8
S27000;15GG150VAL21;28
S28000;15GG150VAL21;82
S15;15MA030VA5;11
S27000;15MA030VA5;5
S28000;15MA030VA5;8
S27000;17AS250G18;2
S28000;17AS250G18;17
S15;17AS500FV21;14
S27000;17AS500FV21;6
S28000;17AS500FV21;13
S28000;17SH300G18;11
S15;18ET050TL17;6
S27000;18ET050TL17;4
S15;18SA075TL17ET;3
S28000;18SA075TL17ET;12
S15;20DO075CD20;15
S27000;20DO075CD20;7
S28000;20DO075CD20;10
S15;20ET075OC20;4
S27000;20ET075OC20;5
S15;01BM150K19;14
S27000;01BM150K19;6
S28000;01BM150K19;16
S15;01CL200F21H;16
S27000;01CL200F21H;12
S28000;01CL200F21H;13
S15;01EC200K17;5
S27000;01EC200K17;7
S28000;01EC200K17;5
S15;01HF100K17;3
S27000;01HF100K17;4
S28000;01HF100K17;2
S15;01LH300KB19;10
S27000;01LH300KB19;7
S28000;01LH300KB19;12
S15;01MA150C21H;14
S27000;01MA150C21H;6
S28000;01MA150C21H;17
S15;01PI075K18;7
S27000;01PI075K18;6
S28000;01PI075K18;12
S15;01RL500K20;11
S27000;01RL500K20;4
S28000;01RL500K20;15
S15;01SL0045K13;31
S27000;01SL0045K13;8
S28000;01SL0045K13;29
S15;11CD050A18;4
S27000;11CD050A18;4
S28000;11CD050A18;3
S15;11ET010H20;9
S27000;11ET010H20;8
S28000;11ET010H20;6
S15;11GE075I20;3
S27000;11GE075I20;2
S28000;11GE075I20;12
S15;11LT300I20;4
S27000;11LT300I20;3
S28000;11LT300I20;9
S15;11MA030A20;12
S27000;11MA030A20;5
S28000;11MA030A20;13
S15;15CF150VBL21;5
S28000;15CF150VBL21;4
S15;15GD500VB17;9
S27000;15GD500VB17;7
S28000;15GD500VB17;2
S15;17RC500G21;16
S27000;17RC500G21;11
S28000;17RC500G21;11
S15;17RS500P19;19
S27000;17RS500P19;8
S28000;17RS500P19;13
S15;20DO050O20;8
S27000;20DO050O20;6
S28000;20DO050O20;7
S15;24BR050C21;18
S27000;24BR050C21;7
S15;01BL012F21H;8
S27000;01BL012F21H;13
S28000;01BL012F21H;11
S15;01CL200K17;5
S27000;01CL200K17;8
S28000;01CL200K17;12
S15;01CMJ075K21;1
S27000;01CMJ075K21;14
S28000;01CMJ075K21;8
S15;01HN0075K19;14
S27000;01HN0075K19;8
S28000;01HN0075K19;9
S15;01SA250LV20;5
S27000;01SA250LV20;9
S28000;01SA250LV20;10
S15;11SA050O21;6
S27000;11SA050O21;8
S28000;11SA050O21;16
S15;11SV080I19;7
S27000;11SV080I19;7
S28000;11SV080I19;10
S15;15HE005L14;11
S27000;15HE005L14;4
S28000;15HE005L14;8
S15;15LM300L11;15
S27000;15LM300L11;11
S28000;15LM300L11;13
S15;15SA070VB6;9
S27000;15SA070VB6;4
S28000;15SA070VB6;5
S28000;17AS500G18;12
S15;17HI001G19;68
S27000;17HI001G19;81
S28000;17HI001G19;227
S15;17RS500E20;16
S27000;17RS500E20;8
S28000;17RS500E20;15
S15;17SE100FV21;11
S27000;17SE100FV21;8
S28000;17SE100FV21;9
S15;17SH075E19;8
S27000;17SH075E19;73
S28000;17SH075E19;137
S15;17SH500FV21;14
S27000;17SH500FV21;7
S28000;17SH500FV21;10
S28000;20AR075H16;1
S15;20GD250CD20;15
S27000;20GD250CD20;12
S28000;20GD250CD20;15
S15;20HR050H20;6
S27000;20HR050H20;4
S28000;20HR050H20;7
S15;20SA050HC20;5
S27000;20SA050HC20;5
S28000;20SA050HC20;1
S15;24GD250R20;17
S27000;24GD250R20;24
S28000;24GD250R20;32
S15;24LC250C21;14
S15;01BL012K18;18
S27000;01BL012K18;9
S28000;01BL012K18;20
S15;01CL050K21;2
S27000;01CL050K21;8
S28000;01CL050K21;11
S15;01CM500K20;12
S27000;01CM500K20;3
S28000;01CM500K20;10
S15;01MA030K21H;1
S27000;01MA030K21H;4
S15;01RV500K20;12
S27000;01RV500K20;6
S28000;01RV500K20;16
S15;01SA100LT20;11
S27000;01SA100LT20;4
S28000;01SA100LT20;7
S15;01SE125K21;9
S27000;01SE125K21;3
S28000;01SE125K21;8
S15;01SL500LV20;10
S27000;01SL500LV20;4
S28000;01SL500LV20;9
S15;11CF100TR19;15
S27000;11CF100TR19;8
S28000;11CF100TR19;19
S15;11GN195A18;10
S27000;11GN195A18;6
S28000;11GN195A18;17
S15;11LC250O21;10
S27000;11LC250O21;24
S28000;11LC250O21;14
S15;11PM100SL19;5
S27000;11PM100SL19;5
S28000;11PM100SL19;3
S15;15MA030L11;15
S27000;15MA030L11;35
S28000;15MA030L11;49
S15;15MA030VCL21;38
S27000;15MA030VCL21;28
S28000;15MA030VCL21;44
S15;15RC500VB17;4
S15;17AS250G21;8
S27000;17AS250G21;6
S28000;17AS250G21;11
S15;17RC500P19;10
S27000;17RC500P19;4
S28000;17RC500P19;18
S15;20ET075HC20;11
S27000;20ET075HC20;2
S28000;20ET075HC20;6
S15;24AF050R18;4
S27000;24AF050R18;2
S28000;24AF050R18;4
S15;24BR050CB6;12
S28000;24BR050CB6;14
S15;24GD500R19;12
S15;27CP050I19;12
S27000;27CP050I19;8
S28000;27CP050I19;11
S15;01CM300K20;9
S27000;01CM300K20;8
S28000;01CM300K20;12
S15;01LC250K21H;38
S27000;01LC250K21H;10
S28000;01LC250K21H;28
S15;01MA075K18;15
S27000;01MA075K18;27
S28000;01MA075K18;34
S28000;11BG140SH19;5
S15;11BG140SI19;11
S27000;11BG140SI19;8
S28000;11BG140SI19;21
S15;11MWC200I19;4
S27000;11MWC200I19;4
S28000;11MWC200I19;4
S15;11PEP050I20;7
S27000;11PEP050I20;6
S28000;11PEP050I20;7
S15;11SP200SI19;7
S27000;11SP200SI19;5
S28000;11SP200SI19;7
S27000;15AS150VCL21;6
S28000;15AS150VCL21;8
S15;15ET100VB3;4
S27000;15ET100VB3;4
S28000;15ET100VB3;7
S15;15GD250VB17;1
S27000;15GD250VB17;16
S28000;15GD250VB17;16
S15;15SH250VA20;12
S27000;15SH250VA20;4
S28000;15SH250VA20;12
S15;17ER075P19;12
S27000;17ER075P19;4
S28000;17ER075P19;11
S15;17MC200G21;11
S27000;17MC200G21;10
S28000;17MC200G21;14
S15;17SH060SG21;9
S27000;17SH060SG21;9
S28000;17SH060SG21;10
S15;18BI030TL17ET;5
S27000;18BI030TL17ET;9
S28000;18BI030TL17ET;11
S27000;20MP030H20;6
S28000;20MP030H20;4
S15;20SA050CD20;7
S27000;20SA050CD20;5
S28000;20SA050CD20;11
S15;24MA030RE19;12
S27000;24MA030RE19;7
S28000;24MA030RE19;12
S15;24MA075P15;10
S27000;24MA075P15;7
S28000;24MA075P15;8
S15;27DC050I20;16
S15;01BM050K19;13
S27000;01BM050K19;6
S28000;01BM050K19;13
S15;01BV050K16;10
S27000;01BV050K16;5
S28000;01BV050K16;6
S15;01LC500K20;12
S27000;01LC500K20;7
S28000;01LC500K20;16
S15;01MA030C21H;20
S27000;01MA030C21H;27
S15;01MR030K14;10
S27000;01MR030K14;11
S28000;01MR030K14;11
S15;01PI030K18;8
S27000;01PI030K18;7
S28000;01PI030K18;27
S15;10QCRAC21;55
S27000;10QCRAC21;45
S28000;10QCRAC21;21
S15;11CM125I19;10
S27000;11CM125I19;8
S28000;11CM125I19;15
S15;11LH200I19;12
S27000;11LH200I19;9
S28000;11LH200I19;13
S15;11PM100SI19;8
S27000;11PM100SI19;7
S28000;11PM100SI19;3
S15;15CP250VA5;3
S27000;15CP250VA5;7
S15;15LC250VA20;10
S27000;15LC250VA20;8
S28000;15LC250VA20;5
S15;15MF075VM20H;20
S28000;15MF075VM20H;17
S15;17AS500E19;11
S27000;17AS500E19;7
S28000;17AS500E19;10
S15;17AS500P19;6
S27000;17AS500P19;5
S28000;17AS500P19;6
S28000;20AR075CD16A;3
S15;20DO130HC20;12
S27000;20DO130HC20;7
S28000;20DO130HC20;10
S15;20SA050O20;3
S27000;20SA050O20;6
S28000;20SA050O20;4
S15;24MA075R18;9
S27000;24MA075R18;13
S28000;24MA075R18;29
S15;24RO010CB4;7
S27000;24RO010CB4;5
S28000;24RO010CB4;11
S15;27DC030I20;8
S27000;27DC030I20;8
S28000;27DC030I20;12
S15;27DH015I20;13
S27000;27DH015I20;15
S15;01HDR500K20;19
S27000;01HDR500K20;8
S28000;01HDR500K20;16
S15;01LC250F21H;7
S27000;01LC250F21H;7
S15;01MF030F21H;30
S27000;01MF030F21H;23
S15;10KTPWPXM21;21
S27000;10KTPWPXM21;21
S28000;10KTPWPXM21;18
S15;11EP050H19;5
S27000;11EP050H19;1
S27000;11EP090H19;3
S15;11LC250H19;9
S27000;11LC250H19;22
S28000;11LC250H19;12
S15;11SD100SL19;15
S27000;11SD100SL19;6
S28000;11SD100SL19;12
S15;15DO050VA5;14
S27000;15DO050VA5;7
S28000;15DO050VA5;13
S15;15ETKAR21;85
S27000;15ETKAR21;39
S28000;15ETKAR21;2
S28000;15GD250VCL21;1
S27000;15MA030VAL21;13
S28000;15MA030VAL21;23
S15;17RC500E20;9
S27000;17RC500E20;10
S28000;17RC500E20;7
S15;17RS500FV21;16
S27000;17RS500FV21;5
S28000;17RS500FV21;19
S15;17SH300E19;3
S27000;17SH300E19;27
S28000;17SH300E19;8
S27000;17SH300N18;2
S15;18LC250TL17ET;17
S27000;18LC250TL17ET;27
S28000;18LC250TL17ET;16
S15;20AR075O20;9
S27000;20AR075O20;5
S28000;20AR075O20;9
S15;20ET075CD20;6
S27000;20ET075CD20;5
S28000;20ET075CD20;6
S15;20GD250HC20;16
S27000;20GD250HC20;8
S28000;20GD250HC20;10
S15;24MA030CB4;10
S27000;24MA030CB4;34
S28000;24MA030CB4;13
S15;27DB015I20;7
S27000;27DB015I20;4
S28000;27DB015I20;10
S15;27OR030I21;20
S27000;27OR030I21;28
S28000;27OR030I21;24
S15;01BL012C21H;39
S27000;01BL012C21H;7
S28000;01BL012C21H;39
S15;01CMR500K20;14
S27000;01CMR500K20;7
S28000;01CMR500K20;12
S27000;01MA150K18;3
S28000;01MA150K18;55
S15;01RC300KB20;1
S27000;01RC300KB20;6
S15;01SL500VE20;9
S27000;01SL500VE20;6
S28000;01SL500VE20;11
S15;11CM030H19;16
S27000;11CM030H19;11
S28000;11CM030H19;9
S15;11ET075O21;11
S27000;11ET075O21;7
S28000;11ET075O21;14
S15;11FAG10TR19;14
S27000;11FAG10TR19;6
S28000;11FAG10TR19;16
S15;11PM100SH19;5
S27000;11PM100SH19;5
S28000;11PM100SH19;3
S15;11SP200SL19;12
S27000;11SP200SL19;5
S28000;11SP200SL19;4
S27000;15ET100VA5;1
S15;15GN300L11;4
S28000;15GN300L11;10
S15;15MA030VB3;17
S27000;15MA030VB3;11
S28000;15MA030VB3;34
S15;15MA075VB4;12
S27000;15MA075VB4;9
S28000;15MA075VB4;15
S15;15RG500VA20;10
S15;17RS500G21;13
S27000;17RS500G21;9
S28000;17RS500G21;14
S15;24GM030C21;9
S27000;24GM030C21;6
S28000;24GM030C21;2
S15;24MA030R18;10
S27000;24MA030R18;38
S28000;24MA030R18;20
S15;24MA075CB4;19
S27000;24MA075CB4;21
S28000;24MA075CB4;28
S15;24MA150R19;13
S27000;24MA150R19;5
S28000;24MA150R19;12
S15;29EC200A21;13
S27000;29EC200A21;10
S28000;29EC200A21;17
S15;29EC200A21X;38
S27000;29EC200A21X;16
S28000;29EC200A21X;17
S15;01CD250F21H;7
S27000;01CD250F21H;8
S15;01CP200K17;16
S27000;01CP200K17;5
S28000;01CP200K17;22
S15;01HV030K16;3
S27000;01HV030K16;5
S28000;01HV030K16;8
S15;01MA030K16;13
S27000;01MA030K16;40
S28000;01MA030K16;41
S15;01SL300LV20;10
S27000;01SL300LV20;8
S28000;01SL300LV20;6
S15;11ET050H20;7
S27000;11ET050H20;4
S28000;11ET050H20;2
S15;15GM065L20;1
S28000;15GM065L20;17
S15;15LC250L14;15
S27000;15LC250L14;23
S28000;15LC250L14;7
S15;17AS250E19;12
S27000;17AS250E19;4
S28000;17AS250E19;11
S15;17CS150P19;22
S27000;17CS150P19;38
S15;17SH300FV21;13
S27000;17SH300FV21;19
S28000;17SH300FV21;16
S15;17SH500G21;15
S27000;17SH500G21;7
S28000;17SH500G21;6
S15;24ET075CB4;3
S28000;24ET075CB4;9
S15;24GD500C18;25
S27000;24GD500C18;13
S28000;24GD500C18;6
S28000;24KTCBL21;1
S15;24MA030P15;13
S27000;24MA030P15;14
S28000;24MA030P15;13
S15;24SA050R18;9
S27000;24SA050R18;6
S28000;24SA050R18;10
S15;27DS030I20;5
S27000;27DS030I20;6
S28000;27DS030I20;11
S15;27HC050I18;8
S27000;27HC050I18;4
S28000;27HC050I18;6
S15;29MA075A21;13
S27000;29MA075A21;10
S28000;29MA075A21;12
S15;38EC015A18;6
S27000;38EC015A18;8
S28000;38EC015A18;5
S15;01HD250K17;5
S27000;01HD250K17;4
S28000;01HD250K17;10
S15;01LC250K17;18
S27000;01LC250K17;15
S28000;01LC250K17;23
S15;01LT300K20;13
S27000;01LT300K20;8
S28000;01LT300K20;14
S27000;01MF150F21H;7
S15;11BP100I19;8
S27000;11BP100I19;6
S28000;11BP100I19;8
S15;11BR100A20;12
S27000;11BR100A20;2
S28000;11BR100A20;7
S15;11GD250O21;33
S27000;11GD250O21;33
S28000;11GD250O21;35
S15;11LC250H20;10
S27000;11LC250H20;23
S28000;11LC250H20;16
S28000;15ET100VAL21;6
S15;15ETVER21;39
S27000;15ETVER21;7
S28000;15ETVER21;6
S15;17AS250FV21;11
S27000;17AS250FV21;2
S28000;17AS250FV21;23
S15;17DO050F13;10
S27000;17DO050F13;10
S28000;17DO050F13;15
S15;17SH060SE21;10
S27000;17SH060SE21;10
S28000;17SH060SE21;11
S15;18GD250TL17ET;4
S27000;18GD250TL17ET;28
S28000;18GD250TL17ET;17
S15;24GD250C20;3
S28000;24GD250C20;10
S15;27OR050I21;30
S27000;27OR050I21;31
S28000;27OR050I21;32
S15;29GE200A21;19
S27000;29GE200A21;8
S28000;29GE200A21;14
S15;29RH500A15;8
S27000;29RH500A15;10
S28000;29RH500A15;26
S28000;49MS008I20;86
S15;52AS006P19;95
S27000;52AS006P19;332
S28000;52AS006P19;253
S15;52CP006K17;77
S27000;52CP006K17;287
S28000;52CP006K17;244
S15;52DB001I20;214
S27000;52DB001I20;112
S15;01EM075K20;7
S27000;01EM075K20;5
S28000;01EM075K20;6
S15;01HD500K20;11
S27000;01HD500K20;8
S28000;01HD500K20;11
S15;01SA050KV20;11
S27000;01SA050KV20;9
S28000;01SA050KV20;9
S15;01SA100LV20;13
S27000;01SA100LV20;6
S28000;01SA100LV20;1
S15;11BO100CS19;16
S27000;11BO100CS19;2
S28000;11BO100CS19;18
S15;11EP010H19;7
S27000;11EP010H19;6
S28000;11EP010H19;8
S15;11GM200I19;14
S27000;11GM200I19;10
S28000;11GM200I19;19
S15;11SD100SI19;13
S27000;11SD100SI19;7
S28000;11SD100SI19;15
S15;15ET100VA20;6
S27000;15ET100VA20;3
S28000;15ET100VA20;6
S15;15MA075L11;12
S27000;15MA075L11;4
S28000;15MA075L11;9
S15;15RG500L14;21
S27000;15RG500L14;9
S28000;15RG500L14;14
S15;17SH500P19;14
S27000;17SH500P19;5
S28000;17SH500P19;17
S15;18ET090TL17;3
S27000;18ET090TL17;6
S28000;18ET090TL17;1
S15;24BL012CB5;10
S27000;24BL012CB5;3
S28000;24BL012CB5;17
S27000;24EDT10C21;8
S28000;24EDT10C21;16
S27000;24GD500R19;8
S28000;24GD500R19;9
S28000;27BP050I19;12
S15;29MA030A21X;85
S27000;29MA030A21X;11
S28000;29MA030A21X;55
S15;52CCRAC21;2
S27000;52CCRAC21;2
S27000;52EV002I19;78
S15;52GD0015A18;31
S27000;52GD0015A18;112
S28000;52GD0015A18;85
S27000;52MA003K16A;88
S28000;52MA003K16A;65
S15;01CV050K18;4
S27000;01CV050K18;4
S28000;01CV050K18;12
S15;01PI150K18;13
S27000;01PI150K18;10
S28000;01PI150K18;16
S15;01SA050KL20;12
S27000;01SA050KL20;10
S28000;01SA050KL20;7
S15;01SB020K21;20
S27000;01SB020K21;15
S28000;01SB020K21;29
S15;11BG140CS19;14
S27000;11BG140CS19;2
S28000;11BG140CS19;23
S15;11BG140SH19;12
S27000;11BG140SH19;7
S15;11CM030O21;17
S27000;11CM030O21;35
S28000;11CM030O21;37
S28000;11MW200I19;2
S15;11SD100CS19;13
S27000;11SD100CS19;4
S28000;11SD100CS19;21
S15;15DF200VBL21;37
S28000;15DF200VBL21;43
S15;15GD250L14;1
S27000;15GD250L14;26
S28000;15GD250L14;12
S15;15KTVER21;1
S27000;15KTVER21;14
S28000;15KTVER21;5
S15;17SH075G21;1
S27000;17SH075G21;73
S28000;17SH075G21;137
S15;17SH300P19;11
S27000;17SH300P19;15
S28000;17SH300P19;11
S15;24ET050R18;6
S27000;24ET050R18;5
S28000;24ET050R18;11
S15;24GD250CB4;10
S27000;24GD250CB4;31
S28000;24GD250CB4;23
S15;27BP050I19;2
S27000;27BP050I19;4
S15;27DH030I20;14
S27000;27DH030I20;15
S28000;27DH030I20;20
S15;49BO015CS19;18
S27000;49BO015CS19;10
S28000;49BO015CS19;8
S27000;49POUCH2NO21;73
S28000;49POUCH2NO21;126
S15;52DS001I20;204
S27000;52DS001I20;344
S28000;52DS001I20;531
S15;52MGEBOX18;51
S15;01BK010K14;18
S27000;01BK010K14;8
S28000;01BK010K14;14
S15;11EH150A18;5
S27000;11EH150A18;4
S28000;11EH150A18;6
S15;11GD050A18;10
S27000;11GD050A18;4
S28000;11GD050A18;12
S15;11SD100SH19;11
S27000;11SD100SH19;11
S28000;11SD100SH19;15
S15;15GM065VB20;1
S28000;15GM065VB20;4
S15;15LC250VB3;15
S27000;15LC250VB3;9
S28000;15LC250VB3;22
S15;15SE400VB5;7
S27000;15SE400VB5;4
S28000;15SE400VB5;3
S15;17HI100G19;12
S27000;17HI100G19;4
S28000;17HI100G19;10
S28000;17SH300D15;5
S15;17SH300G21;10
S27000;17SH300G21;20
S28000;17SH300G21;12
S28000;24GP010RJ21H;31
S15;24LC250R20;6
S27000;24LC250R20;22
S28000;24LC250R20;17
S15;24MA030S6;13
S27000;24MA030S6;13
S28000;24MA030S6;17
S15;27MQ065I15A;4
S27000;27MQ065I15A;6
S28000;27MQ065I15A;5
S15;29LC200A20US;25
S27000;29LC200A20US;17
S24000;01CD250F21H;3
S24000;01CP200K17;9
S24000;01HV030K16;3
S24000;01MA030K16;25
S90000;01SA250VE16;1
S24000;01SL300LV20;8
S90000;01SL300LV20;1
S24000;11ET050H20;4
S90000;11LC050H19;30
S24000;15LC250L14;10
S90000;15LC250L14;17
S24000;17AS250E19;2
S24000;17CS150P19;23
S90000;17CS150P19;6
S24000;17SH300FV21;15
S90000;17SH300FV21;12
S24000;17SH500G21;7
S24000;24ET075CB4;9
S24000;24GD250C21;13
S24000;24GD500C18;10
S24000;24MA030P15;10
S90000;24MA030P15;22
S24000;27DS030I20;5
S24000;27HC050I18;4
S90000;27HC050I18;6
S24000;29MA075A21;15
S90000;29MA075A21;12
S24000;38EC015A18;4
S90000;38SM025A19;37
S90000;38WC050A18;35
S90000;49LC020A15;5
S90000;49MA010K20DTS;7
S90000;49PO2RS21;46
S90000;49PO2SA19;30
S24000;52ACRAC21;3
S24000;52AF006G20;64
S90000;52AF006G20;100
S90000;52AS006G18;1
S24000;52AS006G21;271
S90000;52AS006G21;299
S24000;52RIB2NO21;10
S24000;52SMBANO21;126
S24000;98BBSH050A0;28
S90000;98BBSH050A0;10
S24000;01DF200W19H;5
S24000;01EN300KB19;10
S24000;01KTPWP21;20
S24000;01SA250VE20;12
S24000;11BG140SL19;7
S90000;11BG140SL19;9
S90000;11EH040A19;11
S24000;15ET010VB19;7
S24000;15ET100VCL21;7
S28000;29LC200A20US;55
S15;29SE125A21;5
S27000;29SE125A21;8
S28000;29SE125A21;13
S15;38BV050A19;5
S27000;38BV050A19;4
S28000;38BV050A19;6
S15;49LC020A20;7
S27000;49LC020A20;10
S28000;49LC020A20;42
S15;52HD006A18;24
S27000;52HD006A18;251
S28000;52HD006A18;539
S15;52HS001I17;42
S27000;52HS001I17;150
S28000;52HS001I17;235
S15;52HS004A18;30
S27000;52HS004A18;91
S28000;52HS004A18;442
S15;52MMBBNO21;57
S27000;52MMBBNO21;31
S28000;01DF200W19H;8
S27000;01EN300KB19;12
S28000;01EN300KB19;14
S15;01KTPWP21;25
S27000;01KTPWP21;26
S28000;01KTPWP21;17
S15;01SA250VE20;10
S27000;01SA250VE20;6
S28000;01SA250VE20;4
S15;11BG140SL19;9
S27000;11BG140SL19;6
S28000;11BG140SL19;19
S15;15ET010VB19;8
S27000;15ET010VB19;3
S28000;15ET010VB19;7
S27000;15ET100VCL21;5
S28000;15ET100VCL21;8
S15;18ET010TL17;5
S27000;18ET010TL17;8
S28000;18ET010TL17;6
S15;20FE050H20;7
S27000;20FE050H20;4
S28000;20FE050H20;5
S28000;24MA030RV19;15
S15;27DF125I17;12
S27000;27DF125I17;14
S28000;27DF125I17;12
S15;27ER015I20;49
S27000;27ER015I20;31
S28000;27ER015I20;49
S15;27HCR050I16;6
S27000;27HCR050I16;5
S10;01EN300KB19;14
S10;01KTPWP21;25
S10;01SA250VE20;10
S10;11BG140SL19;5
S10;15ET010VB19;9
S10;15ET100VCL21;4
S10;18ET010TL17;7
S10;20FE050H20;4
S10;27DF125I17;12
S10;27ER015I20;28
S10;27HCR050I16;5
S10;27MP150I20;11
S10;27MS050I20;15
S10;29ASH240A20;2
S10;38WC050A21;6
S10;52LASANO21;171
S10;52LT002R21;340
S10;98BBGD050VE2;10
S10;01BL012F21H;12
S10;01CL200K17;8
S10;01CMJ075K21;12
S10;01HN0075K19;7
S10;01SA250LV20;8
S10;11GD250O21;7
S10;11SA050O21;11
S10;11SV080I19;6
S10;15HE005L14;2
S10;15LM300L11;9
S10;15SA070VB6;4
S10;17HI001G19;146
S10;17RS500E20;11
S10;17SE100FV21;11
S10;17SH075E19;26
S10;17SH500FV21;9
S10;20GD250CD20;10
S10;20HR050H20;5
S10;20SA050HC20;7
S10;24GD250R20;14
S10;24LC250C21;11
S10;27ER050I21;11
S10;27FP050I19;6
S10;27TS001I20;290
S10;29BP100A19;5
S10;29MAV075A19;6
S10;38FT200A21;4
S10;49OR005I19;15
S10;52CL0015K18;54
S10;52GIF2NO21;3
S10;52MMBANO21;199
S10;52OR001I19;156
S10;01EM075K20;7
S10;01HD500K20;6
S10;01SA050KV20;9
S10;01SA100LV20;5
S90000;15GD250VA5;1
S90000;17SH075N18;11
S24000;18ET010TL17;7
S24000;20FE050H20;4
S90000;20FE050H20;16
S90000;24MA030RV19;8
S24000;27DF125I17;17
S24000;27ER015I20;52
S24000;27HCR050I16;5
S90000;27HCR050I16;3
S24000;27MP150I20;9
S24000;27MS050I20;3
S90000;27MS050I20;6
S24000;29ASH240A20;3
S24000;38WC050A21;9
S24000;52LASANO21;286
S90000;52LASANO21;60
S24000;52LT002R21;56
S90000;52LT002R21;100
S90000;52MMBYNO19;85
S24000;98BBGD050VE2;10
S24000;01BL012F21H;8
S24000;01CL200K17;8
S24000;01CMJ075K21;18
S24000;01HN0075K19;10
S24000;01SA250LV20;8
S24000;11SA050O21;10
S24000;11SV080I19;5
S24000;15HE005L14;3
S24000;15LM300L11;10
S24000;15SA070VB6;2
S24000;17HI001G19;101
S90000;17HI001G19;100
S24000;17RS500E20;15
S24000;17SE100FV21;8
S24000;17SH075E19;91
S90000;17SH075E19;17
S24000;17SH500FV21;14
S90000;20AR075H16;4
S24000;20GD250CD20;12
S24000;20HR050H20;5
S90000;20HR050H20;9
S24000;20SA050HC20;4
S24000;24GD250R20;13
S90000;24GD250R20;7
S24000;24LC250C21;10
S24000;27ER050I21;9
S24000;27FP050I19;4
S24000;27TS001I20;321
S90000;27TS001I20;236
S24000;29BP100A19;3
S24000;29MAV075A19;7
S24000;38FT200A21;5
S29000;01EN300KB19;18
S29000;01SA250VE20;30
S29000;11BG140SL19;13
S29000;15ET010VB19;4
S29000;15ET100VCL21;11
S29000;18ET010TL17;9
S29000;20FE050H20;5
S29000;24MA030RV19;16
S29000;27DF125I17;43
S29000;27ER015I20;50
S29000;27HCR050I16;25
S29000;27MP150I20;27
S29000;27MS050I20;11
S29000;29ASH240A20;9
S29000;38WC050A21;21
S29000;52LASANO21;363
S29000;52LT002R21;73
S29000;01BL012F21H;22
S29000;01CL200K17;10
S29000;01CMJ075K21;37
S29000;01HN0075K19;16
S29000;01SA250LV20;19
S29000;11SA050O21;15
S29000;11SV080I19;8
S29000;15HE005L14;1
S29000;15LM300L11;13
S29000;15SA070VB6;15
S29000;17HI001G19;247
S29000;17RS500E20;67
S29000;17SE100FV21;10
S29000;17SH075E19;11
S29000;17SH500FV21;20
S29000;20AR075H16;4
S29000;20GD250CD20;10
S29000;20HR050H20;6
S29000;20SA050HC20;6
S29000;24GD250R20;38
S29000;24LC250C21;11
S29000;27ER050I21;19
S29000;27FP050I19;5
S29000;27TS001I20;309
S29000;29BP100A19;13
S29000;29HD075A15;422
S29000;29MAV075A19;5
S29000;38FT200A21;14
S29000;52CL0015K18;6
S29000;52CL0015K21;200
S29000;52GIF2NO21;6
S29000;01EM075K20;10
S29000;01HD500K20;31
S29000;01SA050KV20;3
S29000;01SA100LV20;17
SLM001;01SA250VE20;42
SLM001;18ET010TL17;12
SLM001;20FE050H20;8
SLM001;27DF125I17;12
SLM001;27ER015I20;19
SLM001;27MP150I20;22
SLM001;27MS050I20;41
SLM001;29ASH240A20;19
SLM001;01SA250LV20;56
SLM001;15LM300L11;31
SLM001;17AS500G18;24
SLM001;17RS500E20;24
SLM001;17SE100FV21;18
SLM001;17SH075E19;26
SLM001;17SH500FV21;101
SLM001;20GD250CD20;7
SLM001;27ER050I21;22
SLM001;27TS001I20;432
SLM001;29HD075A15;38
SLM001;49CP004I19;55
SLM001;49DRASA19;27
SLM001;49IC2POU20;16
SLM001;49OR005I19;20
SLM001;49TBOM21;2
SLM001;52OR001I19;1390
SLM001;01HD500K20;13
SLM001;01SA050KV20;8
SLM001;15MA075L11;20
SLM001;15RG500L14;24
SLM001;17SH500P19;103
SLM001;24BL012CB5;13
SLM001;27BP050I19;9
SLM001;49GD008A18;41
SLM001;01PI150K18;25
SLM001;01SA050KL20;8
SLM001;15DF200VBL21;16
SLM001;15GD250L14;33
SLM001;15LC250VA5;8
SLM001;17SH300P19;29
SLM001;24GD250CB4;36
SLM001;27DH030I20;11
SLM001;49BO015CS19;33
SLM001;49GD035CB5;346
SLM001;49MA010L16;68
SLM001;49POUID20;20
SLM001;52DL002I17;9
SLM001;01BM150K19;8
SLM001;01PI075K18;10
SLM001;01RL500K20;27
SLM001;11CD050A18;10
SLM001;15CF150VBL21;15
SLM001;17RC500G21;36
SLM001;17RS500P19;23
S20;01EN300KB19;11
S20;01SA250VE20;19
S20;11BG140SL19;12
S20;15ET010VB19;7
S20;15ET100VCL21;9
S20;18ET010TL17;6
S20;20FE050H20;4
S20;24LC250RJ21H;11
S20;27DF125I17;9
S20;27ER015I20;48
S20;27HCR050I16;3
S20;27MP150I20;9
S20;27MS050I20;11
S20;29ASH240A20;2
S20;38WC050A21;3
S20;52LASANO21;207
S20;52LT002R21;102
S20;98BBGD050VE2;3
S20;01BL012F21H;13
S20;01CL200K17;8
S20;01CMJ075K21;21
S20;01HN0075K19;12
S20;01SA250LV20;15
S20;11SA050O21;15
S20;11SV080I19;8
S20;15HE005L14;3
S20;15LM300L11;9
S20;15SA070VB6;4
S20;17HI001G19;115
S20;17RS500E20;19
S20;17SE100FV21;11
S20;17SH075E19;141
S20;17SH500FV21;13
S20;20GD250CD20;15
S20;20HR050H20;4
S20;20SA050HC20;13
S20;24GD250R20;24
S20;24LC250C21;13
S20;27ER050I21;10
S20;27FP050I19;6
S20;27TS001I20;241
S20;29BP100A19;9
S20;29HD075A15;1
S20;29MAV075A19;9
S20;38FT200A21;6
S20;52CL0015K18;2
S20;52CL0015K21;146
S20;52GIF2NO21;6
S20;52MMBANO21;340
S20;01EM075K20;6
S20;01HD500K20;10
S20;01SA050KV20;8
S20;01SA100LV20;9
S20;11BO100CS19;23
S28000;27HCR050I16;3
S15;27MP150I20;10
S27000;27MP150I20;4
S28000;27MP150I20;11
S15;27MS050I20;13
S27000;27MS050I20;2
S28000;27MS050I20;3
S15;29ASH240A20;7
S27000;29ASH240A20;3
S28000;29ASH240A20;11
S15;38WC050A21;12
S27000;38WC050A21;3
S28000;38WC050A21;8
S15;52LASANO21;354
S27000;52LASANO21;228
S28000;52LASANO21;383
S15;52LT002R21;161
S27000;52LT002R21;325
S28000;52LT002R21;116
S27000;98BBGD050VE2;10
S28000;98BBGD050VE2;9
S27000;24LC250C21;12
S28000;24LC250C21;15
S15;27ER050I21;14
S27000;27ER050I21;9
S28000;27ER050I21;16
S15;27FP050I19;12
S27000;27FP050I19;4
S28000;27FP050I19;1
S15;27TS001I20;301
S27000;27TS001I20;147
S28000;27TS001I20;256
S15;29BP100A19;4
S27000;29BP100A19;4
S28000;29BP100A19;12
S15;29MAV075A19;4
S27000;29MAV075A19;5
S28000;29MAV075A19;6
S15;38FT200A21;6
S27000;38FT200A21;5
S28000;38FT200A21;9
S28000;49EV030I19;1
S28000;49OR005I19;32
S15;52CL0015K18;127
S27000;52CL0015K18;6
S15;52CL0015K21;166
S27000;52CL0015K21;150
S28000;52CL0015K21;63
S15;52GIF2NO21;6
S27000;52GIF2NO21;3
S28000;52GIF2NO21;3
S15;52MMBANO21;137
S27000;52MMBANO21;169
S10;11BO100CS19;14
S10;11EP010H19;8
S10;11GM200I19;12
S10;11SD100SI19;9
S10;15ET100VA20;3
S10;15MA075L11;12
S10;15RG500L14;10
S10;17SH500P19;12
S10;24BL012CB5;2
S10;24EDT10C21;11
S10;29MA030A21X;56
S10;52CCRAC21;3
S10;52EV002I19;3
S10;52GD0015A18;59
S10;52MA003K16A;9
S10;52MIBANO21;215
S10;52MMBPNO21;36
S10;01CV050K18;10
S10;01PI150K18;8
S10;01SA050KL20;8
S10;01SB020K21;21
S10;11BG140CS19;8
S10;11BG140SH19;5
S10;11CM030O21;39
S10;11SD100CS19;13
S10;15GD250L14;12
S10;15KTVER21;15
S10;17SH075G21;26
S10;17SH300P19;10
S10;24ET050R18;5
S10;24GD250CB4;6
S10;27BP050I19;2
S10;27DH030I20;11
S10;49BO015CS19;35
S10;49GD035CB5;4
S10;49POUCH2NO21;2
S10;52DS001I20;134
S10;52MGEBOX18;40
S10;52MGENSA18;65
S10;52MGENSA21;120
S10;52SMSANO21;95
S10;01BM150K19;6
S10;01CL200F21H;12
S10;01EC200K17;5
S10;01HF100K17;4
S10;01LH300KB19;8
S10;01MA150C21H;12
S10;01PI075K18;36
S10;01RL500K20;7
S10;01SL0045K13;10
S10;11CD050A18;6
S10;11ET010H20;10
S10;11GE075I20;6
S10;11LT300I20;12
S10;11MA030A20;10
S29000;11BO100CS19;29
S29000;11EP010H19;9
S29000;11GM200I19;13
S29000;11SD100SI19;12
S29000;15ET100VA20;4
S29000;15RG500L14;38
S29000;17SH500P19;25
S29000;24BL012CB5;10
S29000;24EDT10C21;7
S29000;24GD500R19;3
S29000;27BP050I19;10
S29000;29MA030A21X;42
S29000;52CCRAC21;1
S29000;52EV002I19;100
S29000;52GD0015A18;44
S29000;52MA003K16A;161
S29000;52MMBPNO21;60
S29000;01CL200F21H;8
S29000;01CV050K18;23
S29000;01PI150K18;25
S29000;01SB020K21;13
S29000;11BG140CS19;21
S29000;11CM030O21;37
S29000;11SD100CS19;25
S29000;15DF200VBL21;17
S29000;15GD250L14;30
S29000;15KTVER21;19
S29000;17SH075G21;11
S29000;17SH300P19;18
S29000;24ET050R18;10
S29000;24GD250CB4;38
S29000;27DH030I20;39
S29000;49BO015CS19;188
S29000;49GD035CB5;188
S29000;49MA010L16;23
S29000;52DS001I20;163
S29000;52MGEBOX18;58
S29000;52SMSANO21;966
S29000;01BM150K19;41
S29000;01HF100K17;22
S29000;01LH300KB19;18
S29000;01PI075K18;12
S29000;01RL500K20;52
S29000;01SL0045K13;28
S29000;11CD050A18;20
S29000;11ET010H20;9
S29000;11GE075I20;1
S29000;11LT300I20;16
S29000;11MA030A20;10
S29000;15GD075L15;23
S29000;15GD500VB17;28
S29000;15GM280VB20;5
S29000;17RC500G21;83
S90000;49BI010TL17;87
S90000;49BM010K19;26
S90000;49CL1SA18;174
S24000;49EV030I19;1
S90000;49IC1POU20;164
S90000;49IC3POU20;27
S90000;49TRSOL15;16
S90000;52CARDENV18;3
S24000;52CL0015K21;110
S90000;52CL0015K21;121
S24000;52GIF2NO21;6
S90000;52GIF2NO21;1
S24000;52MMBANO21;72
S24000;01EM075K20;2
S90000;01EM075K20;9
S24000;01HD500K20;11
S24000;01SA050KV20;12
S90000;01SA050KV20;10
S24000;11BO100CS19;3
S24000;11EP010H19;2
S24000;11GM200I19;21
S24000;11SD100SI19;8
S90000;11SD100SI19;14
S24000;15ET100VA20;5
S90000;15ET100VA20;8
S24000;15MA075L11;10
S24000;15RG500L14;5
S90000;17AS250N18;11
S24000;17SH075G18;7
S90000;17SH075G18;11
S24000;17SH500P19;11
S90000;18ET090TL17;1
S24000;24BL012CB5;1
S24000;24EDT10C21;11
S24000;24GD500R19;9
S90000;24VF050R18;14
S24000;29MA030A21X;18
S90000;49AF015G20;160
S90000;49PI010K18;94
S90000;49TOTWC21;192
S24000;52CCRAC21;3
S90000;52COTLTM19;4
S90000;52EV002I19;27
S24000;52GD0015A18;68
S90000;52HCTM21;25
S24000;52MA003K16A;37
S90000;52MA003K16A;128
S24000;52MIBANO21;21
S24000;52MMBPNO21;49
S24000;01CV050K18;10
S24000;01PI150K18;8
S24000;01SA050KL20;12
S24000;01SB020K21;16
S20;11EP010H19;10
S20;11GM200I19;14
S20;11SD100SI19;12
S20;15ET100VA20;6
S20;15MA075L11;27
S20;15RG500L14;22
S20;17SH500P19;9
S20;18ET090TL17;3
S20;24BL012CB5;12
S20;24EDT10C21;8
S20;24ET050RJ21H;13
S20;24GD500R19;18
S20;29MA030A21X;43
S20;52CCRAC21;3
S20;52EV002I19;58
S20;52GD0015A18;77
S20;52MA003K16A;81
S20;52MIBANO21;392
S20;52MMBPNO21;20
S20;01CV050K18;1
S20;01PI150K18;18
S20;01SA050KL20;8
S20;01SB020K21;19
S20;11BG140CS19;13
S20;11BG140SH19;9
S20;11CM030O21;26
S20;11SD100CS19;12
S20;15DF200VBL21;13
S20;15GD250L14;21
S20;15KTVER21;11
S20;15LC250VA5;2
S20;17SH075G21;141
S20;17SH300P19;11
S20;24ET050R18;5
S20;24GD250CB4;6
S20;24MA030RJ21H;8
S20;27BP050I19;4
S20;27DH030I20;15
S20;29CHCHB21;13
S20;49BO015CS19;5
S20;49POUCH2NO21;131
S20;52DS001I20;101
S20;52MGEBOX18;35
S20;52MGENSA21;122
S20;52SMSANO21;431
S20;01BM150K19;21
S20;01CL200F21H;9
S20;01EC200K17;10
S20;01HF100K17;8
S20;01LH300KB19;8
S20;01MA150C21H;11
S20;01PI075K18;4
S20;01RL500K20;16
S20;01SL0045K13;21
S28000;52MMBANO21;274
S15;52MIBANO21;24
S27000;52MIBANO21;173
S28000;52MIBANO21;195
S15;52MMBPNO21;62
S27000;52MMBPNO21;27
S28000;52MMBPNO21;52
S27000;52MGEBOX18;32
S28000;52MGEBOX18;56
S15;52MGENSA21;80
S27000;52MGENSA21;63
S28000;52MGENSA21;84
S15;52SMSANO21;409
S27000;52SMSANO21;179
S28000;52SMSANO21;353
S28000;24BR050C21;13
S15;27DE015I21;7
S27000;27DE015I21;4
S28000;27DE015I21;10
S15;27ER150I21;12
S27000;27ER150I21;13
S28000;27ER150I21;18
S15;27MI150I20;7
S27000;27MI150I20;5
S28000;27MI150I20;7
S27000;27OR030I19;11
S28000;27OR030I19;14
S15;29HD250A21X;32
S27000;29HD250A21X;21
S28000;29HD250A21X;81
S15;29MA030A17;30
S27000;29MA030A17;18
S28000;29MA030A17;38
S15;29SH240A20;11
S27000;29SH240A20;2
S28000;29SH240A20;9
S15;38RC050A18;7
S27000;38RC050A18;4
S28000;38RC050A18;2
S15;38WS030A21;10
S27000;38WS030A21;2
S28000;38WS030A21;9
S15;49ETKAR21;7
S27000;49ETKAR21;5
S15;49ETVER21;7
S27000;49ETVER21;5
S15;49SH035E20;9
S15;49SH035E21;10
S27000;49SH035E21;10
S28000;49SH035E21;20
S15;52CV0015K18;93
S27000;52CV0015K18;187
S28000;52CV0015K18;163
S90000;10BOWEB219;1100
S90000;10BOWEB319;2100
S90000;10BOWEB419;1000
S24000;11BG140CS19;8
S24000;11BG140SH19;7
S24000;11CM030O21;23
S90000;11MW200I19;7
S24000;11SD100CS19;10
S90000;11SD100CS19;6
S24000;15DF200VBL21;31
S24000;15GD250L14;9
S24000;15KTVER21;11
S90000;17AS075FV21;108
S24000;17SH075G21;84
S24000;17SH300P19;10
S24000;24ET050R18;10
S24000;24GD250CB4;8
S24000;27BP050I19;2
S24000;27DH030I20;12
S24000;49BO015CS19;8
S90000;49CM030I19;116
S90000;49DB004I20;30
S90000;49MWC030I19;101
S90000;49POUCB21;6
S24000;49POUCH2NO21;84
S90000;52DL002I17;100
S24000;52DS001I20;20
S90000;52DS001I20;230
S24000;52MGEBOX18;35
S24000;52MGENSA21;107
S24000;52SMSANO21;71
S24000;01BM150K19;12
S24000;01CL200F21H;14
S24000;01EC200K17;4
S24000;01HF100K17;4
S24000;01LH300KB19;6
S24000;01MA150C21H;6
S24000;01PI075K18;7
S90000;01PI075K18;15
S24000;01RL500K20;3
S24000;01SL0045K13;19
S24000;11CD050A18;4
S24000;11ET010H20;2
S90000;11ET010H20;2
S24000;11GE075I20;10
S24000;11LT300I20;6
S24000;11MA030A20;8
S24000;15CF150VBL21;3
S24000;15GD500VB17;3
S90000;15GM280VB20;11
S90000;15LC075L15;7
S24000;17RC500G21;10
S24000;17RS500P19;17
S10;17RC500G21;12
S10;17RS500P19;18
S10;20DO050O20;6
S10;24BR050C21;5
S10;27DE015I21;10
S10;27ER150I21;16
S10;27MI150I20;6
S10;27OR030I19;18
S10;29HD250A21X;35
S10;29MA030A17;23
S10;29SH240A20;5
S10;38RC050A18;6
S10;38WS030A21;5
S10;49ETKAR21;7
S10;49ETVER21;7
S10;49SH035E21;10
S10;52CV0015K18;119
S10;52DE001I21;205
S10;52LGEBAG18;100
S10;52MC006G21;162
S10;52RBO2NO21;4
S10;52RBO3NO21;4
S10;52SH006FV21;199
S10;98BBDF015IM0;26
S10;01CD250F21H;8
S10;01CP200K17;5
S10;01HV030K16;8
S10;01MA030K16;39
S10;01SL300LV20;7
S10;11ET050H20;6
S10;15GM065L20;1
S10;15LC250L14;12
S10;17AS250E19;11
S10;17CS150P19;31
S10;17SH300FV21;8
S10;17SH500G21;13
S10;24ET075CB4;3
S10;24GD500C18;17
S10;24KTCBL21;7
S10;24MA030P15;8
S10;24SA050R18;8
S10;27DS030I20;7
S10;27HC050I18;3
S10;29MA075A21;15
S10;38EC015A18;6
S10;49HD035A15;60
S10;52ACRAC21;3
S10;52AF006G20;44
S10;52AS006G21;366
S10;52RIB2NO21;7
S10;52SMBANO21;361
S10;98BBSH050A0;30
S10;01HDR500K20;7
S10;01LC250F21H;9
S10;01MF030F21H;31
S29000;17RS500P19;45
S29000;20DO050O20;21
S29000;27DE015I21;35
S29000;27ER150I21;30
S29000;27MI150I20;6
S29000;27OR030I19;4
S29000;29HD250A21X;91
S29000;29MA030A17;23
S29000;29SH240A20;12
S29000;38RC050A18;9
S29000;38WS030A21;22
S29000;49ETKAR21;3
S29000;49ETVER21;3
S29000;52CV0015K18;97
S29000;52DE001I21;285
S29000;52MC006G21;169
S29000;52RBO2NO21;1
S29000;52RBO3NO21;1
S29000;52SH006FV21;362
S29000;98BBDF015IM0;11
S29000;01CD250F21H;15
S29000;01CP200K17;32
S29000;01HV030K16;7
S29000;01MA030K16;31
S29000;01SL300LV20;14
S29000;11ET050H20;6
S29000;15GM065L20;12
S29000;15LC250L14;38
S29000;17AS250E19;12
S29000;17CS150P19;22
S29000;17SH300FV21;19
S29000;17SH500G21;23
S29000;24ET075CB4;13
S29000;24GD250C21;5
S29000;24GD500C18;2
S29000;24KTCBL21;18
S29000;24MA030P15;36
S29000;24SA050R18;12
S29000;27DS030I20;9
S29000;27HC050I18;9
S29000;29MA075A21;25
S29000;38EC015A18;12
S29000;52ACRAC21;1
S29000;52AF006G20;175
S29000;52AS006G21;381
S29000;52RIB2NO21;12
S29000;01HDR500K20;47
S29000;01LC250F21H;6
S29000;01MF030F21H;28
S29000;10KTPWPXM21;52
S29000;11EP050H19;5
S29000;11EP090H19;2
S29000;11LC250H19;16
S90000;18GD050TL17ET;6
S24000;20DO050O20;6
S90000;20NV150CD16A;1
S24000;24BR050C21;13
S24000;27DE015I21;10
S24000;27ER150I21;13
S24000;27MI150I20;5
S24000;27OR030I19;23
S90000;29GE200A18;1
S24000;29HD250A21X;18
S24000;29MA030A17;33
S24000;29SH240A20;3
S24000;38RC050A18;10
S24000;38WS030A21;3
S24000;49ETKAR21;7
S24000;49ETVER21;7
S90000;49LC035CB6;21
S90000;49SH035E20;34
S24000;49SH035E21;8
S90000;49SH035E21;160
S24000;52CV0015K18;67
S24000;52DE001I21;85
S90000;52DE001I21;100
S90000;52HR004G17;100
S24000;52MC006G21;92
S90000;52MC006G21;100
S24000;52RBO2NO21;4
S24000;52RBO3NO21;4
S24000;52SH006FV21;193
S90000;52SH006FV21;504
S24000;52YGERIB18;2
S24000;98BBDF015IM0;17
S24000;01HDR500K20;10
S24000;01LC250F21H;8
S24000;01MF030F21H;12
S24000;10KTPWPXM21;9
S24000;11EP050H19;4
S90000;11EP050H19;29
S24000;11EP090H19;4
S24000;11LC250H19;9
S90000;11LC250H19;34
S90000;11LP040028M19;42
S24000;11SD100SL19;5
S90000;11SD100SL19;16
S24000;15DO050VA5;4
S90000;15GD070VB17;13
S24000;15MA030VAL21;12
S90000;17AS075E19;68
S24000;17RC500E20;10
S24000;17RS500FV21;15
S24000;17SH300E19;10
S24000;18LC250TL17ET;14
S90000;18LC250TL17ET;21
S20;11CD050A18;4
S20;11ET010H20;10
S20;11GE075I20;7
S20;11LT300I20;6
S20;11MA030A20;9
S20;15GD500VB17;8
S20;17RC500G21;22
S20;17RS500P19;13
S20;20DO050O20;9
S20;24BR050C21;12
S20;27DE015I21;10
S20;27ER150I21;8
S20;27MI150I20;7
S20;29HD250A21X;13
S20;29MA030A17;30
S20;29SH240A20;4
S20;38RC050A18;4
S20;38WS030A21;8
S20;49ETKAR21;7
S20;49ETVER21;7
S20;49SH035E21;5
S20;52CV0015K18;102
S20;52DE001I21;176
S20;52MC006G21;172
S20;52MIGEBAG19;83
S20;52RBO2NO21;5
S20;52RBO3NO21;5
S20;52SH006FV21;185
S20;98BBDF015IM0;10
S20;01CD250F21H;22
S20;01CP200K17;15
S20;01HV030K16;4
S20;01MA030K16;47
S20;01SL300LV20;7
S20;11ET050H20;8
S20;15GM065L20;15
S20;15LC250L14;15
S20;17AS250E19;7
S20;17CS150P19;30
S20;17SH300FV21;9
S20;17SH500G21;9
S20;24ET075CB4;6
S20;24GD250C21;7
S20;24MA030P15;18
S20;24SA050R18;9
S20;27DS030I20;7
S20;27HC050I18;8
S20;29MA075A21;18
S20;38EC015A18;3
S20;52ACRAC21;3
S20;52AF006G20;86
S20;52AS006G21;194
S20;52RIB2NO21;13
S20;98BBSH050A0;26
S20;01HDR500K20;11
S15;52DE001I21;38
S27000;52DE001I21;87
S28000;52DE001I21;280
S15;52MC006G21;246
S27000;52MC006G21;210
S28000;52MC006G21;354
S15;52MIGEBAG19;13
S27000;52MIGEBAG19;71
S28000;52MIGEBAG19;57
S15;52RBO2NO21;5
S27000;52RBO2NO21;3
S15;52RBO3NO21;5
S27000;52RBO3NO21;3
S15;52SH006FV21;49
S27000;52SH006FV21;208
S28000;52SH006FV21;186
S27000;52YGERIB18;1
S27000;98BBDF015IM0;10
S28000;98BBDF015IM0;21
S15;52ACRAC21;2
S27000;52ACRAC21;2
S15;52AF006G20;72
S27000;52AF006G20;194
S28000;52AF006G20;111
S15;52AS006G18;44
S15;52AS006G21;3
S27000;52AS006G21;264
S28000;52AS006G21;348
S15;52RIB2NO21;12
S27000;52RIB2NO21;7
S28000;52RIB2NO21;15
S15;52SMBANO21;30
S27000;52SMBANO21;334
S28000;52SMBANO21;133
S15;98BBSH050A0;28
S27000;98BBSH050A0;50
S28000;98BBSH050A0;29
S15;29VC240A16;10
S27000;29VC240A16;3
S28000;29VC240A16;8
S27000;49OR005I21;97
S28000;49OR005I21;87
S15;52BY001I19;84
S27000;52BY001I19;196
S28000;52BY001I19;289
S15;52CP0015I19;305
S27000;52CP0015I19;68
S28000;52CP0015I19;344
S15;52LGENSA18;88
S27000;52LGENSA18;80
S28000;52LGENSA18;128
S15;52MS001I20;83
S27000;52MS001I20;80
SLM001;20DO050O20;9
SLM001;27ER150I21;86
SLM001;27OR030I19;84
SLM001;29MA030A17;62
SLM001;29SH240A20;23
SLM001;49LC035CB6;20
SLM001;49SH035E20;67
SLM001;52SH006FV21;265
SLM001;98BBDF015IM0;58
SLM001;01CP200K17;7
SLM001;01MA030K16;44
SLM001;01SL300LV20;14
SLM001;15GM065L20;35
SLM001;15LC250L14;16
SLM001;17AS250E19;32
SLM001;17SH300FV21;28
SLM001;17SH500G21;92
SLM001;24MA030P15;27
SLM001;27DS030I20;15
SLM001;29MA075A21;17
SLM001;49HD035A15;181
SLM001;49LC020A15;38
SLM001;49MA010A17;160
SLM001;49MA010K20DTS;52
SLM001;52AS006G18;290
SLM001;98BBSH035AR2;501
SLM001;01HDR500K20;20
SLM001;17AS075E19;146
SLM001;17RC500E20;27
SLM001;17RS500FV21;21
SLM001;17SH300E19;31
SLM001;20AR075O20;9
SLM001;20GD250HC20;10
SLM001;24MA030CB4;24
SLM001;52BY001I19;117
SLM001;52MS001I20;60
SLM001;01EC200K17;13
SLM001;11GD050A18;14
SLM001;15GM065VB20;41
SLM001;17HI100G19;14
SLM001;17SH300G21;18
SLM001;24MA030S6;20
SLM001;29LC200A20US;51
SLM001;29SH075A20;43
SLM001;49LC020A20;86
SLM001;52HD006A18;914
SLM001;52MMBBNO20;83
SLM001;52SH006P19;200
SLM001;15MA030VBL21;19
SLM001;17AS075P19;22
SLM001;17AS250P19;12
SLM001;17AS500G21;24
SLM001;17SH060SP21;36
S10;10KTPWPXM21;20
S10;11LC250H19;11
S10;11SD100SL19;11
S10;15DO050VA5;7
S10;15ETKAR21;64
S10;15MA030VAL21;19
S10;17RC500E20;29
S10;17RS500FV21;15
S10;17SH300E19;7
S10;18LC250TL17ET;12
S10;20AR075O20;6
S10;20ET075CD20;5
S10;20GD250HC20;12
S10;24MA030CB4;6
S10;24MA030R18;17
S10;24MA075R18;12
S10;27DB015I20;8
S10;27OR030I21;32
S10;29KTAMA21;14
S10;29VC240A16;8
S10;38EV075A18;1
S10;49OR005I21;94
S10;52BY001I19;566
S10;52CP0015I19;419
S10;52LGENSA18;106
S10;52MS001I20;124
S10;52SGEBAG19;454
S10;52SP001I19;258
S10;01BK010K14;12
S10;11EH150A18;4
S10;11GD050A18;5
S10;11SD100SH19;10
S10;15LC250VB3;11
S10;15SE400VB5;4
S10;17HI100G19;7
S10;17SH300G21;21
S10;24GC150C21;4
S10;24LC250R20;11
S10;24MA030S6;16
S10;27MQ065I15A;7
S10;29LC200A20US;25
S10;29SE125A21;8
S10;38BV050A19;6
S10;49LC020A20;63
S10;52HD006A18;266
S10;52HS001I17;135
S10;52HS004A18;265
S10;52MMBBNO21;59
S10;52RBO1NO21;4
S10;52SH006P19;121
S10;01CL300KB20;8
S10;01KTKAR21;8
S10;01PR015R19;7
S10;01SA100VE20;8
S10;11SA100H19;6
S20;01LC250F21H;1
S20;01MF030F21H;30
S20;10KTPWPXM21;13
S20;11EP050H19;4
S20;11LC250H19;15
S20;11SD100SL19;11
S20;15DO050VA5;11
S20;15ETKAR21;60
S20;15MA030VAL21;13
S20;17RC500E20;5
S20;17RS500FV21;13
S20;17SH300E19;10
S20;18LC250TL17ET;13
S20;20AR075O20;9
S20;20ET075CD20;6
S20;20GD250HC20;17
S20;24MA030CB4;23
S20;27DB015I20;11
S20;27OR030I21;28
S20;29KTAMA21;4
S20;29VC240A16;7
S20;49OR005I21;52
S20;52BY001I19;130
S20;52CP0015I19;219
S20;52LGENSA18;144
S20;52MS001I20;119
S20;52SGEBAG19;32
S20;52SP001I19;160
S20;01BK010K14;13
S20;01MA150K21H;8
S20;11EH150A18;8
S20;11GD050A18;6
S20;11SD100SH19;10
S20;15GM065VB20;8
S20;15LC250VB3;12
S20;15SE400VB5;5
S20;17HI100G19;9
S20;17SH300G21;15
S20;24GP010RJ21H;16
S20;24LC250R20;14
S20;24MA030S6;17
S20;27MQ065I15A;4
S20;29LC200A20US;26
S20;29SE125A21;8
S20;38BV050A19;3
S20;49LC020A20;6
S20;52HD006A18;353
S20;52HS001I17;106
S20;52HS004A18;124
S20;52MMBBNO21;36
S20;52RBO1NO21;5
S20;52SH006P19;113
S20;01CL300KB20;10
S20;01KTKAR21;8
S24000;20AR075O20;8
S90000;20AR075O20;1
S24000;20ET075CD20;7
S90000;20ET075CD20;4
S24000;20GD250HC20;9
S24000;24MA030CB4;21
S24000;27DB015I20;11
S24000;27OR030I21;14
S24000;29KTAMA21;2
S24000;29VC240A16;11
S90000;29VC240A16;11
S90000;49DH004I17;51
S90000;49MASKNO21;84
S24000;49OR005I21;106
S90000;49OR005I21;102
S90000;49TOTMC20;117
S24000;52BY001I19;282
S24000;52CP0015I19;284
S24000;52LGENSA18;97
S24000;52MS001I20;253
S90000;52MS001I20;378
S24000;52SGEBAG19;196
S24000;52SP001I19;133
S90000;52SP001I19;203
S24000;01BK010K14;11
S24000;11EH150A18;3
S24000;11GD050A18;2
S90000;11GD050H19;12
S24000;11SD100SH19;8
S90000;11SD100SH19;4
S90000;15CC150VA19;4
S24000;15LC250VB3;11
S24000;15SE400VB5;4
S24000;17HI100G19;6
S90000;17RC500N18;1
S24000;17SH300G21;12
S90000;17SH300G21;26
S24000;24LC250R20;16
S24000;24MA030S6;15
S90000;24MA030S6;12
S24000;27MQ065I15A;6
S24000;29LC200A20US;21
S24000;29SE125A21;6
S90000;29SH075A20;7
S24000;38BV050A19;2
S90000;38WS030A18;22
S90000;49BF2NO20;1
S24000;49LC020A20;7
S24000;52HD006A18;327
S24000;52HS001I17;136
S24000;52HS004A18;204
S24000;52MMBBNO21;33
S24000;52RBO1NO21;4
S29000;11SD100SL19;11
S29000;15DO050VA5;20
S29000;15MA030VAL21;2
S29000;17RC500E20;61
S29000;17RS500FV21;70
S29000;17SH300E19;18
S29000;18LC250TL17ET;28
S29000;20AR075O20;22
S29000;20ET075CD20;8
S29000;20GD250HC20;18
S29000;24MA030CB4;44
S29000;27DB015I20;32
S29000;27OR030I21;23
S29000;29VC240A16;31
S29000;49OR005I21;131
S29000;52BY001I19;245
S29000;52CP0015I19;250
S29000;52MS001I20;133
S29000;52SP001I19;103
S29000;01BK010K14;6
S29000;11EH150A18;13
S29000;11GD050A18;18
S29000;11SD100SH19;15
S29000;15GM065VB20;11
S29000;15LC250VB3;21
S29000;15SE400VB5;7
S29000;17HI100G19;27
S29000;17SH300G21;21
S29000;24LC250R20;24
S29000;24MA030S6;38
S29000;27MQ065I15A;10
S29000;29LC200A20US;25
S29000;29SE125A21;7
S29000;38BV050A19;5
S29000;49LC020A20;422
S29000;52HD006A18;350
S29000;52HS001I17;197
S29000;52HS004A18;225
S29000;52MMBBNO21;60
S29000;52RBO1NO21;1
S29000;52SH006P19;253
S29000;01CL300KB20;13
S29000;01KTKAR21;32
S29000;01PR015R19;12
S29000;01SA100VE20;26
S29000;11SA100H19;23
S29000;15GC150VBL20;4
S29000;15RG500VA20;49
S29000;17AS250P19;3
S29000;17AS500G21;24
S29000;17SH060SP21;7
S29000;17SH500E19;9
S29000;17VI100P19;23
S28000;52MS001I20;276
S15;52SGEBAG19;45
S27000;52SGEBAG19;257
S28000;52SGEBAG19;563
S15;52SP001I19;131
S27000;52SP001I19;250
S28000;52SP001I19;208
S28000;52MMBBNO21;77
S15;52RBO1NO21;5
S27000;52RBO1NO21;3
S15;52SH006P19;344
S27000;52SH006P19;349
S28000;52SH006P19;339
S15;01CL300KB20;11
S27000;01CL300KB20;4
S28000;01CL300KB20;11
S15;01KTKAR21;3
S27000;01KTKAR21;6
S28000;01KTKAR21;7
S15;01PR015R19;9
S27000;01PR015R19;7
S28000;01PR015R19;11
S15;01SA100VE20;10
S27000;01SA100VE20;8
S28000;01SA100VE20;4
S15;11SA100H19;12
S27000;11SA100H19;5
S28000;11SA100H19;13
S28000;15GC150VBL20;4
S27000;15RG500VA20;7
S28000;15RG500VA20;5
S15;17AS250P19;9
S27000;17AS250P19;4
S28000;17AS250P19;5
S15;17AS500G21;15
S27000;17AS500G21;10
S28000;17AS500G21;11
S15;17SH060SP21;9
S27000;17SH060SP21;10
S28000;17SH060SP21;9
S15;17SH500E19;13
S27000;17SH500E19;10
S28000;17SH500E19;19
S15;17VI100P19;7
S27000;17VI100P19;4
S28000;17VI100P19;9
S27000;20NV150H20;10
S28000;20NV150H20;7
S15;24BR050R19;13
S27000;24BR050R19;2
S28000;24BR050R19;11
S15;24SA050CB6;14
S27000;24SA050CB6;3
S90000;52SH006N18;101
S24000;52SH006P19;170
S24000;01CL300KB20;8
S90000;01EM075K18;1
S24000;01KTKAR21;10
S24000;01PR015R19;6
S90000;01PR015R19;2
S24000;11SA100H19;2
S90000;11SA100H19;11
S24000;12GD250NO1;5
S90000;15ET100VM20H;1
S90000;15LC070VB5;69
S90000;15MA030VBL21;1
S24000;15RG500VA20;8
S90000;17AS075P19;107
S24000;17AS250P19;5
S90000;17AS250P19;20
S24000;17AS500G21;9
S24000;17SH060SP21;8
S90000;17SH060SP21;4
S24000;17SH500E19;14
S24000;17VI100P19;4
S90000;20ET075CD19;7
S24000;20NV150H20;5
S24000;24BR050R19;11
S90000;24LC250R18;2
S24000;27OR075I21;1
S24000;38WM065A18;4
S90000;49CRM1NO20;2
S90000;49DH004I20;482
S90000;49P2DTS19;14
S90000;49PADCL20;101
S90000;49TF2CH19;35
S90000;49TFACH18;30
S24000;52CARDNO21;8
S90000;52CARDNO21;2
S24000;52FP0015I19;77
S90000;52FP0015I19;100
S90000;98BBSA050LT1;30
S24000;01BP050K21;7
S24000;01CL125C21H;3
S24000;01SA250LT20;6
S24000;01SL300VE20;4
S90000;01SL300VE20;7
S24000;11BC100G21;48
S24000;11CM030H20;18
S90000;11CM030H20;7
S24000;11ET010O21;12
S90000;11GN040A19;88
S24000;11LD200I19;10
S24000;11SA100H20;4
S24000;15AS250VA18;3
S24000;15GD250VA20;8
S10;17AS075P19;8
S10;17AS250P19;4
S10;17AS500G21;10
S10;17SH060SP21;10
S10;17SH500E19;13
S10;17VI100P19;7
S10;20NV150H20;1
S10;24BR050R19;6
S10;24SA050CB6;10
S10;27OR075I21;10
S10;38WM065A18;4
S10;52CARDNO21;8
S10;52FP0015I19;152
S10;98BBSA050LT1;22
S10;01BL012K21H;11
S10;01BP050K21;9
S10;01SA250LT20;8
S10;01SL300VE20;8
S10;11BC100G21;51
S10;11CM030H20;16
S10;11ET010O21;16
S10;11LD200I19;8
S10;11SA100H20;4
S10;11SP200CS19;10
S10;15AS250VA18;10
S10;15GD250VA20;10
S10;15GG150VAL21;22
S10;15MA030VA5;9
S10;17AS250G18;9
S10;17AS500FV21;10
S10;18ET050TL17;4
S10;18SA075TL17ET;2
S10;20DO075CD20;8
S10;20ET075OC20;4
S10;20GD250OC20;13
S10;24LC250CB4;7
S10;24MA030RA19;8
S10;27BY015I19;8
S10;27SP030I19;10
S10;49POURE18;34
S10;52MGEBAG19;155
S10;52OR001I21;339
S10;52RC0015A18;109
S10;52TS001R21;219
S10;01HD250K17;5
S10;01LC250K17;18
S10;01LT300K20;7
S10;01MF150F21H;10
S10;11BP100I19;6
S10;11BR100A20;6
S10;11LC250H20;11
S10;15ETVER21;54
S10;17AS250FV21;3
S10;17DO050F13;8
S20;01PR015R19;8
S20;01SA100VE20;22
S20;11SA100H19;9
S20;15RG500VA20;13
S20;17AS250P19;7
S20;17AS500G21;7
S20;17SH060SP21;10
S20;17SH500E19;16
S20;17VI100P19;8
S20;20NV150H20;10
S20;24BR050R19;15
S20;24SA050CB6;10
S20;27OR075I21;34
S20;38WM065A18;5
S20;49CRM1NO21;1
S20;52CARDNO21;4
S20;52FP0015I19;1
S20;01BL012K21H;14
S20;01BP050K21;9
S20;01CL125C21H;19
S20;01SA250LT20;17
S20;01SL300VE20;10
S20;11BC100G21;34
S20;11CM030H20;26
S20;11ET010O21;6
S20;11LD200I19;12
S20;11SA100H20;6
S20;11SP200CS19;11
S20;15AS250VA18;7
S20;15GD250VA20;20
S20;15GG150VAL21;37
S20;15MA030VA5;21
S20;17AS250G18;8
S20;17AS500FV21;9
S20;18ET050TL17;5
S20;18SA075TL17ET;7
S20;20DO075CD20;10
S20;20ET075OC20;7
S20;20GD250OC20;16
S20;24LC250CB4;13
S20;24MA030RA19;12
S20;27BY015I19;4
S20;27SP030I19;8
S20;49POURE18;36
S20;52MGEBAG19;136
S20;52OR001I21;621
S20;52TS001R21;96
S20;01HD250K17;9
S20;01LC250K17;22
S20;01LT300K20;5
S20;01MF150F21H;18
S20;11BP100I19;6
S20;11BR100A20;8
S20;11GD250O21;21
S29000;20NV150H20;15
S29000;24BR050R19;24
S29000;24SA050CB6;28
S29000;27OR075I21;105
S29000;38WM065A18;6
S29000;49CRM1NO21;369
S29000;52CARDNO21;8
S29000;52FP0015I19;57
S29000;01BL012K21H;21
S29000;01BP050K21;17
S29000;01CL125C21H;1
S29000;01SA250LT20;19
S29000;01SL300VE20;16
S29000;11BC100G21;30
S29000;11CM030H20;29
S29000;11ET010O21;12
S29000;11LD200I19;14
S29000;11SA100H20;18
S29000;11SP200CS19;24
S29000;15AS250VA18;12
S29000;15GD250VA20;18
S29000;15GG150VAL21;29
S29000;15MA030VA5;16
S29000;17AS250G18;9
S29000;17AS500FV21;4
S29000;17SH300G18;3
S29000;18ET050TL17;2
S29000;18SA075TL17ET;8
S29000;20DO075CD20;12
S29000;20ET075OC20;7
S29000;20GD250OC20;8
S29000;24LC250CB4;32
S29000;24MA030RA19;22
S29000;27BY015I19;12
S29000;27SP030I19;12
S29000;49MA010CB4;188
S29000;49POURE18;40
S29000;52AS006FV21;240
S29000;52OR001I21;448
S29000;52TS001R21;104
S29000;01HD250K17;12
S29000;01LC250K17;39
S29000;01LT300K20;21
S29000;11BP100I19;8
S29000;11BR100A20;17
S29000;11GD250O21;45
S29000;11LC250H20;24
S29000;15ET100VAL21;3
S29000;17AS250FV21;10
S29000;17DO050F13;26
S29000;17SH060SE21;11
S29000;18GD250TL17ET;30
S24000;15GG150VAL21;39
S90000;15LC250VBL20;1
S24000;15MA030VA5;12
S90000;15MA030VA5;16
S90000;17AS075N18;10
S24000;17AS250G18;3
S24000;17AS500FV21;9
S24000;17SH300G18;2
S90000;18ET050TL17;1
S24000;20DO075CD20;7
S24000;20ET075OC20;4
S24000;20GD250OC20;7
S24000;24LC250CB4;13
S24000;24MA030RA19;11
S90000;24MA030RA19;3
S24000;27BY015I19;7
S24000;27SP030I19;4
S90000;27SP030I19;5
S90000;49BP010K19;20
S90000;49CP008I19;32
S24000;49POURE18;21
S90000;49TOBACH20;131
S24000;52AS006FV21;213
S90000;52AS006FV21;317
S24000;52MGEBAG19;1
S90000;52MGEBAG19;100
S24000;52OR001I21;457
S24000;52TS001R21;136
S90000;52TS001R21;100
S90000;01CM030K21;3
S24000;01HD250K17;1
S24000;01LC250K17;15
S24000;01LT300K20;11
S24000;01MF150F21H;6
S24000;11BP100I19;5
S90000;11BP100I19;8
S24000;11BR100A20;6
S24000;11GD250O21;15
S24000;11LC250H20;14
S24000;17AS250FV21;9
S24000;17DO050F13;6
S24000;17SH060SE21;6
S24000;18GD250TL17ET;11
S90000;18GD250TL17ET;9
S24000;24GD250C20;8
S24000;27OR050I21;22
S24000;29GE200A21;16
S24000;29RH500A15;9
S90000;49MS008I20;159
S24000;52AS006P19;167
S24000;52CP006K17;40
S24000;52DB001I20;185
S90000;52DB001I20;157
S28000;24SA050CB6;13
S15;27OR075I21;12
S27000;27OR075I21;16
S28000;27OR075I21;26
S15;38WM065A18;6
S27000;38WM065A18;4
S28000;38WM065A18;4
S15;52CARDNO21;5
S27000;52CARDNO21;8
S28000;52CARDNO21;10
S15;52FP0015I19;28
S27000;52FP0015I19;136
S28000;52FP0015I19;103
S28000;52TWIST20;1
S15;98BBSA050LT1;10
S28000;98BBSA050LT1;1
S28000;20ET075OC20;2
S15;20GD250OC20;5
S27000;20GD250OC20;5
S28000;20GD250OC20;10
S15;24LC250CB4;15
S27000;24LC250CB4;23
S28000;24LC250CB4;27
S15;24MA030RA19;10
S27000;24MA030RA19;7
S28000;24MA030RA19;17
S15;27BY015I19;4
S27000;27BY015I19;4
S28000;27BY015I19;12
S15;27SP030I19;7
S27000;27SP030I19;5
S28000;27SP030I19;5
S15;49POURE18;56
S27000;49POURE18;43
S28000;49POURE18;42
S27000;52AS006FV21;245
S28000;52AS006FV21;330
S15;52MGEBAG19;14
S27000;52MGEBAG19;107
S28000;52MGEBAG19;182
S28000;52MOCOL216;1
S15;52OR001I21;551
S27000;52OR001I21;521
S28000;52OR001I21;588
S15;52TS001R21;79
S27000;52TS001R21;181
S28000;52TS001R21;184
S28000;52DB001I20;539
S15;52DCRAC21;2
S27000;52DCRAC21;2
S15;52DH001I20;387
S27000;52DH001I20;193
S28000;52DH001I20;490
SLM001;17SH500E19;285
SLM001;17VI100P19;13
SLM001;20NV150H20;8
SLM001;49CRM1NO19;33
SLM001;49MA010VB3;26
SLM001;49POURS20;17
SLM001;49POURS21;25
SLM001;01SA250LT20;43
SLM001;01SL300VE20;14
SLM001;15MA030VA5;13
SLM001;17AS250G18;17
SLM001;17AS500FV21;31
SLM001;17SH300G18;13
SLM001;20DO075CD20;7
SLM001;20GD250OC20;9
SLM001;24LC250CB4;40
SLM001;27SP030I19;14
SLM001;29LC100A20;99
SLM001;49MA010CB4;47
SLM001;49TLDTS17;10
SLM001;49TOBAGSA20;12
SLM001;52AS006FV21;264
SLM001;01HD250K17;15
SLM001;01LC250K17;32
SLM001;01LT300K20;17
SLM001;17AS075FV21;80
SLM001;17AS250FV21;26
SLM001;17SH060SE21;36
SLM001;29GE200A21;29
SLM001;29LC200A14US;1
SLM001;29RH500A15;288
SLM001;49PASSSA19;16
SLM001;49TOWVE18;26
SLM001;52CP006K17;112
SLM001;52DH001I20;616
SLM001;J6185;269
SLM001;JIMCP16;119
SLM001;01PI030K18;10
SLM001;17AS075G21;80
SLM001;17AS500E19;20
SLM001;17AS500P19;11
SLM001;20DO130HC20;11
SLM001;27DC030I20;10
SLM001;27DH015I20;46
SLM001;29ASH075A20;35
SLM001;29MA075A19;7
SLM001;49BAGVE18;38
SLM001;49LT030R21;40
SLM001;52DC0015I20;27
SLM001;52LC006A18;430
SLM001;52LC006A20;720
SLM001;52SH006E19;1200
SLM001;98BBAS035AR3;230
S20;11LC250H20;18
S20;15ETVER21;45
S20;17AS250FV21;3
S20;17DO050F13;8
S20;17SH060SE21;9
S20;18GD250TL17ET;23
S20;24GD250C20;2
S20;27OR050I21;18
S20;29GE200A21;13
S20;29RH500A15;27
S20;52AS006P19;84
S20;52CP006K17;100
S20;52DB001I20;155
S20;52DCRAC21;3
S20;52DH001I20;276
S20;52LABANO21;81
S20;52PS0015R21;79
S20;98BBHD050A0;4
S20;01BM050K19;3
S20;01BV050K16;9
S20;01LC500K20;11
S20;01MA030C21H;33
S20;01MR030K14;26
S20;01PI030K18;7
S20;10QCRAC21;59
S20;11CM125I19;13
S20;11LH200I19;13
S20;11PM100SI19;7
S20;15CP250VA5;5
S20;15LC250VA20;12
S20;17AS500E19;9
S20;17AS500P19;7
S20;20DO130HC20;6
S20;20SA050O20;11
S20;24MA075R18;24
S20;24RO010CB4;8
S20;27DC030I20;6
S20;27DH015I20;8
S20;52BGERIB18;1
S20;52DC0015I20;331
S20;52LC006A20;295
S20;52LGEBAG19;79
S20;52LGEBOX18;10
S20;52MMBYNO21;7
S20;52SH006E19;150
S20;52SMBBNO21;36
S20;01BL012C21H;21
S20;01CMR500K20;13
S20;01MA150K18;33
S20;01SL500VE20;6
S20;11CM030H19;28
S20;11ET075O21;7
S20;11FAG10TR19;8
S20;11PM100SH19;8
S20;11SP200SL19;10
S10;17SH060SE21;10
S10;18GD250TL17ET;12
S10;27OR050I21;34
S10;29CHALM21;1
S10;29GE200A21;7
S10;29RH500A15;16
S10;49MS008I20;54
S10;52AS006P19;133
S10;52CP006K17;17
S10;52DB001I20;176
S10;52DCRAC21;3
S10;52DH001I20;301
S10;52LABANO21;13
S10;52PS0015R21;43
S10;98BBHD050A0;62
S10;01BM050K19;13
S10;01BV050K16;6
S10;01LC500K20;13
S10;01MA030C21H;32
S10;01MR030K14;15
S10;01PI030K18;8
S10;11CM125I19;5
S10;11LH200I19;7
S10;11PM100SI19;7
S10;15LC250VA20;12
S10;17AS500E19;3
S10;17AS500P19;7
S10;20DO130HC20;8
S10;20SA050O20;5
S10;24RO010CB4;7
S10;27DC030I20;4
S10;27DH015I20;11
S10;29HD500A21X;19
S10;38ST016A18;1
S10;49CRM2NO21;12
S10;52DC0015I20;129
S10;52LC006A20;264
S10;52LGEBOX18;9
S10;52MMBYNO21;34
S10;52SH006E19;289
S10;52SMBBNO21;52
S10;01BL012C21H;26
S10;01CMR500K20;10
S10;01MA150K18;2
S10;01SL500VE20;6
S10;11CM030H19;11
S10;11ET075O21;9
S10;11FAG10TR19;10
S10;11PM100SH19;4
S10;11SP200SL19;2
S10;15ET100VA5;1
S10;15GN300L11;8
S10;15MA030VB3;6
S10;15MA075VB4;8
S10;15RG500VA20;11
S29000;27OR050I21;38
S29000;29GE200A21;31
S29000;29RH500A15;97
S29000;52AS006P19;132
S29000;52CP006K17;172
S29000;52DB001I20;321
S29000;52DCRAC21;1
S29000;52DH001I20;252
S29000;52LABANO21;4
S29000;52PS0015R21;174
S29000;01BM050K19;8
S29000;01BV050K16;17
S29000;01LC500K20;20
S29000;01MA030C21H;49
S29000;01MR030K14;25
S29000;01PI030K18;15
S29000;10QCRAC21;43
S29000;11CM125I19;20
S29000;11LH200I19;17
S29000;11PM100SI19;7
S29000;15CP250VA5;2
S29000;15LC250VA20;16
S29000;15MF075VM20H;16
S29000;17AS500E19;15
S29000;17AS500P19;15
S29000;20DO130HC20;2
S29000;20SA050O20;2
S29000;24MA075R18;30
S29000;24RO010CB4;17
S29000;27DC030I20;8
S29000;27DH015I20;30
S29000;29HD500A21X;15
S29000;52DC0015I20;313
S29000;52LC006A20;345
S29000;52LGEBOX18;4
S29000;52MMBYNO21;34
S29000;52SH006E19;420
S29000;52SMBBNO21;10
S29000;01BL012C21H;40
S29000;01CMR500K20;26
S29000;01MA150K18;48
S29000;01SL500VE20;23
S29000;11CM030H19;29
S29000;11ET075O21;8
S29000;11FAG10TR19;13
S29000;11PM100SH19;9
S29000;11SP200SL19;22
S29000;15GN300L11;15
S29000;15MA030VB3;25
S29000;15MA075VB4;26
S29000;17RS500G21;88
S29000;24GM030C21;6
S29000;24MA030R18;42
S15;52LABANO21;36
S27000;52LABANO21;35
S28000;52LABANO21;260
S15;52PS0015R21;80
S27000;52PS0015R21;162
S28000;52PS0015R21;253
S15;98BBHD050A0;29
S27000;98BBHD050A0;20
S28000;98BBHD050A0;17
S28000;27DH015I20;12
S15;29HD500A21X;21
S27000;29HD500A21X;3
S28000;29HD500A21X;10
S27000;38ST016A18;2
S15;49CRM2NO21;30
S27000;49CRM2NO21;6
S15;52BGERIB18;1
S27000;52BGERIB18;3
S28000;52BGERIB18;3
S15;52DC0015I20;289
S27000;52DC0015I20;377
S28000;52DC0015I20;336
S15;52LC006A20;19
S27000;52LC006A20;288
S28000;52LC006A20;112
S15;52LGEBAG19;22
S27000;52LGEBAG19;114
S28000;52LGEBAG19;77
S15;52LGEBOX18;9
S27000;52LGEBOX18;10
S28000;52LGEBOX18;10
S15;52MMBYNO21;34
S27000;52MMBYNO21;14
S28000;52MMBYNO21;50
S15;52SH006E19;180
S27000;52SH006E19;83
S28000;52SH006E19;208
S15;52SMBBNO21;81
S27000;52SMBBNO21;40
S28000;52SMBBNO21;66
S15;29HS100A21;12
S27000;29HS100A21;8
S28000;29HS100A21;17
S15;52AS006FV21;36
S15;52HV001K18;15
S15;52MOCOL316;3
S27000;52MOCOL316;4
S28000;52MOCOL316;6
S15;52SH006G21;144
S27000;52SH006G21;227
S28000;52SH006G21;345
S15;98BBMA010KA3;7
S15;27EV200I19;10
S24000;52DCRAC21;3
S24000;52DH001I20;265
S24000;52LABANO21;29
S24000;52PS0015R21;84
S90000;52PS0015R21;100
S24000;98BBHD050A0;18
S90000;J6185;13
S90000;JIMPN16;61
S24000;01BM050K19;3
S90000;01CL200K21;1
S24000;01LC500K20;8
S24000;01MA030C21H;2
S24000;01MR030K14;20
S24000;01PI030K18;8
S24000;10QCRAC21;14
S24000;11CM125I19;13
S24000;11LH200I19;10
S24000;11PM100SI19;4
S90000;11PM100SI19;4
S24000;15CP250VA5;4
S24000;15LC250VA20;10
S90000;15LC250VA20;12
S90000;17AS075G18;112
S90000;17AS075G21;69
S24000;17AS500E19;8
S24000;17AS500P19;4
S90000;17SE125D15;23
S90000;20AR075CD16A;3
S24000;20DO130HC20;7
S24000;20SA050O20;4
S90000;24LC075CB5;11
S24000;24MA075R18;10
S90000;24MA075R18;11
S24000;24RO010CB4;9
S24000;27DC030I20;4
S24000;27DH015I20;10
S90000;27KTFCAPAC20;1
S24000;29HD500A21X;17
S90000;29MA075A19;1
S90000;38ST016A18;7
S24000;49CRM2NO21;5
S90000;49LT030R21;9
S90000;49MR010K14;52
S90000;49VANSA19;32
S24000;52BGERIB18;2
S90000;52BGERIB18;2
S24000;52DC0015I20;219
S24000;52LC006A20;50
S24000;52LGEBAG19;28
S24000;52LGEBOX18;10
S24000;52MMBYNO21;25
S24000;52SH006E19;177
S24000;52SMBBNO21;55
S24000;01BL012C21H;19
S24000;01CMR500K20;7
S24000;01MA150K18;8
S24000;01RC300KB20;3
S24000;01SL500VE20;4
S24000;11CM030H19;11
S24000;11ET075O21;8
S24000;11FAG10TR19;8
S90000;11PM100DE20H;1
S24000;11PM100SH19;4
S24000;11SP200SL19;9
S90000;15ET100VA5;1
S24000;15GN300L11;7
S24000;15MA030VB3;10
S90000;15MA030VB3;14
S24000;15MA075VB4;7
S90000;15MA075VB4;1
S24000;17MC200G18;2
S24000;17RS500G21;11
S90000;17SH075FV21;25
S24000;24GM030C21;17
S24000;24MA030R18;25
S24000;24MA075CB4;22
S24000;24MA150R19;8
S90000;27DH030I17A;1
S90000;29BP100A18;1
S24000;29EC200A21;11
S24000;29EC200A21X;25
S24000;29HS100A21;15
S90000;38FT200A18;20
S90000;49DC008I20;17
S90000;49ET007CB4;45
S90000;49FCROL21;7
S90000;49TC1NO20;20
S24000;52HV001K18;2
S24000;52MOCOL316;7
S90000;52MOCOL316;20
S24000;52SH006G21;229
S90000;52SH006G21;542
S90000;52TBO1M21;42
S90000;52TBO2M21;37
S24000;98BBMA010KA3;8
S24000;01BL012K18;3
S24000;01CL050K21;2
S24000;01CM500K20;5
S24000;01RV500K20;5
S24000;01SA100LT20;2
S90000;01SA100LT20;1
S24000;01SE125K21;6
S24000;01SL500LV20;2
S24000;11CF100TR19;11
S90000;11CF100TR19;40
S24000;11GN195A18;12
S29000;24MA075CB4;47
S29000;24MA150R19;1
S29000;29EC200A21;25
S29000;29EC200A21X;26
S29000;29HS100A21;32
S29000;52HV001K18;14
S29000;52MOCOL316;4
S29000;52SH006G21;384
S29000;01BL012K18;15
S29000;01CL050K21;15
S29000;01CM500K20;31
S29000;01MA030K21H;3
S29000;01RV500K20;52
S29000;01SA100LT20;25
S29000;01SE125K21;6
S29000;01SL500LV20;23
S29000;11CF100TR19;14
S29000;11GN195A18;25
S29000;11LC250O21;47
S29000;11PM100SL19;6
S29000;15MA030L11;32
S29000;15MA030VCL21;32
S29000;15RC500VB17;72
S29000;17AS250G21;16
S29000;17RC500P19;36
S29000;20ET075HC20;11
S29000;24AF050R18;2
S29000;24BR050CB6;25
S29000;27CP050I19;25
S29000;27EV200I19;29
S29000;27HS030I18;9
S29000;27RM300I20;35
S29000;29HD250A15;22
S29000;38EV075A18;11
S29000;38MI150A18;6
S29000;49CAB1NO21;41
S29000;49TCMNO21;18
S29000;52AS006E19;372
S29000;52CD0015A18;34
S29000;52ER002I21;359
S29000;52RIB1NO21;9
S29000;52SMBPNO21;14
S29000;01CM300K20;10
S29000;01LC250K21H;31
S29000;01MA075K18;28
S29000;11BG140SH19;5
S29000;11BG140SI19;19
S29000;11MWC200I19;11
S29000;11PEP050I20;6
S29000;11SP200SI19;10
S29000;15AS150VCL21;7
S29000;15ET100VB3;10
S29000;15GD250VB17;16
S10;17RS500G21;16
S10;24GM030C21;8
S10;24MA075CB4;4
S10;24MA150R19;6
S10;29EC200A13;6
S10;29EC200A21;13
S10;29EC200A21X;21
S10;29HS100A21;14
S10;52AS006FV21;217
S10;52MOCOL316;3
S10;52SH006G21;519
S10;01BL012K18;12
S10;01CL050K21;5
S10;01CM500K20;3
S10;01MA030K21H;2
S10;01RV500K20;12
S10;01SA100LT20;7
S10;01SE125K21;5
S10;01SL500LV20;4
S10;11CF100TR19;15
S10;11GN195A18;11
S10;11LC250O21;14
S10;11PM100SL19;4
S10;15MA030L11;9
S10;15MA030VCL21;20
S10;17AS250G21;17
S10;17RC500P19;4
S10;20ET075HC20;4
S10;24AF050R18;6
S10;24BR050CB6;7
S10;24GD500R19;8
S10;27CP050I19;7
S10;27EV200I19;9
S10;27HS030I18;6
S10;27RM300I20;4
S10;29HD250A15;14
S10;38MI150A18;8
S10;49LD030I20;1
S10;49TCMNO21;11
S10;52AS006E19;91
S10;52CD0015A18;196
S10;52ER002I21;549
S10;52RIB1NO21;7
S10;52SMBPNO21;26
S10;01CM300K20;6
S10;01LC250K21H;18
S10;01MA075K18;21
S10;11BG140SI19;6
S10;11MWC200I19;5
S10;11PEP050I20;8
S10;11SP200SI19;5
S10;15AS150VCL21;3
S10;15ET100VB3;3
S10;15GD250VB17;3
S20;15GN300L11;15
S20;15MA030VB3;20
S20;15MA075VB4;24
S20;17RS500G21;33
S20;24GM030C21;12
S20;24MA030R18;34
S20;24MA075CB4;16
S20;24MA150R19;15
S20;29EC200A21;13
S20;29EC200A21X;24
S20;29HS100A21;17
S20;52AS006FV21;169
S20;52HV001K18;38
S20;52MOCOL316;4
S20;52SH006G21;257
S20;98BBMA010KA3;5
S20;01BL012K18;15
S20;01CL050K21;3
S20;01CM500K20;9
S20;01MA030K21H;1
S20;01RV500K20;19
S20;01SA100LT20;16
S20;01SE125K21;2
S20;01SL500LV20;2
S20;11CF100TR19;21
S20;11GN195A18;15
S20;11LC250O21;13
S20;11PM100SL19;11
S20;15MA030L11;23
S20;15MA030VCL21;20
S20;15RC500VB17;8
S20;17AS250G21;12
S20;17RC500P19;6
S20;20ET075HC20;4
S20;24BR050CB6;15
S20;27CP050I19;9
S20;27EV200I19;9
S20;27HS030I18;7
S20;27RM300I20;16
S20;29HD250A15;30
S20;38MI150A18;4
S20;49TCMNO21;6
S20;52AS006E19;101
S20;52CD0015A18;77
S20;52ER002I21;270
S20;52RIB1NO21;13
S20;52SMBPNO21;23
S20;01CM300K20;10
S20;01LC250K21H;19
S20;01MA075K18;28
S20;11BG140SI19;14
S20;11MWC200I19;4
S20;11PEP050I20;9
S20;11SP200SI19;10
S24000;11LC250O21;14
S90000;11LC250O21;21
S24000;11PM100SL19;5
S90000;11PM100SL19;1
S24000;15MA030L11;2
S24000;15MA030VCL21;32
S90000;15MA030VCL21;41
S24000;15RC500VB17;4
S24000;17AS250G21;11
S90000;17AS250G21;5
S24000;17RC500P19;6
S24000;20ET075HC20;6
S24000;24BR050CB6;10
S90000;24BR050CB6;9
S24000;27CP050I19;9
S24000;27EV200I19;5
S24000;27HS030I18;5
S90000;27HS030I18;4
S24000;27RM300I20;8
S24000;29HD250A15;24
S24000;38EV075A18;8
S24000;38MI150A18;10
S90000;49EP005TL17ET;9
S90000;49HD035K19H;8
S90000;49MA010R18;142
S90000;49MASKRS21;29
S90000;49PO2HER20;22
S24000;52AS006E19;185
S24000;52CD0015A18;90
S24000;52ER002I21;312
S24000;52RIB1NO21;10
S24000;52SMBPNO21;28
S24000;01CM300K20;5
S24000;01LC250K21H;9
S24000;01MA075K18;25
S90000;11BG140SH19;15
S24000;11BG140SI19;8
S90000;11GD050H20;1
S24000;11MWC200I19;3
S24000;11PEP050I20;3
S24000;11SP200SI19;1
S24000;15AS150VCL21;9
S24000;15ET100VB3;7
S24000;15GD250VB17;6
S24000;15SH250VA20;8
S24000;17ER075P19;2
S24000;17MC200G21;8
S24000;17SH060SG21;9
S90000;17SH060SG21;5
S24000;18BI030TL17ET;14
S24000;20MP030H20;4
S24000;20SA050CD20;4
S27000;27EV200I19;9
S28000;27EV200I19;13
S15;27HS030I18;6
S27000;27HS030I18;7
S28000;27HS030I18;6
S15;27RM300I20;12
S27000;27RM300I20;8
S28000;27RM300I20;12
S15;29HD250A15;23
S27000;29HD250A15;17
S28000;29HD250A15;30
S15;38EV075A18;10
S27000;38EV075A18;3
S28000;38EV075A18;9
S15;38MI150A18;6
S27000;38MI150A18;4
S28000;38MI150A18;6
S27000;49CAB1NO21;1
S28000;49TCMNO21;14
S27000;52AS006E19;196
S28000;52AS006E19;160
S15;52CD0015A18;4
S27000;52CD0015A18;144
S28000;52CD0015A18;138
S15;52ER002I21;158
S27000;52ER002I21;534
S28000;52ER002I21;493
S15;52RIB1NO21;12
S27000;52RIB1NO21;7
S28000;52RIB1NO21;15
S15;52SMBPNO21;80
S27000;52SMBPNO21;23
S28000;52SMBPNO21;95
S27000;27DC050I20;19
S28000;27DC050I20;10
S15;27DL200I20;12
S27000;27DL200I20;5
S28000;27DL200I20;13
S15;27MP050I20;46
S27000;27MP050I20;27
S28000;27MP050I20;6
S15;29LC200A21X;16
S27000;29LC200A21X;18
S28000;29LC200A21X;33
S15;29RC200A20;7
S27000;29RC200A20;2
S28000;29RC200A20;27
S15;38UV030A18;11
S27000;38UV030A18;7
S28000;38UV030A18;11
S15;49DC004I20;10
S27000;49DC004I20;9
S28000;49DC004I20;7
S21000;01EN300KB19;12
S21000;11BG140SL19;17
S21000;15ET010VB19;5
S21000;15ET100VCL21;5
S21000;18ET010TL17;8
S21000;20FE050H20;4
S21000;27DF125I17;10
S21000;27ER015I20;37
S21000;27HCR050I16;3
S21000;27MP150I20;11
S21000;27MS050I20;4
S21000;29ASH240A20;6
S21000;38WC050A21;16
S21000;52LASANO21;45
S21000;52LT002R21;251
S21000;98BBGD050VE2;8
S21000;01BL012F21H;12
S21000;01CL200K17;12
S21000;01CMJ075K21;22
S21000;01HN0075K19;8
S21000;01SA250LV20;3
S21000;11SA050O21;7
S21000;11SV080I19;4
S21000;15HE005L14;4
S21000;15LM300L11;7
S21000;15SA070VB6;3
S21000;17HI001G19;113
S21000;17RS500E20;28
S21000;17SE100FV21;7
S21000;17SH075E19;15
S21000;17SH500FV21;7
S21000;20GD250CD20;9
S21000;20HR050H20;4
S21000;20SA050HC20;4
S21000;24GD250R20;26
S21000;24LC250C21;12
S21000;27ER050I21;12
S21000;27FP050I19;9
S21000;27TS001I20;303
S21000;29BP100A19;3
S21000;29MAV075A19;4
S21000;38FT200A21;8
S21000;49OR005I19;18
S21000;52CL0015K21;118
S21000;52GIF2NO21;6
S21000;52MMBANO21;232
S21000;01EM075K20;6
S21000;01HD500K20;6
S21000;01SA050KV20;9
S21000;01SA100LV20;18
S21000;11BO100CS19;25
S21000;11EP010H19;6
S21000;11GM200I19;10
S21000;11SD100SI19;6
S21000;15ET100VA20;4
S21000;15MA075L11;5
S21000;15RG500L14;12
S21000;17SH500P19;7
S21000;18ET090TL17;1
S21000;24BL012CB5;8
S21000;24EDT10C21;11
S21000;24GD500R19;6
S21000;29MA030A21X;35
S21000;52CCRAC21;2
S21000;52GD0015A18;64
S21000;52MA003K16A;10
S21000;52MIBANO21;192
S21000;52MMBPNO21;28
S21000;01CV050K18;4
S21000;01PI150K18;7
S21000;01SA050KL20;4
S21000;01SB020K21;15
S21000;11BG140CS19;19
S21000;11BG140SH19;13
S21000;11CM030O21;16
S21000;11SD100CS19;18
S21000;15DF200VBL21;17
S21000;15GD250L14;14
S21000;15KTVER21;9
S21000;17SH075G21;15
S21000;17SH300P19;9
S21000;24ET050R18;5
S21000;24GD250CB4;25
S21000;27BP050I19;3
S21000;27DH030I20;11
S21000;49BO015CS19;26
S21000;49GD035CB5;36
S21000;49POUCH2NO21;3
S21000;52DS001I20;124
S21000;52MGEBOX18;41
S21000;52MGENSA21;69
S21000;52SMSANO21;232
S21000;01BM150K19;10
S21000;01CL200F21H;12
S21000;01EC200K17;6
S21000;01HF100K17;4
S21000;01LH300KB19;8
S21000;01MA150C21H;20
S21000;01PI075K18;7
S21000;01RL500K20;20
S21000;01SL0045K13;7
S21000;11CD050A18;7
S21000;11ET010H20;7
S21000;11GE075I20;1
S21000;11LT300I20;4
S21000;11MA030A20;15
S21000;15GD500VB17;3
S21000;15GM280VB20;3
S21000;17RC500G21;9
S21000;17RS500P19;6
S21000;20DO050O20;7
S21000;24BR050C21;11
S21000;27DE015I21;7
S21000;27ER150I21;23
S21000;27MI150I20;7
S21000;27OR030I19;8
S21000;29HD250A21X;26
S21000;29MA030A17;16
S21000;29SH240A20;5
S21000;38RC050A18;7
S21000;38WS030A21;5
S21000;49ETKAR21;6
S21000;49ETVER21;6
S21000;49SH035E21;10
S21000;52CV0015K18;32
S21000;52DE001I21;182
S21000;52MC006G21;185
S21000;52MIGEBAG19;244
S21000;52RBO2NO21;2
S21000;52RBO3NO21;2
S21000;52SH006FV21;120
S21000;98BBDF015IM0;34
S21000;01CD250F21H;9
S21000;01CP200K17;16
S21000;01HV030K16;5
S21000;01MA030K16;130
S21000;01SL300LV20;6
S21000;11ET050H20;6
S21000;15LC250L14;11
S21000;17AS250E19;2
S21000;17CS150P19;15
S21000;17SH300FV21;11
S21000;17SH500G21;15
S21000;24ET075CB4;4
S21000;24GD250C21;10
S21000;24GD500C18;3
S21000;24KTCBL21;7
S21000;24MA030P15;9
S21000;24SA050R18;3
S21000;27DS030I20;4
S21000;27HC050I18;5
S21000;29MA075A21;10
S21000;38EC015A18;5
S21000;52ACRAC21;2
S21000;52AF006G20;104
S21000;52AS006G21;123
S21000;52RIB2NO21;10
S21000;52SMBANO21;50
S21000;98BBSH050A0;26
S21000;01HDR500K20;7
S21000;01LC250F21H;12
S21000;01MF030F21H;19
S21000;10KTPWPXM21;12
S21000;11EP050H19;1
S21000;11LC250H19;18
S21000;11SD100SL19;15
S21000;15DO050VA5;7
S21000;15ETKAR21;49
S21000;15MA030VAL21;9
S21000;17RC500E20;19
S21000;17RS500FV21;24
S21000;17SH300E19;9
S21000;18LC250TL17ET;11
S21000;20AR075O20;6
S21000;20ET075CD20;4
S21000;20GD250HC20;9
S21000;24MA030CB4;4
S21000;27DB015I20;6
S21000;27OR030I21;51
S21000;29KTAMA21;7
S21000;29VC240A16;5
S21000;52BY001I19;101
S21000;52CP0015I19;100
S21000;52LGENSA18;104
S21000;52MS001I20;156
S21000;52SGEBAG19;543
S21000;52SP001I19;118
S21000;01BK010K14;2
S21000;11EH150A18;5
S21000;11GD050A18;3
S21000;11SD100SH19;16
S21000;15LC250VB3;14
S21000;15SE400VB5;4
S21000;17HI100G19;10
S21000;17SH300G21;20
S21000;24LC250R20;24
S21000;24MA030S6;11
S21000;27MQ065I15A;3
S21000;29LC200A20US;20
S21000;29SE125A21;9
S21000;38BV050A19;4
S21000;49LC020A20;48
S21000;52HD006A18;5
S21000;52HS001I17;201
S21000;52HS004A18;175
S21000;52MMBBNO21;49
S21000;52RBO1NO21;2
S21000;52SH006P19;174
S21000;01CL300KB20;8
S21000;01KTKAR21;4
S21000;01PR015R19;14
S21000;01SA100VE20;16
S21000;11SA100H19;4
S21000;15RG500VA20;24
S21000;17AS250P19;6
S21000;17AS500G21;10
S21000;17SH060SP21;10
S21000;17SH500E19;18
S21000;17VI100P19;4
S21000;20NV150H20;8
S21000;24BR050R19;3
S21000;24SA050CB6;7
S21000;27OR075I21;12
S21000;38WM065A18;5
S21000;52CARDNO21;8
S21000;52FP0015I19;57
S21000;98BBSA050LT1;27
S21000;01BL012K21H;13
S21000;01BP050K21;6
S21000;01CL125C21H;13
S21000;01SL300VE20;4
S21000;11BC100G21;48
S21000;11CM030H20;15
S21000;11ET010O21;12
S21000;11LD200I19;8
S21000;11SA100H20;5
S21000;11SP200CS19;14
S21000;15AS250VA18;4
S21000;15GD250VA20;12
S21000;15GG150VAL21;37
S21000;15MA030VA5;8
S21000;17AS500FV21;7
S21000;18ET050TL17;6
S21000;20DO075CD20;7
S21000;20ET075OC20;4
S21000;20GD250OC20;9
S21000;24LC250CB4;24
S21000;24MA030RA19;4
S21000;27BY015I19;3
S21000;27SP030I19;6
S21000;49POURE18;30
S21000;52MGEBAG19;94
S21000;52OR001I21;566
S21000;52TS001R21;140
S21000;01HD250K17;7
S21000;01LC250K17;13
S21000;01LT300K20;5
S21000;01MF150F21H;14
S21000;11BP100I19;6
S21000;11BR100A20;17
S21000;11GD250O21;14
S21000;11LC250H20;12
S21000;15ETVER21;18
S21000;17AS250FV21;4
S21000;17DO050F13;8
S21000;17SH060SE21;10
S21000;18GD250TL17ET;15
S21000;24GD250C20;4
S21000;27OR050I21;51
S21000;29GE200A21;8
S21000;29RH500A15;13
S21000;49MS008I20;49
S21000;52AS006P19;95
S21000;52CP006K17;26
S21000;52DB001I20;128
S21000;52DCRAC21;2
S21000;52DH001I20;174
S21000;52LABANO21;32
S21000;52PS0015R21;115
S21000;98BBHD050A0;26
S21000;01BM050K19;5
S21000;01BV050K16;5
S21000;01LC500K20;8
S21000;01MA030C21H;22
S21000;01MR030K14;68
S21000;01PI030K18;8
S21000;10QCRAC21;21
S21000;11CM125I19;15
S21000;11LH200I19;8
S21000;11PM100SI19;6
S21000;15CP250VA5;3
S21000;15LC250VA20;8
S21000;17AS500E19;18
S21000;17AS500P19;4
S21000;20DO130HC20;7
S21000;20SA050O20;4
S21000;24MA075R18;22
S21000;24RO010CB4;10
S21000;27DC030I20;7
S21000;27DH015I20;5
S21000;29HD500A21X;27
S21000;52DC0015I20;4
S21000;52LC006A20;7
S21000;52LGEBAG19;29
S21000;52LGEBOX18;10
S21000;52MMBYNO21;22
S21000;52SH006E19;122
S21000;52SMBBNO21;31
S21000;01BL012C21H;20
S21000;01CMR500K20;10
S21000;01MA150K18;9
S21000;01SL500VE20;6
S21000;11CM030H19;11
S21000;11ET075O21;8
S21000;11FAG10TR19;5
S21000;11PM100SH19;4
S21000;11SP200SL19;12
S21000;15GN300L11;5
S21000;15MA030VB3;6
S21000;15MA075VB4;24
S21000;17RS500G21;27
S21000;24GM030C21;18
S21000;24MA030R18;11
S21000;24MA075CB4;17
S21000;24MA150R19;5
S21000;29EC200A13;5
S21000;29EC200A21;13
S21000;29EC200A21X;23
S21000;29HS100A21;6
S21000;52AS006FV21;109
S21000;52MOCOL316;5
S21000;52SH006G21;138
S21000;98BBMA010KA3;52
S21000;01BL012K18;11
S21000;01CL050K21;3
S21000;01CM500K20;5
S21000;01RV500K20;22
S21000;01SA100LT20;17
S21000;01SE125K21;4
S21000;01SL500LV20;4
S21000;11CF100TR19;12
S21000;11GN195A18;9
S21000;11LC250O21;21
S21000;11PM100SL19;3
S21000;15MA030L11;9
S21000;15MA030VCL21;29
S21000;15RC500VB17;25
S21000;17AS250G21;7
S21000;17RC500P19;4
S21000;20ET075HC20;7
S21000;24AF050R18;5
S21000;24BR050CB6;8
S21000;27CP050I19;7
S21000;27EV200I19;8
S21000;27HS030I18;5
S21000;27RM300I20;15
S21000;29HD250A15;16
S21000;38EV075A18;2
S21000;38MI150A18;4
S21000;52AS006E19;245
S21000;52CD0015A18;127
S21000;52ER002I21;212
S21000;52RIB1NO21;10
S21000;52SMBPNO21;33
S21000;01CM300K20;8
S21000;01LC250K21H;14
S21000;01MA075K18;12
S21000;11BG140SI19;13
S21000;11MWC200I19;4
S21000;11PEP050I20;4
S21000;11SP200SI19;13
S15;52BCRAC21;2
S27000;52BCRAC21;2
S15;52DF002I17;135
S27000;52DF002I17;111
S28000;52DF002I17;270
S15;52MMSANO21;234
S27000;52MMSANO21;121
S28000;52MMSANO21;158
S27000;52SAMPENV18;108
S28000;52SAMPENV18;527
S15;52STINO21;10
S27000;52STINO21;9
S28000;52STINO21;16
S15;01HN075C21H;10
S28000;01HN075C21H;2
S15;01HN075K21H;8
S27000;01HN075K21H;9
S15;11BH050A18;10
S27000;11BH050A18;6
S28000;11BH050A18;6
S15;11GD250H19;6
S27000;11GD250H19;30
S28000;11GD250H19;24
S15;11GD250H20;7
S27000;11GD250H20;21
S15;11MH075A19;7
S27000;11MH075A19;4
S28000;11MH075A19;5
S15;11SP200SH19;10
S27000;11SP200SH19;4
S28000;11SP200SH19;4
S15;15BA500L16A;15
S27000;15BA500L16A;10
S28000;15BA500L16A;7
S28000;15CL150VM20H;4
S15;17AF100G20;10
S27000;17AF100G20;13
S28000;17AF100G20;19
S27000;24EF050R18;6
S28000;24EF050R18;3
S15;24MA030RV19;12
S27000;24MA030RV19;4
S15;24RO010R18;5
S27000;24RO010R18;5
S28000;24RO010R18;12
S15;27DCB060I17;6
S27000;27DCB060I17;5
S28000;27DCB060I17;4
S15;27HSR030I16;3
S27000;27HSR030I16;5
S28000;27HSR030I16;5
S15;29HD500A15;42
S27000;29HD500A15;19
S24000;24MA030RE19;17
S90000;24MA030RE19;9
S24000;24MA075P15;9
S90000;24MA075P15;15
S24000;27DC050I20;12
S90000;27DE015I13US;14
S24000;27DL200I20;5
S24000;27MP050I20;37
S24000;29LC200A21X;3
S24000;29RC200A20;18
S24000;38UV030A18;7
S90000;49CO1NO19;5
S24000;49DC004I20;9
S90000;49EP005H20;48
S90000;49ET010V13;13
S90000;49PFCWC21;90
S24000;52BCRAC21;3
S24000;52DF002I17;186
S90000;52DF002I17;11
S24000;52MMSANO21;149
S90000;52MMSANO21;120
S24000;52STINO21;9
S90000;52STINO21;1
S90000;01BL012B20H;1
S24000;01HN075C21H;6
S24000;01HN075K21H;6
S24000;11BH050A18;5
S24000;11GD250H19;14
S24000;11GD250H20;14
S24000;11MH075A19;3
S24000;11SP200SH19;7
S24000;15BA500L16A;9
S90000;15ET100VBL21;1
S24000;17AF100G20;10
S90000;18LC050TL17ET;2
S24000;24EF050R18;1
S90000;24GD075R18;32
S90000;24GD075R20;3
S24000;24MA030RV19;13
S24000;24RO010R18;8
S90000;24SACHB20;3
S24000;27DCB060I17;6
S90000;27DCB060I17;2
S24000;27HSR030I16;3
S90000;27HSR030I16;4
S24000;29HD500A15;24
S24000;29SA050A17;8
S24000;49CHALM21;7
S24000;49CHCHB21;7
S90000;49DRANO19;17
S90000;49HS015A18;6
S90000;49POCB19;1
S24000;52ER006P19;45
S28000;29HD500A15;49
S15;29SA050A17;7
S27000;29SA050A17;7
S28000;29SA050A17;13
S27000;49BOTNO21;7
S15;49CHALM21;7
S27000;49CHALM21;5
S15;49CHCHB21;7
S27000;49CHCHB21;5
S15;52GIF1NO21;6
S27000;52GIF1NO21;3
S28000;52GIF1NO21;3
S15;52SGENSA18;104
S27000;52SGENSA18;306
S28000;52SGENSA18;335
S15;SGOCVKI00176;10
S15;SGOCVKI00177;146
S27000;SGOCVKI00177;89
S28000;SGOCVKI00177;121
S15;SGOCVKI00179;23
S27000;SGOCVKI00179;10
S15;SGOCVKI00180;32
S27000;SGOCVKI00180;31
S28000;SGOCVKI00180;55
S15;SGOCVKI00181;89
S27000;SGOCVKI00181;42
S28000;SGOCVKI00181;59
S15;SGOCVKI00182;46
S27000;SGOCVKI00182;21
S28000;SGOCVKI00182;56
S15;SGOCVKI00183;70
S27000;SGOCVKI00183;31
S28000;SGOCVKI00183;49
S15;SGOCVKI00184;34
S27000;SGOCVKI00184;8
S28000;SGOCVKI00184;25
S15;SGOCVKI00185;30
S28000;SGOCVKI00185;2
S15;SGOCVKI00186;46
S27000;SGOCVKI00186;19
S28000;SGOCVKI00186;33
S15;SGOCVKI00187;47
S27000;SGOCVKI00187;13
S28000;SGOCVKI00187;8
S15;SGOCVKI00188;19
S27000;SGOCVKI00188;4
S28000;SGOCVKI00188;3
S15;SGOCVKI00189;44
S27000;SGOCVKI00189;20
S28000;SGOCVKI00189;33
S15;SGOCVKI00190;19
S27000;SGOCVKI00190;17
S28000;SGOCVKI00190;17
S20;15AS150VCL21;10
S20;15ET100VB3;2
S20;15GD250VB17;19
S20;15SH250VA20;10
S20;17ER075P19;4
S20;17MC200G21;9
S20;17SH060SG21;9
S20;18BI030TL17ET;28
S20;20MP030H20;3
S20;20SA050CD20;15
S20;24MA030RE19;13
S20;24MA075P15;21
S20;27DC050I20;13
S20;27DL200I20;3
S20;27MP050I20;3
S20;29LC200A21X;8
S20;29RC200A20;27
S20;38UV030A18;7
S20;49DC004I20;10
S20;52BCRAC21;3
S20;52DF002I17;234
S20;52MMSANO21;31
S20;52STINO21;11
S20;01HN075C21H;2
S20;01HN075K21H;9
S20;11BH050A18;10
S20;11GD250H19;22
S20;11GD250H20;25
S20;11MH075A19;7
S20;11SP200SH19;8
S20;15BA500L16A;12
S20;17AF100G20;9
S20;24EF050R18;5
S20;24MA030RV19;13
S20;24RO010R18;3
S20;27DCB060I17;7
S20;27HSR030I16;5
S20;29HD500A15;33
S20;29SA050A17;10
S20;49CHALM21;7
S20;49CHCHB21;7
S20;52GIF1NO21;6
S20;52SGENSA18;215
S20;SGOCVKI00175;2
S20;SGOCVKI00176;19
S20;SGOCVKI00177;88
S20;SGOCVKI00179;10
S20;SGOCVKI00180;28
S20;SGOCVKI00181;59
S20;SGOCVKI00182;46
S20;SGOCVKI00183;41
S20;SGOCVKI00184;16
S20;SGOCVKI00185;14
S20;SGOCVKI00186;23
SLM001;01CMR500K20;27
SLM001;01MA150K18;44
SLM001;01SL500VE20;17
SLM001;15GN300L11;22
SLM001;15MA030VB3;13
SLM001;17MC200G18;14
SLM001;17RS500G21;36
SLM001;17SH075FV21;120
SLM001;24GD075CB5;40
SLM001;24MA075CB4;13
SLM001;27TS050I20;1
SLM001;29EC200A13;21
SLM001;29HS100A21;30
SLM001;49PO3MD19;26
SLM001;52MOCOL316;5
SLM001;52SH006G18;333
SLM001;52SH006G21;1200
SLM001;01BL012K18;12
SLM001;01CM500K20;22
SLM001;01RV500K20;31
SLM001;01SL500LV20;12
SLM001;11GN195A18;16
SLM001;15MA030L11;32
SLM001;17AS250G21;18
SLM001;17RC500P19;50
SLM001;17SH500G18;20
SLM001;27CP050I19;15
SLM001;27EV200I19;15
SLM001;27RM300I20;21
SLM001;29HD250A15;24
SLM001;49MA010K16;469
SLM001;49SACCH19;22
SLM001;52AS006E19;689
SLM001;52ER002I21;1300
SLM001;01CM300K20;10
SLM001;01MA075K18;22
SLM001;17ER075P19;13
SLM001;17MC200G21;20
SLM001;17SH060SG21;31
SLM001;24BR050CB6;12
SLM001;24MA075P15;14
SLM001;27DE015I13US;13
SLM001;27MP050I20;40
SLM001;29RC200A20;158
SLM001;52DF002I17;9
SLM001;17RC500G18;21
SLM001;17RS500G19;23
SLM001;29HD500A15;211
SLM001;49CP020K18;14
SLM001;49DH004I20;8
SLM001;49HS015A18;23
SLM001;49OR005I18;50
SLM001;49POUIS19;31
S00;27CN050I14;2
S20;SGOCVKI00187;17
S20;SGOCVKI00188;11
S20;SGOCVKI00189;14
S20;SGOCVKI00190;13
S20;SGOCVKI00191;22
S20;SGOCVKI00192;14
S20;SGOCVKI00193;3
S20;SGOCVKI00195;8
S20;SGOCVKI00196;4
S20;SGOCVKI00198;4
S20;SGOCVKI00199;8
S20;SGOCVKI00200;16
S20;SGOCVKI00201;13
S20;SGOCVKI00202;41
S20;SGOCVKI00203;14
S15;SGOCVKI00191;48
S27000;SGOCVKI00191;21
S28000;SGOCVKI00191;41
S15;SGOCVKI00192;11
S27000;SGOCVKI00192;6
S28000;SGOCVKI00192;1
S15;SGOCVKI00193;27
S27000;SGOCVKI00193;1
S28000;SGOCVKI00193;12
S15;SGOCVKI00194;11
S28000;SGOCVKI00194;8
S15;SGOCVKI00195;7
S28000;SGOCVKI00195;5
S15;SGOCVKI00196;1
S27000;SGOCVKI00196;6
S28000;SGOCVKI00196;4
S27000;SGOCVKI00197;4
S15;SGOCVKI00198;6
S27000;SGOCVKI00198;6
S28000;SGOCVKI00198;14
S15;SGOCVKI00199;5
S15;SGOCVKI00200;10
S27000;SGOCVKI00200;27
S28000;SGOCVKI00200;14
S15;SGOCVKI00201;31
S27000;SGOCVKI00201;10
S28000;SGOCVKI00201;33
S15;SGOCVKI00202;57
S27000;SGOCVKI00202;20
S28000;SGOCVKI00202;68
S15;SGOCVKI00203;22
S27000;SGOCVKI00203;1
S28000;SGOCVKI00203;25
SLM001;SGOCVE700011;60
SLM001;SGOCVE700013;6
S24000;52GIF1NO21;6
S90000;52GIF1NO21;1
S24000;52SGENSA18;109
S90000;98BBSH050AR2;86
S90000;SGOCVKI00137;1
S90000;SGOCVKI00138;2
S90000;SGOCVKI00157;5
S24000;SGOCVKI00175;5
S24000;SGOCVKI00177;88
S90000;SGOCVKI00177;83
S90000;SGOCVKI00178;12
S90000;SGOCVKI00179;19
S24000;SGOCVKI00180;6
S24000;SGOCVKI00181;53
S90000;SGOCVKI00181;136
S24000;SGOCVKI00182;12
S24000;SGOCVKI00183;41
S24000;SGOCVKI00184;5
S90000;SGOCVKI00184;12
S24000;SGOCVKI00186;7
S90000;SGOCVKI00189;10
S24000;SGOCVKI00190;14
S24000;SGOCVKI00191;5
S24000;SGOCVKI00192;5
S24000;SGOCVKI00193;6
S24000;SGOCVKI00194;10
S24000;SGOCVKI00195;4
S24000;SGOCVKI00196;8
S24000;SGOCVKI00198;5
S24000;SGOCVKI00200;7
S24000;SGOCVKI00201;16
S24000;SGOCVKI00202;37
S24000;SGOCVKI00203;11
S90000;SGOCVKI00205;19
S29000;15SH250VA20;11
S29000;17ER075P19;26
S29000;17MC200G21;39
S29000;17SH060SG21;19
S29000;18BI030TL17ET;32
S29000;20MP030H20;1
S29000;20SA050CD20;9
S29000;24MA030RE19;15
S29000;24MA075P15;26
S29000;27DC050I20;26
S29000;27DL200I20;20
S29000;29LC200A21X;61
S29000;29RC200A20;94
S29000;38UV030A18;11
S29000;52BCRAC21;1
S29000;52DF002I17;328
S29000;52MMSANO21;605
S29000;52STINO21;15
S29000;01HN075C21H;17
S29000;01HN075K21H;12
S29000;11BH050A18;15
S29000;11GD250H19;23
S29000;11GD250H20;24
S29000;11MH075A19;15
S29000;11SP200SH19;22
S29000;15BA500L16A;22
S29000;17AF100G20;25
S29000;24EF050R18;2
S29000;24RO010R18;1
S29000;27DCB060I17;6
S29000;27HSR030I16;32
S29000;29HD500A15;52
S29000;29SA050A17;21
S29000;49BOTNO21;103
S29000;49CHALM21;3
S29000;49CHCHB21;3
S29000;49DISC3NO21;53
S29000;49POUIS19;23
S29000;52GIF1NO21;6
S29000;52SGENSA18;72
S29000;SGOCVKI00176;3
S29000;SGOCVKI00177;146
S29000;SGOCVKI00179;1
S29000;SGOCVKI00180;64
S29000;SGOCVKI00181;60
S29000;SGOCVKI00182;24
S29000;SGOCVKI00183;78
S29000;SGOCVKI00184;32
S29000;SGOCVKI00185;49
S29000;SGOCVKI00186;99
S29000;SGOCVKI00187;38
S29000;SGOCVKI00188;14
S10;15SH250VA20;11
S10;17ER075P19;7
S10;17MC200G21;10
S10;17SH060SG21;10
S10;18BI030TL17ET;17
S10;20MP030H20;5
S10;20SA050CD20;7
S10;24MA030RE19;7
S10;24MA075P15;8
S10;27DC050I20;9
S10;27DL200I20;4
S10;27MP050I20;45
S10;29LC200A21X;21
S10;29RC200A20;10
S10;38UV030A18;8
S10;49DC004I20;11
S10;52BCRAC21;3
S10;52DF002I17;319
S10;52MMSANO21;141
S10;52SAMPENV18;200
S10;52STINO21;6
S10;01HN075C21H;8
S10;01HN075K21H;8
S10;11BH050A18;5
S10;11GD250H19;10
S10;11GD250H20;11
S10;11MH075A19;5
S10;15BA500L16A;7
S10;17AF100G20;9
S10;24EF050R18;7
S10;24MA030RV19;9
S10;24RO010R18;4
S10;27DCB060I17;4
S10;27HSR030I16;4
S10;29HD500A15;22
S10;29SA050A17;2
S10;49CHALM21;7
S10;49CHCHB21;7
S10;49DISC3NO21;1
S10;52GIF1NO21;3
S10;52SGENSA18;197
S10;SGOCVE600004;1
S10;SGOCVKI00176;1
S10;SGOCVKI00177;100
S10;SGOCVKI00179;5
S10;SGOCVKI00180;30
S10;SGOCVKI00181;73
S10;SGOCVKI00182;41
S10;SGOCVKI00183;23
S10;SGOCVKI00184;17
S10;SGOCVKI00185;16
S10;SGOCVKI00186;31
S10;SGOCVKI00187;8
S10;SGOCVKI00188;17
S21000;15AS150VCL21;10
S21000;15GD250VB17;11
S21000;15SH250VA20;2
S21000;17ER075P19;4
S21000;17MC200G21;10
S21000;17SH060SG21;10
S21000;18BI030TL17ET;13
S21000;20MP030H20;4
S21000;20SA050CD20;4
S21000;24MA030RE19;6
S21000;24MA075P15;7
S21000;27DC050I20;8
S21000;27DL200I20;5
S21000;29LC200A21X;14
S21000;29RC200A20;8
S21000;38UV030A18;8
S21000;49DC004I20;11
S21000;52BCRAC21;2
S21000;52DF002I17;196
S21000;52MMSANO21;34
S21000;52SAMPENV18;29
S21000;52STINO21;9
S21000;01HN075C21H;2
S21000;01HN075K21H;1
S21000;11BH050A18;5
S21000;11GD250H19;19
S21000;11GD250H20;16
S21000;11MH075A19;4
S21000;11SP200SH19;11
S21000;15BA500L16A;6
S21000;17AF100G20;7
S21000;24EF050R18;3
S21000;24MA030RV19;6
S21000;24RO010R18;5
S21000;27DCB060I17;4
S21000;27HSR030I16;3
S21000;29HD500A15;20
S21000;29SA050A17;3
S21000;49CHALM21;6
S21000;49CHCHB21;6
S21000;52GIF1NO21;6
S21000;52SGENSA18;271
S21000;SGOCVKI00177;60
S21000;SGOCVKI00179;5
S21000;SGOCVKI00180;12
S21000;SGOCVKI00181;51
S21000;SGOCVKI00182;8
S21000;SGOCVKI00183;36
S21000;SGOCVKI00184;9
S21000;SGOCVKI00185;1
S21000;SGOCVKI00186;16
S21000;SGOCVKI00187;21
S10;SGOCVKI00189;13
S10;SGOCVKI00190;20
S10;SGOCVKI00191;19
S10;SGOCVKI00192;10
S10;SGOCVKI00193;4
S10;SGOCVKI00194;7
S10;SGOCVKI00195;7
S10;SGOCVKI00196;3
S10;SGOCVKI00197;5
S10;SGOCVKI00198;2
S10;SGOCVKI00199;12
S10;SGOCVKI00200;22
S10;SGOCVKI00201;18
S10;SGOCVKI00202;53
S10;SGOCVKI00203;20
S29000;SGOCVKI00189;57
S29000;SGOCVKI00190;29
S29000;SGOCVKI00191;64
S29000;SGOCVKI00192;39
S29000;SGOCVKI00193;19
S29000;SGOCVKI00194;23
S29000;SGOCVKI00195;29
S29000;SGOCVKI00196;21
S29000;SGOCVKI00197;16
S29000;SGOCVKI00198;14
S29000;SGOCVKI00199;9
S29000;SGOCVKI00200;23
S29000;SGOCVKI00201;56
S29000;SGOCVKI00202;85
S29000;SGOCVKI00203;50
S21000;SGOCVKI00189;16
S21000;SGOCVKI00190;17
S21000;SGOCVKI00191;13
S21000;SGOCVKI00192;11
S21000;SGOCVKI00193;4
S21000;SGOCVKI00194;5
S21000;SGOCVKI00195;3
S21000;SGOCVKI00196;8
S21000;SGOCVKI00197;3
S21000;SGOCVKI00198;7
S21000;SGOCVKI00200;30
S21000;SGOCVKI00201;14
S21000;SGOCVKI00202;30
S21000;SGOCVKI00203;10
