S15;01CM500K20;12
S27000;01CM500K20;4
S28000;01CM500K20;14
S15;01MR030K14;29
S27000;01MR030K14;21
S28000;01MR030K14;28
S15;01SA100VE20;28
S28000;01SA100VE20;12
S15;01SA250VE16;34
S27000;01SA250VE16;14
S28000;01SA250VE16;7
S15;11CM030H20;29
S27000;11CM030H20;10
S28000;11CM030H20;21
S15;11ET050H20;10
S27000;11ET050H20;8
S28000;11ET050H20;6
S15;11FAG10TR19;21
S27000;11FAG10TR19;8
S28000;11FAG10TR19;10
S15;11SD100CS19;9
S27000;11SD100CS19;10
S28000;11SD100CS19;13
S15;15BA500L16A;7
S27000;15BA500L16A;5
S28000;15BA500L16A;3
S15;15CC150VA19;7
S27000;15CC150VA19;5
S28000;15CC150VA19;7
S15;15ET100VB3;8
S27000;15ET100VB3;8
S28000;15ET100VB3;9
S28000;15MF030VM20H;2
S15;15RC500VB17;21
S27000;15RC500VB17;10
S28000;15RC500VB17;20
S15;17AS075E19;2
S15;17AS250E19;9
S27000;17AS250E19;10
S28000;17AS250E19;16
S27000;17IC200D15;1
S28000;17IC200D15;1
S27000;17SE125D15;5
S15;17SH500E19;19
S27000;17SH500E19;10
S28000;17SH500E19;31
S15;17SH500P19;16
S27000;17SH500P19;7
S28000;17SH500P19;25
S15;18ET050TL17;8
S27000;18ET050TL17;5
S28000;18ET050TL17;5
S15;20DO130HC20;11
S27000;20DO130HC20;8
S28000;20DO130HC20;16
S15;20HR050H20;2
S27000;20HR050H20;4
S28000;20HR050H20;8
S15;24BR050R19;11
S27000;24BR050R19;14
S28000;24BR050R19;10
S15;24ET075CB4;12
S27000;24ET075CB4;9
S28000;24ET075CB4;9
S15;01BP050K21;16
S27000;01BP050K21;10
S28000;01BP050K21;4
S28000;01CD250K21;7
S15;01CM300K20;9
S27000;01CM300K20;7
S28000;01CM300K20;11
S15;01PI075K18;12
S27000;01PI075K18;7
S28000;01PI075K18;10
S15;01SL500VE20;15
S27000;01SL500VE20;8
S28000;01SL500VE20;16
S15;11BH050A18;12
S27000;11BH050A18;10
S28000;11BH050A18;16
S15;11GM200I19;10
S27000;11GM200I19;8
S28000;11GM200I19;6
S27000;11LP050028M19;5
S15;11MW200I19;10
S27000;11MW200I19;7
S28000;11MW200I19;6
S15;11MWC200I19;8
S27000;11MWC200I19;8
S28000;11MWC200I19;7
S15;11PEP050I20;13
S27000;11PEP050I20;6
S28000;11PEP050I20;10
S15;15DO050VA5;18
S27000;15DO050VA5;6
S28000;15DO050VA5;15
S15;15RG500L14;18
S27000;15RG500L14;4
S28000;15RG500L14;13
S15;17AS075FV21;1
S15;17AS250N18;8
S28000;17AS250N18;23
S15;17AS500P19;12
S27000;17AS500P19;7
S28000;17AS500P19;7
S15;17ER075P19;11
S27000;17ER075P19;5
S28000;17ER075P19;12
S15;17SH300FV21;26
S27000;17SH300FV21;11
S28000;17SH300FV21;13
S15;18LC250TL17ET;20
S27000;18LC250TL17ET;13
S28000;18LC250TL17ET;16
S15;20AR075H16;8
S28000;20AR075H16;8
S15;20DO075CD20;13
S27000;20DO075CD20;6
S28000;20DO075CD20;7
S15;20GD250HC20;16
S27000;20GD250HC20;12
S28000;20GD250HC20;20
S15;24EF050R18;5
S27000;24EF050R18;6
S28000;24EF050R18;13
S15;24LC250R18;1
S27000;24LC250R18;7
S15;24LC250R20;18
S15;01EC200K17;10
S27000;01EC200K17;12
S28000;01EC200K17;16
S15;01HF100K17;10
S27000;01HF100K17;6
S28000;01HF100K17;10
S15;01RV500K20;15
S27000;01RV500K20;10
S28000;01RV500K20;14
S15;01SL300LV20;8
S27000;01SL300LV20;8
S28000;01SL300LV20;11
S15;11CD050A18;12
S27000;11CD050A18;1
S28000;11CD050A18;13
S15;11EP050H19;8
S27000;11EP050H19;7
S28000;11EP050H19;7
S15;11EP090H19;13
S27000;11EP090H19;6
S28000;11EP090H19;8
S15;11LC250H20;16
S27000;11LC250H20;9
S28000;11LC250H20;11
S15;11PM100SI19;8
S27000;11PM100SI19;5
S28000;11PM100SI19;16
S15;11SP200SL19;9
S27000;11SP200SL19;7
S28000;11SP200SL19;15
S15;15CL150VM20H;2
S27000;15CL150VM20H;10
S28000;15CL150VM20H;2
S15;15GM065L20;30
S27000;15GM065L20;12
S28000;15GM065L20;10
S15;15LC250VB3;18
S27000;15LC250VB3;3
S28000;15LC250VB3;13
S15;17AS250G18;16
S27000;17AS250G18;8
S28000;17AS250G18;18
S27000;17MM050A20;10
S28000;17MM050A20;10
S15;24BR050CB6;20
S27000;24BR050CB6;11
S28000;24BR050CB6;9
S15;24MA030R18;30
S27000;24MA030R18;20
S28000;24MA030R18;31
S15;27DC065I21;8
S27000;27DC065I21;11
S15;27DH030I20;19
S27000;27DH030I20;11
S28000;27DH030I20;9
S15;27DS030I20;13
S27000;27DS030I20;8
S28000;27DS030I20;13
S15;27MQ065I15A;6
S27000;27MQ065I15A;8
S28000;27MQ065I15A;2
S15;29ASH240A20;11
S27000;29ASH240A20;7
S28000;29ASH240A20;8
S15;01BG070K21;23
S27000;01BG070K21;19
S28000;01BG070K21;23
S28000;01BL012H19H;1
S15;01BM150K19;19
S15;01CL050K21;14
S27000;01CL050K21;8
S28000;01CL050K21;12
S15;01HD500K20;10
S27000;01HD500K20;9
S28000;01HD500K20;20
S15;01LT300K20;15
S27000;01LT300K20;3
S28000;01LT300K20;10
S15;01PI030K18;19
S27000;01PI030K18;9
S28000;01PI030K18;20
S15;01SA100VE16;6
S27000;01SA100VE16;13
S28000;01SA100VE16;8
S15;11BG140SL19;10
S27000;11BG140SL19;7
S28000;11BG140SL19;7
S15;11EH150A18;7
S27000;11EH150A18;7
S28000;11EH150A18;6
S15;11LT300I20;12
S27000;11LT300I20;8
S28000;11LT300I20;13
S28000;11MA030A20;10
S15;11SP200CS19;14
S27000;11SP200CS19;10
S28000;11SP200CS19;12
S15;15GD250VA5;12
S27000;15GD250VA5;9
S28000;15GD250VA5;13
S15;15HE005L14;7
S27000;15HE005L14;7
S15;17AS500FV21;34
S27000;17AS500FV21;20
S28000;17AS500FV21;29
S15;17RC500P19;15
S27000;17RC500P19;9
S28000;17RC500P19;19
S15;20AR075O20;7
S27000;20AR075O20;3
S28000;20AR075O20;14
S15;20ET010CD19;9
S28000;20ET010CD19;13
S27000;20ET010HC19;4
S15;20ET100OC13;2
S28000;20ET100OC13;7
S15;20GD250OC20;15
S27000;20GD250OC20;12
S28000;20GD250OC20;21
S15;27DB015I20;15
S27000;27DB015I20;13
S28000;27DB015I20;1
S15;29RH500A15;68
S27000;29RH500A15;12
S28000;29RH500A15;55
S15;38EC015A18;7
S27000;38EC015A18;6
S28000;38EC015A18;8
S15;01CP200K17;17
S27000;01CP200K17;9
S28000;01CP200K17;3
S15;01RL500K20;14
S27000;01RL500K20;10
S28000;01RL500K20;22
S15;01SL300VE20;7
S27000;01SL300VE20;7
S28000;01SL300VE20;8
S27000;11BG240DE20H;1
S28000;11BG240DE20H;6
S15;11LC250H19;15
S27000;11LC250H19;10
S28000;11LC250H19;22
S15;11PM100SL19;8
S27000;11PM100SL19;8
S28000;11PM100SL19;8
S15;15MA030L11;29
S27000;15MA030L11;10
S28000;15MA030L11;21
S15;15SH250VA17;13
S27000;15SH250VA17;9
S28000;15SH250VA17;17
S28000;17RC500F18;1
S15;17RS500G19;40
S27000;17RS500G19;8
S28000;17RS500G19;55
S15;17RS500N18;9
S27000;17RS500N18;4
S28000;17RS500N18;10
S15;18BI030TL17ET;36
S27000;18BI030TL17ET;29
S28000;18BI030TL17ET;45
S15;20DO050O20;14
S27000;20DO050O20;9
S28000;20DO050O20;14
S27000;20ET075OC20;11
S28000;20ET075OC20;11
S27000;24GD250R18;7
S28000;24GD250R18;18
S15;24GD250R20;15
S28000;24GD250R20;20
S27000;24GD500R19;7
S28000;24GD500R19;9
S15;24MA030RA19;10
S27000;24MA030RA19;13
S28000;24MA030RA19;19
S15;24SA050R18;18
S27000;24SA050R18;9
S28000;24SA050R18;26
S15;27DC050I20;19
S27000;27DC050I20;23
S28000;27DC050I20;9
S15;27DS030I17A;9
S28000;27DS030I17A;1
S15;27MP150I20;12
S27000;27MP150I20;4
S28000;27MP150I20;13
S15;27OR050I21C;35
S27000;27OR050I21C;20
S28000;27OR050I21C;6
S15;38BV050A19;14
S27000;38BV050A19;12
S28000;38BV050A19;17
S15;01CMR500K20;3
S27000;01CMR500K20;5
S28000;01CMR500K20;12
S15;01HV030K16;8
S27000;01HV030K16;5
S28000;01HV030K16;8
S15;01LH300KB19;9
S27000;01LH300KB19;6
S28000;01LH300KB19;8
S15;11BG140SH19;10
S27000;11BG140SH19;7
S15;11SV080I19;8
S27000;11SV080I19;6
S28000;11SV080I19;8
S28000;15ET100VAL20;1
S15;15GM280VB20;6
S27000;15GM280VB20;9
S28000;15GM280VB20;2
S15;17HR100G13;20
S27000;17HR100G13;8
S28000;17HR100G13;17
S15;17RC500G18;33
S27000;17RC500G18;22
S28000;17RC500G18;42
S15;17SH300P19;15
S27000;17SH300P19;9
S28000;17SH300P19;17
S15;20ET075HC20;13
S27000;20ET075HC20;8
S28000;20ET075HC20;7
S15;24AF050R18;7
S27000;24AF050R18;8
S28000;24AF050R18;17
S15;24ET050C19;1
S28000;24ET050C20;3
S15;24GD500R19;11
S15;24MA075R18;16
S27000;24MA075R18;15
S28000;24MA075R18;35
S15;27DF125I17;14
S27000;27DF125I17;6
S28000;27DF125I17;10
S15;27DH015I17;3
S27000;27DH015I17;4
S15;27EV200I19;16
S27000;27EV200I19;3
S28000;27EV200I19;11
S15;27HSR030I16;8
S27000;27HSR030I16;5
S28000;27HSR030I16;10
S28000;27MI150I17;2
S27000;27MS050I20;10
S28000;27MS050I20;7
S15;29MA075A16;4
S27000;29MA075A16;5
S28000;29MA075A16;7
S15;38FT200A18;7
S27000;38FT200A18;9
S28000;38FT200A18;7
S15;38WM065A18;8
S27000;38WM065A18;6
S28000;38WM065A18;6
S15;49AF015G20;94
S27000;49AF015G20;48
S15;01CM030K21;45
S27000;01CM030K21;17
S28000;01CM030K21;38
S15;01MA030K16;57
S27000;01MA030K16;14
S28000;01MA030K16;28
S15;01MA075K18;15
S27000;01MA075K18;11
S28000;01MA075K18;20
S15;01SL0045K13;55
S27000;01SL0045K13;23
S28000;01SL0045K13;38
S15;11BG140CS19;7
S27000;11BG140CS19;7
S28000;11BG140CS19;6
S15;11GD250H19;20
S27000;11GD250H19;15
S28000;11GD250H19;16
S15;11GD250H20;12
S27000;11GD250H20;7
S28000;11GD250H20;18
S15;11SD100SH19;10
S27000;11SD100SH19;8
S28000;11SD100SH19;9
S15;15GC150VBL20;15
S27000;15GC150VBL20;4
S28000;15GC150VBL20;7
S15;15GD500VB17;20
S27000;15GD500VB17;9
S28000;15GD500VB17;20
S15;17AS075P19;3
S15;17HI001G19;128
S27000;17HI001G19;171
S28000;17HI001G19;317
S15;17SH300G18;16
S27000;17SH300G18;10
S28000;17SH300G18;16
S28000;20ET100CD16A;2
S15;20SA050HC20;12
S27000;20SA050HC20;7
S28000;20SA050HC20;7
S15;24MA030RE19;8
S27000;24MA030RE19;14
S28000;24MA030RE19;19
S15;27DC030I20;16
S27000;27DC030I20;18
S28000;27DC030I20;11
S15;27DL200I20;14
S27000;27DL200I20;8
S28000;27DL200I20;5
S15;29LC200A14US;25
S27000;29LC200A14US;10
S28000;29LC200A14US;8
S15;29RC200A19;28
S27000;29RC200A19;6
S28000;29RC200A19;16
S15;38RC050A18;9
S27000;38RC050A18;6
S28000;38RC050A18;9
S15;49CP008I19;5
S27000;49CP008I19;5
S28000;49CP008I19;15
S15;49LC020A15;37
S27000;49LC020A15;6
S27000;01BL012K20H;2
S15;01CP050K19H;23
S15;01CV050K15;4
S27000;01CV050K15;8
S28000;01CV050K15;10
S28000;01EM075K20;8
S15;01HN0075K19;14
S27000;01HN0075K19;5
S28000;01HN0075K19;20
S15;01SA250LV20;33
S27000;01SA250LV20;9
S28000;01SA250LV20;17
S15;11BO100CS19;30
S27000;11BO100CS19;15
S28000;11BO100CS19;27
S15;11EP010H19;12
S27000;11EP010H19;9
S28000;11EP010H19;14
S15;11GN195A18;8
S27000;11GN195A18;8
S28000;11GN195A18;12
S15;15CP250VA5;8
S27000;15CP250VA5;8
S28000;15CP250VA5;5
S15;15GN300L11;15
S27000;15GN300L11;7
S28000;15GN300L11;7
S15;15MA030VB3;29
S27000;15MA030VB3;13
S28000;15MA030VB3;24
S15;17SE100FV21;29
S27000;17SE100FV21;18
S28000;17SE100FV21;14
S15;17SH500G18;17
S27000;17SH500G18;12
S28000;17SH500G18;41
S15;18ET090TL17;8
S27000;18ET090TL17;6
S28000;18ET090TL17;7
S15;20ET075CD19;7
S27000;20ET075CD19;4
S28000;20ET075CD19;10
S15;20GR150CD16A;3
S15;24BR050C21;14
S27000;24BR050C21;8
S28000;24BR050C21;11
S15;24GD250CB4;18
S27000;24GD250CB4;5
S28000;24GD250CB4;19
S15;24MA075P15;14
S27000;24MA075P15;13
S28000;24MA075P15;17
S15;29BP100A18;1
S27000;29BP100A18;4
S15;49MA010K16;53
S27000;49MA010K16;31
S28000;49MA010K16;48
S15;49POUM20;33
S27000;49POUM20;18
S28000;49POUM20;19
S15;52BGERIB18;2
S27000;52BGERIB18;2
S15;52CL0015K18;161
S27000;52CL0015K18;159
S27000;01EM075K18;5
S15;01LC250K17;6
S27000;01LC250K17;9
S28000;01LC250K17;12
S15;01SA050KL20;9
S27000;01SA050KL20;10
S28000;01SA050KL20;24
S15;01SL500LV20;15
S27000;01SL500LV20;8
S28000;01SL500LV20;12
S15;11CM030H19;29
S27000;11CM030H19;25
S28000;11CM030H19;31
S15;15GD075L15;94
S27000;15GD075L15;48
S28000;15GD075L15;88
S15;15LM300L11;9
S27000;15LM300L11;7
S28000;15LM300L11;9
S15;15MA075L11;23
S27000;15MA075L11;8
S28000;15MA075L11;18
S15;17AS500N18;8
S27000;17AS500N18;7
S28000;17AS500N18;8
S15;17RC500E20;12
S27000;17RC500E20;6
S28000;17RC500E20;40
S15;17SH500N18;7
S27000;17SH500N18;4
S28000;17SH500N18;7
S15;20SA050O20;12
S27000;20SA050O20;6
S28000;20SA050O20;10
S15;24BL012CB5;13
S27000;24BL012CB5;12
S28000;24BL012CB5;22
S15;24EDT050C21;1
S28000;24EDT050C21;3
S15;24EDT10C21;32
S27000;24EDT10C21;22
S28000;24EDT10C21;22
S15;24MA075CB4;21
S28000;24MA075CB4;34
S28000;27BP050I19;13
S15;27DE015I13US;11
S27000;27DE015I13US;7
S28000;27DE015I13US;10
S28000;27LD200I14;2
S28000;27SP030I14;5
S15;29MAV075A19;10
S28000;29MAV075A19;10
S15;38WS030A21;22
S27000;38WS030A21;16
S28000;38WS030A21;19
S15;49DC004I20;27
S27000;49DC004I20;24
S28000;49DC004I20;47
S15;49PFCWC21;27
S27000;49PFCWC21;24
S28000;49PFCWC21;43
S15;52DB001I20;134
S27000;52DB001I20;253
S28000;52DB001I20;135
S15;01CL200K21;18
S27000;01CL200K21;15
S28000;01CL200K21;19
S15;01HDR500K20;12
S27000;01HDR500K20;11
S28000;01HDR500K20;14
S15;01PR015R19;9
S27000;01PR015R19;18
S28000;01PR015R19;9
S27000;11GE075I20;7
S28000;11GE075I20;9
S15;11LP080028M19;5
S27000;11LP080028M19;6
S28000;11LP080028M19;4
S15;11SA100H20;15
S27000;11SA100H20;5
S28000;11SA100H20;15
S15;15LC250VBL20;2
S27000;15LC250VBL20;3
S15;15SE400VB5;6
S27000;15SE400VB5;6
S28000;15SE400VB5;10
S15;17AS500G18;17
S27000;17AS500G18;12
S28000;17AS500G18;28
S15;17DO050F13;23
S27000;17DO050F13;5
S28000;17DO050F13;23
S27000;17HE010R14;2
S15;20ET075CD20;13
S27000;20ET075CD20;8
S28000;20ET075CD20;9
S15;20NV150H20;11
S27000;20NV150H20;7
S28000;20NV150H20;19
S15;24GD250C21;10
S15;24MA030RV19;8
S27000;24MA030RV19;13
S15;27DH015I20;24
S27000;27DH015I20;9
S28000;27DH015I20;19
S15;27RM300I20;23
S27000;27RM300I20;10
S28000;27RM300I20;18
S15;29GE200A18;27
S27000;29GE200A18;10
S28000;29GE200A18;15
S15;38MI150A18;10
S27000;38MI150A18;2
S28000;38MI150A18;8
S28000;38WM100A16;5
S28000;49DH004I17;17
S15;52AS006FV21;195
S27000;52AS006FV21;59
S28000;52AS006FV21;3
S15;52CD0015A18;26
S27000;52CD0015A18;215
S28000;52CD0015A18;138
S15;52DC0015I20;178
S27000;52DC0015I20;313
S28000;52DC0015I20;99
S15;52DF002I17;61
S27000;52DF002I17;215
S28000;52DF002I17;159
S15;01SA250LT20;18
S27000;01SA250LT20;14
S28000;01SA250LT20;26
S15;11ET010H20;12
S27000;11ET010H20;7
S28000;11ET010H20;18
S15;11LP040028M19;9
S27000;11LP040028M19;5
S28000;11LP040028M19;9
S15;11SP200SI19;9
S27000;11SP200SI19;8
S28000;11SP200SI19;10
S15;15ET010VB19;10
S27000;15ET010VB19;8
S28000;15ET010VB19;8
S15;15GM065VB20;36
S27000;15GM065VB20;21
S28000;15GM065VB20;6
S15;15SA070VB6;11
S27000;15SA070VB6;8
S28000;15SA070VB6;5
S15;17AS075G18;32
S27000;17AS075G18;15
S28000;17AS075G18;18
S15;17HI100G19;11
S27000;17HI100G19;11
S28000;17HI100G19;9
S15;17RC500N18;7
S27000;17RC500N18;5
S28000;17RC500N18;13
S15;17SH075P19;2
S15;17VI100P19;8
S27000;17VI100P19;5
S28000;17VI100P19;8
S15;18SA075TL17ET;11
S27000;18SA075TL17ET;7
S28000;18SA075TL17ET;11
S27000;20ET075HC6;3
S28000;20ET075HC6;10
S15;20SA050CD20;12
S27000;20SA050CD20;8
S28000;20SA050CD20;7
S15;24LC250CB4;18
S27000;24LC250CB4;5
S28000;24LC250CB4;18
S15;27CP050I19;17
S27000;27CP050I19;9
S28000;27CP050I19;15
S15;27MI150I20;7
S27000;27MI150I20;6
S28000;27MI150I20;8
S15;27SP030I19;10
S27000;27SP030I19;7
S28000;27SP030I19;7
S15;29HD500A15;31
S27000;29HD500A15;12
S28000;29HD500A15;44
S15;49HD035K19H;8
S15;49LD030I20;16
S27000;49LD030I20;11
S28000;49LD030I20;13
S27000;52DS001I17;131
S15;52GD0015A18;5
S27000;52GD0015A18;220
S15;01CL200K17;9
S27000;01CL200K17;8
S28000;01CL200K17;14
S15;01HD250K17;17
S27000;01HD250K17;7
S28000;01HD250K17;8
S15;01SE125K21;19
S27000;01SE125K21;14
S28000;01SE125K21;12
S15;11LH200I19;12
S27000;11LH200I19;5
S28000;11LH200I19;9
S15;11SD100SI19;8
S27000;11SD100SI19;7
S28000;11SD100SI19;5
S15;15AS250VA18;10
S27000;15AS250VA18;8
S28000;15AS250VA18;11
S15;15GD250VB17;24
S27000;15GD250VB17;11
S28000;15GD250VB17;21
S15;15MA030VA5;23
S27000;15MA030VA5;12
S28000;15MA030VA5;19
S15;15RG500VA20;24
S15;17RS500E20;9
S27000;17RS500E20;11
S28000;17RS500E20;28
S15;17SH500FV21;39
S27000;17SH500FV21;15
S28000;17SH500FV21;23
S15;24GM030C21;27
S27000;24GM030C21;13
S28000;24GM030C21;43
S15;24MA150R19;8
S27000;24MA150R19;3
S28000;24MA150R19;2
S15;24RO010CB4;12
S24000;01BP050K21;15
S90000;01BP050K21;9
S24000;01CM300K20;9
S90000;01CM300K20;13
S90000;01ETKAR20;3
S24000;01PI030KA;3
S24000;01PI075K18;8
S90000;01PI075K18;10
S24000;01SL500VE20;7
S90000;01SL500VE20;1
S24000;11BH050A18;17
S90000;11BH050A18;5
S24000;11GM200I19;5
S90000;11LP050028M19;1
S24000;11MW200I19;4
S90000;11MW200I19;2
S24000;11MWC200I19;8
S24000;11PEP050I20;6
S90000;11PEP050I20;6
S24000;15DO050VA5;9
S90000;15DO050VA5;5
S24000;15RG500L14;9
S90000;17AS075F15;14
S24000;17AS075FV21;1
S90000;17AS075FV21;3
S24000;17AS250N18;8
S90000;17AS250N18;7
S24000;17AS500P19;8
S24000;17ER075P19;8
S90000;17ER075P19;5
S24000;17SH300FV21;8
S24000;18LC250TL17ET;13
S90000;18LC250TL17ET;7
S90000;20AR075H16;1
S24000;20DO075CD20;5
S90000;20DO075CD20;3
S24000;20GD250HC20;13
S90000;20GD250HC20;6
S24000;24EF050R18;2
S24000;24LC250R18;2
S90000;24LC250R18;6
S24000;24LC250R20;15
S24000;24MA030CB4;17
S90000;24MA030CB4;6
S24000;27HCR050I16;14
S90000;27HCR050I16;3
S90000;29KTAMA19;2
S24000;29VC240A16;12
S24000;38UV030A18;4
S24000;49EV030I19;20
S90000;49EV030I19;10
S90000;49PASSSA19;16
S90000;49POUVE17;20
S27000;24RO010CB4;9
S28000;24RO010CB4;7
S15;27BY015I19;13
S27000;27BY015I19;2
S28000;27BY015I19;14
S15;27DCB060I17;7
S27000;27DCB060I17;3
S28000;27DCB060I17;14
S15;27TS001I20;151
S27000;27TS001I20;255
S28000;27TS001I20;401
S15;29HD250A15;31
S27000;29HD250A15;31
S28000;29HD250A15;11
S15;38FT200A21;17
S27000;38FT200A21;8
S28000;38FT200A21;13
S15;38WC050A18;8
S27000;38WC050A18;7
S28000;38WC050A18;6
S15;52AS006E19;133
S27000;52AS006E19;233
S28000;52AS006E19;152
S27000;52LGEBAG19;60
S28000;52LGEBAG19;120
S15;52MIGEBAG19;112
S15;01BL012K18;18
S27000;01BL012K18;18
S28000;01BL012K18;21
S15;01PI150K18;10
S27000;01PI150K18;15
S28000;01PI150K18;6
S15;01SA100LT16;21
S27000;01SA100LT16;9
S28000;01SA100LT16;28
S15;11CF100TR19;10
S27000;11CF100TR19;9
S28000;11CF100TR19;13
S15;11GD050A18;12
S27000;11GD050A18;4
S28000;11GD050A18;11
S15;11LD200I19;10
S27000;11LD200I19;6
S28000;11LD200I19;17
S15;11SA100H19;12
S27000;11SA100H19;9
S28000;11SA100H19;15
S15;15LC250VA5;10
S27000;15LC250VA5;8
S28000;15LC250VA5;11
S15;17AS250P19;12
S27000;17AS250P19;10
S28000;17AS250P19;7
S15;17BD125G14;11
S27000;17BD125G14;7
S28000;17BD125G14;18
S15;17RS500FV21;49
S27000;17RS500FV21;9
S28000;17RS500FV21;8
S15;17SH075FV21;1
S15;17SH300E19;18
S27000;17SH300E19;15
S28000;17SH300E19;15
S15;17SH300N18;7
S27000;17SH300N18;5
S28000;17SH300N18;19
S15;18ET010TL17;15
S27000;18ET010TL17;9
S28000;18ET010TL17;16
S27000;20GD250OC16;1
S28000;20GD250OC16;4
S15;24GC150C21;19
S27000;24GC150C21;10
S28000;24GC150C21;17
S15;27HC050I18;8
S27000;27HC050I18;7
S28000;27HC050I18;7
S15;49OR005I19;23
S27000;49OR005I19;9
S28000;49OR005I19;25
S27000;49POUID20;3
S15;49POUIS19;29
S28000;49POUIS19;24
S27000;52EV002I19;57
S28000;52EV002I19;4
S15;52MC006G18;150
S27000;52MC006G18;263
S28000;52MC006G18;6
S15;52PS0015R21;77
S27000;52PS0015R21;97
S15;01CL300KB20;8
S27000;01CL300KB20;6
S28000;01CL300KB20;12
S15;01CP100K21;15
S27000;01CP100K21;11
S28000;01CP100K21;12
S15;01EN300KB19;30
S27000;01EN300KB19;22
S28000;01EN300KB19;29
S15;01MA150K18;29
S27000;01MA150K18;14
S28000;01MA150K18;7
S15;01SA050KV20;20
S27000;01SA050KV20;4
S28000;01SA050KV20;31
S15;01SA100LV20;45
S27000;01SA100LV20;15
S28000;01SA100LV20;24
S15;11CM125I19;8
S27000;11CM125I19;9
S28000;11CM125I19;12
S15;11MH075A19;7
S27000;11MH075A19;7
S28000;11MH075A19;10
S15;11SD100SL19;10
S27000;11SD100SL19;8
S28000;11SD100SL19;8
S15;15GD250L14;18
S27000;15GD250L14;9
S28000;15GD250L14;13
S28000;15MF075VM20H;2
S15;17AS500E19;15
S27000;17AS500E19;7
S28000;17AS500E19;24
S15;20GD250CD20;13
S27000;20GD250CD20;11
S28000;20GD250CD20;20
S15;24RO010R18;12
S27000;24RO010R18;10
S28000;24RO010R18;9
S15;27DB015I16;5
S27000;27DB015I16;1
S15;27DH030I17A;7
S27000;27DH030I17A;1
S15;27HS030I18;8
S27000;27HS030I18;5
S28000;27HS030I18;7
S15;29EC200A13;5
S27000;29EC200A13;12
S28000;29EC200A13;5
S15;29HS100A18;18
S15;38WC050A21;17
S27000;38WC050A21;10
S28000;38WC050A21;17
S15;49BF2NO20;1
S15;49CL008K21;1
S15;52DE001I17;155
S27000;52DE001I17;257
S28000;52DE001I17;276
S15;52LGEBAG18;50
S27000;52LGEBAG18;73
S15;52SH006D17;396
S27000;52SH006D17;200
S28000;52SH006D17;65
S15;01BK010K14;25
S27000;01BK010K14;19
S28000;01BK010K14;29
S15;01BV050K16;7
S27000;01BV050K16;8
S28000;01BV050K16;8
S27000;01CL200B20H;4
S15;01RC300KB20;8
S27000;01RC300KB20;15
S28000;01RC300KB20;3
S15;10KTMC00M20;1
S15;11BP100I19;10
S27000;11BP100I19;8
S28000;11BP100I19;8
S15;11BR100A20;25
S27000;11BR100A20;12
S28000;11BR100A20;11
S28000;11LB000TR19;10
S27000;11PM100DE20H;4
S28000;11PM100DE20H;6
S15;11PM100SH19;8
S27000;11PM100SH19;10
S28000;11PM100SH19;7
S15;15DF200VM20H;3
S15;15ET100VA5;7
S27000;15ET100VA5;7
S28000;15ET100VA5;10
S15;15LC250L14;7
S27000;15LC250L14;9
S28000;15LC250L14;1
S15;17MC200G18;14
S27000;17MC200G18;9
S28000;17MC200G18;8
S15;17RS500P19;41
S27000;17RS500P19;24
S28000;17RS500P19;42
S15;17SH300D15;11
S27000;17SH300D15;15
S28000;17SH300D15;3
S15;20MP030H20;9
S27000;20MP030H20;6
S28000;20MP030H20;8
S28000;24MA030RV19;20
S15;27BP050I19;13
S27000;27BP050I19;8
S27000;27DL200I13US;1
S15;27TS050I20;36
S27000;27TS050I20;28
S28000;27TS050I20;48
S15;29MA075A19;21
S27000;29MA075A19;12
S28000;29MA075A19;20
S15;29SE125A21;17
S27000;29SE125A21;8
S15;49DH004I20;40
S27000;49DH004I20;30
S28000;49DH004I20;15
S28000;49DRANO19;19
S90000;52CARDENV18;6
S90000;52CARDNO20;3
S24000;52CV0015K18;82
S90000;52CV0015K18;1
S90000;52DL002I17;153
S24000;52HD006A18;238
S90000;52HD006A18;75
S24000;52MA003K16A;165
S90000;52MA003K16A;150
S90000;52PMGBOX18;9
S24000;01CM030K21;30
S90000;01KTCNTAPAC20;1
S24000;01MA030K16;16
S24000;01MA075K18;10
S90000;01MA075K18;11
S90000;01MF030B20H;6
S90000;01SA100LV16;2
S24000;01SL0045K13;33
S24000;11BG140CS19;4
S90000;11BG140CS19;8
S24000;11GD250H19;14
S90000;11GD250H19;3
S24000;11GD250H20;18
S90000;11GD250H20;12
S24000;11SD100SH19;6
S90000;11SD100SH19;8
S24000;15GC150VBL20;6
S24000;15GD500VB17;16
S90000;15GD500VB17;7
S90000;15LC070VB5;69
S90000;17AS075N18;13
S90000;17AS075P19;43
S24000;17HI001G19;131
S24000;17SH300G18;11
S90000;17SH300G18;18
S24000;20SA050HC20;8
S90000;20SA050HC20;9
S90000;24GD075P15;1
S90000;24LC075CB5;42
S90000;24LC250P15;11
S90000;24LC250S6;20
S24000;24MA030RE19;12
S90000;24MA030RE19;8
S24000;27DC030I20;10
S90000;27DC030I20;2
S24000;27DL200I20;11
S90000;27DL200I20;4
S90000;27RM300I14;2
S24000;29LC200A14US;4
S90000;29LC200A14US;2
S24000;29RC200A19;1
S24000;38RC050A18;6
S90000;38RC050A18;10
S24000;49CP008I19;15
S90000;49CP008I19;10
S24000;49LC020A15;13
S90000;49MA010K19H;5
S90000;49P2DTS19;14
S90000;49PADCL20;124
S24000;52DB001I17;152
S90000;52GIF1NO19;1
S90000;52GIF1NO20;1
S90000;52GIF2NO19;1
S90000;52GIF2NO20;1
S24000;52HS001I17;275
S24000;52HS004A18;8
S90000;52HS004A18;2
S24000;52MS001I20;191
S90000;52MS001I20;287
S24000;52SH006N18;2
S90000;52SH006N18;101
S24000;52SH006P19;263
S90000;52SH006P19;13
S24000;01BL012B20H;3
S90000;01BL012B20H;5
S24000;01CP200K17;2
S90000;01HD250K19H;1
S90000;01KTKAR19;8
S24000;01RL500K20;9
S90000;01RL500K20;2
S24000;01SL300VE20;7
S90000;01SL300VE20;14
S90000;10CACLA20;1
S24000;11BG240DE20H;2
S24000;11LC250H19;10
S90000;11LC250H19;15
S24000;11PM100SL19;6
S90000;11PM100SL19;1
S90000;15GD070VB17;77
S24000;15MA030L11;10
S24000;15SH250VA17;14
S90000;15SH250VA17;2
S90000;17RC500F18;1
S24000;17RS500G19;22
S24000;17RS500N18;7
S90000;17RS500N18;11
S24000;18BI030TL17ET;31
S90000;18BI030TL17ET;5
S24000;20DO050O20;7
S90000;20DO050O20;9
S24000;20ET075OC20;6
S90000;20ET075OC20;9
S24000;24GD250R18;8
S90000;24GD250R18;9
S24000;24GD250R20;15
S24000;24GD500R19;11
S24000;24MA030RA19;7
S90000;24MA030RA19;6
S24000;24SA050R18;11
S90000;24SA050R18;5
S24000;27DC050I20;5
S90000;27DC050I20;4
S90000;27DS030I17A;2
S24000;27MP150I20;10
S90000;27OR050I21C;18
S90000;38BV050A17;1
S24000;38BV050A19;15
S24000;38WS030A18;10
S90000;38WS030A18;7
S24000;49CM030I19;10
S90000;49CM030I19;57
S90000;49DB004I20;3
S90000;49MA010CB4;79
S90000;49MF010W19H;5
S24000;49SH035E20;7
S90000;49TOBAGSA20;77
S24000;52HF004K17;78
S24000;52LGENSA18;34
S90000;52LGENSA18;163
S90000;52MMBBNO20;100
S24000;52OR001I19;378
S90000;52OR001I19;550
S90000;52SH006F17;63
S24000;52SH006FV21;16
S24000;52SP001I19;51
S90000;52SP001I19;153
S90000;01CL050K18;1
S24000;01CV050K15;7
S90000;01CV050K15;5
S24000;01EM075K20;8
S24000;01HN0075K19;4
S24000;01SA250LV20;7
S24000;11BO100CS19;9
S24000;11EP010H19;8
S90000;11EP010H19;4
S24000;11GN195A18;9
S90000;11GN195A18;1
S24000;11SD100DE20H;4
S24000;15CP250VA5;6
S90000;15CP250VA5;9
S24000;15GN300L11;9
S24000;15MA030VB3;16
S90000;15MA030VB3;7
S24000;17SE100FV21;20
S24000;17SH500G18;14
S24000;18ET090TL17;7
S90000;18ET090TL17;1
S24000;20ET075CD19;5
S00;27CN050I14;2
S26000;52MGEBOX18;20
S26000;29SH075A20;1
S26000;49LC020A15;1
S26000;49MA010A17;1
S15;52AF006G20;150
S28000;52AF006G20;32
S15;52CP0015I19;111
S27000;52CP0015I19;223
S28000;52CP0015I19;123
S15;52SH006G18;291
S15;38ST016A18;8
S27000;38ST016A18;11
S28000;38ST016A18;13
S15;49HD035A15;68
S27000;49HD035A15;94
S28000;49HD035A15;37
S15;52AS006P19;249
S27000;52AS006P19;245
S28000;52AS006P19;106
S15;52BY001I19;181
S27000;52BY001I19;308
S28000;52BY001I19;380
S15;52MGEBOX18;19
S27000;52MGEBOX18;34
S28000;52MGEBOX18;13
S15;52MGENSA18;74
S27000;52MGENSA18;179
S28000;52MGENSA18;144
S28000;52CL0015K18;126
S27000;52CLASANO19;6
S15;52DH001I20;156
S27000;52DH001I20;375
S28000;52DH001I20;409
S28000;24LC250R20;17
S15;24MA030CB4;49
S27000;24MA030CB4;7
S28000;24MA030CB4;47
S15;27HCR050I16;7
S27000;27HCR050I16;5
S28000;27HCR050I16;12
S15;29VC240A16;17
S27000;29VC240A16;4
S28000;29VC240A16;13
S15;38UV030A18;12
S27000;38UV030A18;7
S28000;38UV030A18;5
S15;52CV0015K18;94
S27000;52CV0015K18;128
S28000;52CV0015K18;279
S15;52HD006A18;88
S27000;52HD006A18;86
S28000;52HD006A18;37
S15;52MA003K16A;245
S27000;52MA003K16A;261
S28000;52MA003K16A;280
S27000;52ORT001I18;78
S15;52HV001K18;44
S20;01CL050K18;9
S20;01CV050K15;4
S20;01EM075K20;5
S20;01HN0075K19;9
S20;01SA250LV20;15
S20;11BO100CS19;8
S20;11EP010H19;13
S20;11GN195A18;9
S20;11SD100DE20H;2
S20;15CP250VA5;5
S20;15GN300L11;12
S20;15MA030VB3;14
S20;17SE100FV21;19
S20;17SH500G18;3
S20;18ET090TL17;6
S20;24BR050C21;6
S20;24GD250CB4;8
S20;24MA075P15;19
S20;29BP100A18;1
S20;29LC200A21C;11
S20;49MA010K16;29
S20;49POUM20;18
S20;52BGERIB18;1
S20;52CL0015K18;133
S20;52DH001I20;469
S20;52MOCOL316;1
S20;01BP050K21;2
S20;01CD250K21;16
S20;01CM300K20;5
S20;01PI030KA;2
S20;01PI075K18;14
S20;01SL500VE20;11
S20;11BH050A18;12
S20;11GM200I19;6
S20;11MW200I19;7
S20;11MWC200I19;8
S20;11PEP050I20;12
S20;15DO050VA5;10
S20;15RG500L14;9
S20;17AS250N18;5
S20;17AS500P19;10
S20;17ER075P19;7
S20;17SH300FV21;9
S20;18LC250TL17ET;9
S20;20DO075CD20;8
S20;20GD250HC20;13
S20;24LC250R18;8
S20;24LC250R20;15
S20;24MA030CB4;15
S20;27HCR050I16;7
S20;29VC240A16;16
S20;38UV030A18;6
S20;52HD006A18;511
S20;52MA003K16A;102
S29000;01BG070K21;23
S29000;01BM150K19;2
S29000;01CL050K21;17
S29000;01HD500K20;5
S29000;01LT300K20;2
S29000;01PI030K18;8
S29000;01SA100VE16;15
S29000;11BG140SL19;6
S29000;11EH150A18;10
S29000;11LT300I20;19
S29000;11MA030A20;15
S29000;11SP200CS19;11
S29000;15GD250VA5;11
S29000;15HE005L14;8
S29000;17AS500FV21;36
S29000;17RC500P19;32
S29000;20AR075O20;12
S29000;20ET010CD19;8
S29000;20GD250OC20;18
S29000;27DB015I20;33
S29000;29RH500A15;56
S29000;38EC015A18;10
S29000;38ST016A18;11
S29000;49HD035A15;41
S29000;52AS006P19;31
S29000;52BY001I19;101
S29000;52MGEBOX18;11
S29000;52MGENSA18;108
S29000;01SA050KL20;25
S29000;01SL500LV20;9
S29000;11CM030H19;12
S29000;15GD075L15;16
S29000;15LM300L11;11
S29000;15MA075L11;16
S29000;17AS500N18;11
S29000;17RC500E20;40
S29000;17SH500N18;19
S29000;20AR075CD16A;7
S29000;20SA050O20;12
S29000;24BL012CB5;11
S29000;24EDT050C21;8
S29000;24EDT10C21;25
S29000;24MA075CB4;13
S29000;27BP050I19;12
S29000;27DE015I13US;26
S29000;29MAV075A19;22
S29000;38WS030A21;22
S29000;49DC004I20;33
S29000;49ET007R18;32
S29000;49PFCWC21;33
S29000;52DB001I20;239
S29000;52HV001K18;30
S29000;52WC0015A19;95
S10;01BG070K21;21
S10;01BM150K19;23
S10;01CL050K21;12
S10;01HD500K20;9
S10;01LT300K20;3
S10;01PI030K18;9
S10;01SA100VE16;8
S10;11BG140SL19;8
S10;11EH150A18;8
S10;11LT300I20;15
S10;11MA030A20;26
S10;11SP200CS19;10
S10;15GD250VA5;20
S10;15HE005L14;6
S10;17AS500FV21;31
S10;17RC500P19;20
S10;20AR075O20;6
S10;20ET010CD19;3
S10;20GD250OC20;14
S10;27DB015I20;12
S10;29RH500A15;68
S10;38EC015A18;10
S10;38ST016A18;8
S10;49HD035A15;94
S10;52AS006N18;2
S10;52AS006P19;281
S10;52BY001I19;162
S10;52MGEBOX18;18
S10;52MGENSA18;146
S10;52MMBANO20;101
S10;01CL050K18;2
S10;01CV050K15;7
S10;01EM075K20;10
S10;01HN0075K19;12
S10;01SA250LV20;19
S10;11BO100CS19;18
S10;11EP010H19;10
S10;11GN195A18;10
S10;15CP250VA5;5
S10;15GN300L11;10
S10;15MA030VB3;20
S10;17SE100FV21;19
S10;17SH500G18;24
S10;18ET090TL17;6
S10;24BR050C21;8
S10;24GD250CB4;18
S10;24MA075P15;27
S10;49MA010K16;31
S10;49POUM20;15
S10;52CL0015K18;117
S10;52DH001I20;433
S10;52FT002A18;87
S10;52KTPPLV17;1
S10;01BP050K21;18
S10;01CM300K20;8
S21000;01BP050K21;12
S21000;01CM300K20;8
S21000;01PI075K18;10
S21000;01SL500VE20;5
S21000;11BH050A18;10
S21000;11GM200I19;9
S21000;11MW200I19;7
S21000;11MWC200I19;8
S21000;11PEP050I20;10
S21000;15DO050VA5;12
S21000;15RG500L14;10
S21000;17AS250N18;6
S21000;17AS500P19;8
S21000;17ER075P19;9
S21000;17SH300FV21;11
S21000;17SH500D16;1
S21000;18LC250TL17ET;14
S21000;20DO075CD20;11
S21000;20GD250HC20;10
S21000;24EF050R18;3
S21000;24LC250R18;1
S21000;24LC250R20;12
S21000;24MA030CB4;28
S21000;27HCR050I16;8
S21000;29VC240A16;10
S21000;38UV030A18;13
S21000;49EV030I19;12
S21000;52CV0015K18;305
S21000;52HD006A18;329
S21000;52MA003K16A;84
S21000;01LC250K17;2
S21000;01SL500LV20;8
S21000;11CM030H19;14
S21000;15GD075L15;72
S21000;15LM300L11;10
S21000;15MA075L11;12
S21000;17AS500N18;10
S21000;17RC500E20;13
S21000;17SH500N18;6
S21000;20SA050O20;12
S21000;24BL012CB5;10
S21000;24EDT050C21;12
S21000;24EDT10C21;31
S21000;24MA075CB4;20
S21000;27DE015I13US;18
S21000;29MAV075A19;8
S21000;38WS030A21;26
S21000;49DC004I20;55
S21000;49PFCWC21;12
S21000;52DB001I20;142
S21000;52HV001K18;157
S21000;52WC0015A19;178
S21000;01BL012K20H;3
SLM001;01BM150K19;15
SLM001;17RC500P19;29
SLM001;24GD250P15;1
SLM001;29RH500A15;129
SLM001;49HD035A15;318
SLM001;49MA010H19H;13
SLM001;52BY001I19;197
SLM001;01CL050K18;15
SLM001;01CP050K19H;35
SLM001;01SA150H19H;2
SLM001;11GN195A18;27
SLM001;15GN300L11;4
SLM001;15MA030VB3;32
SLM001;17SH500G18;15
SLM001;18ET090TL17;13
SLM001;20GR150CD15;1
SLM001;24GD250CB4;6
SLM001;24MA075P15;35
SLM001;27MP050I13;22
SLM001;49CO1NO19;13
SLM001;49MA010K16;219
SLM001;49MA010VB3;29
SLM001;52CLASANO20;2
SLM001;52DH001I20;646
SLM001;01LC250K17;4
SLM001;15LM300L11;26
SLM001;17AS500N18;27
SLM001;17SH500N18;31
SLM001;24GD075CB5;94
SLM001;24MA075CB4;1
SLM001;27BP050I19;4
SLM001;27DE015I13US;18
SLM001;49DC004I20;21
SLM001;49ET007R18;14
SLM001;49MA010R14;3
SLM001;49TRARO15;42
SLM001;52DB001I20;9
SLM001;98BBDF015IM0;99
SLM001;15RG500L14;5
SLM001;17AS250N18;10
SLM001;17SH500D16;15
SLM001;24MA030CB4;23
SLM001;27HCR050I16;1
SLM001;29ASH075A20;46
SLM001;52DL002I17;34
SLM001;52HD006A18;303
SLM001;10KTCMAPAC20;2
SLM001;15LC150V13;1
SLM001;17AS075G18;9
SLM001;17SH075P19;15
SLM001;24LC250CB4;3
SLM001;27CP050I19;11
SLM001;29HD500A15;106
S24000;24BR050C21;2
S90000;24BR050C21;6
S24000;24GD250CB4;14
S24000;24MA075P15;22
S90000;24MA075P15;8
S24000;29BP100A18;3
S90000;29LC200A21C;6
S90000;49CO1NO19;5
S90000;49DF005I17;2
S24000;49MA010K16;22
S90000;49MA010K16;60
S90000;49MA010VB3;111
S24000;49POUM20;18
S90000;49POUM20;12
S90000;49WS004A18;9
S90000;52BGERIB18;2
S24000;52CL0015K18;53
S90000;52CLASANO19;32
S90000;52CLASANO20;1
S24000;52DH001I20;250
S90000;52DH001I20;294
S24000;52FT002A18;1
S90000;52FT002A18;73
S90000;52MOCOL316;50
S90000;52TBOM20;28
S24000;01BG070K21;20
S24000;01CL050K21;8
S90000;01CL050K21;14
S24000;01HD500K20;7
S24000;01LT300K20;5
S24000;01PI030K18;9
S90000;01PI030K18;15
S24000;01SA100VE16;10
S24000;11BG140SL19;7
S90000;11BG140SL19;9
S24000;11EH150A18;7
S90000;11EH150A18;11
S90000;11GN040A19;5
S24000;11LT300I20;9
S90000;11LT300I20;10
S24000;11MA030A20;15
S90000;11MA030A20;38
S24000;11SP200CS19;7
S24000;15GD250VA5;6
S90000;15GD250VA5;3
S24000;15HE005L14;6
S90000;15HE005L14;2
S24000;17AS500FV21;19
S24000;17RC500P19;11
S90000;17RC500P19;6
S90000;17SH075F15;14
S24000;20AR075O20;3
S90000;20AR075O20;10
S20;01SA050KL20;13
S20;01SL500LV20;6
S20;11CM030H19;18
S20;15GD075L15;44
S20;15LM300L11;4
S20;15MA075L11;9
S20;17AS500N18;5
S20;17RC500E20;19
S20;17SH500N18;5
S20;20SA050O20;19
S20;24BL012CB5;4
S20;24EDT050C21;3
S20;24EDT10C21;26
S20;24MA075CB4;11
S20;27DE015I13US;9
S20;29MAV075A19;8
S20;38WS030A21;15
S20;49DC004I20;25
S20;49PFCWC21;25
S20;52DB001I20;183
S20;52HV001K18;47
S20;52WC0015A19;82
S20;98BBDF015IM0;25
S20;01BG070K21;24
S20;01CL050K21;12
S20;01HD500K20;16
S20;01LT300K20;6
S20;01PI030K18;14
S20;11BG140SL19;7
S20;11EH150A18;9
S20;11LT300I20;10
S20;11MA030A20;14
S20;11SP200CS19;11
S20;15GD250VA5;10
S20;17AS500FV21;19
S20;17RC500P19;11
S20;20AR075O20;9
S20;20ET010CD19;4
S20;20GD250OC20;11
S20;24RO010C20;3
S20;27DB015I20;7
S20;29RH500A15;1
S20;38EC015A18;4
S20;38ST016A18;6
S20;49HD035A15;110
S20;52AS006N18;68
S20;52AS006P19;132
S20;52BY001I19;150
S20;52MGEBOX18;11
S20;52MGENSA18;227
S20;01SA250LT20;9
S20;11ET010H20;14
S20;11LP040028M19;6
S20;11SP200SI19;8
S29000;98BBDF015IM0;33
S29000;01CV050K15;5
S29000;01EM075K20;6
S29000;01HN0075K19;9
S29000;01SA250LV20;16
S29000;11BO100CS19;20
S29000;11EP010H19;10
S29000;11GN195A18;10
S29000;11SD100DE20H;4
S29000;15CP250VA5;12
S29000;15GN300L11;21
S29000;15MA030VB3;17
S29000;17SE100FV21;29
S29000;17SH500G18;21
S29000;18ET090TL17;9
S29000;20ET075CD19;3
S29000;24BR050C21;10
S29000;24GD250CB4;15
S29000;24MA075P15;14
S29000;29BP100A18;10
S29000;49MA010K16;5
S29000;52CL0015K18;100
S29000;52DH001I20;99
S29000;01BP050K21;18
S29000;01CM300K20;14
S29000;01PI075K18;11
S29000;01SL500VE20;7
S29000;11BH050A18;10
S29000;11GM200I19;11
S29000;11MW200I19;6
S29000;11MWC200I19;8
S29000;11PEP050I20;9
S29000;15DO050VA5;10
S29000;15RG500L14;26
S29000;17AS250N18;10
S29000;17AS500P19;8
S29000;17ER075P19;19
S29000;17SH300FV21;17
S29000;18LC250TL17ET;14
S29000;20AR075H16;3
S29000;20DO075CD20;10
S29000;20GD250HC20;13
S29000;24EF050R18;2
S29000;24LC250R18;12
S29000;24LC250R20;18
S29000;24MA030CB4;4
S29000;24MA030RC20H;12
S29000;27HCR050I16;16
S29000;29VC240A16;9
S29000;38UV030A18;7
S29000;52CV0015K18;3
S29000;52HD006A18;35
S29000;52MA003K16A;3
S10;01PI075K18;31
S10;01SL500VE20;10
S10;11BH050A18;8
S10;11GM200I19;8
S10;11MW200I19;10
S10;11MWC200I19;8
S10;11PEP050I20;9
S10;15DO050VA5;13
S10;15RG500L14;28
S10;17AS250N18;5
S10;17AS500P19;10
S10;17ER075P19;11
S10;17SH300FV21;16
S10;18LC250TL17ET;10
S10;20DO075CD20;17
S10;20GD250HC20;17
S10;24EF050R18;5
S10;24LC250R18;16
S10;24LC250R20;15
S10;24MA030CB4;38
S10;27HCR050I16;7
S10;29VC240A16;12
S10;38EV075A18;7
S10;38UV030A18;12
S10;52CV0015K18;159
S10;52DL002I17;2
S10;52HD006A18;305
S10;52MA003K16A;251
S10;52ORT001I18;145
S10;52PMARRON;2
S10;01LC250K17;5
S10;01SL500LV20;8
S10;11CM030H19;28
S10;15GD075L15;86
S10;15LM300L11;10
S10;15MA075L11;13
S10;17AS500N18;5
S10;17RC500E20;24
S10;17SH500N18;6
S10;20SA050O20;8
S10;24BL012CB5;12
S10;24EDT050C21;13
S10;24EDT10C21;22
S10;24MA075CB4;19
S10;27DE015I13US;10
S10;27OR030I18;2
S10;29MAV075A19;8
S10;38WS030A21;15
S10;49DC004I20;33
S10;49PFCWC21;23
S10;52DB001I20;86
S10;52HV001K18;42
S10;52WC0015A18;46
S10;52WC0015A19;1
S21000;01CL050K18;7
S21000;01CV050K15;7
S21000;01EM075K20;6
S21000;01HN0075K19;8
S21000;01SA250LV20;17
S21000;11BO100CS19;20
S21000;11EP010H19;9
S21000;11GN195A18;10
S21000;11SD100DE20H;2
S21000;15CP250VA5;5
S21000;15GN300L11;12
S21000;15MA030VB3;18
S21000;17SE100FV21;26
S21000;17SH500G18;14
S21000;18ET090TL17;8
S21000;24BR050C21;4
S21000;24GD250CB4;14
S21000;24MA075P15;11
S21000;49MA010K16;31
S21000;49POUM20;14
S21000;52CL0015K18;62
S21000;52DH001I20;935
S21000;01BG070K21;23
S21000;01BM150K19;14
S21000;01CL050K21;12
S21000;01HD500K20;10
S21000;01LT300K20;13
S21000;01PI030K18;9
S21000;01SA100VE16;8
S21000;11BG140SL19;6
S21000;11EH150A18;8
S21000;11LT300I20;6
S21000;11MA030A20;47
S21000;11SP200CS19;15
S21000;15GD250VA5;10
S21000;15HE005L14;8
S21000;17AS500FV21;26
S21000;17RC500P19;10
S21000;20AR075O20;7
S21000;20GD250OC20;13
S21000;27DB015I20;20
S21000;29RH500A15;35
S21000;38EC015A18;5
S21000;38ST016A18;6
S21000;49HD035A15;82
S21000;52AS006P19;389
S21000;52BY001I19;230
S21000;52MGEBOX18;31
S21000;52MGENSA18;82
S21000;01SA250LT20;17
S21000;11ET010H20;15
S21000;11LP040028M19;3
S21000;11SP200SI19;8
S29000;01SA250LT20;19
S29000;11ET010H20;5
S29000;11LP040028M19;12
S29000;11SP200SI19;11
S29000;15ET010VB19;10
S29000;15GD500VA20;9
S29000;15GM065VB20;36
S29000;15SA070VB6;18
S29000;17AS075G18;22
S29000;17HI100G19;23
S29000;17RC500N18;20
S29000;17VI100P19;27
S29000;18SA075TL17ET;12
S29000;20SA050CD20;15
S29000;24LC250CB4;13
S29000;27CP050I19;5
S29000;27MI150I20;9
S29000;27SP030I19;9
S29000;29HD500A15;33
S29000;49LD030I20;22
S29000;49OR005I18;14
S29000;52DS001I17;130
S29000;52GD0015A18;84
S29000;01BM050K19;5
S29000;11BG140SH19;6
S29000;11BG140SI19;8
S29000;11SP200SH19;4
S29000;15ET100VM20H;4
S29000;15MA075VB4;20
S29000;15RG500VA20;17
S29000;17AF100G20;24
S29000;17AS250FV21;18
S29000;17MC200N18;10
S29000;17SH075G18;22
S29000;18GD250TL17ET;21
S29000;20FE050H20;4
S29000;24ET050R18;10
S29000;24ET050RC20H;3
S29000;24MA030P15;20
S29000;24VF050R18;12
S29000;27ER015I20;15
S29000;27FP050I19;8
S29000;29HD075A15;10
S29000;29SA050A17;8
S29000;01CL300KB20;7
S29000;01CP100K21;7
S29000;01EN300KB19;31
S29000;01MA150K18;15
S29000;01SA050KV20;30
S29000;01SA100LV20;20
S29000;11CM125I19;9
S29000;11MH075A19;10
S10;98BBDF015IM0;19
S10;01SA250LT20;18
S10;11ET010H20;18
S10;11LP040028M19;2
S10;11SP200SI19;13
S10;15ET010VB19;8
S10;15GD500VA20;17
S10;15GM065VB20;12
S10;15SA070VB6;8
S10;17AS075G18;10
S10;17HI100G19;10
S10;17RC500N18;10
S10;17VI100P19;8
S10;18SA075TL17ET;8
S10;20SA050CD20;8
S10;24LC250CB4;15
S10;27CP050I19;17
S10;27MI150I20;6
S10;27SP030I19;15
S10;29HD500A15;27
S10;49LD030I20;13
S10;49OR005I18;3
S10;52DS001I17;130
S10;52GD0015A18;148
S10;52MGEBAG18;181
S10;52MGEBAG19;300
S10;52MMBPNO20;2
S10;01BM050K19;15
S10;01CM300K11;4
S10;01MA030K21;16
S10;11BG140SI19;8
S10;11SP200SH19;8
S10;15ET100VM20H;4
S10;15MA075VB4;15
S10;17AF100G20;11
S10;17AS250FV21;15
S10;17MC200N18;7
S10;17SH075G18;10
S10;18GD250TL17ET;13
S10;20FE050H20;6
S10;24ET050R18;10
S10;24LC250C21;25
S10;24MA030P15;30
S10;24VF050R18;8
S10;27ER015I20;15
S10;27FP050I19;8
S10;27OR075I20;3
S10;29SA050A17;10
S10;52MC006N18;15
S10;98BBGD050VE2;26
S10;01CL300KB20;8
S10;01CP100K21;8
S10;01EN300KB19;19
S10;01MA150K18;21
S24000;20ET010CD19;5
S90000;20ET010CD19;4
S24000;20ET010HC19;5
S24000;20ET100OC13;4
S24000;20GD250OC20;17
S90000;20GD250OC20;5
S24000;27DB015I20;14
S90000;27DB015I20;5
S24000;29RH500A15;24
S24000;38EC015A18;5
S90000;38EC015A18;7
S24000;38ST016A18;6
S90000;38ST016A18;3
S24000;49HD035A15;17
S90000;49HD035A15;130
S90000;49MA010H19H;5
S90000;49PCRKO17;22
S24000;52AS006P19;269
S90000;52AS006P19;118
S24000;52BY001I19;218
S24000;52MGEBOX18;11
S90000;52MGEBOX18;30
S24000;52MGENSA18;68
S90000;52MGENSA18;207
S90000;52MMBANO20;50
S90000;01EM075K18;1
S24000;01LC250K17;19
S24000;01SA050KL20;18
S90000;01SA050KL20;15
S24000;01SL500LV20;8
S90000;01SL500LV20;8
S24000;11CM030H19;12
S90000;11CM030H19;5
S24000;15GD075L15;7
S24000;15LM300L11;8
S90000;15LM300L11;9
S24000;15MA075L11;12
S90000;15MA075L11;1
S24000;17AS500N18;7
S90000;17AS500N18;13
S90000;17IC075D15;6
S24000;17RC500E20;13
S90000;17RC500E20;7
S24000;17SH500N18;3
S90000;17SH500N18;6
S90000;18GD050TL17ET;6
S24000;20SA050O20;8
S90000;20SA050O20;10
S24000;24BL012CB5;10
S90000;24BL012CB5;3
S24000;24EDT050C21;5
S90000;24EDT050C21;1
S24000;24EDT10C21;26
S29000;11SD100SL19;7
S29000;15CC150VB19;3
S29000;15GD250L14;19
S29000;15MF075VM20H;13
S29000;17AS500E19;15
S29000;20GD250CD20;22
S29000;24RO010R18;15
S29000;27HS030I18;16
S29000;29EC200A13;7
S29000;29HS100A18;2
S29000;38WC050A21;19
S29000;49TC1NO20;2
S29000;52DE001I17;159
S29000;52SH006D17;252
S29000;52SH006E19;130
S29000;01CL200K17;27
S29000;01HD250K17;14
S29000;01SE125K21;16
S29000;11LH200I19;8
S29000;11SD100SI19;7
S29000;15AS250VA18;17
S29000;15GD250VB17;10
S29000;15MA030VA5;12
S29000;17RS500E20;15
S29000;17SH500FV21;27
S29000;24GM030C21;18
S29000;24RO010CB4;14
S29000;27BY015I19;10
S29000;27DCB060I17;6
S29000;27TS001I20;110
S29000;29HD250A15;26
S29000;38FT200A21;16
S29000;38WC050A18;9
S29000;52AS006E19;115
S29000;01CL200K21;15
S29000;01HDR500K20;32
S29000;01PR015R19;8
S29000;11GE075I20;8
S29000;11LP080028M19;6
S29000;11SA100H20;12
S29000;15SE400VB5;14
S29000;17AS500G18;10
S29000;17DO050F13;13
S29000;20ET075CD20;11
S29000;20NV150H20;7
S29000;27DH015I20;21
S29000;27RM300I20;14
S29000;29GE200A18;16
S29000;38MI150A18;7
S29000;52AS006FV21;64
S29000;52CD0015A18;91
S29000;52DC0015I20;37
S29000;52DF002I17;158
S90000;24EDT10C21;19
S90000;24GD075CB5;42
S24000;24MA075CB4;26
S90000;24MA075CB4;7
S90000;27BP050I19;3
S24000;27DE015I13US;8
S24000;27SP030I14;3
S90000;27SP030I14;1
S24000;29MAV075A19;8
S24000;38WS030A21;13
S24000;49DC004I20;24
S90000;49DC004I20;13
S90000;49ET007R18;53
S90000;49LC035CB6;127
S24000;49PFCWC21;25
S90000;49TF2CH19;35
S90000;49TFACH18;30
S90000;49VANSA19;32
S24000;52DB001I20;192
S90000;52DB001I20;140
S24000;52HV001K18;20
S90000;52HV001K18;104
S90000;52WC0015A18;97
S24000;52WC0015A19;97
S24000;98BBDF015IM0;25
S90000;98BBDF015IM0;42
S24000;01SA250LT20;14
S90000;01SA250LT20;1
S24000;11ET010H20;8
S90000;11ET010H20;9
S24000;11LP040028M19;2
S90000;11LP040028M19;15
S24000;11SP200SI19;4
S90000;11SP200SI19;7
S24000;15ET010VB19;6
S24000;15GD500VA20;3
S24000;15GM065VB20;1
S90000;15GM065VB20;11
S24000;15SA070VB6;8
S24000;17AS075G18;11
S90000;17AS075G18;15
S24000;17HI100G19;1
S24000;17RC500N18;8
S90000;17RC500N18;2
S90000;17SH075P19;2
S24000;17VI100P19;5
S90000;17VI100P19;8
S24000;18SA075TL17ET;10
S90000;18SA075TL17ET;11
S24000;20ET075HC6;4
S24000;20SA050CD20;8
S90000;20SA050CD20;9
S10;01SA100LV20;20
S10;11CM125I19;10
S10;11MH075A19;8
S10;11SD100SL19;9
S10;15GD250L14;12
S10;17AS500E19;20
S10;20GD250CD20;31
S10;24RO010R18;12
S10;27DB015I16;3
S10;27DH030I17A;1
S10;27HS030I18;8
S10;29EC200A13;12
S10;29HS100A18;16
S10;38WC050A21;15
S10;52DE001I17;199
S10;52LABANO20;44
S10;52LGEBAG18;141
S10;52MMBYNO20;2
S10;52SH006D17;100
S10;52SH006E19;435
S10;01CL200K17;16
S10;01HD250K17;18
S10;01SE125K21;14
S10;11LH200I19;13
S10;11SD100SI19;9
S10;15AS250VA18;10
S10;15GD250VB17;15
S10;15MA030VA5;20
S10;15RG500VA20;14
S10;17RS500E20;22
S10;17SH500FV21;37
S10;24GM030C21;5
S10;24MA150R19;10
S10;24RO010CB4;11
S10;27BY015I19;10
S10;27DCB060I17;6
S10;27TS001I20;285
S10;29HD250A15;28
S10;38FT200A21;15
S10;38WC050A18;8
S10;52AS006E19;416
S10;52MIGEBAG19;424
S10;01CL200K21;8
S10;01HDR500K20;12
S10;01PR015R19;3
S10;11GE075I20;1
S10;11LP080028M19;6
S10;11SA100H20;7
S10;15SE400VB5;8
S10;17AS500G18;23
S10;17DO050F13;15
S10;20ET075CD20;8
S10;20NV150H20;8
S10;24GD250C21;16
S29000;52DS001I20;270
S29000;01BK010K14;14
S29000;01BV050K16;10
S29000;01RC300KB20;11
S29000;11BP100I19;31
S29000;11BR100A20;25
S29000;11PM100DE20H;6
S29000;11PM100SH19;16
S29000;15ET100VA5;9
S29000;15LC250L14;12
S29000;17MC200G18;13
S29000;17RS500P19;44
S29000;17SH300D15;4
S29000;20MP030H20;6
S29000;24LC250RC20H;3
S29000;24MA030RV19;9
S29000;27DL200I13US;4
S29000;27TS050I20;35
S29000;29MA075A19;20
S29000;29SE125A21;9
S29000;49DH004I20;36
S29000;52AF006G20;2
S29000;52CP0015I19;155
S29000;52SH006G18;72
S29000;52TS001R21;92
S29000;01EC200K17;12
S29000;01HF100K17;9
S29000;01RV500K20;7
S29000;01SL300LV20;15
S29000;11CD050A18;7
S29000;11EP050H19;20
S29000;11EP090H19;13
S29000;11LC250H20;13
S29000;11SP200SL19;2
S29000;15CL150VM20H;5
S29000;15GM065L20;31
S29000;15LC250VB3;16
S29000;17AS250G18;12
S29000;17MM050A20;15
S29000;24BR050CB6;13
S29000;24MA030R18;15
S29000;27DC065I21;1
S29000;27DH030I20;11
S29000;27DS030I20;32
S29000;27MQ065I15A;7
S29000;29ASH240A20;14
S29000;29HD250A21C;2
S29000;29MA030A17;13
S29000;29SH240A20;7
S29000;38EV075A18;7
S29000;52FP0015I19;87
S29000;52SGENSA18;99
S29000;01CM030K21;39
S90000;24GD075C19;2
S24000;24LC250CB4;7
S90000;24LC250CB4;5
S90000;26PM100FC15;5
S24000;27CP050I19;13
S90000;27CP050I19;1
S24000;27MI150I20;6
S24000;27SP030I19;9
S90000;27SP030I19;8
S24000;29HD500A15;16
S90000;49ET007CB19;4
S90000;49ET007CB4;3
S90000;49GD035R14;5
S24000;49LD030I20;11
S90000;49LD030I20;16
S90000;49POCB19;1
S90000;49TBL2CH19;6
S90000;49TOWSA19;19
S90000;49TOWVE18;56
S90000;49TRSOL15;16
S90000;52COTLTM19;4
S24000;52DS001I17;136
S24000;52GD0015A18;114
S90000;52MGEBAG18;54
S24000;52MGEBAG19;42
S90000;52MGEBAG19;100
S90000;52SMSANO19;152
S90000;52SMSANO20;120
S90000;01BLKAR19;21
S24000;01BM050K19;1
S90000;01BM050K19;2
S90000;01CM300K11;4
S90000;01LT300K12;3
S90000;01MA030K20H;4
S90000;01MA030K21;11
S90000;11BG140SH19;9
S24000;11BG140SI19;6
S90000;11BG140SI19;10
S90000;11GD020A19;11
S90000;11LC050H19;30
S90000;11LC050H20;1
S24000;11SP200SH19;3
S90000;11SP200SH19;7
S24000;15ET100VM20H;2
S24000;15MA075VB4;14
S90000;15MA075VB4;6
S24000;15RG500VA20;7
S90000;15RG500VA4;3
S24000;17AF100G20;12
S24000;17AS250FV21;9
S24000;17MC200N18;3
S90000;17MC200N18;2
S24000;17SH075G18;17
S29000;01MA030K16;17
S29000;01MA075K18;16
S29000;01SL0045K13;36
S29000;11BG140CS19;6
S29000;11GD250H19;13
S29000;11GD250H20;13
S29000;11SD100SH19;8
S29000;15GC150VBL20;5
S29000;15GD500VB17;20
S29000;17HI001G19;139
S29000;17SH300G18;9
S29000;20SA050HC20;15
S29000;24LC250S6;1
S29000;24MA030RE19;7
S29000;27DC030I20;22
S29000;27DL200I20;13
S29000;29LC200A14US;29
S29000;29RC200A19;33
S29000;38RC050A18;12
S29000;52DB001I17;70
S29000;52HS001I17;162
S29000;52HS004A18;75
S29000;52MS001I20;136
S29000;52SH006N18;152
S29000;52SH006P19;199
S29000;01CP200K17;7
S29000;01RL500K20;16
S29000;01SL300VE20;3
S29000;11BG240DE20H;5
S29000;11LC250H19;18
S29000;11PM100SL19;8
S29000;15MA030L11;10
S29000;15SH250VA17;7
S29000;17RS500G19;49
S29000;17RS500N18;27
S29000;18BI030TL17ET;17
S29000;20DO050O20;10
S29000;20ET075OC20;10
S29000;24GD250R18;8
S29000;24GD250R20;20
S29000;24GD500R19;5
S29000;24MA030RA19;9
S29000;24SA050R18;10
S29000;27DC050I20;27
S29000;27MP150I20;6
S29000;27OR050I21C;8
S29000;38BV050A19;18
S29000;38WS030A18;10
S29000;49CM030I19;24
S29000;49POU1VE20;32
S29000;49SH035E20;16
S29000;52HF004K17;211
S29000;52LGENSA18;70
S29000;52OR001I19;198
S29000;52SH006FV21;69
S29000;52SP001I19;174
S29000;01CMR500K20;19
S29000;01HV030K16;10
S29000;01LH300KB19;15
S29000;11SV080I19;7
S29000;15GM280VB20;14
S29000;17HR100G13;18
S29000;17RC500G18;39
S29000;17SH300P19;11
S29000;20ET075HC20;10
S29000;20NV150CD16A;1
S29000;24AF050R18;14
S29000;24GD075R18;32
S29000;24MA075R18;17
S29000;27DF125I17;12
S29000;27EV200I19;5
S29000;27HSR030I16;11
S29000;27MS050I20;12
S29000;38FT200A18;11
S29000;38WM065A18;19
S29000;49AF015G20;16
S29000;49TOTMC20;15
S29000;52AS006G18;89
S29000;52CP006K17;111
S29000;52DC0015I17;82
S29000;52LC006A18;51
S29000;52LT002R21;100
S29000;52RC0015A18;66
S29000;01BL012K18;15
S29000;01PI150K18;13
S29000;01SA100LT16;16
S29000;11CF100TR19;10
S29000;11GD050A18;11
S29000;11LD200I19;11
S29000;11SA100H19;8
S29000;15LC250VA5;11
S29000;17AS250P19;13
S29000;17BD125G14;15
S29000;17RS500FV21;19
S29000;17SH300E19;10
S29000;17SH300N18;5
S29000;18ET010TL17;7
S29000;24GC150C21;18
S29000;27HC050I18;13
S29000;52EV002I19;226
S29000;52MC006G18;138
S29000;52PS0015R21;100
S29000;01CM500K20;10
S29000;01MR030K14;3
S29000;01SA250VE16;32
S29000;11CM030H20;14
S27000;52HV001K18;110
S28000;52HV001K18;186
S15;52WC0015A19;25
S27000;52WC0015A19;208
S28000;52WC0015A19;89
S15;98BBDF015IM0;27
S27000;98BBDF015IM0;24
S28000;98BBDF015IM0;43
S28000;52GD0015A18;234
S15;52K20BIM20;2
S28000;52K20BIM20;2
S15;52MGEBAG19;138
S27000;52MGEBAG19;98
S28000;52MGEBAG19;737
S15;01BM050K19;15
S27000;01BM050K19;4
S28000;01BM050K19;15
S15;01CM300K11;2
S28000;01CM300K11;1
S15;01MA030K21;3
S27000;01MA030K21;1
S28000;11BG140SH19;8
S15;11BG140SI19;9
S27000;11BG140SI19;7
S28000;11BG140SI19;7
S15;11SP200SH19;10
S27000;11SP200SH19;5
S28000;11SP200SH19;6
S15;15ET100VM20H;3
S28000;15ET100VM20H;12
S15;15MA075VB4;18
S27000;15MA075VB4;10
S28000;15MA075VB4;15
S27000;15RG500VA20;10
S28000;15RG500VA20;26
S15;17AF100G20;21
S27000;17AF100G20;11
S28000;17AF100G20;12
S15;17AS250FV21;16
S27000;17AS250FV21;11
S28000;17AS250FV21;16
S15;17MC200N18;7
S27000;17MC200N18;5
S28000;17MC200N18;7
S15;17SH075G18;27
S27000;17SH075G18;11
S28000;17SH075G18;14
S15;18GD250TL17ET;20
S27000;18GD250TL17ET;8
S28000;18GD250TL17ET;22
S15;20FE050H20;6
S27000;20FE050H20;4
S28000;20FE050H20;10
S15;24ET050R18;12
S27000;24ET050R18;10
S28000;24ET050R18;11
S15;24LC250C21;8
S28000;24LC250C21;13
S15;24MA030P15;25
S27000;24MA030P15;13
S28000;24MA030P15;25
S15;24VF050R18;5
S27000;24VF050R18;9
S28000;24VF050R18;8
S15;27ER015I20;23
S27000;27ER015I20;14
S28000;27ER015I20;3
S15;27FP050I19;8
S27000;27FP050I19;10
S28000;27FP050I19;8
S15;29SA050A17;16
S27000;29SA050A17;7
S28000;29SA050A17;12
S15;49CRM1NO20;2
S15;98BBGD050VE2;47
S27000;98BBGD050VE2;28
S28000;98BBGD050VE2;13
S15;52SH006E19;472
S27000;52SH006E19;277
S28000;52SH006E19;226
S27000;52MIGEBAG19;25
S28000;52MIGEBAG19;91
S15;52MOCOL216;1
S28000;52MOCOL216;1
S15;52DS001I20;392
S27000;52DS001I20;330
S28000;52DS001I20;165
S27000;52SH006G18;285
S28000;52SH006G18;186
S15;52TS001R21;174
S27000;52TS001R21;46
S28000;52TS001R21;64
S15;29MA030A17;39
S27000;29MA030A17;10
S28000;29MA030A17;26
S15;29SH240A20;10
S27000;29SH240A20;4
S28000;29SH240A20;5
S15;38EV075A18;7
S27000;38EV075A18;7
S28000;38EV075A18;9
S15;49DC008I20;2
S27000;49DC008I20;2
S28000;49DC008I20;10
S28000;49GD035CB5;90
S15;49MS008I20;23
S21000;15ET010VB19;8
S21000;15GM065VB20;37
S21000;15SA070VB6;8
S21000;17AS075G18;2
S21000;17HI100G19;13
S21000;17RC500N18;8
S21000;17SH075P19;1
S21000;17VI100P19;8
S21000;18SA075TL17ET;8
S21000;20ET075HC6;2
S21000;20SA050CD20;9
S21000;24LC250CB4;11
S21000;27CP050I19;15
S21000;27MI150I20;10
S21000;27SP030I19;9
S21000;29HD500A15;24
S21000;49LD030I20;9
S21000;52GD0015A18;85
S21000;52K20BIM20;2
S21000;52MGEBAG19;103
S21000;01BM050K19;10
S21000;01MA030K21;2
S21000;11BG140SI19;6
S21000;11SP200SH19;8
S21000;15ET100VM20H;2
S21000;15MA075VB4;12
S21000;15RG500VA20;14
S21000;17AF100G20;8
S21000;17AS250FV21;11
S21000;17MC200N18;8
S21000;17SH075G18;1
S21000;18GD250TL17ET;13
S21000;20FE050H20;8
S21000;24ET050R18;8
S21000;24LC250C21;17
S21000;24MA030P15;19
S21000;24VF050R18;6
S21000;27ER015I20;18
S21000;27FP050I19;12
S21000;29HD075A15;1
S21000;29SA050A17;12
S21000;52KTSUPGEN17;1
S21000;98BBGD050VE2;26
S21000;J6185;9
S21000;01CL300KB20;8
S21000;01CP100K21;11
S21000;01EN300KB19;20
S21000;01MA150K18;31
S21000;01SA100LV20;24
S21000;11CM125I19;10
S21000;11MH075A19;8
S21000;11SD100SL19;10
S21000;15GD250L14;11
S20;15ET010VB19;5
S20;15GD500VA20;6
S20;15GM065VB20;13
S20;15SA070VB6;5
S20;17AS075G18;13
S20;17HI100G19;10
S20;17RC500N18;8
S20;17VI100P19;9
S20;18SA075TL17ET;9
S20;20SA050CD20;19
S20;24LC250CB4;10
S20;27CP050I19;9
S20;27MI150I20;2
S20;27SP030I19;9
S20;29HD500A15;2
S20;49LD030I20;9
S20;52DS001I17;144
S20;52GD0015A18;177
S20;52MGEBAG19;399
S20;01MA030K21;3
S20;11BG140SI19;13
S20;11SP200SH19;8
S20;15ET100VM20H;3
S20;15MA075VB4;13
S20;15RG500VA20;11
S20;17AF100G20;10
S20;17AS250FV21;12
S20;17MC200N18;3
S20;17SH075G18;9
S20;18GD250TL17ET;12
S20;20FE050H20;5
S20;24ET050R18;8
S20;24LC250C21;1
S20;24MA030P15;13
S20;24VF050R18;6
S20;27ER015I20;14
S20;27FP050I19;4
S20;27OR075I20;5
S20;29SA050A17;8
S20;52MC006N18;8
S20;98BBGD050VE2;29
S20;J6185;2
S20;01CL300KB20;12
S20;01CP100K21;12
S20;01EN300KB19;30
S20;01MA150K18;12
S20;01MF150B20H;3
S20;01SA050KV20;11
S20;01SA100LV20;14
S20;01SL300CI20;2
S20;11CM125I19;10
S20;11MH075A19;7
S20;11SD100SL19;7
S20;15GD250L14;14
S24000;18GD250TL17ET;22
S90000;18GD250TL17ET;12
S24000;20FE050H20;5
S90000;20FE050H20;7
S24000;24ET050R18;4
S90000;24ET050R18;4
S24000;24LC250C21;11
S90000;24LC250C21;1
S24000;24MA030P15;26
S90000;24MA030P15;8
S24000;24VF050R18;13
S90000;24VF050R18;2
S90000;27CP050I14A;3
S24000;27ER015I20;2
S90000;27ER015I20;7
S24000;27FP050I19;7
S90000;27FP050I19;5
S90000;27MP050I20;20
S24000;29HD075A15;13
S24000;29SA050A17;8
S90000;29SA050A17;4
S90000;38UV030A18;2
S90000;49CRM1NO19;1
S90000;49CRM1NO20;11
S90000;49CRM2NO19;69
S90000;49PI010K1;31
S90000;49PI010K18;132
S90000;49POU2VE20;140
S24000;98BBGD050VE2;26
S90000;98BBGD050VE2;19
S90000;J6183;25
S24000;J6185;3
S90000;JIMCP16;3
S90000;JIMPN16;104
S24000;01CM500K20;11
S90000;01CM500K20;1
S90000;01MA150K16;2
S24000;01MR030K14;16
S90000;01MR030K14;8
S24000;01SA100VE20;8
S24000;01SA250VE16;11
S24000;11CM030H20;18
S90000;11CM030H20;12
S24000;11ET050H20;7
S90000;11ET050H20;6
S90000;11FAG10TR19;1
S24000;11SD100CS19;8
S90000;11SD100CS19;3
S24000;15BA500L16A;7
S24000;15CC150VA19;3
S90000;15CC150VA19;2
S24000;15ET100VB3;7
S90000;15ET100VB3;6
S10;24MA030RV19;15
S10;27DH015I20;20
S10;27RM300I20;14
S10;29GE200A18;18
S10;38MI150A18;8
S10;52AS006FV21;164
S10;52CD0015A18;195
S10;52DC0015I20;189
S10;52DF002I17;158
S10;52DS001I20;308
S10;01BK010K14;20
S10;01BV050K16;6
S10;01RC300KB20;4
S10;11BP100I19;10
S10;11BR100A20;1
S10;11EP005H19;93
S10;11PM100SH19;14
S10;15ET100VA5;8
S10;15LC250L14;9
S10;17MC200G18;9
S10;17RS500P19;40
S10;20MP030H20;6
S10;27BP050I19;9
S10;27TS050I20;30
S10;29MA075A19;12
S10;29SE125A21;15
S10;49DH004I20;20
S10;52AF006G20;200
S10;52CP0015I19;254
S10;52SH006G18;528
S10;52TS001R21;263
S10;01EC200K17;12
S10;01HF100K17;7
S10;01RV500K20;18
S10;01SL300LV20;8
S10;11CD050A18;8
S10;11EP050H19;6
S10;11EP090H19;5
S10;11LC250H20;23
S10;11PM100SI19;8
S10;11SP200SL19;8
S10;15CL150VM20H;1
S10;15GM065L20;11
S10;15LC250VB3;12
S10;17AS250G18;12
S10;17MM050A20;16
S10;24BR050CB6;15
S10;27DC065I21;7
S10;27DH030I20;22
S10;27DS030I20;11
S10;27MQ065I15A;8
S10;29ASH240A20;10
S10;29HD250A21C;7
S10;29MA030A17;17
S20;15MF075VM20H;5
S20;17AS500E19;11
S20;20GD250CD20;13
S20;24RO010R18;10
S20;27DB015I16;2
S20;27HS030I18;8
S20;29EC200A13;6
S20;38WC050A21;12
S20;52DE001I17;207
S20;52LGEBAG18;67
S20;52SH006D17;112
S20;52SH006E19;297
S20;01CL200K17;9
S20;01HD250K17;9
S20;01SE125K21;22
S20;11LH200I19;7
S20;11SD100SI19;4
S20;15AS250VA18;16
S20;15GD250VB17;6
S20;15MA030VA5;18
S20;17RS500E20;11
S20;17SH500FV21;16
S20;24GM030C21;22
S20;24MA150R19;3
S20;24RO010CB4;11
S20;27BY015I19;7
S20;27DCB060I17;6
S20;27TS001I20;171
S20;29HD250A15;21
S20;38FT200A21;12
S20;38WC050A18;8
S20;52AS006E19;247
S20;52ER006P19;7
S20;52MIGEBAG19;179
S20;01CL200K21;12
S20;01HDR500K20;2
S20;01PR015R19;11
S20;11GE075I20;6
S20;11LP080028M19;6
S20;11SA100H20;12
S20;15SE400VB5;6
S20;17DO050F13;16
S20;20ET075CD20;7
S20;20NV150H20;11
S20;24GD250C21;7
S20;24MA030RV19;8
S20;27DC050I17A;1
S20;27DH015I20;12
S20;27RM300I20;11
S20;29GE200A18;7
S20;38MI150A18;3
S20;52AS006FV21;58
S20;52CD0015A18;147
S20;52DC0015I20;464
S21000;17AS500E19;13
S21000;20GD250CD20;11
S21000;24RO010R18;9
S21000;27DB015I16;2
S21000;27DH030I17A;1
S21000;27HS030I18;8
S21000;29EC200A13;11
S21000;29HS100A18;18
S21000;38WC050A21;25
S21000;49BF2NO20;49
S21000;52DE001I17;247
S21000;52LASANO20;204
S21000;52LGEBAG18;45
S21000;52SH006D17;92
S21000;52SH006E19;150
S21000;01CL200K17;8
S21000;01HD250K17;10
S21000;01SE125K21;20
S21000;11LH200I19;10
S21000;11SD100SI19;8
S21000;15AS250VA18;8
S21000;15GD250VB17;11
S21000;15MA030VA5;20
S21000;17RS500E20;20
S21000;17SH075E19;49
S21000;17SH500FV21;23
S21000;24GM030C21;12
S21000;24MA150R19;10
S21000;24RO010CB4;10
S21000;27BY015I19;15
S21000;27DCB060I17;5
S21000;27TS001I20;283
S21000;29HD250A15;25
S21000;38FT200A21;26
S21000;38WC050A18;8
S21000;52AS006E19;166
S21000;52MIGEBAG19;262
S21000;01CL200K21;11
S21000;01HDR500K20;6
S21000;01PR015R19;19
S21000;11GE075I20;8
S21000;11LP080028M19;6
S21000;11SA100H20;54
S21000;15SE400VB5;5
S21000;17AS500G18;14
S21000;17DO050F13;12
S21000;20ET075CD20;10
S21000;20NV150H20;10
S21000;24GD250C21;4
S21000;24MA030RV19;10
S21000;27DC050I17A;3
S21000;27DH015I20;20
S21000;27RM300I20;20
S10;29SH240A20;10
S10;49DC008I20;4
S10;49GD035CB5;63
S10;49MS008I20;5
S10;52FP0015I19;254
S10;52SGENSA18;154
S10;01CM030K21;26
S10;01MA030K16;37
S10;01MA075K18;9
S10;01SL0045K13;34
S10;11BG140CS19;6
S10;11GD250H19;15
S10;11GD250H20;18
S10;11SD100SH19;8
S10;15GC150VBL20;2
S10;15GD500VB17;14
S10;17HI001G19;166
S10;17SH300G18;17
S10;20SA050HC20;8
S10;24MA030RE19;15
S10;24MA075R18;15
S10;27DC030I20;12
S10;27DL200I20;16
S10;29LC200A14US;18
S10;29RC200A19;22
S10;38RC050A18;9
S10;49CP008I19;1
S10;49LC020A15;31
S10;52DB001I17;170
S10;52HS001I17;315
S10;52HS004A18;213
S10;52MS001I20;219
S10;52SH006N18;139
S10;52SH006P19;459
S10;01CP200K17;14
S10;01RL500K20;22
S10;01SL300VE20;8
S10;11LC250H19;24
S10;11PM100SL19;13
S10;15MA030L11;29
S10;15SH250VA17;15
S10;17RS500G19;40
S10;17RS500N18;6
S10;18BI030TL17ET;29
S10;20DO050O20;14
S10;20ET075OC20;8
S10;24GD250R18;7
S10;24GD250R20;12
S10;24MA030RA19;15
S10;24SA050R18;15
S10;27DC050I20;15
S10;27MP150I20;7
S10;27OR050I21C;32
S10;38BV050A19;12
S90000;15MF030VM20H;10
S24000;15RC500VB17;16
S90000;17AS075E19;79
S24000;17AS250E19;7
S90000;17AS250E19;9
S90000;17IC200D15;1
S24000;17SE125D15;10
S90000;17SE125D15;1
S24000;17SH500E19;14
S24000;17SH500P19;12
S90000;17SH500P19;3
S24000;18ET050TL17;6
S90000;18ET050TL17;6
S24000;20DO130HC20;8
S90000;20DO130HC20;1
S24000;20HR050H20;5
S90000;20HR050H20;7
S24000;24BR050R19;3
S90000;24BR050R19;4
S24000;24ET075CB4;13
S90000;24GD250S6;1
S24000;24LC250P15A;1
S90000;24LC250P15A;1
S24000;24MA030S6;27
S90000;24MA030S6;17
S24000;24SA050CB6;9
S90000;24SA050CB6;2
S24000;27OR030I19;26
S90000;27OR030I19;32
S90000;49BP010K19;20
S24000;49CP020K18;2
S90000;49CP020K18;114
S90000;49DRASA19;27
S24000;49MA010A17;7
S90000;49MR010K14;59
S24000;49PO2HER20;39
S24000;52HR004G17;28
S90000;52HR004G17;129
S24000;98BBHD050A0;6
S24000;SGOCVKI00131;6
S90000;SGOCVKI00131;14
S90000;SGOCVKI00133;9
S24000;SGOCVKI00135;1
S90000;SGOCVKI00136;2
S24000;01CL300KB20;4
S90000;01CL300KB20;4
S24000;01CP100K21;8
S90000;01CP100K21;13
S24000;01EN300KB19;19
S90000;01EN300KB19;5
S24000;01MA150K18;7
S90000;01MF150B20H;3
S24000;01SA050KV20;18
S29000;11ET050H20;13
S29000;11FAG10TR19;7
S29000;11SD100CS19;4
S29000;15BA500L16A;10
S29000;15CC150VA19;4
S29000;15ET100VB3;10
S29000;15MF030VM20H;17
S29000;15RC500VB17;49
S29000;17AS250E19;9
S29000;17SH500E19;14
S29000;17SH500P19;24
S29000;18ET050TL17;9
S29000;20DO130HC20;11
S29000;20HR050H20;4
S29000;24BR050R19;10
S29000;24ET075CB4;8
S29000;24MA030S6;18
S29000;24SA050CB6;7
S29000;27KTFCAPAC20;10
S29000;27OR030I19;25
S29000;29BP100A19;10
S29000;49MA010A17;3
S29000;49PO2HER20;43
S29000;52HR004G17;53
S29000;SGOCVKI00135;11
S29000;SGOCVKI00156;2
S29000;SGOCVKI00157;8
S29000;SGOCVKI00165;1
S20;52DF002I17;126
S20;52DS001I20;190
S20;01BK010K14;14
S20;01BV050K16;10
S20;01CL200B20H;1
S20;11BP100I19;5
S20;11BR100A20;10
S20;11PM100SH19;9
S20;15ET100VA5;5
S20;15LC250L14;8
S20;17MC200G18;6
S20;17RS500P19;23
S20;17SH300D15;6
S20;20MP030H20;6
S20;27BP050I19;8
S20;27DL200I13US;4
S20;27TS050I20;24
S20;29MA075A19;10
S20;29SE125A21;13
S20;49DH004I20;29
S20;52CP0015I19;117
S20;52SH006G18;322
S20;52TS001R21;33
S20;01EC200K17;11
S20;01HF100K17;6
S20;01RV500K20;24
S20;01SL300LV20;14
S20;11CD050A18;8
S20;11EP050H19;10
S20;11EP090H19;11
S20;11LC250H20;17
S20;11SP200SL19;7
S20;15CL150VM20H;1
S20;15GM065L20;21
S20;15LC250VB3;11
S20;17AS250G18;7
S20;17MM050A20;10
S20;24BR050CB6;9
S20;24MA030R18;18
S20;27DC065I21;11
S20;27DH030I20;11
S20;27DS030I20;15
S20;27MQ065I15A;2
S20;29ASH240A20;9
S20;29MA030A17;12
S20;29SH240A20;6
S20;38EV075A18;5
S20;49DC008I20;5
S20;49MS008I20;12
S20;52FP0015I19;78
S20;52ROSE20;2
S20;52SGENSA18;136
S20;01CM030K21;35
S20;01MA030K16;8
S10;38WS030A18;7
S10;49CM030I19;10
S10;49SH035E20;86
S10;52HF004K17;104
S10;52LGENSA18;44
S10;52MMBBNO20;3
S10;52OR001I19;421
S10;52SH006FV21;265
S10;52SP001I19;171
S10;98BBSH050AR2;39
S10;01CMR500K20;8
S10;01HV030K16;6
S10;01LH300KB19;10
S10;11BG140SH19;9
S10;11SV080I19;8
S10;15GM280VB20;5
S10;17HR100G13;12
S10;17RC500G18;32
S10;17SH300P19;11
S10;20ET075HC20;8
S10;24AF050R18;8
S10;24GD500R19;8
S10;24MA030R18;19
S10;27DF125I17;18
S10;27DH015I17;8
S10;27EV200I19;20
S10;27HSR030I16;7
S10;27MS050I20;8
S10;38FT200A18;5
S10;38WM065A18;6
S10;49AF015G20;86
S10;49TOTMC20;15
S10;52AS006G18;454
S10;52CP006K17;186
S10;52LC006A18;253
S10;52LT002R21;288
S10;52RC0015A18;115
S10;01BL012K18;14
S10;01PI150K18;12
S10;01SA100LT16;20
S10;11CF100TR19;8
S10;11GD050A18;10
S10;11GD050H19;77
S10;11LD200I19;8
S10;11SA100H19;20
S10;15LC250VA5;10
S10;17AS250P19;12
S10;17BD125G14;5
S10;17RS500FV21;43
S10;17SH300E19;11
S10;17SH300N18;8
S10;18ET010TL17;11
S10;24GC150C21;6
S10;27HC050I18;8
S21000;29GE200A18;18
S21000;38MI150A18;5
S21000;49DH004I17;22
S21000;52AS006FV21;147
S21000;52CD0015A18;158
S21000;52DC0015I20;1315
S21000;52DF002I17;148
S21000;52DS001I20;115
S21000;52OR001I18;355
S21000;01BK010K14;17
S21000;01BV050K16;7
S21000;01RC300KB20;6
S21000;11BP100I19;8
S21000;11BR100A20;5
S21000;11PM100DE20H;3
S21000;11PM100SH19;8
S21000;15ET100VA5;8
S21000;15LC250L14;8
S21000;17MC200G18;6
S21000;17RS500P19;33
S21000;17SH300D15;4
S21000;20MP030H20;8
S21000;27BP050I19;9
S21000;27DL200I13US;10
S21000;27TS050I20;56
S21000;29MA075A19;15
S21000;29SE125A21;11
S21000;49DH004I20;45
S21000;52AF006G20;100
S21000;52CP0015I19;138
S21000;52SH006G18;228
S21000;52TS001R21;156
S21000;01EC200K17;13
S21000;01HF100K17;9
S21000;01RV500K20;12
S21000;01SL300LV20;8
S21000;11CD050A18;15
S21000;11EP050H19;12
S21000;11EP090H19;16
S21000;11LC250H20;13
S21000;11PM100SI19;8
S21000;11SP200SL19;14
S21000;15CL150VM20H;8
S21000;15GM065L20;21
S21000;15LC250VB3;9
S21000;17AS250G18;12
S21000;17MM050A20;14
S21000;24BR050CB6;15
S21000;24MA030R18;18
S21000;27DH030I20;20
S21000;27DS030I20;12
S21000;27MQ065I15A;8
S21000;29ASH240A20;10
S10;49OR005I19;17
S10;49POUIS19;33
S10;52EV002I19;122
S10;52MC006G18;248
S10;52PS0015R21;277
S10;52SGEBAG19;361
S10;01CM500K20;6
S10;01MR030K14;20
S10;01SA100VE20;12
S10;01SA250VE16;17
S10;11CM030H20;21
S10;11ET050H20;5
S10;11FAG10TR19;8
S10;11SD100CS19;10
S10;15BA500L16A;10
S10;15CC150VA19;3
S10;15ET100VB3;10
S10;15RC500VB17;19
S10;17AS250E19;10
S10;17IC200D15;9
S10;17SE125D15;3
S10;17SH500E19;27
S10;17SH500P19;25
S10;18ET050TL17;6
S10;20DO130HC20;8
S10;20HR050H20;6
S10;24BR050R19;7
S10;24ET075CB4;10
S10;24LC250P15A;3
S10;24MA030S6;29
S10;24SA050CB6;15
S10;27KTFCAPAC20;8
S10;27OR030I19;37
S10;29BP100A19;8
S10;49MR010K14;33
S10;49PO2HER20;33
S10;52HR004G17;134
S10;98BBHD050A0;66
S10;SGOCVKI00154;1
S10;SGOCVKI00157;4
S20;01SL0045K13;15
S20;11BG140CS19;5
S20;11GD250H19;14
S20;11GD250H20;18
S20;11SD100SH19;8
S20;15GC150VBL20;6
S20;15GD500VB17;10
S20;17HI001G19;80
S20;17SH300G18;10
S20;20SA050HC20;19
S20;24MA030RE19;7
S20;27DC030I20;11
S20;27DL200I20;14
S20;29LC200A14US;23
S20;29RC200A19;29
S20;38RC050A18;8
S20;49CP008I19;7
S20;49LC020A15;10
S20;52DB001I17;61
S20;52HS001I17;128
S20;52HS004A18;127
S20;52MS001I20;205
S20;52SH006N18;102
S20;52SH006P19;354
S20;01CP200K17;2
S20;01RL500K20;24
S20;01SL300VE20;4
S20;11BG240DE20H;2
S20;11LC250H19;15
S20;11PM100SL19;9
S20;15MA030L11;13
S20;15SH250VA17;15
S20;17RS500G19;23
S20;17RS500N18;6
S20;18BI030TL17ET;16
S20;20DO050O20;5
S20;20ET075OC20;7
S20;24GD250R18;15
S20;24GD250R20;18
S20;24GD500R19;10
S20;24MA030RA19;8
S20;24SA050R18;17
S20;27DC050I20;20
S20;27DS030I17A;3
S20;27MP150I20;5
S20;27OR050I21C;14
S20;38BV050A19;14
S20;38WS030A18;6
S20;49CM030I19;10
S20;49DB004I20;5
S20;49SH035E20;44
S20;52HF004K17;99
S20;52LGENSA18;174
S20;52OR001I19;356
S21000;29HD250A21C;2
S21000;29MA030A17;19
S21000;29SH240A20;12
S21000;38EV075A18;8
S21000;49GD035CB5;150
S21000;49MS008I20;11
S21000;52FP0015I19;105
S21000;52SGENSA18;110
S21000;52WM0015A18;79
S21000;01CM030K21;23
S21000;01MA030K16;114
S21000;01SL0045K13;41
S21000;11BG140CS19;5
S21000;11GD250H19;15
S21000;11GD250H20;19
S21000;11SD100SH19;8
S21000;15GC150VBL20;10
S21000;15GD500VB17;9
S21000;17HI001G19;140
S21000;17SH300G18;14
S21000;20SA050HC20;10
S21000;24MA030RE19;10
S21000;27DC030I20;19
S21000;27DL200I20;11
S21000;29LC200A14US;25
S21000;38RC050A18;8
S21000;49CP008I19;5
S21000;49LC020A15;100
S21000;52HS001I17;232
S21000;52HS004A18;29
S21000;52MS001I20;55
S21000;52SH006N18;163
S21000;52SH006P19;363
S21000;01CP200K17;11
S21000;01RL500K20;19
S21000;01SL300VE20;8
S21000;11LC250H19;8
S21000;11PM100SL19;8
S21000;15MA030L11;20
S21000;15SH250VA17;10
S21000;17RS500G19;38
S21000;17RS500N18;6
S21000;18BI030TL17ET;18
S21000;20DO050O20;12
S21000;20ET075OC20;12
S21000;24GD250R18;8
S21000;24GD250R20;13
S21000;24GD500R19;10
S21000;24MA030RA19;10
S21000;24SA050R18;9
S21000;27DC050I20;20
S21000;27MP150I20;12
S21000;27OR050I21C;25
S20;52SH006FV21;48
S20;52SP001I19;231
S20;01CMR500K20;11
S20;01HV030K16;4
S20;01LH100KB19;2
S20;01LH300KB19;5
S20;11BG140SH19;9
S20;11SV080I19;6
S20;15GM280VB20;12
S20;17HR100G13;12
S20;17RC500G18;20
S20;17SH300P19;9
S20;20ET075HC20;7
S20;24AF050R18;6
S20;24MA075R18;9
S20;27DF125I17;10
S20;27DH015I17;2
S20;27EV200I19;9
S20;27HSR030I16;10
S20;27MS050I20;7
S20;29MA075A16;1
S20;38FT200A18;7
S20;38WM065A18;5
S20;49AF015G20;44
S20;49TOTMC20;14
S20;52AS006G18;271
S20;52CP006K17;257
S20;52LC006A18;423
S20;52LT002R21;64
S20;01BL012K18;7
S20;01PI150K18;5
S20;01SA100LT16;14
S20;11CF100TR19;13
S20;11GD050A18;10
S20;11LD200I19;4
S20;11SA100H19;11
S20;15LC250VA5;10
S20;17AS250P19;17
S20;17BD125G14;9
S20;17RS500FV21;20
S20;17SH300E19;9
S20;17SH300N18;5
S20;18ET010TL17;9
S20;24GC150C21;19
S20;27HC050I18;8
S20;49OR005I19;8
S20;49POUIS19;15
S20;52EV002I19;110
S20;52MC006G18;167
S20;52PS0015R21;70
S20;52SGEBAG19;338
S20;01CM500K20;3
S20;01MR030K14;11
S20;01SA100VE20;23
S20;01SA250VE16;11
S21000;38BV050A19;13
S21000;38WS030A18;3
S21000;49CM030I19;8
S21000;49SH035E20;72
S21000;52LGENSA18;120
S21000;52MMBBNO20;3
S21000;52OR001I19;159
S21000;52SH006FV21;101
S21000;52SP001I19;129
S21000;98BBSH050AR2;154
S21000;01CMR500K20;2
S21000;01HV030K16;5
S21000;01LH300KB19;8
S21000;11BG140SH19;6
S21000;11SV080I19;7
S21000;15GM280VB20;13
S21000;17HR100G13;14
S21000;17RC500G18;34
S21000;17SH300P19;9
S21000;20ET075HC20;12
S21000;24AF050R18;5
S21000;24MA075R18;15
S21000;27DF125I17;17
S21000;27DH015I17;5
S21000;27EV200I19;14
S21000;27HSR030I16;8
S21000;27MI150I17;1
S21000;27MS050I20;10
S21000;29MA075A16;1
S21000;38FT200A18;7
S21000;38WM065A18;8
S21000;49AF015G20;72
S21000;49TOTMC20;14
S21000;52AS006G18;178
S21000;52CP006K17;138
S21000;52LC006A18;285
S21000;52LT002R21;196
S21000;98BBSH050A0;11
S21000;01BL012K18;12
S21000;01PI150K18;8
S21000;01SA100LT16;18
S21000;11CF100TR19;21
S21000;11GD050A18;15
S21000;11LD200I19;14
S21000;11SA100H19;9
S21000;15LC250VA5;6
S21000;17AS250P19;11
S21000;17BD125G14;5
S21000;17RS500FV21;42
S21000;17SH300E19;7
S21000;17SH300N18;6
S21000;18ET010TL17;9
S21000;24GC150C21;4
S20;11CM030H20;26
S20;11ET050H20;8
S20;11FAG10TR19;7
S20;11SD100CS19;10
S20;15BA500L16A;13
S20;15CC150VA19;8
S20;15ET100VB3;6
S20;15RC500VB17;9
S20;17AS250E19;7
S20;17SE125D15;5
S20;17SH500E19;13
S20;17SH500P19;11
S20;18ET050TL17;7
S20;20DO130HC20;9
S20;20HR050H20;5
S20;24BR050R19;8
S20;24ET075CB4;10
S20;24MA030S6;15
S20;24SA050CB6;8
S20;27KTFCAPAC20;2
S20;27OR030I19;28
S20;49MR010K14;27
S20;49PO2HER20;36
S20;52HR004G17;115
S20;98BBHD050A0;2
S20;SGOCVKI00157;7
S21000;27HC050I18;8
S21000;49OR005I19;94
S21000;49POUIS19;13
S21000;52PS0015R21;169
S21000;52SGEBAG19;389
S21000;01CM500K20;9
S21000;01MR030K14;94
S21000;01SA100VE20;6
S21000;01SA250VE16;17
S21000;11CM030H20;45
S21000;11ET050H20;15
S21000;11FAG10TR19;7
S21000;11SD100CS19;9
S21000;15BA500L16A;7
S21000;15CC150VA19;4
S21000;15ET100VB3;8
S21000;15RC500VB17;24
S21000;17AS075E19;49
S21000;17AS250E19;9
S21000;17IC200D15;1
S21000;17SH500E19;17
S21000;17SH500P19;14
S21000;18ET050TL17;8
S21000;20DO130HC20;8
S21000;20HR050H20;6
S21000;24BR050R19;9
S21000;24ET075CB4;9
S21000;24MA030S6;20
S21000;24SA050CB6;9
S21000;27KTFCAPAC20;1
S21000;27OR030I19;29
S21000;29BP100A19;6
S21000;49PO2HER20;34
S21000;52HR004G17;6
S21000;52WS001A18;48
S21000;98BBHD050A0;75
S21000;SGOCVKI00157;6
S27000;49MS008I20;18
S28000;49MS008I20;8
S15;52FP0015I19;25
S27000;52FP0015I19;197
S28000;52FP0015I19;135
S15;52K10BLAV20;8
S28000;52K10BLAV20;6
S15;52SGENSA18;18
S27000;52SGENSA18;196
S28000;52SGENSA18;108
S28000;49LC020A15;56
S27000;52DB001I17;83
S15;52HS001I17;232
S27000;52HS001I17;158
S28000;52HS001I17;215
S15;52HS004A18;146
S27000;52HS004A18;53
S28000;52HS004A18;206
S15;52MS001I20;123
S27000;52MS001I20;166
S28000;52MS001I20;3
S15;52SH006N18;161
S27000;52SH006N18;26
S28000;52SH006N18;168
S15;52SH006P19;325
S27000;52SH006P19;312
S28000;52SH006P19;101
S15;38WS030A18;9
S27000;38WS030A18;7
S28000;38WS030A18;5
S15;49CM030I19;17
S27000;49CM030I19;6
S28000;49CM030I19;5
S15;49DB004I20;4
S27000;49DB004I20;1
S28000;49DB004I20;16
S15;49SH035E20;94
S27000;49SH035E20;48
S28000;49SH035E20;88
S27000;52HF004K17;115
S28000;52HF004K17;115
S27000;52KT10PCO18;1
S15;52LGENSA18;103
S27000;52LGENSA18;73
S28000;52LGENSA18;8
S15;52OR001I19;305
S27000;52OR001I19;246
S28000;52OR001I19;93
S15;52SH006FV21;182
S27000;52SH006FV21;44
S28000;52SH006FV21;4
S15;52SP001I19;170
S27000;52SP001I19;196
S28000;52SP001I19;51
S28000;98BBSH050AR2;63
S28000;49AF015G20;88
S15;49TOTMC20;15
S27000;49TOTMC20;15
S28000;49TOTMC20;16
S15;52AS006G18;144
S27000;52AS006G18;284
S28000;52AS006G18;256
S15;52CP006K17;53
S27000;52CP006K17;324
S28000;52CP006K17;111
S15;52LC006A18;150
S27000;52LC006A18;142
S15;52LT002R21;184
S27000;52LT002R21;48
S28000;52LT002R21;38
S27000;52RC0015A18;5
S28000;52RC0015A18;71
S28000;52PS0015R21;53
S28000;52PSAC18;1
S15;52SGEBAG19;324
S27000;52SGEBAG19;443
S28000;52SGEBAG19;199
S15;24MA030S6;30
S27000;24MA030S6;11
S28000;24MA030S6;36
S15;24SA050CB6;21
S27000;24SA050CB6;6
S28000;24SA050CB6;14
S15;27OR030I19;71
S27000;27OR030I19;49
S28000;27OR030I19;72
S15;29BP100A19;11
S28000;29BP100A19;5
S15;49CP020K18;1
S27000;49CP020K18;13
S15;49MR010K14;23
S27000;49MR010K14;21
S28000;49MR010K14;28
S15;49PO2HER20;57
S27000;49PO2HER20;34
S28000;49PO2HER20;59
S15;52HR004G17;41
S27000;52HR004G17;177
S28000;52HR004G17;52
S15;98BBHD050A0;14
S28000;98BBHD050A0;54
S15;SGOCVKI00157;1
SLM001;49ET007CB4;66
SLM001;49LD030I20;17
SLM001;01CL050K15;4
SLM001;17AS250F17;1
SLM001;17MC200N18;17
SLM001;17SH075G18;9
SLM001;24MA030P15;22
SLM001;27ER015I20;26
SLM001;29HD075A15;43
SLM001;49CRM1NO19;48
SLM001;49POU2VE20;80
SLM001;01MA150K18;31
SLM001;15GD250L14;31
SLM001;17AS500E19;5
SLM001;17SH075N18;12
SLM001;29EC200A13;4
SLM001;29HS100A18;15
SLM001;49BM010K19;29
SLM001;49CL008K15;19
SLM001;49EP005TL17ET;13
SLM001;49IC1POU20;118
SLM001;49IC3POU20;30
SLM001;49MA010P15;16
SLM001;49TC1NO20;17
SLM001;52SH006E19;36
SLM001;15GD250VB17;9
SLM001;15MA030VA5;15
SLM001;24RO010CB4;2
SLM001;27DCB060I17;10
SLM001;27TS001I20;841
SLM001;29HD250A15;110
SLM001;49HS015A18;39
SLM001;52AS006E19;56
SLM001;98BBAS035AR3;81
SLM001;17AS500G18;15
SLM001;27DH015I20;49
SLM001;27RM300I20;17
SLM001;52DC0015I20;33
SLM001;52DF002I17;258
SLM001;52OR001I18;953
SLM001;01BK010K14;9
SLM001;01BL012K15;4
SLM001;01SA080K17;1
SLM001;15LC250L14;21
SLM001;17MC200G18;10
SLM001;17RS500P19;21
SLM001;17SH300D15;3
SLM001;27MP150I13;1
SLM001;27TS050I20;19
SLM001;29SH075A20;46
SLM001;49DH004I20;26
SLM001;52SH006G18;758
SLM001;SGOCVE700006;1
SLM001;15GM065L20;24
SLM001;17AS250G18;22
SLM001;24BR050CB6;9
SLM001;27DH030I20;10
SLM001;27DS030I20;9
SLM001;29ASH240A20;9
SLM001;29MA030A17;24
SLM001;29SH240A20;7
SLM001;49BO015CS19;251
SLM001;49DC008I20;8
SLM001;49GD035CB5;96
SLM001;52SGEBOX18;48
SLM001;01MA030K16;54
SLM001;01MA075K18;34
SLM001;15LC070VB5;17
SLM001;17AS075N18;12
SLM001;17AS075P19;19
SLM001;17SH300G18;15
SLM001;24LC075CB5;19
SLM001;29LC200A14US;7
SLM001;49CP008I19;14
SLM001;49LC020A15;25
SLM001;49MA010K19H;13
SLM001;49MA010K20DTS;60
SLM001;52MS001I20;80
SLM001;01MA150K19H;2
SLM001;10CACLA20;2
SLM001;15GD070VB17;23
SLM001;15MA030L11;15
SLM001;17RS500G19;96
SLM001;17RS500N18;10
SLM001;27MP150I20;20
SLM001;38BV050A17;6
SLM001;38WS030A18;23
SLM001;49CM030I19;5
SLM001;49ET010V13;14
SLM001;49MA010CB4;118
SLM001;49MF010W19H;13
SLM001;49TOBAGSA20;1
SLM001;52OR001I19;472
SLM001;17HR100G13;10
SLM001;17RC500G18;13
SLM001;17SH300P19;4
SLM001;27DF125I17;17
SLM001;27MI150I17;1
SLM001;27MS050I20;31
SLM001;49MA010L16;150
SLM001;52AS006G18;618
SLM001;52LC006A18;364
SLM001;98BBSH035AR2;81
SLM001;01BL012K18;8
SLM001;01PI150K18;12
SLM001;11GD050A18;20
SLM001;15LC250VA5;18
SLM001;17AS250P19;15
SLM001;17SH300E19;7
SLM001;17SH300N18;8
SLM001;18ET010TL17;6
SLM001;49ED030K17;18
SLM001;49HD035K17;34
SLM001;49POUID20;91
SLM001;15BA500L16A;7
SLM001;17AS250E19;18
SLM001;17IC200D15;8
SLM001;17SH500E19;18
SLM001;17SH500P19;15
SLM001;18ET050TL17;18
SLM001;24ET075CB4;1
SLM001;24GD250S6;2
SLM001;24MA030S6;11
SLM001;24SA050CB6;2
SLM001;27OR030I19;38
SLM001;49BP010K19;20
SLM001;49CP020K18;50
SLM001;49MA010A17;431
SLM001;49MR010K14;89
SLM001;98BBHD035A0;48
SLM001;SGOCVKI00135;4
SLM001;SGOCVKI00147;3
SLM001;SGOCVKI00148;1
SLM001;SGOCVKI00153;9
SLM001;SGOCVKI00159;4
S90000;01SA050KV20;12
S24000;01SA100LV20;17
S90000;01SA100LV20;3
S90000;10QCRAC20;20
S24000;11CM125I19;2
S90000;11CM125I19;5
S90000;11GD050H20;1
S24000;11MH075A19;8
S90000;11MH075A19;7
S24000;11SD100SL19;4
S90000;11SD100SL19;9
S24000;15GD250L14;8
S90000;15LC075L15;10
S24000;17AS500E19;8
S90000;17AS500E19;6
S90000;17SH075N18;18
S24000;20GD250CD20;16
S90000;20GD250CD20;10
S90000;24GD075C21;18
S24000;24RO010R18;10
S90000;24RO010R18;6
S24000;27DB015I16;2
S24000;27DH030I17A;2
S90000;27DH030I17A;17
S24000;27HS030I18;9
S90000;27HS030I18;6
S24000;29EC200A13;1
S24000;29HS100A18;8
S24000;38WC050A21;13
S90000;49BF2NO20;83
S90000;49BM010K19;9
S90000;49CL008K15;16
S90000;49CL008K21;92
S90000;49EP005TL17ET;2
S24000;49IC1POU20;10
S90000;49IC1POU20;9
S90000;49IC3POU20;4
S24000;49JEWNO19;66
S90000;49JEWNO19;3
S90000;49MA010P15;1
S90000;49MW030I19;20
S90000;49TC1NO20;1
S90000;49TC2NO19;26
S24000;52DE001I17;146
S90000;52LASANO19;60
S90000;52LASANO20;60
S90000;52MMBYNO19;85
S90000;52SH006D17;149
S24000;52SH006E19;212
S90000;SGOCVKI00079;2
S90000;SGOCVKI00080;7
S24000;01CL200K17;6
S90000;01CL200K17;9
S24000;01HD250K17;6
S90000;01HD250K17;9
S24000;01SE125K21;12
S90000;01SE125K21;13
S24000;11LH200I19;8
S90000;11LH200I19;1
S24000;11SD100SI19;3
S90000;11SD100SI19;9
S24000;15AS250VA18;7
S90000;15AS250VA18;12
S24000;15GD250VB17;13
S90000;15GD250VB17;10
S24000;15MA030VA5;11
S90000;15MA030VA5;13
S24000;17RS500E20;7
S90000;17SH075E19;79
S90000;17SH300D14;1
S24000;17SH500FV21;9
S24000;24GM030C21;5
S90000;24GM030C21;17
S24000;24MA150R19;5
S90000;24MA150R19;7
S24000;24RO010CB4;12
S90000;24RO010CB4;6
S24000;27BY015I19;10
S90000;27BY015I19;2
S24000;27DCB060I17;6
S90000;27DCB060I17;8
S24000;27TS001I20;297
S90000;27TS001I20;306
S24000;29HD250A15;30
S90000;29HD250A15;10
S24000;38FT200A21;11
S24000;38WC050A18;11
S90000;38WC050A18;9
S90000;49EP005H20;1
S90000;49FC030A15;3
S90000;49HS015A18;4
S90000;49PO2SA19;45
S24000;52AS006E19;214
S24000;52ER006P19;169
S24000;52LGEBAG19;150
S90000;52LGEBOX18;50
S24000;52MIGEBAG19;26
S24000;01CL200K21;13
S90000;01CL200K21;9
S24000;01HDR500K20;5
S24000;01PR015R19;10
S90000;01PR015R19;11
S90000;11EH040A19;11
S24000;11GE075I20;6
S90000;11GE075I20;5
S24000;11LP080028M19;6
S90000;11LP080028M19;48
S24000;11SA100H20;16
S90000;11SA100H20;5
S24000;15SE400VB5;7
S90000;15SE400VB5;5
S24000;17AS500G18;9
S24000;17DO050F13;13
S24000;17HE010R14;1
S24000;20ET075CD20;6
S90000;20ET075CD20;6
S24000;20NV150H20;6
S90000;20NV150H20;1
S90000;24GD250C21;1
S24000;24MA030RV19;9
S24000;27DH015I20;7
S90000;27DS030I17;17
S24000;27RM300I20;11
S90000;27RM300I20;9
S24000;29GE200A18;4
S24000;38MI150A18;5
S90000;38MI150A18;5
S24000;38WM100A16;3
S90000;49CP008I14A;27
S24000;49DH004I17;27
S90000;49DH004I17;19
S90000;49FT030A18;12
S90000;52AS006F17;63
S24000;52AS006FV21;44
S24000;52CD0015A18;89
S24000;52DC0015I20;106
S90000;52DC0015I20;296
S24000;52DF002I17;96
S90000;52DF002I17;281
S24000;52DS001I20;217
S90000;52DS001I20;140
S90000;52MIBANO19;100
S90000;52MMSANO19;240
S90000;52MMSANO20;120
S90000;52STINO19;1
S90000;52STINO20;1
S24000;01BK010K14;16
S24000;01BV050K16;4
S90000;01BV050K16;8
S24000;01RC300KB20;8
S90000;01RC300KB20;1
S90000;10KTMC00M20;8
S24000;11BP100I19;7
S90000;11BP100I19;9
S24000;11BR100A20;6
S90000;11BR100A20;16
S24000;11PM100DE20H;3
S24000;11PM100SH19;4
S90000;11PM100SH19;8
S24000;15ET100VA5;8
S90000;15ET100VA5;8
S24000;15LC250L14;6
S90000;15LC250L14;1
S90000;15RS500VB3;13
S24000;17MC200G18;4
S24000;17RS500P19;11
S90000;17SH300D15;13
S24000;20MP030H20;7
S90000;20MP030H20;7
S90000;24MA030RV19;12
S24000;27BP050I19;9
S24000;27TS050I20;18
S90000;27TS050I20;16
S90000;29LC200A14;21
S24000;29MA075A19;9
S24000;29SE125A21;1
S90000;29SE125A21;11
S24000;29SH075A20;7
S90000;29SH075A20;3
S90000;49BAG2NO20;22
S90000;49BO015R14;12
S24000;49DH004I20;10
S90000;49DOPAQ19;6
S24000;49DRANO19;29
S90000;49DRANO19;1
S90000;49HBMD19;9
S90000;49POURS20;17
S24000;52CP0015I19;265
S24000;52SH006G18;368
S90000;52TRSAM19;15
S24000;52TS001R21;62
S90000;SGOCVE600003;9
S90000;SGOCVE700005;10
S90000;SGOCVE700009;2
S90000;SGOCVE700011;62
S90000;SGOCVE700012;21
S90000;SGOCVE700013;55
S24000;01EC200K17;2
S24000;01HF100K17;3
S24000;01RV500K20;10
S24000;01SL300LV20;8
S90000;01SL300LV20;13
S24000;11CD050A18;10
S90000;11CD050A18;6
S24000;11EP050H19;5
S90000;11EP050H19;9
S24000;11EP090H19;8
S90000;11EP090H19;9
S24000;11LC250H20;3
S90000;11LC250H20;11
S24000;11PM100SI19;8
S90000;11PM100SI19;6
S24000;11SP200SL19;7
S24000;15CL150VM20H;4
S24000;15GM065L20;11
S90000;15GM065L20;11
S24000;15LC250VB3;9
S24000;17AS250G18;9
S90000;17AS250G18;8
S24000;17MM050A20;11
S90000;17MM050A20;7
S90000;18LC050TL17ET;2
S24000;24BR050CB6;12
S90000;24BR050CB6;5
S90000;24LC075C20;18
S90000;24LC075C21;18
S24000;24MA030R18;19
S90000;24MA030R18;8
S90000;24SA050S6;15
S24000;27DH030I20;12
S90000;27DH030I20;6
S24000;27DS030I20;10
S90000;27DS030I20;4
S24000;27MQ065I15A;6
S90000;27MQ065I15A;4
S24000;29ASH240A20;7
S90000;29ASH240A20;5
S24000;29HD250A21C;9
S90000;29HD250A21C;11
S24000;29MA030A17;11
S24000;29SH240A20;7
S24000;38EV075A18;4
S90000;38EV075A18;1
S90000;49BAGVE18;3
S90000;49BAGVE19;1
S90000;49BO015CS19;395
S90000;49DC008I17;16
S24000;49DC008I20;4
S90000;49DC008I20;7
S90000;49GD035CB5;2
S24000;49MS008I20;14
S90000;49MS008I20;99
S24000;52FP0015I19;152
S90000;52RIB1NO20;1
S90000;52RIB2NO20;1
S24000;52SGENSA18;78
S90000;52SGENSA18;112
S90000;52WM0015A18;150
S24000;01BL012K18;13
S90000;01BL012K18;4
S90000;01CP050K17;81
S24000;01PI150K18;3
S24000;01SA100LT16;15
S90000;10QUAGD19;21
S24000;11CF100TR19;10
S90000;11CF100TR19;9
S24000;11GD050A18;9
S90000;11GD050A18;5
S90000;11GD050H19;13
S24000;11LD200I19;5
S24000;11SA100H19;17
S90000;11SA100H19;15
S24000;15LC250VA5;8
S90000;15LC250VA5;5
S24000;17AS250P19;8
S90000;17AS250P19;7
S24000;17BD125G14;10
S24000;17RS500FV21;1
S24000;17SH075FV21;2
S24000;17SH300E19;14
S90000;17SH300E19;9
S24000;17SH300N18;8
S90000;17SH300N18;10
S24000;18ET010TL17;12
S90000;18ET010TL17;7
S24000;20GD250OC16;5
S24000;24GC150C21;12
S90000;24GC150C21;8
S24000;27HC050I18;7
S90000;27HC050I18;12
S90000;49ED030K17;26
S90000;49HD035K17;89
S24000;49OR005I19;7
S90000;49OR005I19;107
S90000;49POUCB21;18
S90000;49POUID20;32
S24000;49POUIS19;28
S90000;49POUIS19;31
S24000;52EV002I19;29
S24000;52MC006G18;117
S24000;52PS0015R21;57
S24000;52SGEBAG19;257
S90000;52SGEBAG19;293
S90000;52TRIHDTS19;26
S90000;SGOCVKI00102;6
S90000;SGOCVKI00104;6
S90000;SGOCVKI00105;4
S90000;SGOCVKI00107;10
S90000;SGOCVKI00108;3
S90000;SGOCVKI00109;2
S90000;SGOCVKI00111;2
S90000;SGOCVKI00112;5
S90000;SGOCVKI00113;5
S90000;SGOCVKI00114;4
S90000;SGOCVKI00116;3
S90000;SGOCVKI00117;10
S90000;SGOCVKI00119;14
S90000;SGOCVKI00121;5
S90000;SGOCVKI00122;5
S90000;SGOCVKI00123;10
S90000;SGOCVKI00126;1
S24000;01CMR500K20;5
S24000;01HV030K16;5
S90000;01HV030K16;7
S90000;01LH100KB19;8
S24000;01LH300KB19;6
S90000;01LH300KB19;6
S90000;01MA150K20H;4
S90000;10BOWEB219;1600
S90000;10BOWEB319;2100
S90000;10BOWEB419;2100
S24000;11BG140SH19;7
S24000;11SV080I19;7
S90000;11SV080I19;9
S90000;15ET100VAL20;1
S24000;15GM280VB20;11
S90000;15GM280VB20;13
S24000;17HR100G13;1
S24000;17RC500G18;15
S90000;17SH075D15;19
S24000;17SH300P19;9
S90000;17SH300P19;6
S24000;20ET075HC20;6
S90000;20ET075HC20;3
S24000;24AF050R18;15
S90000;24AF050R18;5
S90000;24ET050C19;2
S90000;24ET075P15;2
S24000;24MA075R18;19
S90000;24MA075R18;11
S90000;24SACHB20;133
S24000;27DF125I17;13
S24000;27DH015I17;15
S24000;27EV200I19;12
S24000;27HSR030I16;15
S90000;27HSR030I16;5
S24000;27MS050I20;13
S90000;27MS050I20;10
S90000;29MA075A16;2
S90000;29SAALM20;85
S24000;38FT200A18;8
S90000;38FT200A18;8
S24000;38WM065A18;5
S90000;38WM065A18;8
S24000;49AF015G20;7
S90000;49MIRCB19;2
S90000;49PO1RE19;5
S24000;49TOTMC20;13
S90000;49TOTMC20;3
S90000;49TRPIV16;15
S24000;52AS006G18;215
S90000;52BOWEB117;2372
S90000;52BOWEB217;5566
S90000;52BOWEB317;2349
S24000;52CP006K17;168
S90000;52CP006K17;150
S90000;52DH001I17;2
S24000;52LC006A18;199
S24000;52LT002R21;89
S24000;52RC0015A18;36
S90000;SGOCVKI00137;34
S90000;SGOCVKI00138;3
S90000;SGOCVKI00139;2
S90000;SGOCVKI00143;6
S90000;SGOCVKI00144;10
S90000;SGOCVKI00147;2
S90000;SGOCVKI00154;1
S24000;SGOCVKI00157;4
S90000;SGOCVKI00158;1
