S15;01BG070K21;7
S27000;01BG070K21;10
S28000;01BG070K21;1
S15;01BV050K16;4
S27000;01BV050K16;8
S28000;01BV050K16;9
S15;01CL200K17;10
S27000;01CL200K17;8
S28000;01CL200K17;15
S15;01SA100LV20;45
S27000;01SA100LV20;20
S28000;01SA100LV20;30
S15;11BG140SL19;10
S27000;11BG140SL19;8
S28000;11BG140SL19;8
S15;11GN195A18;15
S27000;11GN195A18;10
S28000;11GN195A18;11
S27000;11PM100DE20H;4
S28000;11PM100DE20H;3
S15;11PM100SH19;8
S27000;11PM100SH19;9
S28000;11PM100SH19;8
S15;01CM300K20;12
S27000;01CM300K20;8
S28000;01CM300K20;12
S15;01SL300VE20;7
S27000;01SL300VE20;8
S28000;01SL300VE20;9
S27000;11BG240DE20H;1
S28000;11BG240DE20H;3
S15;11EH150A18;10
S27000;11EH150A18;7
S28000;11EH150A18;8
S15;11MW200I19;7
S27000;11MW200I19;5
S28000;11MW200I19;3
S15;11MWC200I19;8
S27000;11MWC200I19;8
S28000;11MWC200I19;8
S15;11PEP050I20;8
S27000;11PEP050I20;6
S28000;11PEP050I20;8
S15;17HR100G13;17
S27000;17HR100G13;4
S28000;17HR100G13;18
S15;17SH300E19;16
S27000;17SH300E19;11
S28000;17SH300E19;18
S15;20NV150H20;17
S27000;20NV150H20;7
S28000;20NV150H20;21
S15;01CM030K21;31
S27000;01CM030K21;4
S15;01HV030K16;8
S27000;01HV030K16;6
S28000;01HV030K16;8
S15;01PI030K18;20
S27000;01PI030K18;10
S28000;01PI030K18;20
S15;01SL500VE20;14
S27000;01SL500VE20;8
S28000;01SL500VE20;15
S15;11CM030H19;25
S27000;11CM030H19;20
S28000;11CM030H19;39
S15;11GD050A18;13
S27000;11GD050A18;11
S28000;11GD050A18;18
S28000;11LB000TR19;8
S15;11LT300I20;8
S27000;11LT300I20;8
S28000;11LT300I20;12
S15;11MA030A20;10
S27000;11MA030A20;8
S28000;11MA030A20;14
S15;15ET100VA5;8
S27000;15ET100VA5;6
S28000;15ET100VA5;9
S15;15LC250VBL20;2
S15;15MA030L11;32
S27000;15MA030L11;13
S28000;15MA030L11;27
S15;15MA030VA5;21
S15;27DC050I20;16
S27000;27BP050I19;6
S15;27BP050I19;13
S28000;24SA050R18;14
S27000;24SA050R18;10
S15;24SA050R18;16
S27000;24MA030RV19;14
S15;24MA030RV19;7
S28000;24LC250R20;17
S27000;24LC250R20;9
S15;24LC250R20;16
S28000;20ET075HC20;9
S27000;20ET075HC20;8
S15;20ET075HC20;11
S28000;18ET010TL17;10
S27000;18ET010TL17;10
S15;18ET010TL17;14
S28000;17VI100P19;8
S27000;17VI100P19;6
S15;17VI100P19;16
S28000;15MA075L11;15
S27000;15MA075L11;11
S15;15MA075L11;19
S28000;15GN300L11;10
S27000;15GN300L11;9
S15;15GN300L11;16
S28000;01RV500K20;23
S27000;01RV500K20;12
S15;01RV500K20;14
S28000;01PR015R19;17
S27000;01PR015R19;18
S15;01PR015R19;10
S28000;01PI150K18;13
S27000;01PI150K18;2
S15;01PI150K18;29
S28000;24MA075R18;25
S27000;24MA075R18;15
S15;24MA075R18;17
S28000;24EF050R18;12
S27000;24EF050R18;6
S15;24EF050R18;2
S28000;20SA050HC20;12
S27000;20SA050HC20;8
S15;20SA050HC20;12
S28000;20GD250CD20;13
S27000;20GD250CD20;7
S15;20GD250CD20;26
S28000;17SH300G18;19
S27000;17SH300G18;10
S15;17SH300G18;24
S28000;17MM050A20;16
S27000;17MM050A20;8
S28000;17HI100G19;9
S27000;17HI100G19;9
S15;17HI100G19;13
S28000;17AS500P19;8
S27000;17AS500P19;8
S15;17AS500P19;12
S28000;17AS250E19;10
S27000;17AS250E19;10
S15;17AS250E19;10
S28000;15SA070VB6;8
S27000;15SA070VB6;6
S15;15SA070VB6;10
S28000;15LC250L14;10
S27000;15LC250L14;8
S15;15LC250L14;11
S15;15GD075L15;1
S28000;15ET100VM20H;10
S15;15ET100VM20H;1
S28000;15ET010VB19;8
S27000;15ET010VB19;8
S15;15ET010VB19;10
S28000;01BM150K19;26
S27000;01BM150K19;12
S15;01BM150K19;28
S28000;24MA030R18;38
S27000;24MA030R18;20
S15;24MA030R18;48
S27000;15MA030VA5;15
S28000;15MA030VA5;20
S15;15SE400VB5;6
S27000;15SE400VB5;5
S28000;15SE400VB5;8
S15;17AS250G18;18
S27000;17AS250G18;12
S28000;17AS250G18;19
S15;17RC500G18;31
S27000;17RC500G18;29
S28000;17RC500G18;45
S15;18GD250TL17ET;19
S27000;18GD250TL17ET;15
S28000;18GD250TL17ET;13
S27000;20ET075OC20;9
S28000;20ET075OC20;11
S15;24ET075CB4;9
S27000;24ET075CB4;10
S28000;24ET075CB4;9
S15;27DS030I17A;9
S15;27FP050I19;7
S27000;27FP050I19;10
S28000;27FP050I19;8
S15;27MS050I20;11
S27000;27MS050I20;10
S28000;27MS050I20;19
S15;27TS050I20;29
S27000;27TS050I20;39
S28000;27TS050I20;49
S15;01SL300LV20;8
S27000;01SL300LV20;8
S28000;01SL300LV20;11
S15;11LC250H19;15
S27000;11LC250H19;10
S28000;11LC250H19;14
S15;11MH075A19;8
S27000;11MH075A19;8
S28000;11MH075A19;10
S15;11SD100SL19;9
S27000;11SD100SL19;7
S28000;11SD100SL19;7
S15;15CP250VA5;8
S27000;15CP250VA5;8
S28000;15CP250VA5;6
S15;15GM280VB20;10
S27000;15GM280VB20;8
S28000;15GM280VB20;15
S15;15MA030VB3;27
S27000;15MA030VB3;15
S28000;15MA030VB3;29
S15;15MA075VB4;17
S27000;15MA075VB4;12
S28000;15MA075VB4;20
S15;17AS500E19;21
S27000;17AS500E19;10
S28000;17AS500E19;37
S15;17RS500G19;38
S27000;17RS500G19;24
S28000;17RS500G19;61
S15;17RS500N18;6
S27000;17RS500N18;5
S28000;17RS500N18;4
S15;17SH075G18;30
S27000;17SH075G18;36
S28000;17SH075G18;30
S15;17SH500G18;17
S27000;17SH500G18;18
S28000;17SH500G18;28
S15;18ET090TL17;8
S27000;18ET090TL17;6
S28000;18ET090TL17;6
S15;24MA075P15;14
S27000;24MA075P15;15
S28000;24MA075P15;20
S15;24RO010CB4;11
S27000;24RO010CB4;10
S28000;24RO010CB4;12
S15;27DB015I16;5
S15;27ER015I20;20
S27000;27ER015I20;14
S28000;27ER015I20;21
S15;27EV200I19;13
S27000;27EV200I19;10
S28000;27EV200I19;10
S15;27HS030I18;8
S27000;27HS030I18;4
S28000;27HS030I18;6
S15;27MQ065I15A;6
S27000;27MQ065I15A;7
S28000;27MQ065I15A;5
S15;29SA050A17;19
S27000;29SA050A17;8
S28000;29SA050A17;18
S15;01BL012K18;19
S27000;01BL012K18;17
S28000;01BL012K18;31
S15;01CL200K21;5
S27000;01CL200K21;14
S28000;01CL200K21;8
S15;01HF100K17;10
S27000;01HF100K17;8
S28000;01HF100K17;6
S15;01SA050KV20;18
S27000;01SA050KV20;8
S28000;01SA050KV20;23
S15;11CF100TR19;8
S27000;11CF100TR19;9
S28000;11CF100TR19;14
S15;11ET010H20;13
S27000;11ET010H20;8
S28000;11ET010H20;7
S15;11SA100H19;10
S27000;11SA100H19;10
S28000;11SA100H19;14
S15;11SP200SI19;10
S27000;11SP200SI19;8
S28000;11SP200SI19;10
S15;17AS075G18;32
S27000;17BD125G14;1
S28000;17BD125G14;1
S15;17ER075P19;16
S27000;17ER075P19;7
S28000;17ER075P19;15
S15;17SH060SE21;10
S27000;17SH060SE21;11
S28000;17SH060SE21;8
S15;17SH060SG21;11
S27000;17SH060SG21;8
S28000;17SH060SG21;9
S15;17SH060SP21;10
S27000;17SH060SP21;8
S28000;17SH060SP21;9
S15;17SH500E19;13
S27000;17SH500E19;15
S28000;17SH500E19;27
S15;17SH500P19;23
S27000;17SH500P19;22
S28000;17SH500P19;24
S15;20SA050CD20;12
S27000;20SA050CD20;8
S28000;20SA050CD20;12
S27000;24GD500R19;8
S28000;24GD500R19;15
S15;27DE015I21;45
S27000;27DE015I21;23
S28000;27DE015I21;45
S15;29RH500A15;63
S27000;29RH500A15;51
S28000;29RH500A15;65
S15;38UV030A18;8
S27000;38UV030A18;12
S28000;38UV030A18;13
S15;49BF2NO20;1
S15;49DC004I20;29
S27000;49DC004I20;24
S28000;49DC004I20;19
S15;49HD035K19H;8
S15;01BK010K14;22
S27000;01BK010K14;20
S28000;01BK010K14;30
S15;01CP100K21;11
S27000;01CP100K21;10
S28000;01CP100K21;5
S15;01RL500K20;3
S27000;01RL500K20;5
S15;11BG140SH19;8
S27000;11BG140SH19;8
S15;11CM125I19;10
S27000;11CM125I19;9
S28000;11CM125I19;10
S15;11LH200I19;13
S27000;11LH200I19;10
S28000;11LH200I19;12
S15;11SA100H20;10
S27000;11SA100H20;10
S28000;11SA100H20;16
S15;11SP200SL19;6
S27000;11SP200SL19;8
S28000;11SP200SL19;9
S15;17MC200N18;1
S27000;17MC200N18;3
S28000;17MC200N18;3
S15;17SH500N18;5
S27000;17SH500N18;3
S28000;17SH500N18;3
S15;18SA075TL17ET;8
S27000;18SA075TL17ET;10
S28000;18SA075TL17ET;12
S15;20ET100OC13;2
S15;20MP030H20;6
S27000;20MP030H20;6
S28000;20MP030H20;7
S15;24AF050R18;6
S27000;24AF050R18;8
S28000;24AF050R18;15
S15;24LC250CB4;17
S27000;24LC250CB4;9
S28000;24LC250CB4;23
S15;27DL200I20;14
S27000;27DL200I20;10
S28000;27DL200I20;12
S28000;27KTFCAPAC20;2
S15;27MP150I20;15
S27000;27MP150I20;9
S28000;27MP150I20;13
S15;27RM300I20;21
S27000;27RM300I20;14
S28000;27RM300I20;11
S24000;01CM300K20;8
S90000;01CM300K20;16
S90000;01MA030K20H;4
S24000;01PI150K18;8
S90000;01PI150K18;9
S24000;01PR015R19;11
S90000;01PR015R19;12
S24000;01RV500K20;10
S90000;01RV500K20;31
S24000;01SL300VE20;8
S90000;01SL300VE20;14
S24000;11BG240DE20H;1
S24000;11EH150A18;10
S90000;11EH150A18;10
S24000;11MW200I19;2
S90000;11MW200I19;1
S24000;11MWC200I19;8
S90000;11MWC200I19;10
S24000;11PEP050I20;6
S90000;11PEP050I20;7
S24000;15GD500VA20;15
S24000;15GN300L11;10
S90000;15GN300L11;14
S24000;15MA075L11;6
S90000;15MA075L11;11
S90000;15MF030VM20H;10
S24000;17HR100G13;8
S90000;17HR100G13;5
S24000;17SH300E19;14
S90000;17SH300E19;15
S24000;17VI100P19;6
S90000;17VI100P19;10
S24000;18ET010TL17;11
S90000;18ET010TL17;8
S24000;20ET075HC20;7
S90000;01MA030K21;1
S90000;20ET075HC20;9
S24000;20NV150H20;14
S90000;20NV150H20;7
S90000;24LC250R18;2
S24000;24LC250R20;11
S90000;24LC250R20;15
S24000;24MA030RV19;9
S24000;24SA050R18;10
S90000;24SA050R18;11
S24000;27BP050I19;11
S24000;27DC050I20;13
S90000;27DC050I20;11
S24000;27HSR030I16;8
S90000;27HSR030I16;6
S24000;29BP100A19;6
S90000;29BP100A19;9
S24000;29LC200A14US;15
S15;29EC200A13;7
S27000;29EC200A13;18
S28000;29EC200A13;19
S15;29MAV075A19;7
S27000;29MAV075A19;8
S28000;29MAV075A19;5
S15;38EV075A18;5
S27000;38EV075A18;11
S28000;38EV075A18;13
S15;49CM030I19;16
S15;49LD030I20;14
S15;49MA010CB4;64
S27000;49MA010CB4;27
S15;01CM500K20;12
S27000;01CM500K20;6
S28000;01CM500K20;14
S15;01CP200K17;23
S27000;01CP200K17;10
S28000;01CP200K17;19
S15;11BP100I19;7
S27000;11BP100I19;7
S15;11BR100A20;18
S27000;11BR100A20;10
S28000;11BR100A20;17
S15;11GM200I19;10
S27000;11GM200I19;10
S28000;11GM200I19;8
S15;11SV080I19;8
S27000;11SV080I19;7
S28000;11SV080I19;7
S15;15BA500L16A;11
S27000;15BA500L16A;9
S28000;15BA500L16A;7
S15;15CC150VA19;7
S15;15GM065L20;19
S27000;15GM065L20;13
S28000;15GM065L20;15
S15;15HE005L14;6
S27000;15HE005L14;6
S28000;15HE005L14;5
S15;15RG500VA20;17
S15;17MC200G18;14
S27000;17MC200G18;8
S28000;17MC200G18;17
S15;17RS500FV21;38
S27000;17RS500FV21;26
S28000;17RS500FV21;38
S15;27DB015I20;16
S27000;27DB015I20;10
S28000;27DB015I20;34
S15;27DH030I17A;7
S15;27HC050I18;7
S27000;27HC050I18;8
S28000;27HC050I18;8
S15;29ASH240A20;11
S27000;29ASH240A20;8
S28000;29ASH240A20;11
S15;29MA030A17;33
S27000;29MA030A17;16
S28000;29MA030A17;31
S27000;01EM075K18;1
S15;01MA075K18;33
S27000;01MA075K18;29
S28000;01MA075K18;22
S15;01SE125K21;21
S27000;01SE125K21;11
S28000;01SE125K21;13
S28000;11BG140SH19;12
S15;11BG140SI19;10
S27000;11BG140SI19;8
S28000;11BG140SI19;8
S15;11GD250H19;20
S27000;11GD250H19;18
S28000;11GD250H19;15
S15;11GD250H20;13
S27000;11GD250H20;15
S28000;11GD250H20;13
S15;11GE075I20;16
S27000;11GE075I20;8
S28000;11GE075I20;9
S15;15LC250VA5;10
S27000;15LC250VA5;8
S28000;15LC250VA5;17
S15;17DO050F13;15
S27000;17DO050F13;10
S28000;17DO050F13;21
S15;17RS500P19;44
S27000;17RS500P19;24
S28000;17RS500P19;45
S15;27DC030I20;14
S27000;27DC030I20;14
S28000;27DC030I20;12
S15;27DF125I17;14
S27000;27DF125I17;22
S28000;27DF125I17;20
S15;27DH015I17;3
S15;27HCR050I16;8
S27000;27HCR050I16;8
S28000;27HCR050I16;12
S27000;29BP100A18;2
S15;29HD500A15;31
S27000;29HD500A15;32
S28000;29HD500A15;65
S15;29SE125A21;18
S27000;29SE125A21;8
S28000;29SE125A21;19
S15;38FT200A21;12
S27000;38FT200A21;23
S28000;38FT200A21;17
S15;38WM065A18;8
S27000;38WM065A18;6
S28000;38WM065A18;8
S15;01BM050K19;14
S27000;01BM050K19;10
S28000;01BM050K19;26
S15;01HD250K17;13
S27000;01HD250K17;10
S28000;01HD250K17;10
S15;11EP050H19;8
S27000;11EP050H19;8
S28000;11EP050H19;8
S15;11EP090H19;10
S27000;11EP090H19;6
S28000;11EP090H19;6
S15;15ET100VB3;7
S27000;15ET100VB3;8
S28000;15ET100VB3;11
S15;15LM300L11;20
S27000;15LM300L11;9
S28000;15LM300L11;11
S15;15RG500L14;18
S27000;15RG500L14;11
S28000;15RG500L14;22
S15;17AF100G20;23
S27000;17AF100G20;19
S28000;17AF100G20;26
S15;17SE100FV21;17
S27000;17SE100FV21;10
S28000;17SE100FV21;37
S15;17SH300N18;5
S27000;17SH300N18;4
S28000;17SH300N18;14
S15;20DO050O20;10
S27000;20DO050O20;8
S15;49POUM20;33
S28000;49PFCWC21;1
S15;49PFCWC21;16
S27000;24VF050R18;9
S15;24VF050R18;4
S28000;24GD075CB5;157
S27000;24GD075CB5;27
S15;24GD075CB5;64
S27000;52DH001I20;638
S15;52DH001I20;206
S28000;52CP0015I19;219
S27000;52CP0015I19;264
S15;52CP0015I19;52
S28000;52CD0015A18;191
S27000;52CD0015A18;209
S15;52CD0015A18;76
S28000;29VC240A16;23
S27000;29VC240A16;8
S15;29VC240A16;18
S28000;29SH240A20;9
S27000;29SH240A20;7
S15;29SH240A20;12
S28000;24BL012CB5;22
S27000;24BL012CB5;11
S15;24BL012CB5;13
S27000;52HF004K17;76
S28000;52ER002I21;748
S27000;52ER002I21;502
S15;52ER002I21;263
S28000;20DO050O20;14
S15;24GD500R19;9
S15;24MA030RA19;7
S27000;24MA030RA19;15
S28000;24MA030RA19;20
S15;24MA150R19;18
S27000;24MA150R19;9
S28000;24MA150R19;13
S15;27DS030I20;12
S27000;27DS030I20;10
S28000;27DS030I20;18
S15;29GE200A18;18
S27000;29GE200A18;14
S28000;29GE200A18;30
S15;29HS100A18;17
S27000;29HS100A18;12
S28000;29HS100A18;28
S15;29MA075A19;20
S27000;29MA075A19;13
S28000;29MA075A19;24
S15;52CL0015K18;317
S27000;52CL0015K18;161
S28000;52CL0015K18;109
S27000;52CL0015K21;100
S15;52DB001I20;159
S27000;52DB001I20;254
S28000;52DB001I20;160
S15;52HS001I17;79
S27000;52HS001I17;198
S28000;52HS001I17;94
S15;52HS004A18;1
S27000;52HS004A18;141
S15;01BP050K21;17
S27000;01BP050K21;12
S28000;01BP050K21;14
S15;01CL300KB20;10
S27000;01CL300KB20;6
S28000;01CL300KB20;11
S15;01MA030K16;53
S27000;01MA030K16;20
S28000;01MA030K16;43
S15;01SL500LV20;11
S27000;01SL500LV20;8
S28000;01SL500LV20;11
S15;11BH050A18;11
S27000;11BH050A18;9
S28000;11BH050A18;15
S15;11PM100SI19;8
S27000;11PM100SI19;8
S28000;11PM100SI19;14
S15;17RC500P19;15
S27000;17RC500P19;10
S28000;17RC500P19;27
S15;20AR075H16;8
S15;20DO075CD20;11
S27000;20DO075CD20;7
S28000;20DO075CD20;13
S15;20GD250HC20;16
S27000;20GD250HC20;7
S28000;20GD250HC20;13
S15;20HR050H20;8
S27000;20HR050H20;4
S28000;20HR050H20;8
S15;24BR050CB6;19
S27000;24BR050CB6;12
S28000;24BR050CB6;12
S27000;24GM030C21;6
S15;24MA030P15;23
S27000;24MA030P15;14
S28000;24MA030P15;28
S15;24MA030RE19;8
S27000;24MA030RE19;8
S28000;24MA030RE19;17
S15;24MA030S6;26
S27000;24MA030S6;18
S28000;24MA030S6;39
S15;27ER050I21;48
S27000;27ER050I21;46
S28000;27ER050I21;168
S15;27ER150I21;31
S27000;27ER150I21;41
S28000;27ER150I21;149
S15;38EC015A18;8
S27000;38EC015A18;6
S28000;38EC015A18;7
S15;38WS030A21;13
S27000;38WS030A21;6
S28000;38WS030A21;12
S15;49TOTMC20;15
S15;52AS006FV21;191
S27000;52AS006FV21;126
S28000;52AS006FV21;509
S15;52DE001I21;252
S27000;52DE001I21;225
S28000;52DE001I21;72
S15;01CL050K21;9
S27000;01CL050K21;7
S28000;01CL050K21;12
S15;01CV050K18;8
S27000;01CV050K18;8
S28000;01CV050K18;13
S15;01EN300KB19;29
S27000;01EN300KB19;21
S28000;01EN300KB19;29
S15;01HD500K20;19
S27000;01HD500K20;10
S28000;01HD500K20;22
S27000;01RC300KB20;10
S15;11SD100SH19;9
S27000;11SD100SH19;8
S28000;11SD100SH19;9
S27000;15CL150VM20H;10
S15;15GC150VBL20;15
S28000;15GC150VBL20;6
S15;15GD250VB17;23
S27000;15GD250VB17;12
S28000;15GD250VB17;24
S15;15LC250VB3;15
S27000;15LC250VB3;10
S28000;15LC250VB3;21
S15;17RC500E20;21
S27000;17RC500E20;20
S28000;17RC500E20;30
S15;18LC250TL17ET;20
S27000;18LC250TL17ET;15
S28000;18LC250TL17ET;15
S15;20SA050O20;12
S27000;20SA050O20;8
S28000;20SA050O20;12
S15;24GC150C21;16
S27000;24GC150C21;9
S28000;24GC150C21;12
S28000;24MA030RV19;20
S15;24SA050CB6;16
S27000;24SA050CB6;10
S28000;24SA050CB6;15
S15;27DCB060I17;6
S27000;27DCB060I17;5
S28000;27DCB060I17;12
S15;27TS001I20;224
S15;52MS001I20;97
S15;10KTMC00M20;1
S28000;01SA250LV20;25
S27000;01SA250LV20;15
S15;01SA250LV20;32
S27000;27TS001I20;409
S28000;27TS001I20;531
S15;49PO2HER20;47
S15;49TOTWC21;60
S27000;49TOTWC21;26
S28000;49TOTWC21;62
S15;52MC006G18;30
S27000;52MC006G18;39
S28000;52MC006G18;4
S15;52MGEBAG19;30
S27000;52MGEBAG19;189
S28000;52MGEBAG19;270
S15;52SGENSA18;107
S27000;52SGENSA18;293
S28000;52SGENSA18;206
S15;01EM075K20;6
S27000;01EM075K20;6
S28000;01EM075K20;8
S15;01HDR500K20;10
S27000;01HDR500K20;15
S28000;01HDR500K20;17
S15;01LH300KB19;9
S27000;01LH300KB19;5
S28000;01LH300KB19;9
S15;01MR030K14;25
S27000;01MR030K14;19
S28000;01MR030K14;33
S15;01SA250LT20;13
S27000;01SA250LT20;15
S28000;01SA250LT20;28
S15;11BO100CS19;25
S27000;11BO100CS19;16
S28000;11BO100CS19;30
S15;11EP010H19;12
S27000;11EP010H19;10
S28000;11EP010H19;15
S15;11LC250H20;17
S27000;11LC250H20;12
S28000;11LC250H20;12
S15;11SD100CS19;10
S27000;11SD100CS19;10
S28000;11SD100CS19;11
S15;15RC500VB17;24
S27000;15RC500VB17;18
S28000;15RC500VB17;34
S15;15SH250VA17;13
S27000;15SH250VA17;8
S28000;15SH250VA17;17
S15;17AS075P19;3
S15;17AS250P19;11
S27000;17AS250P19;10
S28000;17AS250P19;7
S15;17HI001G19;33
S27000;17HI001G19;176
S28000;17HI001G19;292
S15;17SH075E19;30
S27000;17SH075E19;36
S28000;17SH075E19;30
S15;18BI030TL17ET;38
S27000;18BI030TL17ET;20
S28000;18BI030TL17ET;44
S15;20AR075O20;8
S27000;20AR075O20;11
S28000;20AR075O20;18
S15;27DE015I13US;14
S15;49CP008I19;5
S15;52AF006G20;128
S27000;52AF006G20;170
S28000;52AF006G20;135
S27000;52EV002I19;174
S28000;52EV002I19;103
S15;52HV001K18;41
S27000;52HV001K18;110
S28000;52HV001K18;178
S15;52LC006A18;259
S27000;52LC006A18;433
S28000;52LC006A18;251
S15;52SGEBAG19;268
S27000;52SGEBAG19;510
S15;01CMR500K20;9
S27000;01CMR500K20;4
S28000;01CMR500K20;8
S15;01SA100LT16;18
S27000;01SA100LT16;13
S28000;01SA100LT16;40
S15;01SA100VE20;32
S27000;01SA100VE20;18
S28000;01SA100VE20;31
S15;11BG140CS19;11
S27000;11BG140CS19;8
S28000;11BG140CS19;9
S15;11CM030H20;30
S27000;11CM030H20;19
S28000;11CM030H20;15
S15;11LD200I19;9
S27000;11LD200I19;10
S28000;11LD200I19;13
S15;11SD100SI19;8
S27000;11SD100SI19;8
S28000;11SD100SI19;6
S15;15GD500VB17;12
S27000;15GD500VB17;12
S28000;15GD500VB17;24
S15;17AS250FV21;18
S27000;17AS250FV21;10
S28000;17AS250FV21;29
S15;17AS500FV21;27
S27000;17AS500FV21;12
S28000;17AS500FV21;19
S15;17SH300FV21;15
S27000;17SH300FV21;12
S28000;17SH300FV21;26
S15;18ET050TL17;8
S27000;18ET050TL17;6
S28000;18ET050TL17;6
S15;20FE050H20;10
S27000;20FE050H20;4
S28000;20FE050H20;10
S15;24BR050R19;10
S27000;24BR050R19;10
S28000;24BR050R19;14
S15;24GD250CB4;24
S27000;24GD250CB4;13
S28000;24GD250CB4;29
S28000;24GD250R18;6
S15;24GD250R20;22
S27000;24GD250R20;13
S28000;24GD250R20;20
S15;24RO010R18;11
S27000;24RO010R18;9
S28000;24RO010R18;11
S15;49MS008I20;32
S27000;49MS008I20;28
S28000;49MS008I20;68
S15;52AS006G18;163
S27000;52AS006G18;196
S28000;52AS006G18;471
S15;52BGERIB18;1
S15;52DS001I20;300
S27000;52DS001I20;431
S28000;52DS001I20;122
S15;52TS001R21;83
S27000;52TS001R21;298
S15;01HN0075K19;14
S27000;01HN0075K19;9
S28000;01HN0075K19;23
S15;01LC250K17;34
S27000;01LC250K17;21
S28000;01LC250K17;21
S15;01LT300K20;23
S27000;01LT300K20;8
S28000;01LT300K20;10
S15;01MA150K18;63
S27000;01MA150K18;37
S28000;01MA150K18;20
S27000;01SA250VE16;6
S15;01SL0045K13;23
S27000;01SL0045K13;45
S28000;01SL0045K13;47
S90000;29LC200A14US;8
S24000;38ST016A18;7
S90000;38ST016A18;5
S90000;49CRM2NO19;68
S90000;49EP005H20;1
S90000;49FT030A18;12
S90000;49TOBACH20;108
S90000;49TOBAGSA20;76
S24000;52AS006P19;247
S90000;52AS006P19;237
S90000;01CL050K18;1
S24000;01CM500K20;13
S90000;01CM500K20;21
S24000;01CP200K17;8
S90000;01CP200K17;6
S90000;01SL300CI20;2
S24000;11BP100I19;8
S90000;11BP100I19;15
S24000;11BR100A20;10
S90000;11BR100A20;16
S24000;11GM200I19;12
S90000;11GM200I19;7
S24000;11SV080I19;8
S90000;11SV080I19;7
S24000;15BA500L16A;7
S90000;15BA500L16A;12
S90000;15CC150VA19;25
S24000;15GM065L20;11
S90000;15GM065L20;13
S24000;15HE005L14;5
S90000;15HE005L14;10
S90000;17AS075F15;14
S90000;17AS075FV21;38
S90000;17IC200D15;3
S24000;17MC200G18;9
S90000;17MC200G18;12
S24000;17RS500FV21;22
S90000;17RS500FV21;34
S90000;17SH075FV21;28
S24000;24BL012CB5;9
S90000;24BL012CB5;8
S24000;27DB015I20;10
S90000;27DB015I20;10
S90000;27DH030I17A;21
S24000;27HC050I18;8
S90000;27HC050I18;9
S24000;29ASH240A20;9
S90000;29ASH240A20;13
S90000;29HD250A21C;1
S24000;29MA030A17;16
S90000;29MA030A17;9
S24000;29SH240A20;9
S90000;29SH240A20;13
S15;11SP200SH19;7
S27000;11SP200SH19;8
S28000;11SP200SH19;10
S15;15AS250VA18;10
S27000;15AS250VA18;7
S28000;15AS250VA18;12
S15;15DO050VA5;14
S27000;15DO050VA5;10
S28000;15DO050VA5;19
S15;15GD250L14;19
S27000;15GD250L14;13
S28000;15GD250L14;19
S27000;15RG500VA20;11
S28000;15RG500VA20;16
S15;17AS250N18;6
S28000;17AS250N18;4
S15;17AS500N18;2
S27000;17AS500N18;3
S28000;17AS500N18;7
S15;17SH500FV21;30
S27000;17SH500FV21;21
S28000;17SH500FV21;20
S15;27MI150I20;4
S27000;27MI150I20;8
S28000;27MI150I20;8
S15;38BV050A19;17
S27000;38BV050A19;8
S28000;38BV050A19;7
S15;38RC050A18;8
S27000;38RC050A18;6
S28000;38RC050A18;8
S15;49DB004I20;2
S15;49DH004I20;40
S15;49MA010K16;53
S15;49MR010K14;23
S15;52CV0015K18;73
S27000;52CV0015K18;59
S28000;52CV0015K18;203
S15;52DF002I17;207
S27000;52DF002I17;242
S28000;52DF002I17;15
S15;52SH006D17;393
S27000;52SH006D17;200
S28000;52SH006D17;60
S15;52SH006E19;426
S27000;52SH006E19;196
S28000;52SH006E19;157
S15;98BBHD050A0;34
S27000;27DC050I20;19
S28000;27DC050I20;16
S15;27HSR030I16;8
S27000;27HSR030I16;8
S28000;27HSR030I16;12
S24000;29VC240A16;11
S90000;29VC240A16;12
S90000;49ED030K17;26
S90000;49FCROL21;80
S90000;49MA010P15;1
S90000;49POURS20;17
S24000;52CD0015A18;116
S90000;52CD0015A18;80
S24000;52CP0015I19;102
S90000;52CP0015I19;122
S24000;52DH001I20;345
S90000;52DH001I20;460
S24000;52FP0015I19;125
S24000;52HR004G17;109
S90000;52HR004G17;129
S90000;52LASANO19;60
S24000;52MA003K16A;243
S90000;52MA003K16A;150
S90000;52MMBYNO19;85
S24000;98BBMA010KA3;10
S24000;01BL012K18;16
S90000;01BL012K18;10
S24000;01CL200K21;4
S90000;01CL200K21;2
S24000;01HF100K17;7
S90000;01HF100K17;5
S90000;01MA150K20H;4
S90000;01MF150B20H;3
S24000;01SA050KV20;15
S90000;01SA050KV20;15
S24000;11CF100TR19;9
S90000;11CF100TR19;10
S24000;11ET010H20;5
S90000;11ET010H20;9
S90000;11ET010O21;18
S24000;11SA100H19;20
S90000;11SA100H19;15
S24000;11SP200SI19;11
S90000;11SP200SI19;9
S90000;15RS500VB3;13
S90000;17AS075G18;72
S24000;17BD125G14;6
S24000;17ER075P19;9
S90000;17ER075P19;10
S90000;17SE125D15;21
S24000;17SH060SE21;13
S90000;17SH060SE21;12
S24000;17SH060SG21;10
S90000;17SH060SG21;12
S24000;17SH060SP21;9
S90000;17SH060SP21;12
S24000;17SH500E19;15
S21000;01CM300K20;7
S21000;01PI150K18;7
S21000;01PR015R19;20
S21000;01RV500K20;15
S21000;01SL300VE20;8
S21000;11EH150A18;8
S21000;11MW200I19;4
S21000;11MWC200I19;8
S21000;11PEP050I20;9
S21000;15GN300L11;10
S21000;15MA075L11;15
S21000;17HR100G13;7
S21000;17SH300E19;10
S21000;17VI100P19;8
S21000;18ET010TL17;6
S21000;20ET075HC20;8
S21000;20NV150H20;11
S21000;24LC250R20;11
S21000;24MA030RV19;10
S21000;24SA050R18;10
S21000;27BP050I19;8
S21000;27DC050I20;16
S21000;27HSR030I16;8
S21000;29BP100A19;8
S21000;29LC200A14US;24
S21000;38ST016A18;6
S21000;52AS006P19;348
S21000;52CP006K17;18
S21000;52GD0015A18;73
S21000;01BL012K18;12
S21000;01CL200K21;2
S21000;01HF100K17;9
S21000;01SA050KV20;8
S21000;11CF100TR19;16
S21000;11ET010H20;10
S21000;11SA100H19;8
S21000;11SP200SI19;8
S21000;17AS075G18;2
S21000;17ER075P19;10
S21000;17SH060SE21;11
S21000;17SH060SG21;12
S21000;17SH060SP21;10
S21000;17SH500E19;15
S21000;17SH500P19;16
S21000;20SA050CD20;10
S21000;24GD500R19;8
S21000;27DE015I21;23
S21000;27DL200I13US;10
S21000;29RH500A15;40
S21000;38FT200A18;7
S21000;38UV030A18;12
S21000;49BF2NO20;49
S21000;49DC004I20;21
S29000;01BL012K18;16
S29000;01CL200K21;12
S29000;01HF100K17;8
S29000;01SA050KV20;30
S29000;11CF100TR19;10
S29000;11ET010H20;6
S29000;11SA100H19;16
S29000;11SP200SI19;2
S29000;17AS075G18;22
S29000;17BD125G14;4
S29000;17ER075P19;16
S29000;17SH060SE21;15
S29000;17SH060SG21;14
S29000;17SH060SP21;15
S29000;17SH500E19;11
S29000;17SH500P19;21
S29000;20SA050CD20;14
S29000;24GD075R18;32
S29000;24GD500R19;14
S29000;27DE015I21;32
S29000;27DL200I13US;4
S29000;29RH500A15;88
S29000;38FT200A18;10
S29000;38UV030A18;18
S29000;49DC004I20;33
S29000;49OR005I18;14
S29000;52AS006E19;172
S29000;01CM300K20;7
S29000;01PI150K18;16
S29000;01PR015R19;10
S29000;01RV500K20;50
S29000;01SL300VE20;1
S29000;11BG240DE20H;4
S29000;11EH150A18;15
S29000;11MW200I19;6
S29000;11MWC200I19;7
S29000;11PEP050I20;8
S29000;15GD500VA20;28
S29000;15GN300L11;30
S29000;15MA075L11;22
S29000;15MF030VM20H;10
S29000;17HR100G13;28
S29000;17SH300E19;11
S29000;17VI100P19;26
S29000;18ET010TL17;6
S29000;20ET075HC20;6
S29000;20NV150H20;22
S29000;24LC250R20;17
S29000;24SA050R18;9
S29000;27DC050I20;24
S29000;27HSR030I16;19
S29000;29BP100A19;7
S29000;29LC200A14US;56
S10;01BL012K18;14
S10;01HF100K17;7
S10;01SA050KV20;10
S10;11CF100TR19;8
S10;11ET010H20;9
S10;11SA100H19;16
S10;11SP200SI19;9
S10;17AS075G18;10
S10;17ER075P19;12
S10;17SE125D15;3
S10;17SH060SE21;10
S10;17SH060SG21;9
S10;17SH060SP21;10
S10;17SH500E19;11
S10;17SH500P19;14
S10;20SA050CD20;9
S10;27DE015I21;22
S10;29RH500A15;55
S10;38FT200A18;5
S10;38UV030A18;12
S10;49DC004I20;17
S10;52AS006E19;349
S10;52LGEBAG18;138
S10;01CM300K20;8
S10;01PI150K18;18
S10;01PR015R19;20
S10;01RV500K20;15
S10;01SL300VE20;7
S10;11EH150A18;8
S10;11MW200I19;6
S10;11MWC200I19;8
S10;11PEP050I20;9
S10;15GD500VA20;15
S10;15GN300L11;20
S10;15MA075L11;11
S10;17HR100G13;21
S10;17SH300E19;29
S10;17VI100P19;8
S10;18ET010TL17;9
S10;20ET075HC20;8
S10;20NV150H20;8
S10;24LC250R18;13
S10;24LC250R20;15
S10;24MA030RV19;15
S10;24SA050R18;14
S10;27BP050I19;9
S10;27DC050I20;12
S10;27HSR030I16;8
S10;29BP100A19;8
S10;29LC200A14US;29
S10;38ST016A18;6
S10;49TOBACH20;21
S10;52AS006N18;1
S10;52AS006P19;229
S90000;17SH500E19;20
S24000;17SH500P19;15
S90000;17SH500P19;19
S24000;20SA050CD20;8
S90000;20SA050CD20;12
S24000;24GD500R19;13
S90000;24GD500R19;12
S24000;27DE015I21;25
S90000;27DE015I21;35
S90000;27DL200I13US;5
S24000;29RH500A15;38
S90000;29RH500A15;64
S90000;38FT200A18;48
S24000;38UV030A18;11
S90000;49BF2NO20;75
S24000;49DC004I20;24
S90000;49DC004I20;11
S90000;49LC035CB6;125
S90000;49MA010K20DTS;7
S24000;52AS006E19;157
S90000;52AS006E19;226
S90000;52MMBBNO20;100
S24000;52CP006K17;161
S90000;52CP006K17;95
S24000;52GD0015A18;89
S24000;01BG070K21;9
S90000;01BG070K21;5
S24000;01BV050K16;8
S90000;01BV050K16;8
S24000;01CL200K17;2
S90000;01CL200K17;10
S24000;01SA100LV20;18
S90000;01SA100LV20;12
S24000;11BG140SL19;6
S90000;11BG140SL19;9
S24000;11GN195A18;10
S90000;11GN195A18;9
S90000;11LP040028M19;46
S24000;11PM100DE20H;3
S24000;11PM100SH19;8
S90000;11PM100SH19;7
S24000;15ET010VB19;6
S24000;15ET100VM20H;2
S90000;15GD075L15;43
S24000;15LC250L14;7
S90000;15LC250L14;17
S24000;15SA070VB6;7
S90000;15SA070VB6;9
S24000;17AS250E19;9
S90000;17AS250E19;14
S24000;17AS500P19;10
S90000;17AS500P19;16
S24000;17HI100G19;11
SLM001;01BL012K18;8
SLM001;17ER075P19;4
SLM001;17SH500E19;14
SLM001;17SH500P19;14
SLM001;29RH500A15;36
SLM001;49DC004I20;18
SLM001;49MA010K20DTS;52
SLM001;52AS006E19;230
SLM001;01PI150K18;12
SLM001;15GN300L11;4
SLM001;17HR100G13;2
SLM001;17SH300E19;8
SLM001;17VI100P19;6
SLM001;18ET010TL17;3
SLM001;27MP150I13;1
SLM001;29LC200A14US;1
SLM001;49CRM1NO19;33
SLM001;49TLDTS17;44
SLM001;49TOBAGSA20;1
SLM001;11GN195A18;17
SLM001;15LC250L14;14
SLM001;17AS250E19;23
SLM001;17AS500P19;12
SLM001;17HI100G19;5
SLM001;17SH300G18;9
SLM001;29ASH075A20;38
SLM001;52DC0015I20;18
SLM001;01BK010K14;9
SLM001;17MC200N18;6
SLM001;17SH500D16;15
SLM001;17SH500N18;16
SLM001;24LC250CB4;1
SLM001;24SACHB20;5
SLM001;27MP150I20;20
SLM001;27RM300I20;13
SLM001;29EC200A13;1
SLM001;49CM030I19;23
SLM001;49CP020K18;23
SLM001;49LD030I20;17
SLM001;49MA010CB4;43
SLM001;49MA010VB3;48
SLM001;01MA075K18;3
SLM001;15LC250VA5;17
SLM001;17RS500P19;1
SLM001;24GD075CB5;75
SLM001;27DF125I17;14
SLM001;27HCR050I16;1
SLM001;29HD500A15;37
SLM001;29SH075A20;38
SLM001;49HS015A18;24
SLM001;52SH006FV21;122
SLM001;01BM150K19;15
SLM001;11GD050A18;13
S21000;52AS006E19;190
S21000;52LGEBAG18;42
S21000;52PS0015R21;246
S21000;01BG070K21;4
S21000;01BV050K16;8
S21000;01CL200K17;7
S21000;01SA100LV20;24
S21000;11BG140SL19;4
S21000;11GN195A18;9
S21000;11LP040028M19;3
S21000;11PM100DE20H;3
S21000;11PM100SH19;8
S21000;15ET010VB19;7
S21000;15LC250L14;10
S21000;15SA070VB6;8
S21000;17AS250E19;10
S21000;17AS500P19;8
S21000;17HI100G19;10
S21000;17MM050A20;8
S21000;17SH300G18;14
S21000;20GD250CD20;8
S21000;20SA050HC20;10
S21000;24EF050R18;1
S21000;24MA030R18;18
S21000;24MA075R18;15
S21000;38WC050A21;11
S21000;49BO015CS19;40
S21000;49LT030R21;97
S21000;49SH035E20;92
S21000;52DC0015I20;305
S21000;52MIGEBAG19;20
S21000;01BK010K14;14
S21000;01BL012B20H;2
S21000;01CP100K21;9
S21000;01RL500K20;7
S21000;11BG140SH19;6
S21000;11CM125I19;10
S21000;11LH200I19;8
S21000;11SA100H20;37
S21000;11SP200SL19;14
S21000;17MC200N18;7
S21000;17SH500N18;6
S21000;18SA075TL17ET;7
S21000;20MP030H20;8
S21000;24AF050R18;7
S21000;24LC250CB4;10
S21000;27DL200I20;12
S21000;27MP150I20;12
S21000;27RM300I20;18
S21000;29EC200A13;10
S21000;29MAV075A19;6
S21000;38EV075A18;8
S21000;49CM030I19;8
S29000;38ST016A18;14
S29000;49TOBACH20;34
S29000;52AS006P19;97
S29000;52CP006K17;189
S29000;52GD0015A18;113
S29000;01BG070K21;10
S29000;01BV050K16;11
S29000;01CL200K17;25
S29000;01SA100LV20;31
S29000;11BG140SL19;8
S29000;11GN195A18;14
S29000;11LP040028M19;12
S29000;11PM100DE20H;5
S29000;11PM100SH19;13
S29000;15ET010VB19;8
S29000;15ET100VM20H;3
S29000;15LC250L14;19
S29000;15SA070VB6;14
S29000;17AS250E19;7
S29000;17AS500P19;8
S29000;17HI100G19;13
S29000;17MM050A20;13
S29000;17SH300G18;16
S29000;20ET075CD19;3
S29000;20GD250CD20;19
S29000;20SA050HC20;15
S29000;24EF050R18;2
S29000;24MA030R18;10
S29000;24MA075R18;15
S29000;38WC050A21;13
S29000;49LT030R21;159
S29000;49TC1NO20;2
S29000;52DC0015I20;219
S29000;01BK010K14;13
S29000;01CP100K21;2
S29000;01RL500K20;34
S29000;11CM125I19;14
S29000;11LH200I19;15
S29000;11SA100H20;14
S29000;11SP200SL19;24
S29000;15MF075VM20H;12
S29000;17MC200N18;11
S29000;17SH500N18;16
S29000;18SA075TL17ET;21
S29000;20MP030H20;4
S29000;24AF050R18;14
S29000;24LC250CB4;22
S29000;27DL200I20;14
S29000;27KTFCAPAC20;7
S29000;27MP150I20;34
S29000;27RM300I20;41
S29000;29EC200A13;23
S29000;29MAV075A19;17
S90000;17HI100G19;11
S90000;52PS0015R21;100
S24000;52PS0015R21;238
S90000;52GIF2NO20;1
S90000;52GIF2NO19;1
S90000;52GIF1NO20;1
S90000;52GIF1NO19;1
S24000;17MM050A20;8
S90000;17MM050A20;10
S90000;17SH075D15;19
S90000;17SH075N18;12
S24000;17SH300G18;15
S90000;17SH300G18;14
S90000;20ET075CD19;19
S24000;20GD250CD20;18
S90000;20GD250CD20;13
S24000;20SA050HC20;8
S90000;20SA050HC20;12
S24000;24EF050R18;2
S90000;24GD250S6;1
S24000;24MA030R18;20
S90000;24MA030R18;12
S24000;24MA075R18;17
S90000;24MA075R18;10
S90000;29KTAMA19;2
S24000;38WC050A21;10
S90000;38WC050A21;10
S24000;49BO015CS19;10
S90000;49BO015CS19;173
S90000;49EV030I19;110
S24000;49LT030R21;44
S90000;49LT030R21;50
S24000;49SH035E20;20
S90000;49SH035E20;35
S90000;49TC1NO20;1
S90000;49TC2NO19;26
S24000;52DC0015I20;325
S90000;52DC0015I20;154
S24000;52MIGEBAG19;95
S24000;01CMR500K20;18
S90000;01CMR500K20;20
S24000;01SA100LT16;15
S90000;01SA100LT16;13
S24000;01SA100VE20;17
S90000;01SA100VE20;15
S90000;10BOWEB219;400
S90000;10BOWEB319;500
S90000;10BOWEB419;200
S24000;11BG140CS19;8
S90000;11BG140CS19;13
S24000;11CM030H20;18
S90000;11CM030H20;10
S90000;11CM030O21;36
SLM001;15MA030L11;6
SLM001;15MA030VA5;10
SLM001;17AS250G18;19
SLM001;17RC500G18;9
SLM001;24ET075CB4;1
SLM001;27MS050I20;29
SLM001;27TS050I20;16
SLM001;29HD250A15;76
SLM001;49HD035A15;27
SLM001;49LC020A15;24
SLM001;49PO3MD19;26
SLM001;01SA080K17;1
SLM001;17AS500G18;11
SLM001;27DH015I20;47
SLM001;27OR030I19;28
SLM001;49BM010K19;29
SLM001;49TC1NO20;17
SLM001;49SH035E20;55
SLM001;49BO015CS19;33
SLM001;10CACLA20;2
SLM001;98BBAS035AR3;53
SLM001;49OR005I18;61
SLM001;49IC1POU20;25
SLM001;49IC3POU20;27
SLM001;49SACCH19;22
SLM001;49TBDTS19;5
SLM001;17AS250F17;1
SLM001;17AS250FV21;23
SLM001;17AS500FV21;11
SLM001;17SH300FV21;11
SLM001;18ET050TL17;17
SLM001;20GR150CD15;1
SLM001;24GD250CB4;1
SLM001;38WS030A18;23
SLM001;49CL008K15;13
SLM001;52AS006G18;99
SLM001;01BL012K15;4
SLM001;15GD070VB17;18
SLM001;15GD250VB17;5
SLM001;17RC500E20;12
SLM001;27DCB060I17;10
SLM001;27TS001I20;435
SLM001;29HD075A15;39
SLM001;49ET007R18;10
SLM001;52DL002I17;14
SLM001;15LM300L11;10
SLM001;15RG500L14;1
SLM001;17RS500E20;7
SLM001;17SE100FV21;3
SLM001;17SH300N18;8
SLM001;27DS030I20;8
SLM001;29HS100A18;6
SLM001;49BP010K19;20
S29000;38EV075A18;23
S29000;49CM030I19;24
S29000;49LD030I20;22
S29000;49MA010CB4;159
S29000;49OR005I19;126
S29000;01MA075K18;19
S29000;01SE125K21;11
S29000;11BG140SH19;6
S29000;11BG140SI19;7
S29000;11GD250H19;23
S29000;11GD250H20;13
S29000;11GE075I20;7
S29000;15LC250VA5;11
S29000;17DO050F13;6
S29000;17RS500P19;52
S29000;24GD075CB5;159
S29000;24MA030RC20H;8
S29000;24VF050R18;12
S29000;27DC030I20;18
S29000;27DF125I17;29
S29000;27HCR050I16;21
S29000;29BP100A18;6
S29000;29HD500A15;69
S29000;29SE125A21;16
S29000;38FT200A21;13
S29000;38WM065A18;19
S29000;49PFCWC21;25
S29000;52ER002I21;227
S29000;52HF004K17;153
S29000;52SH006FV21;194
S29000;01BM150K19;35
S29000;01CM030K21;19
S29000;01HV030K16;9
S29000;01PI030K18;3
S29000;01SL500VE20;10
S29000;11CM030H19;18
S29000;11GD050A18;12
S29000;11LT300I20;20
S29000;11MA030A20;11
S29000;15ET100VA5;9
S29000;15MA030L11;10
S29000;15MA030VA5;14
S29000;15SE400VB5;10
S29000;17AS250G18;8
S29000;17RC500G18;64
S29000;18GD250TL17ET;15
S29000;20ET075OC20;7
S29000;24ET075CB4;5
S29000;27FP050I19;6
S29000;27MS050I20;12
S29000;27TS050I20;45
S29000;29HD250A15;18
S29000;49HD035A15;3
SLM001;49DC008I20;8
SLM001;49MA010A17;1
SLM001;49MA010L16;13
SLM001;52CLASANO20;2
SLM001;52DB001I20;17
SLM001;52OR001I19;457
SLM001;52SH006G18;94
SLM001;15MA030VB3;31
SLM001;17AS500E19;10
SLM001;17RS500G19;65
SLM001;17SH075G18;13
SLM001;17SH500G18;17
SLM001;18ET090TL17;7
SLM001;24MA075P15;29
SLM001;27ER015I20;22
SLM001;27MP050I13;22
SLM001;49EP005TL17ET;11
SLM001;52HD006A18;241
SLM001;01CL050K18;15
SLM001;15BA500L16A;1
SLM001;15GM065L20;24
SLM001;17MC200G18;9
SLM001;17RS500FV21;12
SLM001;27MI150I17;1
SLM001;29ASH240A20;1
SLM001;29MA030A17;6
SLM001;29SH240A20;1
SLM001;49MA010P15;16
SLM001;52DH001I20;225
SLM001;15LC070VB5;15
SLM001;17AS075P19;19
SLM001;17AS250P19;22
SLM001;27DE015I13US;9
SLM001;49CP008I19;5
SLM001;52LC006A18;89
SLM001;52OR001I18;187
SLM001;17SH075P19;12
SLM001;17SH300P19;11
SLM001;24MA030CB4;19
SLM001;24MA075CB4;1
SLM001;27BP050I19;2
SLM001;27CP050I19;9
SLM001;27DH030I20;10
SLM001;49POUID20;27
SLM001;52BY001I19;117
SLM001;98BBSH035AR2;63
SLM001;01LC250K17;2
SLM001;01MA150K18;1
SLM001;15GD250L14;19
SLM001;17AS250N18;5
SLM001;17AS500N18;17
SLM001;17SH500FV21;20
SLM001;24LC075CB5;18
S90000;11GD050H20;1
S24000;11LD200I19;11
S90000;11LD200I19;10
S24000;11SD100SI19;7
S90000;11SD100SI19;9
S90000;15ET100VAL20;1
S24000;15GD500VB17;13
S90000;15GD500VB17;15
S24000;17AS250FV21;11
S90000;17AS250FV21;12
S24000;17AS500FV21;17
S90000;17AS500FV21;19
S24000;17SH300FV21;8
S90000;17SH300FV21;16
S24000;18ET050TL17;5
S90000;18ET050TL17;6
S24000;20FE050H20;6
S90000;20FE050H20;9
S24000;24BR050R19;11
S90000;24BR050R19;9
S24000;24GD250CB4;15
S90000;24GD250CB4;13
S90000;24GD250R18;2
S24000;24GD250R20;15
S90000;24GD250R20;15
S90000;24RO010C20;3
S24000;24RO010R18;9
S90000;24RO010R18;8
S90000;38WS030A18;40
S90000;49BAGVE18;38
S90000;49BAGVE19;1
S90000;49CL008K15;16
S90000;49CL008K21;92
S24000;49DH004I17;27
S24000;49MS008I20;24
S90000;49MS008I20;99
S24000;52AS006G18;215
S90000;52AS006G18;276
S24000;52BGERIB18;1
S90000;52BGERIB18;2
S24000;52DS001I20;144
S90000;52DS001I20;140
S90000;52TRSAM19;15
S24000;52TS001R21;267
S90000;52TS001R21;100
S90000;SGOCVE700005;10
S90000;SGOCVE700011;60
S90000;SGOCVE700012;21
S90000;SGOCVE700013;55
S24000;01BK010K14;14
S90000;01BK010K14;10
S90000;01BL012B20H;5
S24000;01CP100K21;6
S15;29BP100A19;12
S27000;29BP100A19;8
S28000;29BP100A19;10
S15;29LC200A14US;30
S27000;29LC200A14US;19
S28000;29LC200A14US;22
S15;38ST016A18;8
S28000;38ST016A18;1
S15;49CRM1NO20;2
S15;49TOBACH20;36
S15;52AS006P19;174
S27000;52AS006P19;359
S28000;52AS006P19;272
S15;52CP006K17;371
S27000;52CP006K17;326
S28000;52CP006K17;336
S15;52GD0015A18;73
S27000;52GD0015A18;271
S28000;52GD0015A18;180
S15;52AS006E19;121
S27000;52AS006E19;243
S28000;52AS006E19;257
S15;52LGEBAG18;21
S27000;52LGEBAG18;50
S15;52PS0015R21;3
S27000;52PS0015R21;287
S28000;52PS0015R21;333
S15;38WC050A21;17
S27000;38WC050A21;17
S28000;38WC050A21;7
S15;49BO015CS19;10
S27000;49BO015CS19;10
S28000;49BO015CS19;30
S15;49LT030R21;64
S27000;49LT030R21;27
S28000;49LT030R21;157
S15;49SH035E20;21
S27000;49SH035E20;20
S28000;49SH035E20;147
S15;52DC0015I20;291
S27000;52DC0015I20;424
S28000;52DC0015I20;42
S15;52MIGEBAG19;251
S27000;52MIGEBAG19;104
S28000;52MIGEBAG19;2
S28000;49MA010CB4;157
S15;49OR005I19;54
S27000;49OR005I19;156
S28000;49OR005I19;200
S28000;SGOCVKI00131;3
S28000;SGOCVKI00157;3
S28000;52HF004K17;187
S15;52LGEBAG19;100
S10;52CP006K17;187
S10;52PS0015R21;197
S10;52GD0015A18;131
S10;01BG070K21;6
S10;01BV050K16;6
S10;01CL200K17;15
S10;01SA100LV20;18
S10;11BG140SL19;8
S10;11GN195A18;10
S10;11LP040028M19;2
S10;11PM100SH19;12
S10;15ET010VB19;7
S10;15ET100VM20H;2
S10;15LC250L14;10
S10;15SA070VB6;8
S10;17AS250E19;10
S10;17AS500P19;9
S10;17HI100G19;10
S10;17MM050A20;8
S10;17SH300G18;15
S10;20GD250CD20;25
S10;20SA050HC20;8
S10;24EF050R18;3
S10;38WC050A21;9
S10;49BO015CS19;72
S10;49LT030R21;45
S10;49SH035E20;71
S10;52DC0015I20;80
S10;01BK010K14;19
S10;01RL500K20;15
S10;11BG140SH19;7
S10;11CM125I19;9
S10;11LH200I19;9
S10;11SA100H20;24
S10;11SP200SL19;8
S10;17MC200N18;4
S10;17SH500N18;3
S10;18SA075TL17ET;8
S10;20MP030H20;6
S10;24AF050R18;8
S10;24LC250CB4;12
S10;27DL200I20;9
S10;27MP150I20;14
S10;27RM300I20;16
S10;29EC200A13;17
S10;29MAV075A19;6
S10;49CM030I19;11
S10;49LD030I20;13
S10;49MA010CB4;45
S10;49OR005I19;124
S10;SGOCVKI00157;4
S10;01MA075K18;38
S10;01SE125K21;6
S10;11BG140SI19;8
SLM001;49DH004I20;26
SLM001;49ET010V13;14
SLM001;49MA010K16;28
SLM001;49MR010K14;8
SLM001;49TOWVE18;35
SLM001;52DF002I17;152
SLM001;52SH006E19;245
SLM001;01MA030K16;1
SLM001;17RC500P19;21
SLM001;24BR050CB6;1
SLM001;24MA030P15;9
SLM001;24MA030S6;7
SLM001;49GD035CB5;14
SLM001;52AS006FV21;121
SLM001;52MS001I20;60
S20;01CM300K20;10
S20;01PI150K18;5
S20;01PR015R19;11
S20;01RV500K20;24
S20;01SL300VE20;8
S20;11BG240DE20H;2
S20;11EH150A18;10
S20;11MW200I19;7
S20;11MWC200I19;8
S20;11PEP050I20;11
S20;15GD500VA20;11
S20;15GN300L11;13
S20;15MA075L11;7
S20;17HR100G13;12
S20;17SH300E19;14
S20;17VI100P19;10
S20;18ET010TL17;10
S20;20ET075HC20;8
S20;20NV150H20;12
S20;24LC250R18;2
S20;24LC250R20;15
S20;24MA030RV19;8
S20;24SA050R18;7
S20;27BP050I19;6
S20;27DC050I20;19
S20;27HSR030I16;10
S20;29BP100A19;9
S20;29LC200A14US;15
S20;38ST016A18;6
S20;52AS006N18;65
S20;52AS006P19;118
S20;52CP006K17;217
S20;52GD0015A18;161
S20;01BL012K18;9
S20;01CL200K21;3
S20;01HF100K17;10
S20;01SA050KV20;10
S20;11CF100TR19;15
S20;11ET010H20;13
S20;11SA100H19;11
S20;11SP200SI19;8
S20;17BD125G14;3
S20;17ER075P19;8
S20;17SH060SE21;11
S20;17SH060SG21;10
S20;17SH060SP21;9
S20;17SH500E19;16
S20;17SH500P19;14
S20;20SA050CD20;20
S20;24GD500R19;12
S20;27DE015I21;19
S20;29RH500A15;47
S20;38UV030A18;12
S20;49DC004I20;19
S27000;52LGEBAG19;60
S28000;52LGEBAG19;84
S15;52SH006FV21;322
S27000;52SH006FV21;218
S28000;52SH006FV21;641
S15;98BBDF015IM0;65
S27000;98BBDF015IM0;46
S28000;98BBDF015IM0;95
S15;29HD250A15;44
S27000;29HD250A15;21
S28000;29HD250A15;31
S27000;29MA075A16;2
S15;49HD035A15;22
S27000;49HD035A15;5
S27000;49LC020A15;6
S15;49LC020A20;10
S27000;49LC020A20;10
S28000;49LC020A20;30
S15;52LGENSA18;60
S27000;52LGENSA18;211
S28000;52LGENSA18;204
S15;98BBSA050LT1;10
S27000;98BBSA050LT1;10
S28000;98BBSA050LT1;140
S27000;01CV050K15;6
S15;01PI075K18;12
S27000;01PI075K18;5
S28000;01PI075K18;12
S15;11ET050H20;7
S27000;11ET050H20;8
S28000;11ET050H20;7
S15;11FAG10TR19;10
S27000;11FAG10TR19;8
S28000;11FAG10TR19;15
S15;11SP200CS19;12
S27000;11SP200CS19;10
S28000;11SP200CS19;15
S15;15GD250VA5;9
S27000;15GD250VA5;9
S28000;15GD250VA5;13
S15;15GM065VB20;20
S27000;15GM065VB20;13
S28000;15GM065VB20;14
S15;17AS075E19;2
S15;17AS500G18;17
S27000;17AS500G18;13
S28000;17AS500G18;21
S15;20ET075CD20;14
S27000;20ET075CD20;8
S28000;20ET075CD20;14
S15;20GD250OC20;14
S27000;20GD250OC20;9
S28000;20GD250OC20;11
S00;27CN050I14;2
S29000;52LGENSA18;113
S29000;01PI075K18;19
S29000;11ET050H20;11
S29000;11FAG10TR19;13
S29000;11SP200CS19;21
S29000;15GD250VA5;19
S29000;15GM065VB20;42
S29000;17AS500G18;24
S29000;20ET075CD20;10
S29000;98BBDF015IM0;33
S29000;49EV030I19;30
S29000;49POU1VE20;32
S29000;52PS0015R21;149
S29000;SGOCVKI00157;6
S29000;SGOCVKI00135;6
S29000;20GD250OC20;18
S29000;24EDT050C21;4
S29000;24EDT10C21;24
S29000;27DH015I20;22
S29000;27OR030I19;23
S29000;27SP030I19;8
S29000;38MI150A18;7
S29000;38WC050A18;8
S29000;49IC1POU20;114
S29000;52MGEBOX18;17
S29000;52MGENSA18;48
S29000;01CMR500K20;41
S29000;01SA100LT16;17
S29000;01SA100VE20;37
S29000;11BG140CS19;8
S29000;11CM030H20;22
S29000;11LD200I19;15
S29000;11SD100SI19;8
S29000;15GD500VB17;13
S29000;17AS250FV21;13
S29000;17AS500FV21;17
S29000;17SH300FV21;8
S29000;18ET050TL17;9
S29000;20FE050H20;2
S29000;24BR050R19;20
S29000;24GD250CB4;31
S29000;24GD250R20;20
S29000;24RO010R18;10
S29000;38WS030A18;10
S29000;52AS006G18;177
S29000;52DS001I20;223
S29000;52TS001R21;159
S29000;01CL050K21;12
S29000;01CV050K18;12
S29000;01EN300KB19;31
S29000;01HD500K20;22
S29000;01RC300KB20;9
S20;52AS006E19;292
S20;52LGEBAG18;48
S20;52PS0015R21;217
S20;01BG070K21;12
S20;01BV050K16;10
S20;01CD250K21;4
S20;01CL200K17;9
S20;01SA100LV20;24
S20;11BG140SL19;8
S20;11GN195A18;10
S20;11PM100SH19;10
S20;15ET010VB19;5
S20;15LC250L14;9
S20;15SA070VB6;5
S20;17AS250E19;10
S20;17AS500P19;10
S20;17HI100G19;10
S20;17MM050A20;12
S20;17SH300G18;9
S20;20GD250CD20;12
S20;20SA050HC20;20
S20;24MA030R18;17
S20;24MA075R18;10
S20;38WC050A21;8
S20;49BO015CS19;10
S20;49LT030R21;71
S20;49SH035E20;20
S20;52DC0015I20;179
S20;52MIGEBAG19;109
S20;01BK010K14;14
S20;01CP100K21;7
S20;01RL500K20;2
S20;11BG140SH19;10
S20;11CM125I19;10
S20;11LH200I19;10
S20;11SA100H20;12
S20;11SP200SL19;10
S20;15MF075VM20H;3
S20;17MC200N18;2
S20;17SH500N18;6
S20;18SA075TL17ET;10
S20;20MP030H20;6
S20;24AF050R18;6
S20;24LC250CB4;15
S20;27DL200I20;15
S20;27KTFCAPAC20;1
S20;27MP150I20;9
S20;27RM300I20;12
S20;29EC200A13;12
S20;29MAV075A19;6
S20;38EV075A18;7
S20;49MA010CB4;71
S20;49OR005I19;111
S20;01MA075K18;16
S90000;01CP100K21;8
S90000;01MF030B20H;6
S24000;01RL500K20;7
S90000;01RL500K20;18
S24000;11BG140SH19;3
S24000;11CM125I19;10
S90000;11CM125I19;9
S24000;11LH200I19;10
S90000;11LH200I19;10
S24000;11SA100H20;19
S90000;11SA100H20;10
S24000;11SP200SL19;7
S90000;11SP200SL19;5
S24000;17MC200N18;1
S90000;17MC200N18;5
S24000;17SH500N18;6
S90000;17SH500N18;5
S24000;18SA075TL17ET;8
S90000;18SA075TL17ET;11
S90000;20ET100OC13;11
S24000;20MP030H20;7
S90000;20MP030H20;6
S24000;24AF050R18;12
S90000;24AF050R18;6
S24000;24LC250CB4;13
S90000;24LC250CB4;11
S24000;27DL200I20;16
S90000;27DL200I20;12
S24000;27MP150I20;12
S90000;27MP150I20;11
S24000;27RM300I20;16
S90000;27RM300I20;12
S24000;29EC200A13;6
S90000;29EC200A13;9
S24000;29MAV075A19;2
S90000;29MAV075A19;16
S24000;38EV075A18;8
S90000;38EV075A18;10
S90000;49BM010K19;18
S90000;49CM030I19;87
S90000;49CP020K18;73
S90000;49DF005I17;2
S90000;49FC030A15;3
S90000;49LD030I20;60
S24000;49MA010CB4;44
S90000;49MA010CB4;50
S90000;49MA010VB3;43
S24000;49OR005I19;73
S90000;49OR005I19;121
S90000;49POCB19;1
S90000;49TF2CH19;35
S90000;49TFACH18;30
S90000;52SMSANO19;152
S21000;49LD030I20;9
S21000;49MA010CB4;97
S21000;49OR005I19;139
S21000;SGOCVKI00157;4
S21000;01MA075K18;18
S21000;01SE125K21;11
S21000;11BG140SI19;6
S21000;11GD250H19;15
S21000;11GD250H20;19
S21000;11GE075I20;8
S21000;15LC250VA5;6
S21000;17DO050F13;12
S21000;17RS500P19;32
S21000;24GD075CB5;97
S21000;24VF050R18;6
S21000;27DC030I20;19
S21000;27DF125I17;13
S21000;27DH015I17;5
S21000;27HCR050I16;8
S21000;29HD500A15;34
S21000;29SE125A21;10
S21000;38FT200A21;19
S21000;38WM065A18;8
S21000;49POUM20;14
S21000;52ER002I21;525
S21000;52SH006FV21;385
S21000;98BBDF015IM0;139
S21000;98BBSH050AR2;77
S21000;01BM150K19;10
S21000;01HV030K16;5
S21000;01PI030K18;9
S21000;01SL500VE20;10
S21000;11CM030H19;12
S21000;11GD050A18;14
S21000;11LT300I20;8
S21000;11MA030A20;45
S21000;15ET100VA5;8
S21000;15MA030L11;18
S21000;15MA030VA5;20
S21000;15SE400VB5;5
S21000;17AS250G18;11
S21000;17RC500G18;35
S21000;18GD250TL17ET;12
S21000;20ET075OC20;8
S21000;24ET075CB4;10
S21000;27DC050I17A;3
S21000;27FP050I19;5
S21000;27MS050I20;8
S21000;29HD250A15;25
S21000;49HD035A15;27
S21000;49LC020A20;60
S21000;52LGENSA18;112
S21000;98BBSA050LT1;135
S10;11GD250H19;11
S10;11GD250H20;32
S10;11GE075I20;8
S10;15LC250VA5;9
S10;17DO050F13;11
S10;17RS500P19;34
S10;24GD075CB5;45
S10;24VF050R18;6
S10;27DC030I20;12
S10;27DF125I17;24
S10;27DH015I17;8
S10;27HCR050I16;8
S10;29HD500A15;51
S10;29SE125A21;14
S10;38FT200A21;20
S10;38WM065A18;6
S10;49PFCWC21;9
S10;52ER002I21;427
S10;52HF004K17;67
S10;52SH006FV21;302
S10;98BBDF015IM0;94
S10;98BBSH050AR2;12
S10;01BM150K19;49
S10;01CM030K21;9
S10;01HV030K16;10
S10;01PI030K18;21
S10;01SL500VE20;14
S10;11CM030H19;28
S10;11GD050A18;9
S10;11LT300I20;13
S10;11MA030A20;24
S10;15ET100VA5;7
S10;15MA030L11;29
S10;15MA030VA5;20
S10;15SE400VB5;8
S10;17AS250G18;12
S10;17RC500G18;21
S10;18GD250TL17ET;14
S10;20ET075OC20;8
S10;24ET075CB4;9
S10;27FP050I19;6
S10;27MS050I20;23
S10;27TS050I20;51
S10;29HD250A15;25
S10;49DC004I17;1
S10;49HD035A15;10
S10;49LC020A15;6
S10;49LC020A20;72
S10;52LGENSA18;195
S10;98BBSA050LT1;128
S10;01CV050K15;4
S10;01PI075K18;47
S10;11ET050H20;8
S10;11FAG10TR19;6
S15;24EDT10C21;23
S27000;24EDT10C21;22
S28000;24EDT10C21;14
S15;27DH015I20;23
S27000;27DH015I20;25
S28000;27DH015I20;18
S15;27OR030I19;66
S27000;27OR030I19;50
S28000;27OR030I19;73
S15;27SP030I19;10
S27000;27SP030I19;8
S28000;27SP030I19;7
S15;38MI150A18;8
S27000;38MI150A18;6
S28000;38MI150A18;8
S15;49AF015G20;1
S15;52MGEBOX18;18
S27000;52MGEBOX18;24
S28000;52MGEBOX18;16
S15;52MGENSA18;3
S27000;52MGENSA18;110
S28000;52MGENSA18;179
S15;98BBGD050VE2;47
S28000;52TS001R21;338
S15;52SH006N18;128
S28000;52SH006N18;134
S15;52SH006P19;305
S27000;52SH006P19;275
S28000;52SH006P19;315
S28000;52HS004A18;275
S15;52LT002R21;306
S27000;52LT002R21;334
S28000;52LT002R21;379
S15;52OR001I19;506
S27000;52OR001I19;591
S28000;52OR001I19;554
S15;52SH006G18;234
S27000;52SH006G18;293
S28000;52SH006G18;290
S15;52HD006A18;485
S27000;52HD006A18;475
S28000;52HD006A18;411
S15;52SP001I19;170
S27000;52SP001I19;322
S28000;52SP001I19;89
S28000;52DH001I20;146
S15;52FP0015I19;5
S27000;52FP0015I19;195
S28000;52FP0015I19;248
S27000;52HR004G17;101
S28000;52HR004G17;3
S15;52MA003K16A;474
S27000;52MA003K16A;261
S29000;01SA250LV20;26
S29000;11SD100SH19;8
S29000;15CL150VM20H;3
S29000;15GC150VBL20;5
S29000;15GD250VB17;13
S29000;15LC250VB3;19
S29000;17RC500E20;50
S29000;17SH300D15;4
S29000;18LC250TL17ET;15
S29000;20AR075CD16A;7
S29000;20SA050O20;13
S29000;24GC150C21;18
S29000;24MA030RV19;8
S29000;24SA050CB6;10
S29000;27DCB060I17;5
S29000;27TS001I20;203
S29000;29HD075A15;10
S29000;49ET007R18;32
S29000;49PO2HER20;27
S29000;49TOTWC21;40
S29000;52MC006G18;24
S29000;52SGENSA18;149
S29000;52SH006N18;144
S29000;52SH006P19;150
S29000;01BM050K19;28
S29000;01HD250K17;16
S29000;11EP050H19;17
S29000;11EP090H19;12
S29000;15ET100VB3;14
S29000;15LM300L11;17
S29000;15RG500L14;34
S29000;17AF100G20;25
S29000;17RS500E20;7
S29000;17SE100FV21;17
S29000;17SH300N18;6
S29000;20DO050O20;16
S29000;24MA030RA19;7
S29000;24MA150R19;9
S29000;27DS030I20;31
S29000;29GE200A18;9
S29000;29HS100A18;22
S29000;29MA075A19;22
S29000;49MA010A17;3
S29000;52CL0015K18;66
S29000;52CL0015K21;50
S29000;52DB001I20;207
S29000;52HS001I17;134
S29000;52HS004A18;230
S29000;52LT002R21;83
S29000;52OR001I19;175
S29000;52SH006G18;163
S29000;01SL300LV20;14
S29000;11LC250H19;14
S10;11GN040A19;1
S10;11SP200CS19;10
S10;15GD250VA5;13
S10;15GM065VB20;21
S10;17AS500G18;15
S10;20ET075CD20;8
S10;20GD250OC20;26
S10;24EDT050C21;9
S10;24EDT10C21;18
S10;27DH015I20;44
S10;27OR030I19;35
S10;27SP030I19;13
S10;38MI150A18;8
S10;38WC050A18;8
S10;52MGEBOX18;20
S10;52MGENSA18;93
S10;98BBGD050VE2;26
S10;01CMR500K20;3
S10;01SA100LT16;18
S10;01SA100VE20;19
S10;11BG140CS19;16
S10;11CM030H20;16
S10;11LD200I19;8
S10;11SD100SI19;8
S10;15GD500VB17;22
S10;17AS250FV21;10
S10;17AS500FV21;11
S10;17SH300FV21;11
S10;18ET050TL17;6
S10;20FE050H20;6
S10;24BR050R19;7
S10;24GD250CB4;27
S10;24GD250R18;3
S10;24GD250R20;12
S10;24RO010R18;10
S10;38WS030A18;7
S10;49MS008I20;66
S10;52AS006G18;322
S10;52DS001I20;200
S10;52TS001R21;194
S10;01CL050K21;10
S10;01CV050K18;8
S10;01EN300KB19;16
S10;01HD500K20;11
S10;01RC300KB20;1
S10;01SA250LV20;20
S10;11SD100SH19;8
S10;15GC150VBL20;2
S10;15GD250VB17;15
S10;15LC250VB3;12
S10;17RC500E20;65
S10;18LC250TL17ET;12
S10;20SA050O20;8
S10;24MA075R18;15
S21000;01CV050K15;5
S21000;01PI075K18;10
S21000;11ET050H20;12
S21000;11FAG10TR19;6
S21000;11SP200CS19;15
S21000;15GD250VA5;10
S21000;15GM065VB20;18
S21000;17AS075E19;49
S21000;17AS500G18;12
S21000;20ET075CD20;10
S21000;20GD250OC20;10
S21000;24EDT050C21;4
S21000;24EDT10C21;15
S21000;27DH015I20;20
S21000;27OR030I19;26
S21000;27SP030I19;10
S21000;38MI150A18;5
S21000;38WC050A18;8
S21000;52MGEBOX18;23
S21000;52MGENSA18;102
S21000;98BBGD050VE2;26
S21000;01CMR500K20;16
S21000;01SA100LT16;16
S21000;01SA100VE20;18
S21000;11BG140CS19;6
S21000;11CM030H20;12
S21000;11LD200I19;12
S21000;11SD100SI19;8
S21000;15GD500VB17;11
S21000;17AS250FV21;10
S21000;17AS500FV21;21
S21000;17SH300FV21;12
S21000;18ET050TL17;8
S21000;20FE050H20;8
S21000;24BR050R19;10
S21000;24GD250CB4;13
S21000;24GD250R20;15
S21000;24RO010R18;9
S21000;38WS030A18;3
S21000;49MS008I20;71
S21000;52AS006G18;127
S21000;52CV0015K15;279
S21000;52DS001I20;105
S21000;52TS001R21;159
S21000;01CL050K21;11
S21000;01CV050K18;12
S21000;01EN300KB19;19
S21000;01HD500K20;9
S21000;01RC300KB20;5
S21000;01SA250LV20;17
S21000;11SD100SH19;8
S21000;15CL150VM20H;8
S28000;52MA003K16A;463
S15;98BBMA010KA3;10
S27000;98BBMA010KA3;10
S28000;98BBMA010KA3;120
S28000;52SGEBAG19;440
S15;01CM300K11;2
S15;01EC200K17;10
S27000;01EC200K17;8
S28000;01EC200K17;16
S15;01SA050KL20;10
S27000;01SA050KL20;8
S28000;01SA050KL20;14
S15;01SA250VE20;23
S27000;01SA250VE20;10
S28000;01SA250VE20;18
S15;11CD050A18;16
S27000;11CD050A18;9
S28000;11CD050A18;14
S15;11PM100SL19;8
S27000;11PM100SL19;8
S28000;11PM100SL19;7
S15;17RC500N18;3
S27000;17RC500N18;5
S15;17SH075P19;2
S15;17SH300P19;15
S27000;17SH300P19;12
S28000;17SH300P19;17
S15;20DO130HC20;14
S27000;20DO130HC20;8
S28000;20DO130HC20;17
S15;24BR050C21;2
S15;24ET050R18;11
S27000;24ET050R18;12
S28000;24ET050R18;8
S15;24LC250P15A;2
S15;24MA030CB4;48
S27000;24MA030CB4;9
S28000;24MA030CB4;51
S15;24MA075CB4;20
S27000;24MA075CB4;17
S28000;24MA075CB4;32
S28000;27BP050I19;15
S15;27BY015I19;13
S27000;27BY015I19;10
S28000;27BY015I19;17
S15;27CP050I19;17
S27000;27CP050I19;11
S28000;27CP050I19;20
S15;27DH030I20;19
S27000;27DH030I20;20
S28000;27DH030I20;27
S15;49POUIS19;29
S15;52BY001I19;164
S90000;SGOCVKI00137;4
S90000;SGOCVKI00138;3
S90000;SGOCVKI00144;10
S90000;SGOCVKI00154;1
S24000;SGOCVKI00157;3
S90000;01EM075K18;1
S90000;01HD250K19H;1
S24000;01MA075K18;18
S90000;01MA075K18;10
S24000;01SE125K21;8
S90000;01SE125K21;12
S90000;11BG140SH19;7
S24000;11BG140SI19;8
S90000;11BG140SI19;8
S24000;11GD250H19;17
S90000;11GD250H19;10
S24000;11GD250H20;12
S90000;11GD250H20;10
S24000;11GE075I20;6
S90000;11GE075I20;10
S90000;15LC075L15;28
S24000;15LC250VA5;4
S90000;15LC250VA5;9
S24000;17DO050F13;17
S90000;17DO050F13;9
S24000;17RS500P19;23
S90000;17RS500P19;18
S24000;24GD075CB5;44
S90000;24GD075CB5;50
S24000;24VF050R18;13
S90000;24VF050R18;9
S24000;27DC030I20;10
S90000;27DC030I20;9
S24000;27DF125I17;16
S90000;27DF125I17;11
S90000;27DH015I17;21
S24000;27HCR050I16;8
S90000;27HCR050I16;6
S24000;29HD500A15;24
S90000;29HD500A15;39
S24000;29LC200A21C;1
S90000;29LC200A21C;1
S24000;29SE125A21;6
S90000;29SE125A21;11
S90000;29SH075A20;16
S24000;38FT200A21;12
S90000;38FT200A21;8
S24000;38WM065A18;6
S90000;38WM065A18;5
S90000;49CP004I19;45
S90000;49ET007CB19;4
S90000;49GD035R14;5
S90000;49HS015A18;4
S27000;52BY001I19;294
S28000;52BY001I19;305
S27000;52RC0015A18;3
S27000;98BBHD050A0;20
S28000;98BBHD050A0;136
S27000;52MS001I20;288
S28000;52MS001I20;142
S29000;11MH075A19;10
S29000;11SD100SL19;12
S29000;15CP250VA5;10
S29000;15GM280VB20;11
S29000;15MA030VB3;8
S29000;15MA075VB4;16
S29000;17AS500E19;6
S29000;17RS500G19;80
S29000;17RS500N18;27
S29000;17SH075G18;22
S29000;17SH500G18;31
S29000;18ET090TL17;9
S29000;24MA075P15;13
S29000;24RO010CB4;11
S29000;27ER015I20;40
S29000;27EV200I19;14
S29000;27HS030I18;14
S29000;27MQ065I15A;9
S29000;29SA050A17;14
S29000;52HD006A18;131
S29000;52SP001I19;162
S29000;01CM500K20;14
S29000;01CP200K17;31
S29000;11BP100I19;28
S29000;11BR100A20;23
S29000;11GM200I19;17
S29000;11SD100DE20H;2
S29000;11SV080I19;9
S29000;15BA500L16A;6
S29000;15CC150VA19;4
S29000;15GM065L20;38
S29000;15HE005L14;11
S29000;17MC200G18;26
S29000;17RS500FV21;79
S29000;24BL012CB5;6
S29000;24LC250S6;1
S29000;27DB015I20;26
S29000;27HC050I18;13
S29000;29ASH240A20;23
S29000;29MA030A17;15
S29000;29SH240A20;18
S29000;29VC240A16;13
S29000;52CD0015A18;122
S29000;52CP0015I19;13
S29000;52DH001I20;222
S29000;52FP0015I19;47
S29000;52HR004G17;2
S29000;52MA003K16A;203
S29000;01EM075K20;6
S29000;01HDR500K20;74
S29000;01LH300KB19;12
S29000;01MR030K14;7
S29000;01SA250LT20;25
S10;24SA050CB6;14
S10;27DCB060I17;6
S10;27TS001I20;372
S10;49PO2HER20;14
S10;49TOTWC21;26
S10;52MC006G18;170
S10;52MGEBAG18;103
S10;52MGEBAG19;298
S10;52SGENSA18;108
S10;52SH006N18;111
S10;52SH006P19;403
S10;01BM050K19;39
S10;01HD250K17;12
S10;11EP050H19;6
S10;11EP090H19;4
S10;15ET100VB3;9
S10;15LM300L11;10
S10;15RG500L14;26
S10;17AF100G20;27
S10;17SE100FV21;13
S10;17SH300N18;8
S10;20DO050O20;7
S10;24GD500R19;14
S10;24MA030RA19;14
S10;24MA150R19;9
S10;27DS030I20;10
S10;29GE200A18;16
S10;29HS100A18;22
S10;29MA075A19;15
S10;52CL0015K18;138
S10;52DB001I20;177
S10;52HS001I17;238
S10;52HS004A18;313
S10;52LT002R21;221
S10;52OR001I19;442
S10;52SH006G18;416
S10;01SL300LV20;8
S10;11GD020A19;1
S10;11LC250H19;22
S10;11MH075A19;8
S10;11SD100SL19;8
S10;15CP250VA5;5
S10;15GM280VB20;21
S10;15MA030VB3;16
S10;15MA075VB4;21
S10;17AS500E19;9
S10;17RS500G19;32
S10;17RS500N18;5
S10;17SH075G18;20
S10;17SH500G18;11
S10;18ET090TL17;6
S10;24MA030R18;35
S10;24MA075P15;19
S10;24RO010CB4;12
S10;27DB015I16;3
S21000;15GC150VBL20;10
S21000;15GD250VB17;10
S21000;15LC250VB3;9
S21000;17RC500E20;19
S21000;17SH300D15;4
S21000;18LC250TL17ET;9
S21000;20SA050O20;12
S21000;24SA050CB6;9
S21000;27DCB060I17;5
S21000;27TS001I20;381
S21000;29HD075A15;1
S21000;49PO2HER20;18
S21000;49TOTWC21;26
S21000;52MGEBAG19;88
S21000;52SGENSA18;246
S21000;52SH006N18;150
S21000;52SH006P19;296
S21000;01BM050K19;10
S21000;01HD250K17;7
S21000;11EP050H19;12
S21000;11EP090H19;16
S21000;15ET100VB3;8
S21000;15LM300L11;10
S21000;15RG500L14;7
S21000;17AF100G20;13
S21000;17RS500E20;2
S21000;17SE100FV21;27
S21000;17SH300N18;5
S21000;20DO050O20;14
S21000;20ET075HC6;2
S21000;24MA030RA19;10
S21000;24MA150R19;7
S21000;27DS030I20;12
S21000;29GE200A18;19
S21000;29HS100A18;18
S21000;29MA075A19;13
S21000;52CL0015K18;76
S21000;52DB001I20;173
S21000;52HS001I17;196
S21000;52HS004A18;122
S21000;52LT002R21;277
S21000;52MOCOL316;1
S21000;52OR001I19;524
S21000;52SH006G18;328
S21000;01SL300LV20;8
S21000;11LC250H19;8
S21000;11MH075A19;8
S21000;11SD100SL19;10
S21000;15CP250VA5;5
S21000;15GM280VB20;7
S21000;15MA030VB3;18
S21000;15MA075VB4;12
S21000;17AS500E19;12
S90000;49PFCWC21;44
S90000;49POUM20;85
S24000;52ER002I21;360
S90000;52ER002I21;336
S24000;52HF004K17;9
S24000;52LGEBAG19;32
S90000;52LGEBOX18;6
S90000;52MMSANO19;240
S90000;52SH006F17;63
S24000;52SH006FV21;209
S90000;52SH006FV21;317
S24000;98BBDF015IM0;68
S90000;98BBDF015IM0;11
S90000;01BL012H19H;1
S24000;01BM150K19;22
S90000;01BM150K19;11
S24000;01CM030K21;3
S90000;01CM030K21;13
S24000;01HV030K16;6
S90000;01HV030K16;7
S24000;01PI030K18;8
S90000;01PI030K18;15
S24000;01SL500VE20;7
S90000;01SL500VE20;16
S24000;11CM030H19;18
S90000;11CM030H19;12
S24000;11GD050A18;10
S90000;11GD050A18;9
S90000;11GD050H19;12
S24000;11LT300I20;8
S90000;11LT300I20;7
S24000;11MA030A20;7
S90000;11MA030A20;38
S24000;15ET100VA5;7
S90000;49VANSA19;32
S90000;15ET100VA5;9
S90000;15LC250VBL20;3
S24000;15MA030L11;16
S90000;15MA030L11;9
S24000;15MA030VA5;8
S90000;15MA030VA5;14
S24000;15SE400VB5;7
S90000;15SE400VB5;6
S24000;17AS250G18;15
S90000;17AS250G18;15
S24000;17RC500G18;21
S90000;17RC500G18;33
S24000;18GD250TL17ET;17
S90000;18GD250TL17ET;13
S24000;20ET075OC20;8
S90000;20ET075OC20;7
S24000;24ET075CB4;12
S90000;24ET075CB4;8
S29000;11BO100CS19;19
S29000;11EP010H19;9
S29000;11LC250H20;19
S29000;11LP080028M19;6
S29000;11SD100CS19;13
S29000;15CC150VB19;3
S29000;15RC500VB17;65
S29000;15SH250VA17;10
S29000;17AS250P19;12
S29000;17HI001G19;184
S29000;17SH075E19;146
S29000;18BI030TL17ET;15
S29000;20AR075O20;13
S29000;20ET010CD19;8
S29000;27DE015I13US;15
S29000;52AF006G20;170
S29000;52EV002I19;253
S29000;52HV001K18;26
S29000;52LC006A18;189
S29000;01EC200K17;18
S29000;01SA050KL20;23
S29000;01SA250VE20;31
S29000;11CD050A18;11
S29000;11PM100SL19;4
S29000;17RC500N18;14
S29000;17SH300P19;9
S29000;20DO130HC20;10
S29000;24BR050C21;2
S29000;24ET050R18;2
S29000;24ET050RC20H;2
S29000;24MA075CB4;11
S29000;27BP050I19;11
S29000;27BY015I19;10
S29000;27CP050I19;15
S29000;27DH030I20;36
S29000;52BY001I19;68
S29000;52RC0015A18;62
S29000;01HN0075K19;5
S29000;01LC250K17;26
S29000;01LT300K20;18
S29000;01MA150K18;33
S29000;01SL0045K13;22
S29000;11SP200SH19;19
S29000;15AS250VA18;14
S29000;15DO050VA5;11
S29000;15GD250L14;14
S29000;15RG500VA20;58
S29000;17AS250N18;11
S29000;17AS500N18;7
S29000;17SH500FV21;44
S29000;20NV150CD16A;1
S29000;27MI150I20;13
S10;27ER015I20;12
S10;27EV200I19;29
S10;27HS030I18;8
S10;27MQ065I15A;8
S10;29SA050A17;8
S10;38EV075A18;7
S10;52HD006A18;263
S10;52SP001I19;143
S10;01CM500K20;7
S10;01CP200K17;15
S10;11BP100I19;8
S10;11BR100A20;12
S10;11GM200I19;7
S10;11SV080I19;6
S10;15BA500L16A;8
S10;15CC150VA19;3
S10;15GM065L20;27
S10;15HE005L14;6
S10;15RG500VA20;28
S10;17IC200D15;9
S10;17MC200G18;8
S10;17RS500FV21;60
S10;24BL012CB5;12
S10;27DB015I20;12
S10;27DH030I17A;1
S10;27HC050I18;7
S10;29ASH240A20;9
S10;29MA030A17;26
S10;29SH240A20;9
S10;29VC240A16;36
S10;49PO1RE19;1
S10;52CD0015A18;182
S10;52CP0015I19;157
S10;52DH001I20;434
S10;52FP0015I19;240
S10;52HR004G17;98
S10;52MA003K16A;279
S10;98BBMA010KA3;79
S10;01EM075K20;6
S10;01HDR500K20;42
S10;01LH300KB19;7
S10;01MR030K14;19
S10;01SA250LT20;13
S10;11BO100CS19;15
S10;11EP010H19;9
S10;11LC250H20;16
S10;11LP080028M19;6
S10;11SD100CS19;8
S10;15RC500VB17;23
S10;15SH250VA17;13
S10;17AS250P19;12
S10;17HI001G19;129
S10;17SH075E19;20
S10;18BI030TL17ET;28
S90000;27DS030I17A;5
S24000;27FP050I19;8
S90000;27FP050I19;8
S24000;27MS050I20;8
S90000;27MS050I20;12
S24000;27TS050I20;22
S90000;27TS050I20;14
S24000;29HD250A15;24
S90000;29HD250A15;15
S90000;29MA075A16;1
S90000;38UV030A18;10
S24000;49HD035A15;1
S90000;49HD035A15;121
S90000;49LC020A15;10
S24000;49LC020A20;10
S24000;52LGENSA18;149
S24000;98BBSA050LT1;10
S90000;01CV050K15;1
S24000;01PI075K18;10
S90000;01PI075K18;15
S24000;11ET050H20;6
S90000;11ET050H20;6
S90000;11ET075O21;10
S24000;11FAG10TR19;12
S90000;11FAG10TR19;10
S24000;11SP200CS19;10
S90000;11SP200CS19;9
S24000;15GD250VA5;6
S90000;15GD250VA5;12
S24000;15GM065VB20;7
S90000;15GM065VB20;17
S90000;17AS075E19;49
S24000;17AS500G18;19
S90000;17AS500G18;22
S24000;20ET075CD20;7
S90000;20ET075CD20;7
S24000;20GD250OC20;16
S90000;20GD250OC20;10
S90000;24EDT050C21;1
S24000;24EDT10C21;20
S90000;24EDT10C21;12
S90000;24GD250C21;1
S90000;24LC075C21;6
S24000;27DH015I20;16
S90000;27DH015I20;15
S24000;27OR030I19;32
S90000;27OR030I19;34
S24000;27SP030I19;10
S90000;27SP030I19;14
S24000;38MI150A18;5
S90000;38MI150A18;11
S90000;38WC050A18;49
S90000;49AF015G20;35
S21000;17RS500G19;43
S21000;17RS500N18;6
S21000;17SH075G18;50
S21000;17SH500G18;18
S21000;18ET090TL17;8
S21000;24MA075P15;12
S21000;24RO010CB4;10
S21000;27DB015I16;2
S21000;27ER015I20;17
S21000;27EV200I19;12
S21000;27HS030I18;8
S21000;27MQ065I15A;8
S21000;29SA050A17;12
S21000;52HD006A18;393
S21000;52SP001I19;114
S21000;01CM500K20;10
S21000;01CP200K17;16
S21000;11BP100I19;6
S21000;11BR100A20;9
S21000;11GM200I19;9
S21000;11SV080I19;6
S21000;15BA500L16A;7
S21000;15CC150VA19;4
S21000;15GM065L20;7
S21000;15HE005L14;10
S21000;17MC200G18;7
S21000;17RS500FV21;17
S21000;24BL012CB5;8
S21000;27DB015I20;15
S21000;27DH030I17A;1
S21000;27HC050I18;8
S21000;29ASH240A20;10
S21000;29MA030A17;18
S21000;29SH240A20;12
S21000;29VC240A16;10
S21000;52CD0015A18;149
S21000;52CP0015I19;191
S21000;52DH001I20;510
S21000;52FP0015I19;231
S21000;52HR004G17;73
S21000;52MA003K16A;1
S21000;98BBMA010KA3;69
S21000;01EM075K20;5
S21000;01HDR500K20;10
S21000;01LH300KB19;8
S21000;01MR030K14;95
S21000;01SA250LT20;11
S21000;11BO100CS19;18
S21000;11EP010H19;10
S21000;11LC250H20;12
S21000;11LP080028M19;6
S21000;11SD100CS19;8
S21000;15RC500VB17;25
S29000;38BV050A19;17
S29000;38RC050A18;12
S29000;49DH004I20;36
S29000;49MA010K16;5
S29000;52CV0015K18;46
S29000;52DF002I17;195
S29000;52SH006D17;250
S29000;52SH006E19;117
S29000;01BP050K21;21
S29000;01CL300KB20;8
S29000;01MA030K16;5
S29000;01SL500LV20;7
S29000;11BH050A18;12
S29000;11PM100SI19;8
S29000;17RC500P19;25
S29000;20AR075H16;3
S29000;20DO075CD20;9
S29000;20GD250HC20;24
S29000;20HR050H20;5
S29000;24BR050CB6;20
S29000;24GM030C21;10
S29000;24MA030P15;16
S29000;24MA030RE19;6
S29000;24MA030S6;16
S29000;27ER050I21;57
S29000;27ER150I21;56
S29000;38EC015A18;7
S29000;38WS030A21;12
S29000;49TOTMC20;15
S29000;52AS006FV21;34
S29000;52DE001I21;177
S29000;52MS001I20;104
S10;20AR075O20;6
S10;20ET010CD19;3
S10;27DE015I13US;6
S10;49CP008I19;1
S10;52AF006G20;280
S10;52EV002I19;80
S10;52HV001K18;37
S10;52LC006A18;212
S10;52SGEBAG19;701
S10;01CM300K11;4
S10;01EC200K17;10
S10;01SA050KL20;8
S10;01SA250VE20;20
S10;11CD050A18;8
S10;11PM100SL19;11
S10;17RC500N18;4
S10;17SH300P19;12
S10;20DO130HC20;7
S10;24BR050C21;5
S10;24ET050R18;10
S10;24LC250P15A;3
S10;24MA030CB4;35
S10;24MA075CB4;15
S10;27BY015I19;9
S10;27CP050I19;15
S10;27DH030I20;42
S10;49POUIS19;33
S10;52BY001I19;189
S10;52RC0015A18;111
S10;01HN0075K19;12
S10;01LC250K17;20
S10;01LT300K20;6
S10;01MA150K18;52
S10;01SA250VE16;1
S10;01SL0045K13;33
S10;11SP200SH19;8
S10;15AS250VA18;7
S10;15DO050VA5;14
S10;15GD250L14;22
S10;17AS250N18;5
S10;17AS500N18;6
S10;17SH500FV21;34
S10;27MI150I20;8
S10;38BV050A19;9
S10;38RC050A18;8
S10;49DB004I20;1
S10;49DH004I20;7
S10;49MA010K16;31
S10;49MR010K14;32
S10;52CV0015K18;156
S10;52DF002I17;174
S10;52SH006D17;90
S10;52SH006E19;334
S10;98BBHD050A0;118
S21000;15SH250VA17;10
S21000;17AS250P19;11
S21000;17HI001G19;231
S21000;17SH075E19;99
S21000;18BI030TL17ET;16
S21000;20AR075O20;8
S21000;27DE015I13US;3
S21000;49CP008I19;5
S21000;52AF006G20;215
S21000;52EV002I19;184
S21000;52HV001K18;157
S21000;52LC006A18;367
S21000;52SGEBAG19;328
S21000;01EC200K17;14
S21000;01SA050KL20;10
S21000;01SA250VE20;15
S21000;11CD050A18;14
S21000;11PM100SL19;8
S21000;17RC500N18;2
S21000;17SH300P19;10
S21000;20DO130HC20;7
S21000;24ET050R18;8
S21000;24MA030CB4;26
S21000;24MA075CB4;10
S21000;27BY015I19;12
S21000;27CP050I19;12
S21000;27DH030I20;19
S21000;49POUIS19;12
S21000;52BY001I19;181
S21000;98BBSH050A0;10
S21000;01HN0075K19;8
S21000;01LC250K17;13
S21000;01LT300K20;12
S21000;01MA150K18;32
S21000;01SL0045K13;36
S21000;11SP200SH19;7
S21000;15AS250VA18;8
S21000;15DO050VA5;11
S21000;15GD250L14;8
S21000;15RG500VA20;20
S21000;17AS500N18;6
S21000;17SH500FV21;27
S21000;27MI150I20;8
S21000;38BV050A19;9
S21000;38RC050A18;8
S21000;49DB004I20;2
S21000;49DH004I20;24
S21000;49MA010K16;31
S21000;52CV0015K18;285
S21000;52DF002I17;288
S21000;52SH006E19;208
S21000;98BBHD050A0;50
S21000;01BP050K21;11
S10;01BP050K21;31
S10;01CL300KB20;9
S10;01MA030K16;27
S10;01SL500LV20;8
S10;11BH050A18;7
S10;11EH040A19;1
S10;11PM100SI19;8
S10;17RC500P19;15
S10;20DO075CD20;8
S10;20GD250HC20;42
S10;20HR050H20;6
S10;24BR050CB6;13
S10;24LC250C21;20
S10;24MA030P15;28
S10;24MA030RE19;15
S10;24MA030S6;23
S10;27ER050I21;37
S10;27ER150I21;47
S10;38EC015A18;9
S10;38WS030A21;11
S10;49GD035CB5;2
S10;49TOTMC20;15
S10;52AS006FV21;138
S10;52DE001I21;202
S10;52MS001I20;136
S90000;49IC1POU20;57
S90000;49IC3POU20;6
S24000;49JEWNO19;1
S90000;49JEWNO19;68
S90000;49TBL2CH19;11
S24000;52MGEBOX18;17
S24000;52MGENSA18;24
S90000;52STINO19;1
S90000;52STINO20;1
S90000;98BBGD050VE2;143
S24000;01CL050K21;7
S90000;01CL050K21;10
S24000;01CV050K18;10
S90000;01CV050K18;10
S24000;01EN300KB19;19
S90000;01EN300KB19;8
S24000;01HD500K20;9
S90000;01HD500K20;13
S24000;01RC300KB20;4
S90000;01RC300KB20;1
S24000;01SA250LV20;16
S90000;01SA250LV20;12
S90000;11LC050H19;30
S90000;11LC050H20;1
S24000;11SD100SH19;8
S90000;11SD100SH19;9
S24000;15CL150VM20H;4
S24000;15GC150VBL20;4
S90000;15GC150VBL20;10
S90000;15GD070VB17;74
S24000;15GD250VB17;10
S90000;15GD250VB17;10
S24000;15LC250VB3;9
S90000;15LC250VB3;12
S24000;17RC500E20;21
S90000;17RC500E20;22
S90000;17SH300D15;46
S24000;18LC250TL17ET;12
S90000;18LC250TL17ET;11
S24000;20SA050O20;8
S90000;20SA050O20;12
S24000;24GC150C21;8
S90000;24GC150C21;1
S90000;24MA030RV19;9
S24000;24SA050CB6;11
S90000;24SA050CB6;10
S24000;27DCB060I17;5
S90000;27DCB060I17;9
S24000;27TS001I20;251
S90000;27TS001I20;920
S90000;29HD075A15;56
S90000;49CP008I14A;27
S90000;49ET007R18;54
S90000;49HD035K17;83
S90000;49PO2HER20;73
S24000;49TOTWC21;30
S90000;49TOTWC21;100
S90000;49TRSOL15;16
S90000;52COTLTM19;4
S90000;52DL002I17;153
S24000;52MGEBAG19;117
S90000;52MGEBAG19;100
S24000;52SGENSA18;133
S90000;52SH006N18;101
S24000;52SH006P19;217
S24000;01BM050K19;10
S90000;01BM050K19;10
S24000;01HD250K17;7
S90000;01HD250K17;11
S24000;11EP050H19;7
S90000;11EP050H19;10
S24000;11EP090H19;7
S90000;11EP090H19;7
S24000;15ET100VB3;6
S90000;15ET100VB3;7
S24000;15LM300L11;9
S90000;15LM300L11;10
S24000;15RG500L14;11
S90000;15RG500L14;14
S24000;17AF100G20;19
S90000;17AF100G20;11
S24000;17RS500E20;7
S24000;17SE100FV21;13
S90000;17SE100FV21;12
S24000;17SH300N18;8
S90000;17SH300N18;7
S24000;20DO050O20;8
S90000;20DO050O20;9
S24000;24MA030RA19;10
S90000;24MA030RA19;11
S24000;24MA150R19;1
S90000;24MA150R19;12
S24000;27DS030I20;7
S90000;27DS030I20;14
S24000;29GE200A18;8
S90000;29GE200A18;6
S24000;29HS100A18;10
S90000;29HS100A18;11
S24000;29MA075A19;14
S90000;29MA075A19;9
S90000;49BP010K19;20
S90000;49DC008I20;32
S90000;49MA010A17;169
S90000;49MA010L16;32
S90000;49MIRCB19;2
S90000;49PASSSA19;16
S24000;52CL0015K18;5
S24000;52CL0015K21;50
S90000;52CL0015K21;100
S90000;52CLASANO19;32
S24000;52DB001I20;100
S90000;52DB001I20;140
S24000;52HS001I17;204
S24000;52HS004A18;152
S90000;52HS004A18;1
S24000;52LT002R21;176
S90000;52LT002R21;100
S24000;52OR001I19;322
S90000;52OR001I19;959
S90000;52PMGBOX18;9
S24000;52SH006G18;228
S90000;52SH006G18;295
S90000;52TRIHDTS19;26
S90000;01CP050K17;81
S90000;01KTCNTAPAC20;1
S24000;01SL300LV20;8
S90000;01SL300LV20;15
S90000;11GD020A19;11
S24000;11LC250H19;9
S90000;11LC250H19;11
S24000;11MH075A19;8
S90000;11MH075A19;10
S24000;11SD100SL19;8
S90000;11SD100SL19;8
S24000;15CP250VA5;6
S90000;15CP250VA5;9
S24000;15GM280VB20;7
S90000;15GM280VB20;18
S24000;15MA030VB3;14
S90000;15MA030VB3;24
S24000;15MA075VB4;12
S90000;15MA075VB4;11
S24000;17AS500E19;10
S90000;17AS500E19;18
S24000;17RS500G19;30
S90000;17RS500G19;36
S24000;17RS500N18;6
S90000;17RS500N18;9
S24000;17SH075G18;30
S90000;17SH075G18;14
S24000;17SH500G18;25
S90000;17SH500G18;22
S24000;18ET090TL17;4
S90000;18ET090TL17;5
S90000;20GD250OC16;10
S24000;24MA075P15;18
S90000;24MA075P15;12
S24000;24RO010CB4;8
S90000;24RO010CB4;9
S90000;27DB015I16;5
S24000;27ER015I20;16
S90000;27ER015I20;29
S24000;27EV200I19;15
S90000;27EV200I19;13
S24000;27HS030I18;6
S90000;27HS030I18;11
S24000;27MQ065I15A;6
S90000;27MQ065I15A;12
S24000;29SA050A17;8
S90000;29SA050A17;10
S90000;49EP005TL17ET;2
S90000;49MW030I19;20
S90000;49WS004A18;9
S24000;52HD006A18;230
S90000;52HD006A18;265
S90000;52RIB1NO20;1
S90000;52RIB2NO20;1
S24000;52SP001I19;117
S90000;52SP001I19;203
S24000;01EM075K20;8
S90000;01EM075K20;18
S24000;01HDR500K20;10
S90000;01HDR500K20;18
S90000;01LH100KB19;10
S24000;01LH300KB19;6
S90000;01LH300KB19;10
S24000;01MR030K14;19
S90000;01MR030K14;10
S24000;01SA250LT20;23
S90000;01SA250LT20;15
S24000;11BO100CS19;10
S90000;11BO100CS19;17
S24000;11EP010H19;7
S90000;11EP010H19;9
S24000;11LC250H20;10
S90000;11LC250H20;12
S90000;11LP080028M19;48
S24000;11SD100CS19;5
S90000;11SD100CS19;9
S90000;15LC070VB5;67
S24000;15RC500VB17;22
S90000;15RC500VB17;25
S24000;15SH250VA17;12
S90000;15SH250VA17;6
S90000;17AS075N18;11
S90000;17AS075P19;19
S24000;17AS250P19;8
S90000;17AS250P19;14
S24000;17HI001G19;166
S24000;17SH075E19;30
S90000;17SH075E19;51
S24000;18BI030TL17ET;24
S90000;18BI030TL17ET;11
S24000;20AR075O20;6
S90000;20AR075O20;15
S90000;20ET010CD19;4
S90000;27DE015I13US;41
S90000;49CP008I19;157
S24000;52AF006G20;147
S24000;52EV002I19;36
S24000;52FT002A18;1
S90000;52FT002A18;73
S24000;52HV001K18;12
S90000;52HV001K18;106
S24000;52LC006A18;131
S90000;52LC006A18;307
S90000;52MIBANO19;100
S24000;52SGEBAG19;289
S90000;52TBOM20;28
S90000;01CM300K11;5
S24000;01EC200K17;7
S90000;01EC200K17;9
S24000;01SA050KL20;13
S90000;01SA050KL20;15
S24000;01SA250VE20;18
S90000;01SA250VE20;15
S24000;11CD050A18;10
S90000;11CD050A18;10
S90000;11LC250O21;18
S24000;11PM100SL19;8
S90000;11PM100SL19;8
S90000;11SA050O21;12
S24000;17RC500N18;6
S90000;17RC500N18;6
S90000;17SH075P19;13
S24000;17SH300P19;11
S90000;17SH300P19;13
S90000;18GD050TL17ET;6
S24000;20DO130HC20;8
S90000;20DO130HC20;11
S90000;24BR050C21;1
S24000;24ET050R18;9
S90000;24ET050R18;6
S90000;24GD075C21;6
S24000;24MA030CB4;33
S90000;24MA030CB4;11
S24000;24MA075CB4;11
S90000;24MA075CB4;7
S90000;24SA050S6;15
S90000;27BP050I19;12
S24000;27BY015I19;20
S90000;27BY015I19;12
S24000;27CP050I19;17
S90000;27CP050I19;11
S21000;01CL300KB20;8
S21000;01MA030K16;125
S21000;01SL500LV20;10
S21000;11BH050A18;9
S21000;11PM100SI19;8
S21000;17RC500P19;10
S21000;20DO075CD20;10
S21000;20GD250HC20;8
S21000;20HR050H20;6
S21000;24BR050CB6;14
S21000;24LC250C21;8
S21000;24MA030P15;18
S21000;24MA030RE19;8
S21000;24MA030S6;18
S21000;27ER050I21;39
S21000;27ER150I21;46
S21000;38EC015A18;6
S21000;38WS030A21;19
S21000;49GD035CB5;78
S21000;49TOTMC20;14
S21000;52AS006FV21;137
S21000;52DE001I21;337
S21000;52MS001I20;321
S21000;52WM0015A18;59
S21000;J6185;9
S24000;27DH030I20;16
S90000;27DH030I20;13
S90000;49P2DTS19;14
S90000;49PADCL20;124
S90000;49PI010K1;31
S90000;49PI010K18;131
S90000;49POUCB21;6
S90000;49POUID20;39
S90000;49POUIS19;95
S24000;52BY001I19;181
S24000;52ER006P19;117
S24000;52RC0015A18;24
S24000;01HN0075K19;10
S90000;01HN0075K19;11
S24000;01LC250K17;12
S90000;01LC250K17;4
S24000;01LT300K20;15
S90000;01LT300K20;9
S24000;01MA150K18;28
S90000;01MA150K18;16
S24000;01SA250VE16;2
S90000;01SA250VE16;1
S24000;01SL0045K13;31
S90000;01SL0045K13;11
S24000;11SP200SH19;9
S90000;11SP200SH19;9
S24000;15AS250VA18;6
S90000;15AS250VA18;10
S24000;15DO050VA5;11
S90000;15DO050VA5;11
S24000;15GD250L14;6
S90000;15GD250L14;11
S24000;15RG500VA20;6
S90000;15RG500VA20;36
S24000;17AS250N18;7
S90000;17AS250N18;6
S24000;17AS500N18;6
S90000;17AS500N18;5
S90000;17IC075D15;6
S90000;17SH075F15;14
S24000;17SH500FV21;15
S90000;17SH500FV21;26
S90000;24LC075CB5;41
S24000;27MI150I20;6
S90000;27OR050I21C;2
S90000;38BV050A17;1
S24000;38BV050A19;10
S90000;38BV050A19;9
S24000;38RC050A18;8
S90000;38RC050A18;7
S90000;38WM100A16;8
S90000;49CO1NO19;5
S90000;49DB004I20;25
S20;01SE125K21;15
S20;11BG140SI19;12
S20;11GD250H19;18
S20;11GD250H20;14
S20;11GE075I20;7
S20;15LC250VA5;10
S20;17DO050F13;20
S20;17RS500P19;27
S20;24GD075CB5;71
S20;24VF050R18;5
S20;27DC030I20;15
S20;27DF125I17;15
S20;27HCR050I16;8
S20;29HD500A15;36
S20;29SE125A21;7
S20;38FT200A21;10
S20;38WM065A18;6
S20;52ER002I21;417
S20;52HF004K17;59
S20;52LGEBAG19;50
S20;52SH006FV21;272
S20;98BBDF015IM0;70
S20;01BM150K19;10
S20;01CM030K21;18
S20;01HV030K16;5
S20;01PI030K18;15
S20;01SL500VE20;14
S20;11CM030H19;18
S20;11GD050A18;9
S20;11LT300I20;9
S20;11MA030A20;10
S20;15ET100VA5;7
S20;15MA030L11;18
S20;15MA030VA5;19
S20;15SE400VB5;9
S20;17AS250G18;7
S20;17RC500G18;28
S20;18GD250TL17ET;18
S20;20ET075OC20;7
S20;24ET075CB4;10
S20;27FP050I19;4
S20;27MS050I20;12
S20;27TS050I20;18
S20;29HD250A15;29
S20;49LC020A20;10
S20;52LGENSA18;234
S20;52YGERIB18;1
S20;98BBSA050LT1;10
S20;01PI030KA;2
S20;01PI075K18;10
S20;11ET050H20;9
S20;11FAG10TR19;7
S20;11SP200CS19;11
S20;15GD250VA5;4
S24000;49DH004I20;9
S90000;49DH004I20;58
S90000;49DOPAQ19;6
S90000;49DRANO19;48
S90000;49HBMD19;9
S90000;49MA010K16;190
S90000;49MR010K14;118
S90000;49POU2VE20;140
S90000;49TOWVE18;18
S24000;52CV0015K18;60
S90000;52CV0015K18;82
S24000;52DF002I17;229
S90000;52DF002I17;287
S24000;52SH006E19;298
S90000;52SH006E19;66
S24000;98BBHD050A0;26
S24000;01BP050K21;9
S90000;01BP050K21;9
S24000;01CL300KB20;7
S90000;01CL300KB20;10
S24000;01MA030K16;32
S90000;01MA030K16;16
S24000;01SL500LV20;7
S90000;01SL500LV20;20
S24000;11BH050A18;15
S90000;11BH050A18;11
S90000;11EH040A19;11
S90000;11GD250O21;18
S24000;11PM100SI19;8
S90000;11PM100SI19;10
S24000;17RC500P19;12
S90000;17RC500P19;29
S90000;18LC050TL17ET;2
S90000;20AR075H16;8
S24000;20DO075CD20;11
S90000;20DO075CD20;11
S24000;20GD250HC20;16
S90000;20GD250HC20;14
S24000;20HR050H20;6
S90000;20HR050H20;10
S24000;24BR050CB6;10
S90000;24BR050CB6;10
S24000;24LC250C21;4
S90000;24LC250C21;1
S24000;24MA030P15;23
S90000;24MA030P15;11
S24000;24MA030RE19;14
S90000;24MA030RE19;8
S24000;24MA030S6;28
S90000;24MA030S6;12
S24000;27ER050I21;27
S90000;27ER050I21;47
S24000;27ER150I21;20
S90000;27ER150I21;36
S90000;27MP050I20;34
S24000;38EC015A18;4
S90000;38EC015A18;12
S24000;38WS030A21;11
S90000;38WS030A21;9
S90000;49DRASA19;27
S90000;49GD035CB5;12
S90000;49PO2RS21;45
S90000;49PO2SA19;44
S90000;49TOTMC20;58
S90000;52AS006F17;63
S24000;52AS006FV21;240
S90000;52AS006FV21;317
S24000;52DE001I21;189
S24000;52MS001I20;294
S90000;52MS001I20;230
S90000;52WM0015A18;149
S90000;J6185;5
S90000;JIMCP16;3
S90000;JIMPN16;174
S20;15GM065VB20;14
S20;17AS500G18;9
S20;20ET075CD20;7
S20;20GD250OC20;17
S20;24EDT050C21;2
S20;24EDT10C21;22
S20;27DH015I20;14
S20;27OR030I19;45
S20;27SP030I19;10
S20;38MI150A18;6
S20;52CARDENV18;1
S20;52MGEBOX18;21
S20;52MGENSA18;127
S20;01CMR500K20;20
S20;01SA100LT16;24
S20;01SA100VE20;16
S20;11BG140CS19;9
S20;11CM030H20;26
S20;11LD200I19;10
S20;11SD100SI19;6
S20;15GD500VB17;19
S20;17AS250FV21;11
S20;17AS500FV21;17
S20;17SH300FV21;14
S20;18ET050TL17;8
S20;20FE050H20;5
S20;24BR050R19;7
S20;24GD250CB4;14
S20;24GD250R18;3
S20;24GD250R20;18
S20;24RO010R18;10
S20;49MS008I20;22
S20;52AS006G18;318
S20;52BGERIB18;1
S20;52DS001I20;103
S20;52TS001R21;213
S20;01CL050K21;12
S20;01CV050K18;10
S20;01EN300KB19;29
S20;01HD500K20;16
S20;01RC300KB20;8
S20;01SA250LV20;19
S20;11SD100SH19;10
S20;15GD250VB17;16
S20;15LC250VB3;18
S20;17RC500E20;18
S20;18LC250TL17ET;8
S20;20SA050O20;20
S20;24GC150C21;17
S20;24SA050CB6;9
S20;27DCB060I17;6
S20;27TS001I20;214
S20;49TOTWC21;30
S20;52MC006G18;265
S20;52MGEBAG19;229
S20;52SGENSA18;164
S20;52SH006N18;95
S20;52SH006P19;221
S20;01BM050K19;12
S20;01HD250K17;14
S20;11EP050H19;8
S20;11EP090H19;10
S20;15ET100VB3;8
S20;15LM300L11;9
S20;15RG500L14;19
S20;17AF100G20;10
S20;17RS500E20;7
S20;17SE100FV21;12
S20;17SH300N18;6
S20;20DO050O20;8
S20;24MA030RA19;10
S20;24MA150R19;7
S20;27DS030I20;14
S20;29GE200A18;16
S20;29HS100A18;13
S20;29MA075A19;13
S20;52CL0015K18;100
S20;52CL0015K21;100
S20;52DB001I20;166
S20;52HS001I17;147
S20;52HS004A18;137
S20;52LT002R21;195
S20;52OR001I19;417
S20;52SH006G18;286
S20;01SL300LV20;11
S20;11LC250H19;11
S20;11MH075A19;8
S20;11SD100SL19;9
S20;15CP250VA5;5
S20;15GM280VB20;8
S20;15MA030VB3;18
S20;15MA075VB4;15
S20;17AS500E19;12
S20;17RS500G19;37
S20;17RS500N18;5
S20;17SH075G18;40
S20;17SH500G18;12
S20;18ET090TL17;5
S20;24MA075P15;19
S20;24RO010CB4;9
S20;27ER015I20;19
S20;27EV200I19;8
S20;27HS030I18;8
S20;27MQ065I15A;5
S20;29SA050A17;12
S20;49MASKRS21;20
S20;52HD006A18;369
S20;52SP001I19;214
S20;01CL050K18;4
S20;01CM500K20;12
S20;01CP200K17;14
S20;11BP100I19;5
S20;11BR100A20;7
S20;11GM200I19;8
S20;11SV080I19;6
S20;15BA500L16A;8
S20;15GM065L20;15
S20;15HE005L14;6
S20;17MC200G18;9
S20;17RS500FV21;43
S20;24BL012CB5;7
S20;27DB015I20;15
S20;27HC050I18;8
S20;29ASH240A20;10
S20;29MA030A17;18
S20;29SH240A20;10
S20;29VC240A16;18
S20;52CD0015A18;131
S20;52CP0015I19;131
S20;52DH001I20;383
S20;52FP0015I19;70
S20;52HR004G17;139
S20;52MA003K16A;304
S20;98BBMA010KA3;10
S20;01EM075K20;6
S20;01HDR500K20;15
S20;01LH300KB19;12
S20;01MR030K14;13
S20;01SA250LT20;13
S20;11BO100CS19;14
S20;11EP010H19;15
S20;11LC250H20;16
S20;11SD100CS19;10
S20;15RC500VB17;30
S20;15SH250VA17;14
S20;17AS250P19;16
S20;17HI001G19;128
S20;17SH075E19;40
S20;18BI030TL17ET;18
S20;20AR075O20;11
S20;52AF006G20;209
S20;52EV002I19;184
S20;52HV001K18;47
S20;52LC006A18;388
S20;52SGEBAG19;141
S20;01EC200K17;8
S20;01SA050KL20;12
S20;01SA250VE20;17
S20;11CD050A18;10
S20;11PM100SL19;10
S20;17RC500N18;3
S20;17SH300P19;10
S20;20DO130HC20;10
S20;24ET050R18;8
S20;24MA030CB4;19
S20;24MA075CB4;12
S20;27BY015I19;8
S20;27CP050I19;11
S20;27DH030I20;16
S20;52BY001I19;142
S20;01HN0075K19;14
S20;01LC250K17;18
S20;01LT300K20;13
S20;01MA150K18;12
S20;01SL0045K13;25
S20;11SP200SH19;10
S20;15AS250VA18;6
S20;15DO050VA5;14
S20;15GD250L14;11
S20;15RG500VA20;20
S20;17AS250N18;3
S20;17AS500N18;5
S20;17SH500FV21;20
S20;27MI150I20;6
S20;38BV050A19;7
S20;38RC050A18;4
S20;49DH004I20;23
S20;52CV0015K18;93
S20;52DF002I17;180
S20;52SH006E19;308
S20;98BBHD050A0;22
S20;01BP050K21;8
S20;01CL300KB20;13
S20;01MA030K16;23
S20;01SL500LV20;12
S20;11BH050A18;12
S20;11PM100SI19;7
S20;17RC500P19;12
S20;20DO075CD20;12
S20;20GD250HC20;17
S20;20HR050H20;5
S20;24BR050CB6;9
S20;24GM030C21;12
S20;24MA030P15;13
S20;24MA030RE19;8
S20;24MA030S6;15
S20;27ER050I21;35
S20;27ER150I21;58
S20;38EC015A18;8
S20;38WS030A21;7
S20;49PO2RS21;20
S20;52AS006FV21;235
S20;52DE001I21;189
S20;52MS001I20;216
