S15;01BL012C21H;29
S27000;01BL012C21H;1
S28000;01BL012C21H;17
S15;01CMJ075K21;29
S27000;01CMJ075K21;4
S28000;01CMJ075K21;25
S15;01CV050K18;1
S27000;01CV050K18;4
S28000;01CV050K18;11
S15;01LC500K20;15
S27000;01LC500K20;7
S28000;01LC500K20;18
S15;01SA050KL20;4
S27000;01SA050KL20;4
S28000;01SA050KL20;39
S15;01SA100VE20;11
S27000;01SA100VE20;28
S28000;01SA100VE20;18
S15;11BP100I19;8
S27000;11BP100I19;6
S28000;11BP100I19;8
S15;11BR100A20;8
S27000;11BR100A20;4
S28000;11BR100A20;26
S15;11EP010H19;6
S27000;11EP010H19;6
S28000;11EP010H19;7
S15;11GE075I20;3
S27000;11GE075I20;3
S28000;11GE075I20;12
S15;11LD200I19;12
S27000;11LD200I19;8
S28000;11LD200I19;17
S15;15AS250VA18;7
S27000;15AS250VA18;5
S28000;15AS250VA18;2
S15;15ET100VA20;4
S27000;15ET100VA20;3
S28000;15ET100VA20;6
S15;15GN300L11;12
S27000;15GN300L11;16
S28000;15GN300L11;18
S15;17DO050F13;13
S27000;17DO050F13;12
S28000;17DO050F13;17
S15;17HI100G19;13
S27000;17HI100G19;8
S28000;17HI100G19;12
S15;17SH300G21;14
S27000;17SH300G21;18
S28000;17SH300G21;14
S15;17SH500FV21;16
S27000;17SH500FV21;10
S28000;17SH500FV21;21
S15;20DO050O20;9
S27000;20DO050O20;6
S28000;20DO050O20;12
S15;24BR050CB6;10
S28000;24BR050CB6;13
S15;01BM050K19;8
S27000;01BM050K19;3
S28000;01BM050K19;12
S15;01CP200K17;12
S27000;01CP200K17;7
S28000;01CP200K17;9
S15;01EN300KB19;2
S27000;01EN300KB19;12
S15;01HD500K20;11
S27000;01HD500K20;8
S28000;01HD500K20;14
S15;01LC250K17;17
S27000;01LC250K17;15
S28000;01LC250K17;23
S15;01SL500LV20;12
S27000;01SL500LV20;4
S28000;01SL500LV20;11
S15;10KTPWPXM21;3
S27000;10KTPWPXM21;11
S15;11CD050A18;1
S27000;11CD050A18;4
S28000;11CD050A18;4
S15;11ET010H20;11
S27000;11ET010H20;5
S28000;11ET010H20;4
S15;11LT300I20;4
S27000;11LT300I20;4
S28000;11LT300I20;9
S15;11MA030A20;8
S27000;11MA030A20;2
S28000;11MA030A20;7
S15;11SP200CS19;10
S27000;11SP200CS19;1
S28000;11SP200CS19;11
S28000;15GD250VCL21;1
S27000;15GM280VB20;1
S27000;15MA030VAL21;13
S15;17AS500P19;5
S27000;17AS500P19;5
S28000;17AS500P19;5
S15;17RS500P19;21
S27000;17RS500P19;13
S28000;17RS500P19;23
S15;17SH075G21;83
S27000;17SH075G21;122
S28000;17SH075G21;219
S15;17SH300G18;11
S15;18ET050TL17;5
S27000;18ET050TL17;4
S15;24GD250R20;7
S27000;24GD250R20;17
S28000;24GD250R20;15
S15;24MA030R18;10
S27000;24MA030R18;33
S28000;24MA030R18;36
S15;01CMR500K20;12
S27000;01CMR500K20;8
S28000;01CMR500K20;13
S15;01HDR500K20;17
S27000;01HDR500K20;9
S28000;01HDR500K20;17
S15;01MA030K21H;1
S15;01MA030K22;63
S27000;01MA030K22;15
S28000;01MA030K22;115
S15;01PI075K18;9
S27000;01PI075K18;7
S28000;01PI075K18;11
S15;01SA050KV20;7
S27000;01SA050KV20;8
S28000;01SA050KV20;36
S15;01SA100LV20;13
S27000;01SA100LV20;23
S28000;01SA100LV20;10
S15;01SL0045K13;26
S27000;01SL0045K13;24
S28000;01SL0045K13;33
S15;11BG140SL19;9
S27000;11BG140SL19;8
S28000;11BG140SL19;7
S15;11SD100CS19;8
S27000;11SD100CS19;18
S28000;11SD100CS19;20
S15;15DO050VA5;15
S27000;15DO050VA5;8
S28000;15DO050VA5;17
S27000;15ET100VA5;1
S15;15MA030VA5;1
S27000;15MA030VA5;2
S28000;15MA030VA5;13
S15;15SE400VB5;4
S27000;15SE400VB5;4
S28000;15SE400VB5;2
S15;17AS500FV21;15
S27000;17AS500FV21;7
S28000;17AS500FV21;18
S15;17RS500FV21;15
S27000;17RS500FV21;11
S28000;17RS500FV21;17
S15;17SH060SP21;10
S27000;17SH060SP21;10
S28000;17SH060SP21;10
S15;17SH500G21;15
S27000;17SH500G21;9
S28000;17SH500G21;14
S28000;20AR075CD16A;3
S27000;20MP030H20;6
S28000;20MP030H20;4
S28000;24GP010RJ21H;25
S15;24RO010R18;6
S27000;24RO010R18;5
S15;01HN075C21H;2
S27000;01HN075K21H;4
S15;01SA250LT20;13
S27000;01SA250LT20;13
S28000;01SA250LT20;17
S15;11BH050A18;10
S27000;11BH050A18;3
S28000;11BH050A18;15
S15;11SA050O21;35
S27000;11SA050O21;8
S28000;11SA050O21;19
S15;11SP200SL19;12
S27000;11SP200SL19;5
S28000;11SP200SL19;5
S15;15ET100VCL21;10
S27000;15ET100VCL21;5
S15;15GM065L20;12
S27000;15GM065L20;26
S28000;15GM065L20;90
S15;15LC250VB3;16
S27000;15LC250VB3;6
S28000;15LC250VB3;44
S15;15MA030VCL21;38
S27000;15MA030VCL21;28
S28000;15MA030VCL21;44
S15;17AF100G20;19
S27000;17AF100G20;13
S28000;17AF100G20;21
S15;17AS250E19;9
S27000;17AS250E19;2
S28000;17AS250E19;8
S15;17AS500G21;15
S27000;17AS500G21;9
S28000;17AS500G21;17
S15;17RC500G21;20
S27000;17RC500G21;11
S28000;17RC500G21;19
S15;20DO075CD20;16
S27000;20DO075CD20;8
S28000;20DO075CD20;12
S15;20GD250OC20;2
S27000;20GD250OC20;8
S28000;20GD250OC20;1
S28000;24KTCBL21;1
S15;24LC250CB4;16
S27000;24LC250CB4;17
S28000;24LC250CB4;37
S15;27DC030I20;6
S27000;27DC030I20;6
S28000;27DC030I20;12
S15;27ER015I20;38
S27000;27ER015I20;26
S28000;27ER015I20;35
S15;01BK010K14;11
S27000;01BK010K14;8
S28000;01BK010K14;18
S27000;01KTPWP21;9
S15;01LC250K21H;21
S27000;01LC250K21H;4
S28000;01LC250K21H;15
S28000;10QCRAC21;1
S15;11CM030H19;2
S27000;11CM030H19;1
S28000;11CM030H19;44
S15;11GD250H19;5
S27000;11GD250H19;21
S28000;11GD250H19;1
S15;11GD250H20;26
S27000;11GD250H20;37
S28000;11GD250H20;39
S15;15BA500L16A;16
S27000;15BA500L16A;7
S28000;15BA500L16A;14
S27000;15GD250VB17;16
S28000;15GD250VB17;23
S15;15LC250VA20;9
S27000;15LC250VA20;9
S28000;15LC250VA20;33
S15;17AS250G21;11
S27000;17AS250G21;6
S28000;17AS250G21;13
S15;17MC200G21;13
S27000;17MC200G21;10
S28000;17MC200G21;17
S15;17RC500E20;13
S27000;17RC500E20;9
S28000;17RC500E20;14
S15;20FE050H20;6
S27000;20FE050H20;4
S28000;20FE050H20;5
S15;24AF050R18;4
S27000;24AF050R18;2
S15;24EDT10C21;8
S27000;24EDT10C21;8
S15;24MA030S6;5
S27000;24MA030S6;8
S28000;24MA030S6;12
S27000;27BP050I19;3
S15;27ER150I21;19
S27000;27ER150I21;12
S28000;27ER150I21;27
S15;27MI150I20;7
S27000;27MI150I20;5
S28000;27MI150I20;7
S15;27TS001I20;85
S27000;27TS001I20;147
S28000;27TS001I20;540
S15;01CL200F21H;11
S27000;01CL200F21H;10
S28000;01CL200F21H;7
S27000;01LC250F21H;5
S27000;01MA075K18;1
S15;01PI030K18;10
S27000;01PI030K18;8
S28000;01PI030K18;20
S15;01SB020K21;17
S27000;01SB020K21;15
S28000;01SB020K21;27
S28000;11BG140SH19;27
S15;11BG140SI19;11
S27000;11BG140SI19;8
S28000;11BG140SI19;11
S15;11SA100H20;4
S27000;11SA100H20;6
S28000;11SA100H20;32
S15;15CP250VA5;3
S27000;15CP250VA5;7
S15;15ET100VAL21;3
S15;15HE005L14;12
S27000;15HE005L14;4
S28000;15HE005L14;8
S15;17AS250G18;19
S27000;17AS250G18;2
S15;17SH060SE21;10
S27000;17SH060SE21;9
S28000;17SH060SE21;10
S15;18BI030TL17ET;2
S27000;18BI030TL17ET;33
S15;20ET075OC20;3
S27000;20ET075OC20;5
S28000;20ET075OC20;12
S15;24GD500C18;24
S27000;24GD500C18;9
S15;24GM030C21;4
S27000;24GM030C21;6
S15;24MA030RA19;4
S27000;24MA030RA19;6
S28000;24MA030RA19;12
S15;27DH015I20;15
S27000;27DH015I20;12
S28000;27DH015I20;15
S15;27DS030I20;5
S27000;27DS030I20;6
S28000;27DS030I20;12
S15;27HS030I18;5
S27000;27HS030I18;7
S28000;27HS030I18;6
S15;27MS050I20;13
S27000;27MS050I20;3
S28000;27MS050I20;21
S15;01CL300KB20;8
S27000;01CL300KB20;7
S28000;01CL300KB20;9
S15;01MA150C21H;2
S27000;01MF030F21H;1
S15;01PI150K18;15
S27000;01PI150K18;8
S28000;01PI150K18;19
S15;11GD250O21;23
S27000;11GD250O21;29
S28000;11GD250O21;48
S15;11PM100SL19;5
S27000;11PM100SL19;1
S28000;11PM100SL19;4
S15;11SP200SI19;8
S27000;11SP200SI19;6
S28000;11SP200SI19;2
S15;15AS150VCL21;11
S27000;15AS150VCL21;6
S15;15DF200VBL21;37
S15;15GG150VAL21;34
S27000;15GG150VAL21;28
S27000;15KTVER21;5
S15;15MA075VB4;9
S27000;15MA075VB4;23
S28000;15MA075VB4;14
S15;17AS500E19;12
S27000;17AS500E19;8
S28000;17AS500E19;13
S15;17SE100FV21;18
S27000;17SE100FV21;10
S28000;17SE100FV21;24
S15;17VI100P19;7
S27000;17VI100P19;4
S28000;17VI100P19;9
S15;20AR075O20;11
S27000;20AR075O20;8
S28000;20AR075O20;12
S15;20DO130HC20;12
S27000;20DO130HC20;8
S28000;20DO130HC20;9
S15;20SA050O20;4
S27000;20SA050O20;6
S28000;20SA050O20;20
S15;24BL012CB5;12
S27000;24BL012CB5;3
S28000;24BL012CB5;10
S15;24MA030RV19;10
S27000;24MA030RV19;8
S15;24SA050R18;24
S27000;24SA050R18;6
S28000;24SA050R18;6
S15;29MAV075A19;6
S27000;29MAV075A19;3
S28000;29MAV075A19;5
S15;01BL012K18;16
S27000;01BL012K18;9
S28000;01BL012K18;14
S15;01CL050K21;2
S27000;01CL050K21;8
S28000;01CL050K21;10
S15;01CM300K20;5
S27000;01CM300K20;8
S28000;01CM300K20;11
S15;01EC200K22;5
S27000;01EC200K22;2
S28000;01EC200K22;25
S27000;01KTKAR21;3
S15;01RC300KB20;1
S27000;01RC300KB20;4
S15;01SA100LT20;11
S27000;01SA100LT20;31
S28000;01SA100LT20;11
S15;11BG140SH19;10
S27000;11BG140SH19;13
S15;11CM125I19;9
S27000;11CM125I19;18
S28000;11CM125I19;14
S15;11GD050A18;12
S27000;11GD050A18;4
S28000;11GD050A18;14
S15;11LC250O21;27
S27000;11LC250O21;22
S28000;11LC250O21;42
S15;11SA100H19;6
S27000;11SA100H19;7
S28000;11SA100H19;35
S15;15CF150VBL21;5
S15;15GD250VA20;7
S27000;15GD250VA20;17
S28000;15GD250VA20;37
S15;15GM065VB20;16
S15;15MA030VB3;2
S27000;15MA030VB3;9
S28000;15MA030VB3;10
S15;17HI001G19;91
S27000;17HI001G19;161
S28000;17HI001G19;207
S15;17RS500G21;21
S27000;17RS500G21;13
S28000;17RS500G21;16
S15;17SH300D15;3
S15;24ET075CB4;5
S27000;24ET075CB4;3
S28000;24ET075CB4;9
S28000;24MA030RV19;13
S15;27DC050I20;17
S27000;27DC050I20;19
S28000;27DC050I20;17
S15;29RC200A20;35
S27000;29RC200A20;16
S15;01EM075K20;5
S27000;01EM075K20;2
S28000;01EM075K20;5
S15;01HV030K16;2
S27000;01HV030K16;5
S28000;01HV030K16;8
S15;01MA150K22;35
S28000;01MA150K22;24
S15;01RV500K20;13
S27000;01RV500K20;6
S28000;01RV500K20;13
S15;01SL500VE20;12
S27000;01SL500VE20;6
S28000;01SL500VE20;7
S15;11BO100CS19;12
S27000;11BO100CS19;21
S28000;11BO100CS19;74
S15;11ET010O21;9
S27000;11ET010O21;17
S28000;11ET010O21;7
S15;11MH075A19;6
S27000;11MH075A19;4
S28000;11MH075A19;4
S15;11SD100SH19;12
S27000;11SD100SH19;10
S28000;11SD100SH19;15
S15;15MA030L11;10
S27000;15MA030L11;26
S28000;15MA030L11;51
S15;15MA075L11;11
S27000;15MA075L11;11
S28000;15MA075L11;8
S27000;15RG500VA20;8
S28000;15RG500VA20;13
S15;17ER075P19;13
S27000;17ER075P19;4
S28000;17ER075P19;13
S15;17RC500P19;12
S27000;17RC500P19;3
S28000;17RC500P19;15
S15;20HR050H20;6
S27000;20HR050H20;4
S28000;20HR050H20;7
S27000;24GD500R19;9
S28000;24GD500R19;3
S15;27EV200I19;13
S27000;27EV200I19;9
S28000;27EV200I19;16
S15;29MA075A21;13
S27000;29MA075A21;29
S28000;29MA075A21;11
S15;01BL012F21H;5
S27000;01BL012F21H;11
S28000;01BL012F21H;7
S15;01BV050K16;9
S27000;01BV050K16;4
S28000;01BV050K16;14
S15;01CP200K22;1
S27000;01CP200K22;2
S28000;01CP200K22;2
S27000;01EC200K17;6
S15;01HF100K17;2
S27000;01HF100K17;4
S28000;01HF100K17;3
S15;11GN195A18;15
S27000;11GN195A18;15
S28000;11GN195A18;20
S15;11SP200SH19;11
S27000;11SP200SH19;5
S28000;11SP200SH19;5
S15;15LM300L11;11
S27000;15LM300L11;11
S28000;15LM300L11;22
S15;15SA070VB6;1
S27000;15SA070VB6;4
S28000;15SA070VB6;3
S15;17AS250P19;9
S27000;17AS250P19;4
S28000;17AS250P19;4
S15;17CS150P19;21
S27000;17CS150P19;38
S15;17SH075E19;90
S27000;17SH075E19;122
S28000;17SH075E19;219
S15;17SH300P19;25
S27000;17SH300P19;11
S28000;17SH300P19;10
S15;20GD250HC20;11
S27000;20GD250HC20;8
S28000;20GD250HC20;33
S15;20NV150H20;20
S27000;20NV150H20;7
S28000;20NV150H20;26
S15;24GD500R19;16
S15;24MA030P15;6
S27000;24MA030P15;10
S28000;24MA030P15;7
S15;27ER050I21;13
S27000;27ER050I21;9
S28000;27ER050I21;19
S15;27SP030I19;7
S27000;27SP030I19;4
S28000;27SP030I19;4
S27000;38BV050A19;4
S28000;38BV050A19;3
S15;01BL012K21H;9
S27000;01BL012K21H;4
S28000;01BL012K21H;10
S15;01CD250F21H;3
S27000;01CD250F21H;7
S15;01CM500K20;7
S27000;01CM500K20;3
S28000;01CM500K20;13
S15;01HN0075K19;14
S27000;01HN0075K19;8
S28000;01HN0075K19;12
S15;01SL300LV20;6
S27000;01SL300LV20;18
S28000;01SL300LV20;6
S15;11EH150A18;5
S27000;11EH150A18;4
S28000;11EH150A18;6
S15;11MW200I19;2
S15;11SD100SI19;13
S27000;11SD100SI19;7
S28000;11SD100SI19;15
S15;15GD500VB17;29
S27000;15GD500VB17;4
S28000;15GD500VB17;3
S28000;15RC500VB17;12
S15;15SH250VA20;12
S27000;15SH250VA20;3
S28000;15SH250VA20;6
S15;17SH300FV21;13
S27000;17SH300FV21;15
S28000;17SH300FV21;13
S15;17SH500E19;14
S27000;17SH500E19;11
S28000;17SH500E19;21
S15;24BR050C21;18
S27000;24BR050C21;7
S15;24MA030RE19;8
S27000;24MA030RE19;8
S28000;24MA030RE19;11
S15;24RO010CB4;10
S27000;24RO010CB4;4
S28000;24RO010CB4;11
S15;27DCB060I17;6
S27000;27DCB060I17;5
S28000;27DCB060I17;2
S27000;27DF125I17;8
S15;27HC050I18;8
S27000;27HC050I18;4
S28000;27HC050I18;6
S15;29ASH240A20;5
S27000;29ASH240A20;2
S28000;29ASH240A20;11
S15;38FT200A21;1
S15;01SA250VE20;17
S27000;01SA250VE20;30
S28000;01SA250VE20;18
S15;01SL300VE20;9
S27000;01SL300VE20;17
S28000;01SL300VE20;9
S15;11BG140CS19;18
S27000;11BG140CS19;14
S28000;11BG140CS19;15
S15;11CM030O21;35
S27000;11CM030O21;31
S28000;11CM030O21;38
S15;11LC250H20;14
S27000;11LC250H20;13
S28000;11LC250H20;17
S15;11PM100SH19;1
S27000;11PM100SH19;4
S28000;11PM100SH19;4
S15;15LC250L14;16
S27000;15LC250L14;14
S28000;15LC250L14;46
S15;17AS075E19;60
S27000;17AS075E19;39
S28000;17AS075E19;68
S15;17AS250FV21;10
S27000;17AS250FV21;4
S28000;17AS250FV21;22
S15;17SH060SG21;10
S27000;17SH060SG21;10
S28000;17SH060SG21;10
S15;18ET090TL17;3
S27000;18ET090TL17;6
S15;20ET075HC20;10
S27000;20ET075HC20;4
S28000;20ET075HC20;6
S15;20SA050CD20;5
S27000;20SA050CD20;4
S28000;20SA050CD20;10
S27000;24EF050R18;6
S28000;24EF050R18;2
S15;24GD250C20;3
S15;24MA030CB4;28
S27000;24MA030CB4;22
S28000;24MA030CB4;45
S27000;24MA075R18;3
S15;27MQ065I15A;4
S27000;27MQ065I15A;6
S28000;27MQ065I15A;4
S15;29BP100A19;3
S27000;29BP100A19;4
S28000;29BP100A19;13
S27000;29LC200A21X;1
S15;49POUCH2NO21;72
S27000;49POUCH2NO21;122
S28000;49POUCH2NO21;208
S15;01LH300KB19;11
S27000;01LH300KB19;7
S28000;01LH300KB19;12
S15;01SA250LV20;15
S27000;01SA250LV20;16
S28000;01SA250LV20;15
S15;11CF100TR19;2
S27000;11CF100TR19;19
S28000;11CF100TR19;18
S15;11ET050H20;7
S27000;11ET050H20;4
S28000;11ET050H20;4
S15;11LC250H19;5
S27000;11LC250H19;19
S28000;11LC250H19;28
S15;11MWC200I19;4
S27000;11MWC200I19;3
S28000;11MWC200I19;4
S15;11PEP050I20;7
S27000;11PEP050I20;6
S28000;11PEP050I20;7
S15;15ETKAR21;47
S27000;15ETKAR21;1
S28000;15ETKAR21;1
S15;17SH300E19;28
S27000;17SH300E19;16
S28000;17SH300E19;35
S27000;17SH300N18;2
S15;17SH500P19;17
S27000;17SH500P19;7
S28000;17SH500P19;20
S15;18ET010TL17;4
S27000;18ET010TL17;6
S28000;18ET010TL17;2
S15;24LC250R20;11
S90000;01BL012B20H;1
S90000;01EM075K18;1
S24000;01HN075C21H;3
S24000;01HN075K21H;1
S24000;01SA250LT20;7
S90000;01SA250LT20;6
S24000;11BH050A18;2
S90000;11BH050A18;9
S24000;11SA050O21;24
S90000;11SA050O21;6
S24000;11SP200SL19;6
S90000;11SP200SL19;8
S24000;15ET100VCL21;7
S90000;15ET100VCL21;5
S90000;15GM065L20;8
S90000;15LC070VB5;69
S24000;15LC250VB3;9
S90000;15LC250VB3;2
S24000;15MA030VCL21;32
S90000;15MA030VCL21;41
S24000;17AF100G20;4
S90000;17AF100G20;7
S24000;17AS250E19;3
S90000;17AS250E19;11
S24000;17AS500G21;5
S90000;17AS500G21;14
S24000;17RC500G21;12
S90000;17RC500G21;5
S90000;17SH075P19;1
S24000;20DO075CD20;7
S90000;20DO075CD20;9
S90000;24ET050RJ21H;1
S24000;24LC250CB4;18
S90000;24LC250CB4;3
S90000;24MA030RJ21H;4
S90000;27DC030I20;2
S90000;27DE015I13US;14
S24000;27ER015I20;45
S90000;27ER015I20;3
S24000;27FP050I19;4
S90000;27FP050I19;8
S24000;27RM300I20;1
S90000;27RM300I20;8
S90000;29EC200A13;1
S24000;29EC200A21;11
S90000;29EC200A21;16
S24000;29EC200A21X;20
S24000;29HS100A21;10
S90000;29HS100A21;1
S24000;38EV075A18;10
S24000;38WS030A21;2
S90000;38WS030A21;5
S24000;49BO015CS19;8
S27000;24LC250R20;23
S28000;24LC250R20;18
S28000;27BP050I19;25
S15;27DH030I20;15
S27000;27DH030I20;14
S28000;27DH030I20;20
S15;29MA030A21X;38
S15;29SA050A17;14
S27000;29SA050A17;8
S28000;29SA050A17;17
S15;49LC020A20;6
S27000;49LC020A20;10
S28000;49LC020A20;42
S15;49POCKNO21;60
S27000;49POCKNO21;39
S28000;49POCKNO21;68
S15;52AS006P19;69
S27000;52AS006P19;325
S28000;52AS006P19;223
S15;52DH001I20;376
S27000;52DH001I20;293
S15;01MR030K14;7
S27000;01MR030K14;10
S28000;01MR030K14;15
S15;11EP050H19;4
S27000;11EP090H19;3
S15;11GM200I19;14
S27000;11GM200I19;20
S28000;11GM200I19;40
S15;11LH200I19;15
S27000;11LH200I19;7
S28000;11LH200I19;18
S15;11SD100SL19;14
S27000;11SD100SL19;8
S28000;11SD100SL19;10
S15;15ET010VB19;8
S27000;15ET010VB19;4
S28000;15ET010VB19;6
S15;15GD250L14;19
S27000;15GD250L14;20
S28000;15GD250L14;32
S15;15RG500L14;18
S27000;15RG500L14;10
S28000;15RG500L14;11
S15;17RS500E20;17
S27000;17RS500E20;13
S28000;17RS500E20;19
S15;18LC250TL17ET;14
S27000;18LC250TL17ET;17
S28000;18LC250TL17ET;7
S15;20AR075H16;4
S15;20GD250CD20;8
S27000;20GD250CD20;10
S90000;49BO015CS19;52
S24000;49DC004I20;9
S90000;49DC004I20;16
S90000;49MA010R18;142
S90000;49MS008I20;159
S90000;49SH035E20;34
S24000;49SH035E21;8
S90000;49SH035E21;160
S24000;52CV0015K18;65
S90000;52DL002I17;100
S24000;01BL012C21H;4
S24000;01CMJ075K21;24
S90000;01CMJ075K21;7
S24000;01CV050K18;10
S90000;01CV050K18;8
S24000;01LC500K20;5
S90000;01LC500K20;6
S24000;01SA050KL20;13
S90000;01SA050KL20;15
S24000;01SA100VE20;10
S90000;01SA100VE20;5
S24000;11BP100I19;6
S90000;11BP100I19;8
S24000;11BR100A20;5
S90000;11BR100A20;7
S24000;11EP010H19;1
S90000;11EP010H19;6
S24000;11GE075I20;11
S90000;11GE075I20;1
S24000;11LD200I19;10
S90000;11LD200I19;8
S24000;15AS250VA18;3
S90000;15AS250VA18;9
S24000;15ET100VA20;4
S90000;15ET100VA20;8
S90000;15GN300L11;7
S90000;17AS500G18;9
S24000;17DO050F13;10
S90000;17DO050F13;11
S24000;17HI100G19;7
S90000;17HI100G19;7
S90000;17SE125D15;23
S24000;17SH075G18;7
S90000;17SH075G18;11
S24000;17SH300G21;9
S90000;17SH300G21;11
S24000;17SH500FV21;16
S90000;17SH500FV21;9
S24000;20DO050O20;3
S90000;20DO050O20;10
S24000;24BR050CB6;1
S90000;24BR050CB6;12
S24000;24ET050R18;10
S90000;24ET050R18;8
S24000;24GD250CB4;19
S90000;24GD250CB4;1
S90000;24LC250R18;2
S24000;27BY015I19;7
S90000;27BY015I19;5
S90000;27KTFCAPAC20;1
S90000;29BP100A18;1
S90000;29HD250A21X;18
S24000;38WC050A21;10
S90000;38WC050A21;7
S90000;49CP020K22;400
S90000;49LD030I20;44
S90000;49MA010L16;135
S90000;49MR010K14;46
S90000;49PI010K18;94
S90000;49TRAVNO21;269
S24000;52CP0015I19;178
S90000;52CP0015I19;209
S24000;52HV001K18;2
S90000;01CL200K21;1
S24000;01CMR500K20;10
S90000;01CMR500K20;12
S24000;01DF200W19H;5
S24000;01HDR500K20;6
S90000;01HDR500K20;13
S90000;01MA030K21H;1
S24000;01PI075K18;5
S90000;01PI075K18;15
S24000;01SA050KV20;9
S90000;01SA050KV20;12
S24000;01SA100LV20;3
S90000;01SA100LV20;8
S24000;01SL0045K13;14
S90000;01SL0045K13;1
S24000;11BG140SL19;5
S90000;11BG140SL19;12
S90000;11EH040A19;11
S90000;11LC050H20;1
S24000;11SD100CS19;11
S90000;11SD100CS19;9
S24000;15DO050VA5;3
S90000;15DO050VA5;2
S90000;15ET100VA5;1
S24000;15MA030VA5;2
S90000;15MA030VA5;16
S24000;15SE400VB5;1
S90000;15SE400VB5;5
S90000;17AS075FV21;103
S24000;17AS500FV21;9
S90000;17AS500FV21;3
S24000;17RS500FV21;10
S28000;20GD250CD20;23
S27000;20SA050HC20;5
S28000;20SA050HC20;20
S15;24MA150R19;14
S27000;24MA150R19;4
S28000;24MA150R19;10
S15;27OR030I19;17
S27000;27OR030I19;11
S15;29LC200A20US;15
S27000;29LC200A20US;15
S28000;29LC200A20US;50
S15;29VC240A16;10
S27000;29VC240A16;4
S28000;29VC240A16;9
S15;38MI150A18;4
S27000;38MI150A18;4
S28000;38MI150A18;6
S15;52DB001I20;289
S27000;52DB001I20;191
S28000;52DB001I20;497
S15;52LC006A20;401
S15;01BP050K21;6
S27000;01BP050K21;3
S28000;01BP050K21;8
S15;01LT300K20;15
S27000;01LT300K20;8
S28000;01LT300K20;13
S15;01MA075K22;3
S27000;01MA075K22;43
S28000;01MA075K22;20
S15;01PR015R19;9
S27000;01PR015R19;7
S28000;01PR015R19;11
S15;11BC100G21;37
S27000;11BC100G21;43
S28000;11BC100G21;32
S15;11CM030H20;5
S27000;11CM030H20;15
S28000;11CM030H20;41
S15;11PM100SI19;6
S27000;11PM100SI19;5
S28000;11PM100SI19;3
S15;11SV080I19;5
S27000;11SV080I19;7
S28000;11SV080I19;6
S15;15ET100VB3;1
S27000;15ET100VB3;2
S28000;15ET100VB3;5
S15;15RG500VA20;11
S27000;18GD250TL17ET;6
S15;20ET075CD20;6
S27000;20ET075CD20;4
S28000;20ET075CD20;6
S90000;17RS500FV21;14
S24000;17SH060SP21;7
S90000;17SH060SP21;5
S24000;17SH500G21;12
S90000;17SH500G21;8
S24000;20MP030H20;4
S24000;24GD250C21;10
S24000;24RO010R18;3
S90000;24RO010R18;6
S24000;27DE015I21;5
S90000;27DE015I21;11
S24000;27HSR030I16;4
S90000;27HSR030I16;3
S24000;27OR030I21;20
S90000;27OR030I21;8
S24000;29HD500A15;23
S90000;29HD500A15;43
S24000;29SE125A21;7
S90000;29SE125A21;1
S90000;29SH075A20;17
S24000;38EC015A18;4
S90000;38EC015A18;4
S90000;49CP008I19;32
S90000;49FCROL21;7
S90000;49HS015A18;6
S90000;49MA010VB3;1
S24000;52BCRAC21;3
S24000;52CL0015K21;107
S90000;52CL0015K21;221
S24000;52HD006A18;233
S90000;52HD006A18;474
S24000;01BM050K19;5
S90000;01BM050K19;10
S90000;01CP050K22;26
S24000;01CP200K17;6
S90000;01CP200K17;9
S90000;01EN300KB19;24
S24000;01HD500K20;11
S90000;01HD500K20;10
S24000;01LC250K17;13
S90000;01LC250K17;5
S90000;01SA250VE16;1
S24000;01SL500LV20;1
S90000;01SL500LV20;12
S90000;10KTPWPXM21;3
S24000;11CD050A18;4
S90000;11CD050A18;7
S24000;11ET010H20;7
S90000;11ET010H20;8
S90000;11LC075O21;20
S24000;11LT300I20;5
S90000;11LT300I20;8
S24000;11MA030A20;1
S90000;11MA030A20;9
S24000;11SP200CS19;2
S90000;11SP200CS19;7
S90000;15ET100VBL21;1
S24000;15GM280VB20;2
S90000;15GM280VB20;7
S24000;15MA030VAL21;12
S90000;15MA030VAL21;14
S24000;17AS500P19;4
S90000;17AS500P19;14
S90000;17RC500N18;1
S24000;17RS500P19;17
S90000;17RS500P19;3
S24000;17SH075G21;10
S90000;17SH075G21;272
S24000;17SH300G18;2
S90000;17SH300G18;6
S90000;18ET050TL17;1
S24000;24GD250R20;7
S90000;24GD250R20;6
S90000;24MA030R18;11
S24000;24MA075P15;7
S90000;24MA075P15;14
S24000;27CP050I19;12
S90000;27CP050I19;1
S24000;27HCR050I16;5
S90000;27HCR050I16;5
S24000;27OR075I21;23
S90000;27OR075I21;13
S24000;29HD250A15;15
S90000;29HD250A15;1
S90000;38SM025A19;87
S90000;49MASKRS21;29
S90000;52COTLTM19;4
S24000;52DC0015I20;305
S90000;52DC0015I20;285
S24000;52LGEBAG19;72
S24000;52LGEBOX18;8
S90000;52LGEBOX18;75
S24000;52RBO2NO21;4
S24000;52SMSANO21;97
S24000;01SA250VE20;11
S90000;01SA250VE20;8
S24000;01SL300VE20;8
S90000;01SL300VE20;13
S24000;11BG140CS19;7
S24000;11CM030O21;19
S90000;11CM030O21;18
S24000;11LC250H20;15
S90000;11LC250H20;7
S90000;11PM100DE20H;6
S24000;11PM100SH19;3
S90000;11PM100SH19;8
S90000;15GD070VB17;13
S24000;15LC250L14;11
S90000;15LC250L14;14
S24000;17AS075E19;11
S90000;17AS075E19;64
S24000;17AS250FV21;8
S90000;17AS250FV21;7
S24000;17SH060SG21;10
S90000;17SH060SG21;11
S90000;18ET090TL17;1
S24000;20ET075HC20;5
S90000;20ET075HC20;5
S90000;20SA050CD20;5
S24000;24EF050R18;1
S90000;24EF050R18;1
S24000;24GD250C20;6
S90000;24MA030CB4;13
S24000;24MA075R18;1
S90000;24MA075R18;10
S24000;27MQ065I15A;5
S90000;27MQ065I15A;5
S24000;29BP100A19;3
S90000;29BP100A19;7
S90000;29GE200A18;1
S24000;29HD500A21X;1
S90000;29HD500A21X;2
S24000;29LC200A21X;9
S90000;29LC200A21X;40
S90000;49LC035CB6;21
S90000;49POUCB21;6
S24000;49POUCH2NO21;96
S90000;49POUID20;33
S90000;49TOBACH20;131
S90000;49TRSOL15;16
S24000;52ACRAC21;3
S24000;52AF006G20;29
S90000;52AF006G20;100
S90000;52CARDENV18;3
S24000;52ER002I21;278
S90000;52ER002I21;317
S24000;52SH006FV21;269
S90000;52SH006FV21;504
S24000;01BL012F21H;5
S90000;01BV050K16;4
S90000;01CM030K21;2
S24000;01CP200K22;6
S90000;01CP200K22;12
S24000;01EC200K17;2
S24000;01HF100K17;1
S90000;01HF100K17;2
S24000;11GN195A18;15
S90000;11GN195A18;2
S24000;11SP200SH19;7
S20;01CMR500K20;21
S20;01HDR500K20;8
S20;01MA030K22;39
S20;01PI075K18;8
S20;01SA050KV20;8
S20;01SA100LV20;17
S20;01SL0045K13;32
S20;11BG140SL19;12
S20;11SD100CS19;11
S20;15DO050VA5;12
S20;15MA030VA5;21
S20;15SE400VB5;10
S20;17AS500FV21;11
S20;17RS500FV21;23
S20;17SH060SP21;10
S20;17SH500G21;11
S20;20MP030H20;3
S20;24GD250C21;6
S20;24GP010RJ21H;13
S20;24RO010R18;5
S20;27DE015I21;10
S20;27HSR030I16;5
S20;27OR030I21;27
S20;29HD500A15;24
S20;29MA030A17;28
S20;29SE125A21;9
S20;38EC015A18;4
S20;52BCRAC21;3
S20;52CL0015K18;2
S20;52CL0015K21;131
S20;52HD006A18;3
S20;52LGENSA18;144
S20;52MMBPNO21;19
S20;52SH006P19;36
S20;52SP001I19;160
S20;01MR030K14;20
S20;11EP050H19;4
S20;11GM200I19;17
S20;11LH200I19;11
S20;11SD100SL19;13
S20;15ET010VB19;8
S20;15GD250L14;22
S20;15RG500L14;19
S20;17RS500E20;21
S20;18LC250TL17ET;12
S20;20GD250CD20;12
S20;20SA050HC20;12
S20;24MA150R19;16
S20;29LC200A20US;26
S20;29VC240A16;10
S20;38MI150A18;4
S20;52DB001I20;130
S20;52LC006A20;10
S20;52MS001I20;85
S15;24BR050R19;5
S27000;24BR050R19;5
S28000;24BR050R19;12
S15;24LC250C21;14
S27000;24LC250C21;11
S15;24SA050CB6;28
S27000;24SA050CB6;2
S28000;24SA050CB6;14
S15;27DB015I20;12
S27000;27DB015I20;5
S28000;27DB015I20;12
S15;27MP050I20;46
S27000;27MP050I20;27
S28000;27MP050I20;6
S15;27OR050I21;27
S27000;27OR050I21;29
S28000;27OR050I21;27
S15;52CCRAC21;2
S27000;52CCRAC21;2
S15;52DCRAC21;2
S27000;52DCRAC21;2
S15;52MA003K16A;336
S27000;52MA003K16A;26
S15;38UV030A18;11
S27000;38UV030A18;5
S28000;38UV030A18;11
S15;49CRM2NO21;2
S28000;49CRM2NO21;48
S15;52AS006G18;44
S15;52AS006G21;75
S27000;52AS006G21;387
S28000;52AS006G21;409
S15;52CARDNO21;5
S27000;52CARDNO21;8
S28000;52CARDNO21;10
S15;52MGEBOX18;58
S27000;52MGEBOX18;36
S28000;52MGEBOX18;53
S15;52MGENSA21;80
S27000;52MGENSA21;61
S28000;52MGENSA21;83
S15;52POUDIS18;1
S15;52SGENSA18;99
S27000;52SGENSA18;301
S28000;52SGENSA18;335
S15;52SMBBNO21;74
S27000;52SMBBNO21;3
S28000;52SMBBNO21;36
S15;98BBHD050A0;28
S27000;98BBHD050A0;17
S28000;98BBHD050A0;12
S27000;52LC006A20;400
S28000;52LC006A20;345
S15;52MS001I20;31
S00;27CN050I14;2
S90000;11SP200SH19;10
S24000;15LM300L11;8
S90000;15LM300L11;13
S90000;15SA070VB6;4
S24000;17AS250P19;4
S90000;17AS250P19;12
S24000;17CS150P19;22
S90000;17CS150P19;3
S24000;17MC200G18;2
S24000;17SH075E19;45
S90000;17SH075E19;71
S24000;17SH300P19;4
S90000;17SH300P19;5
S24000;20GD250HC20;18
S90000;20GD250HC20;10
S24000;20NV150H20;17
S90000;20NV150H20;5
S24000;24MA030P15;9
S90000;24MA030P15;12
S24000;27ER050I21;7
S90000;27ER050I21;11
S24000;27SP030I19;4
S90000;27SP030I19;12
S90000;38BV050A19;9
S24000;38UV030A18;6
S90000;49CM010O21;1
S90000;49PFCWC21;90
S90000;52AS006G18;1
S24000;52AS006G21;206
S90000;52AS006G21;399
S24000;52CARDNO21;8
S90000;52CARDNO21;6
S24000;52MGEBOX18;33
S24000;52MGENSA21;106
S24000;52SMBBNO21;11
S90000;98BBHD035A0;140
S24000;98BBHD050A0;17
S90000;98BBHD050A0;2
S90000;01MR030K14;7
S24000;11EP050H19;4
S90000;11EP050H19;3
S24000;11EP090H19;4
S24000;11GM200I19;18
S90000;11GM200I19;5
S24000;11LH200I19;13
S90000;11LH200I19;7
S24000;11SD100SL19;6
S90000;11SD100SL19;13
S24000;15ET010VB19;4
S24000;15GD250L14;7
S24000;15RG500L14;7
S90000;15RG500L14;2
S24000;17RS500E20;18
S29000;01BL012F21H;15
S29000;01BV050K16;13
S29000;01CP200K22;2
S29000;01EC200K17;6
S29000;01HF100K17;9
S29000;11GN195A18;26
S29000;11SP200SH19;9
S29000;15LM300L11;11
S29000;15SA070VB6;13
S29000;17AS250P19;3
S29000;17CS150P19;16
S29000;17SH075E19;371
S29000;17SH300P19;22
S29000;20GD250HC20;29
S29000;20NV150H20;24
S29000;24MA030P15;41
S29000;27ER050I21;19
S29000;27SP030I19;11
S29000;38BV050A19;4
S29000;38UV030A18;17
S29000;49CRM2NO21;6
S29000;52AS006G21;328
S29000;52CARDNO21;8
S29000;52MGEBOX18;56
S29000;52SGENSA18;72
S29000;52SMBBNO21;68
S29000;98BBHD050A0;70
S29000;01MR030K14;20
S29000;11EP050H19;4
S29000;11EP090H19;2
S29000;11GM200I19;39
S29000;11LH200I19;13
S29000;11SD100SL19;15
S29000;15ET010VB19;4
S29000;15GD250L14;22
S29000;15RG500L14;36
S29000;17RS500E20;73
S29000;18LC250TL17ET;15
S29000;20AR075H16;4
S29000;20GD250CD20;29
S29000;20SA050HC20;6
S29000;24MA150R19;13
S29000;27OR030I19;4
S29000;29LC200A20US;27
S29000;29VC240A16;15
S29000;38MI150A18;4
S29000;49GD035CB5;187
S29000;52DB001I20;294
S29000;52LC006A20;278
S29000;52MS001I20;129
S29000;52SH006G21;326
S29000;01HN075C21H;8
S29000;01HN075K21H;2
S10;01BL012F21H;8
S10;01BV050K16;5
S10;01EC200K17;2
S10;01HF100K17;3
S10;11GN195A18;12
S10;11SP200SH19;2
S10;15LM300L11;3
S10;17AS250P19;4
S10;17CS150P19;30
S10;17SH075E19;7
S10;17SH300P19;8
S10;20GD250HC20;7
S10;24GD500R19;6
S10;24MA030P15;7
S10;27ER050I21;11
S10;27SP030I19;10
S10;38BV050A19;6
S10;38UV030A18;6
S10;52AS006G21;316
S10;52CARDNO21;8
S10;52MGEBOX18;40
S10;52MGENSA18;64
S10;52MGENSA21;120
S10;52SGENSA18;171
S10;52SMBBNO21;30
S10;98BBHD050A0;62
S10;01MR030K14;8
S10;11GM200I19;7
S10;11LH200I19;2
S10;11SD100SL19;11
S10;15ET010VB19;7
S10;15RG500L14;7
S10;17RS500E20;12
S10;18LC250TL17ET;12
S10;20GD250CD20;8
S10;20SA050HC20;7
S10;24MA150R19;1
S10;27OR030I19;18
S10;29LC200A20US;24
S10;29VC240A16;4
S10;38MI150A18;8
S10;49GD035CB5;4
S10;52DB001I20;128
S10;52LC006A20;184
S10;52MS001I20;113
S10;52SH006G21;460
S10;01HN075C21H;6
S10;01HN075K21H;7
S10;01SA250LT20;5
S10;11BH050A18;2
S10;11SA050O21;7
S10;11SP200SL19;2
S10;15ET100VCL21;4
S10;15LC250VB3;6
S21000;01BL012F21H;5
S21000;01BV050K16;3
S21000;01EC200K17;2
S21000;01HF100K17;4
S21000;11GN195A18;8
S21000;11SP200SH19;5
S21000;15LM300L11;9
S21000;15SA070VB6;3
S21000;17AS250P19;6
S21000;17CS150P19;15
S21000;17SH075E19;158
S21000;17SH300P19;8
S21000;20GD250HC20;6
S21000;20NV150H20;1
S21000;24MA030P15;11
S21000;27ER050I21;12
S21000;27SP030I19;6
S21000;38BV050A19;3
S21000;38UV030A18;8
S21000;52AS006G21;292
S21000;52CARDNO21;8
S21000;52MGEBOX18;34
S21000;52MGENSA21;11
S21000;52SGENSA18;262
S21000;52SMBBNO21;16
S21000;98BBHD050A0;25
S21000;01MR030K14;68
S21000;11EP050H19;1
S21000;11GM200I19;15
S21000;11LH200I19;7
S21000;11SD100SL19;14
S21000;15ET010VB19;4
S21000;15GD250L14;42
S21000;15RG500L14;11
S21000;17RS500E20;29
S21000;18LC250TL17ET;10
S21000;20GD250CD20;11
S21000;20SA050HC20;4
S21000;24MA150R19;6
S21000;27OR030I19;8
S21000;29LC200A20US;19
S21000;29VC240A16;9
S21000;38MI150A18;4
S21000;49GD035CB5;36
S21000;52DB001I20;117
S21000;52LC006A20;162
S21000;52MS001I20;126
S21000;52SH006G21;303
S21000;01MA030K16;86
S21000;01SA250LT20;27
S21000;11BH050A18;6
S21000;11SA050O21;7
S21000;11SP200SL19;12
S27000;52MS001I20;180
S28000;52MS001I20;356
S15;52SH006G21;135
S27000;52SH006G21;323
S28000;52SH006G21;428
S15;27FP050I19;13
S27000;27FP050I19;4
S28000;27FP050I19;2
S15;27RM300I20;16
S27000;27RM300I20;8
S28000;27RM300I20;17
S15;29EC200A21;13
S27000;29EC200A21;10
S28000;29EC200A21;17
S15;29EC200A21X;30
S27000;29EC200A21X;14
S28000;29EC200A21X;4
S15;29HS100A21;13
S27000;29HS100A21;9
S28000;29HS100A21;8
S15;38EV075A18;10
S27000;38EV075A18;8
S28000;38EV075A18;11
S15;38WS030A21;11
S27000;38WS030A21;4
S28000;38WS030A21;11
S15;49BO015CS19;18
S27000;49BO015CS19;10
S28000;49BO015CS19;8
S15;49DC004I20;10
S27000;49DC004I20;8
S28000;49DC004I20;5
S28000;49MS008I20;86
S15;49SH035E20;9
S15;49SH035E21;8
S27000;49SH035E21;10
S28000;49SH035E21;20
S15;52CV0015K18;85
S27000;52CV0015K18;187
S28000;52CV0015K18;154
S15;52HS001I17;155
S27000;52HS001I17;141
S28000;52HS001I17;304
S15;52HS004A18;85
S27000;52HS004A18;203
S28000;52HS004A18;348
S27000;52SMBANO21;193
S15;38WM065A18;4
S27000;38WM065A18;3
S28000;38WM065A18;4
S27000;49TOTWC21;50
S28000;49TOTWC21;112
S15;52CD0015A18;104
S20;52SH006G21;117
S20;01BL012F21H;6
S20;01BV050K16;9
S20;01CP200K22;8
S20;01HF100K17;9
S20;11GN195A18;15
S20;11SP200SH19;7
S20;15LM300L11;10
S20;15SA070VB6;3
S20;17AS250P19;7
S20;17CS150P19;28
S20;17SH075E19;156
S20;17SH300P19;10
S20;20GD250HC20;11
S20;20NV150H20;11
S20;24MA030P15;16
S20;27ER050I21;8
S20;27SP030I19;6
S20;38BV050A19;4
S20;38UV030A18;10
S20;49CRM2NO21;23
S20;52AS006G21;61
S20;52CARDNO21;4
S20;52MGEBOX18;40
S20;52MGENSA21;121
S20;52SGENSA18;214
S20;52SMBBNO21;45
S20;98BBHD050A0;2
S20;01HN075C21H;1
S20;01HN075K21H;8
S20;01MA030K16;1
S20;01SA250LT20;18
S20;11BH050A18;10
S20;11SA050O21;10
S20;11SP200SL19;9
S20;15ET100VCL21;9
S20;15GM065L20;45
S20;15LC250VB3;13
S20;15MA030VCL21;20
S20;17AF100G20;10
S20;17AS250E19;6
S20;17AS500G21;11
S20;17RC500G21;20
S20;20DO075CD20;10
S20;20GD250OC20;17
S20;24ET050RJ21H;8
S20;24LC250CB4;14
S20;27DC030I20;5
S20;27ER015I20;46
S20;27FP050I19;6
S20;27RM300I20;11
S20;29EC200A21;13
S20;29EC200A21X;22
S20;29HS100A21;20
S90000;17RS500E20;26
S24000;18LC250TL17ET;7
S90000;18LC250TL17ET;18
S90000;20AR075H16;7
S24000;20GD250CD20;7
S90000;20GD250CD20;9
S24000;20SA050HC20;1
S90000;20SA050HC20;6
S24000;24MA150R19;12
S90000;24MA150R19;9
S24000;27OR030I19;23
S90000;27OR030I19;4
S24000;29LC200A20US;22
S90000;29LC200A20US;12
S24000;29VC240A16;12
S90000;29VC240A16;13
S24000;38MI150A18;10
S90000;38MI150A18;3
S90000;49BF2NO20;1
S90000;49CRM1NO20;2
S90000;49CRM1NO21;19
S90000;49ET010V13;13
S90000;49POU1O21;23
S90000;49TC1NO20;20
S24000;52DB001I20;160
S90000;52DB001I20;157
S24000;52LC006A20;116
S90000;52LC006A20;485
S24000;52MS001I20;229
S90000;52MS001I20;378
S24000;52SH006G21;180
S90000;52SH006G21;482
S24000;52HS001I17;129
S24000;52HS004A18;188
S90000;52HS004A18;94
S24000;52SMBANO21;22
S24000;01BK010K14;7
S90000;01BK010K14;5
S90000;01KTPWP21;32
S24000;01LC250K21H;5
S90000;01LC250K21H;10
S24000;11CM030H19;3
S90000;11CM030H19;12
S24000;11GD250H19;12
S90000;11GD250H19;20
S24000;11GD250H20;12
S90000;11GD250H20;13
S24000;15BA500L16A;7
S90000;15BA500L16A;14
S24000;15GD250VB17;5
S24000;15LC250VA20;2
S90000;15LC250VA20;12
S90000;17AS075G18;108
S29000;01SA250LT20;20
S29000;11BH050A18;13
S29000;11SA050O21;6
S29000;11SP200SL19;16
S29000;15ET100VCL21;11
S29000;15GM065L20;37
S29000;15LC250VB3;10
S29000;15MA030VCL21;32
S29000;17AF100G20;23
S29000;17AS250E19;10
S29000;17AS500G21;20
S29000;17RC500G21;99
S29000;20DO075CD20;22
S29000;20GD250OC20;7
S29000;24KTCBL21;1
S29000;24LC250CB4;40
S29000;27DC030I20;6
S29000;27ER015I20;31
S29000;27FP050I19;5
S29000;27RM300I20;21
S29000;29EC200A21;25
S29000;29EC200A21X;15
S29000;29HS100A21;40
S29000;38EV075A18;29
S29000;38WS030A21;12
S29000;49BO015CS19;87
S29000;52CV0015K18;97
S29000;52HS001I17;179
S29000;52HS004A18;177
S29000;01BK010K14;16
S29000;01LC250K21H;8
S29000;10QCRAC21;2
S29000;11CM030H19;33
S29000;11GD250H19;26
S29000;11GD250H20;36
S29000;15BA500L16A;14
S29000;15GD250VB17;12
S29000;15LC250VA20;19
S29000;17AS250G21;9
S29000;17MC200G21;35
S29000;17RC500E20;54
S29000;20FE050H20;5
S29000;24AF050R18;2
S29000;24EDT10C21;7
S29000;24MA030S6;40
S29000;27ER150I21;21
S29000;27MI150I20;4
S29000;27TS001I20;201
S29000;38WM065A18;5
S29000;49BOTNO21;82
S29000;49POUIS19;23
S29000;52CD0015A18;23
S29000;52DF002I17;201
S10;15MA030VCL21;20
S10;17AF100G20;4
S10;17AS250E19;11
S10;17AS500G21;8
S10;17RC500G21;9
S10;20DO075CD20;8
S10;24LC250CB4;4
S10;27DC030I20;4
S10;27ER015I20;24
S10;27FP050I19;6
S10;27RM300I20;6
S10;29EC200A13;5
S10;29EC200A21;13
S10;29EC200A21X;17
S10;29HS100A21;11
S10;38WS030A21;2
S10;49BO015CS19;34
S10;49DC004I20;10
S10;49MS008I20;54
S10;49SH035E21;10
S10;52CV0015K18;119
S10;52HS001I17;168
S10;52HS004A18;292
S10;52SMBANO21;54
S10;01BK010K14;10
S10;01KTPWP21;11
S10;01LC250K21H;12
S10;11CM030H19;4
S10;11GD250H19;8
S10;15BA500L16A;3
S10;15LC250VA20;12
S10;17AS250G21;16
S10;17MC200G21;8
S10;17RC500E20;27
S10;20FE050H20;4
S10;24AF050R18;5
S10;24EDT10C21;11
S10;24MA030S6;14
S10;27BP050I19;1
S10;27ER150I21;15
S10;27MI150I20;8
S10;27TS001I20;217
S10;38WM065A18;4
S10;49BOTNO21;20
S10;52CD0015A18;189
S10;52DF002I17;288
S10;52OR001I21;202
S10;98BBSH050A0;29
S10;01CL200K17;6
S10;01HD250K17;1
S10;01MA150K18;4
S10;01RL500K20;6
S10;11ET075O21;8
S10;11FAG10TR19;8
S10;24GC150C21;4
S27000;52CD0015A18;139
S28000;52CD0015A18;133
S15;52DF002I17;271
S27000;52DF002I17;253
S28000;52DF002I17;375
S15;52OR001I21;246
S27000;52OR001I21;541
S28000;52OR001I21;920
S15;98BBSH050A0;28
S27000;98BBSH050A0;50
S28000;98BBSH050A0;29
S15;01BM150K19;30
S27000;01BM150K19;8
S28000;01BM150K19;14
S15;01CL200K17;5
S27000;01CL200K17;6
S28000;01CL200K17;10
S15;01HD250K17;1
S27000;01HD250K17;3
S28000;01HD250K17;11
S27000;01MA150K18;19
S28000;01MA150K18;16
S15;01RL500K20;14
S27000;01RL500K20;4
S28000;01RL500K20;10
S15;01SE125K21;12
S27000;01SE125K21;4
S28000;01SE125K21;14
S15;11ET075O21;12
S27000;11ET075O21;7
S28000;11ET075O21;69
S15;11FAG10TR19;14
S27000;11FAG10TR19;6
S28000;11FAG10TR19;15
S15;15MF075VM20H;20
S15;24MA075CB4;31
S27000;24MA075CB4;17
S28000;24MA075CB4;14
S15;27DL200I20;12
S27000;27DL200I20;6
S28000;27DL200I20;11
S15;27MP150I20;11
S27000;27MP150I20;17
S28000;27MP150I20;15
S15;29GE200A21;16
S27000;29GE200A21;9
S28000;29GE200A21;18
S15;49OR005I21;147
S27000;49OR005I21;101
S28000;49OR005I21;182
S15;52GIF2NO21;6
S27000;52GIF2NO21;3
S28000;52GIF2NO21;5
S90000;17AS075G21;64
S24000;17AS250G21;11
S90000;17AS250G21;4
S24000;17MC200G21;12
S90000;17MC200G21;6
S24000;17RC500E20;9
S90000;17RC500E20;17
S24000;20FE050H20;4
S90000;20FE050H20;16
S24000;24EDT10C21;11
S90000;24EDT10C21;15
S90000;24GD075R20;3
S24000;24MA030S6;11
S90000;24MA030S6;11
S24000;27BP050I19;3
S24000;27ER150I21;14
S90000;27ER150I21;10
S24000;27MI150I20;5
S90000;27MI150I20;9
S24000;27TS001I20;272
S90000;27TS001I20;676
S90000;29MA075A19;1
S24000;38WM065A18;4
S90000;38WM065A18;3
S90000;49BOTNO21;90
S90000;49CM030I19;116
S90000;49ET007CB4;45
S90000;49HD035K17;13
S90000;49P2DTS19;14
S90000;49PADCL20;101
S24000;52CD0015A18;84
S24000;52DF002I17;317
S90000;52DF002I17;611
S24000;52OR001I21;320
S90000;52OR001I21;435
S24000;98BBSH050A0;28
S90000;98BBSH050A0;10
S24000;01BM150K19;1
S90000;01BM150K19;4
S24000;01CL200K17;7
S90000;01CL200K17;10
S90000;01CP100K21H;27
S24000;01HD250K17;1
S90000;01HD250K17;4
S24000;01MA150K18;11
S90000;01MA150K18;2
S24000;01RL500K20;3
S90000;01RL500K20;3
S24000;01SE125K21;8
S90000;01SE125K21;5
S90000;10CACLA21;13
S24000;11ET075O21;10
S24000;11FAG10TR19;7
S21000;15ET100VCL21;5
S21000;15GM065L20;30
S21000;15LC250VB3;15
S21000;15MA030VCL21;29
S21000;17AF100G20;8
S21000;17AS250E19;4
S21000;17AS500G21;10
S21000;17RC500G21;15
S21000;20DO075CD20;5
S21000;24LC250CB4;17
S21000;27DC030I20;6
S21000;27ER015I20;34
S21000;27FP050I19;6
S21000;27RM300I20;15
S21000;29EC200A13;5
S21000;29EC200A21;13
S21000;29EC200A21X;18
S21000;29HS100A21;11
S21000;38EV075A18;13
S21000;38WS030A21;4
S21000;49BO015CS19;25
S21000;49DC004I20;11
S21000;49MS008I20;49
S21000;49SH035E21;10
S21000;52CV0015K18;32
S21000;52HS001I17;183
S21000;52HS004A18;343
S21000;52SMBANO21;197
S21000;01BK010K14;9
S21000;01LC250K21H;7
S21000;11CM030H19;10
S21000;11GD250H19;8
S21000;11GD250H20;24
S21000;15BA500L16A;6
S21000;15GD250VB17;15
S21000;15LC250VA20;7
S21000;17AS250G21;6
S21000;17MC200G21;10
S21000;17RC500E20;16
S21000;20FE050H20;4
S21000;24AF050R18;5
S21000;24EDT10C21;11
S21000;27ER150I21;18
S21000;27MI150I20;6
S21000;27TS001I20;336
S21000;38WM065A18;5
S21000;49TOTWC21;52
S21000;52CD0015A18;114
S21000;52DF002I17;251
S21000;52OR001I21;406
S21000;98BBSH050A0;26
S21000;01BM150K19;7
S21000;01CL200K17;11
S29000;52OR001I21;470
S29000;01BM150K19;37
S29000;01CL200K17;6
S29000;01HD250K17;11
S29000;01RL500K20;42
S29000;01SE125K21;8
S29000;11ET075O21;6
S29000;11FAG10TR19;18
S29000;15GD075L15;23
S29000;15MF075VM20H;16
S29000;24MA075CB4;4
S29000;27DL200I20;17
S29000;27MP150I20;24
S29000;29GE200A21;47
S29000;49OR005I21;56
S29000;52GIF2NO21;6
S29000;52MMSANO21;111
S29000;01SA250VE20;25
S29000;01SL300VE20;8
S29000;11BG140CS19;15
S29000;11CM030O21;41
S29000;11LC250H20;16
S29000;11PM100SH19;7
S29000;15LC250L14;19
S29000;17AS075E19;40
S29000;17AS250FV21;5
S29000;17SH060SG21;17
S29000;20ET075HC20;11
S29000;20SA050CD20;6
S29000;24EF050R18;1
S29000;24MA030CB4;49
S29000;27MQ065I15A;7
S29000;29BP100A19;19
S29000;29LC200A21X;1
S29000;49POUCH2NO21;360
S29000;52ACRAC21;1
S29000;52AF006G20;141
S29000;52ER002I21;281
S29000;52SH006FV21;311
S29000;01CMR500K20;17
S29000;01HDR500K20;26
S29000;01MA030K22;61
S29000;01PI075K18;10
S29000;01SA050KV20;8
S29000;01SA100LV20;24
S29000;01SL0045K13;20
S29000;11BG140SL19;13
S29000;11SD100CS19;15
S29000;15DO050VA5;9
S29000;15MA030VA5;16
S29000;15SE400VB5;9
S29000;17AS500FV21;14
S20;38EV075A18;3
S20;38WS030A21;8
S20;49BO015CS19;5
S20;49DC004I20;10
S20;49SH035E21;5
S20;52CV0015K18;100
S20;52HS001I17;81
S20;52HS004A18;165
S20;01BK010K14;22
S20;01LC250K21H;14
S20;11CM030H19;28
S20;11GD250H19;23
S20;11GD250H20;13
S20;15BA500L16A;11
S20;15GD250VB17;2
S20;15LC250VA20;12
S20;17AS250G21;5
S20;17MC200G21;11
S20;17RC500E20;8
S20;20FE050H20;4
S20;24EDT10C21;8
S20;24MA030S6;17
S20;27BP050I19;2
S20;27ER150I21;11
S20;27MI150I20;7
S20;27TS001I20;238
S20;38WM065A18;5
S20;49TOTWC21;48
S20;52CD0015A18;74
S20;52DF002I17;132
S20;52OR001I21;401
S20;98BBSH050A0;26
S20;01BM150K19;25
S20;01CL200K17;8
S20;01HD250K17;12
S20;01MA150K18;15
S20;01RL500K20;17
S20;01SE125K21;1
S20;11ET075O21;6
S20;11FAG10TR19;11
S20;24MA075CB4;7
S20;27DL200I20;7
S20;27MP150I20;9
S20;29GE200A21;7
S20;49OR005I21;176
S20;52GIF2NO21;6
S20;52MIBANO21;32
S20;52MMSANO21;402
S20;01SA250VE20;14
S20;01SL300VE20;8
S20;11BG140CS19;8
S20;11CM030O21;26
S20;11LC250H20;11
S20;11PM100SH19;7
S20;15LC250L14;16
S10;27DL200I20;4
S10;27MP150I20;5
S10;49OR005I21;8
S10;52GIF2NO21;3
S10;52MMSANO21;31
S10;01SL300VE20;5
S10;11BG140CS19;7
S10;11CM030O21;30
S10;11LC250H20;10
S10;11PM100SH19;4
S10;15LC250L14;7
S10;17AS250FV21;4
S10;17SH060SG21;9
S10;20ET075HC20;4
S10;20SA050CD20;6
S10;24EF050R18;7
S10;27MQ065I15A;7
S10;29BP100A19;3
S10;29HD500A21X;8
S10;29LC200A21X;12
S10;52ACRAC21;3
S10;52AF006G20;15
S10;52ER002I21;531
S10;52RC0015A18;109
S10;52SH006FV21;179
S10;01CMR500K20;7
S10;01HDR500K20;4
S10;01MA030K21H;1
S10;01PI075K18;32
S10;01SA050KV20;9
S10;01SA100LV20;2
S10;01SL0045K13;30
S10;11BG140SL19;8
S10;11SD100CS19;9
S10;15DO050VA5;7
S10;15ET100VA5;1
S10;15MA030VA5;1
S10;15SE400VB5;3
S10;17AS500FV21;7
S10;17RS500FV21;7
S10;17SH060SP21;9
S10;17SH500G21;10
S10;20MP030H20;5
S10;24RO010R18;4
S10;27DE015I21;8
S10;27HSR030I16;3
S10;27OR030I21;30
S10;29HD500A15;8
S10;29MA030A17;23
S10;29SE125A21;5
S10;38EC015A18;5
S10;52BCRAC21;3
S10;52CL0015K18;46
S10;52HD006A18;154
S10;52LGENSA18;105
S15;52MIBANO21;18
S28000;52MIBANO21;50
S15;52MMSANO21;145
S27000;52MMSANO21;261
S28000;52MMSANO21;476
S15;52ACRAC21;2
S27000;52ACRAC21;2
S15;52AF006G20;104
S27000;52AF006G20;256
S28000;52AF006G20;322
S15;52ER002I21;486
S27000;52ER002I21;495
S28000;52ER002I21;556
S15;52SH006FV21;205
S27000;52SH006FV21;282
S28000;52SH006FV21;274
S28000;52TWIST20;1
S28000;24RO010R18;13
S15;27DE015I21;10
S27000;27DE015I21;4
S28000;27DE015I21;13
S15;27HSR030I16;4
S27000;27HSR030I16;5
S28000;27HSR030I16;4
S15;27OR030I21;21
S27000;27OR030I21;21
S28000;27OR030I21;22
S15;29HD500A15;26
S27000;29HD500A15;3
S28000;29HD500A15;22
S15;29MA030A17;30
S27000;29MA030A17;7
S28000;29MA030A17;28
S15;29SE125A21;12
S27000;29SE125A21;6
S28000;29SE125A21;11
S15;38EC015A18;2
S27000;38EC015A18;8
S28000;38EC015A18;4
S15;52BCRAC21;2
S27000;52BCRAC21;2
S15;52CL0015K18;127
S27000;52CL0015K18;6
S15;52CL0015K21;150
S27000;52CL0015K21;150
S28000;52CL0015K21;156
S15;52HD006A18;337
S27000;52HD006A18;373
S28000;52HD006A18;627
S15;52LGENSA18;88
S27000;52LGENSA18;75
S28000;52LGENSA18;128
S15;52MMBPNO21;14
S90000;15ET100VM20H;1
S90000;15GD075L15;21
S90000;15MA030VBL21;1
S90000;15MF075VM20H;24
S90000;24GD250RJ21H;2
S24000;24MA075CB4;17
S24000;27DL200I20;6
S90000;27DL200I20;10
S24000;27MP150I20;8
S90000;27MP150I20;6
S24000;29GE200A21;3
S90000;29GE200A21;5
S90000;38FT200A18;20
S90000;49BM010K19;138
S90000;49DC008I20;17
S24000;49EV030I19;1
S90000;49LC020A15;5
S90000;49MA010A17;30
S24000;49OR005I21;119
S90000;49OR005I21;34
S24000;52GIF2NO21;6
S90000;52GIF2NO21;1
S24000;52MMSANO21;11
S90000;52MMSANO21;120
S90000;98BBSA025LT2;77
S24000;52LGENSA18;93
S24000;52MMBPNO21;42
S24000;52SH006P19;155
S90000;52SH006P19;420
S24000;52SP001I19;128
S90000;52SP001I19;203
S24000;01CL200F21H;9
S24000;01LC250F21H;4
S90000;01LC250F21H;4
S24000;01MA075K18;7
S90000;01MA075K18;9
S90000;01MF150F21H;12
S90000;01PI030K18;9
S24000;01SB020K21;16
S90000;01SB020K21;8
S90000;11BG140SH19;5
S24000;11BG140SI19;3
S90000;11BG140SI19;9
S24000;11SA100H20;4
S90000;11SA100H20;9
S90000;15ET100VAL21;4
S24000;15HE005L14;4
S90000;15LC250VA5;1
S90000;17AS250G18;19
S24000;17SH060SE21;7
S90000;17SH060SE21;13
S90000;18BI030TL17ET;7
S24000;20ET075OC20;4
S29000;17RS500FV21;50
S29000;17SH060SP21;10
S29000;17SH500G21;24
S29000;24GD250C21;5
S29000;24RO010R18;6
S29000;27DE015I21;30
S29000;27HSR030I16;28
S29000;27OR030I21;23
S29000;29HD500A15;59
S29000;29MA030A17;8
S29000;29SE125A21;13
S29000;38EC015A18;10
S29000;52BCRAC21;1
S29000;52CL0015K18;6
S29000;52CL0015K21;190
S29000;52HD006A18;337
S29000;52MMBPNO21;27
S29000;52PANIER2;2
S29000;52SH006P19;210
S29000;52SP001I19;102
S29000;01PI030K18;12
S29000;01SB020K21;13
S29000;11BG140SH19;8
S29000;11BG140SI19;16
S29000;11SA100H20;17
S29000;15CP250VA5;2
S29000;15ET100VAL21;3
S29000;15HE005L14;12
S29000;17AS250G18;9
S29000;17SH060SE21;11
S29000;20ET075OC20;2
S29000;24GD500C18;2
S29000;24GM030C21;6
S29000;24MA030RA19;20
S29000;27DH015I20;25
S29000;27DS030I20;2
S29000;27HS030I18;8
S29000;27MS050I20;8
S29000;29RH500A15;53
S29000;49ETKAR21;3
S29000;49ETVER21;3
S29000;49POURE18;40
S29000;52DS001I20;117
S29000;52LABANO21;4
S29000;52MMBBNO21;97
S29000;52RBO3NO21;1
S29000;01LH300KB19;16
S29000;01SA250LV20;33
S29000;11CF100TR19;12
S29000;11ET050H20;5
S29000;11LC250H19;6
S29000;11MWC200I19;5
S29000;11PEP050I20;5
S21000;01HD250K17;7
S21000;01RL500K20;15
S21000;01SE125K21;19
S21000;11ET075O21;7
S21000;11FAG10TR19;7
S21000;24MA075CB4;23
S21000;27DL200I20;5
S21000;27MP150I20;10
S21000;29GE200A21;24
S21000;49OR005I21;123
S21000;52GIF2NO21;6
S21000;52MIBANO21;211
S21000;52MMSANO21;119
S21000;01CMR500K20;9
S21000;01HDR500K20;4
S21000;01MA030K22;16
S21000;01PI075K18;8
S21000;01SA050KV20;8
S21000;01SA100LV20;18
S21000;11BG140SL19;20
S21000;11SD100CS19;16
S21000;15DO050VA5;7
S21000;15MA030VA5;9
S21000;15SE400VB5;4
S21000;17AS500FV21;6
S21000;17RS500FV21;19
S21000;17SH060SP21;10
S21000;17SH500G21;10
S21000;20MP030H20;4
S21000;24GD250C21;8
S21000;24RO010R18;4
S21000;27DE015I21;9
S21000;27HSR030I16;4
S21000;27OR030I21;50
S21000;29HD500A15;19
S21000;29MA030A17;15
S21000;29SE125A21;11
S21000;38EC015A18;4
S21000;52BCRAC21;2
S21000;52CL0015K21;116
S21000;52HD006A18;221
S21000;52LGENSA18;99
S21000;52MMBPNO21;5
S21000;52SH006P19;178
S21000;52SP001I19;108
S21000;01SA250VE20;26
S21000;01SL300VE20;5
S21000;11BG140CS19;9
S21000;11CM030O21;18
S21000;11LC250H20;13
S21000;11PM100SH19;3
S21000;15LC250L14;40
S21000;17AS075E19;40
S27000;52MMBPNO21;47
S28000;52MMBPNO21;56
S15;52SH006P19;329
S27000;52SH006P19;281
S28000;52SH006P19;237
S15;52SP001I19;131
S27000;52SP001I19;245
S28000;52SP001I19;195
S15;29RH500A15;43
S27000;29RH500A15;19
S28000;29RH500A15;54
S15;49ETKAR21;7
S27000;49ETKAR21;5
S15;49ETVER21;7
S27000;49ETVER21;5
S15;49POURE18;56
S28000;49POURE18;42
S15;52DS001I20;160
S27000;52DS001I20;317
S28000;52DS001I20;525
S27000;52LABANO21;61
S28000;52LABANO21;25
S15;52MGEBAG19;11
S27000;52MGEBAG19;103
S28000;52MGEBAG19;279
S15;52MMBBNO21;52
S27000;52MMBBNO21;85
S28000;52MMBBNO21;59
S15;52RBO3NO21;5
S27000;52RBO3NO21;3
S27000;52SAMPENV18;108
S28000;52SAMPENV18;527
S28000;52DH001I20;656
S15;52GIF1NO21;6
S27000;52GIF1NO21;3
S28000;52GIF1NO21;5
S15;52TS001R21;55
S27000;52TS001R21;169
S28000;52TS001R21;261
S15;98BBGD050VE2;10
S27000;98BBGD050VE2;10
S28000;98BBGD050VE2;9
S27000;38FT200A21;5
S28000;38FT200A21;14
S15;49CHALM21;7
S27000;49CHALM21;5
S15;49CHCHB21;7
S27000;49CHCHB21;5
S15;52AS006FV21;158
S15;52GD0015A18;52
S27000;52GD0015A18;107
S28000;52GD0015A18;122
S15;52LASANO21;364
S90000;20ET075OC20;5
S24000;24GD500C18;8
S24000;24GM030C21;17
S90000;24GM030C21;2
S90000;24MA030RA19;9
S24000;27DH015I20;10
S90000;27DH015I20;5
S24000;27DS030I20;5
S90000;27DS030I20;9
S24000;27HS030I18;5
S90000;27HS030I18;5
S24000;27MS050I20;1
S90000;27MS050I20;10
S90000;29CHALM21;14
S90000;29CHCHB21;14
S24000;29RH500A15;14
S90000;29RH500A15;59
S90000;38WC050A18;35
S90000;49BI010TL17;87
S24000;49ETKAR21;7
S24000;49ETVER21;7
S90000;49IC1POU20;164
S90000;49IC2POU20;6
S90000;49IC3POU20;27
S90000;49MWC030I19;101
S24000;49POURE18;21
S90000;49TOTMC20;117
S24000;52DS001I20;156
S90000;52DS001I20;230
S24000;52MGEBAG19;101
S90000;52MGEBAG19;100
S24000;52MMBBNO21;27
S24000;52RBO3NO21;4
S90000;01CL125C21H;9
S24000;01LH300KB19;7
S90000;01LH300KB19;8
S24000;01SA250LV20;6
S90000;01SA250LV20;11
S24000;11CF100TR19;9
S24000;11ET050H20;6
S90000;11ET050H20;2
S24000;11LC250H19;10
S90000;11LC250H19;18
S24000;11MWC200I19;4
S90000;11MWC200I19;1
S24000;11PEP050I20;4
S90000;11PEP050I20;10
S90000;15CL150VM20H;4
S90000;15ETKAR21;16
S90000;17AS075P19;92
S24000;17SH300E19;20
S90000;17SH300E19;1
S24000;17SH500P19;13
S20;17AS075E19;39
S20;17AS250FV21;3
S20;17SH060SG21;10
S20;18ET090TL17;2
S20;20ET075HC20;4
S20;20SA050CD20;15
S20;24EF050R18;5
S20;24GD250C20;2
S20;24MA030CB4;38
S20;24MA075R18;16
S20;27MQ065I15A;4
S20;29BP100A19;9
S20;29LC200A21X;24
S20;49POUCH2NO21;146
S20;52ACRAC21;3
S20;52AF006G20;90
S20;52ER002I21;236
S20;52SH006FV21;115
S20;01CL200F21H;4
S20;01MA075K18;17
S20;01MF150F21H;10
S20;01PI030K18;8
S20;01SB020K21;18
S20;11BG140SI19;14
S20;11SA100H20;9
S20;15CP250VA5;5
S20;15HE005L14;11
S20;15LC250VA5;1
S20;17AS250G18;8
S20;17SH060SE21;10
S20;18BI030TL17ET;23
S20;20ET075OC20;7
S20;24GM030C21;12
S20;24LC250RJ21H;1
S20;24MA030RA19;14
S20;27DH015I20;11
S20;27DS030I20;5
S20;27HS030I18;7
S20;27MS050I20;11
S20;29RH500A15;37
S20;49ETKAR21;7
S20;49ETVER21;7
S20;49POURE18;36
S20;52DS001I20;143
S20;52MGEBAG19;119
S20;52MMBBNO21;56
S20;52RBO3NO21;5
S20;01CL125C21H;3
S20;01LH300KB19;4
S20;01SA250LV20;18
S20;11CF100TR19;17
S20;11ET050H20;8
S20;11LC250H19;13
S20;11MWC200I19;4
S20;11PEP050I20;9
S29000;17SH300E19;10
S29000;17SH500P19;10
S29000;18ET010TL17;4
S29000;24LC250R20;25
S29000;27BP050I19;2
S29000;27DH030I20;33
S29000;29MA030A21X;2
S29000;29SA050A17;15
S29000;49DISC3NO21;53
S29000;49LC020A20;47
S29000;49POCKNO21;40
S29000;52AS006P19;104
S29000;52DH001I20;400
S29000;52GIF1NO21;6
S29000;52TS001R21;88
S29000;01CD250F21H;1
S29000;01CM500K20;22
S29000;01HN0075K19;16
S29000;01SL300LV20;10
S29000;11EH150A18;16
S29000;11SD100SI19;15
S29000;15GD500VB17;1
S29000;15RC500VB17;48
S29000;15SH250VA20;14
S29000;17SH300FV21;20
S29000;17SH500E19;20
S29000;24MA030RE19;15
S29000;24RO010CB4;5
S29000;27DCB060I17;4
S29000;27DF125I17;25
S29000;27HC050I18;8
S29000;29ASH240A20;12
S29000;29HD075A15;47
S29000;38FT200A21;13
S29000;49CHALM21;3
S29000;49CHCHB21;3
S29000;52GD0015A18;32
S29000;52LASANO21;316
S29000;52LT002R21;70
S29000;01BL012C21H;26
S29000;01CMJ075K21;29
S29000;01CV050K18;19
S29000;01LC500K20;39
S29000;01SA050KL20;7
S29000;01SA100VE20;26
S29000;11BP100I19;8
S29000;11BR100A20;10
S29000;11EP010H19;10
S29000;11GE075I20;4
S29000;11LD200I19;14
S29000;15AS250VA18;8
S29000;15ET100VA20;4
S29000;15GN300L11;15
S10;52MMBPNO21;21
S10;52SH006P19;92
S10;52SP001I19;256
S10;01CL200F21H;11
S10;01LC250F21H;7
S10;01MA075K18;6
S10;01MF150F21H;2
S10;01PI030K18;8
S10;01SB020K21;21
S10;11BG140SI19;6
S10;11GD250O21;4
S10;11SA100H20;8
S10;17AS250G18;9
S10;17SH060SE21;10
S10;18BI030TL17ET;16
S10;20ET075OC20;3
S10;24GD500C18;14
S10;24GM030C21;8
S10;24MA030RA19;2
S10;27DH015I20;11
S10;27DS030I20;7
S10;27HS030I18;6
S10;27MS050I20;15
S10;49ETKAR21;7
S10;49ETVER21;7
S10;49POURE18;34
S10;52DS001I20;157
S10;52LABANO21;8
S10;52MGEBAG19;152
S10;52MMBBNO21;44
S10;52RBO3NO21;4
S10;52SAMPENV18;200
S10;01LH300KB19;7
S10;11CF100TR19;9
S10;11ET050H20;5
S10;11LC250H19;10
S10;11MWC200I19;5
S10;11PEP050I20;8
S10;17AS075P19;8
S10;17SH500P19;11
S10;18ET010TL17;4
S10;24LC250R20;9
S10;24MA030R18;8
S10;27DH030I20;11
S10;29MA030A21X;12
S10;29SA050A17;2
S10;38EV075A18;2
S10;49DISC3NO21;1
S10;49LC020A20;63
S10;52AS006P19;129
S10;52DH001I20;204
S10;52GIF1NO21;3
S10;52TS001R21;204
S10;98BBGD050VE2;10
S10;01BL012K21H;5
S27000;52LASANO21;123
S28000;52LASANO21;421
S15;52LT002R21;117
S27000;52LT002R21;325
S28000;52LT002R21;214
S15;24ET050R18;6
S27000;24ET050R18;7
S28000;24ET050R18;10
S15;24GD250CB4;43
S27000;24GD250CB4;32
S28000;24GD250CB4;27
S15;27BY015I19;2
S27000;27BY015I19;4
S28000;27BY015I19;12
S28000;29HD250A21X;26
S15;38WC050A21;13
S27000;38WC050A21;4
S28000;38WC050A21;13
S27000;49CAB1NO21;1
S15;52CP0015I19;302
S27000;52CP0015I19;155
S28000;52CP0015I19;302
S15;52HV001K18;15
S27000;52MMBANO21;275
S28000;52MMBANO21;420
S15;52RIB1NO21;12
S27000;52RIB1NO21;7
S28000;52RIB1NO21;19
S15;52SGEBAG19;249
S27000;52SGEBAG19;457
S28000;52SGEBAG19;451
S15;98BBSA050LT1;10
S28000;98BBSA050LT1;1
S15;29SH240A20;11
S27000;29SH240A20;4
S28000;29SH240A20;9
S15;52AS006E19;37
S27000;52AS006E19;306
S28000;52AS006E19;466
S15;52CP006K17;7
S27000;52CP006K17;216
S28000;52CP006K17;14
S15;52DE001I21;100
S27000;52DE001I21;192
S28000;52DE001I21;415
S27000;52EV002I19;78
S15;52MC006G21;251
S27000;52MC006G21;279
S28000;52MC006G21;432
S15;52MMBYNO21;4
S28000;52MMBYNO21;26
S15;52RIB2NO21;12
S27000;52RIB2NO21;7
S90000;17SH500P19;9
S24000;18ET010TL17;1
S90000;18ET010TL17;2
S24000;24LC250R20;21
S90000;24LC250R20;8
S90000;27BP050I19;3
S24000;27DH030I20;9
S90000;27DH030I20;7
S24000;29MA030A21X;2
S90000;29MA030A21X;14
S24000;29SA050A17;8
S90000;29SA050A17;1
S90000;49CO1NO19;5
S90000;49DISC2NO21;11
S90000;49DRANO19;17
S24000;49LC020A20;7
S24000;49POCKNO21;39
S90000;49POCKNO21;100
S24000;52AS006P19;167
S90000;52AS006P19;314
S24000;52DH001I20;280
S90000;52DH001I20;332
S24000;52ER006P19;45
S24000;52GIF1NO21;6
S90000;52GIF1NO21;1
S24000;52TS001R21;123
S90000;52TS001R21;100
S24000;98BBGD050VE2;10
S90000;01CD250F21H;4
S24000;01CM500K20;6
S90000;01CM500K20;6
S24000;01HN0075K19;10
S90000;01HN0075K19;7
S24000;01SL300LV20;7
S90000;01SL300LV20;8
S24000;11EH150A18;2
S90000;11EH150A18;8
S90000;11GN040A19;88
S90000;11MW200I19;2
S24000;11SD100SI19;7
S90000;11SD100SI19;17
S90000;15GD500VB17;7
S90000;15RC500VB17;1
S24000;15SH250VA20;8
S90000;15SH250VA20;5
S24000;17SH300FV21;11
S90000;17SH300FV21;12
S24000;17SH500E19;13
S90000;17SH500E19;11
S90000;20ET075CD19;7
S24000;24BR050C21;13
S24000;24MA030RE19;11
S90000;24MA030RE19;9
S21000;17AS250FV21;2
S21000;17SH060SG21;10
S21000;20ET075HC20;6
S21000;20SA050CD20;4
S21000;24EF050R18;3
S21000;24GD250C20;3
S21000;24MA030CB4;17
S21000;24MA075R18;11
S21000;27MQ065I15A;4
S21000;29BP100A19;3
S21000;29HD500A21X;12
S21000;29LC200A21X;5
S21000;49POUCH2NO21;147
S21000;52ACRAC21;2
S21000;52AF006G20;191
S21000;52ER002I21;175
S21000;52SH006FV21;208
S21000;01CL200F21H;12
S21000;01LC250F21H;9
S21000;01MF150F21H;7
S21000;01PI030K18;8
S21000;01SB020K21;12
S21000;11BG140SI19;13
S21000;11SA100H20;7
S21000;15CP250VA5;3
S21000;15HE005L14;1
S21000;17SH060SE21;9
S21000;18BI030TL17ET;17
S21000;20ET075OC20;4
S21000;24GD500C18;1
S21000;24GM030C21;18
S21000;24MA030RA19;1
S21000;27DH015I20;8
S21000;27DS030I20;3
S21000;27HS030I18;5
S21000;27MS050I20;4
S21000;29RH500A15;46
S21000;49ETKAR21;6
S21000;49ETVER21;6
S21000;49POURE18;25
S21000;52DS001I20;190
S21000;52MGEBAG19;94
S21000;52MMBBNO21;43
S21000;52RBO3NO21;2
S21000;52SAMPENV18;28
S21000;01CL125C21H;8
S21000;01LH300KB19;6
S21000;01SA250LV20;25
S21000;11CF100TR19;12
S21000;11ET050H20;6
S21000;11LC250H19;16
S21000;11MWC200I19;3
S29000;17DO050F13;19
S29000;17HI100G19;18
S29000;17SH300G21;13
S29000;17SH500FV21;20
S29000;20DO050O20;20
S29000;24BR050CB6;12
S29000;24ET050R18;6
S29000;24GD250CB4;6
S29000;27BY015I19;7
S29000;29HD250A21X;41
S29000;38WC050A21;18
S29000;49CAB1NO21;41
S29000;49MA010L16;23
S29000;52CP0015I19;193
S29000;52HV001K18;14
S29000;52RIB1NO21;9
S29000;01CL300KB20;10
S29000;01PI150K18;28
S29000;11GD250O21;52
S29000;11PM100SL19;6
S29000;11SP200SI19;10
S29000;15AS150VCL21;7
S29000;15DF200VBL21;17
S29000;15GG150VAL21;29
S29000;15MA075VB4;47
S29000;17AS500E19;11
S29000;17SE100FV21;20
S29000;17VI100P19;22
S29000;20AR075O20;18
S29000;20DO130HC20;5
S29000;20SA050O20;12
S29000;24BL012CB5;12
S29000;24SA050R18;27
S29000;29MAV075A19;16
S29000;29SH240A20;15
S29000;52AS006E19;344
S29000;52CP006K17;109
S29000;52DE001I21;173
S29000;52EV002I19;100
S29000;52MC006G21;140
S29000;52RIB2NO21;12
S29000;98BBDF015IM0;11
S29000;01BP050K21;15
S29000;01LT300K20;13
S29000;01MA075K22;46
S29000;01PR015R19;12
S29000;11BC100G21;23
S29000;11CM030H20;36
S29000;11PM100SI19;6
S29000;11SV080I19;8
S29000;15ET100VB3;8
S29000;20ET075CD20;7
S29000;24BR050R19;21
S28000;52RIB2NO21;19
S15;98BBDF015IM0;7
S27000;98BBDF015IM0;10
S28000;98BBDF015IM0;20
S28000;52MA003K16A;365
S15;52MIGEBAG19;87
S27000;52MIGEBAG19;279
S28000;52MIGEBAG19;451
S15;52MOCOL316;5
S27000;52MOCOL316;5
S28000;52MOCOL316;8
S15;52RBO1NO21;5
S27000;52RBO1NO21;3
S15;52SH006E19;72
S27000;52SH006E19;357
S28000;52SH006E19;362
S27000;38ST016A18;2
S15;49TCMNO21;13
S28000;49TCMNO21;32
S15;52BGERIB18;1
S27000;52BGERIB18;3
S28000;52BGERIB18;3
S15;52FP0015I19;11
S27000;52FP0015I19;136
S28000;52FP0015I19;94
S15;52STINO21;13
S27000;52STINO21;9
S28000;52STINO21;26
S15;98BBMA010KA3;7
S15;24MA075P15;3
S27000;24MA075P15;6
S28000;24MA075P15;6
S15;27CP050I19;15
S27000;27CP050I19;8
S28000;27CP050I19;17
S15;27HCR050I16;4
S27000;27HCR050I16;5
S28000;27HCR050I16;4
S15;27OR075I21;6
S27000;27OR075I21;6
S28000;27OR075I21;33
S15;29HD250A15;6
S28000;29HD250A15;33
S15;52DC0015I20;372
S27000;52DC0015I20;274
S28000;52DC0015I20;404
S15;52LGEBAG19;91
S27000;52LGEBAG19;102
S28000;52LGEBAG19;77
S15;52LGEBOX18;10
S27000;52LGEBOX18;10
S28000;52LGEBOX18;8
S15;52RBO2NO21;5
S20;17SH300E19;11
S20;17SH500P19;9
S20;18ET010TL17;4
S20;24LC250R20;14
S20;27DH030I20;15
S20;29MA030A21X;24
S20;49LC020A20;5
S20;49POCKNO21;39
S20;52AS006P19;45
S20;52DH001I20;297
S20;52GIF1NO21;6
S20;52TS001R21;115
S20;98BBGD050VE2;3
S20;01BL012K21H;6
S20;01CD250F21H;13
S20;01CM500K20;14
S20;01HN0075K19;12
S20;01SL300LV20;7
S20;11EH150A18;8
S20;11SD100SI19;11
S20;15RC500VB17;4
S20;15SH250VA20;11
S20;17SH300FV21;12
S20;17SH500E19;15
S20;24BR050C21;12
S20;24MA030RE19;14
S20;24RO010CB4;7
S20;27DCB060I17;7
S20;27DF125I17;3
S20;27HC050I18;8
S20;29ASH240A20;4
S20;38FT200A21;6
S20;49CHALM21;7
S20;49CHCHB21;7
S20;52AS006FV21;105
S20;52GD0015A18;58
S20;52LASANO21;340
S20;52LT002R21;96
S20;01BL012C21H;18
S20;01CMJ075K21;20
S20;01CV050K18;3
S20;01LC500K20;11
S20;01SA050KL20;6
S20;01SA100VE20;27
S20;11BP100I19;5
S20;11BR100A20;13
S20;11EP010H19;10
S20;11GE075I20;7
S20;11LD200I19;12
S20;15AS250VA18;6
S20;15ET100VA20;6
S20;15GN300L11;12
S20;17DO050F13;17
S20;17HI100G19;11
S20;17SH300G21;13
S21000;11PEP050I20;4
S21000;17SH300E19;20
S21000;17SH500P19;6
S21000;18ET010TL17;1
S21000;24LC250R20;20
S21000;27DH030I20;11
S21000;29MA030A21X;2
S21000;29SA050A17;4
S21000;49LC020A20;48
S21000;49POCKNO21;40
S21000;52AS006P19;169
S21000;52DH001I20;255
S21000;52GIF1NO21;6
S21000;52TS001R21;107
S21000;98BBGD050VE2;7
S21000;01CD250F21H;8
S21000;01CM500K20;7
S21000;01HN0075K19;8
S21000;01SL300LV20;3
S21000;11EH150A18;5
S21000;11SD100SI19;8
S21000;15RC500VB17;15
S21000;15SH250VA20;4
S21000;17SH300FV21;11
S21000;17SH500E19;15
S21000;24BR050C21;11
S21000;24MA030RE19;6
S21000;24RO010CB4;9
S21000;27DCB060I17;4
S21000;27DF125I17;5
S21000;27HC050I18;4
S21000;29ASH240A20;5
S21000;38FT200A21;10
S21000;49CHALM21;6
S21000;49CHCHB21;6
S21000;52AS006FV21;223
S21000;52GD0015A18;53
S21000;52LASANO21;164
S21000;52LT002R21;224
S21000;01BL012C21H;10
S21000;01CMJ075K21;18
S21000;01CV050K18;4
S21000;01LC500K20;6
S21000;01SA050KL20;7
S21000;01SA100VE20;21
S21000;11BP100I19;6
S21000;11BR100A20;10
S21000;11EP010H19;2
S21000;11GE075I20;4
S21000;11LD200I19;21
S21000;15AS250VA18;4
S21000;15ET100VA20;4
S29000;24LC250C21;11
S29000;24SA050CB6;12
S29000;27DB015I20;27
S29000;27OR050I21;34
S29000;52CCRAC21;1
S29000;52DCRAC21;1
S29000;52KTRANGE17;1
S29000;52MA003K16A;48
S29000;52MOCOL316;9
S29000;52RBO1NO21;1
S29000;52SH006E19;363
S29000;01EM075K20;17
S29000;01HV030K16;7
S29000;01MA150K22;47
S29000;01RV500K20;26
S29000;01SL500VE20;15
S29000;11BO100CS19;60
S29000;11ET010O21;8
S29000;11MH075A19;11
S29000;11SD100SH19;16
S29000;15GC150VBL20;4
S29000;15MA030L11;25
S29000;15MA075L11;26
S29000;15RG500VA20;28
S29000;17ER075P19;20
S29000;17RC500P19;31
S29000;18SA075TL17ET;3
S29000;20HR050H20;4
S29000;24GD500R19;18
S29000;27EV200I19;15
S29000;29MA075A21;32
S29000;49MA010CB4;187
S29000;52BGERIB18;2
S29000;52FP0015I19;54
S29000;52STINO21;15
S29000;01BM050K19;12
S29000;01CP200K17;17
S29000;01EN300KB19;18
S29000;01HD500K20;32
S29000;01LC250K17;39
S29000;01SL500LV20;17
S29000;10KTPWPXM21;5
S29000;11CD050A18;20
S29000;11ET010H20;10
S29000;11LT300I20;13
S29000;11MA030A20;8
S29000;11SP200CS19;13
S29000;15GM280VB20;1
S29000;15MA030VAL21;2
S29000;17AS500P19;11
S29000;17RS500P19;26
S29000;17SH075G21;371
S29000;17SH300G18;3
S20;17SH500FV21;11
S20;20DO050O20;5
S20;24BR050CB6;8
S20;24ET050R18;6
S20;24GD250CB4;26
S20;27BY015I19;4
S20;38WC050A21;4
S20;52CP0015I19;177
S20;52HV001K18;38
S20;52MMBANO21;274
S20;52RIB1NO21;18
S20;52SGEBAG19;394
S20;01CL300KB20;7
S20;01MF030F21H;6
S20;01PI150K18;18
S20;11GD250O21;24
S20;11PM100SL19;11
S20;11SP200SI19;9
S20;15AS150VCL21;10
S20;15DF200VBL21;10
S20;15GG150VAL21;37
S20;15MA075VB4;22
S20;17AS500E19;8
S20;17SE100FV21;10
S20;17VI100P19;7
S20;20AR075O20;7
S20;20DO130HC20;5
S20;20SA050O20;11
S20;24BL012CB5;10
S20;24MA030RV19;14
S20;24SA050R18;8
S20;29MAV075A19;8
S20;29SH240A20;4
S20;52AS006E19;35
S20;52CP006K17;7
S20;52DE001I21;209
S20;52EV002I19;54
S20;52MC006G21;78
S20;52MMBYNO21;2
S20;52RIB2NO21;18
S20;98BBDF015IM0;10
S20;01BP050K21;8
S20;01LT300K20;8
S20;01MA075K22;11
S20;01PR015R19;8
S20;11BC100G21;34
S20;11CM030H20;30
S20;11PM100SI19;6
S20;11SV080I19;7
S20;15ET100VB3;1
S20;18GD250TL17ET;24
S20;20ET075CD20;4
S20;24BR050R19;14
S20;24LC250C21;12
S10;01CD250F21H;8
S10;01CM500K20;2
S10;01HN0075K19;7
S10;01SL300LV20;7
S10;11EH150A18;4
S10;11SD100SI19;9
S10;15SH250VA20;5
S10;17SH300FV21;7
S10;17SH500E19;11
S10;24BR050C21;5
S10;24MA030RE19;6
S10;24RO010CB4;7
S10;27DCB060I17;3
S10;27DF125I17;5
S10;27HC050I18;4
S10;29ASH240A20;4
S10;49CHALM21;7
S10;49CHCHB21;7
S10;52AS006FV21;208
S10;52GD0015A18;53
S10;52LASANO21;243
S10;52LT002R21;329
S10;SGOCVE600004;1
S10;01BL012C21H;24
S10;01CMJ075K21;6
S10;01CV050K18;9
S10;01LC500K20;9
S10;01SA050KL20;8
S10;01SA100VE20;8
S10;11BP100I19;4
S10;11BR100A20;3
S10;11EP010H19;5
S10;11GE075I20;5
S10;11LD200I19;7
S10;15AS250VA18;9
S10;15ET100VA20;3
S10;17DO050F13;7
S10;17HI100G19;9
S10;17SH300G21;17
S10;17SH500FV21;4
S10;20DO050O20;6
S10;27BY015I19;10
S10;29HD250A21X;21
S10;38WC050A21;1
S10;49LD030I20;1
S10;52CP0015I19;395
S10;52LGEBAG18;55
S10;52MMBANO21;129
S10;52OR001I19;156
S10;52RIB1NO21;7
S10;52SGEBAG19;422
S10;98BBSA050LT1;22
S10;01CL300KB20;7
S10;01MF030F21H;5
S21000;15GN300L11;5
S21000;17DO050F13;9
S21000;17HI100G19;11
S21000;17SH300G21;19
S21000;17SH500FV21;8
S21000;20DO050O20;8
S21000;24BR050CB6;4
S21000;24ET050R18;5
S21000;24GD250CB4;35
S21000;27BY015I19;3
S21000;38WC050A21;16
S21000;52CP0015I19;178
S21000;52MMBANO21;212
S21000;52RIB1NO21;10
S21000;52SGEBAG19;507
S21000;98BBSA050LT1;27
S21000;01CL300KB20;8
S21000;01MA150C21H;9
S21000;01PI150K18;7
S21000;11GD250O21;27
S21000;11PM100SL19;13
S21000;11SP200SI19;8
S21000;15AS150VCL21;10
S21000;15DF200VBL21;16
S21000;15GG150VAL21;37
S21000;15KTVER21;2
S21000;15MA075VB4;16
S21000;17AS500E19;16
S21000;17SE100FV21;10
S21000;17VI100P19;4
S21000;20AR075O20;4
S21000;20DO130HC20;7
S21000;20SA050O20;3
S21000;24MA030RV19;8
S21000;24SA050R18;1
S21000;29MAV075A19;3
S21000;29SH240A20;5
S21000;52AS006E19;303
S21000;52CP006K17;11
S21000;52DE001I21;205
S21000;52MC006G21;246
S21000;52MMBYNO21;6
S21000;52RIB2NO21;10
S21000;98BBDF015IM0;33
S21000;01BP050K21;5
S21000;01LT300K20;8
S21000;01MA075K22;22
S21000;01PR015R19;14
S21000;11BC100G21;40
S21000;11CM030H20;1
S21000;11PM100SI19;6
S21000;11SV080I19;4
S21000;18GD250TL17ET;3
S10;01PI150K18;7
S10;11PM100SL19;4
S10;11SP200SI19;3
S10;15AS150VCL21;3
S10;15GG150VAL21;22
S10;15KTVER21;3
S10;15MA075VB4;8
S10;17AS500E19;3
S10;17SE100FV21;2
S10;17VI100P19;7
S10;20AR075O20;4
S10;20DO130HC20;3
S10;20SA050O20;5
S10;24BL012CB5;2
S10;24MA030RV19;10
S10;29MAV075A19;3
S10;29SH240A20;2
S10;52AS006E19;47
S10;52CP006K17;43
S10;52DE001I21;184
S10;52EV002I19;3
S10;52MC006G21;186
S10;52MMBYNO21;16
S10;52RIB2NO21;7
S10;98BBDF015IM0;26
S10;01BP050K21;7
S10;01LT300K20;10
S10;01PR015R19;7
S10;11BC100G21;49
S10;11CM030H20;8
S10;11PM100SI19;7
S10;11SV080I19;5
S10;15ET100VB3;3
S10;15RG500VA20;2
S10;20ET075CD20;4
S10;24LC250C21;11
S10;24SA050CB6;1
S10;27DB015I20;9
S10;27MP050I20;45
S10;27OR050I21;32
S10;29KTAMA21;6
S10;52CCRAC21;3
S10;52DCRAC21;3
S10;52MA003K16A;45
S10;52MIGEBAG19;56
S10;52MOCOL316;3
S10;52RBO1NO21;4
S10;52SH006E19;201
S10;01EM075K20;7
S10;01HV030K16;8
S10;01RV500K20;12
S10;01SL500VE20;5
S10;11BO100CS19;8
S10;11ET010O21;15
S10;11MH075A19;5
S29000;18ET050TL17;1
S29000;24GD250R20;7
S29000;24MA030R18;32
S29000;24MA075P15;8
S29000;27CP050I19;32
S29000;27HCR050I16;21
S29000;27OR075I21;66
S29000;29HD250A15;22
S29000;52DC0015I20;410
S29000;52LGEBOX18;5
S29000;52RBO2NO21;1
S29000;52SMSANO21;547
S29000;01BL012K18;36
S29000;01CL050K21;8
S29000;01CM300K20;17
S29000;01EC200K22;15
S29000;01KTKAR21;21
S29000;01SA100LT20;31
S29000;11CM125I19;18
S29000;11GD050A18;12
S29000;11LC250O21;24
S29000;11SA100H19;14
S29000;15GD250VA20;32
S29000;15GM065VB20;23
S29000;15MA030VB3;23
S29000;17HI001G19;231
S29000;17RS500G21;89
S29000;24ET075CB4;8
S29000;24MA030RV19;21
S29000;27DC050I20;37
S29000;29RC200A20;61
S29000;38RC050A18;7
S29000;49MA010A21X;40
S29000;52AS006FV21;221
S29000;52BY001I19;236
S29000;52PS0015R21;157
S29000;52SMBPNO21;4
S29000;SGOCVKI00176;3
S29000;SGOCVKI00177;31
S29000;SGOCVKI00179;1
S29000;SGOCVKI00180;33
S29000;SGOCVKI00182;1
S29000;SGOCVKI00185;2
S29000;SGOCVKI00187;1
S29000;SGOCVKI00189;1
S29000;SGOCVKI00191;1
S29000;SGOCVKI00192;28
S29000;SGOCVKI00193;8
S29000;SGOCVKI00194;13
S29000;SGOCVKI00195;26
S29000;SGOCVKI00196;12
S29000;SGOCVKI00197;1
S29000;SGOCVKI00201;28
S29000;SGOCVKI00202;6
S29000;SGOCVKI00203;4
S27000;52RBO2NO21;3
S15;52SMSANO21;261
S27000;52SMSANO21;200
S28000;52SMSANO21;487
S28000;29RC200A20;34
S15;38RC050A18;6
S27000;38RC050A18;4
S28000;38RC050A18;4
S15;49MA010A21X;60
S27000;49MA010A21X;39
S28000;49MA010A21X;68
S27000;52AS006FV21;230
S28000;52AS006FV21;446
S15;52BY001I19;66
S27000;52BY001I19;185
S28000;52BY001I19;258
S15;52KT10PCO18;2
S15;52MOCOL216;1
S28000;52MOCOL216;3
S15;52PS0015R21;55
S27000;52PS0015R21;226
S28000;52PS0015R21;434
S15;52SMBPNO21;33
S27000;52SMBPNO21;3
S28000;52SMBPNO21;22
S27000;52YGERIB18;1
S15;SGOCVKI00176;2
S15;SGOCVKI00177;68
S27000;SGOCVKI00177;30
S28000;SGOCVKI00177;9
S15;SGOCVKI00180;1
S27000;SGOCVKI00180;12
S28000;SGOCVKI00180;19
S15;SGOCVKI00181;36
S27000;SGOCVKI00181;9
S15;SGOCVKI00183;17
S15;SGOCVKI00184;10
S15;SGOCVKI00189;28
S15;SGOCVKI00191;36
S27000;SGOCVKI00191;4
S15;SGOCVKI00192;5
S27000;SGOCVKI00192;4
S15;SGOCVKI00193;14
S15;SGOCVKI00194;6
S28000;SGOCVKI00194;7
S15;SGOCVKI00195;5
S27000;SGOCVKI00196;4
S28000;SGOCVKI00196;1
S15;SGOCVKI00198;1
S27000;SGOCVKI00200;20
S15;SGOCVKI00201;49
S27000;SGOCVKI00201;26
S28000;SGOCVKI00201;44
S20;24SA050CB6;1
S20;27DB015I20;11
S20;27MP050I20;3
S20;27OR050I21;16
S20;52CCRAC21;3
S20;52DCRAC21;3
S20;52MA003K16A;5
S20;52MIGEBAG19;240
S20;52MOCOL316;4
S20;52RBO1NO21;5
S20;52SH006E19;40
S20;01EM075K20;4
S20;01HV030K16;4
S20;01MA150K22;11
S20;01RV500K20;23
S20;01SL500VE20;9
S20;11BO100CS19;14
S20;11ET010O21;8
S20;11MH075A19;7
S20;11SD100SH19;8
S20;15MA030L11;13
S20;15MA075L11;21
S20;15RG500VA20;14
S20;17ER075P19;6
S20;17RC500P19;6
S20;18SA075TL17ET;7
S20;20HR050H20;4
S20;24GD500R19;17
S20;27EV200I19;10
S20;29MA075A21;20
S20;52BGERIB18;2
S20;52FP0015I19;1
S20;52STINO21;11
S20;98BBMA010KA3;5
S20;01BM050K19;5
S20;01CP200K17;9
S20;01EN300KB19;11
S20;01HD500K20;11
S20;01LC250K17;21
S20;01SL500LV20;8
S20;10KTPWPXM21;2
S20;11CD050A18;4
S20;11ET010H20;7
S20;11LT300I20;6
S20;11MA030A20;9
S20;11SP200CS19;8
S20;15GM280VB20;2
S20;15MA030VAL21;13
S20;17AS500P19;7
S20;17RS500P19;17
S20;17SH075G21;156
S20;18ET050TL17;4
S20;24GD250R20;21
S20;24MA030R18;35
S15;SGOCVKI00202;11
S28000;SGOCVKI00202;29
S15;SGOCVKI00203;3
S27000;SGOCVKI00208;50
S24000;24RO010CB4;7
S90000;24RO010CB4;1
S24000;27DCB060I17;6
S90000;27DCB060I17;4
S24000;27DF125I17;12
S90000;27DF125I17;1
S24000;27HC050I18;4
S90000;27HC050I18;5
S24000;29ASH240A20;4
S90000;29ASH240A20;10
S24000;38FT200A21;3
S90000;38FT200A21;5
S24000;49CHALM21;7
S24000;49CHCHB21;7
S90000;49DB004I20;30
S90000;49EP005TL17ET;9
S90000;49PO2RS21;96
S90000;49PO2SA19;30
S90000;49TF2CH19;35
S90000;49TFACH18;30
S24000;52GD0015A18;62
S24000;52LASANO21;327
S90000;52LASANO21;60
S24000;52LT002R21;144
S90000;52LT002R21;100
S90000;52TBO1M21;42
S90000;52TBO2M21;37
S24000;52MMBANO21;68
S24000;52RIB1NO21;11
S24000;52SGEBAG19;370
S90000;98BBSA050LT1;30
S90000;SGOCVKI00138;2
S90000;SGOCVKI00157;5
S24000;01BL012K18;2
S90000;01BL012K18;10
S24000;01CL050K21;3
S90000;01CL050K21;4
S24000;01CM300K20;4
S90000;01CM300K20;12
S24000;01EC200K22;8
S90000;01EC200K22;23
S24000;01SA100LT20;12
S90000;01SA100LT20;7
S90000;10BOWEB219;2900
S90000;10BOWEB319;4700
S90000;10BOWEB419;2800
S24000;11BG140SH19;4
S24000;11CM125I19;12
S90000;11CM125I19;1
S24000;11GD050A18;3
S90000;11GD050A18;4
S24000;11LC250O21;9
S90000;11LC250O21;10
S10;11SD100SH19;8
S10;17ER075P19;6
S10;17RC500P19;1
S10;18SA075TL17ET;1
S10;20HR050H20;5
S10;27EV200I19;5
S10;38ST016A18;1
S10;52BGERIB18;1
S10;52FP0015I19;147
S10;52STINO21;8
S10;01BM050K19;8
S10;01CP200K17;7
S10;01EN300KB19;14
S10;01HD500K20;6
S10;01LC250K17;18
S10;01SL500LV20;2
S10;10KTPWPXM21;15
S10;11CD050A18;3
S10;11ET010H20;8
S10;11LT300I20;12
S10;11MA030A20;10
S10;11SP200CS19;8
S10;15MA030VAL21;19
S10;17AS500P19;7
S10;17RS500P19;12
S10;17SH075G21;7
S10;18ET050TL17;3
S10;24GD250R20;1
S10;24MA075P15;7
S10;27CP050I19;9
S10;27HCR050I16;5
S10;27OR075I21;6
S10;29HD250A15;20
S10;52DC0015I20;254
S10;52LGEBOX18;10
S10;52RBO2NO21;4
S10;52SMSANO21;3
S10;01BL012K18;12
S10;01CL050K21;3
S10;01CM300K20;7
S10;01EC200K22;3
S10;01KTKAR21;3
S10;01SA100LT20;7
S10;11BG140SH19;3
S10;11CM125I19;10
S10;11GD050A18;3
S10;11LC250O21;14
S10;11SA100H19;1
S10;15GD250VA20;1
S10;17HI001G19;177
S10;17RS500G21;9
S10;27DC050I20;8
S10;29RC200A20;6
S10;38RC050A18;6
S21000;20ET075CD20;4
S21000;24BR050R19;5
S21000;24LC250C21;12
S21000;24SA050CB6;5
S21000;27DB015I20;5
S21000;27OR050I21;51
S21000;29KTAMA21;4
S21000;52CCRAC21;2
S21000;52DCRAC21;2
S21000;52MA003K16A;134
S21000;52MIGEBAG19;244
S21000;52MOCOL316;6
S21000;52RBO1NO21;2
S21000;52SH006E19;291
S21000;01EM075K20;6
S21000;01HV030K16;5
S21000;01MA150K22;25
S21000;01RV500K20;22
S21000;01SL500VE20;8
S21000;11BO100CS19;28
S21000;11ET010O21;10
S21000;11MH075A19;4
S21000;11SD100SH19;14
S21000;15MA030L11;21
S21000;15MA075L11;12
S21000;15RG500VA20;20
S21000;17ER075P19;4
S21000;17RC500P19;4
S21000;20HR050H20;4
S21000;24GD500R19;5
S21000;27EV200I19;12
S21000;29MA075A21;11
S21000;49TCMNO21;11
S21000;52FP0015I19;35
S21000;52STINO21;13
S21000;98BBMA010KA3;52
S21000;01BM050K19;4
S21000;01CP200K17;14
S21000;01EN300KB19;12
S21000;01HD500K20;7
S21000;01LC250K17;13
S21000;01SL500LV20;3
S21000;10KTPWPXM21;9
S21000;11CD050A18;7
S21000;11ET010H20;10
S21000;11LT300I20;4
S21000;11MA030A20;33
S21000;11SP200CS19;7
S21000;15MA030VAL21;9
S21000;17AS500P19;4
S21000;17RS500P19;27
S21000;17SH075G21;158
S21000;18ET050TL17;5
S10;49HD035A15;60
S10;49OR005I19;15
S10;52BY001I19;555
S10;52PS0015R21;28
S10;52SMBPNO21;9
S10;SGOCVKI00177;44
S10;SGOCVKI00179;1
S10;SGOCVKI00180;16
S10;SGOCVKI00181;42
S10;SGOCVKI00182;1
S10;SGOCVKI00186;7
S10;SGOCVKI00187;1
S10;SGOCVKI00189;1
S10;SGOCVKI00190;2
S10;SGOCVKI00191;9
S10;SGOCVKI00192;9
S10;SGOCVKI00194;4
S10;SGOCVKI00195;6
S10;SGOCVKI00196;1
S10;SGOCVKI00198;1
S10;SGOCVKI00200;13
S10;SGOCVKI00201;35
S10;SGOCVKI00202;36
S10;SGOCVKI00203;9
S24000;11SA100H19;21
S90000;11SA100H19;11
S24000;15CF150VBL21;3
S90000;15CF150VBL21;5
S24000;15GD250VA20;5
S90000;15GD250VA20;9
S90000;15GM065VB20;7
S24000;15MA030VB3;3
S90000;15MA030VB3;9
S24000;17HI001G19;85
S90000;17HI001G19;100
S24000;17RS500G21;13
S90000;17SH075FV21;25
S90000;17SH300D15;6
S24000;24ET075CB4;9
S90000;24ET075CB4;1
S90000;24MA030RV19;8
S24000;27DC050I20;8
S90000;27DC050I20;8
S24000;29RC200A20;17
S90000;29RC200A20;11
S24000;38RC050A18;10
S90000;38RC050A18;8
S90000;38WS030A18;22
S90000;49CL1SA18;234
S90000;49DH004I20;592
S90000;49HD035A15;17
S24000;49MA010A21X;39
S90000;49MA010A21X;100
S90000;49POCB19;1
S24000;52AS006FV21;194
S90000;52AS006FV21;317
S24000;52BY001I19;248
S90000;52BY001I19;1
S90000;52HR004G17;100
S24000;52PS0015R21;173
S90000;52PS0015R21;100
S24000;52SMBPNO21;3
S90000;52SMBPNO21;13
S24000;52YGERIB18;2
S90000;98BBSH050AR2;86
S90000;SGOCVKI00176;7
S90000;SGOCVKI00177;32
S24000;01CL300KB20;6
S90000;01CL300KB20;4
S24000;01MF030F21H;2
S24000;01PI150K18;8
S90000;01PI150K18;13
S24000;11GD250O21;25
S90000;11GD250O21;10
S24000;11PM100SL19;3
S90000;11PM100SL19;9
S24000;11SP200SI19;3
S20;24MA075P15;21
S20;27CP050I19;10
S20;27HCR050I16;4
S20;27OR075I21;27
S20;29HD250A15;20
S20;52DC0015I20;191
S20;52LGEBAG19;143
S20;52LGEBOX18;10
S20;52RBO2NO21;5
S20;52SMSANO21;491
S20;01BL012K18;14
S20;01CL050K21;3
S20;01CM300K20;10
S20;01EC200K22;9
S20;01KTKAR21;6
S20;01SA100LT20;18
S20;11BG140SH19;12
S20;11CM125I19;14
S20;11GD050A18;6
S20;11LC250O21;13
S20;11SA100H19;12
S20;15GD250VA20;18
S20;15GM065VB20;1
S20;15MA030VB3;15
S20;17HI001G19;93
S20;17RS500G21;30
S20;24ET075CB4;6
S20;27DC050I20;14
S20;29RC200A20;39
S20;38RC050A18;4
S20;49MA010A21X;39
S20;52BY001I19;126
S20;52PS0015R21;93
S20;52SMBPNO21;1
S20;SGOCVKI00176;1
S20;SGOCVKI00177;64
S20;SGOCVKI00180;25
S20;SGOCVKI00181;40
S20;SGOCVKI00182;17
S20;SGOCVKI00183;19
S20;SGOCVKI00184;6
S20;SGOCVKI00186;1
S20;SGOCVKI00189;12
S20;SGOCVKI00191;14
S20;SGOCVKI00192;12
S20;SGOCVKI00195;7
S20;SGOCVKI00196;3
S20;SGOCVKI00200;10
S20;SGOCVKI00201;27
S20;SGOCVKI00202;8
S21000;24GD250R20;14
S21000;24MA030R18;23
S21000;24MA075P15;3
S21000;27CP050I19;8
S21000;27HCR050I16;4
S21000;27OR075I21;14
S21000;29HD250A15;13
S21000;52DC0015I20;217
S21000;52LGEBAG19;11
S21000;52LGEBOX18;10
S21000;52RBO2NO21;2
S21000;52SMSANO21;258
S21000;01BL012K18;11
S21000;01CL050K21;3
S21000;01CM300K20;8
S21000;01EC200K22;6
S21000;01SA100LT20;20
S21000;11BG140SH19;16
S21000;11CM125I19;22
S21000;11GD050A18;4
S21000;11LC250O21;17
S21000;11SA100H19;7
S21000;15GD250VA20;9
S21000;15GM065VB20;3
S21000;15MA030VB3;14
S21000;17HI001G19;103
S21000;17RS500G21;26
S21000;24ET075CB4;3
S21000;27DC050I20;9
S21000;29RC200A20;39
S21000;38RC050A18;7
S21000;49MA010A21X;40
S21000;49OR005I19;18
S21000;52BY001I19;124
S21000;52PS0015R21;93
S21000;52SMBPNO21;8
S21000;SGOCVKI00177;15
S21000;SGOCVKI00180;6
S21000;SGOCVKI00191;2
S21000;SGOCVKI00192;10
S21000;SGOCVKI00193;2
S21000;SGOCVKI00194;2
S21000;SGOCVKI00195;2
S21000;SGOCVKI00196;8
S21000;SGOCVKI00200;7
S21000;SGOCVKI00201;30
S21000;SGOCVKI00202;2
S90000;11SP200SI19;7
S24000;15AS150VCL21;9
S90000;15AS150VCL21;7
S24000;15DF200VBL21;31
S90000;15ETVER21;19
S24000;15GG150VAL21;39
S90000;15GG150VAL21;88
S90000;15LC250VBL20;1
S24000;17AS500E19;10
S90000;17AS500E19;8
S24000;17SE100FV21;13
S90000;17SE100FV21;2
S24000;17VI100P19;4
S90000;17VI100P19;11
S24000;20AR075O20;8
S90000;20AR075O20;9
S24000;20DO130HC20;7
S90000;20DO130HC20;6
S90000;20SA050O20;7
S90000;24BL012CB5;6
S24000;24MA030RV19;1
S24000;24SA050R18;26
S90000;24SA050R18;5
S90000;24SACHB20;3
S90000;27DH030I17A;1
S90000;29MAV075A19;4
S24000;29SH240A20;2
S90000;29SH240A20;10
S90000;38UV030A18;7
S90000;49EP005H20;48
S90000;49PMENNO21;140
S90000;49PO1NH18;83
S90000;49TBL2CH19;3
S90000;49VANSA19;32
S24000;52AS006E19;290
S90000;52AS006E19;81
S24000;52CP006K17;69
S90000;52CP006K17;176
S24000;52DE001I21;234
S90000;52DE001I21;100
S90000;52EV002I19;27
S90000;52HCTM21;25
S24000;52MC006G21;78
S90000;52MC006G21;100
S24000;52MMBYNO21;18
S90000;52MMBYNO21;4
S24000;52RIB2NO21;11
S24000;98BBDF015IM0;17
S90000;J6185;13
S90000;JIMPN16;61
S24000;01BP050K21;8
S90000;01BP050K21;6
S24000;01LT300K20;5
S90000;01LT300K20;9
S24000;01MA075K22;17
S90000;01MA075K22;10
S24000;01PR015R19;6
S90000;01PR015R19;9
S24000;11BC100G21;46
S90000;11BC100G21;4
S90000;11CM030H20;14
S90000;11GD050H20;1
S90000;11GD075O21;1
S90000;11LP040028M19;40
S24000;11PM100SI19;4
S90000;11PM100SI19;10
S24000;11SV080I19;4
S90000;11SV080I19;6
S24000;15ET100VB3;1
S90000;15ET100VB3;1
S90000;15GD250VA5;1
S24000;18GD250TL17ET;1
S90000;18GD250TL17ET;6
S24000;20ET075CD20;7
S90000;20ET075CD20;8
S24000;24BR050R19;8
S90000;24BR050R19;5
S24000;24LC250C21;7
S24000;24SA050CB6;6
S90000;24SA050CB6;3
S24000;27DB015I20;10
S90000;27DB015I20;9
S24000;27MP050I20;37
S90000;27MP050I20;39
S24000;27OR050I21;21
S90000;27OR050I21;3
S90000;29KTAMA21;1
S90000;49AF015G20;160
S90000;49CP004I19;82
S90000;49LT030R21;9
S90000;49NOTNO21;1
S90000;49PO2HER20;22
S24000;52CCRAC21;3
S24000;52DCRAC21;3
S24000;52MA003K16A;56
S90000;52MA003K16A;328
S24000;52MIGEBAG19;276
S24000;52MOCOL316;7
S90000;52MOCOL316;35
S24000;52RBO1NO21;4
S24000;52SH006E19;276
S90000;52SH006E19;313
S24000;01EM075K20;4
S90000;01EM075K20;11
S24000;01HV030K16;4
S90000;01HV030K16;4
S90000;01MA150K21H;9
S24000;01MA150K22;10
S90000;01MA150K22;20
S24000;01RV500K20;5
S90000;01RV500K20;15
S24000;01SL500VE20;3
S90000;01SL500VE20;11
S24000;11BO100CS19;31
S24000;11ET010O21;10
S90000;11ET010O21;10
S24000;11MH075A19;3
S90000;11MH075A19;6
S24000;11SD100SH19;7
S90000;11SD100SH19;13
S90000;15GC150VBL20;4
S90000;15LC075L15;12
S24000;15MA030L11;2
S90000;15MA030L11;12
S24000;15MA075L11;9
S90000;15MA075L11;1
S24000;15RG500VA20;9
S90000;15RG500VA20;14
S24000;17ER075P19;4
S90000;17ER075P19;10
S24000;17RC500P19;5
S90000;17RC500P19;17
S90000;18SA075TL17ET;7
S24000;20HR050H20;5
S90000;20HR050H20;9
S24000;24GD500R19;13
S90000;24GD500R19;2
S24000;27EV200I19;7
S90000;27EV200I19;9
S24000;29MA075A21;5
S90000;29MA075A21;12
S90000;38ST016A18;7
S90000;49BP010K19;20
S24000;52BGERIB18;2
S90000;52BGERIB18;2
S24000;52FP0015I19;75
S90000;52FP0015I19;100
S90000;52MMBYNO19;85
S24000;52STINO21;11
S90000;52STINO21;1
S24000;98BBMA010KA3;8
S90000;SGOCVKI00178;28
S90000;SGOCVKI00179;23
S90000;SGOCVKI00180;18
S24000;SGOCVKI00181;7
S90000;SGOCVKI00181;50
S90000;SGOCVKI00182;38
S90000;SGOCVKI00184;21
S90000;SGOCVKI00185;17
S90000;SGOCVKI00186;15
S90000;SGOCVKI00187;24
S90000;SGOCVKI00188;25
S90000;SGOCVKI00189;20
S90000;SGOCVKI00190;14
S90000;SGOCVKI00191;23
S24000;SGOCVKI00192;3
S90000;SGOCVKI00193;11
S24000;SGOCVKI00194;8
S24000;SGOCVKI00195;3
S24000;SGOCVKI00196;8
S90000;SGOCVKI00198;16
S24000;SGOCVKI00201;23
S90000;SGOCVKI00201;34
S90000;SGOCVKI00204;40
S90000;SGOCVKI00205;51
S90000;SGOCVKI00206;4
S90000;SGOCVKI00207;51
S90000;SGOCVKI00208;49
