S21000;01BK010K14;14
S21000;01BL012K18;10
S21000;01BL012KC22H;15
S21000;01BL012KG22H;15
S21000;01BM050K19;10
S21000;01BM150K19;14
S21000;01BP050K21;4
S21000;01BV050K16;5
S21000;01CD250K17;10
S21000;01CD250KC22H;16
S21000;01CE200KC22H;13
S21000;01CF050K22;2
S21000;01CL050K21;5
S21000;01CL175K22;5
S21000;01CL200KG22H;13
S21000;01CM300K20;7
S21000;01CM500K20;8
S21000;01CMJ075K21;11
S21000;01CMR500K20;5
S21000;01CP100KC22H;14
S21000;01CP200K22;9
S21000;01CPR200K22;8
S21000;01CV050K22;4
S21000;01EC200K22;10
S21000;01EM075K20;4
S21000;01HD250K17;11
S21000;01HD500K20;10
S21000;01HDR500K20;9
S21000;01HF100K17;3
S21000;01HN0075K19;6
S21000;01HN075KG22H;14
S21000;01HV030K16;3
S21000;01LC250K17;17
S21000;01LT300K20;14
S21000;01MA030K22;121
S21000;01MA030K22H;43
S21000;01MA030KC22H;44
S21000;01MA030KG22H;47
S21000;01MA075K22;28
S21000;01MA150K22;27
S21000;01MA150KC22H;26
S21000;01MA150KG22H;27
S21000;01MD200KG22H;42
S21000;01MR030K14;67
S21000;01PI030K18;6
S21000;01PI150K18;11
S21000;01RL500K20;11
S21000;01RV500K20;11
S21000;01SA050KC22H;14
S21000;01SA050KG22H;13
S21000;01SA050KV20;4
S21000;01SA100LT20;10
S21000;01SA100LV20;12
S21000;01SA100VE20;11
S21000;01SA250LT20;11
S21000;01SA250LV20;15
S21000;01SA250VE20;18
S21000;01SA300KRO22;4
S21000;01SA500KRO22;8
S21000;01SAR500KRO22;9
S21000;01SB020K21;4
S21000;01SL0045K13;18
S21000;01SL0045KR22;14
S21000;01SL300LV20;5
S21000;01SL300VE20;6
S21000;01SL500LV20;6
S21000;01SL500VE20;8
S21000;10CACLA22;14
S21000;10CRAKT22;7
S21000;11AS040SG22;21
S21000;11BC100G21;8
S21000;11BG140CS19;6
S21000;11BG140SH19;5
S21000;11BG140SI19;4
S21000;11BG140SL19;7
S21000;11BH050A18;4
S21000;11BO100CS19;14
S21000;11BO100CS22H;10
S21000;11BP100I19;4
S21000;11BR100A20;5
S21000;11CD050A18;5
S21000;11CF100TR19;6
S21000;11CM030H19;11
S21000;11CM030H20;13
S21000;11CM030O21;12
S21000;11CM125I19;19
S21000;11EH150A18;4
S21000;11EP010H19;12
S21000;11ET010H20;9
S21000;11ET050H20;5
S21000;11ET075O21;7
S21000;11FAG10TR19;9
S21000;11GD050A18;4
S21000;11GD250H19;15
S21000;11GD250H20;16
S21000;11GD250O21;20
S21000;11GE075I20;5
S21000;11GM200I19;15
S21000;11GN195A18;13
S21000;11LC250H19;8
S21000;11LC250H20;10
S21000;11LC250O21;7
S21000;11LD200I19;10
S21000;11LH200I19;8
S27000;01BK010K14;11
S27000;01BL012K18;8
S27000;01BL012KC22H;14
S27000;01BL012KG22H;15
S27000;01BM050K19;5
S27000;01BM150K19;12
S27000;01BP050K21;8
S27000;01BV050K16;6
S27000;01CD250K17;10
S27000;01CD250KC22H;17
S27000;01CE200KC22H;15
S27000;01CF050K22;11
S27000;01CL050K21;4
S27000;01CL175K22;10
S27000;01CL200KG22H;9
S27000;01CM300K20;9
S27000;01CM500K20;7
S27000;01CMJ075K21;10
S27000;01CMR500K20;11
S27000;01CP100KC22H;12
S27000;01CP200K22;15
S27000;01CPR200K22;6
S27000;01CV050K22;4
S27000;01EC200K22;13
S27000;01EM075K20;6
S27000;01HD250K17;9
S27000;01HD500K20;12
S27000;01HDR500K20;10
S27000;01HF100K17;7
S27000;01HN0075K19;7
S27000;01HN075KG22H;11
S27000;01HV030K16;3
S27000;01LC250K17;14
S27000;01LT300K20;13
S27000;01MA030K22;34
S27000;01MA030K22H;37
S27000;01MA030KC22H;37
S27000;01MA030KG22H;38
S27000;01MA075K22;17
S27000;01MA150K22;22
S27000;01MA150KC22H;20
S27000;01MA150KG22H;22
S27000;01MD200KG22H;39
S27000;01MR030K14;10
S27000;01PI030K18;3
S27000;01PI150K18;8
S27000;01RL500K20;8
S27000;01RV500K20;5
S27000;01SA050KC22H;14
S27000;01SA050KG22H;12
S27000;01SA100LT20;11
S27000;01SA100LV20;11
S27000;01SA100VE20;10
S27000;01SA250LT20;10
S27000;01SA250LV20;11
S27000;01SA250VE20;12
S27000;01SA300KRO22;7
S27000;01SA500KRO22;8
S27000;01SAR500KRO22;10
S27000;01SB020K21;2
S27000;01SE125K21;4
S27000;01SL0045K13;34
S27000;01SL0045KR22;12
S27000;01SL300LV20;5
S27000;01SL300VE20;6
S27000;01SL500LV20;6
S27000;01SL500VE20;7
S27000;10CACLA22;34
S27000;10CRAKT22;19
S27000;11AS040SG22;17
S27000;11BC100G21;18
S27000;11BG140CS19;6
S27000;11BG140SH19;5
S27000;11BG140SI19;4
S27000;11BG140SL19;5
S27000;11BH050A18;5
S27000;11BO100CS19;13
S27000;11BO100CS22H;9
S27000;11BP100I19;4
S27000;11BR100A20;4
S27000;11CD050A18;6
S27000;11CF100TR19;10
S27000;11CM030H19;10
S27000;11CM030H20;14
S27000;11CM030O21;8
S27000;11CM125I19;8
S27000;11EH150A18;10
S27000;11EP010H19;7
S27000;11ET010H20;8
S27000;11ET050H20;4
S27000;11ET075O21;5
S27000;11FAG10TR19;3
S27000;11GD050A18;3
S27000;11GD250H19;4
S27000;11GD250H20;10
S27000;11GD250O21;10
S27000;11GE075I20;5
S27000;11GM200I19;6
S27000;11GN195A18;10
S27000;11LC250H19;7
S27000;11LC250H20;7
S27000;11LC250O21;8
S27000;11LD200I19;7
S27000;11LH200I19;11
S10;27CP050I19;1
S10;27DB015I20;11
S10;27DC050I20;8
S10;27DCB060I17;4
S10;27DE015I21;6
S10;27DF125I17;15
S10;27DH015I22;10
S10;27DH030I20;4
S10;27DH030I22;11
S10;27DL200I21;8
S10;27DS030I20;6
S10;27ER015I22;11
S10;27ER050I21;11
S10;27ER150I21;16
S10;27EV200I19;6
S10;27HC050I18;4
S10;27HCR050I16;2
S10;27HS030I18;4
S10;27HSR030I16;3
S10;27MI150I20;1
S10;27MP050I20;12
S10;27MP150I20;5
S10;27MQ065I15A;3
S10;27MS050I20;5
S10;27OR030I21;22
S10;27OR050I21;15
S10;27SP030I19;3
S10;29ASH240A20;5
S10;29BP100A22;8
S10;29EC200A21;10
S10;29GE200A21;16
S10;29HD075A15;91
S10;29HD250A15;22
S10;29HD500A15;27
S10;29HS100A22SM;16
S10;29LC200A20US;32
S10;29MA030A17;15
S10;29MA075A21;9
S10;29ORALM22;40
S10;29RC200A20;26
S10;29RH500A15;25
S10;29SA050A21;3
S10;29SE125A21;7
S10;29SH240A20;8
S10;29VC240A22;19
S10;38BV050A19;5
S24000;38BV050A19;5
S10;38EC015A18;4
S24000;38EC015A18;3
S10;38EV075A21;11
S24000;38EV075A21;5
S10;38FT200A21;5
S24000;38FT200A21;5
S10;38MI150A22;14
S00;27CN050I14;2
S20;49DC004I20;18
S20;49DH004I20;53
S20;49DISC3NO22;65
S20;49HD035A15;24
S20;49LC020A20;78
S20;49LD030I21;7
S20;49MA010K22;27
S20;49OR005I21;114
S20;49ORALM22;5
S20;49ORCHB22;8
S20;49ORKAR22;5
S20;49ORMEN22;1
S20;52AF006G20;112
S20;52AS006E19;91
S20;52AS006FV21;85
S20;52AS006G21;130
S20;52AS006P19;93
S20;52BY001I19;57
S20;52CARDNO22;4
S20;52CD0015A18;37
S20;52CL0015K21;43
S20;52CP0015I19;99
S20;52CP006K22;259
S20;52CRA1C22;3
S20;52CRA2C22;3
S20;52CRA3C22;3
S20;52CRA4C22;3
S20;52CV0015K22;79
S20;52DB001I20;91
S20;52DC0015I20;211
S20;52DE001I21;165
S20;52DF002I17;135
S20;52DH001I20;24
S20;52DH001I22;188
S20;52DL002I21;156
S20;52DS001I20;55
S20;52ER002I21;401
S20;52GD0015A18;68
S20;52GIF1NO22;3
S20;52GIF2NO22;3
S20;52HD006A18;264
S20;52HS001I17;81
S20;52HS004A18;81
S20;52LABANO22;82
S20;52LASANO22;108
S20;52LC006A20;384
S20;52LGEBOX18;10
S20;52LGENSA21;58
S20;52LT002R21;62
S20;52MA003K22A;250
S20;52MC006G21;67
S20;52MGEBAG19;2
S20;52MGEBOX18;11
S20;52MGENSA21;72
S21000;11LT300I20;6
S21000;11MA030A20;5
S21000;11MH075A19;3
S21000;11MWC200I19;3
S21000;11PEP050I20;4
S21000;11PM100SH19;2
S21000;11PM100SI19;3
S21000;11SA050O21;8
S21000;11SA100H19;7
S21000;11SA100H20;9
S21000;11SD100CS19;5
S21000;11SD100SH19;3
S21000;11SD100SI19;5
S21000;11SD100SL19;2
S21000;11SP200CS19;5
S21000;11SP200SH19;4
S21000;11SP200SI19;3
S21000;11SP200SL19;5
S21000;11SV080I19;4
S21000;15AS250VA18;6
S21000;15BA500L16A;9
S21000;15DO050VA5;10
S21000;15ET010VB19;3
S21000;15ET100VA20;6
S21000;15ET100VB20;4
S21000;15GD075L21;25
S21000;15GD250L21;9
S21000;15GD250VA20;6
S21000;15GD250VB21;14
S21000;15GD500VB21;10
S21000;15GM065L21;12
S21000;15GM065VB21;12
S21000;15GM280VB21;6
S21000;15GN300L21;8
S21000;15GS150VBL22;2
S21000;15HE005L14;3
S21000;15LC250L14;9
S21000;15LC250VA20;5
S21000;15LC250VB3;9
S21000;15LM300L11;4
S21000;15MA030L21;9
S21000;15MA030VA5;4
S21000;15MA030VB3;4
S21000;15MA075L20;16
S21000;15MA075VB4;16
S21000;15ORVER22;32
S21000;15RC500VB21;11
S21000;15RG500L14;14
S21000;15RG500VA20;9
S21000;15RO010VBM22;1
S21000;15SA070VB6;5
S21000;15SA075VB21;5
S27000;11LT300I20;5
S27000;11MH075A19;4
S27000;11MWC200I19;4
S27000;11PEP050I20;5
S27000;11PM100SH19;3
S27000;11PM100SI19;4
S27000;11PM100SL19;1
S27000;11SA050O21;5
S27000;11SA100H19;6
S27000;11SA100H20;10
S27000;11SD100CS19;10
S27000;11SD100SH19;8
S27000;11SD100SI19;7
S27000;11SD100SL19;5
S27000;11SP200CS19;10
S27000;11SP200SH19;5
S27000;11SP200SI19;5
S27000;11SP200SL19;5
S27000;11SV080I19;4
S27000;15AS250VA18;10
S27000;15BA500L16A;10
S27000;15DO050VA5;17
S27000;15ET010VB19;4
S27000;15ET100VA20;4
S27000;15ET100VB20;5
S27000;15ET100VBM22;3
S27000;15GD075L21;4
S27000;15GD250L21;7
S27000;15GD250VA20;8
S27000;15GD250VB21;8
S27000;15GD500VB21;11
S27000;15GM065L21;13
S27000;15GM065VB21;10
S27000;15GM280VB21;6
S27000;15GN300L21;8
S27000;15GS150VBL22;4
S27000;15HE005L14;4
S27000;15LC250L14;8
S27000;15LC250VA20;6
S27000;15LC250VB3;8
S21000;27BP050I19;7
S21000;27BY015I19;10
S21000;27CP050I19;10
S21000;27DB015I20;7
S21000;27DC050I20;16
S21000;27DCB060I17;9
S21000;27DE015I21;12
S21000;27DF125I17;11
S21000;27DH015I22;16
S21000;27DH030I20;2
S21000;27DH030I22;17
S21000;27DL200I21;11
S24000;38MI150A22;8
S10;38RC050A18;2
S10;38RC050A22;14
S24000;38RC050A22;13
S10;38UV030A18;9
S24000;38UV030A18;10
S10;38WC050A21;4
S24000;38WC050A21;11
S10;38WM065A18;2
S10;38WS030A21;4
S24000;38WS030A21;8
S10;49BO015CS19;26
S10;49CABNO22;62
S24000;49CABNO22;59
S10;49CP020K22;10
S24000;49CP020K22;9
S10;49DC004I20;36
S24000;49DC004I20;4
S10;49DH004I20;10
S10;49DISC3NO22;81
S24000;49DISC3NO22;69
S10;49HD035A15;19
S24000;49HD035A15;5
S10;49LC020A20;112
S24000;49LC020A20;76
S24000;49LD030I21;4
S10;49MA010K22;9
S24000;49MA010K22;9
S10;49OR005I21;116
S24000;49OR005I21;151
S10;52AF006G20;63
S10;52AS006E19;80
S10;52AS006FV21;75
S10;52AS006G21;83
S10;52AS006P19;129
S10;52BY001I19;257
S10;52CARDNO22;4
S10;52CD0015A18;38
S10;52CL0015K21;45
S10;52CP0015I19;102
S10;52CP006K22;143
S10;52CV0015K22;85
S10;52DB001I20;88
S10;52DC0015I20;50
S10;52DE001I21;57
S10;52DH001I20;7
S10;52DH001I22;96
S10;52DL002I21;139
S10;52DS001I20;60
S10;52ER002I21;531
S10;52FP0015I19;4
S10;52GD0015A18;122
S10;52GIF1NO22;3
S10;52GIF2NO22;3
S21000;27DS030I20;9
S21000;27ER015I22;18
S21000;27ER050I21;11
S21000;27ER150I21;13
S21000;27EV200I19;11
S21000;27HC050I18;4
S21000;27HCR050I16;6
S21000;27HS030I18;3
S21000;27HSR030I16;7
S21000;27MI150I20;4
S21000;27MP050I20;15
S21000;27MP150I20;8
S21000;27MQ065I15A;2
S21000;27MS050I20;11
S21000;27OR030I21;20
S21000;27OR050I21;26
S21000;27SP030I19;3
S21000;29ASH240A20;5
S21000;29BP100A19;3
S21000;29EC200A21;8
S21000;29GE200A21;13
S21000;29HD075A15;55
S21000;29HD250A15;15
S21000;29HD500A15;42
S21000;29HS100A22SM;11
S21000;29LC200A20US;30
S21000;29MA030A17;16
S21000;29MA075A21;21
S21000;29ORALM22;20
S21000;29RC200A20;16
S21000;29RH500A15;25
S21000;29SA050A21;4
S21000;29SE125A21;14
S21000;29SH240A20;9
S21000;29VC240A22;3
S21000;38BV050A19;5
S21000;38EC015A18;8
S21000;38EV075A21;9
S21000;38FT200A21;5
S21000;38MI150A22;11
S21000;38RC050A22;6
S21000;38UV030A18;13
S21000;38WC050A21;5
S21000;38WS030A21;10
S21000;49BO015CS19;36
S21000;49CABNO22;60
S21000;49DH004I20;9
S21000;49DISC3NO22;55
S21000;49HD035A15;20
S21000;49LC020A20;67
S21000;49MA010K22;25
S21000;49OR005I21;49
S21000;52AF006G20;60
S21000;52AS006E19;71
S21000;52AS006FV21;73
S21000;52AS006G21;114
S21000;52AS006P19;68
S21000;52BY001I19;155
S21000;52CARDNO22;4
S21000;52CD0015A18;63
S21000;52CL0015K21;24
S21000;52CP0015I19;86
S21000;52CP006K22;193
S21000;52CV0015K22;217
S21000;52DB001I20;37
S21000;52DC0015I20;167
S21000;52DE001I21;154
S21000;52DF002I17;131
S21000;52DH001I22;291
S21000;52DL002I21;165
S21000;52DS001I20;110
S21000;52ER002I21;305
S21000;52GD0015A18;45
S21000;52GIF1NO22;3
S21000;52GIF2NO22;3
S21000;52HD006A18;256
S21000;52HS001I17;87
S21000;52HS004A18;88
S21000;52LABANO22;78
S21000;52LASANO22;110
S21000;52LC006A20;231
S21000;52LGEBAG19;52
S21000;52LGEBOX18;7
S21000;52LGENSA21;81
S21000;52LT002R21;50
S21000;52MA003K22A;166
S21000;52MC006G21;98
S21000;52MGEBAG19;16
S21000;52MGEBOX18;9
S21000;52MGENSA21;36
S21000;52MIBANO22;227
S21000;52MMB1NO22;48
S21000;52MMB2NO22;48
S21000;52MMB3NO22;44
S21000;52MMBANO22;280
S21000;52MMSANO22;186
S21000;52MS001I20;105
S21000;52OR001I21;280
S21000;52PMGBOX18;4
S21000;52PS0015R21;41
S21000;52PSAC18;1
S21000;52RIB1NO22;4
S21000;52RIB2NO22;4
S21000;52RIBOXNO22;150
S21000;52SAMPENV18;27
S21000;52SGENSA21GPS;99
S28000;ACPOCVEC00001;184
S28000;ACPOCVEC00002;199
S28000;ACPOCVEC00003;100
S28000;ACPOCVEC00005;322
S28000;SGOCVKI00214;18
S28000;SGOCVKI00215;37
S28000;SGOCVKI00217;35
S28000;SGOCVKI00218;34
S28000;SGOCVKI00219;9
S28000;SGOCVKI00220;14
S28000;SGOCVKI00222;18
S28000;SGOCVKI00223;9
S28000;SGOCVKI00225;32
S28000;SGOCVKI00226;13
S28000;SGOCVKI00228;14
S28000;SGOCVKI00229;16
S28000;SGOCVKI00231;7
S28000;SGOCVKI00232;7
S28000;SGOCVKI00233;15
S28000;SGOCVKI00235;20
S28000;SGOCVKI00236;9
S28000;SGOCVKI00237;8
S28000;SGOCVKI00238;4
S28000;SGOCVKI00240;2
S28000;SGOCVKI00241;8
S28000;SGOCVKI00242;13
S28000;SGOCVKI00243;10
S28000;SGOCVKI00244;32
S29000;01BK010K14;1
S29000;01BL012K18;19
S29000;01BL012KC22H;27
S29000;01BL012KG22H;29
S29000;01BM050K19;12
S29000;01BM150K19;21
S29000;01BP050K21;17
S29000;01BV050K16;1
S29000;01CD250K17;15
S29000;01CD250KC22H;26
S29000;01CE200KC22H;25
S29000;01CF050K22;11
S29000;01CL050K21;4
S29000;01CL175K22;8
S29000;01CL200KG22H;14
S29000;01CM300K20;6
S29000;01CM500K20;21
S29000;01CMJ075K21;26
S29000;01CMR500K20;20
S29000;01CP100KC22H;24
S29000;01CP200K22;22
S29000;01CPR200K22;24
S29000;01CV050K22;4
S29000;01EC200K22;21
S29000;01EM075K20;13
S29000;01HD250K17;14
S29000;01HD500K20;18
S29000;01HDR500K20;25
S29000;01HF100K17;9
S29000;01HN0075K19;18
S29000;01HN075KG22H;18
S29000;01HV030K16;4
S29000;01LC250K17;27
S29000;01LT300K20;18
S29000;01MA030K22;36
S29000;01MA030K22H;60
S29000;01MA030KC22H;58
S29000;01MA030KG22H;60
S29000;01MA075K22;18
S29000;01MA150K22;43
S29000;01MA150KC22H;40
S29000;01MA150KG22H;43
S29000;01MD200KG22H;56
S29000;01MR030K14;18
S29000;01PI030K18;5
S29000;01PI150K18;19
S29000;01RL500K20;61
S29000;01RV500K20;48
S29000;01SA050KC22H;23
S29000;01SA050KG22H;23
S29000;01SA050KV20;4
S29000;01SA100LT20;15
S28000;01BK010K14;18
S28000;01BL012K18;15
S28000;01BL012KC22H;29
S28000;01BL012KG22H;26
S28000;01BM050K19;15
S28000;01BM150K19;16
S28000;01BP050K21;13
S28000;01BV050K16;3
S28000;01CD250K17;12
S28000;01CD250KC22H;14
S28000;01CE200KC22H;25
S28000;01CL050K21;4
S28000;01CL175K22;5
S28000;01CL200KG22H;12
S28000;01CM300K20;13
S28000;01CM500K20;13
S28000;01CMJ075K21;17
S28000;01CMR500K20;15
S28000;01CP100KC22H;22
S28000;01CP200K22;17
S28000;01CPR200K22;14
S28000;01CV050K22;7
S28000;01EC200K22;17
S28000;01EM075K20;5
S28000;01HD250K17;11
S28000;01HD500K20;14
S28000;01HDR500K20;13
S28000;01HF100K17;2
S28000;01HN0075K19;18
S28000;01HN075KG22H;16
S28000;01HV030K16;4
S28000;01LT300K20;16
S28000;01MA030K22;36
S28000;01MA030K22H;60
S28000;01MA030KC22H;69
S28000;01MA030KG22H;70
S28000;01MA075K22;19
S28000;01MA150K22;30
S28000;01MA150KC22H;42
S28000;01MA150KG22H;50
S28000;01MD200KG22H;39
S28000;01MR030K14;18
S28000;01PI030K18;11
S28000;01PI150K18;21
S28000;01RL500K20;11
S28000;01RV500K20;18
S28000;01SA050KC22H;20
S28000;01SA050KG22H;20
S28000;01SA100LT20;12
S28000;01SA100LV20;13
S28000;01SA100VE20;19
S28000;01SA250LT20;14
S10;01BK010K14;15
S30000;01BK010K14;24
S10;01BL012K18;10
S30000;01BL012K18;12
S10;01BL012KC22H;16
S30000;01BL012KC22H;14
S10;01BL012KG22H;16
S30000;01BL012KG22H;15
S10;01BM050K19;10
S30000;01BM050K19;4
S10;01BM150K19;22
S30000;01BM150K19;6
S10;01BP050K21;2
S30000;01BP050K21;10
S10;01BV050K16;3
S30000;01BV050K16;3
S10;01CD250K17;9
S30000;01CD250K17;13
S10;01CD250KC22H;18
S30000;01CD250KC22H;17
S10;01CE200KC22H;11
S30000;01CE200KC22H;15
S10;01CF050K22;4
S30000;01CF050K22;10
S10;01CL050K21;11
S30000;01CL050K21;4
S10;01CL175K22;4
S30000;01CL175K22;6
S10;01CL200KG22H;8
S30000;01CL200KG22H;11
S10;01CM300K20;9
S30000;01CM300K20;6
S10;01CM500K20;5
S30000;01CM500K20;12
S10;01CMJ075K21;7
S30000;01CMJ075K21;28
S10;01CMR500K20;9
S30000;01CMR500K20;6
S10;01CP100KC22H;14
S30000;01CP100KC22H;16
S10;01CP200K22;10
S30000;01CP200K22;7
S10;01CPR200K22;11
S30000;01CPR200K22;2
S10;01CV050K22;5
S30000;01CV050K22;4
S10;01EC200K22;10
S30000;01EC200K22;15
S10;01EM075K20;5
S30000;01EM075K20;5
S10;01HD250K17;5
S30000;01HD250K17;6
S10;01HD500K20;6
S24000;01BK010K14;13
S31000;01BK010K14;17
S24000;01BL012K18;11
S31000;01BL012K18;12
S24000;01BL012KC22H;15
S31000;01BL012KC22H;29
S24000;01BL012KG22H;15
S31000;01BL012KG22H;29
S24000;01BM050K19;8
S31000;01BM050K19;11
S24000;01BM150K19;14
S31000;01BM150K19;15
S24000;01BP050K21;9
S31000;01BP050K21;10
S24000;01BV050K16;10
S31000;01BV050K16;1
S24000;01CD250K17;9
S31000;01CD250K17;19
S24000;01CD250KC22H;14
S31000;01CD250KC22H;23
S24000;01CE200KC22H;14
S31000;01CE200KC22H;26
S24000;01CF050K22;2
S31000;01CF050K22;14
S24000;01CL050K21;10
S31000;01CL050K21;12
S24000;01CL175K22;3
S31000;01CL175K22;8
S24000;01CL200KG22H;9
S31000;01CL200KG22H;14
S24000;01CM300K20;9
S31000;01CM300K20;10
S24000;01CM500K20;9
S31000;01CM500K20;12
S24000;01CMJ075K21;10
S31000;01CMJ075K21;11
S24000;01CMR500K20;12
S31000;01CMR500K20;12
S24000;01CP100KC22H;13
S31000;01CP100KC22H;25
S24000;01CP200K22;9
S31000;01CP200K22;13
S24000;01CPR200K22;10
S31000;01CPR200K22;23
S24000;01CV050K22;10
S31000;01CV050K22;6
S24000;01EC200K22;9
S31000;01EC200K22;9
S24000;01EM075K20;4
S31000;01EM075K20;6
S24000;01HD250K17;9
S31000;01HD250K17;4
S24000;01HD500K20;4
S28000;01SA250LV20;16
S28000;01SA250VE20;20
S28000;01SA300KRO22;9
S28000;01SA500KRO22;9
S28000;01SA9000KV21;1
S28000;01SAR500KRO22;14
S28000;01SE125K21;4
S28000;01SL0045K13;20
S28000;01SL0045KR22;8
S28000;01SL300LV20;4
S28000;01SL300VE20;10
S28000;01SL500LV20;3
S28000;01SL500VE20;12
S28000;10CACLA22;7
S28000;10CRAKT22;22
S28000;10EST250V21;25
S28000;10EST500V21;31
S28000;10P250V21;25
S28000;10P500V21;27
S28000;11AS040SG22;22
S28000;11AS90005G21;1
S28000;11BC100G21;15
S28000;11BG140CS19;12
S28000;11BG140SH19;4
S28000;11BG140SI19;5
S28000;11BG140SL19;4
S28000;11BH050A18;5
S28000;11BO100CS19;24
S28000;11BO100CS22H;17
S28000;11BR100A20;4
S28000;11CD050A18;3
S28000;11CF100TR19;11
S28000;11CM030H19;13
S28000;11CM030H20;18
S28000;11CM030O21;10
S28000;11CM125I19;12
S28000;11EH150A18;3
S28000;11EP010H19;8
S28000;11ET010H20;11
S28000;11ET050H20;4
S28000;11ET075O21;4
S28000;11FAG10TR19;14
S28000;11GD050A18;11
S28000;11GD250H19;11
S28000;11GD250H20;4
S28000;11GD250O21;11
S28000;11GE075I20;4
S28000;11GM200I19;6
S28000;11GN195A18;13
S28000;11LB250HF22;6
S28000;11LC250H19;10
S28000;11LC250H20;13
S29000;01SA100LV20;19
S29000;01SA100VE20;19
S29000;01SA250LT20;21
S29000;01SA250LV20;26
S29000;01SA250VE20;30
S29000;01SA300KRO22;14
S29000;01SA500KRO22;7
S29000;01SAR500KRO22;15
S29000;01SB020K21;4
S29000;01SE125K21;6
S29000;01SL0045K13;25
S29000;01SL0045KR22;24
S29000;01SL300LV20;8
S29000;01SL300VE20;1
S29000;01SL500LV20;15
S29000;01SL500VE20;10
S29000;10CACLA22;46
S29000;10CRAKT22;29
S29000;11AS040SG22;24
S29000;11BG140CS19;14
S29000;11BG140SH19;6
S29000;11BG140SI19;6
S29000;11BG140SL19;7
S29000;11BH050A18;5
S29000;11BO100CS19;23
S29000;11BO100CS22H;15
S29000;11BP100I19;4
S29000;11BR100A20;14
S29000;11CD050A18;5
S29000;11CF100TR19;17
S29000;11CM030H19;12
S29000;11CM030H20;16
S29000;11CM030O21;14
S29000;11CM125I19;17
S29000;11EH150A18;6
S29000;11EP010H19;14
S29000;11ET010H20;14
S29000;11ET050H20;4
S29000;11ET075O21;6
S29000;11FAG10TR19;13
S29000;11GD050A18;13
S29000;11GD250H19;21
S29000;11GD250H20;17
S29000;11GD250O21;17
S29000;11GE075I20;4
S29000;11GM200I19;25
S29000;11GN195A18;15
S29000;11LB250HF22;4
S29000;11LC250H19;15
S29000;11LC250H20;14
S29000;11LC250O21;14
S29000;11LD200I19;19
S20;01BK010K14;21
S20;01BL012K18;13
S20;01BL012KC22H;13
S20;01BL012KG22H;14
S20;01BM050K19;14
S20;01BM150K19;28
S20;01BP050K21;2
S20;01BV050K16;6
S20;01CD250K17;14
S20;01CD250KC22H;13
S20;01CE200KC22H;14
S20;01CF050K22;8
S20;01CL050K21;8
S20;01CL175K22;6
S20;01CL200KG22H;10
S20;01CM300K20;5
S20;01CM500K20;11
S20;01CMJ075K21;7
S20;01CMR500K20;18
S20;01CP100KC22H;13
S20;01CP200K22;20
S20;01CPR200K22;16
S20;01CV050K22;11
S20;01EC200K22;10
S20;01EM075K20;5
S20;01HD250K17;8
S20;01HD500K20;14
S20;01HDR500K20;28
S20;01HF100K17;6
S20;01HN0075K19;14
S20;01HN075KG22H;12
S20;01HV030K16;1
S20;01LC250K17;27
S20;01LT300K20;12
S20;01MA030K22;43
S20;01MA030K22H;39
S20;01MA030KC22H;46
S20;01MA030KG22H;43
S20;01MA075K22;13
S20;01MA150K22;19
S20;01MA150KC22H;45
S20;01MA150KG22H;44
S20;01MD200KG22H;44
S20;01MR030K14;13
S20;01PI030K18;13
S20;01PI150K18;18
S20;01RL500K20;17
S20;01RV500K20;22
S20;01SA050KC22H;14
S20;01SA050KG22H;13
S20;01SA100LT20;22
S20;01SA100LV20;27
S20;01SA100VE20;17
S20;01SA250LT20;18
S20;52MIBANO22;223
S20;52MMB1NO22;60
S20;52MMB2NO22;59
S20;52MMB3NO22;59
S20;52MMBANO22;272
S20;52MMSANO22;214
S20;52MOCOL316;4
S20;52MS001I20;78
S20;52OR001I21;279
S20;52PMGBOX18;8
S20;52PS0015R21;80
S20;52PSAC18;1
S20;52RBO2NO22;5
S20;52RBO3NO22;5
S20;52RIB1NO22;4
S20;52RIB2NO22;4
S20;52RIBOXNO22;180
S20;52SGENSA21GPS;77
S20;52SH006E19;157
S20;52SH006FV21;111
S20;52SH006G21;121
S20;52SH006P19;102
S20;52SMB1NO22;3
S20;52SMB2NO22;3
S20;52SMBANO22;212
S20;52SMSANO22;176
S20;52SP001I19;38
S20;52STINO22;3
S20;52TS001I22;164
S20;52TS001R21;78
S20;52WRAPNO22;7
S20;54VMWHSHOLIDAY22;1
S20;98BBGD030VE4;15
S20;98BBLC030VE5;6
S20;98BBMA010KA3;22
S20;ACPOCVEC00001;136
S20;ACPOCVEC00002;182
S20;ACPOCVEC00003;100
S20;SGOCVE600004;17
S20;SGOCVKI00214;6
S20;SGOCVKI00215;25
S20;SGOCVKI00217;19
S20;SGOCVKI00218;20
S20;SGOCVKI00219;5
S20;SGOCVKI00220;13
S20;SGOCVKI00222;14
S20;SGOCVKI00223;9
S20;SGOCVKI00225;18
S20;SGOCVKI00226;19
S20;SGOCVKI00228;15
S20;SGOCVKI00229;9
S20;SGOCVKI00231;4
S20;SGOCVKI00232;5
S20;SGOCVKI00233;13
S30000;01HD500K20;11
S10;01HDR500K20;9
S30000;01HDR500K20;11
S10;01HF100K17;7
S30000;01HF100K17;2
S10;01HN0075K19;2
S30000;01HN0075K19;10
S10;01HN075KG22H;10
S30000;01HN075KG22H;10
S10;01HV030K16;6
S30000;01HV030K16;4
S10;01LC250K17;13
S30000;01LC250K17;13
S10;01LT300K20;17
S30000;01LT300K20;15
S10;01MA030K22;37
S30000;01MA030K22;39
S10;01MA030K22H;43
S30000;01MA030K22H;33
S10;01MA030KC22H;45
S30000;01MA030KC22H;39
S10;01MA030KG22H;46
S30000;01MA030KG22H;38
S10;01MA075K22;9
S30000;01MA075K22;13
S10;01MA150K22;18
S30000;01MA150K22;25
S10;01MA150KC22H;28
S30000;01MA150KC22H;22
S10;01MA150KG22H;30
S30000;01MA150KG22H;24
S10;01MD200KG22H;44
S30000;01MD200KG22H;40
S10;01MR030K14;14
S30000;01MR030K14;16
S10;01PI030K18;1
S30000;01PI030K18;12
S10;01PI150K18;10
S30000;01PI150K18;11
S10;01RL500K20;11
S30000;01RL500K20;10
S10;01RV500K20;13
S30000;01RV500K20;17
S10;01SA050KC22H;12
S30000;01SA050KC22H;15
S10;01SA050KG22H;10
S30000;01SA050KG22H;13
S30000;01SA050KV20;2
S10;01SA100LT20;14
S30000;01SA100LT20;10
S10;01SA100LV20;11
S30000;01SA100LV20;10
S10;01SA100VE20;13
S20;SGOCVKI00235;13
S20;SGOCVKI00236;6
S20;SGOCVKI00237;8
S20;SGOCVKI00238;4
S20;SGOCVKI00239;4
S20;SGOCVKI00240;6
S20;SGOCVKI00241;6
S20;SGOCVKI00242;10
S20;SGOCVKI00243;9
S20;SGOCVKI00244;20
S21000;15SH250VA20;9
S21000;17AF100G20;17
S21000;17AS250E19;5
S21000;17AS250FV21;5
S21000;17AS250G21;4
S21000;17AS250P19;6
S21000;17AS500E19;9
S21000;17AS500FV21;9
S21000;17AS500G21;13
S21000;17AS500P19;5
S21000;17DO050F13;14
S21000;17ER075P19;4
S21000;17HB050A22;2
S21000;17HI100G19;15
S21000;17MC200G21;11
S21000;17RC500E20;10
S21000;17RC500G21;11
S21000;17RC500P19;6
S21000;17RS500E20;17
S21000;17RS500FV21;18
S21000;17RS500G21;17
S21000;17RS500P19;14
S21000;17SE100FV21;11
S21000;17SH060SE21;5
S21000;17SH060SG21;5
S21000;17SH060SP21;5
S21000;17SH075G21;14
S21000;17SH300E19;9
S21000;17SH300FV21;6
S21000;17SH300G21;4
S21000;17SH300P19;6
S21000;17SH500E19;12
S21000;17SH500FV21;12
S21000;17SH500G21;15
S21000;17SH500P19;10
S21000;17VI100P19;6
S21000;20AR075O20;5
S21000;20DO050O20;5
S21000;20DO075CD20;11
S21000;20DO130HC20;5
S10;SGOCVKI00214;9
S10;SGOCVKI00215;30
S10;SGOCVKI00217;17
S10;SGOCVKI00218;17
S10;SGOCVKI00219;6
S10;SGOCVKI00220;11
S10;SGOCVKI00222;20
S10;SGOCVKI00223;9
S10;SGOCVKI00225;17
S10;SGOCVKI00226;20
S10;SGOCVKI00228;15
S10;SGOCVKI00229;9
S10;SGOCVKI00231;6
S90000;49SH035E21;198
S90000;49TFACH18;20
S90000;49TOBACH20;67
S90000;49TOTMC20;40
S90000;49TOTWC21;90
S90000;49TRAVNO21;81
S90000;52AF006G20;99
S90000;52AS006E19;291
S90000;52AS006FV21;372
S90000;52AS006G21;303
S90000;52AS006P19;271
S90000;52BOXMM22;52
S90000;52CL0015K21;221
S90000;52CP0015I19;285
S90000;52CP006K22;291
S90000;52CV0015K22;141
S90000;52DB001I20;207
S90000;52DC0015I20;60
S90000;52DE001I21;100
S90000;52DF002I17;348
S90000;52DH001I22;352
S90000;52DL002I21;219
S90000;52DS001I20;150
S90000;52ER002I21;41
S90000;52ET001O21;78
S90000;52FP0015I19;100
S90000;52HCTM21;25
S90000;52HCTM22;32
S90000;52HD006A18;318
S90000;52HR004G17;100
S90000;52HS004A18;240
S90000;52LC006A20;391
S90000;52LGEBOX18;27
S90000;52LT002R21;69
S90000;52MA003K16A;327
S90000;52MA003K22A;331
S90000;52MC006G21;100
S90000;52MMBYNO19;85
S90000;52MOCOL316;27
S90000;52MS001I20;378
S90000;52OR001I21;234
S90000;52PMGBOX18;14
S90000;52PS0015R21;100
S90000;52SH006E19;199
S90000;52SH006FV21;284
S90000;52SH006G21;172
S90000;52SH006P19;257
S90000;52SP001I19;302
S90000;52TBO1M21;54
S90000;52TBO2M21;31
S90000;52TS001I22;187
S90000;52TS001R21;36
S90000;98BBACLUFNT1;9
S31000;01HD500K20;14
S24000;01HDR500K20;8
S31000;01HDR500K20;13
S24000;01HF100K17;4
S31000;01HF100K17;6
S24000;01HN0075K19;11
S31000;01HN0075K19;12
S24000;01HN075KG22H;10
S31000;01HN075KG22H;11
S24000;01HV030K16;4
S31000;01HV030K16;1
S24000;01LC250K17;14
S31000;01LC250K17;11
S24000;01LT300K20;17
S31000;01LT300K20;14
S24000;01MA030K22;36
S31000;01MA030K22;26
S24000;01MA030K22H;45
S31000;01MA030K22H;61
S24000;01MA030KC22H;45
S31000;01MA030KC22H;59
S24000;01MA030KG22H;46
S31000;01MA030KG22H;63
S24000;01MA075K22;18
S31000;01MA075K22;10
S24000;01MA150K22;16
S31000;01MA150K22;25
S24000;01MA150KC22H;29
S31000;01MA150KC22H;47
S24000;01MA150KG22H;28
S31000;01MA150KG22H;50
S24000;01MD200KG22H;45
S31000;01MD200KG22H;50
S24000;01MR030K14;14
S31000;01MR030K14;13
S24000;01PI030K18;11
S31000;01PI030K18;2
S24000;01PI150K18;12
S31000;01PI150K18;15
S24000;01RL500K20;2
S31000;01RL500K20;11
S24000;01RV500K20;4
S31000;01RV500K20;12
S24000;01SA050KC22H;14
S31000;01SA050KC22H;22
S24000;01SA050KG22H;13
S31000;01SA050KG22H;19
S24000;01SA050KV20;6
S24000;01SA100LT20;8
S31000;01SA100LT20;13
S24000;01SA100LV20;6
S31000;01SA100LV20;17
S20;01SA250LV20;21
S20;01SA250VE20;16
S20;01SA300KRO22;7
S20;01SA500KRO22;7
S20;01SAR500KRO22;15
S20;01SL0045K13;30
S20;01SL0045KR22;11
S20;01SL300LV20;6
S20;01SL300VE20;1
S20;01SL500LV20;7
S20;01SL500VE20;8
S20;10CACLA22;48
S20;10CRAKT22;21
S20;11AS040SG22;26
S20;11BG140CS19;10
S20;11BG140SH19;7
S20;11BG140SI19;4
S20;11BG140SL19;5
S20;11BH050A18;1
S20;11BO100CS19;18
S20;11BO100CS22H;10
S20;11BP100I19;4
S20;11BR100A20;7
S20;11CD050A18;5
S20;11CF100TR19;6
S20;11CM030H19;12
S20;11CM030H20;13
S20;11CM030O21;17
S20;11CM125I19;5
S20;11EH150A18;3
S20;11EP010H19;12
S20;11ET010H20;12
S20;11ET050H20;3
S20;11ET075O21;11
S20;11FAG10TR19;13
S20;11GD050A18;5
S20;11GD250H19;11
S20;11GD250H20;14
S20;11GD250O21;15
S20;11GE075I20;4
S20;11GM200I19;10
S20;11GN195A18;13
S20;11LB250HF22;4
S20;11LC250H19;4
S20;11LC250H20;13
S20;11LC250O21;5
S20;11LD200I19;5
S20;11LH200I19;6
S20;11LT300I20;3
S20;11MA030A20;2
S20;11MH075A19;2
S20;11MWC200I19;3
S20;11PEP050I20;4
S20;11PM100SH19;8
S28000;11LC250O21;15
S28000;11LD200I19;13
S28000;11LH200I19;14
S28000;11LT300I20;4
S28000;11MA030A20;4
S28000;11MH075A19;4
S28000;11MWC200I19;4
S28000;11PEP050I20;4
S28000;11PM100SH19;3
S28000;11PM100SI19;4
S28000;11PM100SL19;2
S28000;11SA050O21;8
S28000;11SA100H19;14
S28000;11SA100H20;14
S28000;11SD100CS19;12
S28000;11SD100SH19;13
S28000;11SD100SI19;4
S28000;11SD100SL19;8
S28000;11SH90005G21;1
S28000;11SP200CS19;12
S28000;11SP200SH19;12
S28000;11SP200SI19;4
S28000;11SP200SL19;13
S28000;11SV080I19;4
S28000;15AS250VA18;11
S28000;15BA500L16A;15
S28000;15DO050VA5;9
S28000;15ET010VB19;2
S28000;15ET100VA20;12
S28000;15ET100VB20;3
S28000;15GD250L21;7
S28000;15GD250VA20;8
S28000;15GD250VB21;9
S28000;15GD500VB21;14
S28000;15GD9000V21;1
S28000;15GM065L21;11
S28000;15GM065VB21;9
S28000;15GM280VB21;5
S28000;15GN300L21;15
S28000;15HE005L14;11
S28000;15LC250L14;12
S28000;15LC250VA20;4
S28000;15LC250VB3;8
S28000;15LM300L11;11
S28000;15MA030L21;11
S28000;15MA030VA5;3
S28000;15MA030VB3;13
S28000;15MA075L20;7
S28000;15MA075VB4;13
S28000;15ORVER22;56
S28000;15RC500VB21;12
S28000;15RG500L14;12
S29000;11LH200I19;18
S29000;11LT300I20;4
S29000;11MH075A19;5
S29000;11MWC200I19;5
S29000;11PEP050I20;5
S29000;11PM100SH19;5
S29000;11PM100SI19;6
S29000;11PM100SL19;1
S29000;11SA050O21;7
S29000;11SA100H19;14
S29000;11SA100H20;18
S29000;11SD100CS19;16
S29000;11SD100SH19;10
S29000;11SD100SI19;10
S29000;11SD100SL19;13
S29000;11SP200CS19;20
S29000;11SP200SH19;19
S29000;11SP200SI19;15
S29000;11SP200SL19;17
S29000;11SV080I19;14
S29000;15AS250VA18;19
S29000;15BA500L16A;14
S29000;15DO050VA5;20
S29000;15ET010VB19;1
S29000;15ET100VA20;3
S29000;15GD075L21;3
S29000;15GD250L21;20
S29000;15GD250VA20;14
S29000;15GD250VB21;32
S29000;15GD500VB21;19
S29000;15GM065L21;20
S29000;15GM065VB21;18
S29000;15GM280VB21;11
S29000;15GN300L21;20
S29000;15HE005L14;9
S29000;15LC250L14;11
S29000;15LC250VA20;15
S29000;15LC250VB3;21
S29000;15LM300L11;17
S29000;15MA030L21;28
S29000;15MA030VA5;17
S29000;15MA030VB3;17
S29000;15MA030VBM8;1
S29000;15MA075L20;15
S29000;15MA075VB4;20
S29000;15ORVER22;50
S29000;15RC500VB21;31
S29000;15RG500L14;26
S29000;15RG500VA20;32
S29000;15RO010VBM22;4
S29000;15SA070VB6;9
S29000;15SA075VB21;3
S90000;01BK010K14;4
S90000;01BL012K18;7
S90000;01BM050K19;7
S90000;01BP050K21;3
S90000;01BV050K16;4
S90000;01CF050K22;3
S90000;01CL050K21;8
S90000;01CL175K22;6
S90000;01CL200K17;34
S90000;01CM300K20;9
S90000;01CM500K20;13
S90000;01CMJ075K21;7
S90000;01CMR500K20;8
S90000;01CP050K22;6
S90000;01CP200K22;1
S90000;01CPR200K22;12
S90000;01CV050K18;27
S90000;01CV050K22;7
S90000;01EC200K22;14
S90000;01EM075K20;11
S90000;01EN300KB19;14
S90000;01HD250K17;5
S90000;01HD500K20;8
S90000;01HDR500K20;10
S90000;01HF100K17;4
S90000;01HN0075K19;7
S90000;01HV030K16;5
S90000;01LC500K20;1
S90000;01LT300K20;6
S90000;01MA075K18;6
S90000;01MA150K18;2
S90000;01MA150K22;4
S90000;01MR030K14;9
S90000;01PI030K18;9
S90000;01PI150K18;6
S90000;01RL500K20;11
S90000;01RV500K20;16
S90000;01SA050KV20;7
S90000;01SA100LT20;2
S90000;01SA100LV20;8
S90000;01SA100VE20;11
S90000;01SA250LT20;11
S90000;01SA250LV20;3
S90000;01SA300KRO22;14
S90000;01SA500KRO22;16
S90000;01SB020K21;10
S90000;01SE125K21;6
S90000;01SL0045K13;3
S90000;01SL300LV20;9
S90000;01SL300VE20;10
S90000;01SL500LV20;10
S90000;01SL500VE20;15
S90000;10BOWEB219;900
S30000;01SA100VE20;12
S10;01SA250LT20;18
S30000;01SA250LT20;7
S10;01SA250LV20;14
S30000;01SA250LV20;4
S10;01SA250VE20;16
S30000;01SA250VE20;11
S10;01SA300KRO22;6
S30000;01SA300KRO22;9
S10;01SA500KRO22;7
S30000;01SA500KRO22;9
S30000;01SAR500KRO22;10
S10;01SE125K21;2
S30000;01SE125K21;2
S10;01SL0045K13;18
S30000;01SL0045K13;26
S30000;01SL0045KR22;16
S10;01SL300LV20;5
S30000;01SL300LV20;6
S10;01SL300VE20;7
S30000;01SL300VE20;5
S10;01SL500LV20;6
S30000;01SL500LV20;6
S10;01SL500VE20;5
S30000;01SL500VE20;5
S10;10CACLA22;29
S30000;10CACLA22;45
S10;10CRAKT22;26
S30000;10CRAKT22;22
S10;11AS040SG22;21
S30000;11AS040SG22;17
S10;11BC100G21;4
S30000;11BC100G21;8
S10;11BG140CS19;5
S30000;11BG140CS19;4
S10;11BG140SH19;5
S30000;11BG140SH19;5
S10;11BG140SI19;5
S30000;11BG140SI19;5
S10;11BG140SL19;8
S30000;11BG140SL19;5
S10;11BH050A18;6
S30000;11BH050A18;5
S10;11BO100CS19;12
S30000;11BO100CS19;22
S10;11BO100CS22H;12
S30000;11BO100CS22H;12
S10;11BP100I19;4
S30000;11BP100I19;5
S10;11BR100A20;2
S30000;11BR100A20;4
S10;11CD050A18;5
S30000;11CD050A18;6
S10;52HD006A18;221
S10;52HS001I17;39
S10;52HS004A18;72
S10;52LABANO22;62
S10;52LASANO22;117
S10;52LC006A20;213
S10;52LGEBOX18;8
S10;52LGENSA21;124
S10;52LT002R21;193
S10;52MA003K22A;132
S10;52MC006G21;75
S10;52MGEBOX18;20
S10;52MGENSA21;55
S10;52MIBANO22;245
S10;52MMB1NO22;49
S10;52MMB2NO22;49
S10;52MMB3NO22;46
S10;52MMBANO22;287
S10;52MMSANO22;229
S10;52MS001I20;60
S10;52OR001I21;80
S10;52PMGBOX18;8
S10;52PS0015R21;76
S10;52PSAC18;1
S10;52RIB1NO22;4
S10;52RIB2NO22;4
S10;52RIBOXNO22;150
S10;52SGENSA21GPS;74
S10;52SH006E19;153
S10;52SH006FV21;243
S10;52SH006G21;55
S10;52SH006P19;108
S10;52SMBANO22;250
S10;52SMSANO22;169
S10;52SP001I19;173
S10;52STINO22;3
S10;52TS001I22;141
S10;52TS001R21;47
S10;98BBGD030VE4;14
S10;98BBLC030VE5;15
S10;98BBMA010KA3;36
S10;ACPOCVEC00001;210
S10;ACPOCVEC00002;192
S10;ACPOCVEC00003;102
S10;ACPOCVEC00004;4
S10;ACPOCVEC00005;115
S10;SGOCVE600004;1
S24000;52AF006G20;177
S24000;52AS006E19;233
S24000;52AS006FV21;87
S24000;52AS006G21;202
S24000;52AS006P19;62
S24000;52BY001I19;64
S24000;52CARDNO22;4
S24000;01SA100VE20;10
S31000;01SA100VE20;16
S24000;01SA250LT20;9
S31000;01SA250LT20;14
S24000;01SA250LV20;14
S31000;01SA250LV20;19
S24000;01SA250VE20;12
S31000;01SA250VE20;19
S24000;01SA300KRO22;9
S31000;01SA300KRO22;6
S24000;01SA500KRO22;7
S31000;01SA500KRO22;6
S31000;01SA9000KV21;1
S24000;01SAR500KRO22;10
S31000;01SAR500KRO22;14
S24000;01SB020K21;2
S24000;01SE125K21;2
S31000;01SE125K21;2
S24000;01SL0045K13;35
S31000;01SL0045K13;29
S24000;01SL0045KR22;15
S31000;01SL0045KR22;16
S24000;01SL300LV20;4
S31000;01SL300LV20;5
S24000;01SL300VE20;3
S31000;01SL300VE20;5
S24000;01SL500LV20;4
S31000;01SL500LV20;12
S24000;01SL500VE20;4
S31000;01SL500VE20;12
S24000;10CACLA22;26
S31000;10CACLA22;27
S24000;10CRAKT22;22
S31000;10CRAKT22;27
S31000;10EST250V21;25
S31000;10EST500V21;37
S31000;10P250V21;25
S31000;10P500V21;37
S24000;11AS040SG22;21
S31000;11AS040SG22;27
S31000;11AS90005G21;1
S24000;11BC100G21;16
S31000;11BC100G21;2
S24000;11BG140CS19;4
S31000;11BG140CS19;8
S24000;11BG140SH19;3
S31000;11BG140SH19;5
S24000;11BG140SI19;4
S31000;11BG140SI19;4
S24000;11BG140SL19;7
S31000;11BG140SL19;5
S24000;11BH050A18;2
S10;11CF100TR19;5
S30000;11CF100TR19;14
S10;11CM030H19;9
S30000;11CM030H19;12
S10;11CM030H20;10
S30000;11CM030H20;13
S10;11CM030O21;11
S30000;11CM030O21;14
S10;11CM125I19;3
S30000;11CM125I19;12
S10;11EH150A18;6
S30000;11EH150A18;6
S10;11EP010H19;4
S30000;11EP010H19;14
S10;11ET010H20;10
S30000;11ET010H20;15
S10;11ET050H20;4
S30000;11ET050H20;2
S10;11ET075O21;3
S30000;11ET075O21;14
S10;11FAG10TR19;12
S30000;11FAG10TR19;12
S10;11GD050A18;2
S30000;11GD050A18;5
S10;11GD250H19;10
S30000;11GD250H19;6
S10;11GD250H20;8
S30000;11GD250H20;13
S10;11GD250O21;11
S30000;11GD250O21;7
S10;11GE075I20;5
S30000;11GE075I20;4
S10;11GM200I19;12
S10;11GN195A18;12
S30000;11GN195A18;12
S30000;11HE005CS19;5
S30000;11LB250HF22;7
S10;11LC250H19;14
S30000;11LC250H19;7
S10;11LC250H20;4
S30000;11LC250H20;8
S10;11LC250O21;8
S30000;11LC250O21;7
S10;11LD200I19;8
S30000;11LD200I19;11
S10;11LH200I19;12
S30000;11LH200I19;12
S10;11LT300I20;4
S30000;11LT300I20;4
S10;11MA030A20;1
S10;11MH075A19;4
S30000;11MH075A19;5
S10;11MWC200I19;5
S30000;11MWC200I19;4
S90000;98BBGD050VE2;70
S90000;98BBHD035A0;140
S90000;98BBHD050A0;134
S90000;98BBSA050LT1;144
S90000;98BBSH035AR2;50
S90000;98BBSH050A0;71
S90000;98BBSH050AR2;86
S90000;HKOCVE6T00055;74
S90000;J9517;9
S90000;JIMPN16;56
S90000;SGOCVE600005;1
S90000;SGOCVKI00176;6
S90000;SGOCVKI00187;1
S90000;SGOCVKI00188;1
S90000;SGOCVKI00190;1
S90000;SGOCVKI00198;1
S90000;SGOCVKI00204;4
S90000;SGOCVKI00208;1
S28000;15RG500VA20;9
S28000;15SA075VB21;3
S28000;15SH250VA20;11
S28000;17AF100G20;15
S28000;17AS075G21;14
S28000;17AS250FV21;6
S28000;17AS250G21;1
S28000;17AS250P19;6
S28000;17AS500E19;14
S28000;17AS500FV21;14
S28000;17AS500G21;14
S28000;17AS500P19;6
S28000;17DO050F13;20
S28000;17ER075P19;12
S28000;17HB050A22;26
S28000;17HI001G19;58
S28000;17HI100G19;10
S28000;17MC200G21;11
S28000;17RC500E20;14
S28000;17RC500G21;16
S28000;17RC500P19;8
S28000;17RS500E20;10
S28000;17RS500FV21;21
S28000;17RS500G21;19
S28000;17RS500P19;20
S28000;17SE100FV21;13
S28000;17SH060SE21;8
S28000;17SH060SG21;5
S28000;17SH060SP21;2
S28000;17SH300E19;11
S28000;17SH300FV21;5
S28000;17SH300G21;9
S28000;17SH300P19;6
S28000;17SH500E19;12
S28000;17SH500FV21;19
S28000;17SH500G21;14
S28000;17SH500P19;14
S28000;17VI100P19;4
S28000;20AR075O20;11
S28000;20DO050O20;5
S28000;20DO075CD20;4
S28000;20DO130HC20;5
S28000;20ET075CD20;5
S28000;20ET075HC20;5
S28000;20ET075OC20;2
S28000;20GD250CD20;5
S28000;20GD250HC20;6
S28000;20GD250OC20;5
S28000;20GD500HC20;15
S28000;20HR050H20;3
S28000;20NV150H20;11
S28000;20SA050CD20;5
S29000;15SE400VB5;2
S29000;15SH250VA20;21
S29000;17AF100G20;22
S29000;17AS250E19;9
S29000;17AS250FV21;8
S29000;17AS250G21;19
S29000;17AS250P19;6
S29000;17AS500E19;15
S29000;17AS500FV21;18
S29000;17AS500G21;18
S29000;17AS500P19;8
S29000;17DO050F13;21
S29000;17ER075P19;8
S29000;17HB050A22;9
S29000;17HI001G19;166
S29000;17HI100G19;18
S29000;17MC200G21;20
S29000;17RC500E20;26
S29000;17RC500G21;40
S29000;17RC500P19;26
S29000;17RS500E20;30
S29000;17RS500FV21;32
S29000;17RS500G21;50
S29000;17RS500P19;39
S29000;17SE100FV21;25
S29000;17SH060SE21;5
S29000;17SH060SG21;4
S29000;17SH060SP21;5
S29000;17SH075G21;3
S29000;17SH300E19;13
S29000;17SH300FV21;14
S29000;17SH300G21;19
S29000;17SH300P19;15
S29000;17SH500E19;18
S29000;17SH500FV21;23
S29000;17SH500G21;27
S29000;17SH500P19;22
S29000;17VI100P19;8
S29000;20AR075O20;14
S29000;20DO050O20;13
S29000;20DO130HC20;11
S29000;20ET075CD20;4
S29000;20ET075HC20;3
S29000;20ET075OC20;3
S29000;20FE050H20;3
S29000;20GD250CD20;21
S29000;20GD250HC20;14
S29000;20GD250OC20;19
S29000;20GD500HC20;18
S29000;20HR050H20;4
S29000;20NV150H20;12
S29000;20SA050CD20;8
S29000;20SA050HC20;5
S90000;10BOWEB319;2300
S90000;10BOWEB419;1900
S90000;11AS040SG22;6
S90000;11BC100G21;5
S90000;11BG140CS19;7
S90000;11BG140SH19;9
S90000;11BG140SI19;11
S90000;11BG140SL19;12
S90000;11BH050A18;4
S90000;11BO100CS19;7
S90000;11BP100I19;8
S90000;11BR100A20;7
S90000;11CD050A18;9
S90000;11CF100TR19;8
S90000;11CM030H19;4
S90000;11CM030H20;10
S90000;11CM030O21;7
S90000;11CM125I19;7
S90000;11EH150A18;7
S90000;11EP010H19;2
S90000;11EP050H19;5
S90000;11ET010H20;10
S90000;11ET050H20;8
S90000;11ET075O21;8
S90000;11FAG10TR19;2
S90000;11GD050A18;2
S90000;11GD075O21;80
S90000;11GD250H19;6
S90000;11GD250H20;12
S90000;11GD250HF22;1
S90000;11GD250O21;3
S90000;11GE075I20;3
S90000;11GM200I19;4
S90000;11GN040A19;88
S90000;11GN195A18;2
S90000;11HE005CS19;12
S90000;11LC250H19;11
S90000;11LC250H20;12
S90000;11LC250O21;6
S90000;11LD200I19;10
S90000;11LH200I19;7
S90000;11LT300I20;10
S90000;11MA030A20;2
S90000;11MH075A19;7
S90000;11PEP050I20;3
S90000;11PM100SH19;9
S90000;11PM100SI19;8
S90000;11SA050O21;10
S90000;11SA100H19;11
S90000;11SA100H20;10
S90000;11SD100CS19;3
S90000;11SD100SH19;5
S90000;11SD100SI19;7
S31000;11BH050A18;4
S24000;11BO100CS19;13
S31000;11BO100CS19;19
S24000;11BO100CS22H;10
S31000;11BO100CS22H;23
S24000;11BP100I19;4
S31000;11BP100I19;5
S24000;11BR100A20;4
S31000;11BR100A20;3
S24000;11CD050A18;2
S31000;11CD050A18;7
S24000;11CF100TR19;2
S31000;11CF100TR19;8
S24000;11CM030H19;11
S31000;11CM030H19;11
S24000;11CM030H20;13
S31000;11CM030H20;10
S24000;11CM030O21;7
S31000;11CM030O21;15
S24000;11CM125I19;1
S24000;11EH150A18;4
S31000;11EH150A18;3
S24000;11EP010H19;5
S31000;11EP010H19;5
S24000;11ET010H20;5
S31000;11ET010H20;2
S24000;11ET050H20;3
S31000;11ET050H20;4
S24000;11ET075O21;6
S31000;11ET075O21;5
S24000;11FAG10TR19;5
S31000;11FAG10TR19;12
S24000;11GD050A18;3
S31000;11GD050A18;5
S24000;11GD250H19;11
S31000;11GD250H19;13
S24000;11GD250H20;11
S31000;11GD250H20;16
S24000;11GD250O21;11
S31000;11GD250O21;13
S24000;11GE075I20;8
S31000;11GE075I20;5
S24000;11GM200I19;3
S31000;11GM200I19;2
S24000;11GN195A18;8
S31000;11GN195A18;12
S24000;11LC250H19;5
S31000;11LC250H19;6
S24000;11LC250H20;10
S31000;11LC250H20;12
S24000;11LC250O21;9
S31000;11LC250O21;8
S24000;11LD200I19;5
S24000;52CD0015A18;63
S24000;52CL0015K21;131
S24000;52CP0015I19;119
S24000;52CP006K22;411
S24000;52CV0015K22;123
S24000;52DB001I20;137
S24000;52DC0015I20;364
S24000;52DE001I21;272
S24000;52DF002I17;253
S24000;52DH001I22;278
S24000;52DL002I21;175
S24000;52DS001I20;61
S24000;52ER002I21;443
S24000;52GD0015A18;52
S24000;52GIF1NO22;3
S24000;52GIF2NO22;3
S24000;52HD006A18;345
S24000;52HS001I17;122
S24000;52HS004A18;96
S24000;52LABANO22;77
S24000;52LASANO21;120
S24000;52LASANO22;116
S24000;52LC006A20;347
S24000;52LGEBAG19;51
S24000;52LGEBOX18;10
S24000;52LGENSA21;31
S24000;52LT002R21;87
S24000;52MA003K22A;456
S24000;52MC006G21;160
S24000;52MGEBAG19;55
S24000;52MGEBOX18;9
S24000;52MGENSA21;86
S24000;52MIBANO22;107
S24000;52MMBANO22;170
S24000;52MMSANO22;223
S24000;52MS001I20;260
S24000;52OR001I21;375
S24000;52PMGBOX18;14
S24000;52PS0015R21;123
S24000;52RIB1NO22;4
S24000;52RIB2NO22;4
S24000;52SGENSA21GPS;81
S24000;52SH006E19;204
S24000;52SH006FV21;170
S24000;52SH006G21;161
S24000;52SH006P19;125
S24000;52SMBANO22;124
S24000;52SMSANO22;171
S24000;52SP001I19;72
S24000;52STINO22;3
S24000;52TS001I22;143
S24000;52TS001R21;110
S24000;98BBGD030VE4;6
S28000;20SA050HC20;5
S28000;20SA050O20;1
S28000;24BL012CB5;16
S28000;24BL012R22;11
S28000;24BR050CB21;10
S28000;24BR050CB6;8
S28000;24BR050R22;14
S28000;24CC150R22H;6
S28000;24CM030R22H;7
S28000;24ET050R22H;29
S28000;24ET075CB21;11
S28000;24ET075R22;12
S28000;24GD250CB21;19
S28000;24GD250R22;12
S28000;24GD500R22;13
S28000;24LC250CB4;15
S28000;24LC250R22;13
S28000;24MA030CB4;19
S28000;24MA030P15;2
S28000;24MA030R22;14
S28000;24MA030RA19;9
S28000;24MA030RV19;4
S28000;24MA075CB4;14
S28000;24MA075P15;4
S28000;24MA075R22;9
S28000;24MA150R22;15
S28000;24RG500CB21;28
S28000;24RG500R22;18
S28000;24RO010CB4;12
S28000;24SA050CB21;14
S28000;24SA050R22;11
S28000;27BP050I19;2
S28000;27BY015I19;5
S28000;27CP050I19;13
S28000;27DB015I20;11
S28000;27DC050I20;16
S28000;27DCB060I17;4
S28000;27DE015I21;14
S28000;27DF125I17;8
S28000;27DH015I20;2
S28000;27DH015I22;8
S28000;27DH030I20;3
S28000;27DH030I22;14
S28000;27DL200I21;5
S28000;27DS030I20;7
S28000;27ER015I22;16
S28000;27ER050I21;11
S28000;27ER150I21;17
S28000;27EV200I19;12
S28000;27HC050I18;3
S28000;27HCR050I16;2
S28000;27HS030I18;3
S28000;27HSR030I16;4
S29000;20SA050O20;3
S29000;24BL012CB5;8
S29000;24BL012R22;8
S29000;24BR050CB21;3
S29000;24BR050CB6;9
S29000;24BR050R22;18
S29000;24ET075CB21;17
S29000;24ET075R22;13
S29000;24GD250CB21;23
S29000;24GD250R22;28
S29000;24GD500R22;22
S29000;24LC250CB4;20
S29000;24LC250R22;19
S29000;24MA030CB4;23
S29000;24MA030P15;13
S29000;24MA030R22;24
S29000;24MA030RA19;2
S29000;24MA030RV19;1
S29000;24MA075CB4;17
S29000;24MA075P15;9
S29000;24MA075R22;22
S29000;24MA150R22;16
S29000;24RG500CB21;24
S29000;24RG500R22;45
S29000;24RO010CB4;8
S29000;24SA050CB21;19
S29000;24SA050R22;16
S29000;27BP050I19;2
S29000;27BY015I19;4
S29000;27CP050I19;18
S29000;27DB015I20;18
S29000;27DC050I20;28
S29000;27DCB060I17;4
S29000;27DE015I21;20
S29000;27DF125I17;32
S29000;27DH015I20;4
S29000;27DH015I22;21
S29000;27DH030I20;4
S29000;27DH030I22;26
S29000;27DL200I21;13
S29000;27DS030I20;14
S29000;27ER015I22;23
S29000;27ER050I21;16
S29000;27ER150I21;21
S29000;27EV200I19;21
S29000;27HC050I18;4
S29000;27HCR050I16;14
S29000;27HS030I18;4
S29000;27HSR030I16;13
S29000;27MI150I20;4
S29000;27MP050I20;3
S29000;27MP150I20;16
S29000;27MQ065I15A;4
S20;11PM100SI19;6
S20;11SA050O21;6
S20;11SA100H19;14
S20;11SA100H20;13
S20;11SD100CS19;12
S20;11SD100SH19;5
S20;11SD100SI19;6
S20;11SD100SL19;4
S20;11SP200CS19;4
S20;11SP200SH19;3
S20;11SP200SI19;1
S20;11SP200SL19;5
S20;11SV080I19;2
S20;15AS250VA18;5
S20;15BA500L16A;12
S20;15DO050VA5;14
S20;15ET010VB19;4
S20;15ET100VA20;4
S20;15ET100VB20;4
S20;15GD075L21;17
S20;15GD250L21;16
S20;15GD250VA20;8
S20;15GD250VB21;12
S20;15GD500VB21;18
S20;15GM065L21;13
S20;15GM065VB21;23
S20;15GM280VB21;11
S20;15GN300L21;11
S20;15HE005L14;4
S20;15LC250L14;10
S20;15LC250VA20;3
S20;15LC250VB3;9
S20;15LM300L11;15
S20;15MA030L21;19
S20;15MA030VA5;5
S20;15MA030VB3;4
S20;15MA030VBM8;8
S20;15MA075L20;9
S20;15MA075VB4;6
S20;15ORVER22;33
S20;15RC500VB21;19
S20;15RG500L14;22
S20;15RG500VA20;18
S20;15RO010VBM22;1
S20;15SA070VB6;6
S20;15SA075VB21;4
S20;15SH250VA20;13
S20;17AF100G20;16
S20;17AS075G21;11
S20;17AS250E19;6
S20;17AS250FV21;12
S20;17AS250G21;4
S20;17AS250P19;6
S20;17AS500E19;10
S10;11PEP050I20;4
S30000;11PEP050I20;3
S10;11PM100SH19;4
S30000;11PM100SH19;5
S10;11PM100SI19;5
S10;11SA050O21;4
S30000;11SA050O21;5
S10;11SA100H19;4
S30000;11SA100H19;4
S10;11SA100H20;3
S30000;11SA100H20;12
S10;11SD100CS19;12
S30000;11SD100CS19;10
S10;11SD100SH19;5
S30000;11SD100SH19;8
S10;11SD100SI19;5
S30000;11SD100SI19;5
S10;11SD100SL19;5
S30000;11SD100SL19;5
S10;11SP200CS19;3
S30000;11SP200CS19;4
S10;11SP200SH19;6
S30000;11SP200SH19;5
S10;11SP200SI19;4
S30000;11SP200SI19;5
S10;11SP200SL19;5
S30000;11SP200SL19;4
S10;11SV080I19;5
S30000;11SV080I19;5
S10;15AS250VA18;2
S30000;15AS250VA18;5
S10;15BA500L16A;12
S30000;15BA500L16A;7
S10;15DO050VA5;14
S30000;15DO050VA5;10
S10;15ET010VB19;3
S30000;15ET010VB19;8
S10;15ET100VA20;4
S30000;15ET100VA20;3
S10;15ET100VB20;1
S30000;15ET100VB20;5
S30000;15GD075L21;18
S10;15GD250L21;12
S30000;15GD250L21;13
S10;15GD250VA20;6
S30000;15GD250VA20;5
S10;15GD250VB21;12
S30000;15GD250VB21;12
S10;15GD500VB21;16
S30000;15GD500VB21;11
S10;15GM065L21;15
S30000;15GM065L21;13
S10;15GM065VB21;14
S31000;11LD200I19;12
S24000;11LH200I19;11
S31000;11LH200I19;11
S24000;11LT300I20;4
S31000;11LT300I20;5
S24000;11MA030A20;11
S31000;11MA030A20;2
S24000;11MH075A19;8
S31000;11MH075A19;4
S24000;11MWC200I19;3
S31000;11MWC200I19;3
S24000;11PEP050I20;4
S31000;11PEP050I20;3
S24000;11PM100SH19;5
S31000;11PM100SH19;5
S24000;11PM100SI19;4
S31000;11PM100SI19;5
S24000;11SA050O21;19
S31000;11SA050O21;8
S24000;11SA100H19;12
S31000;11SA100H19;11
S24000;11SA100H20;10
S31000;11SA100H20;5
S24000;11SD100CS19;5
S31000;11SD100CS19;12
S24000;11SD100SH19;4
S31000;11SD100SH19;4
S24000;11SD100SI19;2
S31000;11SD100SI19;4
S24000;11SD100SL19;4
S31000;11SD100SL19;5
S31000;11SH90005G21;1
S24000;11SP200CS19;10
S31000;11SP200CS19;6
S24000;11SP200SH19;5
S31000;11SP200SH19;6
S24000;11SP200SI19;5
S31000;11SP200SI19;4
S24000;11SP200SL19;11
S31000;11SP200SL19;12
S24000;11SV080I19;4
S31000;11SV080I19;11
S24000;15AS250VA18;6
S31000;15AS250VA18;12
S24000;15BA500L16A;14
S31000;15BA500L16A;17
S24000;15DO050VA5;12
S31000;15DO050VA5;13
S24000;15ET010VB19;4
S24000;15ET100VA20;4
S31000;15ET100VA20;3
S24000;15ET100VB20;5
S90000;11SD100SL19;8
S90000;11SP200CS19;2
S90000;11SP200SI19;3
S90000;11SP200SL19;3
S90000;11SV080I19;7
S90000;15AS250VA18;4
S90000;15BA500L16A;15
S90000;15DF200VBL21;1
S90000;15DO050VA5;3
S90000;15ET100VA20;8
S90000;15ET100VB20;7
S90000;15GD075L15;73
S90000;15GD250L21;3
S90000;15GD250VA20;9
S90000;15GD250VB21;7
S90000;15GD500VB21;14
S90000;15GM065L21;15
S90000;15GM065VB21;15
S90000;15GM280VB21;6
S90000;15GN300L21;9
S90000;15GS150VBL22;4
S90000;15HE005L14;5
S90000;15LC070VB5;69
S90000;15LC075L15;20
S90000;15LC250L14;5
S90000;15LC250VA20;12
S90000;15LC250VB3;6
S90000;15LC250VBM22;1
S90000;15LM300L11;9
S90000;15MA030L11;3
S90000;15MA030VA5;9
S90000;15MA030VB3;9
S90000;15MA030VBL22;2
S90000;15MA030VBM8;16
S90000;15MA075L20;11
S90000;15MA075VB4;9
S90000;15RC500VB21;6
S90000;15RG500L14;6
S90000;15RG500VA20;13
S90000;15SE400VB5;6
S90000;17AF100G20;4
S90000;17AS075E19;197
S90000;17AS075FV21;67
S90000;17AS075G21;60
S90000;17AS075P19;87
S90000;17AS250E19;8
S90000;17AS250FV21;7
S90000;17AS250G21;5
S90000;17AS250P19;10
S90000;17AS500E19;6
S90000;17AS500FV21;7
S90000;17AS500G21;5
S10;SGOCVKI00232;5
S10;SGOCVKI00233;11
S10;SGOCVKI00235;13
S10;SGOCVKI00236;5
S10;SGOCVKI00237;7
S10;SGOCVKI00238;1
S10;SGOCVKI00239;4
S10;SGOCVKI00240;6
S10;SGOCVKI00241;6
S10;SGOCVKI00242;9
S10;SGOCVKI00243;8
S10;SGOCVKI00244;24
S21000;20ET075CD20;4
S21000;20ET075HC20;5
S21000;20ET075OC20;2
S21000;20FE050H20;2
S21000;20GD250CD20;16
S21000;20GD250HC20;20
S21000;20GD250OC20;15
S21000;20GD500HC20;9
S21000;20HR050H20;2
S21000;20NV150H20;10
S21000;20SA050CD20;5
S21000;20SA050HC20;5
S21000;20SA050O20;2
S21000;24BL012CB5;8
S21000;24BL012R22;8
S21000;24BR050CB21;8
S21000;24BR050R22;8
S21000;24ET075CB21;9
S21000;24ET075R22;7
S21000;24GD250CB21;14
S21000;24GD250R22;23
S21000;24GD500R22;9
S21000;24LC250CB4;11
S21000;24LC250R22;7
S21000;24MA030CB4;20
S21000;24MA030P15;10
S21000;24MA030R22;23
S21000;24MA030RA19;1
S21000;24MA030RV19;5
S21000;24MA075CB4;21
S21000;24MA075P15;7
S21000;24MA075R22;13
S21000;24MA150R22;9
S21000;24RG500CB21;12
S21000;24RG500R22;14
S21000;24RO010CB4;8
S21000;24SA050CB21;9
S21000;24SA050R22;10
S21000;52SH006E19;84
S21000;52SH006FV21;83
S21000;52SH006G21;64
S21000;52SH006P19;98
S21000;52SMBANO22;232
S21000;52SMSANO22;144
S21000;52SP001I19;168
S21000;52STINO22;3
S21000;52TS001I22;118
S21000;52TS001R21;43
S21000;98BBGD030VE4;16
S21000;98BBMA010KA3;24
S21000;ACPOCVEC00001;172
S21000;ACPOCVEC00002;157
S21000;ACPOCVEC00003;100
S21000;ACPOCVEC00005;171
S21000;SGOCVE600004;25
S27000;15LM300L11;6
S27000;15MA030L21;7
S27000;15MA030VA5;4
S27000;15MA030VB3;10
S27000;15MA030VBL22;1
S27000;15MA075L20;8
S27000;15MA075VB4;1
S27000;15ORVER22;30
S27000;15RC500VB21;12
S27000;15RG500L14;7
S27000;15RG500VA20;8
S27000;15SA070VB6;2
S27000;15SA075VB21;3
S27000;15SE400VB5;1
S27000;15SH250VA20;4
S27000;17AF100G20;14
S27000;17AS250E19;6
S27000;17AS250FV21;5
S27000;17AS250G21;6
S27000;17AS250P19;7
S27000;17AS500E19;8
S27000;17AS500FV21;9
S27000;17AS500G21;11
S27000;17AS500P19;7
S27000;17DO050F13;13
S27000;17ER075P19;7
S27000;17HB050A22;10
S27000;17HI001G19;72
S27000;17HI100G19;9
S27000;17MC200G21;11
S27000;17RC500E20;9
S27000;17RC500G21;17
S27000;17RC500P19;5
S27000;17RS500E20;15
S27000;17RS500FV21;15
S27000;17RS500G21;24
S31000;15ET100VB20;4
S24000;15GD250L21;13
S31000;15GD250L21;12
S24000;15GD250VA20;7
S31000;15GD250VA20;7
S24000;15GD250VB21;3
S31000;15GD250VB21;11
S24000;15GD500VB21;11
S31000;15GD500VB21;12
S31000;15GD9000V21;1
S24000;15GM065L21;12
S31000;15GM065L21;14
S24000;15GM065VB21;15
S31000;15GM065VB21;13
S24000;15GM280VB21;3
S31000;15GM280VB21;7
S24000;15GN300L21;11
S31000;15GN300L21;12
S24000;15GS150VBL22;4
S24000;15HE005L14;6
S31000;15HE005L14;6
S24000;15LC250L14;10
S31000;15LC250L14;13
S24000;15LC250VA20;7
S31000;15LC250VA20;5
S24000;15LC250VB3;8
S31000;15LC250VB3;11
S24000;15LM300L11;11
S31000;15LM300L11;9
S24000;15MA030L21;9
S31000;15MA030L21;11
S24000;15MA030VA5;9
S24000;15MA030VB3;5
S31000;15MA030VB3;8
S24000;15MA075L20;11
S31000;15MA075L20;13
S24000;15MA075VB4;1
S31000;15MA075VB4;4
S24000;15ORVER22;31
S31000;15ORVER22;46
S24000;15RC500VB21;16
S31000;15RC500VB21;19
S24000;15RG500L14;7
S31000;15RG500L14;16
S24000;15RG500VA20;12
S31000;15RG500VA20;13
S31000;15SA070VB6;1
S24000;15SA075VB21;2
S31000;15SA075VB21;2
S24000;15SE400VB5;3
S24000;15SH250VA20;5
S31000;15SH250VA20;10
S30000;15GM065VB21;6
S10;15GM280VB21;4
S30000;15GM280VB21;4
S30000;15GN300L11;3
S10;15GN300L21;7
S30000;15GN300L21;8
S30000;15GS150VBL22;2
S10;15HE005L14;2
S30000;15HE005L14;6
S10;15LC250L14;6
S30000;15LC250L14;7
S10;15LC250VA20;9
S30000;15LC250VA20;8
S10;15LC250VB3;8
S30000;15LC250VB3;9
S10;15LM300L11;5
S30000;15LM300L11;12
S10;15MA030L21;14
S30000;15MA030L21;15
S10;15MA030VA5;5
S30000;15MA030VA5;6
S10;15MA030VB3;7
S30000;15MA030VB3;14
S30000;15MA030VBM8;6
S10;15MA075L20;6
S30000;15MA075L20;12
S10;15MA075VB4;11
S30000;15MA075VB4;5
S10;15ORVER22;36
S30000;15ORVER22;35
S10;15RC500VB21;11
S30000;15RC500VB21;11
S10;15RG500L14;14
S30000;15RG500L14;16
S10;15RG500VA20;16
S30000;15RG500VA20;7
S10;15SA070VB6;2
S30000;15SA070VB6;1
S10;15SA075VB21;2
S30000;15SA075VB21;4
S30000;15SE400VB5;7
S10;15SH250VA20;8
S30000;15SH250VA20;1
S10;17AF100G20;12
S30000;17AF100G20;14
S10;17AS075G21;9
S10;17AS250E19;6
S30000;17AS250E19;6
S10;17AS250FV21;7
S30000;17AS250FV21;6
S10;17AS250G21;6
S30000;17AS250G21;11
S10;17AS250P19;7
S28000;27MI150I20;4
S28000;27MP050I20;31
S28000;27MP150I20;10
S28000;27MQ065I15A;3
S28000;27MS050I20;5
S28000;27OR030I21;25
S28000;27OR050I21;34
S28000;27SP030I19;4
S28000;29ASH240A20;10
S28000;29BP100A22;9
S28000;29EC200A21;13
S28000;29GE200A21;8
S28000;29HD075A15;139
S28000;29HD250A15;24
S28000;29HD500A15;35
S28000;29HD9000A21;1
S28000;29LC200A20US;30
S28000;29MA030A17;19
S28000;29MA075A21;9
S28000;29ORALM22;34
S28000;29RC200A20;24
S28000;29RH500A15;27
S28000;29SA050A21;10
S28000;29SE125A21;14
S28000;29SH240A20;12
S28000;29VC240A22;11
S28000;38BV050A19;3
S28000;38EC015A18;3
S28000;38EV075A21;10
S28000;38FT200A21;11
S28000;38MI150A22;8
S28000;38RC050A22;15
S28000;38UV030A18;11
S28000;38WC050A21;14
S28000;38WS030A21;12
S28000;49CABNO22;67
S28000;49CP020K22;27
S28000;49DC004I20;12
S28000;49DH004I20;14
S28000;49DISC3NO22;112
S28000;49HD035A15;2
S28000;49LC020A20;111
S28000;49MA010K22;27
S28000;49OR005I21;70
S28000;52AF006G20;146
S28000;52AS006E19;46
S28000;52AS006FV21;82
S28000;52AS006G21;169
S28000;52AS006P19;32
S28000;52BY001I19;148
S28000;52CARDNO22;4
S28000;52CD0015A18;47
S28000;52CL0015K21;53
S29000;27MS050I20;8
S29000;27OR030I21;25
S29000;27OR050I21;40
S29000;27SP030I19;8
S29000;29ASH240A20;24
S29000;29EC200A21;17
S29000;29GE200A21;29
S29000;29HD075A15;119
S29000;29HD250A15;23
S29000;29HD500A15;72
S29000;29HS100A22SM;17
S29000;29LC200A20US;47
S29000;29MA030A17;24
S29000;29MA075A21;26
S29000;29ORALM22;34
S29000;29RC200A20;75
S29000;29RH500A15;94
S29000;29SA050A21;11
S29000;29SE125A21;17
S29000;29SH240A20;17
S29000;29VC240A22;16
S29000;38BV050A19;5
S29000;38EC015A18;6
S29000;38EV075A21;17
S29000;38FT200A21;12
S29000;38MI150A22;8
S29000;38RC050A22;12
S29000;38UV030A18;27
S29000;38WC050A21;14
S29000;38WS030A21;14
S29000;49BO015CS19;3
S29000;49CABNO22;103
S29000;49DISC3NO22;119
S29000;49HD035A15;58
S29000;49LC020A20;119
S29000;49MA010K22;3
S29000;49OR005I21;51
S29000;49PADCL20;55
S29000;52AF006G20;163
S29000;52AS006E19;124
S29000;52AS006FV21;168
S29000;52AS006G21;203
S29000;52AS006P19;158
S29000;52BY001I19;143
S29000;52CARDNO22;4
S29000;52CD0015A18;43
S29000;52CL0015K21;33
S29000;52CP0015I19;57
S29000;52CP006K22;122
S29000;52CV0015K22;133
S29000;52DB001I20;137
S29000;52DC0015I20;150
S29000;52DE001I21;74
S24000;98BBLC030VE5;6
S24000;ACPOCVEC00001;39
S24000;ACPOCVEC00002;149
S24000;ACPOCVEC00005;241
S24000;SGOCVKI00214;4
S24000;SGOCVKI00215;17
S24000;SGOCVKI00217;20
S24000;SGOCVKI00218;20
S24000;SGOCVKI00219;2
S24000;SGOCVKI00220;11
S24000;SGOCVKI00222;20
S24000;SGOCVKI00223;7
S24000;SGOCVKI00225;18
S24000;SGOCVKI00226;19
S24000;SGOCVKI00228;6
S24000;SGOCVKI00229;8
S24000;SGOCVKI00231;4
S24000;SGOCVKI00232;3
S24000;SGOCVKI00233;13
S24000;SGOCVKI00235;12
S24000;SGOCVKI00236;5
S24000;SGOCVKI00237;9
S24000;SGOCVKI00239;2
S24000;SGOCVKI00240;2
S24000;SGOCVKI00241;6
S24000;SGOCVKI00242;8
S24000;SGOCVKI00243;2
S24000;SGOCVKI00244;20
S20;17AS500FV21;13
S20;17AS500G21;16
S20;17AS500P19;5
S20;17DO050F13;22
S20;17ER075P19;4
S20;17HB050A22;15
S20;17HI001G19;37
S20;17HI100G19;10
S20;17MC200G21;16
S20;17RC500E20;12
S20;17RC500G21;21
S20;17RC500P19;12
S20;17RS500E20;27
S20;17RS500FV21;27
S20;17RS500G21;25
S20;17RS500P19;26
S20;17SE100FV21;15
S20;17SH060SE21;6
S20;17SH060SG21;5
S20;17SH060SP21;6
S20;17SH075G21;10
S20;17SH300E19;12
S20;17SH300FV21;10
S20;17SH300G21;11
S20;17SH300P19;11
S20;17SH500E19;16
S20;17SH500FV21;21
S20;17SH500G21;17
S20;17SH500P19;14
S20;17VI100P19;2
S20;20AR075O20;13
S20;20DO050O20;11
S20;20DO075CD20;11
S20;20DO130HC20;10
S20;20ET075CD20;6
S20;20ET075HC20;6
S20;20ET075OC20;4
S20;20FE050H20;3
S20;20GD250CD20;5
S20;20GD250HC20;23
S20;20GD250OC20;12
S20;20GD500HC20;18
S20;20HR050H20;5
S20;20NV150H20;21
S20;20SA050CD20;3
S20;24BL012CB5;11
S20;24BL012R22;12
S20;24BR050CB21;5
S20;24BR050CB6;6
S20;24BR050R22;11
S20;24ET075CB21;7
S20;24ET075R22;11
S20;24GD250CB21;17
S20;24GD250R22;16
S30000;17AS250P19;6
S10;17AS500E19;6
S30000;17AS500E19;11
S10;17AS500FV21;4
S30000;17AS500FV21;5
S10;17AS500G21;10
S30000;17AS500G21;11
S10;17AS500P19;6
S30000;17AS500P19;7
S10;17DO050F13;13
S30000;17DO050F13;11
S10;17ER075P19;6
S30000;17ER075P19;6
S10;17HB050A22;14
S30000;17HB050A22;10
S10;17HI001G19;50
S30000;17HI001G19;89
S10;17HI100G19;13
S30000;17HI100G19;11
S10;17MC200G21;13
S30000;17MC200G21;10
S10;17RC500E20;8
S30000;17RC500E20;7
S10;17RC500G21;13
S30000;17RC500G21;13
S10;17RC500P19;5
S30000;17RC500P19;8
S10;17RS500E20;11
S30000;17RS500E20;12
S10;17RS500FV21;14
S30000;17RS500FV21;17
S10;17RS500G21;16
S30000;17RS500G21;17
S10;17RS500P19;11
S30000;17RS500P19;14
S10;17SE100FV21;16
S30000;17SE100FV21;15
S10;17SH060SE21;5
S30000;17SH060SE21;4
S10;17SH060SG21;5
S30000;17SH060SG21;4
S10;17SH060SP21;5
S10;17SH075E19;15
S10;17SH075G21;59
S30000;17SH075G21;26
S10;17SH300E19;3
S30000;17SH300E19;4
S10;17SH300FV21;5
S30000;17SH300FV21;14
S10;17SH300G21;9
S30000;17SH300G21;5
S10;17SH300P19;7
S30000;17SH300P19;12
S10;17SH500E19;9
S28000;52CP0015I19;113
S28000;52CP006K22;345
S28000;52CV0015K22;280
S28000;52DB001I20;154
S28000;52DC0015I20;166
S28000;52DE001I21;147
S28000;52DF002I17;276
S28000;52DH001I20;206
S28000;52DH001I22;267
S28000;52DL002I21;187
S28000;52DS001I20;42
S28000;52ER002I21;285
S28000;52FP0015I19;61
S28000;52GD0015A18;56
S28000;52GIF1NO22;3
S28000;52GIF2NO22;3
S28000;52HD006A18;339
S28000;52HS001I17;78
S28000;52HS004A18;157
S28000;52LABANO22;32
S28000;52LASANO22;149
S28000;52LC006A20;369
S28000;52LGEBAG19;25
S28000;52LGEBOX18;4
S28000;52LGENSA21;129
S28000;52LT002R21;95
S28000;52MA003K22A;214
S28000;52MC006G21;196
S28000;52MGEBOX18;5
S28000;52MGENSA21;65
S28000;52MIBANO22;240
S28000;52MMB1NO22;86
S28000;52MMB2NO22;82
S28000;52MMB3NO22;88
S28000;52MMBANO22;338
S28000;52MMSANO22;237
S28000;52MS001I20;71
S28000;52OR001I21;603
S28000;52PMGBOX18;39
S28000;52PS0015R21;94
S28000;52PSAC18;1
S28000;52RIB1NO22;4
S28000;52RIB2NO22;4
S28000;52RIBOXNO22;270
S28000;52SAMPENV18;516
S28000;52SGENSA21GPS;63
S28000;52SH006E19;136
S28000;52SH006FV21;70
S28000;52SH006G21;180
S28000;52SH006P19;88
S28000;52SMBANO22;257
S28000;52SMSANO22;150
S28000;52SP001I19;191
S28000;52STINO22;3
S28000;52TS001I22;316
S28000;52TS001R21;41
S28000;98BBMA010KA3;4
S28000;ACPOCVE7T00016;2
S24000;17AF100G20;14
S31000;17AF100G20;14
S24000;17AS075G21;11
S24000;17AS250E19;4
S31000;17AS250E19;8
S24000;17AS250FV21;10
S31000;17AS250FV21;6
S24000;17AS250G21;4
S31000;17AS250G21;6
S24000;17AS250P19;5
S31000;17AS250P19;6
S24000;17AS500E19;12
S31000;17AS500E19;13
S24000;17AS500FV21;10
S31000;17AS500FV21;12
S24000;17AS500G21;13
S31000;17AS500G21;14
S24000;17AS500P19;5
S31000;17AS500P19;5
S24000;17DO050F13;12
S31000;17DO050F13;16
S24000;17ER075P19;5
S31000;17ER075P19;10
S24000;17HB050A22;4
S31000;17HB050A22;4
S24000;17HI001G19;135
S31000;17HI001G19;80
S24000;17HI100G19;12
S31000;17HI100G19;11
S24000;17MC200G21;11
S31000;17MC200G21;12
S24000;17RC500E20;9
S31000;17RC500E20;13
S24000;17RC500G21;19
S31000;17RC500G21;15
S24000;17RC500P19;5
S31000;17RC500P19;11
S24000;17RS500E20;14
S31000;17RS500E20;12
S24000;17RS500FV21;17
S31000;17RS500FV21;18
S24000;17RS500G21;15
S31000;17RS500G21;10
S24000;17RS500P19;15
S31000;17RS500P19;21
S24000;17SE100FV21;18
S31000;17SE100FV21;15
S24000;17SH060SE21;4
S31000;17SH060SE21;5
S24000;17SH060SG21;4
S31000;17SH060SG21;5
S24000;17SH060SP21;4
S31000;17SH060SP21;6
S27000;17RS500P19;16
S27000;17SE100FV21;10
S27000;17SH060SE21;7
S27000;17SH060SG21;5
S27000;17SH060SP21;6
S27000;17SH075G21;2
S27000;17SH300E19;6
S27000;17SH300FV21;5
S27000;17SH300G21;11
S27000;17SH300P19;7
S27000;17SH500E19;15
S27000;17SH500FV21;9
S27000;17SH500G21;13
S27000;17SH500P19;17
S27000;17VI100P19;4
S27000;20AR075O20;5
S27000;20DO050O20;5
S27000;20DO075CD20;6
S27000;20DO130HC20;11
S27000;20ET075CD20;4
S27000;20ET075HC20;5
S27000;20ET075OC20;4
S27000;20FE050H20;4
S27000;20GD250CD20;6
S27000;20GD250HC20;5
S27000;20GD250OC20;5
S27000;20GD500HC20;6
S27000;20HR050H20;4
S27000;20NV150H20;10
S27000;20SA050CD20;4
S27000;20SA050HC20;6
S27000;20SA050O20;2
S27000;24BL012CB5;9
S27000;24BL012R22;9
S27000;24BR050CB6;7
S27000;24BR050R22;9
S27000;24ET075CB21;9
S27000;24ET075R22;8
S27000;24GD250CB21;16
S27000;24GD250R22;10
S27000;24GD500R22;10
S27000;24LC250CB4;13
S27000;24LC250R22;11
S27000;24MA030CB4;20
S27000;24MA030P15;2
S27000;24MA030R22;15
S27000;24MA030RA19;4
S27000;24MA030RV19;3
S27000;24MA075CB4;13
S27000;24MA075P15;5
S27000;24MA075R22;9
S27000;24MA150R22;11
S27000;24RG500CB21;13
S24000;17SH075G21;6
S31000;17SH075G21;34
S24000;17SH300E19;7
S31000;17SH300E19;11
S24000;17SH300FV21;9
S31000;17SH300FV21;7
S24000;17SH300G21;6
S31000;17SH300G21;9
S24000;17SH300P19;4
S31000;17SH300P19;6
S24000;17SH500E19;15
S31000;17SH500E19;20
S24000;17SH500FV21;16
S31000;17SH500FV21;14
S24000;17SH500G21;15
S31000;17SH500G21;14
S24000;17SH500P19;14
S31000;17SH500P19;18
S24000;17VI100P19;4
S31000;17VI100P19;6
S24000;20AR075O20;6
S31000;20AR075O20;10
S24000;20DO050O20;6
S31000;20DO050O20;11
S24000;20DO075CD20;7
S31000;20DO075CD20;7
S24000;20DO130HC20;5
S31000;20DO130HC20;7
S24000;20ET075CD20;3
S31000;20ET075CD20;4
S24000;20ET075HC20;4
S31000;20ET075HC20;4
S24000;20ET075OC20;4
S31000;20ET075OC20;4
S24000;20FE050H20;4
S31000;20FE050H20;4
S24000;20GD250CD20;5
S31000;20GD250CD20;10
S24000;20GD250HC20;10
S31000;20GD250HC20;11
S24000;20GD250OC20;11
S31000;20GD250OC20;11
S24000;20GD500HC20;6
S31000;20GD500HC20;20
S24000;20HR050H20;8
S31000;20HR050H20;4
S24000;20NV150H20;10
S31000;20NV150H20;12
S24000;20SA050CD20;4
S31000;20SA050CD20;3
S24000;20SA050HC20;3
S31000;20SA050HC20;4
S20;24GD500R22;15
S20;24LC250CB4;14
S20;24LC250R22;16
S20;24MA030CB4;25
S20;24MA030P15;4
S20;24MA030R22;16
S20;24MA030RA19;3
S20;24MA030RV19;2
S20;24MA075CB4;10
S20;24MA075P15;3
S20;24MA075R22;5
S20;24MA150R22;11
S20;24RG500CB21;39
S20;24RG500R22;31
S20;24RO010CB4;8
S20;24SA050CB21;13
S20;24SA050R22;1
S20;27BP050I19;2
S20;27BY015I19;5
S20;27CP050I19;15
S20;27DB015I20;13
S20;27DC050I20;22
S20;27DCB060I17;4
S20;27DE015I21;6
S20;27DF125I17;15
S20;27DH015I20;2
S20;27DH015I22;17
S20;27DH030I20;3
S20;27DH030I22;18
S20;27DL200I21;10
S20;27DS030I20;6
S20;27ER015I22;17
S20;27ER050I21;6
S20;27ER150I21;15
S20;27EV200I19;9
S20;27HC050I18;4
S20;27HCR050I16;8
S20;27HS030I18;5
S20;27HSR030I16;8
S20;27MI150I20;2
S20;27MP050I20;7
S20;27MP150I20;10
S20;27MQ065I15A;1
S20;27MS050I20;5
S20;27OR030I21;23
S20;27OR050I21;27
S20;27SP030I19;4
S20;29ASH240A20;8
S20;29EC200A21;8
S20;29GE200A21;23
S20;29HD075A15;65
S20;29HD250A15;21
S20;29HD500A15;45
S20;29HS100A22SM;13
S30000;17SH500E19;14
S10;17SH500FV21;6
S30000;17SH500FV21;18
S10;17SH500G21;13
S30000;17SH500G21;15
S10;17SH500P19;10
S30000;17SH500P19;15
S10;17VI100P19;6
S30000;17VI100P19;7
S10;20AR075O20;4
S30000;20AR075O20;5
S10;20DO050O20;6
S30000;20DO050O20;5
S10;20DO075CD20;5
S30000;20DO075CD20;5
S10;20DO130HC20;5
S30000;20DO130HC20;6
S10;20ET075CD20;4
S30000;20ET075CD20;5
S10;20ET075HC20;5
S30000;20ET075HC20;5
S10;20ET075OC20;5
S30000;20ET075OC20;4
S10;20FE050H20;3
S30000;20FE050H20;4
S10;20GD250CD20;9
S30000;20GD250CD20;6
S10;20GD250HC20;14
S30000;20GD250HC20;15
S10;20GD250OC20;10
S30000;20GD250OC20;6
S10;20GD500HC20;15
S30000;20GD500HC20;8
S10;20HR050H20;4
S30000;20HR050H20;5
S10;20NV150H20;13
S30000;20NV150H20;13
S10;20SA050CD20;3
S30000;20SA050CD20;4
S10;20SA050HC20;4
S30000;20SA050HC20;4
S10;24BL012CB5;12
S30000;24BL012CB5;13
S10;24BL012R22;6
S30000;24BL012R22;11
S10;24BR050CB21;4
S30000;24BR050CB21;16
S10;24BR050CB6;6
S10;24BR050R22;12
S30000;24BR050R22;18
S10;24ET075CB21;12
S30000;24ET075CB21;15
S10;24ET075R22;13
S90000;17AS500P19;15
S90000;17ER075P19;11
S90000;17HB050A22;9
S90000;17HI001G19;100
S90000;17HI100G19;4
S90000;17MC200G21;5
S90000;17RC500E20;6
S90000;17RC500G21;1
S90000;17RC500P19;18
S90000;17SE100FV21;5
S90000;17SH060SE21;7
S90000;17SH060SG21;7
S90000;17SH060SP21;8
S90000;17SH075E19;48
S90000;17SH075FV21;7
S90000;17SH075P19;4
S90000;17SH300E19;7
S90000;17SH300FV21;9
S90000;17SH300G21;8
S90000;17SH300P19;5
S90000;17SH500P19;1
S90000;17VI100P19;4
S90000;20AR075O20;9
S90000;20DO050O20;8
S90000;20DO075CD20;11
S90000;20DO130HC20;10
S90000;20ET075CD20;6
S90000;20ET075HC20;6
S90000;20ET075OC20;7
S90000;20FE050H20;14
S90000;20GD250CD20;11
S90000;20GD250HC20;6
S90000;20GD250OC20;8
S90000;20GD500HC20;11
S90000;20HR050H20;9
S90000;20NV150H20;8
S90000;20SA050CD20;9
S90000;20SA050HC20;11
S90000;20SA050O20;1
S90000;24BL012CB5;9
S90000;24BL012R22;1
S90000;24BR050R22;7
S90000;24ET075CB21;3
S90000;24ET075R22;4
S90000;24GD075CB5;32
S90000;24GD250CB21;2
S90000;24GD250R22;6
S90000;24GD500R22;11
S90000;24GM030C21;1
S90000;24LC075R22;145
S90000;24LC250CB4;2
S90000;24LC250CBL22;3
S90000;24LC250R22;3
S29000;52DF002I17;116
S29000;52DH001I20;229
S29000;52DH001I22;154
S29000;52DL002I21;154
S29000;52DS001I20;103
S29000;52ER002I21;361
S29000;52EV002I19;50
S29000;52GD0015A18;47
S29000;52GIF1NO22;2
S29000;52GIF2NO22;2
S29000;52HD006A18;176
S29000;52HS001I17;133
S29000;52HS004A18;157
S29000;52LASANO22;223
S29000;52LC006A20;150
S29000;52LGENSA21;75
S29000;52LT002R21;79
S29000;52MA003K22A;123
S29000;52MC006G21;211
S29000;52MGEBOX18;3
S29000;52MGENSA21;67
S29000;52MMB1NO22;88
S29000;52MMB2NO22;90
S29000;52MMB3NO22;88
S29000;52MMSANO22;198
S29000;52MOCOL316;2
S29000;52MS001I20;114
S29000;52OR001I21;189
S29000;52PMGBOX18;3
S29000;52PS0015R21;125
S29000;52RIB1NO22;3
S29000;52RIB2NO22;3
S29000;52RIBOXNO22;270
S29000;52SGENSA21GPS;181
S29000;52SH006E19;96
S29000;52SH006FV21;131
S29000;52SH006G21;180
S29000;52SH006P19;116
S29000;52SMSANO22;233
S29000;52SP001I19;34
S29000;52STINO22;3
S29000;52TS001I22;178
S29000;52TS001R21;41
S29000;SGOCVE600004;3
S21000;SGOCVKI00214;4
S29000;SGOCVKI00214;14
S21000;SGOCVKI00215;18
S29000;SGOCVKI00215;41
S21000;SGOCVKI00217;19
S29000;SGOCVKI00217;32
S21000;SGOCVKI00218;15
S29000;SGOCVKI00218;33
S21000;SGOCVKI00219;6
S29000;SGOCVKI00219;8
S29000;SGOCVKI00220;16
S21000;SGOCVKI00222;23
S29000;SGOCVKI00222;32
S21000;SGOCVKI00223;7
S29000;SGOCVKI00223;13
S21000;SGOCVKI00225;20
S29000;SGOCVKI00225;35
S21000;SGOCVKI00226;19
S29000;SGOCVKI00226;17
S21000;SGOCVKI00228;12
S29000;SGOCVKI00228;17
S21000;SGOCVKI00229;8
S29000;SGOCVKI00229;14
S21000;SGOCVKI00231;6
S29000;SGOCVKI00231;9
S21000;SGOCVKI00232;5
S29000;SGOCVKI00232;8
S21000;SGOCVKI00233;11
S29000;SGOCVKI00233;15
S21000;SGOCVKI00235;14
S29000;SGOCVKI00235;19
S21000;SGOCVKI00236;5
S29000;SGOCVKI00236;9
S21000;SGOCVKI00237;11
S29000;SGOCVKI00237;13
S21000;SGOCVKI00238;2
S29000;SGOCVKI00238;7
S21000;SGOCVKI00239;3
S29000;SGOCVKI00239;5
S21000;SGOCVKI00240;5
S29000;SGOCVKI00240;6
S21000;SGOCVKI00241;4
S29000;SGOCVKI00241;6
S21000;SGOCVKI00242;6
S29000;SGOCVKI00242;13
S21000;SGOCVKI00243;6
S29000;SGOCVKI00243;12
S21000;SGOCVKI00244;13
S29000;SGOCVKI00244;34
S20;29LC200A20US;37
S20;29MA030A17;21
S20;29MA075A21;3
S20;29ORALM22;33
S20;29RC200A20;43
S20;29RH500A15;47
S20;29SA050A21;11
S20;29SE125A21;17
S20;29SH240A20;5
S20;29VC240A22;12
S20;38BV050A19;7
S20;38EC015A18;5
S20;38EV075A21;14
S20;38FT200A21;11
S20;38MI150A22;7
S20;38RC050A22;9
S20;38UV030A18;16
S20;38WC050A21;5
S20;38WS030A21;8
S20;49BO015CS19;43
S20;49CABNO22;65
S27000;24RG500R22;10
S27000;24RO010CB4;8
S27000;24SA050CB21;9
S27000;24SA050R22;9
S27000;27BP050I19;1
S27000;27BY015I19;2
S27000;27CP050I19;12
S27000;27DB015I20;10
S27000;27DC050I20;17
S27000;27DCB060I17;6
S27000;27DE015I21;7
S27000;27DF125I17;20
S27000;27DH015I22;17
S27000;27DH030I20;4
S27000;27DH030I22;16
S27000;27DL200I21;6
S27000;27DS030I20;6
S27000;27ER015I22;14
S27000;27ER050I21;7
S27000;27ER150I21;11
S27000;27EV200I19;8
S27000;27FP050I19;1
S27000;27HC050I18;5
S27000;27HCR050I16;5
S27000;27HS030I18;4
S27000;27HSR030I16;4
S27000;27MI150I20;4
S27000;27MP050I20;3
S27000;27MP150I20;7
S27000;27MQ065I15A;4
S27000;27MS050I20;4
S27000;27OR030I21;19
S27000;27OR050I21;29
S27000;27SP030I19;4
S27000;29ASH240A20;3
S27000;29BP100A19;4
S27000;29EC200A21;11
S27000;29GE200A21;18
S27000;29HD075A15;73
S27000;29HD250A15;16
S27000;29HD500A15;35
S27000;29HS100A22SM;11
S27000;29LC200A20US;24
S27000;29MA030A17;19
S27000;29MA075A21;12
S27000;29ORALM22;28
S27000;29RC200A20;32
S27000;29RH500A15;41
S27000;29SA050A21;4
S27000;29SE125A21;10
S27000;29SH240A20;6
S27000;29VC240A22;12
S27000;38BV050A19;3
S90000;24MA030CBL22;3
S90000;24MA030P15;5
S90000;24MA030R22;8
S90000;24MA030RA19;9
S90000;24MA030RE19;10
S90000;24MA030RV19;8
S90000;24MA075CB4;9
S90000;24MA075P15;7
S90000;24MA075R18;24
S90000;24MA075R22;16
S90000;24MA150R22;10
S90000;24RG500CB21;15
S90000;24RG500R22;4
S90000;24SA050CB21;1
S90000;24SA050R22;8
S90000;27BP050I19;5
S90000;27BY015I19;9
S90000;27CP050I19;5
S90000;27DB015I20;5
S90000;27DCB060I17;6
S90000;27DE015I21;7
S90000;27DH015I20;3
S90000;27DH030I20;8
S90000;27DH030I22;16
S90000;27DL200I21;11
S90000;27DS030I20;10
S90000;27ER015I22;7
S90000;27ER050I21;6
S90000;27EV200I19;8
S90000;27HC050I18;5
S90000;27HCR050I16;5
S90000;27HS030I18;5
S90000;27HSR030I16;6
S90000;27MI150I20;10
S90000;27MP050I20;10
S90000;27MP150I20;16
S90000;27MQ065I15A;6
S90000;27MS050I20;9
S90000;27OR030I19;35
S90000;27SP030I19;9
S90000;27TS001I20;679
S90000;29ASH240A20;6
S90000;29BP100A22;11
S90000;29EC200A21;8
S90000;29HD075A15;6
S90000;29HS100A21;9
S90000;29LC200A20US;7
S90000;29MA030A17;7
S90000;29MA075A21;12
S90000;29RC200A20;7
S90000;29SE125A21;10
S90000;29SH075A20;128
S90000;29SH240A20;3
S24000;20SA050O20;2
S24000;24BL012CB5;12
S31000;24BL012CB5;3
S24000;24BL012R22;7
S31000;24BL012R22;2
S24000;24BR050CB21;11
S31000;24BR050CB21;7
S24000;24BR050CB6;2
S24000;24BR050R22;10
S31000;24BR050R22;4
S31000;24CC150R22H;13
S31000;24CM030R22H;29
S31000;24ET050R22H;33
S24000;24ET075CB21;8
S31000;24ET075CB21;7
S24000;24ET075R22;8
S31000;24ET075R22;4
S24000;24GD250CB21;15
S31000;24GD250CB21;11
S24000;24GD250R22;10
S31000;24GD250R22;10
S31000;24GD250R22H;20
S24000;24GD500R22;11
S31000;24GD500R22;15
S24000;24LC250CB4;8
S31000;24LC250CB4;13
S24000;24LC250R22;8
S31000;24LC250R22;13
S24000;24MA030CB4;24
S31000;24MA030CB4;12
S24000;24MA030P15;4
S31000;24MA030P15;11
S24000;24MA030R22;22
S31000;24MA030R22;8
S24000;24MA030RA19;3
S24000;24MA030RV19;4
S31000;24MA030RV19;3
S24000;24MA075CB4;15
S31000;24MA075CB4;10
S24000;24MA075P15;3
S31000;24MA075P15;2
S24000;24MA075R22;8
S31000;24MA075R22;8
S24000;24MA150R22;12
S31000;24MA150R22;12
S24000;24RG500CB21;7
S31000;24RG500CB21;15
S24000;24RG500R22;16
S31000;24RG500R22;12
S24000;24RO010CB4;8
S31000;24RO010CB4;1
S24000;24SA050CB21;10
S31000;24SA050CB21;11
S30000;24ET075R22;15
S10;24GD250CB21;12
S30000;24GD250CB21;17
S10;24GD250R22;19
S30000;24GD250R22;16
S10;24GD500R22;8
S30000;24GD500R22;11
S10;24LC250CB4;15
S30000;24LC250CB4;7
S10;24LC250R22;17
S30000;24LC250R22;15
S10;24MA030CB4;21
S30000;24MA030CB4;23
S10;24MA030P15;8
S30000;24MA030P15;3
S10;24MA030R22;19
S30000;24MA030R22;21
S10;24MA030RA19;5
S30000;24MA030RA19;4
S10;24MA030RV19;4
S30000;24MA030RV19;9
S30000;24MA030S6;13
S10;24MA075CB4;10
S30000;24MA075CB4;17
S10;24MA075P15;4
S30000;24MA075P15;12
S10;24MA075R22;8
S30000;24MA075R22;13
S10;24MA150R22;9
S30000;24MA150R22;12
S10;24RG500CB21;6
S30000;24RG500CB21;14
S10;24RG500R22;8
S30000;24RG500R22;27
S10;24RO010CB4;2
S30000;24RO010CB4;15
S10;24SA050CB21;9
S30000;24SA050CB21;13
S10;24SA050R22;10
S30000;24SA050R22;6
S10;27BP050I19;8
S30000;27BP050I19;11
S10;27BY015I19;5
S30000;27BY015I19;5
S30000;27CP050I19;10
S30000;27DB015I20;8
S30000;27DC050I20;14
S30000;27DCB060I17;4
S30000;27DE015I21;5
S30000;27DF125I17;16
S30000;27DH015I22;25
S30000;27DH030I20;5
S30000;27DH030I22;15
S30000;27DL200I21;6
S30000;27DS030I20;7
S30000;27ER015I22;18
S30000;27ER050I21;13
S30000;27ER150I21;12
S30000;27EV200I19;7
S30000;27FP050I19;2
S30000;27HC050I18;4
S30000;27HCR050I16;4
S30000;27HS030I18;4
S30000;27HSR030I16;5
S30000;27MI150I20;5
S30000;27MP050I20;18
S30000;27MP150I20;11
S30000;27MQ065I15A;4
S30000;27MS050I20;5
S30000;27OR030I21;33
S30000;27OR050I21;34
S30000;27RM300I20;1
S30000;27SP030I19;5
S30000;29ASH240A20;6
S30000;29BP100A19;5
S30000;29EC200A21;10
S30000;29GE200A21;13
S30000;29HD075A15;73
S30000;29HD250A15;27
S30000;29HD500A15;31
S30000;29HS100A22SM;15
S30000;29LC200A20US;32
S30000;29MA030A17;28
S30000;29MA075A21;17
S30000;29ORALM22;20
S30000;29RC200A20;18
S30000;29RH500A15;35
S30000;29SA050A21;14
S30000;29SE125A21;12
S30000;29SH240A20;5
S30000;29VC240A22;12
S30000;38BV050A19;5
S30000;38EC015A18;5
S30000;38EV075A21;4
S30000;38FT200A21;11
S30000;38MI150A22;8
S30000;38RC050A22;2
S30000;38UV030A18;10
S30000;38WC050A21;11
S30000;38WS030A21;11
S30000;49BO015CS19;13
S30000;49CABNO22;69
S30000;49DC004I20;3
S30000;49DH004I20;32
S30000;49DISC3NO22;73
S30000;49HD035A15;29
S90000;29VC240A16;13
S90000;29VC240A22;12
S90000;38BV050A19;10
S90000;38EC015A18;8
S90000;38EV075A21;10
S90000;38FT200A18;20
S90000;38FT200A21;10
S90000;38MI150A18;4
S90000;38MI150A22;9
S90000;38RC050A18;4
S90000;38RC050A22;6
S90000;38UV030A18;9
S90000;38WC050A18;35
S90000;38WC050A21;10
S90000;38WS030A18;22
S90000;38WS030A21;9
S90000;49AF015G20;160
S90000;49BM010K19;25
S90000;49BO015CS19;91
S90000;49CL1SA18;127
S90000;49CM010O21;66
S90000;49CM030I19;70
S90000;49CP004I19;8
S90000;49CP008I19;28
S90000;49CP020K22;26
S90000;49DB004I20;30
S90000;49DC004I20;8
S90000;49DC008I20;16
S90000;49DH004I20;51
S90000;49DH004I22;30
S90000;49HD035A15;70
S90000;49IC1POU20;14
S90000;49IC2POU20;47
S90000;49IC3POU20;27
S90000;49LD030I20;26
S90000;49LD030I21;14
S90000;49MA010A17;10
S90000;49MA010A21X;10
S90000;49MA010CB4;88
S90000;49MA010K22;39
S90000;49MA010L16;93
S90000;49MA010VB3;9
S90000;49MASKRS21;26
S90000;49MR010K14;46
S90000;49MS008I20;169
S90000;49MWC030I19;101
S90000;49OR005I21;10
S90000;49PFCWC21;40
S90000;49PI010K18;32
S90000;49PMENNO21;46
S90000;49PO1NH18;188
S90000;49PO2HER20;1
S90000;49PO2RS21;36
S24000;24SA050R22;9
S31000;24SA050R22;3
S24000;27BP050I19;1
S31000;27BP050I19;8
S24000;27BY015I19;3
S31000;27BY015I19;3
S24000;27CP050I19;9
S31000;27CP050I19;11
S24000;27DB015I20;8
S31000;27DB015I20;10
S24000;27DC050I20;9
S31000;27DC050I20;12
S24000;27DCB060I17;4
S31000;27DCB060I17;4
S24000;27DE015I21;10
S31000;27DE015I21;13
S24000;27DF125I17;15
S31000;27DF125I17;14
S24000;27DH015I22;15
S31000;27DH015I22;19
S24000;27DH030I22;11
S31000;27DH030I22;14
S24000;27DL200I21;6
S31000;27DL200I21;6
S24000;27DS030I20;4
S31000;27DS030I20;12
S24000;27ER015I22;10
S31000;27ER015I22;24
S24000;27ER050I21;5
S31000;27ER050I21;13
S24000;27ER150I21;13
S31000;27ER150I21;20
S24000;27EV200I19;7
S31000;27EV200I19;13
S24000;27HC050I18;4
S31000;27HC050I18;3
S24000;27HCR050I16;4
S31000;27HCR050I16;4
S24000;27HS030I18;4
S31000;27HS030I18;4
S24000;27HSR030I16;4
S31000;27HSR030I16;4
S24000;27MI150I20;3
S31000;27MI150I20;4
S24000;27MP050I20;5
S31000;27MP050I20;76
S24000;27MP150I20;8
S31000;27MP150I20;13
S24000;27MQ065I15A;4
S31000;27MQ065I15A;3
S24000;27MS050I20;9
S31000;27MS050I20;3
S24000;27OR030I21;20
S27000;38EC015A18;4
S27000;38EV075A21;9
S27000;38FT200A21;4
S27000;38MI150A22;14
S27000;38RC050A22;6
S27000;38UV030A18;14
S27000;38WC050A21;11
S27000;38WM065A18;1
S27000;38WS030A21;11
S27000;49CABNO22;67
S27000;49DISC3NO22;73
S27000;49HD035A15;2
S27000;49LC020A20;73
S27000;49MA010K22;3
S27000;49OR005I21;67
S27000;52AF006G20;151
S27000;52AS006E19;81
S27000;52AS006FV21;29
S27000;52AS006G21;135
S27000;52AS006P19;126
S27000;52BY001I19;203
S27000;52CARDNO22;4
S27000;52CD0015A18;37
S27000;52CL0015K21;52
S27000;52CP0015I19;91
S27000;52CP006K22;303
S27000;52CV0015K22;115
S27000;52DB001I20;128
S27000;52DC0015I20;246
S27000;52DE001I21;117
S27000;52DF002I17;72
S27000;52DH001I20;100
S27000;52DH001I22;246
S27000;52DL002I21;185
S27000;52DS001I20;100
S27000;52ER002I21;377
S27000;52FP0015I19;86
S27000;52GD0015A18;69
S27000;52GIF1NO22;3
S27000;52GIF2NO22;3
S27000;52HD006A18;348
S27000;52HS001I17;46
S27000;52HS004A18;146
S27000;52LABANO22;87
S27000;52LASANO22;112
S27000;52LC006A20;405
S27000;52LGEBAG19;57
S27000;52LGEBOX18;9
S27000;52LGENSA21;76
S27000;52LT002R21;68
S27000;52MA003K22A;195
S27000;52MC006G21;240
S27000;52MGEBOX18;14
S30000;49LC020A20;95
S30000;49MA010K22;20
S30000;49OR005I21;72
S30000;52AF006G20;111
S30000;52AS006E19;56
S30000;52AS006FV21;63
S30000;52AS006G21;128
S30000;52AS006P19;84
S30000;52BY001I19;159
S30000;52CARDNO22;4
S30000;52CD0015A18;112
S30000;52CL0015K21;119
S30000;52CP0015I19;135
S30000;52CP006K22;51
S30000;52CV0015K22;64
S30000;52DB001I20;196
S30000;52DC0015I20;165
S30000;52DE001I21;61
S30000;52DF002I17;65
S30000;52DH001I22;275
S30000;52DL002I21;96
S30000;52DS001I20;72
S30000;52ER002I21;469
S30000;52GD0015A18;110
S30000;52GIF1NO22;3
S30000;52GIF2NO22;3
S30000;52HD006A18;250
S30000;52HS001I17;105
S30000;52HS004A18;95
S30000;52LABANO22;92
S30000;52LASANO22;109
S30000;52LC006A20;308
S30000;52LGEBAG19;29
S30000;52LGEBOX18;6
S30000;52LGENSA21;113
S30000;52LT002R21;88
S30000;52MA003K22A;108
S30000;52MC006G21;130
S30000;52MGEBAG19;43
S30000;52MGEBOX18;8
S30000;52MGENSA21;128
S30000;52MIBANO22;138
S30000;52MMB1NO22;50
S30000;52MMB2NO22;47
S30000;52MMB3NO22;48
S30000;52MMBANO22;184
S30000;52MMSANO22;222
S30000;52MS001I20;62
S30000;52OR001I21;323
S30000;52PMGBOX18;7
S30000;52PS0015R21;75
S30000;52RIB1NO22;4
S30000;52RIB2NO22;4
S90000;49PO2SA19;30
S90000;49POCKNO21;125
S90000;49POU1O21;139
S90000;49POUCB21;15
S90000;49POUCH2NO21;97
S90000;49POUHE22;39
S90000;49POUID20;12
S90000;49POUIS19;23
S90000;49PWPBM22;7
S90000;49RCWM22;48
S30000;52RIBOXNO22;150
S30000;52SGENSA21GPS;70
S30000;52SH006E19;51
S30000;52SH006FV21;105
S30000;52SH006G21;92
S30000;52SH006P19;69
S30000;52SMBANO22;161
S30000;52SMSANO22;158
S30000;52SP001I19;112
S30000;52STINO22;3
S30000;52TS001I22;194
S30000;52TS001R21;168
S30000;98BBGD030VE4;11
S30000;98BBLC030VE5;17
S30000;ACPOCVEC00001;313
S30000;ACPOCVEC00002;530
S30000;ACPOCVEC00003;100
S30000;ACPOCVEC00005;200
S30000;SGOCVE600004;18
S30000;SGOCVKI00214;4
S30000;SGOCVKI00215;26
S30000;SGOCVKI00217;18
S30000;SGOCVKI00218;20
S30000;SGOCVKI00219;9
S30000;SGOCVKI00220;13
S30000;SGOCVKI00222;19
S30000;SGOCVKI00223;2
S30000;SGOCVKI00225;17
S30000;SGOCVKI00226;18
S30000;SGOCVKI00228;11
S30000;SGOCVKI00229;7
S30000;SGOCVKI00231;4
S30000;SGOCVKI00232;5
S30000;SGOCVKI00233;15
S30000;SGOCVKI00235;14
S30000;SGOCVKI00236;5
S30000;SGOCVKI00237;9
S30000;SGOCVKI00238;3
S30000;SGOCVKI00239;2
S30000;SGOCVKI00240;5
S30000;SGOCVKI00241;6
S30000;SGOCVKI00242;9
S30000;SGOCVKI00243;7
S30000;SGOCVKI00244;20
S31000;27OR030I21;20
S24000;27OR050I21;25
S31000;27OR050I21;34
S24000;27SP030I19;4
S31000;27SP030I19;5
S24000;29ASH240A20;3
S31000;29ASH240A20;5
S24000;29BP100A22;3
S31000;29BP100A22;4
S24000;29EC200A21;10
S31000;29EC200A21;13
S24000;29GE200A21;16
S31000;29GE200A21;18
S24000;29HD075A15;78
S31000;29HD075A15;101
S24000;29HD250A15;19
S31000;29HD250A15;14
S24000;29HD500A15;29
S31000;29HD500A15;19
S31000;29HD9000A21;2
S24000;29HS100A22SM;7
S31000;29HS100A22SM;13
S24000;29LC200A20US;30
S31000;29LC200A20US;23
S24000;29MA030A17;23
S31000;29MA030A17;15
S24000;29MA075A21;18
S31000;29MA075A21;13
S24000;29ORALM22;20
S31000;29ORALM22;39
S24000;29RC200A20;20
S31000;29RC200A20;22
S24000;29RH500A15;20
S31000;29RH500A15;26
S24000;29SA050A21;10
S31000;29SA050A21;13
S24000;29SE125A21;8
S31000;29SE125A21;14
S24000;29SH240A20;8
S31000;29SH240A20;9
S24000;29VC240A22;9
S31000;29VC240A22;18
S31000;38BV050A19;2
S31000;38EC015A18;2
S31000;38EV075A21;3
S31000;38FT200A21;5
S31000;38MI150A22;6
S31000;38RC050A22;5
S31000;38UV030A18;10
S31000;38WC050A21;8
S31000;38WS030A21;4
S31000;49BO015CS19;15
S31000;49CABNO22;93
S31000;49CM010O21;19
S31000;49CM030I19;7
S31000;49CP020K22;5
S31000;49DC004I20;42
S31000;49DH004I20;31
S31000;49DISC3NO22;96
S31000;49HD035A15;33
S31000;49LC020A20;95
S31000;49LD030I21;3
S31000;49MA010K22;5
S31000;49OR005I21;51
S31000;49ORALM22;7
S31000;49ORCHB22;10
S31000;49ORKAR22;7
S31000;49ORMEN22;2
S31000;52AF006G20;92
S31000;52AS006E19;133
S31000;52AS006FV21;48
S31000;52AS006G21;61
S31000;52AS006P19;65
S31000;52BY001I19;94
S31000;52CARDNO22;4
S31000;52CD0015A18;17
S31000;52CERJAR20;2
S31000;52CL0015K21;83
S31000;52CP0015I19;153
S31000;52CP006K22;242
S31000;52CRA1C22;5
S31000;52CRA2C22;5
S31000;52CRA3C22;5
S31000;52CRA4C22;5
S31000;52CV0015K22;200
S31000;52DB001I20;145
S31000;52DC0015I20;282
S31000;52DE001I21;172
S31000;52DF002I17;234
S31000;52DH001I22;252
S31000;52DL002I21;220
S31000;52DS001I20;122
S31000;52ER002I21;358
S31000;52GD0015A18;66
S31000;52GIF1NO22;3
S31000;52GIF2NO22;3
S31000;52HD006A18;415
S31000;52HKNO22;1
S31000;52HS001I17;114
S31000;52HS004A18;109
S31000;52LABANO22;43
S31000;52LASANO22;156
S31000;52LC006A20;357
S31000;52LGEBAG19;9
S31000;52LGEBOX18;6
S31000;52LGENSA21;129
S27000;52MGENSA21;78
S27000;52MIBANO22;114
S27000;52MMB1NO22;48
S27000;52MMB2NO22;43
S27000;52MMB3NO22;47
S27000;52MMBANO22;188
S27000;52MMSANO22;198
S27000;52MOCOL316;1
S27000;52MS001I20;108
S27000;52OR001I21;301
S27000;52PMGBOX18;3
S27000;52PS0015R21;65
S27000;52PSAC18;1
S27000;52RIB1NO22;4
S27000;52RIB2NO22;4
S27000;52RIBOXNO22;150
S27000;52SGENSA21GPS;71
S27000;52SH006E19;215
S27000;52SH006FV21;107
S27000;52SH006G21;205
S27000;52SH006P19;85
S27000;52SMBANO22;128
S27000;52SMSANO22;144
S27000;52SP001I19;56
S27000;52STINO22;3
S27000;52TS001I22;131
S27000;52TS001R21;93
S27000;ACPOCVEC00001;229
S27000;ACPOCVEC00002;66
S27000;ACPOCVEC00003;70
S27000;ACPOCVEC00005;171
S27000;SGOCVE600004;3
S27000;SGOCVKI00215;26
S27000;SGOCVKI00217;18
S27000;SGOCVKI00218;18
S27000;SGOCVKI00219;4
S27000;SGOCVKI00220;11
S27000;SGOCVKI00222;23
S27000;SGOCVKI00223;1
S27000;SGOCVKI00225;18
S27000;SGOCVKI00226;10
S27000;SGOCVKI00228;11
S27000;SGOCVKI00229;9
S27000;SGOCVKI00231;2
S27000;SGOCVKI00232;6
S27000;SGOCVKI00233;13
S27000;SGOCVKI00235;11
S27000;SGOCVKI00236;4
S27000;SGOCVKI00237;5
S27000;SGOCVKI00238;2
S27000;SGOCVKI00239;4
S27000;SGOCVKI00240;5
S27000;SGOCVKI00241;6
S27000;SGOCVKI00242;8
S27000;SGOCVKI00243;7
S27000;SGOCVKI00244;23
S31000;52LT002R21;68
S31000;52MA003K22A;175
S31000;52MC006G21;94
S31000;52MGEBOX18;7
S31000;52MGENSA21;98
S31000;52MIBANO22;284
S31000;52MMB1NO22;106
S31000;52MMB2NO22;103
S31000;52MMB3NO22;102
S31000;52MMBANO22;385
S31000;52MMSANO22;234
S31000;52MS001I20;96
S31000;52OR001I21;248
S31000;52PHGHTS20;1
S31000;52PMGBOX18;3
S31000;52PRBONO22;1
S31000;52PS0015R21;58
S31000;52PSAC18;1
S31000;52QUAGD22;1
S31000;52RBO2NO22;6
S31000;52RBO3NO22;6
S31000;52RIB1NO22;4
S31000;52RIB2NO22;4
S31000;52RIBOXNO22;315
S31000;52SGEBOX18;10
S31000;52SGENSA21GPS;112
S31000;52SH006E19;192
S31000;52SH006FV21;90
S31000;52SH006G21;81
S31000;52SH006P19;74
S31000;52SMB1NO22;6
S31000;52SMB2NO22;6
S31000;52SMBANO22;312
S31000;52SMSANO22;194
S31000;52SP001I19;44
S31000;52STINO22;3
S31000;52TS001I22;296
S31000;52TS001R21;62
S31000;52TSANIVISLI20;1
S31000;52TSPDIS20;3
S31000;52WRAPNO22;7
S31000;54VMHOLIDAY22;1
S31000;54VMWHSHOLIDAY22;2
S31000;98BBGD030VE4;16
S31000;98BBLC030VE5;9
S31000;98BBMA010KA3;27
S31000;ACPOCVEC00001;171
S31000;ACPOCVEC00002;313
S31000;ACPOCVEC00003;69
S31000;ACPOCVEC00005;261
S31000;SGOCVKI00214;11
S31000;SGOCVKI00215;30
S31000;SGOCVKI00217;30
S31000;SGOCVKI00218;33
S31000;SGOCVKI00220;8
S31000;SGOCVKI00222;31
S31000;SGOCVKI00223;11
S31000;SGOCVKI00225;34
S31000;SGOCVKI00226;12
S31000;SGOCVKI00228;17
S31000;SGOCVKI00229;14
S31000;SGOCVKI00231;6
S31000;SGOCVKI00232;8
S31000;SGOCVKI00233;18
S31000;SGOCVKI00235;12
S31000;SGOCVKI00236;5
S31000;SGOCVKI00237;13
S31000;SGOCVKI00238;5
S31000;SGOCVKI00239;2
S31000;SGOCVKI00240;8
S31000;SGOCVKI00241;9
S31000;SGOCVKI00242;12
S31000;SGOCVKI00243;9
S31000;SGOCVKI00244;24
