S28000;SGOCVKI00215;1
S28000;SGOCVKI00218;3
S28000;SGOCVKI00234;35
S28000;SGOCVKI00235;21
S28000;SGOCVKI00236;10
S28000;SGOCVKI00240;3
S20;SGOCVKI00217;11
S20;SGOCVKI00218;14
S20;SGOCVKI00221;1
S20;SGOCVKI00230;2
S20;SGOCVKI00234;13
S20;SGOCVKI00235;13
S20;SGOCVKI00236;12
S20;SGOCVKI00237;2
S20;SGOCVKI00239;9
S20;SGOCVKI00240;5
S20;SGOCVKI00242;9
S20;SGOCVKI00244;7
S20;01BK010K14;11
S28000;01BK010K14;16
S20;01BL012KG22H;4
S20;01BM050K23;10
S28000;01BM050K23;15
S20;01BM150K19;17
S28000;01BM150K19;28
S20;01BV050K16;12
S28000;01BV050K16;8
S20;01CD250K17;15
S28000;01CD250K17;30
S20;01CD250KC22H;5
S20;01CE200KC22H;16
S20;01CF050K22;7
S20;01CL050K21;6
S28000;01CL050K21;2
S20;01CL175K22;3
S28000;01CL175K22;6
S20;01CL200KG22H;10
S20;01CM300K20;16
S28000;01CM300K20;10
S20;01CM500K20;16
S28000;01CM500K20;9
S20;01CMJ075K21;24
S28000;01CMJ075K21;15
S20;01CMR500K20;15
S28000;01CMR500K20;12
S20;01CP100KC22H;10
S20;01CP200K22;11
S28000;01CP200K22;16
S20;01CPR200K22;16
S20;01CV050K22;7
S28000;01CV050K22;8
S20;01EC200K22;10
S28000;01EC200K22;11
S20;01EM075K20;2
S28000;01EM075K20;5
S20;01HD250K17;14
S28000;01HD250K17;7
S20;01HD500K20;16
S28000;01HD500K20;3
S20;01HDR500K20;18
S28000;01HDR500K20;1
S20;01HF100K17;5
S28000;01HF100K17;8
S20;01HN0075K19;4
S28000;01HN0075K19;15
S20;01HN075KG22H;7
S20;01HV030K16;4
S28000;01HV030K16;3
S20;01LC250K17;26
S28000;01LC250K17;20
S20;01LT300K20;12
S28000;01LT300K20;5
S21000;01BK010K14;13
S27000;01BK010K14;3
S21000;01BM050K19;1
S21000;01BM050K23;10
S27000;01BM050K23;7
S21000;01BM150K19;17
S27000;01BM150K19;6
S21000;01BV050K16;5
S27000;01BV050K16;3
S21000;01CD250K17;9
S27000;01CD250K17;8
S27000;01CD250KC22H;2
S27000;01CE200KC22H;7
S21000;01CF050K22;2
S27000;01CF050K22;9
S21000;01CL050K21;9
S27000;01CL050K21;3
S21000;01CL175K22;5
S27000;01CL175K22;9
S21000;01CL200KG22H;11
S27000;01CL200KG22H;3
S21000;01CM300K20;4
S27000;01CM300K20;7
S21000;01CM500K20;5
S27000;01CM500K20;1
S21000;01CMJ075K21;16
S27000;01CMJ075K21;4
S21000;01CMR500K20;5
S27000;01CMR500K20;5
S21000;01CP100KC22H;8
S21000;01CP200K22;6
S27000;01CP200K22;8
S21000;01CPR200K22;12
S27000;01CPR200K22;9
S21000;01CV050K22;3
S27000;01CV050K22;4
S21000;01EC200K22;10
S27000;01EC200K22;6
S21000;01EM075K20;4
S27000;01EM075K20;4
S21000;01HD250K17;4
S27000;01HD250K17;1
S21000;01HD500K20;5
S27000;01HD500K20;3
S21000;01HDR500K20;4
S27000;01HDR500K20;3
S21000;01HF100K17;10
S27000;01HF100K17;5
S21000;01HN0075K19;2
S27000;01HN0075K19;4
S21000;01HN075KG22H;6
S21000;01HV030K16;4
S27000;01HV030K16;4
S90000;49MWC030I19;101
S90000;49NOTNO22;99
S90000;49OR005I21;37
S90000;49PFCWC21;40
S90000;49PI010K18;32
S90000;49PMENNO21;46
S90000;49PO1NH18;5
S90000;49PO2HER20;1
S90000;49PO2RS21;36
S90000;49PO2SA19;30
S90000;49POBFNO22;144
S90000;49POCK1NO22;160
S90000;49POCK2NO22;6
S90000;49POCKNO21;125
S90000;49POSUCS22;80
S90000;49POU1O21;139
S90000;49POUCB21;15
S90000;49POUCH2NO21;47
S90000;49POUHE22;39
S90000;49POUID20;1
S90000;49POUIS19;23
S90000;49PWPBM22;7
S90000;49PWPBNO22;22
S90000;49RCWM22;48
S90000;49SH035E21;198
S90000;49TFACH18;19
S90000;49TOBACH20;67
S90000;49TOTMC20;40
S90000;49TOTWC21;90
S90000;49TRAVNO21;81
S90000;49TS004R21;78
S90000;52AF006G20;68
S90000;52AS006E19;275
S90000;52AS006FV21;334
S90000;52AS006G21;141
S90000;52AS006P19;235
S90000;52BOXMM22;52
S90000;52CL0015K21;221
S90000;52CP0015I19;289
S90000;52CP006K22;153
S90000;52CUSTNO22;98
S90000;52CV0015K22;163
S90000;52DB001I20;207
S90000;52DE001I21;100
S90000;52DF002I17;166
S90000;52DH001I22;410
S90000;52DL002I21;190
S90000;52ET001O21;78
S90000;52FP0015I19;100
S90000;52HCTM21;25
S90000;52HCTM22;32
S90000;52HD006A18;387
S90000;52HR004G17;100
S10;01BK010K14;9
S29000;01BK010K14;8
S29000;01BL012K18;7
S10;01BL012KC22H;3
S29000;01BL012KC22H;2
S10;01BL012KG22H;11
S10;01BM050K23;8
S29000;01BM050K23;10
S10;01BM150K19;3
S29000;01BM150K19;18
S10;01BV050K16;4
S29000;01BV050K16;1
S10;01CD250K17;8
S29000;01CD250K17;4
S10;01CE200KC22H;2
S29000;01CE200KC22H;6
S29000;01CF050K22;8
S10;01CL050K21;5
S29000;01CL050K21;5
S10;01CL175K22;7
S29000;01CL175K22;6
S10;01CL200KG22H;1
S29000;01CL200KG22H;4
S10;01CM300K20;5
S29000;01CM300K20;14
S10;01CM500K20;5
S29000;01CM500K20;6
S10;01CMJ075K21;8
S29000;01CMJ075K21;6
S10;01CMR500K20;3
S29000;01CMR500K20;21
S10;01CP200K22;3
S29000;01CP200K22;10
S10;01CPR200K22;14
S29000;01CPR200K22;22
S10;01CV050K22;1
S29000;01CV050K22;5
S10;01EC200K22;3
S29000;01EC200K22;29
S10;01EM075K20;4
S29000;01EM075K20;6
S10;01HD250K17;4
S29000;01HD250K17;13
S10;01HD500K20;5
S29000;01HD500K20;7
S10;01HDR500K20;6
S29000;01HDR500K20;19
S10;01HF100K17;4
S29000;01HF100K17;6
S29000;01HN0075K19;2
S10;01HN075KG22H;3
S29000;01HN075KG22H;5
S10;01HV030K16;6
S31000;01BK010K14;8
S31000;01BL012KC22H;6
S31000;01BL012KG22H;9
S31000;01BM050K23;4
S31000;01BM150K19;5
S31000;01BV050K16;7
S31000;01CD250K17;4
S31000;01CE200KC22H;8
S31000;01CF050K22;14
S31000;01CL050K21;2
S31000;01CL175K22;4
S31000;01CM300K20;6
S31000;01CM500K20;8
S31000;01CMJ075K21;11
S31000;01CMR500K20;8
S31000;01CP200K22;3
S31000;01CPR200K22;19
S31000;01CV050K22;1
S31000;01EC200K22;8
S31000;01EM075K20;5
S31000;01HD250K17;2
S31000;01HD500K20;5
S31000;01HDR500K20;3
S31000;01HF100K17;4
S31000;01HN0075K19;2
S31000;01HV030K16;4
S31000;01LT300K20;1
S31000;01MA030K22;11
S31000;01MA030KC22H;3
S31000;01MA030KG22H;12
S31000;01MA075K22;22
S31000;01MA150K22;14
S31000;01MA150KG22H;48
S31000;01MR150K16;8
S31000;01PI030K18;6
S31000;01PI150K18;7
S31000;01PWPKT22;5
S31000;01RV500K20;12
S31000;01SA100LT20;17
S31000;01SA100LV20;15
S31000;01SA100VE20;13
S31000;01SA250LT20;14
S31000;01SA250LV20;13
S31000;01SA250VE20;21
S31000;01SA300KRO22;7
S31000;01SA500KRO22;10
S31000;01SA9000KV21;1
S31000;01SAR500KRO22;18
S31000;01SL0045K13;8
S31000;01SL300VE20;3
S31000;01SL500LV20;4
S31000;01SL500RO20;2
S20;27DS030I20;3
S20;27ER015I22;16
S20;27ER050I21;9
S20;27ER150I21;12
S20;27EV200I19;8
S20;27HC050I18;5
S20;27HCR050I16;6
S20;27HS030I18;3
S20;27HSR030I16;5
S20;27MI150I20;4
S20;27MP050I20;68
S20;27MP150I22;13
S20;27MQ065I15A;4
S20;27MS050I20;7
S20;27OR030I21;20
S20;27OR050I21;23
S20;27SP030I19;3
S20;29ASH240A20;7
S20;29BP100A22;4
S20;29EC200A21;8
S20;29GE200A21;23
S20;29HD250A15;26
S20;29HD500A15;15
S20;29HS100A22SM;13
S20;29LC200A20US;16
S20;29MA030A17;45
S20;29MA075A21;31
S20;29RC200A20;37
S20;29RH500A15;32
S20;29SA050A21;9
S20;29SE125A21;12
S20;29SH240A20;6
S20;29VC240A22;9
S20;38BV050A19;3
S20;38EC015A18;4
S20;38EV075A21;7
S20;38FT200A21;7
S20;38MI150A22;6
S20;38RC050A22;2
S20;38UV030A18;8
S20;38WC050A21;8
S20;38WS030A21;6
S20;49BO015CS19;48
S20;49CABNO22;1
S20;49CRM2NO22;75
S20;49CUPNO22;92
S20;49DC004I20;11
S20;49DH004I20;53
S20;49LC020A20;13
S20;49MA010K22;27
S20;49OR005I21;63
S20;49ORALM22;5
S20;49ORCHB22;8
S20;49ORKAR22;5
S20;49ORMEN22;1
S24000;01BK010K14;6
S24000;01BL012KC22H;15
S24000;01BL012KG22H;2
S24000;01BM050K23;1
S24000;01BM150K19;3
S24000;01CD250K17;8
S24000;01CE200KC22H;7
S24000;01CF050K22;1
S24000;01CL050K21;2
S24000;01CL175K22;6
S24000;01CL200KG22H;14
S24000;01CM300K20;6
S24000;01CM500K20;6
S24000;01CMJ075K21;6
S24000;01CMR500K20;6
S24000;01CP100KC22H;7
S24000;01CP200K22;4
S24000;01CPR200K22;10
S24000;01CV050K22;5
S24000;01EC200K22;2
S24000;01EM075K20;1
S24000;01HD500K20;7
S24000;01HDR500K20;2
S24000;01HF100K17;2
S24000;01HN0075K19;4
S24000;01HV030K16;4
S24000;01LT300K20;11
S24000;01MA030K22;1
S24000;01MA030KC22H;1
S24000;01MA030KG22H;1
S24000;01MA150K22;3
S24000;01MA150KG22H;2
S24000;01MD200KG22H;14
S24000;01MR150K16;1
S24000;01PI030K18;2
S24000;01PI150K18;7
S24000;01RL500K20;6
S24000;01RV500K20;5
S24000;01SA050KV20;6
S24000;01SA100LT20;13
S24000;01SA100LV20;17
S24000;01SA100VE20;14
S24000;01SA250LT20;6
S24000;01SA250LV20;10
S24000;01SA250VE20;14
S24000;01SA300KRO22;5
S24000;01SA500KRO22;7
S24000;01SAR500KRO22;9
S24000;01SL0045K13;12
S24000;01SL0045KR22;9
S24000;01SL300LV20;4
S24000;01SL300VE20;1
S29000;52RIB2NO22;16
S29000;52RIBOXNO22;1214
S29000;52SGENSA21GPS;181
S29000;52SH006E19;67
S29000;52SH006FV21;47
S29000;52SH006G21;73
S29000;52SH006P19;64
S29000;52SMSANO22;177
S29000;52SP001I19;21
S29000;52STINO22;20
S29000;52TS001I22;140
S29000;52TS001R21;91
S29000;ACPOCVKA00700;33
S29000;SGOCVKI00218;2
S29000;SGOCVKI00219;1
S29000;SGOCVKI00221;3
S29000;SGOCVKI00224;1
S29000;SGOCVKI00226;1
S29000;SGOCVKI00227;1
S29000;SGOCVKI00234;21
S29000;SGOCVKI00235;30
S29000;SGOCVKI00236;16
S29000;SGOCVKI00237;5
S29000;SGOCVKI00238;4
S29000;SGOCVKI00239;8
S29000;SGOCVKI00240;6
S29000;SGOCVKI00244;1
S29000;SGOCVKI00254;2
S90000;52HS004A18;220
S90000;52LC006A20;382
S90000;52LGEBOX18;6
S90000;52LT002R21;55
S90000;52MA003K16A;327
S90000;52MA003K22A;212
S90000;52MC006G21;100
S90000;52MMB1NO22;35
S90000;52MMB3NO22;36
S90000;52MMBANO22;5
S90000;52MMBYNO19;85
S90000;52MOCOL316;33
S90000;52MS001I20;378
S90000;52PS0015R21;100
S90000;52RIBOXNO22;150
S90000;52SH006E19;116
S90000;52SH006FV21;320
S90000;52SH006P19;163
S90000;52SP001I19;302
S90000;52TBO1M21;54
S90000;52TBO2M21;31
S90000;98BBACLUFNT1;6
S90000;98BBGD030VE4;9
S90000;98BBGD050VE2;70
S90000;98BBHD035A0;140
S90000;98BBHD050A0;134
S90000;98BBLC030VE5;15
S90000;98BBSA025LT2;143
S90000;98BBSA050LT1;144
S90000;98BBSH035AR2;50
S90000;98BBSH050A0;71
S90000;98BBSH050AR2;86
S90000;ACPOCVKA00700;40
S90000;HKOCVE6T00055;28
S90000;J9517;9
S90000;JIMPN16;56
S90000;SGOCVE600005;1
S90000;SGOCVKI00176;6
S90000;SGOCVKI00187;1
S90000;SGOCVKI00188;1
S90000;SGOCVKI00190;1
S90000;SGOCVKI00198;1
S90000;SGOCVKI00204;4
S90000;SGOCVKI00208;1
S90000;SGOCVKI00215;39
S90000;SGOCVKI00216;7
S90000;SGOCVKI00219;38
S90000;SGOCVKI00220;59
S90000;SGOCVKI00221;22
S90000;SGOCVKI00222;69
S90000;SGOCVKI00223;12
S90000;SGOCVKI00224;5
S20;01MA030K22;24
S28000;01MA030K22;30
S20;01MA030KC22H;25
S20;01MA030KG22H;20
S20;01MA075K22;28
S28000;01MA075K22;1
S20;01MA150K22;35
S28000;01MA150K22;49
S20;01MA150KC22H;21
S20;01MA150KG22H;30
S20;01MD200KG22H;19
S20;01MR030K14;26
S28000;01MR030K14;39
S20;01PI030K18;4
S20;01PI150K18;11
S28000;01PI150K18;15
S20;01PWPKT22;9
S20;01RL500K20;20
S28000;01RL500K20;12
S20;01RV500K20;19
S28000;01RV500K20;15
S20;01SA050KC22H;4
S20;01SA050KG22H;5
S20;01SA100LT20;27
S28000;01SA100LT20;8
S20;01SA100LV20;27
S28000;01SA100LV20;12
S20;01SA100VE20;6
S28000;01SA100VE20;14
S20;01SA250LT20;28
S28000;01SA250LT20;12
S20;01SA250LV20;26
S28000;01SA250LV20;19
S20;01SA250VE20;21
S28000;01SA250VE20;22
S20;01SA300KRO22;11
S28000;01SA300KRO22;4
S20;01SA500KRO22;12
S28000;01SA500KRO22;12
S28000;01SA9000KV21;1
S20;01SAR500KRO22;10
S28000;01SAR500KRO22;12
S20;01SL0045K13;19
S20;01SL0045KR22;20
S20;01SL300LV20;11
S28000;01SL300LV20;3
S20;01SL300VE20;10
S28000;01SL300VE20;5
S20;01SL500LV20;11
S28000;01SL500LV20;11
S20;01SL500VE20;9
S28000;01SL500VE20;11
S28000;10CRAKT22;1
S29000;01HV030K16;4
S10;01LC250K17;12
S29000;01LC250K17;7
S10;01LT300K20;8
S29000;01LT300K20;11
S29000;01MA030K22;4
S29000;01MA030KC22H;1
S29000;01MA150K22;54
S29000;01MA150KC22H;1
S10;01MA150KG22H;10
S29000;01MA150KG22H;1
S29000;01MR030K14;3
S10;01MR150K16;1
S29000;01MR150K16;6
S10;01ORKAR22;4
S29000;01ORKAR22;4
S10;01PI030K18;3
S29000;01PI030K18;5
S10;01PI150K18;13
S29000;01PI150K18;15
S10;01PWPKT22;7
S29000;01PWPKT22;2
S10;01RL500K20;9
S29000;01RL500K20;39
S10;01RV500K20;8
S29000;01RV500K20;17
S29000;01SA050KC22H;1
S29000;01SA050KG22H;4
S29000;01SA050KV20;2
S10;01SA100LT20;9
S29000;01SA100LT20;13
S10;01SA100LV20;5
S29000;01SA100LV20;10
S10;01SA100VE20;4
S29000;01SA100VE20;14
S10;01SA250LT20;10
S29000;01SA250LT20;11
S10;01SA250LV20;12
S29000;01SA250LV20;13
S10;01SA250VE20;14
S29000;01SA250VE20;15
S10;01SA300KRO22;5
S29000;01SA300KRO22;5
S10;01SA500KRO22;6
S29000;01SA500KRO22;8
S10;01SAR500KRO22;6
S29000;01SAR500KRO22;6
S10;01SE125K21;2
S10;01SL0045K13;19
S29000;01SL0045K13;13
S10;01SL0045KR22;1
S29000;01SL0045KR22;2
S10;01SL300LV20;4
S21000;01LC250K17;19
S27000;01LC250K17;9
S21000;01LT300K20;3
S27000;01LT300K20;1
S21000;01MA030K22;109
S27000;01MA030K22;28
S21000;01MA030K22H;1
S21000;01MA030KC22H;20
S21000;01MA030KG22H;1
S21000;01MA075K22;8
S27000;01MA075K22;39
S21000;01MA150K22;23
S27000;01MA150K22;17
S21000;01MA150KC22H;3
S21000;01MA150KG22H;11
S27000;01MA150KG22H;12
S21000;01MD200KG22H;6
S27000;01MD200KG22H;18
S21000;01MR030K14;58
S27000;01MR150K16;3
S21000;01PI030K18;4
S27000;01PI030K18;5
S21000;01PI150K18;6
S27000;01PI150K18;4
S21000;01PWPKT22;15
S27000;01PWPKT22;18
S21000;01RL500K20;6
S27000;01RL500K20;5
S21000;01RV500K20;6
S21000;01SA100LT20;18
S27000;01SA100LT20;9
S21000;01SA100LV20;20
S27000;01SA100LV20;11
S21000;01SA100VE20;20
S27000;01SA100VE20;10
S21000;01SA250LT20;16
S27000;01SA250LT20;8
S21000;01SA250LV20;17
S27000;01SA250LV20;11
S21000;01SA250VE20;20
S27000;01SA250VE20;11
S21000;01SA300KRO22;5
S27000;01SA300KRO22;5
S21000;01SA500KRO22;6
S27000;01SA500KRO22;6
S21000;01SAR500KRO22;8
S27000;01SAR500KRO22;8
S21000;01SB020K21;3
S27000;01SE125K21;3
S21000;01SL0045K13;10
S27000;01SL0045K13;9
S21000;01SL0045KR22;9
S90000;SGOCVKI00225;31
S90000;SGOCVKI00226;44
S90000;SGOCVKI00227;32
S90000;SGOCVKI00228;14
S90000;SGOCVKI00229;22
S90000;SGOCVKI00230;22
S90000;SGOCVKI00231;29
S90000;SGOCVKI00232;28
S90000;SGOCVKI00233;30
S90000;SGOCVKI00234;52
S90000;SGOCVKI00235;34
S90000;SGOCVKI00236;14
S90000;SGOCVKI00237;24
S90000;SGOCVKI00239;12
S90000;SGOCVKI00240;10
S90000;SGOCVKI00241;41
S90000;SGOCVKI00242;25
S90000;SGOCVKI00243;2
S90000;SGOCVKI00244;3
S90000;SGOCVKI00245;2
S90000;SGOCVKI00246;43
S90000;SGOCVKI00248;71
S90000;SGOCVKI00254;27
S90000;SGOCVKI00255;2
S31000;01SL500VE20;7
S31000;10EST250V21;27
S31000;10EST500V21;42
S31000;10P250V21;28
S31000;10P500V21;42
S31000;11AS040SG22;22
S31000;11AS90005G21;1
S31000;11BC100G21;1
S31000;11BG140CS19;4
S31000;11BG140SI19;6
S31000;11BG140SL19;1
S31000;11BH050A18;3
S31000;11BO100CS22H;1
S31000;11BP100I19;4
S31000;11CD050A18;2
S31000;11CF100TR19;11
S31000;11CM030H20;1
S31000;11CM030O21;1
S31000;11CM125I19;6
S31000;11EH150A18;3
S31000;11EP010H19;1
S31000;11ET010H20;1
S31000;11ET050H20;1
S31000;11ET075O21;6
S31000;11FAG10TR19;14
S31000;11GD050A18;4
S31000;11GD075O21;74
S31000;11GD250H19;12
S31000;11GD250H20;17
S31000;11GD250O21;1
S31000;11GE075I20;4
S31000;11GM200I19;1
S31000;11GN195A18;8
S31000;11LC250H19;6
S31000;11LC250H20;5
S31000;11LC250O21;4
S31000;11LD200I19;1
S31000;11LH200I19;6
S31000;11LT300I20;3
S31000;11MH075A19;4
S31000;11MWC200I19;1
S31000;11PEP050I20;4
S31000;11PM100SH19;7
S31000;11PM100SI19;5
S31000;11SA050O21;8
S31000;11SA100H19;12
S31000;11SA100H20;13
S31000;11SD100CS19;1
S31000;11SD100SH19;8
S31000;11SD100SI19;3
S31000;11SD100SL19;3
S31000;11SH90005G21;1
S31000;11SP200CS19;9
S20;49POCK1NO22;64
S20;52AF006G20;83
S20;52AS006E19;106
S20;52AS006FV21;96
S20;52AS006G21;112
S20;52AS006P19;48
S20;52BY001I19;40
S20;52CARDNO22;18
S20;52CD0015A18;25
S20;52CL0015K21;72
S20;52CP0015I19;78
S20;52CP006K22;159
S20;52CRA1C22;3
S20;52CRA2C22;3
S20;52CRA3C22;3
S20;52CRA4C22;3
S20;52CV0015K22;72
S20;52DB001I20;89
S20;52DC0015I20;169
S20;52DE001I21;135
S20;52DF002I17;59
S20;52DH001I22;262
S20;52DL002I21;177
S20;52DS001I20;43
S20;52ER002I21;319
S20;52GD0015A18;21
S20;52GIF1NO22;6
S20;52GIF2NO22;6
S20;52HD006A18;233
S20;52HS001I17;77
S20;52HS004A18;105
S20;52LASANO22;243
S20;52LC006A20;294
S20;52LGEBOX18;10
S20;52LGENSA21;58
S20;52LT002R21;24
S20;52MA003K22A;221
S20;52MC006G21;89
S20;52MGEBAG19;2
S20;52MGEBOX18;11
S20;52MGENSA21;71
S20;52MMB1NO22;86
S20;52MMB2NO22;59
S20;52MMB3NO22;48
S20;52MMBANO22;192
S20;52MMSANO22;26
S20;52MOCOL316;7
S20;52MS001I20;48
S20;52OR001I21;255
S20;52PMGBOX18;7
S20;52PS0015R21;47
S20;52PSAC18;1
S20;52RBO2NO22;5
S20;52RBO3NO22;5
S20;52RIB1NO22;14
S24000;01SL500LV20;5
S24000;01SL500VE20;4
S24000;11AS040SG22;17
S24000;11BC100G21;13
S24000;11BH050A18;2
S24000;11BO100CS19;1
S24000;11BP100I19;3
S24000;11BR100A20;2
S24000;11CD050A18;4
S24000;11CF100TR19;6
S24000;11CM030H19;21
S24000;11CM030H20;15
S24000;11CM030O21;13
S24000;11CM125I19;3
S24000;11EH150A18;4
S24000;11ET010H20;4
S24000;11ET050H20;2
S24000;11ET075O21;2
S24000;11FAG10TR19;4
S24000;11GD050A18;3
S24000;11GD075O21;73
S24000;11GD250H19;23
S24000;11GD250H20;2
S24000;11GD250O21;12
S24000;11GE075I20;3
S24000;11GM200I19;12
S24000;11GN195A18;5
S24000;11LC250H19;20
S24000;11LC250H20;17
S24000;11LC250O21;13
S24000;11LD200I19;5
S24000;11LH200I19;5
S24000;11LT300I20;2
S24000;11MH075A19;8
S24000;11MWC200I19;3
S24000;11PEP050I20;4
S24000;11PM100SH19;4
S24000;11PM100SI19;3
S24000;11SA100H19;12
S24000;11SA100H20;10
S24000;11SD100CS19;3
S24000;11SD100SH19;4
S24000;11SD100SI19;5
S24000;11SP200CS19;5
S24000;11SP200SH19;2
S24000;11SP200SI19;3
S24000;11SP200SL19;3
S24000;11SV080I19;4
S24000;12GD245NO21H;5
S24000;15AS150VCL21;4
S24000;15AS250VA18;3
S24000;15BA500L16A;7
S24000;15BM500VB21;13
S00;27CN050I14;2
S21000;38BV050A19;3
S21000;38EC015A18;5
S21000;38EV075A21;7
S21000;38FT200A21;10
S21000;38MI150A22;8
S21000;38RC050A22;3
S21000;38UV030A18;7
S21000;38WC050A21;4
S21000;38WS030A21;8
S21000;49BO015CS19;81
S21000;49CABNO22;1
S21000;49CRM2NO22;108
S21000;49CUPNO22;94
S21000;49DH004I20;8
S21000;49HD035A15;12
S10;49HD035A15;27
S10;49LC020A20;30
S21000;49LC020A20;16
S21000;49MA010K22;25
S10;49MA010K22;9
S10;49OR005I21;142
S21000;49OR005I21;71
S21000;49POCK1NO22;46
S10;49POCK1NO22;43
S10;49TCMNO22;4
S10;52AF006G20;64
S21000;52AF006G20;53
S21000;52AS006E19;65
S10;52AS006E19;33
S10;52AS006FV21;77
S21000;52AS006FV21;72
S21000;52AS006G21;73
S10;52AS006G21;63
S10;52AS006P19;52
S21000;52AS006P19;81
S21000;52BY001I19;125
S10;52BY001I19;234
S10;52CARDNO22;16
S21000;52CARDNO22;11
S21000;52CD0015A18;7
S10;52CD0015A18;15
S10;52CL0015K21;184
S21000;52CL0015K21;47
S21000;52CP0015I19;100
S10;52CP0015I19;51
S10;52CP006K22;44
S21000;52CP006K22;178
S21000;52CV0015K22;178
S10;52CV0015K22;47
S10;52DB001I20;132
S21000;52DB001I20;73
S21000;52DC0015I20;125
S28000;10EST250V21;27
S28000;10EST500V21;30
S28000;10P250V21;27
S28000;10P500V21;26
S20;11AS040SG22;24
S28000;11AS040SG22;16
S28000;11AS90005G21;1
S20;11BC100G21;3
S28000;11BC100G21;8
S20;11BG140CS19;5
S28000;11BG140CS19;4
S20;11BG140SH19;13
S28000;11BG140SH19;2
S20;11BG140SI19;12
S28000;11BG140SI19;8
S20;11BH050A18;13
S28000;11BH050A18;7
S20;11BO100CS19;17
S28000;11BO100CS19;24
S20;11BP100I19;4
S28000;11BP100I19;8
S20;11BR100A20;17
S28000;11BR100A20;5
S20;11CD050A18;3
S28000;11CD050A18;3
S20;11CF100TR19;25
S28000;11CF100TR19;11
S20;11CM030H19;35
S28000;11CM030H19;32
S20;11CM030H20;11
S20;11CM030O21;25
S28000;11CM030O21;1
S20;11CM125I19;23
S28000;11CM125I19;16
S20;11EH150A18;5
S28000;11EH150A18;6
S20;11EP010H19;12
S28000;11EP010H19;6
S20;11EP050H19;4
S20;11ET010H20;12
S28000;11ET010H20;5
S20;11ET050H20;3
S28000;11ET050H20;5
S20;11ET075O21;4
S28000;11ET075O21;8
S20;11FAG10TR19;12
S28000;11FAG10TR19;9
S20;11GD050A18;3
S28000;11GD050A18;8
S20;11GD075O21;64
S28000;11GD075O21;61
S20;11GD250H19;37
S28000;11GD250H19;17
S29000;01SL300LV20;7
S10;01SL300VE20;7
S29000;01SL300VE20;6
S10;01SL500LV20;6
S29000;01SL500LV20;4
S10;01SL500RO20;1
S10;01SL500VE20;6
S29000;01SL500VE20;5
S29000;10CACLA22;1
S10;11AS040SG22;16
S29000;11AS040SG22;18
S10;11BC100G21;4
S29000;11BC100G21;5
S10;11BG140CS19;3
S29000;11BG140CS19;15
S10;11BG140SH19;2
S29000;11BG140SH19;14
S10;11BG140SI19;9
S10;11BG140SL19;6
S10;11BH050A18;2
S29000;11BH050A18;1
S10;11BO100CS19;1
S29000;11BO100CS19;6
S10;11BO100CS22H;1
S10;11BP100I19;4
S29000;11BP100I19;4
S10;11BR100A20;1
S29000;11BR100A20;2
S10;11CD050A18;5
S29000;11CD050A18;2
S10;11CF100TR19;9
S29000;11CF100TR19;7
S10;11CM030H19;17
S29000;11CM030H19;18
S10;11CM030H20;1
S29000;11CM030H20;38
S29000;11CM030O21;33
S10;11CM125I19;7
S29000;11CM125I19;1
S10;11EH150A18;6
S29000;11EH150A18;5
S10;11EP010H19;4
S29000;11EP010H19;2
S29000;11ET010H20;6
S10;11ET050H20;3
S29000;11ET050H20;4
S10;11ET075O21;3
S29000;11ET075O21;4
S10;11FAG10TR19;23
S29000;11FAG10TR19;8
S10;11GD050A18;3
S29000;11GD050A18;4
S10;11GD075O21;43
S30000;01BK010K14;11
S30000;01BL012K18;4
S30000;01BL012KC22H;5
S30000;01BM050K23;8
S30000;01BM150K19;6
S30000;01BV050K16;3
S30000;01CD250K17;4
S30000;01CD250KC22H;3
S30000;01CE200KC22H;8
S30000;01CF050K22;9
S30000;01CL050K21;8
S30000;01CL175K22;5
S30000;01CL200KG22H;7
S30000;01CM300K20;8
S30000;01CM500K20;7
S30000;01CMJ075K21;14
S30000;01CMR500K20;5
S30000;01CP100KC22H;11
S30000;01CP200K22;4
S30000;01CPR200K22;6
S30000;01CV050K22;4
S30000;01EC200K22;4
S30000;01EM075K20;4
S30000;01HD250K17;14
S30000;01HD500K20;4
S30000;01HDR500K20;2
S30000;01HF100K17;5
S30000;01HN075KG22H;2
S30000;01HV030K16;4
S30000;01LC250K17;26
S30000;01LT300K20;3
S30000;01MA030K22;39
S30000;01MA030KC22H;13
S30000;01MA030KG22H;9
S30000;01MA075K22;28
S30000;01MA150K22;19
S30000;01MA150KG22H;14
S30000;01MD200KG22H;22
S30000;01MR150K16;18
S30000;01ORKAR22;2
S30000;01PI030K18;3
S30000;01PI150K18;3
S30000;01PWPKT22;18
S30000;01RL500K20;8
S30000;01RV500K20;15
S30000;01SA100LT20;10
S30000;01SA100LV20;13
S30000;01SA100VE20;12
S30000;01SA250LT20;8
S30000;01SA250LV20;15
S30000;01SA250VE20;11
S30000;01SA300KRO22;8
S30000;01SA500KRO22;4
S90000;01BK010K14;1
S90000;01BL012K18;3
S90000;01BL012KC22H;27
S90000;01BL012KG22H;30
S90000;01BM050K19;1
S90000;01BM150K19;1
S90000;01BP050K21;1
S90000;01BV050K16;1
S90000;01CD250KC22H;20
S90000;01CE200KC22H;38
S90000;01CF050K22;1
S90000;01CL050K21;2
S90000;01CL175K22;4
S90000;01CL200K17;18
S90000;01CL200KG22H;44
S90000;01CM300K20;11
S90000;01CM500K20;1
S90000;01CMJ075K21;4
S90000;01CMR500K20;1
S90000;01CP050K22;4
S90000;01CP100KC22H;22
S90000;01CPR200K22;1
S90000;01CV050K18;19
S90000;01CV050K22;2
S90000;01EC200K17;2
S90000;01EC200K22;14
S90000;01EM075K20;9
S90000;01EN300KB19;14
S90000;01HD500K20;2
S90000;01HDR500K20;5
S90000;01HN0075K19;3
S90000;01HN075KG22H;13
S90000;01HV030K16;4
S90000;01KTPWP21;13
S90000;01LC250K17;5
S90000;01LC500K20;1
S90000;01LT300K20;6
S90000;01MA030K22H;39
S90000;01MA030KC22H;9
S90000;01MA030KG22H;43
S90000;01MA150K18;2
S90000;01MA150KC22H;52
S90000;01MA150KG22H;67
S90000;01MD200KG22H;32
S90000;01MR030K14;4
S90000;01ORKAR22;41
S90000;01PI030K18;9
S90000;01PWPKT22;22
S90000;01RL500K20;10
S90000;01RV500K20;3
S90000;01SA050KC22H;30
S90000;01SA050KG22H;21
S90000;01SA050KV20;2
S21000;01SL300LV20;3
S21000;01SL300VE20;3
S27000;01SL300VE20;6
S21000;01SL500LV20;10
S27000;01SL500LV20;5
S21000;01SL500VE20;6
S27000;01SL500VE20;6
S21000;11AS040SG22;17
S27000;11AS040SG22;16
S21000;11BC100G21;7
S27000;11BC100G21;15
S21000;11BG140CS19;9
S27000;11BG140CS19;6
S21000;11BG140SH19;6
S27000;11BG140SH19;2
S21000;11BG140SI19;7
S27000;11BG140SI19;3
S27000;11BG140SL19;1
S21000;11BH050A18;8
S27000;11BH050A18;2
S21000;11BO100CS19;15
S27000;11BO100CS19;7
S21000;11BP100I19;4
S27000;11BP100I19;4
S21000;11BR100A20;19
S27000;11BR100A20;4
S21000;11CD050A18;3
S27000;11CD050A18;4
S21000;11CF100TR19;15
S27000;11CF100TR19;5
S21000;11CM030H19;5
S27000;11CM030H19;32
S21000;11CM030H20;4
S27000;11CM030H20;32
S21000;11CM030O21;4
S27000;11CM030O21;29
S21000;11CM125I19;13
S27000;11CM125I19;9
S21000;11EH150A18;4
S27000;11EH150A18;7
S21000;11EP010H19;3
S27000;11EP010H19;3
S27000;11EP050H19;1
S21000;11ET010H20;3
S27000;11ET010H20;10
S21000;11ET050H20;3
S27000;11ET050H20;4
S21000;11ET075O21;9
S27000;11ET075O21;2
S21000;11FAG10TR19;5
S27000;11FAG10TR19;4
S21000;11GD050A18;4
S20;52RIB2NO22;14
S20;52RIBOXNO22;691
S20;52SGENSA21GPS;77
S20;52SH006E19;124
S20;52SH006FV21;75
S20;52SH006G21;88
S20;52SH006P19;105
S20;52SMB1NO22;3
S20;52SMB2NO22;3
S20;52SMSANO22;265
S20;52SP001I19;64
S20;52STINO22;14
S20;52TS001I22;178
S20;52TS001R21;69
S20;52WRAPNO22;7
S20;52YGERIB20;2
S20;54VMWHSHOLIDAY22;1
S20;98BBGD030VE4;13
S20;98BBMA010KA3;19
S20;ACPOCVEC00001;266
S20;ACPOCVEC00002;209
S20;ACPOCVEC00003;395
S20;ACPOCVEC00004;136
S20;SGOCVE600004;17
S20;11GD250H20;35
S28000;11GD250H20;20
S20;11GD250O21;26
S28000;11GD250O21;38
S20;11GE075I20;6
S28000;11GE075I20;3
S20;11GM200I19;21
S28000;11GM200I19;15
S20;11GN195A18;4
S28000;11GN195A18;14
S20;11LB250HF22;2
S20;11LC250H19;24
S28000;11LC250H19;15
S20;11LC250H20;21
S28000;11LC250H20;11
S20;11LC250O21;18
S28000;11LC250O21;31
S20;11LD200I19;9
S28000;11LD200I19;11
S20;11LH200I19;9
S28000;11LH200I19;9
S20;11LT300I20;4
S28000;11LT300I20;4
S20;11MH075A19;4
S28000;11MH075A19;3
S20;11MWC200I19;7
S28000;11MWC200I19;8
S20;11PEP050I20;4
S28000;11PEP050I20;4
S20;11PM100SH19;10
S28000;11PM100SH19;4
S20;11PM100SI19;9
S28000;11PM100SI19;5
S20;11SA050O21;6
S20;11SA100H19;14
S28000;11SA100H19;11
S20;11SA100H20;12
S28000;11SA100H20;18
S20;11SD100CS19;14
S28000;11SD100CS19;4
S20;11SD100SH19;13
S28000;11SD100SH19;2
S20;11SD100SI19;12
S28000;11SD100SI19;9
S20;11SD100SL19;8
S20;11SP200CS19;6
S28000;11SP200CS19;10
S20;11SP200SH19;10
S28000;11SP200SH19;9
S20;11SP200SI19;8
S28000;11SP200SI19;10
S20;11SP200SL19;9
S28000;11SP200SL19;9
S20;11SV080I19;4
S29000;11GD075O21;52
S10;11GD250H19;13
S29000;11GD250H19;6
S10;11GD250H20;21
S29000;11GD250H20;18
S10;11GD250O21;13
S29000;11GD250O21;29
S10;11GE075I20;4
S29000;11GE075I20;4
S10;11GM200I19;6
S29000;11GM200I19;12
S10;11GN195A18;7
S29000;11GN195A18;21
S29000;11LB250HF22;1
S10;11LC250H19;21
S29000;11LC250H19;24
S10;11LC250H20;13
S29000;11LC250H20;3
S10;11LC250O21;17
S29000;11LC250O21;50
S10;11LD200I19;5
S29000;11LD200I19;11
S10;11LH200I19;9
S29000;11LH200I19;9
S10;11LT300I20;5
S29000;11LT300I20;4
S10;11MH075A19;5
S29000;11MH075A19;1
S10;11MWC200I19;4
S29000;11MWC200I19;3
S10;11PEP050I20;8
S29000;11PEP050I20;5
S10;11PM100SH19;4
S29000;11PM100SH19;3
S10;11PM100SI19;4
S29000;11PM100SI19;2
S10;11SA100H19;8
S29000;11SA100H19;7
S10;11SA100H20;6
S10;11SD100CS19;12
S29000;11SD100CS19;8
S10;11SD100SH19;15
S29000;11SD100SH19;10
S10;11SD100SI19;10
S29000;11SD100SI19;6
S10;11SD100SL19;1
S29000;11SD100SL19;3
S29000;11SP200CS19;8
S10;11SP200CS19;4
S10;11SP200SH19;8
S29000;11SP200SH19;10
S29000;11SP200SI19;8
S10;11SP200SI19;3
S31000;11SP200SH19;8
S31000;11SP200SI19;8
S31000;11SP200SL19;7
S31000;11SV080I19;6
S31000;12GD245NO21H;20
S31000;12LC250NO22;5
S31000;15AS250VA18;6
S31000;15BA500L16A;8
S31000;15BM500VB21;14
S31000;15ET010VB19;4
S31000;15ET100VA20;5
S31000;15ET100VB20;7
S31000;15GD070VB21;79
S31000;15GD250L21;18
S31000;15GD250VA20;9
S31000;15GD250VB21;5
S31000;15GD250VBL22;13
S31000;15GD500VB21;4
S31000;15GD9000V21;1
S31000;15GM065L21;27
S31000;15GM065VB21;29
S31000;15GM280VB21;5
S31000;15GN300L21;4
S31000;15HE005L14;5
S31000;15LC250L14;5
S31000;15LC250VA20;5
S31000;15LC250VB3;1
S31000;15LM300L11;4
S31000;15MA030L21;15
S31000;15MA030VA5;1
S31000;15MA030VB3;11
S31000;15ORVER22;1
S31000;15RB500L17;8
S31000;15RC500VB21;6
S31000;15RG500L14;10
S31000;15RG500VA20;7
S31000;15SA070VB6;1
S31000;15SA075VB21;3
S31000;15SH250VA20;6
S31000;17AF100G20;6
S31000;17AS250E19;6
S31000;17AS250FV21;5
S31000;17AS250G18;5
S31000;17AS250G21;2
S31000;17AS250P19;6
S31000;17AS500E19;5
S31000;17AS500FV21;5
S31000;17AS500G21;4
S31000;17AS500P19;4
S31000;17DO050F13;10
S31000;17ER075P19;5
S31000;17HB050A22;11
S10;52DC0015I20;90
S10;52DE001I21;96
S21000;52DE001I21;159
S21000;52DF002I17;135
S10;52DF002I17;298
S10;52DH001I22;91
S21000;52DH001I22;259
S21000;52DL002I21;164
S10;52DL002I21;175
S10;52DS001I20;25
S21000;52DS001I20;97
S21000;52ER002I21;131
S10;52ER002I21;487
S10;52GD0015A18;62
S21000;52GD0015A18;52
S21000;52GIF1NO22;6
S10;52GIF1NO22;6
S10;52GIF2NO22;6
S21000;52GIF2NO22;6
S21000;52HD006A18;160
S10;52HD006A18;256
S10;52HS001I17;81
S21000;52HS001I17;80
S21000;52HS004A18;132
S10;52HS004A18;79
S10;52LABANO22;4
S21000;52LABANO22;121
S21000;52LASANO22;270
S10;52LASANO22;356
S10;52LC006A20;163
S21000;52LC006A20;279
S21000;52LGEBAG19;52
S21000;52LGEBOX18;12
S10;52LGEBOX18;10
S10;52LGENSA21;124
S21000;52LGENSA21;80
S10;52LT002R21;89
S10;52MA003K22A;68
S21000;52MA003K22A;128
S21000;52MC006G21;87
S10;52MC006G21;37
S21000;52MGEBAG19;15
S21000;52MGEBOX18;9
S10;52MGEBOX18;19
S10;52MGENSA21;55
S21000;52MGENSA21;33
S21000;52MMB1NO22;95
S10;52MMB1NO22;40
S10;52MMB2NO22;35
S21000;52MMB2NO22;83
S21000;52MMB3NO22;64
S10;52MMB3NO22;34
S10;52MMBANO22;121
S21000;52MMBANO22;122
S30000;01SAR500KRO22;9
S30000;01SL0045K13;8
S30000;01SL300LV20;4
S30000;01SL300VE20;2
S30000;01SL500LV20;6
S30000;01SL500RO20;2
S30000;01SL500VE20;6
S30000;10CRAKT22;6
S30000;11AS040SG22;15
S30000;11BC100G21;6
S30000;11BG140CS19;10
S30000;11BG140SH19;7
S30000;11BG140SI19;5
S30000;11BG140SL19;2
S30000;11BH050A18;2
S30000;11BO100CS19;11
S30000;11BP100I19;4
S30000;11BR100A20;5
S30000;11CD050A18;4
S30000;11CF100TR19;17
S30000;11CM030H19;25
S30000;11CM030H20;38
S30000;11CM030O21;12
S30000;11CM125I19;16
S30000;11EH150A18;4
S30000;11EP010H19;2
S30000;11ET010H20;8
S30000;11ET050H20;4
S30000;11ET075O21;6
S30000;11FAG10TR19;4
S30000;11GD050A18;9
S30000;11GD075O21;40
S30000;11GD250H19;13
S30000;11GD250H20;29
S30000;11GE075I20;4
S30000;11GM200I19;12
S30000;11GN195A18;6
S30000;11HE005CS19;3
S30000;11LB250HF22;3
S30000;11LC250H19;7
S30000;11LC250H20;8
S30000;11LC250O21;8
S30000;11LD200I19;6
S30000;11LH200I19;7
S30000;11LT300I20;4
S30000;11MH075A19;3
S30000;11MWC200I19;4
S30000;11PEP050I20;2
S30000;11PM100SH19;3
S30000;11PM100SI19;4
S30000;11SA050O21;12
S30000;11SA100H19;6
S27000;11GD050A18;2
S21000;11GD075O21;46
S27000;11GD075O21;36
S21000;11GD250H19;18
S27000;11GD250H19;15
S21000;11GD250H20;19
S27000;11GD250H20;24
S21000;11GD250O21;22
S27000;11GD250O21;6
S21000;11GE075I20;3
S27000;11GE075I20;5
S21000;11GM200I19;5
S27000;11GM200I19;12
S21000;11GN195A18;7
S27000;11GN195A18;4
S21000;11LC250H19;8
S27000;11LC250H19;7
S21000;11LC250H20;18
S27000;11LC250H20;8
S21000;11LC250O21;10
S27000;11LC250O21;11
S21000;11LD200I19;9
S27000;11LD200I19;7
S21000;11LH200I19;10
S27000;11LH200I19;7
S21000;11LT300I20;6
S27000;11LT300I20;5
S21000;11MH075A19;3
S27000;11MH075A19;4
S21000;11MWC200I19;9
S27000;11MWC200I19;5
S21000;11PEP050I20;4
S21000;11PM100SH19;6
S27000;11PM100SH19;4
S21000;11PM100SI19;2
S27000;11PM100SI19;4
S27000;11SA050O21;17
S21000;11SA100H19;9
S27000;11SA100H19;19
S21000;11SA100H20;9
S27000;11SA100H20;31
S21000;11SD100CS19;9
S27000;11SD100CS19;4
S21000;11SD100SH19;7
S27000;11SD100SH19;8
S21000;11SD100SI19;7
S27000;11SD100SI19;5
S21000;11SD100SL19;4
S27000;11SD100SL19;3
S21000;11SP200CS19;5
S27000;11SP200CS19;5
S21000;11SP200SH19;8
S27000;11SP200SH19;4
S24000;15ET010VB19;4
S24000;15ET100VA20;3
S24000;15ET100VB20;4
S24000;15ET100VCL21;2
S24000;15GD070VB21;44
S24000;15GD250L21;18
S24000;15GD250VBL22;15
S24000;15GM065L21;15
S24000;15GM065VB21;16
S24000;15GM280VB21;4
S24000;15GN300L21;4
S24000;15HE005L14;5
S24000;15LC250L14;16
S24000;15LC250VB3;3
S24000;15LM300L11;5
S24000;15MA030L21;8
S24000;15MA030VA5;1
S24000;15MA030VB3;1
S24000;15MA075L20;16
S24000;15MF075VM20H;5
S24000;15RB500L17;9
S24000;15RC500VB21;3
S24000;15RG500L14;6
S24000;15RG500VA20;8
S24000;15RO010VBM22;24
S24000;15SA075VB21;2
S24000;15SE400VB5;1
S24000;15SH250VA20;1
S24000;17AF100G20;3
S24000;17AS075G21;11
S24000;17AS250E19;5
S24000;17AS250FV21;2
S24000;17AS250G18;4
S24000;17AS250G21;3
S24000;17AS250P19;3
S24000;17AS500E19;6
S24000;17AS500FV21;6
S24000;17AS500G21;1
S24000;17AS500P19;4
S24000;17DO050F13;13
S24000;17ER075P19;4
S24000;17HB050A22;8
S24000;17HI001G19;100
S24000;17HI100G19;8
S24000;17MC200G21;4
S24000;17RC500E20;6
S24000;17RC500G18;5
S24000;17RC500G21;5
S24000;17RC500P19;4
S24000;17RS500FV21;7
S24000;17RS500G21;9
S24000;17RS500P19;11
S24000;17SE100FV21;6
S90000;01SA100LT20;14
S90000;01SA100LV20;9
S90000;01SA100VE20;9
S90000;01SA250LT20;10
S90000;01SA250LV20;7
S90000;01SA250VE20;2
S90000;01SA300KRO22;11
S90000;01SA500KRO22;12
S90000;01SAR500KRO22;7
S90000;01SE125K21;1
S90000;01SL0045KR22;20
S90000;01SL300LV20;8
S90000;01SL300VE20;9
S90000;01SL500LV20;5
S90000;01SL500VE20;12
S90000;10BOWEB219;1100
S90000;10BOWEB319;2300
S90000;10BOWEB419;1900
S90000;10CACLA22;8
S90000;10CRAKT22;35
S90000;11BC100G21;2
S90000;11BG140SH19;7
S90000;11BG140SI19;9
S90000;11BG140SL19;12
S90000;11BH050A18;3
S90000;11BO100CS22H;28
S90000;11BP100I19;8
S90000;11BR100A20;4
S90000;11CD050A18;8
S90000;11CF100TR19;3
S90000;11CM030H19;6
S90000;11CM030H20;13
S90000;11CM125I19;8
S90000;11EH150A18;8
S90000;11EP010H19;1
S90000;11EP050H19;5
S90000;11ET010H20;10
S90000;11ET050H20;8
S90000;11ET075O21;4
S90000;11FAG10TR19;9
S90000;11GD050A18;1
S90000;11GD075O21;249
S90000;11GD250H19;4
S90000;11GD250H20;15
S90000;11GD250HF22;1
S90000;11GD250O21;3
S90000;11GN040A19;88
S90000;11HE005CS19;12
S90000;11LC250H19;8
S90000;11LC250H20;12
S90000;11LC250O21;7
S90000;11LD200I19;1
S28000;11SV080I19;4
S20;12GD245NO21H;12
S28000;12GD245NO21H;19
S20;15AS250VA18;8
S28000;15AS250VA18;9
S20;15BA500L16A;7
S28000;15BA500L16A;8
S20;15BM500VB21;16
S28000;15BM500VB21;53
S28000;15CF150VBL21;7
S28000;15DF200VBL21;38
S20;15ET010VB19;3
S28000;15ET010VB19;2
S20;15ET100VA20;1
S28000;15ET100VA20;7
S20;15ET100VB20;2
S28000;15ET100VB20;10
S20;15ET100VCL21;1
S20;15GD070VB21;42
S28000;15GD070VB21;87
S20;15GD075L21;17
S20;15GD250L21;8
S28000;15GD250L21;14
S20;15GD250VA20;14
S28000;15GD250VA20;8
S20;15GD250VB21;20
S28000;15GD250VB21;12
S20;15GD250VBL22;3
S28000;15GD250VBL22;89
S28000;15GD250VBM8;1
S20;15GD500VB21;18
S28000;15GD500VB21;16
S28000;15GD9000V21;1
S20;15GM065L21;38
S28000;15GM065L21;6
S20;15GM065VB21;34
S28000;15GM065VB21;13
S20;15GM280VB21;10
S28000;15GM280VB21;4
S20;15GN300L21;14
S28000;15GN300L21;12
S28000;15HE005L14;6
S20;15LC250L14;26
S28000;15LC250L14;17
S20;15LC250VA20;9
S28000;15LC250VA20;6
S20;15LC250VB3;18
S28000;15LC250VB3;2
S20;15LM300L11;12
S28000;15LM300L11;7
S20;15MA030L21;45
S28000;15MA030L21;10
S20;15MA030VA5;23
S10;11SP200SL19;5
S29000;11SP200SL19;9
S29000;11SV080I19;12
S10;11SV080I19;6
S10;12GD245NO21H;4
S29000;12GD245NO21H;2
S29000;12LC250NO22;1
S10;12LC250NO22;2
S10;15AS250VA18;5
S29000;15AS250VA18;6
S29000;15BA500L16A;10
S10;15BA500L16A;7
S10;15BM500VB21;16
S29000;15BM500VB21;18
S10;15DO050VA5;4
S10;15ET010VB19;3
S29000;15ET010VB19;3
S29000;15ET100VA20;4
S10;15ET100VA20;3
S10;15ET100VB20;3
S29000;15ET100VB20;6
S29000;15ET100VCL21;1
S29000;15GD250L21;35
S10;15GD250L21;16
S10;15GD250VA20;19
S29000;15GD250VA20;8
S10;15GD250VB21;15
S10;15GD250VBL22;30
S29000;15GD250VBL22;60
S29000;15GD500VB21;12
S10;15GD500VB21;5
S10;15GM065L21;11
S29000;15GM065L21;72
S29000;15GM065VB21;53
S10;15GM065VB21;20
S10;15GM280VB21;4
S29000;15GM280VB21;7
S10;15GN300L21;6
S10;15HE005L14;6
S29000;15HE005L14;2
S10;15LC250L14;18
S10;15LC250VA20;13
S29000;15LC250VA20;5
S29000;15LC250VB3;1
S10;15LC250VB3;14
S10;15LM300L11;8
S29000;15LM300L11;4
S29000;15MA030L21;37
S10;15MA030L21;9
S10;15MA030VA5;1
S29000;15MA030VA5;6
S29000;15MA030VB3;12
S29000;15MA030VBM8;1
S30000;11SA100H20;9
S30000;11SD100CS19;14
S30000;11SD100SH19;16
S30000;11SD100SI19;4
S30000;11SD100SL19;3
S30000;11SP200CS19;5
S30000;11SP200SH19;5
S30000;11SP200SI19;4
S30000;11SP200SL19;5
S30000;11SV080I19;4
S30000;12GD245NO21H;13
S30000;12LC250NO22;7
S30000;15AS150VCL21;4
S30000;15AS250VA18;4
S30000;15BA500L16A;4
S30000;15BM500VB21;19
S30000;15DO050VA5;5
S30000;15ET010VB19;4
S30000;15ET100VA20;3
S30000;15ET100VB20;3
S30000;15ET100VCL21;3
S30000;15GD070VB21;33
S30000;15GD075L21;18
S30000;15GD250L21;10
S30000;15GD250VA20;2
S30000;15GD250VB21;16
S30000;15GD250VBL22;31
S30000;15GD500VB21;4
S30000;15GM065L21;20
S30000;15GM065VB21;27
S30000;15GM280VB21;3
S30000;15GN300L21;6
S30000;15HE005L14;4
S30000;15LC250L14;14
S30000;15LC250VA20;4
S30000;15LC250VB3;7
S30000;15LM300L11;1
S30000;15MA030L21;38
S30000;15MA030VA5;1
S30000;15MA030VB3;23
S30000;15MA075VB4;13
S30000;15MF075VM20H;3
S30000;15RB500L17;5
S30000;15RC500VB21;7
S30000;15RG500L14;11
S30000;15RG500VA20;5
S30000;15RO010VBM22;38
S30000;15SA075VB21;3
S30000;15SE400VB5;7
S30000;15SH250VA20;4
S30000;17AF100G20;4
S30000;17AS250E19;5
S21000;11SP200SI19;7
S27000;11SP200SI19;2
S21000;11SP200SL19;8
S27000;11SP200SL19;2
S21000;11SV080I19;4
S27000;11SV080I19;4
S21000;12GD245NO21H;18
S27000;12GD245NO21H;13
S21000;15AS250VA18;6
S27000;15AS250VA18;9
S21000;15BA500L16A;5
S27000;15BA500L16A;10
S21000;15BM500VB21;18
S27000;15BM500VB21;17
S21000;15ET010VB19;3
S27000;15ET010VB19;4
S21000;15ET100VA20;3
S27000;15ET100VA20;3
S21000;15ET100VB20;3
S27000;15ET100VB20;4
S21000;15ET100VCL21;3
S27000;15GD070VB21;27
S21000;15GD075L21;25
S27000;15GD075L21;4
S21000;15GD250L21;9
S27000;15GD250L21;3
S21000;15GD250VA20;12
S27000;15GD250VA20;4
S21000;15GD250VB21;6
S27000;15GD250VB21;5
S21000;15GD250VBL22;26
S27000;15GD250VBL22;28
S21000;15GD500VB21;3
S21000;15GM065L21;27
S21000;15GM065VB21;20
S27000;15GM065VB21;16
S21000;15GM280VB21;4
S27000;15GM280VB21;5
S21000;15GN300L21;3
S27000;15GN300L21;3
S27000;15GS150VBL22;1
S21000;15HE005L14;2
S27000;15HE005L14;4
S21000;15LC250L14;11
S27000;15LC250L14;14
S21000;15LC250VA20;10
S27000;15LC250VA20;3
S21000;15LC250VB3;5
S27000;15LC250VB3;4
S21000;15LM300L11;3
S27000;15LM300L11;6
S21000;15MA030L21;6
S21000;52MMSANO22;181
S10;52MMSANO22;216
S21000;52MOCOL216;1
S21000;52MOCOL316;2
S10;52MOCOL316;2
S10;52MS001I20;12
S21000;52MS001I20;107
S21000;52OR001I21;222
S10;52OR001I21;350
S10;52PMGBOX18;7
S21000;52PMGBOX18;4
S21000;52PS0015R21;39
S10;52PS0015R21;35
S10;52PSAC18;1
S21000;52PSAC18;1
S21000;52RIB1NO22;11
S10;52RIB1NO22;16
S10;52RIB2NO22;16
S21000;52RIB2NO22;11
S21000;52RIBOXNO22;697
S10;52RIBOXNO22;508
S21000;52SAMPENV18;27
S21000;52SGENSA21GPS;90
S10;52SGENSA21GPS;74
S10;52SH006E19;259
S21000;52SH006E19;68
S21000;52SH006FV21;115
S10;52SH006FV21;298
S10;52SH006G21;25
S21000;52SH006G21;71
S21000;52SH006P19;82
S10;52SH006P19;37
S10;52SMBANO22;5
S21000;52SMBANO22;32
S21000;52SMSANO22;58
S10;52SMSANO22;117
S10;52SP001I19;136
S21000;52SP001I19;146
S21000;52STINO22;11
S10;52STINO22;14
S10;52TS001I22;125
S21000;52TS001I22;85
S21000;52TS001R21;68
S10;52TS001R21;65
S10;98BBGD030VE4;49
S21000;98BBGD030VE4;28
S10;98BBLC030VE5;15
S10;98BBMA010KA3;66
S21000;98BBMA010KA3;22
S21000;ACPOCVEC00001;255
S10;ACPOCVEC00001;346
S10;ACPOCVEC00002;273
S21000;ACPOCVEC00002;399
S90000;11LH200I19;5
S90000;11LT300I20;10
S90000;11MH075A19;7
S90000;11MWC200I19;2
S90000;11PEP050I20;3
S90000;11PM100SH19;3
S90000;11PM100SI19;7
S90000;11SA050O21;8
S90000;11SA100H19;11
S90000;11SA100H20;10
S90000;11SD100CS19;4
S90000;11SD100SH19;8
S90000;11SD100SI19;7
S90000;11SD100SL19;9
S90000;11SP200CS19;1
S90000;11SP200SH19;7
S90000;11SP200SL19;8
S90000;11SV080I19;7
S90000;15AS250VA18;10
S90000;15BA500L16A;6
S90000;15BM500VB21;2
S90000;15DF200VBL21;1
S90000;15ET100VA20;4
S90000;15ET100VB20;6
S90000;15GD075L15;45
S90000;15GD075L21;3
S90000;15GD250L21;6
S90000;15GD250VA20;7
S90000;15GD250VB21;8
S90000;15GD250VBL22;1
S90000;15GD500VB21;13
S90000;15GM065L21;11
S90000;15GM065VB21;11
S90000;15GM280VB21;6
S90000;15GN300L21;4
S90000;15GS150VBL22;2
S90000;15HE005L14;9
S90000;15LC070VB5;117
S90000;15LC075L15;20
S90000;15LC250L14;6
S90000;15LC250VA20;12
S90000;15LC250VBM22;1
S90000;15LM300L11;8
S90000;15MA030L21;20
S90000;15MA030VA5;8
S90000;15MA030VBL22;1
S90000;15MA030VBM8;12
S90000;15MA075L20;8
S90000;15MA075VB4;12
S90000;15ORVER22;91
S90000;15RC500VB21;14
S90000;15RG500L14;1
S28000;15MA030VA5;8
S20;15MA030VB3;12
S28000;15MA030VB3;4
S20;15MA075L20;29
S20;15MA075VB4;12
S28000;15RB500L17;21
S20;15RC500VB21;21
S28000;15RC500VB21;15
S20;15RG500L14;16
S28000;15RG500L14;16
S20;15RG500VA20;18
S28000;15RG500VA20;13
S20;15RO010VBM22;38
S28000;15RO010VBM22;92
S20;15SA070VB6;2
S20;15SA075VB21;5
S28000;15SA075VB21;6
S20;15SH250VA20;7
S28000;15SH250VA20;6
S20;17AF100G20;11
S28000;17AF100G20;13
S20;17AS250E19;8
S20;17AS250FV21;8
S28000;17AS250FV21;7
S20;17AS250G18;5
S28000;17AS250G18;3
S20;17AS250G21;8
S28000;17AS250G21;11
S20;17AS250P19;5
S28000;17AS250P19;6
S20;17AS500E19;10
S28000;17AS500E19;13
S20;17AS500FV21;6
S28000;17AS500FV21;11
S20;17AS500G21;13
S28000;17AS500G21;17
S20;17AS500P19;5
S28000;17AS500P19;5
S20;17DO050F13;13
S28000;17DO050F13;7
S20;17ER075P19;5
S28000;17ER075P19;10
S20;17HB050A22;12
S28000;17HB050A22;11
S20;17HI001G19;37
S28000;17HI001G19;77
S20;17HI100G19;5
S28000;17HI100G19;9
S20;17MC200G21;10
S28000;17MC200G21;13
S20;17RC500E20;11
S28000;17RC500E20;15
S20;17RC500G18;13
S28000;17RC500G18;12
S31000;17HI001G19;10
S31000;17HI100G19;8
S31000;17MC200G21;6
S31000;17RC500E20;10
S31000;17RC500G18;9
S31000;17RC500G21;20
S31000;17RC500P19;8
S31000;17RS500E20;28
S31000;17RS500FV21;4
S31000;17RS500G21;23
S31000;17RS500P19;6
S31000;17SE100FV21;8
S31000;17SH060SE21;2
S31000;17SH060SG21;4
S31000;17SH060SP21;1
S31000;17SH075E19;210
S31000;17SH075G21;238
S31000;17SH300E19;7
S31000;17SH300FV21;4
S31000;17SH300G21;2
S31000;17SH300P19;9
S31000;17SH500E19;14
S31000;17SH500FV21;2
S31000;17SH500G21;11
S31000;17SH500P19;2
S31000;17VI100P19;4
S31000;18ET010TL17;1
S31000;20AR075O20;4
S31000;20DO050O20;4
S31000;20DO075CD20;3
S31000;20DO130HC20;4
S31000;20ET075HC20;5
S31000;20ET075OC20;4
S31000;20FE050H20;6
S31000;20GD500HC20;8
S31000;20HR050H20;8
S31000;20NV150H20;9
S31000;20SA050CD20;2
S31000;20SA050HC20;5
S31000;24BL012CB5;9
S31000;24BR050CB21;3
S31000;24BR050R22;1
S31000;24EDT10C21;3
S31000;24ET075CB21;8
S31000;24ET075R22;4
S31000;24GD250CB21;22
S31000;24GD250R22;13
S31000;24GD500CB21;6
S31000;24GD500R22;8
S31000;24LC250CB4;8
S31000;24LC250R22;12
S31000;24MA030R22;23
S31000;24MA075CB21;4
S29000;15MA075L20;12
S10;15MA075L20;18
S10;15MA075VB4;19
S29000;15MA075VB4;1
S29000;15MF075VM20H;1
S29000;15RB500L17;16
S10;15RB500L17;8
S10;15RC500VB21;4
S29000;15RC500VB21;22
S29000;15RG500L14;14
S10;15RG500L14;8
S10;15RG500VA20;6
S29000;15RG500VA20;21
S29000;15RO010VBM22;61
S10;15RO010VBM22;39
S29000;15SA070VB6;7
S29000;15SA075VB21;11
S10;15SA075VB21;3
S10;15SH250VA20;7
S29000;15SH250VA20;3
S29000;17AF100G20;29
S10;17AF100G20;4
S10;17AS250E19;3
S29000;17AS250E19;27
S29000;17AS250FV21;13
S10;17AS250FV21;5
S29000;17AS250G18;4
S29000;17AS250G21;18
S10;17AS250G21;10
S10;17AS250P19;8
S29000;17AS250P19;5
S29000;17AS500E19;5
S10;17AS500E19;4
S10;17AS500FV21;6
S29000;17AS500FV21;5
S29000;17AS500G21;8
S10;17AS500G21;5
S10;17AS500P19;5
S29000;17AS500P19;6
S29000;17DO050F13;7
S29000;17ER075P19;3
S10;17ER075P19;4
S10;17HB050A22;12
S29000;17HB050A22;36
S29000;17HI001G19;86
S10;17HI001G19;76
S10;17HI100G19;2
S29000;17HI100G19;4
S29000;17MC200G21;9
S10;17MC200G21;4
S10;17RC500E20;3
S29000;17RC500E20;45
S29000;17RC500G18;10
S30000;17AS250FV21;5
S30000;17AS250G18;2
S30000;17AS250G21;6
S30000;17AS250P19;4
S30000;17AS500E19;5
S30000;17AS500FV21;4
S30000;17AS500G21;5
S30000;17AS500P19;5
S30000;17DO050F13;1
S30000;17ER075P19;4
S30000;17HB050A22;10
S30000;17HI001G19;215
S30000;17HI100G19;3
S30000;17MC200G21;4
S30000;17RC500E20;9
S30000;17RC500G18;4
S30000;17RC500G21;8
S30000;17RC500P19;7
S30000;17RS500E20;17
S30000;17RS500FV21;11
S30000;17RS500G21;9
S30000;17RS500P19;11
S30000;17SE100FV21;5
S30000;17SH060SE21;1
S30000;17SH060SG21;4
S30000;17SH060SP21;3
S30000;17SH075E19;91
S30000;17SH075G21;114
S30000;17SH300E19;7
S30000;17SH300FV21;7
S30000;17SH300G21;15
S30000;17SH300P19;5
S30000;17SH500E19;4
S30000;17SH500FV21;5
S30000;17SH500G21;8
S30000;17SH500P19;6
S30000;17VI100P19;4
S30000;18ET010TL17;4
S30000;20AR075O20;5
S30000;20DO050O20;5
S30000;20DO075CD20;4
S30000;20ET075CD20;3
S30000;20ET075HC20;2
S30000;20ET075OC20;5
S30000;20FE050H20;3
S30000;20GD250CD20;7
S30000;20GD250HC20;10
S30000;20GD250OC20;9
S30000;20GD500HC20;10
S30000;20HR050H20;2
S30000;20NV150H20;6
S30000;20SA050CD20;3
S30000;20SA050HC20;3
S24000;17SH060SE21;3
S24000;17SH060SG21;4
S24000;17SH060SP21;2
S24000;17SH075E19;71
S24000;17SH075G21;77
S24000;17SH300E19;7
S24000;17SH300FV21;6
S24000;17SH300G21;6
S24000;17SH300P19;4
S24000;17SH500E19;2
S24000;17SH500FV21;7
S24000;17SH500G21;8
S24000;17SH500P19;6
S24000;17VI100P19;4
S24000;20AR075O20;4
S24000;20DO050O20;4
S24000;20DO075CD20;2
S24000;20DO130HC20;5
S24000;20ET075OC20;3
S24000;20FE050H20;2
S24000;20GD250CD20;9
S24000;20GD250HC20;12
S24000;20GD250OC20;11
S24000;20GD500HC20;8
S24000;20HR050H20;7
S24000;20NV150H20;14
S24000;20SA050CD20;1
S24000;20SA050HC20;4
S24000;24BL012CB5;6
S24000;24BL012R22;7
S24000;24BR050CB21;33
S24000;24BR050R22;16
S24000;24ET075CB21;8
S24000;24ET075R22;3
S24000;24GD250CB21;3
S24000;24GD250R22;7
S24000;24GD500R22;6
S24000;24LC250CB4;1
S24000;24LC250R22;36
S24000;24MA030R22;2
S24000;24MA030RV19;1
S24000;24MA075CB4;2
S24000;24MA150R22;2
S24000;24RG500CB21;9
S24000;24RG500R22;9
S24000;24RO010CB4;9
S24000;27BY015I19;6
S24000;27CP050I22;5
S24000;27DB015I20;4
S24000;27DC050I20;2
S24000;27DCB060I17;4
S24000;27DE015I21;6
S24000;27DF125I17;21
S21000;ACPOCVEC00003;200
S10;ACPOCVEC00003;93
S10;ACPOCVEC00004;91
S10;ACPOCVEC00005;101
S21000;ACPOCVEC00005;136
S21000;SGOCVE600004;25
S10;SGOCVE600004;1
S10;SGOCVKI00215;1
S10;SGOCVKI00218;1
S10;SGOCVKI00221;11
S21000;SGOCVKI00222;13
S10;SGOCVKI00226;1
S21000;SGOCVKI00228;9
S10;SGOCVKI00230;6
S21000;SGOCVKI00231;8
S10;SGOCVKI00233;1
S10;SGOCVKI00234;23
S21000;SGOCVKI00234;25
S21000;SGOCVKI00235;21
S10;SGOCVKI00235;26
S10;SGOCVKI00236;9
S21000;SGOCVKI00236;6
S21000;SGOCVKI00238;1
S21000;SGOCVKI00239;2
S10;SGOCVKI00239;7
S10;SGOCVKI00240;7
S21000;SGOCVKI00240;6
S21000;SGOCVKI00241;12
S10;SGOCVKI00241;8
S21000;SGOCVKI00242;8
S10;SGOCVKI00243;9
S10;SGOCVKI00244;6
S10;SGOCVKI00245;3
S27000;15MA030L21;17
S21000;15MA030VA5;3
S21000;15MA030VB3;7
S27000;15MA030VBL22;1
S21000;15MA075L20;3
S27000;15MA075L20;12
S21000;15MA075VB4;6
S27000;15ORVER22;10
S27000;15RB500L17;6
S21000;15RC500VB21;6
S27000;15RC500VB21;2
S21000;15RG500L14;9
S27000;15RG500L14;4
S21000;15RG500VA20;12
S27000;15RG500VA20;4
S27000;15RO010VBM22;35
S21000;15SA070VB6;2
S27000;15SA070VB6;2
S21000;15SA075VB21;10
S21000;15SH250VA20;5
S27000;15SH250VA20;5
S21000;17AF100G20;12
S27000;17AF100G20;8
S21000;17AS250E19;7
S27000;17AS250E19;5
S21000;17AS250FV21;8
S27000;17AS250FV21;4
S21000;17AS250G18;5
S27000;17AS250G18;4
S21000;17AS250G21;8
S27000;17AS250G21;5
S21000;17AS250P19;6
S27000;17AS250P19;6
S21000;17AS500E19;8
S27000;17AS500E19;4
S21000;17AS500FV21;7
S27000;17AS500FV21;4
S21000;17AS500G21;9
S27000;17AS500G21;3
S21000;17AS500P19;4
S27000;17AS500P19;5
S21000;17DO050F13;5
S21000;17ER075P19;5
S27000;17ER075P19;4
S21000;17HB050A22;8
S27000;17HB050A22;13
S27000;17HI001G19;51
S21000;17HI100G19;7
S27000;17HI100G19;2
S21000;17MC200G21;8
S27000;17MC200G21;6
S21000;17RC500E20;9
S27000;17RC500E20;3
S20;17RC500G21;17
S28000;17RC500G21;21
S20;17RC500P19;10
S28000;17RC500P19;10
S20;17RS500E20;30
S28000;17RS500E20;28
S20;17RS500FV21;23
S28000;17RS500FV21;27
S20;17RS500G21;29
S28000;17RS500G21;41
S20;17RS500P19;12
S28000;17RS500P19;40
S20;17SE100FV21;6
S28000;17SE100FV21;26
S20;17SH060SE21;5
S28000;17SH060SE21;3
S20;17SH060SG21;3
S28000;17SH060SG21;4
S20;17SH060SP21;3
S28000;17SH060SP21;3
S20;17SH075E19;75
S28000;17SH075E19;118
S20;17SH075G21;83
S28000;17SH075G21;129
S20;17SH300E19;17
S28000;17SH300E19;11
S20;17SH300FV21;15
S28000;17SH300FV21;14
S20;17SH300G21;22
S28000;17SH300G21;14
S20;17SH300P19;16
S28000;17SH300P19;12
S20;17SH500E19;16
S28000;17SH500E19;18
S20;17SH500FV21;17
S28000;17SH500FV21;16
S20;17SH500G21;18
S28000;17SH500G21;21
S20;17SH500P19;10
S28000;17SH500P19;13
S20;17VI100P19;5
S28000;17VI100P19;8
S20;20AR075O20;4
S28000;20AR075O20;4
S20;20DO050O20;3
S28000;20DO050O20;9
S20;20DO075CD20;12
S28000;20DO075CD20;12
S20;20DO130HC20;3
S28000;20DO130HC20;9
S20;20ET075CD20;2
S28000;20ET075CD20;1
S28000;20ET075HC20;2
S29000;17RC500G21;53
S10;17RC500G21;9
S10;17RC500P19;4
S29000;17RC500P19;23
S29000;17RS500E20;55
S10;17RS500E20;5
S10;17RS500FV21;11
S29000;17RS500FV21;38
S29000;17RS500G21;57
S10;17RS500G21;11
S10;17RS500P19;3
S29000;17RS500P19;43
S29000;17SE100FV21;10
S10;17SE100FV21;7
S10;17SH060SE21;4
S29000;17SH060SE21;3
S29000;17SH060SG21;5
S10;17SH060SG21;4
S10;17SH060SP21;5
S29000;17SH060SP21;8
S29000;17SH075E19;136
S10;17SH075E19;80
S10;17SH075G21;127
S29000;17SH075G21;137
S29000;17SH300E19;20
S10;17SH300E19;13
S10;17SH300FV21;10
S29000;17SH300FV21;14
S29000;17SH300G21;21
S10;17SH300G21;12
S10;17SH300P19;10
S29000;17SH300P19;1
S29000;17SH500E19;12
S10;17SH500E19;3
S10;17SH500FV21;11
S29000;17SH500FV21;13
S29000;17SH500G21;7
S10;17SH500G21;3
S10;17SH500P19;6
S29000;17SH500P19;12
S29000;17VI100P19;3
S10;17VI100P19;5
S29000;18ET010TL17;26
S29000;20AR075O20;3
S10;20AR075O20;7
S10;20DO050O20;1
S29000;20DO050O20;2
S29000;20DO075CD20;6
S10;20DO075CD20;2
S10;20DO130HC20;5
S29000;20DO130HC20;3
S29000;20ET075CD20;2
S10;20ET075CD20;1
S30000;24BL012CB5;5
S30000;24BL012R22;13
S30000;24BR050CB21;27
S30000;24BR050R22;27
S30000;24EDT10C21;4
S30000;24ET075CB21;5
S30000;24ET075R22;5
S30000;24GD250CB21;25
S30000;24GD250R22;13
S30000;24GD500R22;5
S30000;24LC250CB4;9
S30000;24LC250R22;8
S30000;24MA030CB4;33
S30000;24MA030R22;21
S30000;24MA075CB21;10
S30000;24MA075CB4;7
S30000;24MA075R22;8
S30000;24MA150R22;5
S30000;24RG500CB21;7
S30000;24RG500R22;20
S30000;24RO010CB4;2
S30000;24SA050CB21;18
S30000;24SA050R22;13
S30000;27BY015I19;2
S30000;27CP050I22;4
S30000;27DB015I20;5
S30000;27DC050I20;7
S30000;27DCB060I17;3
S30000;27DE015I21;6
S30000;27DF125I17;7
S30000;27DH015I22;17
S30000;27DH030I20;5
S30000;27DH030I22;8
S30000;27DL200I21;5
S30000;27DS030I20;5
S30000;27ER015I22;22
S30000;27ER050I21;1
S30000;27ER150I21;15
S30000;27EV200I19;3
S30000;27FP050I19;1
S30000;27HC050I18;4
S30000;27HCR050I16;4
S30000;27HS030I18;4
S30000;27HSR030I16;4
S30000;27MI150I20;4
S30000;27MP050I20;55
S30000;27MP150I20;5
S30000;27MQ065I15A;4
S30000;27MS050I20;4
S30000;27OR030I21;24
S30000;27OR050I21;23
S30000;27SP030I19;3
S30000;29ASH240A20;3
S90000;15RG500VA20;8
S90000;15SA075VB21;38
S90000;15SH250VA20;8
S90000;17AS075E19;150
S90000;17AS075FV21;43
S90000;17AS075G21;41
S90000;17AS075P19;52
S90000;17AS250E19;9
S90000;17AS250FV21;4
S90000;17AS250G18;5
S90000;17AS250G21;11
S90000;17AS250P19;9
S90000;17AS500E19;2
S90000;17AS500FV21;5
S90000;17AS500P19;15
S90000;17DO050F13;5
S90000;17ER075P19;4
S90000;17HI001G19;100
S90000;17HI100G19;3
S90000;17RC500P19;18
S90000;17RS500G21;9
S90000;17SE100FV21;15
S90000;17SH060SE21;9
S90000;17SH060SG21;5
S90000;17SH060SP21;5
S90000;17SH075P19;2
S90000;17SH300E19;1
S90000;17SH300FV21;10
S90000;17SH300G21;4
S90000;17SH300P19;8
S90000;17VI100P19;10
S90000;20AR075O20;7
S90000;20DO050O20;9
S90000;20DO130HC20;6
S90000;20ET075CD20;8
S90000;20ET075HC20;2
S90000;20ET075OC20;4
S90000;20FE050H20;14
S90000;20GD250CD20;7
S90000;20GD250OC20;6
S90000;20GD500HC20;13
S90000;20HR050H20;8
S90000;20SA050CD20;6
S90000;20SA050HC20;11
S90000;20SA050O20;1
S90000;24BR050CB21;11
S90000;24BR050R22;1
S90000;24CM030R22H;2
S90000;24ET075R22;1
S90000;24GD075CB5;2
S90000;24GD250CB21;6
S90000;24GD250R22;16
S31000;24MA075P15;1
S31000;24MA075R22;1
S31000;24ORCHB22;5
S31000;24RG500CB21;17
S31000;24RG500R22;9
S31000;24RO010CB4;11
S31000;24SA050CB21;11
S31000;24SA050R22;17
S31000;27BY015I19;5
S31000;27CP050I19;5
S31000;27CP050I22;4
S31000;27DB015I20;7
S31000;27DC050I20;34
S31000;27DCB060I17;1
S31000;27DE015I21;6
S31000;27DF125I17;24
S31000;27DH015I22;28
S31000;27DH030I22;31
S31000;27DL200I21;4
S31000;27DS030I20;4
S31000;27ER015I22;34
S31000;27ER050I21;15
S31000;27ER150I21;24
S31000;27EV200I19;6
S31000;27HC050I18;4
S31000;27HCR050I16;9
S31000;27HS030I18;2
S31000;27HSR030I16;11
S31000;27MI150I20;4
S31000;27MP050I20;142
S31000;27MP150I22;12
S31000;27MQ065I15A;2
S31000;27MS050I20;4
S31000;27OR030I21;16
S31000;27OR050I21;37
S31000;27SP030I19;3
S31000;29ASH240A20;5
S31000;29BP100A22;1
S31000;29EC200A21;5
S31000;29GE200A21;20
S31000;29HD075A15;8
S31000;29HD250A15;8
S31000;29HD500A15;10
S31000;29HD9000A21;2
S31000;29LC200A20US;11
S31000;29MA075A21;8
S31000;29ORALM22;1
S31000;29RC200A20;45
S31000;29RH500A15;39
S31000;29SA050A21;5
S31000;29SE125A21;15
S31000;29SH240A20;6
S31000;29VC240A22;4
S30000;29BP100A19;1
S30000;29BP100A22;3
S30000;29EC200A21;6
S30000;29GE200A21;21
S30000;29HD250A15;12
S30000;29HD500A15;8
S30000;29HS100A22SM;15
S30000;29LC200A20US;14
S30000;29MA030A17;19
S30000;29MA075A21;10
S30000;29RC200A20;26
S30000;29RH500A15;14
S30000;29SA050A21;18
S30000;29SE125A21;3
S30000;29SH240A20;2
S30000;29VC240A22;4
S30000;38EC015A18;4
S30000;38EV075A21;6
S30000;38FT200A21;3
S30000;38MI150A22;3
S30000;38RC050A22;4
S30000;38UV030A18;5
S30000;38WC050A21;4
S30000;38WS030A21;3
S30000;49BO015CS19;12
S30000;49CABNO22;2
S30000;49CRM2NO22;91
S30000;49CUPNO22;73
S30000;49DC004I20;2
S30000;49DH004I20;32
S30000;49HD035A15;26
S30000;49LC020A20;21
S30000;49MA010K22;18
S30000;49OR005I21;59
S30000;49POCK1NO22;40
S30000;52AF006G20;109
S30000;52AS006E19;80
S30000;52AS006FV21;79
S30000;52AS006G21;203
S30000;52AS006P19;29
S30000;52BY001I19;145
S30000;52CARDNO22;10
S30000;52CD0015A18;103
S30000;52CL0015K21;79
S30000;52CP0015I19;37
S30000;52CP006K22;70
S30000;52CV0015K22;59
S30000;52DB001I20;155
S30000;52DC0015I20;258
S30000;52DE001I21;168
S30000;52DF002I17;173
S30000;52DH001I22;386
S30000;52DL002I21;126
S10;20ET075HC20;4
S29000;20ET075HC20;3
S29000;20ET075OC20;3
S10;20ET075OC20;5
S10;20FE050H20;3
S10;20GD250CD20;1
S29000;20GD250CD20;16
S29000;20GD250HC20;10
S29000;20GD250OC20;1
S10;20GD250OC20;9
S10;20GD500HC20;13
S29000;20GD500HC20;23
S29000;20HR050H20;2
S29000;20NV150H20;29
S10;20NV150H20;5
S29000;20SA050CD20;9
S29000;20SA050HC20;5
S10;20SA050HC20;2
S29000;20SA050O20;2
S29000;24BL012CB5;2
S10;24BL012CB5;3
S10;24BL012R22;5
S29000;24BL012R22;4
S10;24BR050CB21;1
S29000;24BR050CB6;2
S29000;24BR050CBL22;1
S10;24BR050R22;1
S29000;24EDT10C21;3
S29000;24ET075CB21;5
S10;24ET075CB21;5
S10;24ET075R22;8
S29000;24ET075R22;2
S29000;24GD250CB21;16
S10;24GD250CB21;4
S10;24GD250R22;2
S29000;24GD250R22;14
S29000;24GD250RJ21H;3
S10;24GD250RJ21H;1
S10;24GD500R22;1
S29000;24GD500R22;7
S29000;24GM030C21;1
S29000;24LC250CB4;9
S10;24LC250CB4;18
S10;24LC250R22;9
S29000;24LC250R22;10
S29000;24MA030CB21;40
S10;24MA030CB4;2
S29000;24MA030P15;1
S29000;24MA030R22;23
S29000;24MA075CB21;43
S10;24MA075CB4;1
S10;24MA075P15;4
S29000;24MA075P15;3
S20;20ET075OC20;1
S28000;20ET075OC20;2
S20;20FE050H20;2
S28000;20FE050H20;4
S20;20GD250CD20;16
S28000;20GD250CD20;7
S20;20GD250HC20;14
S28000;20GD250HC20;18
S20;20GD250OC20;18
S28000;20GD250OC20;24
S20;20GD500HC20;16
S28000;20GD500HC20;10
S28000;20HR050H20;3
S20;20NV150H20;14
S28000;20NV150H20;17
S20;20SA050CD20;3
S28000;20SA050CD20;10
S20;20SA050HC20;1
S28000;20SA050HC20;8
S20;24BL012CB5;13
S20;24BL012R22;11
S28000;24BL012R22;1
S20;24BR050CB21;17
S20;24BR050CB6;3
S28000;24BR050CB6;2
S20;24BR050R22;17
S28000;24CC150R22H;1
S20;24ET075CB21;5
S28000;24ET075CB21;4
S20;24ET075R22;5
S28000;24ET075R22;2
S20;24GD250CB21;25
S28000;24GD250CB21;49
S20;24GD250R22;28
S28000;24GD250R22;4
S20;24GD500R22;12
S28000;24GD500R22;6
S20;24LC250CB4;19
S28000;24LC250CB4;12
S28000;24LC250R22;12
S20;24LC250R22;19
S20;24MA030CB4;30
S20;24MA030P15;14
S20;24MA030R22;48
S20;24MA030RV19;5
S20;24MA075CB21;11
S20;24MA075CB4;15
S20;24MA075P15;21
S20;24MA075R22;25
S28000;24MA075R22;5
S20;24MA150R22;20
S20;24ORCHB22;1
S20;24RG500CB21;20
S28000;24RG500CB21;16
S24000;27DH015I22;15
S24000;27DH030I22;19
S24000;27DL200I21;6
S24000;27DS030I20;3
S24000;27ER015I22;11
S24000;27ER050I21;10
S24000;27ER150I21;10
S24000;27EV200I19;8
S24000;27HC050I18;4
S24000;27HCR050I16;3
S24000;27HS030I18;1
S24000;27HSR030I16;4
S24000;27MI150I20;4
S24000;27MP050I20;78
S24000;27MP150I22;1
S24000;27MQ065I15A;4
S24000;27MS050I20;8
S24000;27OR030I21;20
S24000;27OR050I21;28
S24000;27SP030I19;4
S24000;29ASH240A20;5
S24000;29BP100A22;4
S24000;29EC200A21;6
S24000;29GE200A21;16
S24000;29HD075A15;8
S24000;29HD500A15;2
S24000;29HS100A22SM;8
S24000;29LC200A20US;14
S24000;29RC200A20;14
S24000;29RH500A15;21
S24000;29SA050A21;5
S24000;29SE125A21;5
S24000;29SH240A20;4
S24000;29VC240A22;7
S24000;38BV050A19;3
S24000;38EC015A18;4
S24000;38EV075A21;4
S24000;38FT200A21;6
S24000;38MI150A22;8
S24000;38RC050A22;6
S24000;38UV030A18;8
S24000;38WS030A21;2
S24000;49CP020K22;9
S24000;49CRM1NO22;1
S24000;49CRM2NO22;71
S24000;49CUPNO22;95
S24000;49DC004I20;4
S24000;49HD035A15;8
S24000;49LC020A20;6
S24000;49LD030I21;4
S24000;49MA010K22;9
S24000;49OR005I21;110
S24000;49POCK1NO22;73
S31000;38BV050A19;1
S31000;38EC015A18;5
S31000;38EV075A21;8
S31000;38FT200A21;5
S31000;38MI150A22;3
S31000;38RC050A22;3
S31000;38UV030A18;19
S31000;38WC050A21;4
S31000;38WS030A21;6
S31000;49BO015CS19;16
S31000;49CABNO22;1
S31000;49CM010O21;19
S31000;49CM030I19;7
S31000;49CP020K22;5
S31000;49CRM2NO22;210
S31000;49CUPNO22;133
S31000;49DC004I20;38
S31000;49DH004I20;30
S31000;49DISC3NO22;3
S31000;49LC020A20;2
S31000;49LD030I21;3
S31000;49MA010K22;5
S31000;49OR005I21;12
S31000;49ORALM22;7
S31000;49ORCHB22;10
S31000;49ORKAR22;7
S31000;49ORMEN22;2
S31000;49POCK1NO22;74
S31000;52AF006G20;63
S31000;52AS006E19;84
S31000;52AS006FV21;45
S31000;52AS006G21;28
S31000;52AS006P19;83
S31000;52BY001I19;55
S31000;52CARDNO22;15
S31000;52CERJAR20;2
S31000;52CL0015K21;71
S31000;52CP0015I19;151
S31000;52CP006K22;141
S31000;52CRA1C22;5
S31000;52CRA2C22;5
S31000;52CRA3C22;5
S31000;52CRA4C22;5
S31000;52CV0015K22;155
S31000;52DB001I20;169
S31000;52DC0015I20;216
S31000;52DE001I21;204
S31000;52DF002I17;127
S31000;52DH001I22;269
S31000;52DL002I21;180
S31000;52DS001I20;80
S31000;52ER002I21;295
S31000;52GD0015A18;67
S21000;17RC500G18;6
S27000;17RC500G18;2
S21000;17RC500G21;18
S27000;17RC500G21;11
S21000;17RC500P19;5
S27000;17RC500P19;4
S21000;17RS500E20;19
S27000;17RS500E20;7
S21000;17RS500FV21;21
S27000;17RS500FV21;12
S21000;17RS500G21;26
S27000;17RS500G21;7
S21000;17RS500P19;15
S27000;17RS500P19;11
S21000;17SE100FV21;9
S27000;17SE100FV21;2
S21000;17SH060SE21;1
S27000;17SH060SE21;3
S21000;17SH060SG21;4
S27000;17SH060SG21;4
S21000;17SH060SP21;3
S27000;17SH060SP21;3
S21000;17SH075E19;108
S27000;17SH075E19;28
S21000;17SH075G21;117
S27000;17SH075G21;28
S21000;17SH300E19;10
S27000;17SH300E19;10
S21000;17SH300FV21;9
S27000;17SH300FV21;5
S21000;17SH300G21;12
S27000;17SH300G21;12
S21000;17SH300P19;9
S27000;17SH300P19;6
S21000;17SH500E19;5
S27000;17SH500E19;6
S21000;17SH500FV21;7
S27000;17SH500FV21;3
S21000;17SH500G21;10
S27000;17SH500G21;8
S21000;17SH500P19;6
S27000;17SH500P19;1
S21000;17VI100P19;5
S27000;17VI100P19;3
S21000;20AR075O20;4
S27000;20AR075O20;5
S21000;20DO050O20;3
S27000;20DO050O20;5
S21000;20DO075CD20;5
S27000;20DO075CD20;2
S21000;20DO130HC20;3
S27000;20DO130HC20;10
S21000;20ET075CD20;2
S24000;52AF006G20;149
S24000;52AS006E19;166
S24000;52AS006FV21;104
S24000;52AS006G21;150
S24000;52AS006P19;80
S29000;24MA075R22;19
S10;24MA075R22;9
S10;24MA150R22;5
S29000;24MA150R22;14
S29000;24ORCHB22;2
S29000;24RG500CB21;20
S10;24RG500CB21;8
S10;24RG500R22;11
S29000;24RG500R22;23
S29000;24RO010CB4;5
S10;24RO010CB4;1
S10;24SA050CB21;1
S29000;24SA050CB21;1
S29000;27BY015I19;2
S10;27BY015I19;3
S10;27CP050I19;8
S29000;27CP050I19;12
S29000;27DB015I20;14
S10;27DB015I20;12
S10;27DC050I20;10
S29000;27DC050I20;16
S29000;27DCB060I17;2
S10;27DCB060I17;4
S10;27DE015I21;11
S29000;27DE015I21;12
S29000;27DF125I17;15
S10;27DF125I17;18
S29000;27DH015I20;4
S29000;27DH015I22;10
S10;27DH015I22;9
S29000;27DH030I20;4
S29000;27DH030I22;14
S10;27DH030I22;21
S10;27DL200I21;3
S29000;27DL200I21;9
S29000;27DS030I20;5
S10;27DS030I20;4
S10;27ER015I22;13
S29000;27ER015I22;14
S29000;27ER050I21;12
S10;27ER050I21;6
S10;27ER150I21;8
S29000;27ER150I21;12
S29000;27EV200I19;8
S10;27EV200I19;5
S10;27HC050I18;4
S29000;27HC050I18;6
S29000;27HCR050I16;9
S10;27HCR050I16;3
S10;27HS030I18;3
S29000;27HS030I18;1
S29000;27HSR030I16;12
S10;27HSR030I16;3
S10;27MI150I20;4
S30000;52DS001I20;85
S30000;52ER002I21;454
S30000;52GD0015A18;104
S30000;52GIF1NO22;6
S30000;52GIF2NO22;6
S30000;52HD006A18;418
S30000;52HS001I17;91
S30000;52HS004A18;166
S30000;52LABANO22;61
S30000;52LASANO22;155
S30000;52LC006A20;428
S30000;52LGEBAG19;28
S30000;52LGEBOX18;15
S30000;52LGENSA21;113
S30000;52LT002R21;59
S30000;52MA003K22A;156
S30000;52MC006G21;186
S30000;52MGEBAG19;43
S30000;52MGEBOX18;8
S30000;52MGENSA21;128
S30000;52MIBANO22;42
S30000;52MMB1NO22;36
S30000;52MMB2NO22;22
S30000;52MMB3NO22;36
S30000;52MMBANO22;217
S30000;52MMSANO22;113
S30000;52MOCOL316;4
S30000;52MS001I20;101
S30000;52OR001I21;240
S30000;52PMGBOX18;7
S30000;52PS0015R21;106
S30000;52RIB1NO22;11
S30000;52RIB2NO22;11
S30000;52RIBOXNO22;364
S30000;52SGENSA21GPS;70
S30000;52SH006E19;145
S30000;52SH006FV21;73
S30000;52SH006G21;89
S30000;52SH006P19;152
S30000;52SMBANO22;100
S30000;52SMSANO22;73
S30000;52SP001I19;79
S30000;52STINO22;9
S30000;52TS001I22;256
S30000;52TS001R21;171
S30000;98BBGD030VE4;7
S30000;ACPOCVEC00001;500
S30000;ACPOCVEC00002;760
S30000;ACPOCVEC00003;100
S30000;ACPOCVEC00005;113
S30000;ACPOCVKA00700;15
S30000;SGOCVE600004;18
S30000;SGOCVKI00217;17
S90000;24GD250R22H;1
S90000;24GD500R22;10
S90000;24GM030C21;1
S90000;24LC075R22;145
S90000;24LC250CB4;5
S90000;24LC250CBL22;3
S90000;24LC250R22;8
S90000;24MA030CB21;30
S90000;24MA030CBL22;3
S90000;24MA030P15;1
S90000;24MA030R22;8
S90000;24MA030RA19;9
S90000;24MA030RE19;10
S90000;24MA030RV19;8
S90000;24MA075CB4;4
S90000;24MA075P15;9
S90000;24MA075R18;24
S90000;24MA075R22;13
S90000;24MA150R22;7
S90000;24RG500CB21;11
S90000;24RG500R22;6
S90000;24SA050CB21;3
S90000;24SA050R22;1
S90000;27DB015I20;7
S90000;27DCB060I17;6
S90000;27DE015I21;6
S90000;27DH015I20;3
S90000;27DH015I22;9
S90000;27DH030I20;12
S90000;27DH030I22;13
S90000;27DL200I21;10
S90000;27DS030I20;4
S90000;27ER150I21;5
S90000;27HC050I18;5
S90000;27HCR050I16;5
S90000;27HS030I18;2
S90000;27HSR030I16;3
S90000;27MI150I20;1
S90000;27MP050I20;130
S90000;27MP150I20;1
S90000;27MP150I22;13
S90000;27MQ065I15A;3
S90000;27MS050I20;2
S90000;27SP030I19;7
S90000;27TS001I20;679
S90000;29ASH240A20;2
S90000;29BP100A22;8
S90000;29EC200A21;5
S90000;29HD075A15;65
S90000;29HS100A21;9
S90000;29LC200A20US;4
S90000;29MA075A21;11
S90000;29ORALM22;2
S31000;52GIF1NO22;6
S31000;52GIF2NO22;6
S31000;52HD006A18;237
S31000;52HKNO22;1
S31000;52HS001I17;89
S31000;52HS004A18;94
S31000;52LABANO22;35
S31000;52LASANO22;481
S31000;52LC006A20;190
S31000;52LGEBAG19;9
S31000;52LGEBOX18;8
S31000;52LGENSA21;126
S31000;52LT002R21;5
S31000;52MA003K22A;115
S31000;52MC006G21;76
S31000;52MGEBOX18;3
S31000;52MGENSA21;97
S31000;52MIBANO22;7
S31000;52MMB1NO22;39
S31000;52MMB2NO22;50
S31000;52MMB3NO22;65
S31000;52MMBANO22;319
S31000;52MMSANO22;285
S31000;52MOCOL216;1
S31000;52MOCOL316;3
S31000;52MS001I20;132
S31000;52OR001I21;242
S31000;52PHGHTS20;4
S31000;52PRBONO22;1
S31000;52PS0015R21;64
S31000;52PSAC18;1
S31000;52QUAGD22;1
S31000;52RBO2NO22;6
S31000;52RBO3NO22;6
S31000;52RIB1NO22;17
S31000;52RIB2NO22;17
S31000;52RIBOXNO22;780
S31000;52SGEBOX18;10
S31000;52SGENSA21GPS;99
S31000;52SH006E19;191
S31000;52SH006FV21;52
S31000;52SH006G21;99
S31000;52SH006P19;91
S31000;52SMB1NO22;6
S31000;52SMB2NO22;6
S31000;52SMBANO22;14
S31000;52SMSANO22;251
S31000;52SP001I19;14
S31000;52STINO22;16
S31000;52TS001I22;254
S31000;52TS001R21;78
S31000;52TSANIVISLI20;1
S31000;52TSPDIS20;3
S31000;52WRAPNO22;7
S31000;52YGERIB20;2
S31000;54VMHOLIDAY22;1
S31000;54VMWHSHOLIDAY22;2
S31000;98BBGD030VE4;10
S31000;98BBLC030VE5;9
S31000;98BBMA010KA3;18
S31000;ACPOCVEC00001;160
S31000;ACPOCVEC00002;94
S31000;ACPOCVEC00003;163
S31000;ACPOCVEC00004;93
S31000;ACPOCVEC00005;217
S31000;ACPOCVKA00700;2
S31000;SGOCVKI00215;1
S31000;SGOCVKI00216;1
S31000;SGOCVKI00217;5
S31000;SGOCVKI00222;2
S31000;SGOCVKI00227;1
S31000;SGOCVKI00229;1
S31000;SGOCVKI00230;1
S31000;SGOCVKI00234;30
S31000;SGOCVKI00235;16
S31000;SGOCVKI00237;10
S31000;SGOCVKI00240;6
S31000;SGOCVKI00241;11
S30000;SGOCVKI00218;3
S30000;SGOCVKI00221;1
S30000;SGOCVKI00222;18
S30000;SGOCVKI00223;1
S30000;SGOCVKI00227;3
S30000;SGOCVKI00230;4
S30000;SGOCVKI00231;2
S30000;SGOCVKI00232;7
S30000;SGOCVKI00234;22
S30000;SGOCVKI00235;47
S30000;SGOCVKI00236;4
S30000;SGOCVKI00240;4
S30000;SGOCVKI00241;9
S30000;SGOCVKI00242;12
S30000;SGOCVKI00244;19
S27000;20ET075CD20;4
S21000;20ET075HC20;3
S27000;20ET075HC20;3
S21000;20ET075OC20;1
S27000;20ET075OC20;4
S27000;20FE050H20;8
S21000;20FE050H20;4
S21000;20GD250CD20;14
S27000;20GD250CD20;2
S27000;20GD250HC20;6
S21000;20GD250HC20;8
S21000;20GD250OC20;13
S21000;20GD500HC20;8
S27000;20GD500HC20;9
S27000;20HR050H20;6
S21000;20HR050H20;3
S21000;20NV150H20;9
S27000;20NV150H20;4
S21000;20SA050CD20;4
S21000;20SA050HC20;4
S21000;24BL012CB5;4
S27000;24BL012CB5;1
S27000;24BL012R22;4
S21000;24BL012R22;9
S21000;24BR050CB21;3
S27000;24BR050CB6;2
S27000;24BR050R22;10
S21000;24BR050R22;5
S27000;24EDT10C21;1
S27000;24ET075CB21;6
S27000;24ET075R22;1
S21000;24ET075R22;4
S21000;24GD250CB21;23
S27000;24GD250CB21;16
S27000;24GD250R22;6
S21000;24GD250R22;16
S21000;24GD500R22;6
S27000;24GD500R22;3
S27000;24GM030C21;1
S27000;24LC250CB4;13
S21000;24LC250CB4;10
S21000;24LC250R22;10
S27000;24LC250R22;1
S27000;24MA030CB4;7
S27000;24MA030R22;29
S21000;24MA030R22;22
S21000;24MA030RV19;6
S27000;24MA075CB21;10
S21000;24MA075P15;11
S21000;24MA075R22;9
S27000;24MA075R22;1
S27000;24MA150R22;2
S21000;24MA150R22;8
S28000;24RG500R22;6
S20;24RG500R22;20
S20;24RO010CB4;5
S28000;24RO010CB4;6
S28000;24SA050CB21;1
S20;24SA050CB21;13
S20;24SA050R22;13
S28000;24SA050R22;1
S28000;27BY015I19;6
S20;27CP050I19;5
S20;27CP050I22;3
S28000;27CP050I22;10
S28000;27DB015I20;10
S20;27DB015I20;9
S20;27DC050I20;8
S28000;27DC050I20;14
S28000;27DCB060I17;2
S20;27DCB060I17;4
S20;27DE015I21;10
S28000;27DE015I21;11
S28000;27DF125I17;24
S20;27DF125I17;10
S20;27DH015I20;2
S28000;27DH015I20;2
S28000;27DH015I22;27
S20;27DH015I22;16
S20;27DH030I20;3
S28000;27DH030I20;3
S28000;27DH030I22;22
S20;27DH030I22;19
S20;27DL200I21;6
S28000;27DL200I21;5
S28000;27DS030I20;7
S28000;27ER015I22;19
S28000;27ER050I21;14
S28000;27ER150I21;23
S28000;27EV200I19;8
S28000;27HC050I18;3
S28000;27HCR050I16;6
S28000;27HS030I18;1
S28000;27HSR030I16;6
S28000;27MI150I20;4
S28000;27MP050I20;82
S28000;27MP150I22;19
S28000;27MQ065I15A;3
S28000;27MS050I20;10
S28000;27OR030I21;36
S28000;27OR050I21;34
S28000;27SP030I19;4
S28000;29ASH240A20;5
S28000;29BP100A22;5
S28000;29EC200A21;8
S28000;29GE200A21;20
S90000;29RC200A20;5
S90000;29SE125A21;5
S90000;29VC240A16;13
S90000;29VC240A22;12
S90000;38BV050A19;4
S90000;38EC015A18;5
S90000;38EV075A21;10
S90000;38FT200A18;9
S90000;38FT200A21;6
S90000;38MI150A18;1
S90000;38MI150A22;8
S90000;38RC050A18;1
S90000;38RC050A22;5
S90000;38UV030A18;12
S90000;38WC050A18;31
S90000;38WC050A21;6
S90000;38WS030A18;12
S90000;38WS030A21;8
S90000;49AF015G20;160
S90000;49BM010K19;147
S90000;49BO015CS19;130
S90000;49CABNO22;187
S90000;49CAS2NO22;60
S90000;49CL1SA18;43
S90000;49CM010O21;139
S90000;49CM030I19;70
S90000;49CP004I19;8
S90000;49CP008I19;25
S90000;49CP020K22;7
S90000;49CRM1NO22;40
S90000;49CRM3NO22;5
S90000;49DB004I20;30
S90000;49DC004I20;10
S90000;49DC008I20;16
S90000;49DH004I20;51
S90000;49DH004I22;30
S90000;49DISC3NO22;30
S90000;49EDT0075O22;14
S90000;49ET007CB22;8
S90000;49GD035CB5;43
S90000;49HD035A15;200
S90000;49HS015A18;18
S90000;49IC1POU20;14
S90000;49IC2POU20;47
S90000;49IC3POU20;27
S90000;49LD030I20;26
S90000;49LD030I21;21
S90000;49LT030R21;89
S90000;49MA010A17;135
S90000;49MA010A21X;10
S90000;49MA010CB4;76
S90000;49MA010K22;40
S90000;49MA010L16;68
S29000;27MI150I20;4
S29000;27MP050I20;53
S10;27MP050I20;52
S29000;27MP150I20;1
S29000;27MP150I22;7
S10;27MP150I22;7
S10;27MQ065I15A;4
S29000;27MQ065I15A;2
S29000;27MS050I20;8
S10;27MS050I20;4
S10;27OR030I21;20
S29000;27OR030I21;24
S29000;27OR050I21;12
S10;27OR050I21;4
S10;27SP030I19;4
S29000;27SP030I19;5
S29000;29ASH240A20;16
S10;29ASH240A20;3
S10;29BP100A22;1
S29000;29BP100A22;3
S29000;29EC200A21;9
S10;29EC200A21;4
S10;29GE200A21;13
S29000;29GE200A21;39
S29000;29HD250A15;31
S10;29HD250A15;4
S10;29HD500A15;12
S29000;29HD500A15;50
S29000;29HS100A22SM;30
S10;29HS100A22SM;2
S10;29LC200A20US;15
S29000;29LC200A20US;12
S29000;29MA030A17;31
S29000;29MA075A21;8
S10;29MA075A21;2
S10;29ORALM22;2
S10;29RC200A20;13
S29000;29RC200A20;82
S29000;29RH500A15;70
S10;29RH500A15;20
S29000;29SA050A21;6
S29000;29SE125A21;1
S10;29SE125A21;1
S10;29SH240A20;2
S29000;29SH240A20;3
S29000;29VC240A22;1
S10;29VC240A22;2
S10;38BV050A19;3
S29000;38BV050A19;1
S29000;38EC015A18;4
S10;38EC015A18;4
S10;38EV075A21;4
S29000;38EV075A21;6
S29000;38FT200A21;11
S21000;24RG500CB21;10
S27000;24RG500CB21;6
S27000;24RG500R22;9
S21000;24RG500R22;10
S21000;24RO010CB4;4
S27000;24RO010CB4;2
S27000;24SA050CB21;16
S21000;24SA050CB21;1
S21000;24SA050R22;1
S27000;24SA050R22;21
S21000;27BP050I19;3
S21000;27BY015I19;3
S27000;27BY015I19;2
S21000;27CP050I19;6
S21000;27CP050I22;2
S27000;27CP050I22;3
S27000;27DB015I20;4
S21000;27DB015I20;8
S21000;27DC050I20;10
S27000;27DC050I20;7
S27000;27DCB060I17;5
S21000;27DCB060I17;6
S21000;27DE015I21;7
S27000;27DE015I21;3
S27000;27DF125I17;8
S21000;27DF125I17;15
S21000;27DH015I22;12
S27000;27DH015I22;15
S27000;27DH030I20;4
S21000;27DH030I20;2
S21000;27DH030I22;15
S27000;27DH030I22;13
S27000;27DL200I21;3
S21000;27DL200I21;5
S21000;27DS030I20;6
S27000;27DS030I20;6
S27000;27ER015I22;15
S21000;27ER015I22;14
S21000;27ER050I21;8
S27000;27ER050I21;5
S27000;27ER150I21;8
S21000;27ER150I21;10
S21000;27EV200I19;2
S27000;27EV200I19;5
S27000;27HC050I18;4
S21000;27HC050I18;4
S21000;27HCR050I16;2
S27000;27HCR050I16;4
S27000;27HS030I18;2
S21000;27HS030I18;3
S21000;27HSR030I16;4
S27000;27HSR030I16;4
S27000;27MI150I20;4
S10;38FT200A21;6
S10;38MI150A22;12
S29000;38MI150A22;4
S10;38RC050A18;2
S10;38RC050A22;14
S29000;38RC050A22;11
S29000;38UV030A18;11
S10;38UV030A18;11
S10;38WC050A21;3
S29000;38WC050A21;9
S10;38WM065A18;2
S10;38WS030A21;4
S29000;38WS030A21;8
S10;49BO015CS19;53
S10;49CRM2NO22;65
S29000;49CRM2NO22;136
S29000;49CUPNO22;127
S10;49CUPNO22;56
S10;49DC004I20;35
S10;49DH004I20;10
S29000;49HD035A15;18
S29000;49OR005I21;84
S29000;49PADCL20;45
S29000;49POCK1NO22;52
S29000;52AF006G20;124
S29000;52AS006E19;94
S29000;52AS006FV21;99
S29000;52AS006G21;118
S29000;52AS006P19;134
S29000;52BY001I19;134
S29000;52CARDNO22;18
S29000;52CD0015A18;1
S29000;52CL0015K21;62
S29000;52CP0015I19;143
S29000;52CP006K22;146
S29000;52CV0015K22;122
S29000;52DB001I20;58
S29000;52DC0015I20;153
S29000;52DE001I21;97
S29000;52DF002I17;87
S29000;52DH001I20;100
S29000;52DH001I22;179
S29000;52DL002I21;194
S29000;52DS001I20;81
S29000;52ER002I21;320
S29000;52EV002I19;50
S29000;52GD0015A18;59
S29000;52GIF1NO22;4
S29000;52GIF2NO22;4
S29000;52HD006A18;142
S29000;52HS001I17;42
S29000;52HS004A18;93
S29000;52LASANO22;303
S21000;27MI150I20;6
S21000;27MP050I20;57
S27000;27MP050I20;36
S27000;27MP150I20;1
S27000;27MP150I22;5
S21000;27MP150I22;4
S21000;27MQ065I15A;4
S27000;27MQ065I15A;4
S27000;27MS050I20;4
S21000;27MS050I20;7
S21000;27OR030I21;17
S27000;27OR030I21;16
S27000;27OR050I21;21
S21000;27OR050I21;26
S21000;27SP030I19;6
S27000;27SP030I19;4
S27000;29ASH240A20;5
S21000;29ASH240A20;4
S21000;29BP100A19;2
S27000;29BP100A19;3
S27000;29BP100A22;4
S21000;29BP100A22;4
S21000;29EC200A21;5
S27000;29EC200A21;5
S27000;29GE200A21;21
S21000;29GE200A21;25
S21000;29HD250A15;9
S27000;29HD250A15;2
S27000;29HD500A15;9
S21000;29HD500A15;12
S21000;29HS100A22SM;6
S27000;29HS100A22SM;8
S27000;29LC200A20US;11
S21000;29LC200A20US;15
S21000;29MA030A17;1
S27000;29MA030A17;27
S27000;29MA075A21;7
S21000;29MA075A21;11
S21000;29RC200A20;40
S27000;29RC200A20;23
S27000;29RH500A15;7
S21000;29RH500A15;42
S21000;29SA050A21;8
S27000;29SA050A21;4
S27000;29SE125A21;6
S21000;29SE125A21;13
S21000;29SH240A20;5
S27000;29SH240A20;1
S27000;29VC240A22;2
S21000;29VC240A22;8
S27000;38BV050A19;1
S27000;38EC015A18;2
S27000;38EV075A21;6
S28000;29HD075A15;1
S28000;29HD500A15;42
S28000;29HD9000A21;1
S28000;29HS100A22SM;23
S28000;29LC200A20US;22
S28000;29MA030A17;28
S28000;29RC200A20;41
S28000;29RH500A15;32
S28000;29SA050A21;2
S28000;29SE125A21;11
S28000;29SH240A20;7
S28000;29VC240A22;13
S28000;38BV050A19;1
S28000;38EC015A18;3
S28000;38EV075A21;10
S28000;38FT200A21;11
S28000;38MI150A22;6
S28000;38RC050A22;8
S28000;38UV030A18;17
S28000;38WC050A21;12
S28000;38WS030A21;11
S28000;49CRM2NO22;118
S28000;49CUPNO22;103
S28000;49DC004I20;11
S28000;49DH004I20;14
S28000;49DISC3NO22;1
S28000;49HD035A15;1
S28000;49OR005I21;106
S28000;49POCK1NO22;61
S28000;52AF006G20;93
S28000;52AS006E19;114
S28000;52AS006FV21;27
S28000;52AS006G21;93
S28000;52AS006P19;53
S28000;52BY001I19;107
S28000;52CARDNO22;26
S28000;52CD0015A18;3
S28000;52CL0015K21;23
S28000;52CP0015I19;35
S28000;52CP006K22;161
S28000;52CV0015K22;232
S28000;52DB001I20;163
S28000;52DC0015I20;117
S28000;52DE001I21;179
S28000;52DF002I17;266
S28000;52DH001I22;75
S28000;52DL002I21;144
S28000;52DS001I20;81
S28000;52ER002I21;188
S28000;52FP0015I19;58
S28000;52GD0015A18;54
S28000;52GIF1NO22;9
S28000;52GIF2NO22;9
S29000;52LC006A20;140
S29000;52LGEBOX18;8
S29000;52LGENSA21;75
S29000;52LT002R21;69
S29000;52MA003K22A;134
S29000;52MC006G21;76
S29000;52MGEBOX18;2
S29000;52MGENSA21;67
S29000;52MMB1NO22;99
S29000;52MMB2NO22;59
S29000;52MMB3NO22;75
S29000;52MMSANO22;418
S29000;52MOCOL316;7
S29000;52MS001I20;71
S29000;52OR001I21;195
S29000;52PMGBOX18;1
S29000;52PS0015R21;85
S29000;52RIB1NO22;16
S90000;49MA010VB3;12
S90000;49MASKRS21;26
S90000;49MR010K14;45
S90000;49MS008I20;169
S24000;52BY001I19;76
S24000;52CARDNO22;14
S24000;52CD0015A18;41
S24000;52CL0015K21;120
S24000;52CP0015I19;82
S24000;52CP006K22;372
S24000;52CV0015K22;113
S24000;52DB001I20;132
S24000;52DC0015I20;327
S24000;52DE001I21;266
S24000;52DF002I17;199
S24000;52DH001I22;275
S24000;52DL002I21;155
S24000;52DS001I20;71
S24000;52ER002I21;355
S24000;52GD0015A18;62
S24000;52GIF1NO22;6
S24000;52GIF2NO22;6
S24000;52HD006A18;235
S24000;52HS001I17;136
S24000;52HS004A18;138
S24000;52LABANO22;69
S24000;52LASANO21;120
S24000;52LASANO22;97
S24000;52LC006A20;199
S24000;52LGEBAG19;51
S24000;52LGEBOX18;12
S24000;52LGENSA21;31
S24000;52LT002R21;26
S24000;52MA003K22A;350
S24000;52MC006G21;104
S24000;52MGEBAG19;55
S24000;52MGEBOX18;9
S24000;52MGENSA21;83
S24000;52MMB3NO22;7
S24000;52MMBANO22;94
S24000;52MMSANO22;165
S24000;52MOCOL316;3
S24000;52MS001I20;243
S24000;52OR001I21;342
S24000;52PMGBOX18;14
S24000;52PS0015R21;130
S24000;52RIB1NO22;11
S24000;52RIB2NO22;11
S24000;52RIBOXNO22;507
S24000;52SGENSA21GPS;44
S24000;52SH006E19;169
S24000;52SH006FV21;190
S24000;52SH006G21;165
S27000;38FT200A21;9
S27000;38MI150A22;12
S27000;38RC050A22;4
S27000;38UV030A18;4
S27000;38WC050A21;6
S27000;38WS030A21;5
S27000;49BO015CS19;4
S27000;49CRM1NO22;1
S27000;49CRM2NO22;28
S27000;49CUPNO22;54
S27000;49HD035A15;34
S27000;49MA010K22;3
S27000;49OR005I21;24
S27000;49POCK1NO22;36
S27000;52AF006G20;144
S27000;52AS006E19;73
S27000;52AS006FV21;54
S27000;52AS006G21;115
S27000;52AS006P19;74
S27000;52BY001I19;167
S27000;52CARDNO22;17
S27000;52CD0015A18;21
S27000;52CL0015K21;33
S27000;52CP0015I19;63
S27000;52CP006K22;285
S27000;52CV0015K22;115
S27000;52DB001I20;120
S27000;52DC0015I20;272
S27000;52DE001I21;88
S27000;52DF002I17;78
S27000;52DH001I22;284
S27000;52DL002I21;182
S27000;52DS001I20;98
S27000;52ER002I21;318
S27000;52FP0015I19;82
S27000;52GD0015A18;52
S27000;52GIF1NO22;6
S27000;52GIF2NO22;6
S27000;52HD006A18;237
S27000;52HS001I17;62
S27000;52HS004A18;152
S27000;52LABANO22;38
S27000;52LASANO22;64
S27000;52LC006A20;341
S27000;52LGEBAG19;52
S27000;52LGEBOX18;9
S27000;52LGENSA21;71
S27000;52LT002R21;47
S27000;52MA003K22A;117
S27000;52MC006G21;269
S27000;52MGEBOX18;9
S27000;52MGENSA21;77
S27000;52MMB1NO22;39
S28000;52HD006A18;346
S28000;52HS001I17;62
S28000;52HS004A18;232
S28000;52LASANO22;354
S28000;52LC006A20;82
S28000;52LGEBAG19;14
S28000;52LGEBOX18;18
S28000;52LGENSA21;129
S28000;52LT002R21;2
S28000;52MA003K22A;77
S28000;52MC006G21;157
S28000;52MGEBOX18;5
S28000;52MGENSA21;65
S28000;52MMB1NO22;34
S28000;52MMB2NO22;42
S28000;52MMB3NO22;24
S28000;52MMSANO22;144
S28000;52MOCOL316;6
S28000;52MS001I20;47
S28000;52OR001I21;444
S28000;52PHGHTS20;4
S28000;52PMGBOX18;31
S28000;52PS0015R21;241
S28000;52PSAC18;1
S28000;52RIB1NO22;22
S28000;52RIB2NO22;22
S28000;52RIBOXNO22;1160
S28000;52SAMPENV18;516
S28000;52SGENSA21GPS;52
S28000;52SH006E19;119
S28000;52SH006FV21;181
S28000;52SH006G21;233
S28000;52SH006P19;15
S28000;52SMSANO22;88
S28000;52SP001I19;145
S28000;52STINO22;22
S28000;52TS001I22;275
S28000;52TS001R21;154
S28000;52YGERIB20;4
S28000;98BBGD030VE4;4
S28000;ACPOCVEC00001;44
S28000;ACPOCVEC00002;268
S28000;ACPOCVEC00003;95
S28000;ACPOCVEC00004;110
S28000;ACPOCVEC00005;310
S24000;52SH006P19;119
S24000;52SMBANO22;5
S24000;52SMSANO22;43
S24000;52SP001I19;58
S24000;52STINO22;11
S24000;52TS001I22;147
S24000;52TS001R21;94
S24000;98BBGD030VE4;6
S24000;98BBLC030VE5;6
S24000;ACPOCVEC00001;310
S24000;ACPOCVEC00002;31
S24000;ACPOCVEC00003;100
S24000;ACPOCVEC00005;241
S24000;SGOCVKI00215;1
S24000;SGOCVKI00218;2
S24000;SGOCVKI00225;1
S24000;SGOCVKI00234;50
S24000;SGOCVKI00235;11
S24000;SGOCVKI00236;7
S24000;SGOCVKI00237;4
S24000;SGOCVKI00239;9
S24000;SGOCVKI00240;5
S27000;52MMB2NO22;31
S27000;52MMB3NO22;52
S27000;52MMBANO22;49
S27000;52MMSANO22;105
S27000;52MOCOL316;3
S27000;52MS001I20;96
S27000;52OR001I21;173
S27000;52PMGBOX18;1
S27000;52PS0015R21;76
S27000;52PSAC18;1
S27000;52RIB1NO22;14
S27000;52RIB2NO22;14
S27000;52RIBOXNO22;558
S27000;52SGENSA21GPS;5
S27000;52SH006E19;174
S27000;52SH006FV21;157
S27000;52SH006G21;177
S27000;52SH006P19;84
S27000;52SMSANO22;13
S27000;52SP001I19;42
S27000;52STINO22;14
S27000;52TS001I22;125
S27000;52TS001R21;91
S27000;ACPOCVEC00001;398
S27000;ACPOCVEC00002;28
S27000;ACPOCVEC00003;70
S27000;ACPOCVEC00005;102
S27000;ACPOCVKA00700;10
S27000;SGOCVE600004;3
S27000;SGOCVKI00218;4
S27000;SGOCVKI00222;5
S27000;SGOCVKI00228;1
S27000;SGOCVKI00234;17
S27000;SGOCVKI00235;9
S27000;SGOCVKI00236;10
S27000;SGOCVKI00237;1
S27000;SGOCVKI00239;4
S27000;SGOCVKI00240;5
S27000;SGOCVKI00241;8
