S10;01BK010K14;8
S29000;01BK010K14;9
S10;01BL012K18;5
S29000;01BL012K18;12
S10;01BL012KC22H;9
S29000;01BL012KC22H;12
S10;01BL012KG22H;14
S29000;01BL012KG22H;22
S10;01BM050K19;11
S29000;01BM050K19;9
S10;01BM150K19;10
S29000;01BM150K19;21
S10;01BP050K21;6
S29000;01BP050K21;11
S10;01BV050K16;4
S29000;01BV050K16;4
S10;01CD250K17;8
S29000;01CD250K17;34
S10;01CD250KC22H;15
S29000;01CD250KC22H;7
S10;01CE200KC22H;11
S29000;01CE200KC22H;19
S10;01CF050K22;4
S29000;01CF050K22;8
S10;01CL050K21;5
S29000;01CL050K21;6
S10;01CL175K22;7
S29000;01CL175K22;7
S10;01CL200KG22H;5
S29000;01CL200KG22H;13
S10;01CM300K20;6
S29000;01CM300K20;18
S10;01CM500K20;5
S29000;01CM500K20;15
S10;01CMJ075K21;12
S29000;01CMJ075K21;14
S10;01CMR500K20;6
S29000;01CMR500K20;21
S10;01CP100KC22H;7
S29000;01CP100KC22H;15
S10;01CP200K22;10
S29000;01CP200K22;13
S10;01CPR200K22;14
S29000;01CPR200K22;23
S10;01CV050K22;5
S29000;01CV050K22;6
S10;01EC200K22;7
S29000;01EC200K22;15
S10;01EM075K20;5
S29000;01EM075K20;11
S10;01HD250K17;6
S29000;01HD250K17;11
S10;01HD500K20;4
S31000;01BK010K14;1
S31000;01BL012K18;3
S31000;01BL012KC22H;23
S31000;01BL012KG22H;26
S31000;01BM050K19;7
S31000;01BM150K19;10
S31000;01BP050K21;2
S31000;01BV050K16;8
S31000;01CD250K17;12
S31000;01CD250KC22H;12
S31000;01CE200KC22H;21
S31000;01CF050K22;14
S31000;01CL050K21;10
S31000;01CL175K22;5
S31000;01CL200KG22H;7
S31000;01CM300K20;8
S31000;01CM500K20;7
S31000;01CMJ075K21;21
S31000;01CMR500K20;12
S31000;01CP100KC22H;12
S31000;01CP200K22;5
S31000;01CPR200K22;22
S31000;01CV050K22;3
S31000;01EC200K22;10
S31000;01EM075K20;5
S31000;01HD250K17;4
S31000;01HD500K20;13
S31000;01HDR500K20;8
S31000;01HF100K17;1
S31000;01HN075KG22H;2
S31000;01HV030K16;4
S31000;01LC250K17;4
S31000;01LC500K20;14
S31000;01LT300K20;7
S31000;01MA030K22;50
S31000;01MA030K22H;31
S31000;01MA030KC22H;87
S31000;01MA030KG22H;83
S31000;01MA075K22;23
S31000;01MA150K22;12
S31000;01MA150KC22H;63
S31000;01MA150KG22H;77
S31000;01MD200KG22H;30
S31000;01MR030K14;13
S31000;01ORKAR22;75
S31000;01PI030K18;9
S31000;01PI150K18;8
S31000;01PWPKT22;19
S31000;01RL500K20;8
S31000;01RV500K20;17
S31000;01SA050KC22H;9
S31000;01SA050KG22H;10
S31000;01SA100LT20;12
S24000;52BY001I19;48
S24000;52CARDNO22;4
S24000;52CD0015A18;51
S24000;52CL0015K21;113
S24000;52CP0015I19;102
S24000;52CP006K22;390
S24000;52CV0015K22;123
S24000;52DB001I20;125
S24000;52DC0015I20;298
S24000;52DE001I21;284
S24000;52DF002I17;227
S24000;52DH001I22;219
S24000;52DL002I21;150
S24000;52DS001I20;87
S24000;52ER002I21;422
S24000;52GD0015A18;85
S24000;52GIF1NO22;3
S24000;52GIF2NO22;3
S24000;52HD006A18;261
S24000;52HS001I17;83
S24000;52HS004A18;118
S24000;52LABANO22;143
S24000;52LASANO21;120
S24000;52LASANO22;212
S24000;52LC006A20;306
S24000;52LGEBAG19;51
S24000;52LGEBOX18;12
S24000;52LGENSA21;31
S24000;52LT002R21;59
S24000;52MA003K22A;403
S24000;52MC006G21;158
S24000;52MGEBAG19;55
S24000;52MGEBOX18;9
S24000;52MGENSA21;83
S24000;52MIBANO22;221
S24000;52MMBANO22;180
S24000;52MMSANO22;334
S24000;52MOCOL316;1
S24000;52MS001I20;255
S24000;52OR001I21;331
S24000;52PMGBOX18;14
S24000;52PS0015R21;99
S24000;52RIB1NO22;7
S24000;52RIB2NO22;7
S24000;52RIBOXNO22;147
S24000;52SGENSA21GPS;77
S24000;52SH006E19;185
S24000;52SH006FV21;177
S24000;52SH006G21;114
S24000;52SH006P19;122
S24000;52SMBANO22;276
S24000;52SMSANO22;229
S24000;52SP001I19;66
S00;27CN050I14;2
S10;49HD035A15;90
S10;49LC020A20;153
S10;49MA010K22;9
S10;49OR005I21;102
S10;52AF006G20;112
S10;52AS006E19;109
S10;52AS006FV21;58
S10;52AS006G21;85
S10;52AS006P19;120
S10;52BY001I19;253
S10;52CARDNO22;4
S10;52CD0015A18;34
S10;52CL0015K21;86
S10;52CP0015I19;51
S10;52CP006K22;119
S10;52CV0015K22;81
S10;52DB001I20;149
S10;52DC0015I20;112
S10;52DE001I21;110
S10;52DF002I17;164
S10;52DH001I22;156
S10;52DL002I21;211
S10;52DS001I20;40
S10;52ER002I21;511
S10;52GD0015A18;97
S10;52GIF1NO22;3
S10;52GIF2NO22;3
S10;52HD006A18;188
S10;52HS001I17;56
S10;52HS004A18;50
S10;52LABANO22;26
S10;52LASANO22;197
S10;52LC006A20;201
S10;52LGEBOX18;10
S10;52LGENSA21;124
S10;52LT002R21;128
S10;52MA003K22A;119
S10;52MC006G21;126
S10;52MGEBOX18;20
S10;52MGENSA21;55
S10;52MIBANO22;49
S10;52MMB1NO22;20
S10;52MMB2NO22;27
S10;52MMB3NO22;29
S10;52MMBANO22;367
S10;52MMSANO22;361
S10;52MOCOL316;1
S10;52MS001I20;25
S10;52OR001I21;124
S10;52PMGBOX18;8
S10;52PS0015R21;8
S10;52PSAC18;1
S10;52RIB1NO22;7
S10;52RIB2NO22;7
S24000;01BK010K14;5
S24000;01BL012K18;3
S24000;01BL012KC22H;1
S24000;01BL012KG22H;14
S24000;01BP050K21;3
S24000;01BV050K16;6
S24000;01CD250K17;8
S24000;01CE200KC22H;9
S24000;01CF050K22;1
S24000;01CL050K21;5
S24000;01CL175K22;5
S24000;01CL200KG22H;4
S24000;01CM300K20;9
S24000;01CM500K20;6
S24000;01CMJ075K21;9
S24000;01CP200K22;7
S24000;01CPR200K22;10
S24000;01CV050K22;8
S24000;01EC200K22;6
S24000;01EM075K20;4
S24000;01HD250K17;7
S24000;01HD500K20;3
S24000;01HF100K17;4
S24000;01HN0075K19;8
S24000;01HN075KG22H;8
S24000;01HV030K16;4
S24000;01LC250K17;2
S24000;01LT300K20;12
S24000;01MA030K22;42
S24000;01MA030KC22H;18
S24000;01MA030KG22H;31
S24000;01MA075K22;15
S24000;01MA150K22;24
S24000;01MA150KC22H;10
S24000;01MA150KG22H;26
S24000;01MD200KG22H;19
S24000;01MR030K14;27
S24000;01ORKAR22;38
S24000;01PI030K18;5
S24000;01PI150K18;9
S24000;01PWPKT22;10
S24000;01RL500K20;6
S24000;01RV500K20;5
S24000;01SA050KC22H;6
S24000;01SA050KG22H;6
S24000;01SA050KV20;6
S24000;01SA100LT20;14
S24000;01SA100LV20;19
S24000;01SA100VE20;17
S24000;01SA250LT20;4
S24000;01SA250LV20;15
S24000;01SA250VE20;16
S90000;01BM050K19;3
S90000;01BV050K16;5
S90000;01CF050K22;1
S90000;01CL050K21;5
S90000;01CL175K22;4
S90000;01CL200K17;34
S90000;01CM300K20;8
S90000;01CM500K20;7
S90000;01CMJ075K21;1
S90000;01CP050K22;4
S90000;01CPR200K22;3
S90000;01CV050K18;27
S90000;01EC200K22;14
S90000;01EM075K20;11
S90000;01EN300KB19;14
S90000;01HD250K17;5
S90000;01HD500K20;3
S90000;01HF100K17;4
S90000;01HN0075K19;3
S90000;01HV030K16;3
S90000;01LC500K20;1
S90000;01MA075K18;6
S90000;01MA150K18;2
S90000;01MR030K14;4
S90000;01PI030K18;9
S90000;01RL500K20;4
S90000;01SA050KV20;2
S90000;01SA100LV20;4
S90000;01SA100VE20;11
S90000;01SA250LT20;8
S90000;01SA300KRO22;12
S90000;01SA500KRO22;14
S90000;01SAR500KRO22;9
S90000;01SE125K21;2
S90000;01SL0045KR22;20
S90000;01SL300LV20;8
S90000;01SL300VE20;9
S90000;01SL500LV20;5
S90000;01SL500VE20;14
S90000;10BOWEB219;1100
S90000;10BOWEB319;2300
S90000;10BOWEB419;1900
S90000;10CRAKT22;7
S90000;11BG140SH19;8
S90000;11BG140SI19;10
S90000;11BG140SL19;12
S90000;11BH050A18;3
S90000;11BP100I19;8
S90000;11BR100A20;7
S90000;11CD050A18;3
S90000;11CF100TR19;5
S90000;11CM030H19;5
S90000;11CM030H20;13
S20;01BK010K14;13
S20;01BL012K18;19
S20;01BL012KC22H;9
S20;01BL012KG22H;8
S20;01BM050K19;15
S20;01BM150K19;27
S20;01BP050K21;9
S20;01BV050K16;12
S20;01CD250K17;16
S20;01CD250KC22H;21
S20;01CE200KC22H;9
S20;01CF050K22;8
S20;01CL050K21;7
S20;01CL175K22;6
S20;01CL200KG22H;12
S20;01CL300KB20;12
S20;01CM300K20;14
S20;01CM500K20;15
S20;01CMJ075K21;23
S20;01CMR500K20;17
S20;01CP100KC22H;9
S20;01CP200K22;11
S20;01CPR200K22;14
S20;01CV050K22;6
S20;01EC200K22;9
S20;01EM075K20;4
S20;01HD250K17;16
S20;01HD500K20;15
S20;01HDR500K20;16
S20;01HF100K17;6
S20;01HN0075K19;13
S20;01HN075KG22H;12
S20;01HV030K16;4
S20;01LC250K17;19
S20;01LT300K20;14
S20;01MA030K22;60
S20;01MA030K22H;68
S20;01MA030KC22H;42
S20;01MA030KG22H;56
S20;01MA075K22;49
S20;01MA150K22;42
S20;01MA150KC22H;24
S20;01MA150KG22H;41
S20;01MD200KG22H;29
S20;01MR030K14;35
S20;01MR150K16;48
S20;01ORKAR22;56
S20;01PI030K18;8
S20;01PI150K18;15
S20;01PWPKT22;10
S20;01RL500K20;19
S20;01RV500K20;15
S20;01SA050KC22H;6
S20;01SA050KG22H;8
S29000;01HD500K20;15
S10;01HDR500K20;5
S29000;01HDR500K20;21
S29000;01HF100K17;9
S10;01HN0075K19;3
S29000;01HN0075K19;9
S10;01HN075KG22H;6
S29000;01HN075KG22H;7
S10;01HV030K16;6
S29000;01HV030K16;4
S10;01LC250K17;14
S29000;01LC250K17;30
S10;01LT300K20;13
S29000;01LT300K20;12
S10;01MA030K22;48
S29000;01MA030K22;50
S10;01MA030K22H;8
S29000;01MA030K22H;17
S10;01MA030KC22H;29
S29000;01MA030KC22H;25
S10;01MA030KG22H;28
S29000;01MA030KG22H;41
S10;01MA075K22;12
S29000;01MA075K22;29
S10;01MA150K22;24
S29000;01MA150K22;71
S10;01MA150KC22H;16
S29000;01MA150KC22H;25
S10;01MA150KG22H;24
S29000;01MA150KG22H;28
S10;01MD200KG22H;30
S29000;01MD200KG22H;25
S10;01MR030K14;20
S29000;01MR030K14;20
S10;01ORKAR22;45
S29000;01ORKAR22;91
S10;01PI030K18;6
S29000;01PI030K18;5
S10;01PI150K18;4
S29000;01PI150K18;15
S10;01PWPKT22;14
S29000;01PWPKT22;43
S10;01RL500K20;10
S29000;01RL500K20;50
S10;01RV500K20;6
S29000;01RV500K20;33
S10;01SA050KC22H;10
S29000;01SA050KC22H;7
S10;01SA050KG22H;3
S29000;01SA050KG22H;14
S29000;01SA050KV20;3
S10;01SA100LT20;4
S29000;01SA100LT20;15
S31000;01SA100LV20;19
S31000;01SA100VE20;18
S31000;01SA250LT20;9
S31000;01SA250LV20;6
S31000;01SA250VE20;18
S31000;01SA300KRO22;7
S31000;01SA500KRO22;9
S31000;01SA9000KV21;1
S31000;01SAR500KRO22;20
S31000;01SL0045K13;12
S31000;01SL300LV20;8
S31000;01SL300VE20;10
S31000;01SL500LV20;8
S31000;01SL500VE20;7
S31000;10CRAKT22;91
S31000;10EST250V21;23
S31000;10EST500V21;39
S31000;10P250V21;23
S31000;10P500V21;40
S31000;11AS040SG22;27
S31000;11AS90005G21;1
S31000;11BC100G21;3
S31000;11BG140CS19;14
S31000;11BG140SH19;10
S31000;11BG140SI19;6
S31000;11BG140SL19;5
S31000;11BH050A18;7
S31000;11BO100CS19;19
S31000;11BO100CS22H;4
S31000;11BP100I19;4
S31000;11BR100A20;7
S31000;11CD050A18;8
S31000;11CF100TR19;14
S31000;11CM030H19;24
S31000;11CM030H20;48
S31000;11CM030O21;35
S31000;11CM125I19;8
S31000;11EH150A18;3
S31000;11EP010H19;8
S31000;11ET010H20;10
S31000;11ET050H20;3
S31000;11ET075O21;4
S31000;11FAG10TR19;14
S31000;11GD050A18;4
S31000;11GD250H19;17
S31000;11GD250H20;22
S31000;11GD250O21;15
S31000;11GN195A18;7
S31000;11LC250H19;7
S31000;11LC250H20;7
S31000;11LC250O21;10
S31000;11LD200I19;3
S10;52RIBOXNO22;298
S10;52SGENSA21GPS;74
S10;52SH006E19;106
S10;52SH006FV21;180
S10;52SH006G21;82
S10;52SH006P19;161
S10;52SMBANO22;160
S10;52SMSANO22;261
S10;52SP001I19;166
S10;52STINO22;6
S10;52TS001I22;173
S10;52TS001R21;65
S10;98BBGD030VE4;49
S10;98BBLC030VE5;15
S10;98BBMA010KA3;66
S10;ACPOCVEC00001;210
S10;ACPOCVEC00002;192
S10;ACPOCVEC00003;102
S10;ACPOCVEC00004;4
S10;ACPOCVEC00005;115
S10;ACPOCVKA00700;15
S10;SGOCVE600004;1
S10;SGOCVKI00214;7
S10;SGOCVKI00215;94
S10;SGOCVKI00216;35
S10;SGOCVKI00217;47
S10;SGOCVKI00218;49
S10;SGOCVKI00219;9
S10;SGOCVKI00220;21
S10;SGOCVKI00221;14
S10;SGOCVKI00222;71
S10;SGOCVKI00223;24
S10;SGOCVKI00224;17
S10;SGOCVKI00225;48
S10;SGOCVKI00226;48
S10;SGOCVKI00227;16
S10;SGOCVKI00228;30
S10;SGOCVKI00229;15
S10;SGOCVKI00230;26
S10;SGOCVKI00231;11
S10;SGOCVKI00232;11
S10;SGOCVKI00233;34
S10;SGOCVKI00234;14
S10;SGOCVKI00235;36
S10;SGOCVKI00236;9
S10;SGOCVKI00237;10
S10;SGOCVKI00238;4
S10;SGOCVKI00239;10
S10;SGOCVKI00240;11
S10;SGOCVKI00241;18
S10;SGOCVKI00242;25
S10;SGOCVKI00243;22
S10;SGOCVKI00244;66
S90000;11CM125I19;7
S90000;11EH150A18;4
S90000;11EP050H19;5
S90000;11ET010H20;10
S90000;11ET050H20;8
S90000;11ET075O21;4
S90000;11GD075O21;106
S90000;11GD250H19;1
S90000;11GD250H20;12
S90000;11GD250HF22;1
S90000;11GN040A19;88
S90000;11HE005CS19;12
S90000;11LC250H19;10
S90000;11LC250H20;12
S90000;11LD200I19;8
S90000;11LH200I19;2
S90000;11LT300I20;10
S90000;11MH075A19;3
S90000;11PEP050I20;1
S90000;11PM100SH19;4
S90000;11PM100SI19;8
S90000;11SA050O21;7
S90000;11SA100H19;11
S90000;11SA100H20;10
S90000;11SD100SH19;2
S90000;11SD100SI19;7
S90000;11SD100SL19;7
S90000;11SP200SH19;2
S90000;11SP200SL19;1
S90000;11SV080I19;7
S90000;15AS250VA18;2
S90000;15BA500L16A;8
S90000;15DF200VBL21;1
S90000;15ET100VA20;6
S90000;15GD075L15;45
S90000;15GD075L21;3
S90000;15GD250L21;4
S90000;15GD250VA20;10
S90000;15GD250VB21;7
S90000;15GD500VB21;7
S90000;15GM065L21;15
S90000;15GM065VB21;15
S90000;15GM280VB21;6
S90000;15GS150VBL22;2
S90000;15HE005L14;2
S90000;15LC070VB5;117
S90000;15LC075L15;20
S90000;15LC250VA20;12
S90000;15LC250VBM22;1
S90000;15LM300L11;6
S90000;15MA030VA5;10
S90000;15MA030VB3;7
S10;SGOCVKI00254;25
S24000;52STINO22;6
S24000;52TS001I22;187
S24000;52TS001R21;112
S24000;98BBGD030VE4;6
S24000;98BBLC030VE5;6
S24000;ACPOCVEC00002;66
S24000;ACPOCVEC00005;241
S24000;ACPOCVKA00700;17
S90000;SGOCVKI00176;6
S90000;SGOCVKI00187;1
S90000;SGOCVKI00188;1
S90000;SGOCVKI00190;1
S90000;SGOCVKI00198;1
S90000;SGOCVKI00204;4
S90000;SGOCVKI00208;1
S24000;SGOCVKI00214;1
S24000;SGOCVKI00215;74
S24000;SGOCVKI00216;29
S24000;SGOCVKI00217;37
S24000;SGOCVKI00218;44
S24000;SGOCVKI00220;21
S90000;SGOCVKI00220;11
S24000;SGOCVKI00222;69
S90000;SGOCVKI00222;33
S24000;SGOCVKI00223;14
S24000;SGOCVKI00224;7
S24000;SGOCVKI00225;34
S90000;SGOCVKI00225;5
S24000;SGOCVKI00226;29
S24000;SGOCVKI00227;11
S24000;SGOCVKI00228;13
S24000;SGOCVKI00229;16
S24000;SGOCVKI00230;19
S24000;SGOCVKI00231;16
S24000;SGOCVKI00232;11
S24000;SGOCVKI00233;20
S24000;SGOCVKI00234;15
S24000;SGOCVKI00235;32
S24000;SGOCVKI00236;10
S24000;SGOCVKI00239;2
S24000;SGOCVKI00240;5
S24000;SGOCVKI00241;11
S24000;SGOCVKI00242;9
S24000;SGOCVKI00244;54
S90000;SGOCVKI00244;82
S90000;SGOCVKI00246;109
S90000;SGOCVKI00247;76
S90000;SGOCVKI00248;119
S24000;SGOCVKI00254;14
S90000;SGOCVKI00255;102
S24000;01SA300KRO22;8
S24000;01SA500KRO22;7
S24000;01SAR500KRO22;10
S24000;01SE125K21;1
S24000;01SL0045K13;20
S24000;01SL300LV20;6
S24000;01SL300VE20;6
S24000;01SL500LV20;6
S24000;01SL500VE20;6
S24000;10CACLA22;1
S24000;10CRAKT22;55
S24000;11AS040SG22;20
S24000;11BC100G21;16
S24000;11BG140CS19;1
S24000;11BG140SH19;6
S24000;11BG140SI19;6
S24000;11BG140SL19;7
S24000;11BH050A18;3
S24000;11BO100CS19;30
S24000;11BP100I19;4
S24000;11BR100A20;4
S24000;11CD050A18;2
S24000;11CF100TR19;9
S24000;11CM030H19;30
S24000;11CM030H20;48
S24000;11CM030O21;31
S24000;11CM125I19;2
S24000;11EH150A18;4
S24000;11EP010H19;7
S24000;11EP050H19;1
S24000;11ET010H20;12
S24000;11ET050H20;2
S24000;11ET075O21;4
S24000;11FAG10TR19;6
S24000;11GD050A18;6
S24000;11GD250H19;13
S24000;11GD250H20;18
S24000;11GD250O21;18
S24000;11GE075I20;4
S24000;11GM200I19;10
S24000;11GN195A18;1
S24000;11LC250H19;6
S24000;11LC250H20;8
S24000;11LC250O21;6
S24000;11LD200I19;2
S24000;11LH200I19;7
S24000;11LT300I20;3
S24000;11MA030A20;7
S24000;11MH075A19;8
S24000;11MWC200I19;4
S24000;11PEP050I20;4
S24000;11PM100SH19;3
S24000;11PM100SI19;4
S20;01SA100LT20;21
S20;01SA100LV20;28
S20;01SA100VE20;23
S20;01SA250LT20;26
S20;01SA250LV20;22
S20;01SA250VE20;18
S20;01SA300KRO22;12
S20;01SA500KRO22;12
S20;01SAR500KRO22;11
S20;01SL0045K13;38
S20;01SL0045KR22;39
S20;01SL300LV20;12
S20;01SL300VE20;11
S20;01SL500LV20;10
S20;01SL500RO20;3
S20;01SL500VE20;10
S20;10CACLA22;2
S20;10CRAKT22;85
S20;11AS040SG22;26
S20;11BC100G21;2
S20;11BG140CS19;14
S20;11BG140SH19;14
S20;11BG140SI19;12
S20;11BG140SL19;3
S20;11BH050A18;15
S20;11BO100CS19;26
S20;11BP100I19;3
S20;11BR100A20;18
S20;11CD050A18;5
S20;11CF100TR19;25
S20;11CM030H19;37
S20;11CM030H20;39
S20;11CM030O21;37
S20;11CM125I19;23
S20;11EH150A18;4
S20;11EP010H19;10
S20;11EP050H19;4
S20;11ET010H20;10
S20;11ET050H20;4
S20;11ET075O21;7
S20;11FAG10TR19;12
S20;11GD050A18;3
S20;11GD250H19;31
S20;11GD250H20;36
S20;11GD250O21;33
S20;11GE075I20;6
S20;11GM200I19;24
S20;11GN195A18;7
S20;11LB250HF22;3
S20;11LC250H19;24
S20;11LC250H20;24
S20;11LC250O21;21
S20;11LD200I19;9
S20;11LH200I19;10
S10;01SA100LV20;8
S10;01SA100VE20;9
S29000;01SA100VE20;17
S10;01SA250LT20;15
S29000;01SA250LT20;18
S29000;01SA250LV20;24
S10;01SA250LV20;18
S10;01SA250VE20;3
S29000;01SA250VE20;24
S10;01SA300KRO22;6
S29000;01SA300KRO22;11
S10;01SA500KRO22;5
S29000;01SA500KRO22;10
S10;01SAR500KRO22;8
S29000;01SAR500KRO22;8
S29000;01SB020K21;1
S10;01SE125K21;2
S29000;01SE125K21;2
S10;01SL0045K13;8
S29000;01SL0045K13;13
S10;01SL0045KR22;9
S29000;01SL0045KR22;5
S10;01SL300LV20;6
S29000;01SL300LV20;11
S10;01SL300VE20;9
S29000;01SL300VE20;11
S10;01SL500LV20;5
S29000;01SL500LV20;9
S29000;01SL500VE20;7
S10;01SL500VE20;5
S10;10CACLA22;4
S29000;10CACLA22;1
S10;10CRAKT22;72
S29000;10CRAKT22;70
S10;11AS040SG22;17
S29000;11AS040SG22;23
S10;11BC100G21;5
S10;11BG140CS19;1
S29000;11BG140CS19;17
S10;11BG140SH19;6
S29000;11BG140SH19;12
S10;11BG140SI19;5
S29000;11BG140SI19;6
S10;11BG140SL19;8
S29000;11BG140SL19;7
S10;11BH050A18;5
S29000;11BH050A18;6
S10;11BO100CS19;19
S29000;11BO100CS19;45
S10;11BO100CS22H;1
S29000;11BO100CS22H;1
S10;11BP100I19;4
S29000;11BP100I19;4
S90000;15MA030VBL22;1
S90000;15MA030VBM8;12
S90000;15MA075L20;11
S90000;15MA075VB4;4
S90000;15ORVER22;53
S90000;15SA075VB21;16
S90000;15SE400VB5;2
S90000;17AF100G20;10
S90000;17AS075E19;158
S90000;17AS075FV21;44
S90000;17AS075G21;32
S90000;17AS075P19;53
S90000;17AS250E19;3
S90000;17AS250FV21;2
S90000;17AS250G21;4
S90000;17AS250P19;9
S90000;17AS500P19;4
S90000;17ER075P19;4
S90000;17HI001G19;100
S90000;17RC500P19;3
S90000;17SH060SE21;1
S90000;17SH060SP21;5
S90000;17SH075E19;37
S90000;17SH075FV21;3
S90000;17SH075P19;19
S90000;17SH300FV21;8
S90000;17SH300G21;6
S90000;17SH300P19;1
S90000;17VI100P19;5
S90000;20AR075O20;5
S90000;20DO075CD20;3
S90000;20DO130HC20;7
S90000;20ET075CD20;6
S90000;20ET075OC20;7
S90000;20FE050H20;14
S90000;20GD250CD20;7
S90000;20GD250OC20;9
S90000;20GD500HC20;8
S90000;20HR050H20;8
S90000;20NV150H20;2
S90000;20SA050CD20;8
S90000;20SA050HC20;11
S90000;20SA050O20;1
S90000;24BL012CB5;5
S90000;24BR050CB21;3
S90000;24BR050R22;3
S90000;24ET075R22;3
S90000;24GD075CB5;14
S90000;24GD500R22;5
S90000;24GM030C21;1
S90000;24LC075R22;145
S90000;24LC250CBL22;3
S90000;24MA030CB21;30
S31000;11LH200I19;8
S31000;11LT300I20;1
S31000;11MH075A19;3
S31000;11MWC200I19;2
S31000;11PEP050I20;4
S31000;11PM100SH19;6
S31000;11PM100SI19;3
S31000;11SA050O21;19
S31000;11SA100H19;12
S31000;11SA100H20;18
S31000;11SD100CS19;9
S31000;11SD100SH19;8
S31000;11SD100SI19;5
S31000;11SD100SL19;7
S31000;11SH90005G21;1
S31000;11SP200CS19;10
S31000;11SP200SH19;9
S31000;11SP200SI19;5
S31000;11SP200SL19;11
S31000;11SV080I19;10
S31000;15AS250VA18;6
S31000;15BA500L16A;12
S31000;15DO050VA5;5
S31000;15ET010VB19;4
S31000;15ET100VA20;5
S31000;15ET100VB20;5
S31000;15GD250L21;31
S31000;15GD250VA20;14
S31000;15GD250VB21;9
S31000;15GD500VB21;14
S31000;15GD9000V21;1
S31000;15GM065L21;38
S31000;15GM065VB21;39
S31000;15GM280VB21;7
S31000;15GN300L21;11
S31000;15HE005L14;6
S31000;15LC250L14;10
S31000;15LC250VA20;8
S31000;15LC250VB3;4
S31000;15LM300L11;7
S31000;15MA030L21;59
S31000;15MA030VA5;9
S31000;15MA030VB3;34
S31000;15MA075L20;17
S31000;15MA075VB4;8
S31000;15ORVER22;183
S31000;15RC500VB21;23
S31000;15RG500L14;5
S31000;15RG500VA20;5
S31000;15SA070VB6;1
S31000;15SA075VB21;4
S31000;15SH250VA20;5
S21000;01BK010K14;10
S21000;01BL012K18;7
S21000;01BL012KC22H;9
S21000;01BL012KG22H;9
S21000;01BM050K19;7
S21000;01BM150K19;7
S21000;01BP050K21;2
S21000;01BV050K16;5
S21000;01CD250K17;15
S21000;01CD250KC22H;6
S21000;01CE200KC22H;8
S21000;01CF050K22;2
S21000;01CL050K21;2
S21000;01CL175K22;6
S21000;01CL200KG22H;9
S21000;01CL300KB20;15
S21000;01CM300K20;5
S21000;01CM500K20;6
S21000;01CMJ075K21;17
S21000;01CMR500K20;2
S21000;01CP100KC22H;12
S21000;01CP200K22;7
S21000;01CPR200K22;3
S21000;01CV050K22;1
S21000;01EC200K22;5
S21000;01EM075K20;4
S21000;01HD250K17;8
S21000;01HD500K20;5
S21000;01HDR500K20;12
S21000;01HF100K17;4
S21000;01HN0075K19;3
S21000;01HN075KG22H;8
S21000;01HV030K16;4
S21000;01LC250K17;14
S21000;01LT300K20;3
S21000;01MA030K22;150
S21000;01MA030K22H;15
S21000;01MA030KC22H;26
S21000;01MA030KG22H;36
S21000;01MA075K22;18
S21000;01MA150K22;21
S21000;01MA150KC22H;12
S21000;01MA150KG22H;19
S21000;01MD200KG22H;26
S21000;01MR030K14;91
S21000;01MR150K16;48
S21000;01ORKAR22;48
S21000;01PI030K18;6
S21000;01PI150K18;6
S21000;01PWPKT22;12
S21000;01RL500K20;3
S21000;01RV500K20;11
S21000;01SA050KC22H;1
S24000;11SA050O21;14
S24000;11SA100H19;20
S24000;11SA100H20;19
S24000;11SD100CS19;5
S24000;11SD100SH19;4
S24000;11SD100SI19;6
S24000;11SD100SL19;4
S24000;11SP200CS19;7
S24000;11SP200SH19;5
S24000;11SP200SI19;5
S24000;11SP200SL19;7
S24000;11SV080I19;4
S24000;15AS250VA18;5
S24000;15BA500L16A;12
S24000;15DO050VA5;2
S24000;15ET010VB19;2
S24000;15ET100VA20;3
S24000;15ET100VB20;5
S24000;15GD250L21;14
S24000;15GD250VA20;4
S24000;15GD250VB21;11
S24000;15GD500VB21;4
S24000;15GM065L21;39
S24000;15GM065VB21;29
S24000;15GM280VB21;3
S24000;15GN300L21;9
S24000;15GS150VBL22;1
S24000;15HE005L14;6
S24000;15LC250L14;8
S24000;15LC250VA20;4
S24000;15LC250VB3;5
S24000;15LM300L11;10
S24000;15MA030L21;54
S24000;15MA030VA5;6
S24000;15MA030VB3;21
S24000;15MA075L20;11
S24000;15MA075VB4;6
S24000;15ORVER22;119
S24000;15RC500VB21;2
S24000;15RG500L14;4
S24000;15RG500VA20;6
S24000;15SA075VB21;4
S24000;15SE400VB5;2
S24000;15SH250VA20;6
S24000;17AF100G20;4
S24000;17AS075G21;11
S24000;17AS250E19;4
S24000;17AS250FV21;8
S24000;17AS250G21;6
S24000;17AS250P19;4
S24000;17AS500E19;10
S24000;17AS500FV21;5
S28000;01BK010K14;3
S28000;01BL012K18;26
S28000;01BL012KC22H;12
S28000;01BL012KG22H;9
S28000;01BM050K19;2
S28000;01BP050K21;5
S28000;01BV050K16;8
S28000;01CD250K17;21
S28000;01CE200KC22H;2
S28000;01CL050K21;6
S28000;01CL175K22;6
S28000;01CM300K20;12
S28000;01CM500K20;16
S28000;01CMJ075K21;17
S28000;01CMR500K20;11
S28000;01CP200K22;11
S28000;01CPR200K22;11
S28000;01CV050K22;2
S28000;01EC200K22;14
S28000;01EM075K20;6
S28000;01HD250K17;7
S28000;01HD500K20;8
S28000;01HDR500K20;6
S28000;01HF100K17;6
S28000;01HN0075K19;5
S28000;01HV030K16;4
S28000;01LT300K20;10
S28000;01MA030K22;100
S28000;01MA030K22H;7
S28000;01MA030KC22H;11
S28000;01MA030KG22H;46
S28000;01MA075K22;27
S28000;01MA150K22;13
S28000;01MA150KC22H;2
S28000;01MA150KG22H;25
S28000;01MD200KG22H;6
S28000;01MR030K14;27
S28000;01ORKAR22;58
S28000;01PI030K18;9
S28000;01PI150K18;10
S28000;01PWPKT22;18
S28000;01RL500K20;16
S28000;01RV500K20;8
S28000;01SA100LT20;25
S28000;01SA100LV20;12
S28000;01SA100VE20;25
S28000;01SA250LT20;18
S28000;01SA250LV20;12
S28000;01SA250VE20;24
S28000;01SA300KRO22;7
S28000;01SA500KRO22;8
S28000;01SA9000KV21;1
S20;11LT300I20;4
S20;11MH075A19;4
S20;11MWC200I19;7
S20;11PEP050I20;4
S20;11PM100SH19;9
S20;11PM100SI19;8
S20;11SA050O21;6
S20;11SA100H19;12
S20;11SA100H20;13
S20;11SD100CS19;17
S20;11SD100SH19;13
S20;11SD100SI19;12
S20;11SD100SL19;12
S20;11SP200CS19;6
S20;11SP200SH19;11
S20;11SP200SI19;11
S20;11SP200SL19;11
S20;11SV080I19;3
S20;12LC250NO22;18
S20;15AS250VA18;8
S20;15BA500L16A;6
S20;15BM500VB21;30
S20;15DO050VA5;7
S20;15ET010VB19;4
S20;15ET100VB20;1
S20;15GD075L21;17
S20;15GD250L21;38
S20;15GD250VA20;29
S20;15GD250VB21;31
S20;15GD250VBL22;50
S20;15GD500VB21;18
S20;15GM065L21;48
S20;15GM065VB21;44
S20;15GM280VB21;10
S20;15GN300L21;18
S20;15HE005L14;5
S20;15LC250L14;28
S20;15LC250VA20;13
S20;15LC250VB3;20
S20;15LM300L11;10
S20;15MA030L21;56
S20;15MA030VA5;28
S20;15MA030VB3;21
S20;15MA030VBM8;2
S20;15MA075L20;35
S20;15MA075VB4;27
S20;15ORVER22;122
S20;15RB500L17;12
S20;15RC500VB21;13
S20;15RG500L14;13
S20;15RG500VA20;21
S20;15RO010VBM22;51
S20;15SA070VB6;4
S20;15SA075VB21;5
S90000;24MA030CBL22;3
S90000;24MA030P15;3
S90000;24MA030R22;4
S90000;24MA030RA19;9
S90000;24MA030RE19;10
S90000;24MA030RV19;8
S90000;24MA075P15;3
S90000;24MA075R18;24
S90000;24MA075R22;11
S90000;24MA150R22;8
S90000;24RG500CB21;1
S90000;24SA050CB21;1
S90000;24SA050R22;1
S90000;27BY015I19;2
S90000;27DB015I20;1
S90000;27DCB060I17;4
S90000;27DE015I21;1
S90000;27DH015I20;3
S90000;27DH030I20;8
S90000;27DL200I21;3
S90000;27DS030I20;5
S90000;27ER050I21;5
S90000;27HC050I18;5
S90000;27HCR050I16;3
S90000;27HS030I18;5
S90000;27HSR030I16;4
S90000;27MI150I20;9
S90000;27MP050I20;8
S90000;27MP150I20;5
S90000;27MQ065I15A;4
S90000;27MS050I20;3
S90000;27OR030I19;35
S90000;27SP030I19;8
S90000;27TS001I20;679
S90000;29BP100A22;7
S90000;29EC200A21;2
S90000;29HS100A21;9
S90000;29MA075A21;12
S90000;29SH075A20;6
S90000;29VC240A16;13
S90000;29VC240A22;12
S90000;38BV050A19;10
S90000;38EC015A18;6
S90000;38EV075A21;10
S90000;38FT200A18;20
S90000;38FT200A21;6
S90000;38MI150A18;4
S90000;38MI150A22;2
S90000;38RC050A18;4
S90000;38RC050A22;2
S90000;38UV030A18;9
S90000;38WC050A18;35
S90000;38WC050A21;7
S10;11BR100A20;4
S29000;11BR100A20;12
S10;11CD050A18;5
S29000;11CD050A18;7
S10;11CF100TR19;8
S29000;11CF100TR19;9
S10;11CM030H19;26
S29000;11CM030H19;28
S10;11CM030H20;37
S29000;11CM030H20;54
S10;11CM030O21;22
S29000;11CM030O21;46
S10;11CM125I19;11
S29000;11CM125I19;27
S10;11EH150A18;7
S29000;11EH150A18;4
S10;11EP010H19;7
S29000;11EP010H19;12
S10;11EP050H19;1
S29000;11EP050H19;3
S10;11ET010H20;8
S29000;11ET010H20;8
S10;11ET050H20;3
S29000;11ET050H20;4
S10;11ET075O21;7
S29000;11ET075O21;5
S10;11FAG10TR19;11
S29000;11FAG10TR19;13
S10;11GD050A18;5
S29000;11GD050A18;4
S29000;11GD250H19;15
S10;11GD250H19;8
S10;11GD250H20;17
S29000;11GD250H20;19
S29000;11GD250O21;36
S10;11GD250O21;16
S10;11GE075I20;4
S29000;11GE075I20;4
S29000;11GM200I19;25
S10;11GM200I19;13
S10;11GN195A18;10
S29000;11GN195A18;30
S29000;11LB250HF22;4
S29000;11LC250H19;7
S10;11LC250H19;13
S10;11LC250H20;8
S29000;11LC250H20;9
S29000;11LC250O21;14
S10;11LC250O21;8
S10;11LD200I19;8
S29000;11LD200I19;14
S29000;11LH200I19;14
S10;11LH200I19;12
S29000;11LT300I20;3
S21000;01SA050KG22H;5
S21000;01SA050KV20;4
S21000;01SA100LT20;17
S21000;01SA100LV20;17
S21000;01SA100VE20;18
S21000;01SA250LT20;14
S21000;01SA250LV20;17
S21000;01SA250VE20;18
S21000;01SA300KRO22;6
S21000;01SA500KRO22;7
S21000;01SAR500KRO22;9
S21000;01SB020K21;4
S21000;01SL0045K13;30
S21000;01SL0045KR22;1
S21000;01SL300LV20;5
S21000;01SL300VE20;6
S21000;01SL500LV20;14
S21000;01SL500RO20;3
S21000;01SL500VE20;12
S21000;10CRAKT22;40
S21000;11AS040SG22;19
S21000;11BC100G21;8
S21000;11BG140CS19;13
S21000;11BG140SH19;9
S21000;11BG140SI19;9
S21000;11BG140SL19;5
S21000;11BH050A18;10
S21000;11BO100CS19;25
S21000;11BP100I19;2
S21000;11BR100A20;18
S21000;11CD050A18;4
S21000;11CF100TR19;19
S21000;11CM030H19;22
S21000;11CM030H20;32
S21000;11CM030O21;19
S21000;11CM125I19;17
S21000;11EH150A18;4
S21000;11EP010H19;7
S21000;11ET010H20;5
S21000;11ET050H20;5
S21000;11ET075O21;3
S21000;11FAG10TR19;3
S21000;11GD050A18;2
S21000;11GD250H19;18
S21000;11GD250H20;25
S21000;11GD250O21;27
S21000;11GE075I20;4
S21000;11GM200I19;20
S21000;11GN195A18;9
S21000;11LC250H19;10
S21000;11LC250H20;20
S21000;11LC250O21;15
S31000;17AF100G20;3
S31000;17AS250E19;5
S31000;17AS250FV21;5
S31000;17AS250G21;5
S31000;17AS250P19;6
S31000;17AS500E19;9
S31000;17AS500FV21;6
S31000;17AS500G21;12
S31000;17AS500P19;3
S31000;17DO050F13;11
S31000;17ER075P19;7
S31000;17HB050A22;1
S31000;17HI001G19;78
S31000;17HI100G19;1
S31000;17MC200G21;7
S31000;17RC500E20;9
S31000;17RC500G21;16
S31000;17RC500P19;9
S31000;17RS500E20;17
S31000;17RS500FV21;13
S31000;17RS500G21;16
S31000;17RS500P19;12
S31000;17SE100FV21;7
S31000;17SH060SE21;4
S31000;17SH060SG21;5
S31000;17SH060SP21;4
S31000;17SH075G21;29
S31000;17SH300E19;14
S31000;17SH300FV21;6
S31000;17SH300G21;10
S31000;17SH300P19;9
S31000;17SH500E19;22
S31000;17SH500FV21;6
S31000;17SH500G21;21
S31000;17SH500P19;7
S31000;17VI100P19;4
S31000;20AR075O20;6
S31000;20DO050O20;6
S31000;20DO075CD20;2
S31000;20DO130HC20;5
S31000;20ET075CD20;4
S31000;20ET075HC20;6
S31000;20ET075OC20;3
S31000;20FE050H20;4
S31000;20GD250CD20;15
S31000;20GD250HC20;18
S31000;20GD250OC20;14
S31000;20GD500HC20;12
S31000;20HR050H20;4
S31000;20NV150H20;8
S31000;20SA050CD20;5
S31000;20SA050HC20;5
S31000;24BL012CB5;19
S28000;01SAR500KRO22;20
S28000;01SL0045K13;7
S28000;01SL300LV20;7
S28000;01SL300VE20;12
S28000;01SL500LV20;11
S28000;01SL500VE20;14
S28000;10CRAKT22;55
S28000;10EST250V21;25
S28000;10EST500V21;19
S28000;10P250V21;25
S28000;10P500V21;15
S28000;11AS040SG22;20
S28000;11AS90005G21;1
S28000;11BC100G21;13
S28000;11BG140CS19;23
S28000;11BG140SH19;9
S28000;11BG140SI19;11
S28000;11BG140SL19;1
S28000;11BH050A18;8
S28000;11BO100CS19;43
S28000;11BP100I19;7
S28000;11BR100A20;10
S28000;11CD050A18;5
S28000;11CF100TR19;6
S28000;11CM030H19;40
S28000;11CM030H20;73
S28000;11CM030O21;47
S28000;11CM125I19;18
S28000;11EH150A18;4
S28000;11EP010H19;8
S28000;11EP050H19;2
S28000;11ET010H20;6
S28000;11ET050H20;6
S28000;11ET075O21;8
S28000;11FAG10TR19;9
S28000;11GD050A18;12
S28000;11GD250H19;22
S28000;11GD250H20;29
S28000;11GD250O21;24
S28000;11GE075I20;3
S28000;11GM200I19;19
S28000;11GN195A18;12
S28000;11LB250HF22;1
S28000;11LC250H19;18
S28000;11LC250H20;21
S28000;11LC250O21;17
S28000;11LD200I19;5
S28000;11LH200I19;10
S28000;11LT300I20;4
S28000;11MA030A20;3
S28000;11MH075A19;4
S28000;11MWC200I19;7
S28000;11PEP050I20;4
S90000;38WS030A18;22
S90000;38WS030A21;6
S90000;49AF015G20;160
S90000;49BM010K19;20
S90000;49CL008K21;9
S90000;49CL1SA18;58
S90000;49CM030I19;70
S90000;49CP004I19;8
S90000;49CP008I19;26
S90000;49DB004I20;30
S90000;49DC004I20;10
S90000;49DC008I20;16
S90000;49DH004I20;51
S90000;49DH004I22;30
S90000;49EDT0075O22;35
S90000;49ET007CB22;23
S90000;49GD035CB5;48
S90000;49HD035A15;72
S90000;49HS015A18;18
S90000;49IC1POU20;14
S90000;49IC2POU20;47
S90000;49IC3POU20;27
S90000;49LD030I20;26
S90000;49LD030I21;21
S90000;49MA010A21X;10
S90000;49MA010CB4;62
S90000;49MA010L16;74
S90000;49MASKRS21;26
S90000;49MR010K14;45
S90000;49MS008I20;169
S90000;49MWC030I19;101
S90000;49PFCWC21;40
S90000;49PI010K18;32
S90000;49PMENNO21;46
S90000;49PO1NH18;145
S90000;49PO2HER20;1
S90000;49PO2RS21;36
S90000;49PO2SA19;30
S90000;49POCK2NO22;6
S90000;49POCKNO21;125
S90000;49POSUCS22;40
S90000;49POU1O21;139
S90000;49POUCB21;15
S90000;49POUCH2NO21;47
S90000;49POUHE22;39
S90000;49POUID20;1
S90000;49POUIS19;23
S90000;49PWPBM22;7
S90000;49RCWM22;48
S90000;49SH035E21;198
S90000;49TFACH18;19
S90000;49TOBACH20;67
S90000;49TOTMC20;40
S10;11LT300I20;6
S10;11MH075A19;5
S29000;11MH075A19;4
S29000;11MWC200I19;4
S10;11MWC200I19;5
S10;11PEP050I20;8
S29000;11PEP050I20;5
S29000;11PM100SH19;10
S10;11PM100SH19;6
S10;11PM100SI19;5
S29000;11PM100SI19;5
S10;11SA050O21;6
S29000;11SA050O21;18
S29000;11SA100H19;17
S10;11SA100H19;15
S10;11SA100H20;13
S29000;11SA100H20;17
S29000;11SD100CS19;8
S10;11SD100CS19;9
S10;11SD100SH19;5
S29000;11SD100SH19;7
S29000;11SD100SI19;7
S10;11SD100SI19;4
S10;11SD100SL19;4
S29000;11SD100SL19;11
S29000;11SP200CS19;16
S10;11SP200CS19;5
S10;11SP200SH19;8
S29000;11SP200SH19;15
S29000;11SP200SI19;14
S10;11SP200SI19;5
S10;11SP200SL19;3
S29000;11SP200SL19;14
S29000;11SV080I19;14
S10;11SV080I19;7
S29000;15AS250VA18;13
S29000;15BA500L16A;9
S10;15BA500L16A;10
S10;15DO050VA5;11
S29000;15DO050VA5;9
S29000;15ET010VB19;8
S10;15ET010VB19;3
S10;15ET100VA20;3
S29000;15ET100VA20;4
S29000;15ET100VB20;7
S10;15ET100VB20;3
S10;15GD250L21;21
S29000;15GD250L21;52
S29000;15GD250VA20;15
S10;15GD250VA20;9
S10;15GD250VB21;10
S29000;15GD250VB21;35
S29000;15GD500VB21;25
S21000;11LD200I19;10
S21000;11LH200I19;8
S21000;11LT300I20;6
S21000;11MA030A20;2
S21000;11MH075A19;4
S21000;11MWC200I19;10
S21000;11PEP050I20;4
S21000;11PM100SH19;6
S21000;11PM100SI19;5
S21000;11SA050O21;12
S21000;11SA100H19;10
S21000;11SA100H20;10
S21000;11SD100CS19;12
S21000;11SD100SH19;8
S21000;11SD100SI19;6
S21000;11SD100SL19;9
S21000;11SP200CS19;6
S21000;11SP200SH19;8
S21000;11SP200SI19;7
S21000;11SP200SL19;8
S21000;11SV080I19;4
S21000;12LC250NO22;18
S21000;15AS250VA18;6
S21000;15BA500L16A;8
S21000;15BM500VB21;30
S21000;15DO050VA5;8
S21000;15ET010VB19;4
S21000;15ET100VA20;4
S21000;15ET100VB20;4
S21000;15GD075L21;25
S21000;15GD250L21;21
S21000;15GD250VA20;14
S21000;15GD250VB21;10
S21000;15GD250VBL22;58
S21000;15GD500VB21;5
S21000;15GM065L21;36
S21000;15GM065VB21;37
S21000;15GM280VB21;5
S21000;15GN300L21;4
S21000;15GS150VBL22;1
S21000;15HE005L14;3
S21000;15LC250L14;15
S21000;15LC250VA20;10
S21000;15LC250VB3;8
S21000;15LM300L11;6
S21000;15MA030L21;38
S21000;15MA030VA5;13
S21000;15MA030VB3;20
S21000;15MA075L20;18
S21000;15MA075VB4;8
S21000;15ORVER22;102
S21000;15RB500L17;12
S90000;49TOTWC21;90
S90000;49TRAVNO21;81
S90000;52AS006FV21;276
S90000;52AS006G21;118
S90000;52AS006P19;119
S90000;52BOXMM22;52
S90000;52CL0015K21;221
S90000;52CP0015I19;285
S90000;52CP006K22;59
S90000;52DB001I20;207
S90000;52DE001I21;100
S90000;52DF002I17;134
S90000;52DL002I21;30
S90000;52ET001O21;78
S90000;52FP0015I19;100
S90000;52HCTM21;25
S90000;52HCTM22;32
S90000;52HR004G17;100
S90000;52LGEBOX18;9
S90000;52LT002R21;73
S90000;52MA003K16A;327
S90000;52MA003K22A;157
S90000;52MC006G21;100
S90000;52MMBYNO19;85
S90000;52MOCOL316;27
S90000;52MS001I20;378
S90000;52PMGBOX18;9
S90000;52PS0015R21;100
S90000;52SH006FV21;112
S90000;52SH006P19;3
S90000;52SP001I19;302
S90000;52TBO1M21;54
S90000;52TBO2M21;31
S90000;98BBACLUFNT1;6
S90000;98BBGD050VE2;70
S90000;98BBHD035A0;140
S90000;98BBHD050A0;134
S90000;98BBSA050LT1;144
S90000;98BBSH035AR2;50
S90000;98BBSH050A0;71
S90000;98BBSH050AR2;86
S90000;HKOCVE6T00055;28
S90000;J9517;9
S90000;JIMPN16;56
S90000;SGOCVE600005;1
S31000;24BL012R22;1
S31000;24BR050CB21;19
S31000;24BR050R22;15
S31000;24ET050R22H;4
S31000;24ET075CB21;8
S31000;24ET075R22;4
S31000;24GD250CB21;33
S31000;24GD250R22;25
S31000;24GD500R22;8
S31000;24LC250CB4;17
S31000;24LC250R22;14
S31000;24MA030CB4;75
S31000;24MA030P15;10
S31000;24MA030R22;53
S31000;24MA030RA19;1
S31000;24MA030RV19;5
S31000;24MA075CB4;27
S31000;24MA075P15;6
S31000;24MA075R22;16
S31000;24MA150R22;9
S31000;24ORCHB22;74
S31000;24RG500CB21;16
S31000;24RG500R22;9
S31000;24RO010CB4;7
S31000;24SA050CB21;18
S31000;24SA050R22;21
S31000;27BY015I19;6
S31000;27CP050I19;8
S31000;27DB015I20;7
S31000;27DC050I20;3
S31000;27DCB060I17;3
S31000;27DE015I21;6
S31000;27DF125I17;3
S31000;27DH015I22;10
S31000;27DH030I22;11
S31000;27DL200I21;1
S31000;27DS030I20;10
S31000;27ER015I22;19
S31000;27ER050I21;11
S31000;27ER150I21;21
S31000;27HC050I18;4
S31000;27HCR050I16;2
S31000;27HS030I18;4
S31000;27MI150I20;4
S31000;27MP050I20;70
S31000;27MQ065I15A;3
S31000;27MS050I20;3
S31000;27OR030I21;17
S31000;27OR050I21;1
S31000;27SP030I19;2
S31000;29ASH240A20;8
S31000;29BP100A22;7
S31000;29EC200A21;6
S28000;11PM100SH19;4
S28000;11PM100SI19;6
S28000;11SA050O21;16
S28000;11SA100H19;17
S28000;11SA100H20;29
S28000;11SD100CS19;7
S28000;11SD100SH19;8
S28000;11SD100SI19;2
S28000;11SD100SL19;5
S28000;11SH90005G21;1
S28000;11SP200CS19;9
S28000;11SP200SH19;9
S28000;11SP200SI19;10
S28000;11SP200SL19;11
S28000;11SV080I19;3
S28000;15AS250VA18;7
S28000;15BA500L16A;10
S28000;15ET010VB19;5
S28000;15ET100VA20;8
S28000;15ET100VB20;6
S28000;15GD250L21;38
S28000;15GD250VA20;16
S28000;15GD250VB21;18
S28000;15GD500VB21;12
S28000;15GD9000V21;1
S28000;15GM065L21;52
S28000;15GM065VB21;37
S28000;15GM280VB21;5
S28000;15GN300L21;8
S28000;15HE005L14;10
S28000;15LC250L14;21
S28000;15LC250VA20;15
S28000;15LC250VB3;14
S28000;15LM300L11;6
S28000;15MA030L21;72
S28000;15MA030VA5;14
S28000;15MA030VB3;29
S28000;15MA075L20;12
S28000;15MA075VB4;12
S28000;15ORVER22;173
S28000;15RC500VB21;11
S28000;15RG500L14;7
S28000;15RG500VA20;3
S28000;15SA075VB21;2
S28000;15SH250VA20;5
S28000;17AF100G20;4
S28000;17AS075G21;14
S28000;17AS250E19;6
S28000;17AS250FV21;6
S28000;17AS250G21;9
S28000;17AS250P19;6
S28000;17AS500E19;4
S10;15GD500VB21;13
S10;15GM065L21;35
S29000;15GM065L21;77
S29000;15GM065VB21;57
S10;15GM065VB21;30
S10;15GM280VB21;2
S29000;15GM280VB21;11
S29000;15GN300L21;14
S10;15GN300L21;8
S10;15HE005L14;9
S29000;15HE005L14;6
S29000;15LC250L14;20
S10;15LC250L14;9
S10;15LC250VA20;8
S29000;15LC250VA20;12
S29000;15LC250VB3;10
S10;15LC250VB3;8
S10;15LM300L11;7
S29000;15LM300L11;11
S29000;15MA030L21;75
S10;15MA030L21;49
S10;15MA030VA5;10
S29000;15MA030VA5;22
S29000;15MA030VB3;28
S10;15MA030VB3;18
S29000;15MA030VBM8;1
S29000;15MA075L20;28
S10;15MA075L20;24
S10;15MA075VB4;11
S29000;15MA075VB4;18
S29000;15ORVER22;132
S10;15ORVER22;122
S10;15RC500VB21;7
S29000;15RC500VB21;28
S29000;15RG500L14;20
S10;15RG500L14;8
S10;15RG500VA20;6
S29000;15RG500VA20;25
S29000;15RO010VBM22;1
S29000;15SA070VB6;7
S10;15SA070VB6;1
S10;15SA075VB21;6
S29000;15SA075VB21;14
S29000;15SH250VA20;16
S10;15SH250VA20;7
S10;17AF100G20;2
S29000;17AF100G20;6
S10;17AS075G21;9
S10;17AS250E19;4
S29000;17AS250E19;4
S29000;17AS250FV21;8
S10;17AS250FV21;7
S10;17AS250G21;8
S29000;17AS250G21;17
S20;15SH250VA20;12
S20;17AF100G20;5
S20;17AS250E19;6
S20;17AS250FV21;10
S20;17AS250G21;8
S20;17AS250P19;5
S20;17AS500E19;10
S20;17AS500FV21;10
S20;17AS500G21;11
S20;17AS500P19;4
S20;17DO050F13;12
S20;17ER075P19;5
S20;17HB050A22;10
S20;17HI001G19;73
S20;17HI100G19;5
S20;17MC200G21;11
S20;17RC500E20;8
S20;17RC500G18;26
S20;17RC500G21;22
S20;17RC500P19;11
S20;17RS500E20;30
S20;17RS500FV21;21
S20;17RS500G21;34
S20;17SE100FV21;6
S20;17SH060SE21;5
S20;17SH060SG21;6
S20;17SH060SP21;6
S20;17SH075G21;9
S20;17SH300E19;21
S20;17SH300FV21;19
S20;17SH300G21;22
S20;17SH300P19;12
S20;17SH500E19;17
S20;17SH500FV21;12
S20;17SH500G21;20
S20;17SH500P19;11
S20;17VI100P19;7
S20;18ET010TL17;12
S20;18GD250TL17ET;8
S20;20AR075O20;7
S20;20DO050O20;7
S20;20DO075CD20;2
S20;20DO130HC20;4
S20;20ET075CD20;5
S20;20ET075HC20;4
S20;20ET075OC20;3
S20;20FE050H20;3
S20;20GD250CD20;14
S20;20GD250HC20;23
S20;20GD250OC20;23
S20;20GD500HC20;16
S20;20HR050H20;3
S20;20NV150H20;22
S20;20SA050CD20;1
S21000;15RC500VB21;11
S21000;15RG500L14;7
S21000;15RG500VA20;11
S21000;15RO010VBM22;50
S21000;15SA070VB6;2
S21000;15SA075VB21;10
S21000;15SH250VA20;6
S21000;17AF100G20;14
S21000;17AS250E19;8
S21000;17AS250FV21;7
S21000;17AS250G21;8
S21000;17AS250P19;6
S21000;17AS500E19;8
S21000;17AS500FV21;5
S21000;17AS500G21;9
S21000;17AS500P19;4
S21000;17DO050F13;12
S21000;17ER075P19;5
S21000;17HB050A22;8
S21000;17HI100G19;12
S21000;17MC200G21;8
S21000;17RC500E20;16
S21000;17RC500G18;12
S21000;17RC500G21;15
S21000;17RC500P19;5
S21000;17RS500E20;21
S21000;17RS500FV21;20
S21000;17RS500G21;24
S21000;17RS500P19;18
S21000;17SE100FV21;6
S21000;17SH060SE21;5
S21000;17SH060SG21;4
S21000;17SH060SP21;4
S21000;17SH075G21;9
S21000;17SH300E19;9
S21000;17SH300FV21;10
S21000;17SH300G21;15
S21000;17SH300P19;9
S21000;17SH500E19;9
S21000;17SH500FV21;7
S21000;17SH500G21;12
S21000;17SH500P19;6
S21000;17VI100P19;5
S21000;18ET010TL17;12
S21000;18GD250TL17ET;6
S21000;20AR075O20;4
S21000;20DO050O20;4
S21000;20DO075CD20;5
S21000;20DO130HC20;5
S21000;20ET075CD20;3
S21000;20ET075HC20;3
S21000;20ET075OC20;4
S31000;29GE200A21;23
S31000;29HD075A15;79
S31000;29HD250A15;24
S31000;29HD500A15;33
S31000;29HD9000A21;2
S31000;29LC200A20US;18
S31000;29MA030A17;42
S31000;29MA075A21;23
S31000;29ORALM22;138
S31000;29RC200A20;27
S31000;29RH500A15;35
S31000;29SA050A21;11
S31000;29SE125A21;14
S31000;29SH240A20;4
S31000;29VC240A22;14
S31000;38BV050A19;6
S31000;38EC015A18;6
S31000;38EV075A21;8
S31000;38FT200A21;5
S31000;38MI150A22;4
S31000;38RC050A22;4
S31000;38UV030A18;5
S31000;38WC050A21;4
S31000;38WS030A21;3
S31000;49BO015CS19;16
S31000;49CABNO22;95
S31000;49CM010O21;19
S31000;49CM030I19;7
S31000;49CP020K22;5
S31000;49DC004I20;39
S31000;49DH004I20;30
S31000;49DISC3NO22;74
S31000;49HD035A15;7
S31000;49LC020A20;73
S31000;49LD030I21;3
S31000;49MA010K22;5
S31000;49OR005I21;158
S31000;49ORALM22;7
S31000;49ORCHB22;10
S31000;49ORKAR22;7
S31000;49ORMEN22;2
S31000;52AF006G20;69
S31000;52AS006E19;147
S31000;52AS006FV21;31
S31000;52AS006G21;49
S31000;52AS006P19;69
S31000;52BY001I19;77
S31000;52CARDNO22;4
S31000;52CERJAR20;2
S31000;52CL0015K21;69
S31000;52CP0015I19;141
S31000;52CP006K22;262
S31000;52CRA1C22;5
S24000;17AS500G21;1
S24000;17AS500P19;3
S24000;17DO050F13;4
S24000;17ER075P19;3
S24000;17HB050A22;4
S24000;17HI001G19;99
S24000;17HI100G19;10
S24000;17MC200G21;1
S24000;17RC500E20;2
S24000;17RC500G21;5
S24000;17RC500P19;4
S24000;17RS500E20;1
S24000;17RS500FV21;5
S24000;17RS500G21;5
S24000;17RS500P19;8
S24000;17SE100FV21;2
S24000;17SH060SE21;4
S24000;17SH060SG21;4
S24000;17SH060SP21;4
S24000;17SH075G21;6
S24000;17SH300E19;13
S24000;17SH300FV21;7
S24000;17SH300G21;8
S24000;17SH300P19;5
S24000;17SH500E19;5
S24000;17SH500FV21;7
S24000;17SH500G21;5
S24000;17SH500P19;3
S24000;17VI100P19;2
S24000;20AR075O20;6
S24000;20DO050O20;3
S24000;20DO075CD20;7
S24000;20DO130HC20;5
S24000;20ET075CD20;1
S24000;20ET075HC20;2
S24000;20ET075OC20;4
S24000;20FE050H20;3
S24000;20GD250CD20;8
S24000;20GD250HC20;16
S24000;20GD250OC20;11
S24000;20GD500HC20;7
S24000;20HR050H20;8
S24000;20NV150H20;14
S24000;20SA050HC20;1
S24000;24BL012CB5;5
S24000;24BL012R22;8
S24000;24BR050CB21;18
S24000;24BR050R22;15
S24000;24ET075CB21;4
S24000;24ET075R22;2
S24000;24GD250CB21;36
S24000;24GD250R22;28
S24000;24GD500R22;10
S28000;17AS500FV21;6
S28000;17AS500G21;14
S28000;17AS500P19;6
S28000;17DO050F13;2
S28000;17ER075P19;11
S28000;17HB050A22;7
S28000;17HI001G19;64
S28000;17HI100G19;8
S28000;17MC200G21;13
S28000;17RC500E20;12
S28000;17RC500G21;17
S28000;17RC500P19;11
S28000;17RS500E20;19
S28000;17RS500FV21;4
S28000;17RS500G21;10
S28000;17RS500P19;24
S28000;17SE100FV21;8
S28000;17SH060SE21;8
S28000;17SH060SG21;5
S28000;17SH060SP21;2
S28000;17SH300E19;15
S28000;17SH300FV21;9
S28000;17SH300G21;16
S28000;17SH300P19;17
S28000;17SH500E19;16
S28000;17SH500FV21;15
S28000;17SH500G21;23
S28000;17SH500P19;11
S28000;17VI100P19;4
S28000;20AR075O20;6
S28000;20DO050O20;5
S28000;20DO130HC20;5
S28000;20ET075CD20;4
S28000;20ET075OC20;5
S28000;20FE050H20;2
S28000;20GD250CD20;13
S28000;20GD250HC20;27
S28000;20GD250OC20;30
S28000;20GD500HC20;9
S28000;20HR050H20;1
S28000;20NV150H20;24
S28000;20SA050CD20;10
S28000;20SA050HC20;10
S28000;24BL012CB5;10
S28000;24BL012R22;12
S28000;24BR050CB21;1
S28000;24BR050CB6;4
S28000;24BR050R22;14
S28000;24CC150R22H;1
S28000;24ET050R22H;6
S28000;24ET075CB21;8
S28000;24ET075R22;4
S28000;24GD250CB21;40
S29000;17AS250P19;6
S10;17AS250P19;8
S10;17AS500E19;6
S29000;17AS500E19;16
S29000;17AS500FV21;13
S10;17AS500FV21;7
S10;17AS500G21;11
S29000;17AS500G21;12
S29000;17AS500P19;8
S10;17AS500P19;6
S10;17DO050F13;3
S29000;17DO050F13;8
S29000;17ER075P19;4
S10;17ER075P19;2
S10;17HB050A22;3
S29000;17HB050A22;28
S29000;17HI001G19;119
S10;17HI001G19;40
S10;17HI100G19;9
S29000;17HI100G19;15
S29000;17MC200G21;11
S10;17MC200G21;10
S10;17RC500E20;8
S29000;17RC500E20;33
S29000;17RC500G21;26
S10;17RC500G21;7
S10;17RC500P19;4
S29000;17RC500P19;25
S29000;17RS500E20;27
S10;17RS500E20;15
S10;17RS500FV21;9
S29000;17RS500FV21;22
S29000;17RS500G21;25
S10;17RS500G21;9
S10;17RS500P19;15
S29000;17RS500P19;30
S29000;17SE100FV21;17
S10;17SE100FV21;10
S10;17SH060SE21;4
S29000;17SH060SE21;9
S29000;17SH060SG21;9
S10;17SH060SG21;5
S10;17SH060SP21;5
S29000;17SH060SP21;10
S10;17SH075E19;15
S10;17SH075G21;63
S29000;17SH075G21;2
S29000;17SH300E19;1
S10;17SH300E19;16
S10;17SH300FV21;12
S29000;17SH300FV21;11
S29000;17SH300G21;11
S10;17SH300G21;9
S10;17SH300P19;11
S20;20SA050HC20;1
S20;24BL012CB5;14
S20;24BL012R22;14
S20;24BR050CB21;18
S20;24BR050CB6;4
S20;24BR050R22;19
S20;24ET075CB21;6
S20;24ET075R22;9
S20;24GD250CB21;44
S20;24GD250R22;36
S20;24GD250RJ21H;8
S20;24GD500CB21;6
S20;24GD500R22;16
S20;24LC250CB4;26
S20;24LC250R22;23
S20;24MA030CB4;56
S20;24MA030P15;34
S20;24MA030R22;58
S20;24MA030RA19;9
S20;24MA030RV19;10
S20;24MA075CB4;39
S20;24MA075P15;24
S20;24MA075R22;35
S20;24MA150R22;17
S20;24ORCHB22;48
S20;24RG500CB21;28
S20;24RG500R22;20
S20;24RO010CB4;4
S20;24SA050CB21;8
S20;24SA050R22;2
S20;27BY015I19;4
S20;27CP050I19;10
S20;27DB015I20;11
S20;27DC050I20;17
S20;27DCB060I17;4
S20;27DE015I21;12
S20;27DF125I17;19
S20;27DH015I20;2
S20;27DH015I22;13
S20;27DH030I20;3
S20;27DH030I22;20
S20;27DL200I21;9
S20;27DS030I20;4
S20;27ER015I22;15
S20;27ER050I21;10
S20;27ER150I21;13
S20;27EV200I19;8
S20;27HC050I18;5
S20;27HCR050I16;6
S20;27HS030I18;4
S20;27HSR030I16;4
S20;27MI150I20;4
S20;27MP050I20;5
S20;27MP150I20;7
S21000;20FE050H20;3
S21000;20GD250CD20;12
S21000;20GD250HC20;18
S21000;20GD250OC20;11
S21000;20GD500HC20;10
S21000;20HR050H20;2
S21000;20NV150H20;11
S21000;20SA050CD20;3
S21000;20SA050HC20;3
S21000;24BL012CB5;9
S21000;24BL012R22;7
S21000;24BR050CB21;21
S21000;24BR050R22;10
S21000;24ET075CB21;2
S21000;24ET075R22;6
S21000;24GD250CB21;23
S21000;24GD250R22;20
S21000;24GD250RJ21H;8
S21000;24GD500CB21;6
S21000;24GD500R22;6
S21000;24LC250CB4;10
S21000;24LC250R22;11
S21000;24MA030CB4;45
S21000;24MA030P15;14
S21000;24MA030R22;36
S21000;24MA030RA19;9
S21000;24MA030RV19;10
S21000;24MA075CB4;15
S21000;24MA075P15;14
S21000;24MA075R22;14
S21000;24MA150R22;6
S21000;24ORCHB22;13
S21000;24RG500CB21;12
S21000;24RG500R22;12
S21000;24RO010CB4;4
S21000;24SA050CB21;14
S21000;24SA050R22;15
S21000;27BP050I19;7
S21000;27BY015I19;6
S21000;27CP050I19;5
S21000;27DB015I20;8
S21000;27DC050I20;8
S21000;27DCB060I17;7
S21000;27DE015I21;7
S21000;27DF125I17;8
S21000;27DH015I22;12
S21000;27DH030I20;2
S21000;27DH030I22;13
S21000;27DL200I21;8
S21000;27DS030I20;5
S21000;27ER015I22;17
S21000;27ER050I21;9
S21000;27ER150I21;12
S20;52CRA2C22;3
S31000;52CRA2C22;5
S20;52CRA3C22;3
S31000;52CRA3C22;5
S20;52CRA4C22;3
S31000;52CRA4C22;5
S20;52CV0015K22;77
S31000;52CV0015K22;183
S20;52DB001I20;78
S31000;52DB001I20;130
S20;52DC0015I20;197
S31000;52DC0015I20;247
S20;52DE001I21;143
S31000;52DE001I21;169
S20;52DF002I17;136
S31000;52DF002I17;203
S20;52DH001I22;233
S31000;52DH001I22;132
S20;52DL002I21;194
S31000;52DL002I21;202
S20;52DS001I20;46
S31000;52DS001I20;58
S20;52ER002I21;361
S31000;52ER002I21;289
S20;52GD0015A18;59
S31000;52GD0015A18;41
S20;52GIF1NO22;3
S31000;52GIF1NO22;3
S20;52GIF2NO22;3
S31000;52GIF2NO22;3
S20;52HD006A18;281
S31000;52HD006A18;317
S31000;52HKNO22;1
S20;52HS001I17;77
S31000;52HS001I17;76
S20;52HS004A18;73
S31000;52HS004A18;130
S20;52LABANO22;63
S31000;52LABANO22;6
S20;52LASANO22;308
S31000;52LASANO22;235
S20;52LC006A20;327
S31000;52LC006A20;321
S31000;52LGEBAG19;9
S20;52LGEBOX18;10
S31000;52LGEBOX18;8
S20;52LGENSA21;58
S31000;52LGENSA21;126
S20;52LT002R21;50
S31000;52LT002R21;34
S20;52MA003K22A;206
S31000;52MA003K22A;143
S20;52MC006G21;95
S31000;52MC006G21;78
S28000;24GD250R22;30
S28000;24GD500R22;11
S28000;24LC250CB4;22
S28000;24LC250R22;19
S28000;24MA030CB4;90
S28000;24MA030P15;21
S28000;24MA030R22;76
S28000;24MA030RA19;6
S28000;24MA030RV19;13
S28000;24MA075CB4;32
S28000;24MA075P15;14
S28000;24MA075R22;26
S28000;24MA150R22;2
S28000;24ORCHB22;7
S28000;24RG500CB21;17
S28000;24RG500R22;5
S28000;24RO010CB4;5
S28000;24SA050CB21;20
S28000;24SA050R22;18
S28000;27BY015I19;4
S28000;27CP050I19;4
S28000;27DB015I20;9
S28000;27DC050I20;3
S28000;27DCB060I17;1
S28000;27DE015I21;9
S28000;27DF125I17;10
S28000;27DH015I20;2
S28000;27DH015I22;8
S28000;27DH030I20;3
S28000;27DH030I22;12
S28000;27DL200I21;3
S28000;27DS030I20;2
S28000;27ER015I22;13
S28000;27ER050I21;13
S28000;27ER150I21;30
S28000;27EV200I19;7
S28000;27HC050I18;4
S28000;27HCR050I16;6
S28000;27HS030I18;2
S28000;27HSR030I16;4
S28000;27MI150I20;3
S28000;27MP050I20;27
S28000;27MP150I20;2
S28000;27MQ065I15A;2
S28000;27MS050I20;9
S28000;27OR030I21;25
S28000;27OR050I21;7
S28000;27SP030I19;4
S28000;29ASH240A20;5
S28000;29BP100A22;8
S28000;29EC200A21;2
S28000;29GE200A21;32
S28000;29HD075A15;158
S24000;24LC250CB4;11
S24000;24LC250R22;10
S24000;24MA030CB4;70
S24000;24MA030P15;13
S24000;24MA030R22;57
S24000;24MA030RA19;8
S24000;24MA030RV19;6
S24000;24MA075CB4;31
S24000;24MA075P15;12
S24000;24MA075R22;12
S24000;24MA150R22;6
S24000;24ORCHB22;45
S24000;24RG500R22;6
S24000;24RO010CB4;10
S24000;24SA050CB21;15
S24000;24SA050R22;8
S24000;27BY015I19;6
S24000;27CP050I19;1
S24000;27DCB060I17;4
S24000;27DE015I21;5
S24000;27DF125I17;6
S24000;27DH015I22;4
S24000;27DH030I22;7
S24000;27DL200I21;2
S24000;27DS030I20;1
S24000;27ER015I22;14
S24000;27ER050I21;9
S24000;27ER150I21;10
S24000;27EV200I19;7
S24000;27HC050I18;2
S24000;27HCR050I16;2
S24000;27HS030I18;3
S24000;27HSR030I16;4
S24000;27MI150I20;3
S24000;27MP050I20;5
S24000;27MP150I20;4
S24000;27MQ065I15A;3
S24000;27MS050I20;8
S24000;27OR030I21;20
S24000;27OR050I21;8
S24000;27SP030I19;4
S24000;29ASH240A20;5
S24000;29BP100A22;4
S24000;29EC200A21;4
S24000;29GE200A21;30
S24000;29HD075A15;63
S24000;29HD250A15;20
S24000;29HD500A15;18
S24000;29HS100A22SM;13
S24000;29LC200A20US;21
S24000;29MA030A17;27
S24000;29MA075A21;11
S24000;29ORALM22;64
S29000;17SH300P19;12
S29000;17SH500E19;15
S10;17SH500E19;12
S10;17SH500FV21;5
S29000;17SH500FV21;14
S29000;17SH500G21;18
S10;17SH500G21;14
S10;17SH500P19;5
S29000;17SH500P19;15
S29000;17VI100P19;6
S10;17VI100P19;6
S10;20AR075O20;6
S29000;20AR075O20;10
S29000;20DO050O20;6
S29000;20DO130HC20;7
S10;20DO130HC20;8
S10;20ET075CD20;3
S29000;20ET075CD20;4
S29000;20ET075HC20;3
S10;20ET075HC20;3
S10;20ET075OC20;6
S29000;20ET075OC20;6
S29000;20FE050H20;1
S10;20FE050H20;3
S10;20GD250CD20;11
S29000;20GD250CD20;20
S29000;20GD250HC20;30
S10;20GD250HC20;13
S10;20GD250OC20;9
S29000;20GD250OC20;26
S29000;20GD500HC20;34
S10;20GD500HC20;15
S10;20HR050H20;3
S29000;20HR050H20;4
S29000;20NV150H20;26
S10;20NV150H20;11
S10;20SA050CD20;4
S29000;20SA050CD20;17
S29000;20SA050HC20;13
S10;20SA050HC20;5
S29000;20SA050O20;2
S29000;24BL012CB5;15
S10;24BL012CB5;7
S10;24BL012R22;8
S29000;24BL012R22;7
S29000;24BR050CB21;16
S10;24BR050CB21;9
S29000;24BR050CB6;12
S29000;24BR050R22;21
S10;24BR050R22;11
S10;24ET075CB21;9
S29000;24ET075CB21;13
S29000;24ET075R22;12
S21000;27EV200I19;7
S21000;27HC050I18;4
S21000;27HCR050I16;6
S21000;27HS030I18;3
S21000;27HSR030I16;6
S21000;27MI150I20;6
S21000;27MP050I20;11
S21000;27MP150I20;3
S21000;27MQ065I15A;3
S21000;27MS050I20;9
S21000;27OR030I21;20
S21000;27OR050I21;17
S21000;27SP030I19;6
S21000;29ASH240A20;4
S21000;29BP100A19;2
S21000;29BP100A22;4
S21000;29EC200A21;8
S21000;29GE200A21;26
S21000;29HD075A15;73
S21000;29HD250A15;19
S21000;29HD500A15;19
S21000;29HS100A22SM;8
S21000;29LC200A20US;22
S21000;29MA030A17;25
S21000;29MA075A21;17
S21000;29ORALM22;72
S21000;29RC200A20;15
S21000;29RH500A15;34
S21000;29SA050A21;6
S21000;29SE125A21;1
S21000;29SH240A20;9
S21000;29VC240A22;8
S24000;29RC200A20;12
S24000;29RH500A15;16
S24000;29SA050A21;7
S24000;29SE125A21;5
S24000;29SH240A20;4
S24000;29VC240A22;11
S24000;38BV050A19;5
S24000;38EC015A18;4
S24000;38EV075A21;7
S24000;38FT200A21;5
S24000;38MI150A22;8
S24000;38RC050A22;9
S24000;38UV030A18;7
S24000;38WC050A21;6
S24000;38WS030A21;1
S24000;49CABNO22;43
S24000;49CP020K22;9
S24000;49DC004I20;4
S24000;49DISC3NO22;54
S24000;49HD035A15;5
S24000;49LC020A20;61
S24000;49LD030I21;4
S24000;49MA010K22;9
S24000;49OR005I21;89
S24000;52AF006G20;149
S24000;52AS006E19;185
S24000;52AS006FV21;117
S24000;52AS006G21;186
S24000;52AS006P19;44
S20;27MQ065I15A;4
S20;27MS050I20;8
S20;27OR030I21;23
S20;27OR050I21;21
S20;27SP030I19;4
S20;29ASH240A20;7
S20;29BP100A22;2
S20;29EC200A21;7
S20;29GE200A21;26
S20;29HD075A15;90
S20;29HD250A15;33
S20;29HD500A15;38
S20;29HS100A22SM;5
S20;29LC200A20US;28
S20;29MA030A17;56
S20;29MA075A21;38
S20;29ORALM22;95
S20;29RC200A20;53
S20;29RH500A15;16
S20;29SE125A21;18
S20;29SH240A20;6
S20;29VC240A22;6
S20;38BV050A19;12
S20;38EC015A18;4
S20;38EV075A21;12
S20;38FT200A21;8
S20;38MI150A22;7
S20;38RC050A22;5
S20;38UV030A18;11
S20;38WC050A21;8
S20;38WS030A21;6
S20;49BO015CS19;48
S20;49CABNO22;72
S20;49DC004I20;11
S20;49DH004I20;53
S20;49DISC3NO22;90
S20;49HD035A15;24
S20;49LC020A20;103
S20;49MA010K22;27
S20;49OR005I21;54
S20;49ORALM22;5
S20;49ORCHB22;8
S20;49ORKAR22;5
S20;49ORMEN22;1
S20;52AF006G20;82
S20;52AS006E19;57
S20;52AS006FV21;82
S20;52AS006G21;149
S20;52AS006P19;56
S20;52BY001I19;53
S20;52CARDNO22;4
S20;52CD0015A18;37
S20;52CL0015K21;36
S20;52CP0015I19;123
S20;52CP006K22;170
S28000;29HD250A15;26
S28000;29HD500A15;32
S28000;29HD9000A21;1
S28000;29LC200A20US;30
S28000;29MA030A17;25
S28000;29MA075A21;22
S28000;29ORALM22;49
S28000;29RC200A20;22
S28000;29RH500A15;34
S28000;29SA050A21;11
S28000;29SE125A21;14
S28000;29SH240A20;7
S28000;29VC240A22;7
S28000;38BV050A19;5
S21000;38BV050A19;4
S28000;38EC015A18;4
S21000;38EC015A18;6
S28000;38EV075A21;5
S21000;38EV075A21;8
S21000;38FT200A21;10
S28000;38FT200A21;10
S28000;38MI150A22;5
S21000;38MI150A22;9
S28000;38RC050A22;12
S21000;38RC050A22;4
S28000;38UV030A18;11
S21000;38UV030A18;4
S21000;38WC050A21;4
S28000;38WC050A21;8
S28000;38WS030A21;9
S21000;38WS030A21;7
S21000;49BO015CS19;81
S21000;49CABNO22;41
S28000;49CABNO22;94
S28000;49CP020K22;27
S28000;49DC004I20;11
S28000;49DH004I20;14
S21000;49DH004I20;8
S21000;49DISC3NO22;73
S28000;49DISC3NO22;131
S28000;49HD035A15;78
S21000;49HD035A15;38
S21000;49LC020A20;90
S28000;49LC020A20;130
S28000;49MA010K22;27
S21000;49MA010K22;25
S21000;49OR005I21;65
S28000;49OR005I21;63
S28000;52AF006G20;121
S21000;52AF006G20;48
S21000;52AS006E19;48
S28000;52AS006E19;82
S28000;52AS006FV21;43
S20;52MGEBAG19;2
S20;52MGEBOX18;11
S31000;52MGEBOX18;6
S20;52MGENSA21;71
S31000;52MGENSA21;98
S20;52MIBANO22;132
S31000;52MIBANO22;95
S20;52MMB1NO22;44
S31000;52MMB1NO22;65
S20;52MMB2NO22;30
S31000;52MMB2NO22;66
S20;52MMB3NO22;36
S31000;52MMB3NO22;61
S20;52MMBANO22;327
S31000;52MMBANO22;477
S20;52MMSANO22;388
S31000;52MMSANO22;316
S31000;52MOCOL216;1
S20;52MOCOL316;5
S31000;52MOCOL316;1
S20;52MS001I20;72
S31000;52MS001I20;101
S20;52OR001I21;251
S31000;52OR001I21;287
S31000;52PHGHTS20;4
S20;52PMGBOX18;8
S31000;52PMGBOX18;1
S31000;52PRBONO22;1
S20;52PS0015R21;52
S31000;52PS0015R21;62
S20;52PSAC18;1
S31000;52PSAC18;1
S31000;52QUAGD22;1
S20;52RBO2NO22;5
S31000;52RBO2NO22;6
S20;52RBO3NO22;5
S31000;52RBO3NO22;6
S20;52RIB1NO22;7
S31000;52RIB1NO22;8
S20;52RIB2NO22;7
S31000;52RIB2NO22;8
S20;52RIBOXNO22;331
S31000;52RIBOXNO22;540
S31000;52SGEBOX18;10
S20;52SGENSA21GPS;77
S31000;52SGENSA21GPS;107
S20;52SH006E19;143
S31000;52SH006E19;185
S20;52SH006FV21;90
S31000;52SH006FV21;95
S20;52SH006G21;142
S31000;52SH006G21;78
S20;52SH006P19;70
S31000;52SH006P19;82
S20;52CRA1C22;3
S10;24ET075R22;12
S10;24GD250CB21;30
S29000;24GD250CB21;51
S29000;24GD250R22;48
S10;24GD250R22;19
S10;24GD500R22;7
S29000;24GD500R22;17
S29000;24LC250CB4;26
S10;24LC250CB4;11
S10;24LC250R22;16
S29000;24LC250R22;18
S29000;24MA030CB4;95
S10;24MA030CB4;55
S10;24MA030P15;1
S29000;24MA030P15;17
S29000;24MA030R22;64
S10;24MA030R22;41
S10;24MA030RA19;8
S29000;24MA030RA19;9
S29000;24MA030RV19;7
S10;24MA030RV19;6
S10;24MA075CB4;21
S29000;24MA075CB4;36
S29000;24MA075P15;22
S10;24MA075P15;9
S10;24MA075R22;12
S29000;24MA075R22;30
S29000;24MA150R22;22
S10;24MA150R22;6
S10;24ORCHB22;43
S29000;24ORCHB22;42
S29000;24RG500CB21;28
S10;24RG500CB21;9
S10;24RG500R22;11
S29000;24RG500R22;22
S29000;24RO010CB4;7
S10;24RO010CB4;11
S10;24SA050CB21;11
S29000;24SA050CB21;12
S29000;24SA050R22;14
S10;24SA050R22;7
S10;27BP050I19;3
S10;27BY015I19;4
S29000;27BY015I19;4
S29000;27CP050I19;18
S10;27CP050I19;7
S10;27DB015I20;11
S29000;27DB015I20;14
S29000;27DC050I20;11
S10;27DC050I20;10
S10;27DCB060I17;4
S29000;27DCB060I17;4
S29000;27DE015I21;16
S10;27DE015I21;5
S21000;52AS006FV21;35
S28000;52AS006G21;136
S21000;52AS006G21;89
S28000;52AS006P19;56
S21000;52AS006P19;87
S28000;52BY001I19;128
S21000;52BY001I19;139
S21000;52CARDNO22;4
S28000;52CARDNO22;8
S28000;52CD0015A18;24
S21000;52CD0015A18;51
S21000;52CL0015K21;48
S28000;52CL0015K21;27
S28000;52CP0015I19;82
S21000;52CP0015I19;72
S21000;52CP006K22;159
S28000;52CP006K22;318
S28000;52CV0015K22;253
S21000;52CV0015K22;202
S21000;52DB001I20;58
S28000;52DB001I20;141
S28000;52DC0015I20;120
S21000;52DC0015I20;127
S21000;52DE001I21;133
S28000;52DE001I21;166
S28000;52DF002I17;225
S21000;52DF002I17;108
S21000;52DH001I22;282
S28000;52DH001I22;343
S28000;52DL002I21;145
S21000;52DL002I21;188
S21000;52DS001I20;82
S28000;52DS001I20;52
S28000;52ER002I21;240
S21000;52ER002I21;226
S28000;52FP0015I19;58
S28000;52GD0015A18;41
S21000;52GD0015A18;53
S21000;52GIF1NO22;3
S28000;52GIF1NO22;6
S28000;52GIF2NO22;6
S21000;52GIF2NO22;3
S21000;52HD006A18;168
S28000;52HD006A18;200
S28000;52HS001I17;77
S21000;52HS001I17;95
S21000;52HS004A18;87
S28000;52HS004A18;67
S28000;52LABANO22;50
S21000;52LABANO22;127
S21000;52LASANO22;162
S28000;52LASANO22;396
S28000;52LC006A20;350
S20;52SMB1NO22;3
S31000;52SMB1NO22;6
S20;52SMB2NO22;3
S31000;52SMB2NO22;6
S20;52SMBANO22;26
S31000;52SMBANO22;231
S20;52SMSANO22;434
S31000;52SMSANO22;240
S20;52SP001I19;29
S31000;52SP001I19;31
S20;52STINO22;6
S31000;52STINO22;6
S20;52TS001I22;167
S31000;52TS001I22;272
S20;52TS001R21;75
S31000;52TS001R21;70
S31000;52TSANIVISLI20;1
S31000;52TSPDIS20;3
S20;52WRAPNO22;7
S31000;52WRAPNO22;7
S31000;54VMHOLIDAY22;1
S20;54VMWHSHOLIDAY22;1
S31000;54VMWHSHOLIDAY22;2
S20;98BBGD030VE4;13
S31000;98BBGD030VE4;10
S31000;98BBLC030VE5;9
S20;98BBMA010KA3;19
S31000;98BBMA010KA3;18
S20;ACPOCVEC00001;136
S31000;ACPOCVEC00001;125
S20;ACPOCVEC00002;182
S31000;ACPOCVEC00002;211
S20;ACPOCVEC00003;100
S31000;ACPOCVEC00003;68
S31000;ACPOCVEC00005;260
S20;ACPOCVKA00700;18
S31000;ACPOCVKA00700;26
S20;SGOCVE600004;17
S20;SGOCVKI00215;76
S31000;SGOCVKI00215;119
S20;SGOCVKI00216;29
S31000;SGOCVKI00216;32
S20;SGOCVKI00217;51
S31000;SGOCVKI00217;93
S20;SGOCVKI00218;53
S31000;SGOCVKI00218;99
S31000;SGOCVKI00219;14
S20;SGOCVKI00220;21
S31000;SGOCVKI00220;39
S20;SGOCVKI00221;13
S31000;SGOCVKI00221;16
S20;SGOCVKI00222;51
S31000;SGOCVKI00222;116
S21000;52LC006A20;194
S21000;52LGEBAG19;52
S28000;52LGEBAG19;24
S28000;52LGEBOX18;10
S21000;52LGEBOX18;13
S21000;52LGENSA21;81
S28000;52LGENSA21;129
S28000;52LT002R21;23
S21000;52LT002R21;22
S21000;52MA003K22A;125
S28000;52MA003K22A;154
S28000;52MC006G21;119
S21000;52MC006G21;97
S21000;52MGEBAG19;16
S28000;52MGEBOX18;5
S21000;52MGEBOX18;9
S21000;52MGENSA21;36
S28000;52MGENSA21;65
S28000;52MIBANO22;67
S21000;52MIBANO22;78
S21000;52MMB1NO22;46
S28000;52MMB1NO22;22
S28000;52MMB2NO22;22
S21000;52MMB2NO22;50
S21000;52MMB3NO22;34
S28000;52MMB3NO22;19
S28000;52MMBANO22;361
S21000;52MMBANO22;304
S21000;52MMSANO22;207
S28000;52MMSANO22;467
S28000;52MOCOL316;2
S21000;52MOCOL316;2
S21000;52MS001I20;107
S28000;52MS001I20;46
S28000;52OR001I21;412
S21000;52OR001I21;229
S28000;52PHGHTS20;3
S28000;52PMGBOX18;37
S21000;52PMGBOX18;4
S28000;52PS0015R21;89
S21000;52PS0015R21;57
S21000;52PSAC18;1
S28000;52PSAC18;1
S28000;52RIB1NO22;12
S21000;52RIB1NO22;7
S21000;52RIB2NO22;7
S28000;52RIB2NO22;12
S28000;52RIBOXNO22;500
S21000;52RIBOXNO22;367
S28000;52SAMPENV18;516
S21000;52SAMPENV18;27
S21000;52SGENSA21GPS;99
S28000;52SGENSA21GPS;52
S27000;01BK010K14;5
S27000;01BL012K18;2
S27000;01BL012KC22H;14
S27000;01BL012KG22H;8
S27000;01BM050K19;4
S27000;01BM150K19;4
S27000;01BP050K21;7
S27000;01BV050K16;4
S27000;01CD250K17;2
S27000;01CD250KC22H;7
S27000;01CE200KC22H;11
S27000;01CF050K22;10
S27000;01CL050K21;3
S27000;01CL175K22;10
S27000;01CL200KG22H;5
S27000;01CM300K20;9
S27000;01CM500K20;3
S27000;01CMJ075K21;7
S27000;01CMR500K20;8
S27000;01CP100KC22H;7
S27000;01CP200K22;12
S27000;01CPR200K22;5
S27000;01CV050K22;5
S27000;01EC200K22;9
S27000;01EM075K20;6
S27000;01HD250K17;5
S27000;01HD500K20;8
S27000;01HDR500K20;3
S27000;01HF100K17;6
S27000;01HN0075K19;2
S27000;01HN075KG22H;3
S27000;01HV030K16;4
S27000;01LC250K17;1
S27000;01LT300K20;9
S27000;01MA030K22;43
S27000;01MA030KC22H;24
S27000;01MA030KG22H;29
S27000;01MA075K22;30
S27000;01MA150K22;25
S27000;01MA150KC22H;6
S27000;01MA150KG22H;20
S27000;01MD200KG22H;28
S27000;01MR030K14;6
S27000;01ORKAR22;35
S27000;01PI030K18;5
S27000;01PI150K18;5
S27000;01PWPKT22;14
S27000;01RL500K20;6
S27000;01RV500K20;5
S27000;01SA050KC22H;9
S27000;01SA050KG22H;6
S27000;01SA100LT20;9
S27000;01SA100LV20;13
S20;SGOCVKI00223;25
S31000;SGOCVKI00223;29
S20;SGOCVKI00224;18
S31000;SGOCVKI00224;19
S20;SGOCVKI00225;37
S31000;SGOCVKI00225;60
S20;SGOCVKI00226;49
S31000;SGOCVKI00226;37
S20;SGOCVKI00227;13
S31000;SGOCVKI00227;22
S20;SGOCVKI00228;16
S31000;SGOCVKI00228;26
S20;SGOCVKI00229;22
S31000;SGOCVKI00229;33
S20;SGOCVKI00230;35
S31000;SGOCVKI00230;33
S20;SGOCVKI00231;15
S31000;SGOCVKI00231;16
S20;SGOCVKI00232;11
S31000;SGOCVKI00232;19
S20;SGOCVKI00233;32
S31000;SGOCVKI00233;41
S20;SGOCVKI00234;15
S31000;SGOCVKI00234;24
S20;SGOCVKI00235;12
S31000;SGOCVKI00235;35
S20;SGOCVKI00236;12
S31000;SGOCVKI00236;10
S20;SGOCVKI00237;20
S31000;SGOCVKI00237;43
S20;SGOCVKI00238;1
S31000;SGOCVKI00238;7
S20;SGOCVKI00239;11
S31000;SGOCVKI00239;7
S20;SGOCVKI00240;7
S31000;SGOCVKI00240;16
S20;SGOCVKI00241;12
S31000;SGOCVKI00241;20
S20;SGOCVKI00242;21
S31000;SGOCVKI00242;44
S20;SGOCVKI00243;21
S31000;SGOCVKI00243;26
S20;SGOCVKI00244;73
S31000;SGOCVKI00244;70
S20;SGOCVKI00254;27
S31000;SGOCVKI00254;62
S10;27DF125I17;9
S29000;27DF125I17;10
S29000;27DH015I20;4
S29000;27DH015I22;20
S10;27DH015I22;8
S10;27DH030I20;4
S29000;27DH030I20;4
S29000;27DH030I22;22
S10;27DH030I22;13
S10;27DL200I21;4
S29000;27DL200I21;5
S29000;27DS030I20;8
S10;27DS030I20;5
S10;27ER015I22;16
S29000;27ER015I22;24
S29000;27ER050I21;16
S10;27ER050I21;8
S10;27ER150I21;13
S29000;27ER150I21;18
S29000;27EV200I19;17
S10;27EV200I19;8
S10;27HC050I18;4
S29000;27HC050I18;4
S29000;27HCR050I16;6
S10;27HCR050I16;4
S10;27HS030I18;4
S29000;27HS030I18;2
S29000;27HSR030I16;8
S10;27HSR030I16;4
S10;27MI150I20;4
S29000;27MI150I20;4
S29000;27MP050I20;2
S10;27MP050I20;10
S29000;27MP150I20;8
S29000;27MQ065I15A;4
S10;27MQ065I15A;5
S10;27MS050I20;3
S29000;27MS050I20;9
S29000;27OR030I21;24
S10;27OR030I21;25
S10;27OR050I21;6
S29000;27OR050I21;16
S29000;27SP030I19;6
S10;27SP030I19;4
S10;29ASH240A20;5
S29000;29ASH240A20;21
S29000;29BP100A22;4
S10;29BP100A22;7
S10;29EC200A21;8
S29000;29EC200A21;12
S29000;29GE200A21;47
S10;29GE200A21;24
S10;29HD075A15;133
S29000;29HD075A15;31
S29000;29HD250A15;25
S10;29HD250A15;11
S10;29HD500A15;18
S29000;29HD500A15;40
S29000;29HS100A22SM;10
S10;29HS100A22SM;7
S10;29LC200A20US;27
S29000;29LC200A20US;32
S29000;29MA030A17;34
S10;29MA030A17;23
S10;29MA075A21;15
S29000;29MA075A21;21
S29000;29ORALM22;85
S10;29ORALM22;76
S10;29RC200A20;10
S29000;29RC200A20;33
S29000;29RH500A15;64
S10;29RH500A15;13
S10;29SA050A21;2
S29000;29SA050A21;18
S29000;29SE125A21;14
S10;29SE125A21;5
S10;29SH240A20;4
S29000;29SH240A20;2
S29000;29VC240A22;16
S10;29VC240A22;8
S10;38BV050A19;5
S29000;38BV050A19;6
S29000;38EC015A18;5
S10;38EC015A18;4
S10;38EV075A21;8
S29000;38EV075A21;13
S29000;38FT200A21;12
S10;38FT200A21;7
S10;38MI150A22;12
S29000;38MI150A22;6
S10;38RC050A18;2
S10;38RC050A22;14
S29000;38RC050A22;12
S29000;38UV030A18;15
S10;38UV030A18;5
S10;38WC050A21;5
S29000;38WC050A21;10
S10;38WM065A18;2
S10;38WS030A21;4
S29000;38WS030A21;11
S10;49BO015CS19;53
S10;49CABNO22;70
S29000;49CABNO22;94
S10;49CP020K22;10
S10;49DC004I20;35
S10;49DH004I20;10
S10;49DISC3NO22;123
S29000;49DISC3NO22;31
S28000;52SH006E19;115
S21000;52SH006E19;92
S21000;52SH006FV21;82
S28000;52SH006FV21;164
S28000;52SH006G21;86
S21000;52SH006G21;97
S21000;52SH006P19;97
S28000;52SH006P19;153
S28000;52SMBANO22;110
S21000;52SMBANO22;201
S21000;52SMSANO22;177
S28000;52SMSANO22;707
S28000;52SP001I19;177
S21000;52SP001I19;160
S21000;52STINO22;6
S28000;52STINO22;10
S28000;52TS001I22;317
S21000;52TS001I22;95
S21000;52TS001R21;53
S28000;52TS001R21;45
S21000;98BBGD030VE4;28
S21000;98BBMA010KA3;22
S28000;ACPOCVE7T00016;1
S28000;ACPOCVEC00001;172
S21000;ACPOCVEC00001;172
S21000;ACPOCVEC00002;157
S28000;ACPOCVEC00002;184
S28000;ACPOCVEC00003;100
S21000;ACPOCVEC00003;100
S28000;ACPOCVEC00005;322
S21000;ACPOCVEC00005;148
S21000;ACPOCVKA00700;13
S28000;ACPOCVKA00700;24
S21000;SGOCVE600004;25
S28000;SGOCVKI00214;2
S28000;SGOCVKI00215;73
S21000;SGOCVKI00215;58
S21000;SGOCVKI00216;25
S28000;SGOCVKI00216;9
S28000;SGOCVKI00217;77
S21000;SGOCVKI00217;47
S21000;SGOCVKI00218;49
S28000;SGOCVKI00218;75
S21000;SGOCVKI00219;2
S21000;SGOCVKI00220;8
S28000;SGOCVKI00220;16
S28000;SGOCVKI00221;27
S21000;SGOCVKI00221;11
S21000;SGOCVKI00222;80
S28000;SGOCVKI00222;64
S28000;SGOCVKI00223;35
S21000;SGOCVKI00223;15
S27000;01SA100VE20;14
S27000;01SA250LT20;8
S27000;01SA250LV20;9
S27000;01SA250VE20;8
S27000;01SA300KRO22;7
S27000;01SA500KRO22;6
S27000;01SAR500KRO22;10
S27000;01SE125K21;4
S27000;01SL0045K13;28
S27000;01SL0045KR22;15
S27000;01SL300LV20;6
S27000;01SL300VE20;5
S27000;01SL500LV20;6
S27000;01SL500VE20;7
S27000;10CACLA22;2
S27000;10CRAKT22;66
S27000;11AS040SG22;17
S27000;11BC100G21;16
S27000;11BG140CS19;10
S27000;11BG140SH19;5
S27000;11BG140SI19;4
S27000;11BG140SL19;4
S27000;11BH050A18;4
S27000;11BO100CS19;23
S27000;11BO100CS22H;2
S27000;11BP100I19;4
S27000;11BR100A20;3
S27000;11CD050A18;3
S27000;11CF100TR19;10
S27000;11CM030H19;14
S27000;11CM030H20;45
S27000;11CM030O21;16
S27000;11CM125I19;7
S27000;11EH150A18;9
S27000;11EP010H19;5
S27000;11EP050H19;3
S27000;11ET010H20;7
S27000;11ET050H20;2
S27000;11ET075O21;3
S27000;11FAG10TR19;4
S27000;11GD050A18;5
S27000;11GD250H19;10
S27000;11GD250H20;27
S27000;11GD250O21;6
S27000;11GE075I20;5
S27000;11GM200I19;6
S27000;11GN195A18;5
S27000;11LC250H19;7
S27000;11LC250H20;9
S27000;11LC250O21;8
S27000;11LD200I19;6
S27000;11LH200I19;6
S21000;SGOCVKI00224;8
S28000;SGOCVKI00224;24
S28000;SGOCVKI00225;39
S21000;SGOCVKI00225;45
S21000;SGOCVKI00226;37
S28000;SGOCVKI00226;14
S28000;SGOCVKI00227;13
S21000;SGOCVKI00227;10
S21000;SGOCVKI00228;63
S28000;SGOCVKI00228;9
S28000;SGOCVKI00229;36
S21000;SGOCVKI00229;16
S21000;SGOCVKI00230;32
S28000;SGOCVKI00230;23
S28000;SGOCVKI00231;1
S21000;SGOCVKI00231;16
S21000;SGOCVKI00232;6
S28000;SGOCVKI00232;5
S28000;SGOCVKI00233;46
S21000;SGOCVKI00233;29
S21000;SGOCVKI00234;15
S28000;SGOCVKI00234;23
S28000;SGOCVKI00235;29
S21000;SGOCVKI00235;18
S21000;SGOCVKI00236;9
S28000;SGOCVKI00236;19
S28000;SGOCVKI00237;9
S21000;SGOCVKI00237;4
S21000;SGOCVKI00238;7
S21000;SGOCVKI00239;8
S28000;SGOCVKI00239;4
S28000;SGOCVKI00240;10
S21000;SGOCVKI00240;11
S21000;SGOCVKI00241;15
S28000;SGOCVKI00241;13
S28000;SGOCVKI00242;11
S21000;SGOCVKI00242;22
S21000;SGOCVKI00243;18
S28000;SGOCVKI00243;8
S28000;SGOCVKI00244;109
S21000;SGOCVKI00244;63
S21000;SGOCVKI00254;27
S28000;SGOCVKI00254;38
S29000;49HD035A15;102
S29000;49LC020A20;31
S29000;49OR005I21;99
S29000;49PADCL20;53
S29000;52AF006G20;186
S29000;52AS006E19;69
S29000;52AS006FV21;131
S29000;52AS006G21;226
S29000;52AS006P19;147
S29000;52BY001I19;140
S29000;52CARDNO22;8
S29000;52CD0015A18;26
S29000;52CL0015K21;28
S29000;52CP0015I19;196
S29000;52CP006K22;178
S29000;52CV0015K22;131
S29000;52DB001I20;79
S29000;52DC0015I20;128
S29000;52DE001I21;169
S29000;52DF002I17;58
S29000;52DH001I20;100
S29000;52DH001I22;154
S29000;52DL002I21;183
S29000;52DS001I20;58
S29000;52ER002I21;336
S29000;52EV002I19;50
S29000;52GD0015A18;28
S29000;52GIF1NO22;4
S29000;52GIF2NO22;4
S29000;52HD006A18;138
S29000;52HS001I17;58
S29000;52HS004A18;137
S29000;52LASANO22;419
S29000;52LC006A20;106
S29000;52LGEBOX18;7
S29000;52LGENSA21;75
S29000;52LT002R21;74
S29000;52MA003K22A;144
S29000;52MC006G21;153
S29000;52MGEBOX18;3
S29000;52MGENSA21;67
S29000;52MMB1NO22;68
S29000;52MMB2NO22;76
S29000;52MMB3NO22;64
S29000;52MMSANO22;450
S29000;52MOCOL316;4
S29000;52MS001I20;92
S29000;52OR001I21;136
S29000;52PMGBOX18;2
S29000;52PS0015R21;102
S29000;52RIB1NO22;9
S29000;52RIB2NO22;9
S29000;52RIBOXNO22;554
S27000;11LT300I20;5
S27000;11MH075A19;4
S27000;11MWC200I19;5
S27000;11PEP050I20;5
S27000;11PM100SH19;3
S27000;11PM100SI19;4
S27000;11PM100SL19;1
S27000;11SA050O21;4
S27000;11SA100H19;5
S27000;11SA100H20;7
S27000;11SD100CS19;8
S27000;11SD100SH19;8
S27000;11SD100SI19;7
S27000;11SD100SL19;5
S27000;11SP200CS19;5
S27000;11SP200SH19;5
S27000;11SP200SI19;2
S27000;11SP200SL19;5
S27000;11SV080I19;4
S27000;15AS250VA18;10
S27000;15BA500L16A;10
S27000;15DO050VA5;11
S27000;15ET010VB19;3
S27000;15ET100VA20;4
S27000;15ET100VB20;5
S27000;15ET100VBM22;2
S27000;15GD075L21;4
S27000;15GD250L21;17
S27000;15GD250VA20;6
S27000;15GD250VB21;15
S27000;15GD500VB21;9
S27000;15GM065L21;18
S27000;15GM065VB21;31
S27000;15GM280VB21;6
S27000;15GN300L21;3
S27000;15GS150VBL22;4
S27000;15HE005L14;2
S27000;15LC250L14;7
S27000;15LC250VA20;4
S27000;15LC250VB3;3
S27000;15LM300L11;5
S27000;15MA030L21;38
S27000;15MA030VA5;4
S27000;15MA030VB3;21
S27000;15MA030VBL22;1
S27000;15MA075L20;9
S27000;15MA075VB4;6
S27000;15ORVER22;110
S27000;15RC500VB21;12
S27000;15RG500L14;5
S27000;15RG500VA20;8
S27000;15SA070VB6;2
S29000;52SGENSA21GPS;181
S29000;52SH006E19;57
S29000;52SH006FV21;65
S29000;52SH006G21;182
S29000;52SH006P19;68
S29000;52SMSANO22;592
S29000;52SP001I19;30
S29000;52STINO22;9
S29000;52TS001I22;148
S29000;52TS001R21;112
S29000;ACPOCVKA00700;50
S29000;SGOCVKI00214;1
S29000;SGOCVKI00215;55
S29000;SGOCVKI00216;68
S29000;SGOCVKI00217;82
S29000;SGOCVKI00218;81
S29000;SGOCVKI00219;6
S29000;SGOCVKI00220;15
S29000;SGOCVKI00221;46
S29000;SGOCVKI00222;53
S29000;SGOCVKI00223;30
S29000;SGOCVKI00224;46
S29000;SGOCVKI00225;25
S29000;SGOCVKI00226;24
S29000;SGOCVKI00227;36
S29000;SGOCVKI00228;32
S29000;SGOCVKI00229;30
S29000;SGOCVKI00230;50
S29000;SGOCVKI00231;9
S29000;SGOCVKI00232;5
S29000;SGOCVKI00233;17
S29000;SGOCVKI00234;38
S29000;SGOCVKI00235;26
S29000;SGOCVKI00236;19
S29000;SGOCVKI00237;42
S29000;SGOCVKI00238;14
S29000;SGOCVKI00239;11
S29000;SGOCVKI00240;11
S29000;SGOCVKI00241;11
S29000;SGOCVKI00242;16
S29000;SGOCVKI00243;17
S29000;SGOCVKI00244;101
S29000;SGOCVKI00254;90
S27000;15SA075VB21;4
S27000;15SE400VB5;1
S27000;15SH250VA20;5
S27000;17AS250E19;5
S27000;17AS250FV21;4
S27000;17AS250G21;6
S27000;17AS250P19;7
S27000;17AS500E19;6
S27000;17AS500FV21;4
S27000;17AS500G21;9
S27000;17AS500P19;5
S27000;17DO050F13;7
S27000;17ER075P19;7
S27000;17HB050A22;6
S27000;17HI001G19;36
S27000;17HI100G19;5
S27000;17MC200G21;7
S27000;17RC500E20;8
S27000;17RC500G21;23
S27000;17RC500P19;4
S27000;17RS500E20;7
S27000;17RS500FV21;15
S27000;17RS500G21;18
S27000;17RS500P19;6
S27000;17SE100FV21;1
S27000;17SH060SE21;6
S27000;17SH060SG21;4
S27000;17SH060SP21;6
S27000;17SH075G21;2
S27000;17SH300E19;12
S27000;17SH300FV21;5
S27000;17SH300G21;11
S27000;17SH300P19;8
S27000;17SH500E19;17
S27000;17SH500FV21;6
S27000;17SH500G21;20
S27000;17SH500P19;11
S27000;17VI100P19;4
S27000;20AR075O20;5
S27000;20DO050O20;5
S27000;20DO130HC20;11
S27000;20ET075CD20;4
S27000;20ET075HC20;5
S27000;20ET075OC20;4
S27000;20FE050H20;4
S27000;20GD250CD20;7
S27000;20GD250HC20;11
S27000;20GD250OC20;8
S27000;20GD500HC20;7
S27000;20HR050H20;4
S27000;20NV150H20;10
S27000;20SA050CD20;4
S27000;20SA050HC20;4
S27000;24BL012CB5;7
S27000;24BL012R22;9
S27000;24BR050CB21;13
S27000;24BR050CB6;2
S27000;24BR050R22;16
S27000;24ET075CB21;6
S27000;24ET075R22;3
S27000;24GD250CB21;29
S27000;24GD250R22;21
S27000;24GD500R22;5
S27000;24LC250CB4;14
S27000;24LC250R22;6
S27000;24MA030CB4;75
S27000;24MA030P15;7
S27000;24MA030R22;34
S27000;24MA030RA19;5
S27000;24MA030RV19;4
S27000;24MA075CB4;19
S27000;24MA075P15;2
S27000;24MA075R22;9
S27000;24MA150R22;5
S27000;24ORCHB22;33
S27000;24RG500CB21;7
S27000;24RG500R22;12
S27000;24RO010CB4;5
S27000;24SA050CB21;4
S27000;24SA050R22;7
S27000;27BY015I19;3
S27000;27CP050I19;10
S27000;27DB015I20;5
S27000;27DC050I20;14
S27000;27DCB060I17;5
S27000;27DE015I21;4
S27000;27DF125I17;20
S27000;27DH015I22;12
S27000;27DH030I20;4
S27000;27DH030I22;12
S27000;27DL200I21;3
S27000;27DS030I20;6
S27000;27ER015I22;22
S27000;27ER050I21;4
S27000;27ER150I21;16
S27000;27EV200I19;3
S27000;27HC050I18;4
S27000;27HCR050I16;3
S27000;27HS030I18;3
S27000;27HSR030I16;3
S27000;27MI150I20;4
S27000;27MP050I20;3
S27000;27MP150I20;5
S27000;27MQ065I15A;3
S27000;27MS050I20;2
S27000;27OR030I21;18
S27000;27OR050I21;11
S27000;27SP030I19;4
S27000;29ASH240A20;5
S27000;29BP100A19;4
S27000;29BP100A22;4
S27000;29EC200A21;8
S27000;29GE200A21;21
S27000;29HD075A15;96
S27000;29HD250A15;18
S27000;29HD500A15;24
S27000;29HS100A22SM;1
S27000;29LC200A20US;24
S27000;29MA030A17;17
S27000;29MA075A21;12
S27000;29ORALM22;73
S27000;29RC200A20;16
S27000;29RH500A15;17
S27000;29SA050A21;5
S27000;29SE125A21;9
S27000;29SH240A20;5
S27000;29VC240A22;9
S27000;38BV050A19;5
S27000;38EC015A18;3
S27000;38EV075A21;6
S27000;38FT200A21;1
S27000;38MI150A22;13
S27000;38RC050A22;3
S27000;38UV030A18;5
S27000;38WC050A21;8
S27000;38WM065A18;1
S27000;38WS030A21;9
S27000;49BO015CS19;4
S27000;49CABNO22;76
S27000;49DISC3NO22;95
S27000;49HD035A15;18
S27000;49LC020A20;96
S27000;49MA010K22;3
S27000;49OR005I21;70
S27000;52AF006G20;134
S27000;52AS006E19;56
S27000;52AS006FV21;20
S27000;52AS006G21;123
S27000;52AS006P19;111
S27000;52BY001I19;189
S27000;52CARDNO22;4
S27000;52CD0015A18;29
S27000;52CL0015K21;43
S27000;52CP0015I19;35
S27000;52CP006K22;256
S27000;52CV0015K22;115
S27000;52DB001I20;107
S27000;52DC0015I20;216
S27000;52DE001I21;93
S30000;01BK010K14;19
S30000;01BL012K18;4
S30000;01BL012KC22H;10
S30000;01BL012KG22H;7
S30000;01BM050K19;4
S30000;01BM150K19;2
S30000;01BP050K21;8
S30000;01BV050K16;3
S30000;01CD250K17;7
S30000;01CD250KC22H;14
S30000;01CE200KC22H;13
S30000;01CF050K22;9
S30000;01CL050K21;1
S30000;01CL175K22;6
S30000;01CL200KG22H;7
S30000;01CM300K20;8
S30000;01CM500K20;11
S30000;01CMJ075K21;22
S30000;01CMR500K20;11
S30000;01CP100KC22H;13
S30000;01CP200K22;8
S30000;01CPR200K22;6
S30000;01CV050K22;5
S30000;01EC200K22;7
S30000;01EM075K20;4
S30000;01HD250K17;13
S30000;01HD500K20;7
S30000;01HDR500K20;6
S30000;01HF100K17;5
S30000;01HN0075K19;3
S30000;01HN075KG22H;6
S30000;01HV030K16;3
S30000;01LC250K17;5
S30000;01LT300K20;5
S30000;01MA030K22;44
S30000;01MA030K22H;22
S30000;01MA030KC22H;38
S30000;01MA030KG22H;38
S30000;01MA075K22;34
S30000;01MA150K22;32
S30000;01MA150KC22H;9
S30000;01MA150KG22H;20
S30000;01MD200KG22H;36
S30000;01MR030K14;10
S30000;01ORKAR22;42
S30000;01PI030K18;11
S30000;01PI150K18;5
S30000;01PWPKT22;13
S30000;01RL500K20;10
S30000;01RV500K20;17
S30000;01SA050KC22H;11
S30000;01SA050KG22H;9
S30000;01SA100LT20;9
S27000;52DF002I17;74
S27000;52DH001I22;269
S27000;52DL002I21;154
S27000;52DS001I20;59
S27000;52ER002I21;361
S27000;52FP0015I19;86
S27000;52GD0015A18;63
S27000;52GIF1NO22;3
S27000;52GIF2NO22;3
S27000;52HD006A18;262
S27000;52HS001I17;53
S27000;52HS004A18;133
S27000;52LABANO22;56
S27000;52LASANO22;157
S27000;52LC006A20;352
S27000;52LGEBAG19;53
S27000;52LGEBOX18;9
S27000;52LGENSA21;74
S27000;52LT002R21;60
S27000;52MA003K22A;110
S27000;52MC006G21;250
S27000;52MGEBOX18;9
S27000;52MGENSA21;78
S27000;52MIBANO22;46
S27000;52MMB1NO22;18
S27000;52MMB2NO22;24
S27000;52MMB3NO22;30
S27000;52MMBANO22;227
S27000;52MMSANO22;235
S27000;52MOCOL316;2
S27000;52MS001I20;129
S27000;52OR001I21;215
S27000;52PMGBOX18;3
S27000;52PS0015R21;108
S27000;52PSAC18;1
S27000;52RIB1NO22;7
S27000;52RIB2NO22;7
S27000;52RIBOXNO22;288
S27000;52SGENSA21GPS;71
S27000;52SH006E19;160
S27000;52SH006FV21;126
S27000;52SH006G21;165
S27000;52SH006P19;96
S27000;52SMBANO22;60
S27000;52SMSANO22;133
S27000;52SP001I19;50
S27000;52STINO22;6
S27000;52TS001I22;77
S27000;52TS001R21;93
S27000;ACPOCVEC00001;229
S27000;ACPOCVEC00002;64
S27000;ACPOCVEC00003;70
S27000;ACPOCVEC00005;155
S30000;01SA100LV20;15
S30000;01SA100VE20;15
S30000;01SA250LT20;11
S30000;01SA250LV20;16
S30000;01SA250VE20;11
S30000;01SA300KRO22;8
S30000;01SA500KRO22;6
S30000;01SAR500KRO22;10
S30000;01SE125K21;2
S30000;01SL0045K13;15
S30000;01SL300LV20;6
S30000;01SL300VE20;6
S30000;01SL500LV20;5
S30000;01SL500VE20;6
S30000;10CACLA22;9
S30000;10CRAKT22;99
S30000;11AS040SG22;18
S30000;11BC100G21;8
S30000;11BG140CS19;9
S30000;11BG140SH19;4
S30000;11BG140SI19;5
S30000;11BG140SL19;5
S30000;11BH050A18;5
S30000;11BO100CS19;24
S30000;11BO100CS22H;3
S30000;11BP100I19;5
S30000;11BR100A20;4
S30000;11CD050A18;3
S30000;11CF100TR19;11
S30000;11CM030H19;11
S30000;11CM030H20;50
S30000;11CM030O21;18
S30000;11CM125I19;7
S30000;11EH150A18;4
S30000;11EP010H19;10
S30000;11EP050H19;1
S30000;11ET010H20;13
S30000;11ET050H20;3
S30000;11ET075O21;9
S30000;11FAG10TR19;5
S30000;11GD050A18;4
S30000;11GD250H19;10
S30000;11GD250H20;33
S30000;11GD250O21;14
S30000;11GE075I20;6
S30000;11GM200I19;8
S30000;11GN195A18;6
S30000;11HE005CS19;4
S30000;11LB250HF22;5
S30000;11LC250H19;6
S30000;11LC250H20;12
S30000;11LC250O21;7
S27000;ACPOCVKA00700;16
S27000;SGOCVE600004;3
S27000;SGOCVKI00215;81
S27000;SGOCVKI00216;29
S27000;SGOCVKI00217;38
S27000;SGOCVKI00218;38
S27000;SGOCVKI00220;20
S27000;SGOCVKI00221;14
S27000;SGOCVKI00222;55
S27000;SGOCVKI00223;12
S27000;SGOCVKI00224;11
S27000;SGOCVKI00225;32
S27000;SGOCVKI00226;36
S27000;SGOCVKI00227;12
S27000;SGOCVKI00228;29
S27000;SGOCVKI00229;17
S27000;SGOCVKI00230;19
S27000;SGOCVKI00231;14
S27000;SGOCVKI00232;11
S27000;SGOCVKI00233;34
S27000;SGOCVKI00234;15
S27000;SGOCVKI00235;21
S27000;SGOCVKI00236;12
S27000;SGOCVKI00237;12
S27000;SGOCVKI00238;2
S27000;SGOCVKI00239;8
S27000;SGOCVKI00240;9
S27000;SGOCVKI00241;13
S27000;SGOCVKI00242;17
S27000;SGOCVKI00243;17
S27000;SGOCVKI00244;52
S27000;SGOCVKI00254;26
S30000;11LD200I19;8
S30000;11LH200I19;8
S30000;11LT300I20;4
S30000;11MH075A19;3
S30000;11MWC200I19;5
S30000;11PEP050I20;3
S30000;11PM100SH19;5
S30000;11PM100SI19;4
S30000;11SA050O21;6
S30000;11SA100H19;6
S30000;11SA100H20;11
S30000;11SD100CS19;6
S30000;11SD100SH19;7
S30000;11SD100SI19;5
S30000;11SD100SL19;5
S30000;11SP200CS19;6
S30000;11SP200SH19;5
S30000;11SP200SI19;5
S30000;11SP200SL19;5
S30000;11SV080I19;4
S30000;15AS250VA18;4
S30000;15BA500L16A;6
S30000;15DO050VA5;6
S30000;15ET010VB19;6
S30000;15ET100VA20;3
S30000;15ET100VB20;5
S30000;15GD075L21;18
S30000;15GD250L21;21
S30000;15GD250VA20;6
S30000;15GD250VB21;15
S30000;15GD500VB21;7
S30000;15GM065L21;20
S30000;15GM065VB21;31
S30000;15GM280VB21;4
S30000;15GN300L11;2
S30000;15GN300L21;10
S30000;15GS150VBL22;2
S30000;15HE005L14;6
S30000;15LC250L14;8
S30000;15LC250VA20;5
S30000;15LC250VB3;7
S30000;15LM300L11;8
S30000;15MA030L21;39
S30000;15MA030VA5;6
S30000;15MA030VB3;25
S30000;15MA030VBM8;6
S30000;15MA075L20;12
S30000;15MA075VB4;7
S30000;15ORVER22;124
S30000;15RC500VB21;16
S30000;15RG500L14;13
S30000;15RG500VA20;9
S30000;15SA075VB21;4
S30000;15SE400VB5;7
S30000;15SH250VA20;5
S30000;17AF100G20;4
S30000;17AS250E19;5
S30000;17AS250FV21;6
S30000;17AS250G21;11
S30000;17AS250P19;6
S30000;17AS500E19;8
S30000;17AS500FV21;4
S30000;17AS500G21;8
S30000;17AS500P19;7
S30000;17DO050F13;6
S30000;17ER075P19;2
S30000;17HB050A22;7
S30000;17HI001G19;115
S30000;17HI100G19;5
S30000;17MC200G21;9
S30000;17RC500E20;15
S30000;17RC500G21;16
S30000;17RC500P19;8
S30000;17RS500E20;25
S30000;17RS500FV21;20
S30000;17RS500G21;31
S30000;17RS500P19;23
S30000;17SE100FV21;5
S30000;17SH060SE21;2
S30000;17SH060SG21;4
S30000;17SH060SP21;4
S30000;17SH075G21;23
S30000;17SH300E19;12
S30000;17SH300FV21;11
S30000;17SH300G21;12
S30000;17SH300P19;11
S30000;17SH500E19;17
S30000;17SH500FV21;6
S30000;17SH500G21;20
S30000;17SH500P19;15
S30000;17VI100P19;5
S30000;20AR075O20;6
S30000;20DO050O20;5
S30000;20DO075CD20;2
S30000;20DO130HC20;4
S30000;20ET075CD20;5
S30000;20ET075HC20;4
S30000;20ET075OC20;5
S30000;20FE050H20;2
S30000;20GD250CD20;8
S30000;20GD250HC20;14
S30000;20GD250OC20;10
S30000;20GD500HC20;10
S30000;20HR050H20;4
S30000;20NV150H20;11
S30000;20SA050CD20;4
S30000;20SA050HC20;4
S30000;24BL012CB5;12
S30000;24BL012R22;12
S30000;24BR050CB21;11
S30000;24BR050R22;17
S30000;24ET075CB21;12
S30000;24ET075R22;11
S30000;24GD250CB21;33
S30000;24GD250R22;22
S30000;24GD500R22;7
S30000;24LC250CB4;14
S30000;24LC250R22;10
S30000;24MA030CB4;77
S30000;24MA030P15;6
S30000;24MA030R22;39
S30000;24MA030RA19;4
S30000;24MA030RV19;8
S30000;24MA030S6;7
S30000;24MA075CB4;19
S30000;24MA075P15;8
S30000;24MA075R22;8
S30000;24MA150R22;7
S30000;24ORCHB22;50
S30000;24RG500CB21;13
S30000;24RG500R22;23
S30000;24RO010CB4;13
S30000;24SA050CB21;9
S30000;24SA050R22;4
S30000;27BP050I19;8
S30000;27BY015I19;6
S30000;27CP050I19;7
S30000;27DB015I20;5
S30000;27DC050I20;21
S30000;27DCB060I17;4
S30000;27DE015I21;3
S30000;27DF125I17;19
S30000;27DH015I22;23
S30000;27DH030I20;5
S30000;27DH030I22;22
S30000;27DL200I21;5
S30000;27DS030I20;7
S30000;27ER015I22;30
S30000;27ER050I21;11
S30000;27ER150I21;17
S30000;27EV200I19;5
S30000;27FP050I19;2
S30000;27HC050I18;4
S30000;27HCR050I16;3
S30000;27HS030I18;4
S30000;27HSR030I16;4
S30000;27MI150I20;4
S30000;27MP050I20;15
S30000;27MP150I20;10
S30000;27MQ065I15A;4
S30000;27MS050I20;7
S30000;27OR030I21;31
S30000;27OR050I21;28
S30000;27SP030I19;4
S30000;29ASH240A20;5
S30000;29BP100A19;4
S30000;29BP100A22;4
S30000;29EC200A21;2
S30000;29GE200A21;22
S30000;29HD075A15;66
S30000;29HD250A15;15
S30000;29HD500A15;27
S30000;29LC200A20US;22
S30000;29MA030A17;14
S30000;29MA075A21;12
S30000;29ORALM22;94
S30000;29RC200A20;35
S30000;29RH500A15;23
S30000;29SA050A21;9
S30000;29SE125A21;4
S30000;29SH240A20;5
S30000;29VC240A22;7
S30000;38BV050A19;5
S30000;38EC015A18;4
S30000;38EV075A21;5
S30000;38FT200A21;6
S30000;38MI150A22;4
S30000;38RC050A22;4
S30000;38UV030A18;6
S30000;38WC050A21;3
S30000;38WS030A21;7
S30000;49BO015CS19;12
S30000;49CABNO22;55
S30000;49DC004I20;2
S30000;49DH004I20;32
S30000;49DISC3NO22;66
S30000;49HD035A15;40
S30000;49LC020A20;87
S30000;49MA010K22;18
S30000;49OR005I21;88
S30000;52AF006G20;31
S30000;52AS006E19;98
S30000;52AS006FV21;37
S30000;52AS006G21;177
S30000;52AS006P19;59
S30000;52BY001I19;154
S30000;52CARDNO22;4
S30000;52CD0015A18;109
S30000;52CL0015K21;110
S30000;52CP0015I19;115
S30000;52CP006K22;138
S30000;52CV0015K22;64
S30000;52DB001I20;173
S30000;52DC0015I20;236
S30000;52DE001I21;97
S30000;52DF002I17;184
S30000;52DH001I22;311
S30000;52DL002I21;68
S30000;52DS001I20;88
S30000;52ER002I21;467
S30000;52GD0015A18;109
S30000;52GIF1NO22;3
S30000;52GIF2NO22;3
S30000;52HD006A18;276
S30000;52HS001I17;129
S30000;52HS004A18;104
S30000;52LABANO22;88
S30000;52LASANO22;204
S30000;52LC006A20;197
S30000;52LGEBAG19;28
S30000;52LGEBOX18;15
S30000;52LGENSA21;113
S30000;52LT002R21;99
S30000;52MA003K22A;151
S30000;52MC006G21;70
S30000;52MGEBAG19;43
S30000;52MGEBOX18;8
S30000;52MGENSA21;128
S30000;52MIBANO22;114
S30000;52MMB1NO22;35
S30000;52MMB2NO22;36
S30000;52MMB3NO22;33
S30000;52MMBANO22;293
S30000;52MMSANO22;426
S30000;52MOCOL316;2
S30000;52MS001I20;103
S30000;52OR001I21;194
S30000;52PMGBOX18;7
S30000;52PS0015R21;125
S30000;52RIB1NO22;7
S30000;52RIB2NO22;7
S30000;52RIBOXNO22;214
S30000;52SGENSA21GPS;70
S30000;52SH006E19;138
S30000;52SH006FV21;110
S30000;52SH006G21;161
S30000;52SH006P19;123
S30000;52SMBANO22;250
S30000;52SMSANO22;282
S30000;52SP001I19;103
S30000;52STINO22;6
S30000;52TS001I22;105
S30000;52TS001R21;180
S30000;98BBGD030VE4;7
S30000;ACPOCVEC00001;313
S30000;ACPOCVEC00002;530
S30000;ACPOCVEC00003;100
S30000;ACPOCVEC00005;199
S30000;ACPOCVKA00700;16
S30000;SGOCVE600004;18
S30000;SGOCVKI00214;2
S30000;SGOCVKI00215;98
S30000;SGOCVKI00216;34
S30000;SGOCVKI00217;47
S30000;SGOCVKI00218;53
S30000;SGOCVKI00219;13
S30000;SGOCVKI00220;32
S30000;SGOCVKI00221;14
S30000;SGOCVKI00222;72
S30000;SGOCVKI00223;14
S30000;SGOCVKI00224;16
S30000;SGOCVKI00225;48
S30000;SGOCVKI00226;15
S30000;SGOCVKI00227;17
S30000;SGOCVKI00228;18
S30000;SGOCVKI00229;22
S30000;SGOCVKI00230;18
S30000;SGOCVKI00231;12
S30000;SGOCVKI00232;15
S30000;SGOCVKI00233;23
S30000;SGOCVKI00234;13
S30000;SGOCVKI00235;38
S30000;SGOCVKI00236;12
S30000;SGOCVKI00237;8
S30000;SGOCVKI00238;3
S30000;SGOCVKI00239;2
S30000;SGOCVKI00240;10
S30000;SGOCVKI00241;15
S30000;SGOCVKI00242;30
S30000;SGOCVKI00243;14
S30000;SGOCVKI00244;77
S30000;SGOCVKI00254;28
