S28000;01BK010K14;18
S28000;01BL012K18;16
S28000;01BM050K19;12
S28000;01BM150K19;15
S28000;01BP050K21;9
S28000;01BV050K16;3
S28000;01CD250K17;23
S28000;01CF050K22;9
S28000;01CL050K21;8
S28000;01CL175K22;12
S28000;01CM300K20;11
S28000;01CM500K20;12
S28000;01CMJ075K21;21
S28000;01CMR500K20;16
S28000;01CP200K22;19
S28000;01CPR200K22;14
S28000;01CV050K22;10
S28000;01EC200K22;11
S28000;01EM075K20;3
S28000;01HD250K17;11
S28000;01HD500K20;17
S28000;01HDR500K20;20
S28000;01HF100K17;8
S28000;01HN0075K19;9
S28000;01HV030K16;3
S28000;01LC250K17;14
S28000;01LT300K20;15
S28000;01MA030K22;28
S28000;01MA075K22;15
S28000;01MA150K22;29
S28000;01MR030K14;15
S28000;01PI030K18;11
S28000;01PI150K18;11
S28000;01RL500K20;12
S28000;01RV500K20;17
S28000;01SA050KV20;11
S28000;01SA100LT20;11
S28000;01SA100LV20;18
S28000;01SA100VE20;15
S28000;01SA250LT20;20
S28000;01SA250LV20;18
S28000;01SA250VE20;23
S28000;01SA300KRO22;20
S28000;01SA500KRO22;16
S28000;01SA9000KV21;1
S28000;01SB020K21;6
S28000;01SE125K21;13
S28000;01SL0045K13;16
S28000;01SL300LV20;4
S28000;01SL300VE20;11
S28000;01SL500LV20;3
S28000;01SL500VE20;11
S28000;10EST250V21;31
S30000;01BK010K14;19
S30000;01BL012K18;8
S30000;01BM050K19;6
S30000;01BM150K19;16
S30000;01BV050K16;3
S30000;01CD250K17;10
S30000;01CF050K22;10
S30000;01CL050K21;4
S30000;01CL175K22;6
S30000;01CM300K20;7
S30000;01CM500K20;9
S30000;01CMJ075K21;3
S30000;01CMR500K20;18
S30000;01CP200K22;14
S30000;01CPR200K22;10
S30000;01CV050K22;5
S30000;01EC200K22;4
S30000;01EM075K20;6
S30000;01HD250K17;11
S30000;01HD500K20;14
S30000;01HDR500K20;11
S30000;01HF100K17;6
S30000;01HN0075K19;15
S30000;01HV030K16;4
S30000;01LC250K17;7
S30000;01LT300K20;7
S30000;01MA030K22;27
S30000;01MA075K22;10
S30000;01MA150K22;18
S30000;01MR030K14;3
S30000;01PI030K18;7
S30000;01PI150K18;4
S30000;01RL500K20;14
S30000;01RV500K20;22
S30000;01SA050KV20;2
S30000;01SA100LT20;13
S30000;01SA100LV20;14
S30000;01SA100VE20;21
S30000;01SA250LT20;12
S30000;01SA250LV20;17
S30000;01SA250VE20;14
S30000;01SA300KRO22;12
S30000;01SA500KRO22;11
S30000;01SE125K21;8
S30000;01SL0045K13;30
S30000;01SL300LV20;5
S30000;01SL300VE20;10
S30000;01SL500LV20;11
S30000;01SL500VE20;10
S30000;11BC100G21;3
S30000;11BG140CS19;5
S30000;11BG140SH19;9
S30000;11BG140SI19;6
S90000;01BK010K14;3
S90000;01BL012K18;8
S90000;01BM050K19;9
S90000;01BM150K19;1
S90000;01BP050K21;9
S90000;01BS020K22;1
S90000;01BV050K16;7
S90000;01CD250K17;5
S90000;01CF050K22;7
S90000;01CL050K21;12
S90000;01CL175K22;6
S90000;01CL200K17;34
S90000;01CM300K20;10
S90000;01CM500K20;13
S90000;01CMJ075K21;11
S90000;01CMR500K20;15
S90000;01CP050K22;10
S90000;01CP100K21H;9
S90000;01CP200K22;8
S90000;01CPR200K22;13
S90000;01CV050K18;27
S90000;01CV050K22;12
S90000;01EC200K22;14
S90000;01EM075K20;10
S90000;01EN300KB19;14
S90000;01HD250K17;5
S90000;01HD500K20;11
S90000;01HDR500K20;13
S90000;01HF100K17;5
S90000;01HN0075K19;10
S90000;01HV030K16;3
S90000;01KTPWP21;32
S90000;01LC250K17;8
S90000;01LC250K21H;1
S90000;01LC500K20;1
S90000;01LT300K20;10
S90000;01MA075K18;6
S90000;01MA075K22;1
S90000;01MA150K18;4
S90000;01MA150K22;9
S90000;01MR030K14;9
S90000;01PI030K18;9
S90000;01PI075K18;15
S90000;01PI150K18;7
S90000;01RL500K20;8
S90000;01RV500K20;7
S90000;01SA050KL20;4
S90000;01SA050KV20;9
S90000;01SA100LT20;10
S90000;01SA100LV20;13
S90000;01SA100VE20;9
S90000;01SA250LT20;8
S90000;01SA250LV20;5
S27000;01BK010K14;18
S27000;01BL012K18;8
S27000;01BM050K19;4
S27000;01BM150K19;8
S27000;01BP050K21;9
S27000;01BV050K16;5
S27000;01CD250K17;14
S27000;01CF050K22;11
S27000;01CL050K21;3
S27000;01CL175K22;12
S27000;01CM300K20;8
S27000;01CM500K20;8
S27000;01CMJ075K21;16
S27000;01CMR500K20;11
S27000;01CP200K22;7
S27000;01CPR200K22;10
S27000;01CV050K22;4
S27000;01EC200K22;14
S27000;01EM075K20;5
S27000;01HD250K17;8
S27000;01HD500K20;12
S27000;01HDR500K20;16
S27000;01HF100K17;4
S27000;01HN0075K19;9
S27000;01HV030K16;4
S27000;01LC250K17;14
S27000;01LT300K20;7
S27000;01MA030K22;24
S27000;01MA075K22;13
S27000;01MA150K22;15
S27000;01MR030K14;9
S27000;01PI030K18;4
S27000;01PI150K18;13
S27000;01RL500K20;8
S27000;01RV500K20;2
S27000;01SA050KV20;11
S27000;01SA100LT20;11
S27000;01SA100LV20;10
S27000;01SA100VE20;16
S27000;01SA250LT20;13
S27000;01SA250LV20;15
S27000;01SA250VE20;11
S27000;01SA300KRO22;5
S27000;01SA500KRO22;8
S27000;01SB020K21;10
S27000;01SE125K21;5
S27000;01SL0045K13;29
S27000;01SL300LV20;5
S27000;01SL300VE20;4
S27000;01SL500LV20;6
S27000;01SL500VE20;6
S27000;11BC100G21;31
S27000;11BG140CS19;10
S21000;01BK010K14;20
S21000;01BL012K18;13
S21000;01BM050K19;12
S21000;01BM150K19;13
S21000;01BP050K21;8
S21000;01BV050K16;4
S21000;01CD250K17;15
S21000;01CF050K22;4
S21000;01CL050K21;9
S21000;01CL175K22;8
S21000;01CM300K20;5
S21000;01CM500K20;7
S21000;01CMJ075K21;16
S21000;01CMR500K20;12
S21000;01CP200K22;13
S21000;01CPR200K22;14
S21000;01CV050K22;3
S21000;01EC200K22;10
S21000;01EM075K20;4
S21000;01HD250K17;10
S21000;01HD500K20;10
S21000;01HDR500K20;13
S21000;01HF100K17;5
S21000;01HN0075K19;11
S21000;01HV030K16;4
S21000;01LC250K17;5
S21000;01LT300K20;13
S21000;01MA030K22;100
S21000;01MA075K22;12
S21000;01MA150K22;9
S21000;01MR030K14;70
S21000;01PI030K18;10
S21000;01PI150K18;12
S21000;01RL500K20;8
S21000;01RV500K20;5
S21000;01SA050KV20;8
S21000;01SA100LT20;11
S21000;01SA100LV20;10
S21000;01SA100VE20;2
S21000;01SA250LT20;8
S21000;01SA250LV20;14
S21000;01SA250VE20;12
S21000;01SA300KRO22;7
S21000;01SA500KRO22;12
S21000;01SB020K21;5
S21000;01SE125K21;5
S21000;01SL0045K13;20
S21000;01SL300LV20;6
S21000;01SL300VE20;6
S21000;01SL500LV20;6
S21000;01SL500VE20;5
S21000;11BC100G21;21
S21000;11BG140CS19;6
S20;01BK010K14;18
S20;01BL012K18;16
S20;01BM050K19;13
S20;01BM150K19;15
S20;01BP050K21;11
S20;01BV050K16;11
S20;01CD250K17;14
S20;01CF050K22;14
S20;01CL050K21;10
S20;01CL175K22;9
S20;01CM300K20;11
S20;01CM500K20;16
S20;01CMJ075K21;12
S20;01CMR500K20;19
S20;01CP200K22;11
S20;01CPR200K22;15
S20;01CV050K22;6
S20;01EC200K22;14
S20;01EM075K20;3
S20;01HD250K17;8
S20;01HD500K20;17
S20;01HDR500K20;13
S20;01HF100K17;13
S20;01HN0075K19;15
S20;01HV030K16;2
S20;01LC250K17;3
S20;01LT300K20;18
S20;01MA030K22;21
S20;01MA075K22;11
S20;01MA150K22;16
S20;01MR030K14;11
S20;01PI030K18;4
S20;01PI150K18;16
S20;01RL500K20;13
S20;01RV500K20;10
S20;01SA050KV20;8
S20;01SA100LT20;9
S20;01SA100LV20;14
S20;01SA100VE20;4
S20;01SA250LT20;16
S20;01SA250LV20;5
S20;01SA250VE20;17
S20;01SA300KRO22;4
S20;01SA500KRO22;8
S20;01SB020K21;4
S20;01SE125K21;4
S20;01SL0045K13;17
S20;01SL300LV20;6
S20;01SL300VE20;13
S20;01SL500LV20;9
S20;01SL500VE20;10
S20;11BG140CS19;11
S20;11BG140SH19;6
S20;11BG140SI19;5
S10;01BK010K14;15
S10;01BL012K18;17
S10;01BM050K19;9
S10;01BM150K19;12
S10;01BP050K21;4
S10;01BV050K16;2
S10;01CD250K17;19
S10;01CF050K22;16
S10;01CL050K21;9
S10;01CL175K22;11
S10;01CM300K20;11
S10;01CM500K20;12
S10;01CMJ075K21;17
S10;01CMR500K20;24
S10;01CP200K22;13
S10;01CPR200K22;10
S10;01CV050K22;4
S10;01EC200K22;16
S10;01EM075K20;4
S10;01HD250K17;6
S10;01HD500K20;6
S10;01HDR500K20;9
S10;01HF100K17;5
S10;01HN0075K19;12
S10;01HV030K16;12
S10;01LC250K17;11
S10;01LT300K20;17
S10;01MA030K22;16
S10;01MA075K22;16
S10;01MA150K22;15
S10;01MR030K14;14
S10;01PI030K18;2
S10;01PI075K18;1
S10;01PI150K18;13
S10;01RL500K20;13
S10;01RV500K20;9
S10;01SA050KL20;6
S10;01SA050KV20;8
S10;01SA100LT20;14
S10;01SA100LV20;14
S10;01SA100VE20;17
S10;01SA250LT20;14
S10;01SA250LV20;13
S10;01SA250VE20;11
S10;01SA300KRO22;4
S10;01SA500KRO22;10
S10;01SB020K21;8
S10;01SE125K21;8
S10;01SL0045K13;31
S10;01SL300LV20;9
S10;01SL300VE20;7
S10;01SL500LV20;6
S10;01SL500VE20;10
S10;11BC100G21;20
S29000;01BK010K14;20
S29000;01BL012K18;23
S29000;01BM050K19;12
S29000;01BM150K19;34
S29000;01BP050K21;13
S29000;01BV050K16;1
S29000;01CD250K17;19
S29000;01CF050K22;15
S29000;01CL050K21;11
S29000;01CL175K22;15
S29000;01CM300K20;16
S29000;01CM500K20;20
S29000;01CMJ075K21;27
S29000;01CMR500K20;30
S29000;01CP200K22;35
S29000;01CPR200K22;24
S29000;01CV050K22;12
S29000;01EC200K22;17
S29000;01EM075K20;14
S29000;01HD250K17;7
S29000;01HD500K20;20
S29000;01HDR500K20;40
S29000;01HF100K17;15
S29000;01HN0075K19;12
S29000;01HV030K16;4
S29000;01LC250K17;22
S29000;01LT300K20;22
S29000;01MA030K22;31
S29000;01MA075K22;20
S29000;01MA150K22;44
S29000;01MR030K14;9
S29000;01PI030K18;10
S29000;01PI150K18;28
S29000;01RL500K20;10
S29000;01RV500K20;33
S29000;01SA050KV20;6
S29000;01SA100LT20;24
S29000;01SA100LV20;23
S29000;01SA100VE20;23
S29000;01SA250LT20;25
S29000;01SA250LV20;27
S29000;01SA250VE20;31
S29000;01SA300KRO22;17
S29000;01SA500KRO22;9
S29000;01SB020K21;5
S29000;01SE125K21;14
S29000;01SL0045K13;23
S29000;01SL300LV20;5
S29000;01SL300VE20;7
S29000;01SL500LV20;22
S29000;01SL500VE20;19
S29000;11BG140CS19;13
S29000;11BG140SH19;10
S28000;10EST500V21;64
S28000;10P250V21;31
S28000;10P500V21;61
S28000;11AS90005G21;1
S28000;11BC100G21;21
S28000;11BG140CS19;17
S28000;11BG140SH19;11
S28000;11BG140SI19;3
S28000;11BG140SL19;7
S28000;11BH050A18;2
S28000;11BO100CS19;22
S28000;11BP100I19;1
S28000;11BR100A20;4
S28000;11CD050A18;11
S28000;11CF100TR19;10
S28000;11CM030H19;14
S28000;11CM030H20;21
S28000;11CM030O21;9
S28000;11CM125I19;12
S28000;11EDT050HF22;1
S28000;11EH150A18;4
S28000;11EP010H19;3
S28000;11ET010H20;10
S28000;11ET050H20;4
S28000;11ET075O21;4
S28000;11FAG10TR19;13
S28000;11GD050A18;11
S28000;11GD250H19;9
S28000;11GD250H20;18
S28000;11GD250O21;9
S28000;11GE075I20;4
S28000;11GN195A18;10
S28000;11HE005CS19;5
S28000;11LB250HF22;18
S28000;11LC250H19;2
S28000;11LC250H20;12
S28000;11LC250O21;11
S28000;11LD200I19;12
S28000;11LH200I19;12
S28000;11LT300I20;5
S28000;11MA030A20;10
S28000;11MA030HF22;8
S28000;11MH075A19;4
S28000;11MWC200I19;4
S28000;11PEP050I20;4
S28000;11PM100SH19;3
S28000;11PM100SI19;4
S28000;11PM100SL19;3
S28000;11SA050O21;5
S28000;11SA100H19;14
S28000;11SA100H20;16
S28000;11SD100CS19;11
S28000;11SD100SH19;12
S90000;01SA250VE20;7
S90000;01SA300KRO22;12
S90000;01SA500KRO22;13
S90000;01SB020K21;10
S90000;01SE125K21;6
S90000;01SL0045K13;9
S90000;01SL300LV20;10
S90000;01SL300VE20;9
S90000;01SL500LV20;14
S90000;01SL500VE20;14
S90000;10BOWEB219;500
S90000;10BOWEB319;700
S90000;10BOWEB419;300
S90000;11BC100G21;7
S90000;11BG140CS19;13
S90000;11BG140SH19;9
S90000;11BG140SI19;12
S90000;11BG140SL19;12
S90000;11BH050A18;9
S90000;11BO100CS19;14
S90000;11BP100I19;8
S90000;11BR100A20;8
S90000;11CD050A18;5
S90000;11CF100TR19;10
S90000;11CM030H19;9
S90000;11CM030H20;10
S90000;11CM030O21;1
S90000;11CM125I19;9
S90000;11EDT050HF22;1
S90000;11EH150A18;8
S90000;11EP010H19;6
S90000;11EP050H19;5
S90000;11ET010H20;10
S90000;11ET050H20;8
S90000;11ET075O21;7
S90000;11FAG10TR19;7
S90000;11GD050A18;8
S90000;11GD250H19;12
S90000;11GD250H20;12
S90000;11GD250HF22;1
S90000;11GD250O21;7
S90000;11GE075I20;5
S90000;11GM200I19;1
S90000;11GN040A19;88
S90000;11GN195A18;3
S90000;11HE005CS19;12
S90000;11LB250HF22;8
S90000;11LC250H19;11
S90000;11LC250H20;12
S90000;11LC250O21;7
S90000;11LD200I19;9
S90000;11LH200I19;10
S90000;11LT300I20;10
S30000;11BG140SL19;5
S30000;11BH050A18;10
S30000;11BO100CS19;15
S30000;11BP100I19;3
S30000;11BR100A20;7
S30000;11CD050A18;8
S30000;11CF100TR19;5
S30000;11CM030H20;10
S30000;11CM030O21;15
S30000;11CM125I19;6
S30000;11EH150A18;5
S30000;11EP010H19;5
S30000;11ET010H20;10
S30000;11ET050H20;5
S30000;11ET075O21;9
S30000;11FAG10TR19;18
S30000;11GD050A18;7
S30000;11GD250H19;13
S30000;11GD250H20;10
S30000;11GD250O21;10
S30000;11GE075I20;5
S30000;11GN195A18;4
S30000;11HE005CS19;8
S30000;11LB250HF22;10
S30000;11LC250H19;11
S30000;11LC250H20;8
S30000;11LC250O21;9
S30000;11LD200I19;5
S30000;11LH200I19;6
S30000;11LT300I20;5
S30000;11MA030A20;1
S30000;11MA030HF22;9
S30000;11MH075A19;3
S30000;11MWC200I19;7
S30000;11PEP050I20;5
S30000;11PM100SH19;10
S30000;11SA050O21;15
S30000;11SA100H19;5
S30000;11SA100H20;12
S30000;11SD100CS19;10
S30000;11SD100SH19;7
S30000;11SD100SI19;11
S30000;11SD100SL19;7
S30000;11SP200CS19;7
S30000;11SP200SH19;8
S30000;11SP200SI19;4
S30000;11SP200SL19;8
S30000;11SV080I19;3
S30000;15AS250VA18;3
S30000;15BA500L16A;13
S30000;15ET010VB19;10
S30000;15ET100VA20;3
S27000;11BG140SH19;4
S27000;11BG140SI19;4
S27000;11BG140SL19;6
S27000;11BH050A18;4
S27000;11BO100CS19;14
S27000;11BP100I19;4
S27000;11BR100A20;7
S27000;11CD050A18;5
S27000;11CF100TR19;6
S27000;11CM030H19;11
S27000;11CM030H20;14
S27000;11CM030O21;11
S27000;11CM125I19;12
S27000;11EH150A18;1
S27000;11EP010H19;7
S27000;11ET010H20;6
S27000;11ET050H20;4
S27000;11ET075O21;3
S27000;11FAG10TR19;3
S27000;11GD050A18;5
S27000;11GD250H19;11
S27000;11GD250H20;14
S27000;11GD250O21;10
S27000;11GE075I20;4
S27000;11GN195A18;12
S27000;11HE005CS19;6
S27000;11LB250HF22;1
S27000;11LC250H19;8
S27000;11LC250H20;7
S27000;11LC250O21;12
S27000;11LD200I19;4
S27000;11LH200I19;2
S27000;11LT300I20;3
S27000;11MA030A20;4
S27000;11MH075A19;4
S27000;11MWC200I19;3
S27000;11PEP050I20;6
S27000;11PM100SH19;4
S27000;11PM100SI19;4
S27000;11PM100SL19;4
S27000;11SA050O21;10
S27000;11SA100H19;7
S27000;11SA100H20;9
S27000;11SD100CS19;8
S27000;11SD100SH19;10
S27000;11SD100SI19;5
S27000;11SD100SL19;4
S27000;11SP200CS19;11
S27000;11SP200SH19;4
S27000;11SP200SI19;4
S27000;11SP200SL19;8
S27000;11SV080I19;5
S27000;15AS250VA18;10
S21000;11BG140SH19;4
S21000;11BG140SI19;4
S21000;11BG140SL19;9
S21000;11BH050A18;4
S21000;11BO100CS19;12
S21000;11BP100I19;4
S21000;11BR100A20;6
S21000;11CD050A18;6
S21000;11CF100TR19;10
S21000;11CM030H19;12
S21000;11CM030H20;12
S21000;11CM030O21;10
S21000;11CM125I19;9
S21000;11EDT050HF22;1
S21000;11EH150A18;4
S21000;11EP010H19;11
S21000;11ET010H20;12
S21000;11ET050H20;9
S21000;11ET075O21;11
S21000;11FAG10TR19;10
S21000;11GD050A18;11
S21000;11GD250H19;13
S21000;11GD250H20;8
S21000;11GD250O21;9
S21000;11GE075I20;4
S21000;11GN195A18;6
S21000;11LB250HF22;12
S21000;11LC250H19;4
S21000;11LC250H20;4
S21000;11LC250O21;6
S21000;11LD200I19;9
S21000;11LH200I19;8
S21000;11LT300I20;4
S21000;11MA030A20;3
S21000;11MA030HF22;34
S21000;11MH075A19;4
S21000;11MWC200I19;4
S21000;11PEP050I20;4
S21000;11PM100SH19;5
S21000;11PM100SI19;4
S21000;11PM100SL19;4
S21000;11SA050O21;9
S21000;11SA100H19;11
S21000;11SA100H20;12
S21000;11SD100CS19;12
S21000;11SD100SH19;2
S21000;11SD100SI19;7
S21000;11SD100SL19;8
S21000;11SP200CS19;9
S21000;11SP200SH19;3
S21000;11SP200SI19;2
S21000;11SP200SL19;4
S20;11BG140SL19;6
S20;11BH050A18;4
S20;11BO100CS19;15
S20;11BP100I19;5
S20;11BR100A20;6
S20;11CD050A18;3
S20;11CF100TR19;15
S20;11CM030H19;15
S20;11CM030H20;10
S20;11CM030O21;13
S20;11CM125I19;2
S20;11EH150A18;4
S20;11EP010H19;2
S20;11ET010H20;7
S20;11ET050H20;4
S20;11ET075O21;6
S20;11FAG10TR19;9
S20;11GD050A18;5
S20;11GD250H19;13
S20;11GD250H20;12
S20;11GD250O21;14
S20;11GE075I20;8
S20;11GM200I19;7
S20;11GN195A18;9
S20;11HE005CS19;5
S20;11LB250HF22;4
S20;11LC250H19;3
S20;11LC250H20;10
S20;11LC250O21;12
S20;11LD200I19;4
S20;11LH200I19;11
S20;11LT300I20;5
S20;11MA030A20;2
S20;11MA030HF22;13
S20;11MH075A19;3
S20;11MWC200I19;4
S20;11PEP050I20;5
S20;11PM100SH19;10
S20;11PM100SI19;5
S20;11PM100SL19;8
S20;11SA050O21;6
S20;11SA100H19;6
S20;11SA100H20;10
S20;11SD100CS19;10
S20;11SD100SH19;7
S20;11SD100SI19;13
S20;11SD100SL19;9
S20;11SP200CS19;11
S20;11SP200SH19;4
S20;11SP200SI19;10
S20;11SP200SL19;11
S20;11SV080I19;4
S20;15AS250VA18;5
S20;15BA500L16A;17
S90000;11MA030A20;8
S90000;11MA030HF22;28
S90000;11MH075A19;11
S90000;11MWC200I19;5
S90000;11PEP050I20;8
S90000;11PM100DE20H;2
S90000;11PM100SH19;8
S90000;11PM100SI19;9
S90000;11PM100SL19;7
S90000;11SA050O21;9
S90000;11SA100H19;11
S90000;11SA100H20;10
S90000;11SD100CS19;8
S90000;11SD100SH19;9
S90000;11SD100SI19;12
S90000;11SD100SL19;8
S90000;11SP200CS19;2
S90000;11SP200SH19;8
S90000;11SP200SI19;10
S90000;11SP200SL19;8
S90000;11SV080I19;5
S90000;15AS150VCL21;53
S90000;15AS250VA18;5
S90000;15BA500L16A;15
S90000;15CF150VBL21;11
S90000;15DF200VBL21;24
S90000;15DO050VA5;1
S90000;15ET100VA20;8
S90000;15ET100VB3;6
S90000;15ET100VCL21;49
S90000;15GC150VBL20;2
S90000;15GD070VB21;100
S90000;15GD075L15;11
S90000;15GD250L21;11
S90000;15GD250VA20;8
S90000;15GD250VB21;3
S90000;15GD500VB21;10
S90000;15GG150VAL21;276
S90000;15GM065L21;15
S90000;15GM065VB21;15
S90000;15GM280VB21;8
S90000;15GN300L11;4
S90000;15HE005L14;9
S90000;15LC070VB5;69
S90000;15LC075L15;20
S90000;15LC250L14;6
S90000;15LC250VA20;12
S90000;15LC250VB3;4
S90000;15LM300L11;8
S90000;15MA030L11;1
S90000;15MA030VA5;14
S90000;15MA030VAL21;67
S29000;11BG140SI19;6
S29000;11BG140SL19;11
S29000;11BH050A18;7
S29000;11BO100CS19;21
S29000;11BP100I19;2
S29000;11BR100A20;6
S29000;11CD050A18;15
S29000;11CF100TR19;16
S29000;11CM030H19;12
S29000;11CM030H20;16
S29000;11CM030O21;4
S29000;11CM125I19;3
S29000;11EDT050HF22;3
S29000;11EH150A18;4
S29000;11EP010H19;3
S29000;11ET010H20;2
S29000;11ET050H20;4
S29000;11ET075O21;6
S29000;11FAG10TR19;12
S29000;11GD050A18;11
S29000;11GD075O21;94
S29000;11GD250H19;16
S29000;11GD250H20;17
S29000;11GD250O21;20
S29000;11GE075I20;3
S29000;11GM200I19;17
S29000;11GN195A18;18
S29000;11HE005CS19;10
S29000;11LB250HF22;10
S29000;11LC250H19;9
S29000;11LC250H20;11
S29000;11LC250O21;10
S29000;11LD200I19;16
S29000;11LH200I19;16
S29000;11LT300I20;8
S29000;11MA030A20;2
S29000;11MA030HF22;14
S29000;11MH075A19;8
S29000;11MWC200I19;3
S29000;11PEP050I20;3
S29000;11PM100SH19;7
S29000;11PM100SI19;10
S29000;11PM100SL19;10
S29000;11SA050O21;11
S29000;11SA100H19;8
S29000;11SA100H20;19
S29000;11SD100CS19;21
S29000;11SD100SH19;13
S29000;11SD100SI19;15
S29000;11SD100SL19;8
S29000;11SP200CS19;14
S29000;11SP200SH19;17
S29000;11SP200SI19;7
S10;11BG140CS19;3
S10;11BG140SH19;7
S10;11BG140SI19;4
S10;11BG140SL19;8
S10;11BH050A18;12
S10;11BO100CS19;17
S10;11BP100I19;4
S10;11BR100A20;9
S10;11CD050A18;12
S10;11CF100TR19;11
S10;11CM030H19;15
S10;11CM030H20;17
S10;11CM030O21;16
S10;11CM125I19;5
S10;11EH150A18;6
S10;11EP010H19;5
S10;11ET010H20;5
S10;11ET050H20;5
S10;11ET075O21;5
S10;11FAG10TR19;9
S10;11GD050A18;13
S10;11GD250H19;18
S10;11GD250H20;18
S10;11GD250O21;21
S10;11GE075I20;6
S10;11GM200I19;1
S10;11GN195A18;12
S10;11HE005CS19;5
S10;11LB250HF22;1
S10;11LC250H19;17
S10;11LC250H20;13
S10;11LC250O21;14
S10;11LD200I19;13
S10;11LH200I19;11
S10;11LT300I20;7
S10;11MA030A20;6
S10;11MA030HF22;8
S10;11MH075A19;2
S10;11MWC200I19;4
S10;11PEP050I20;8
S10;11PM100SH19;4
S10;11PM100SI19;4
S10;11PM100SL19;1
S10;11SA050O21;8
S10;11SA100H19;12
S10;11SA100H20;13
S10;11SD100CS19;4
S10;11SD100SH19;7
S10;11SD100SI19;5
S10;11SD100SL19;5
S10;11SP200CS19;11
S10;11SP200SH19;13
S10;11SP200SI19;3
S10;11SP200SL19;5
S28000;11SD100SI19;4
S28000;11SD100SL19;3
S28000;11SH90005G21;1
S28000;11SP200CS19;11
S28000;11SP200SH19;3
S28000;11SP200SI19;3
S28000;11SP200SL19;11
S28000;11SV080I19;3
S28000;15AS250VA18;4
S28000;15BA500L16A;18
S28000;15ET010VB19;4
S28000;15ET100VA20;3
S28000;15ET100VB20;6
S28000;15ET100VBM22;13
S28000;15GD070VB21;80
S28000;15GD250L14;1
S28000;15GD250L21;14
S28000;15GD250VA20;13
S28000;15GD250VB21;13
S28000;15GD250VBL22;16
S28000;15GD250VBM22;36
S28000;15GD500VB21;16
S28000;15GD9000V21;1
S28000;15GM065L21;9
S28000;15GM065VB21;18
S28000;15GM280VB21;8
S28000;15GN300L11;8
S28000;15GS150VBL22;11
S28000;15HE005L14;13
S28000;15LC250L14;11
S28000;15LC250VA20;12
S28000;15LC250VB3;16
S28000;15LC250VBM22;19
S28000;15LM300L11;4
S28000;15MA030L11;26
S28000;15MA030VA5;3
S28000;15MA030VB3;9
S28000;15MA030VBL22;15
S28000;15MA030VBM8;36
S28000;15MA075L20;12
S28000;15MA075VB4;13
S28000;15RC500VB21;39
S28000;15RG500L14;17
S28000;15RG500VA20;14
S28000;15RO010VBM22;17
S28000;15SA070VB6;4
S28000;15SE400VB5;12
S28000;15SH250VA20;9
S28000;17AF100G20;21
S28000;17AS250E19;3
S28000;17AS250FV21;4
S28000;17AS250G21;11
S30000;15ET100VB20;3
S30000;15ET100VBM22;8
S30000;15GD070VB21;60
S30000;15GD250L14;10
S30000;15GD250VA20;6
S30000;15GD250VB21;10
S30000;15GD250VBL22;8
S30000;15GD250VBM22;19
S30000;15GD500VB21;5
S30000;15GM065L21;14
S30000;15GM065VB21;13
S30000;15GM280VB21;3
S30000;15GN300L11;10
S30000;15GS150VBL22;6
S30000;15HE005L14;10
S30000;15LC250L14;9
S30000;15LC250VA20;12
S30000;15LC250VB3;7
S30000;15LC250VBM22;12
S30000;15LM300L11;8
S30000;15MA030L11;24
S30000;15MA030VA5;14
S30000;15MA030VB3;16
S30000;15MA030VBL22;9
S30000;15MA030VBM8;20
S30000;15MA075L20;11
S30000;15MA075VB4;4
S30000;15RC500VB21;6
S30000;15RG500L14;22
S30000;15RG500VA20;10
S30000;15RO010VBM22;11
S30000;15SA070VB6;3
S30000;15SE400VB5;9
S30000;15SH250VA20;6
S30000;17AF100G20;8
S30000;17AS250E19;6
S30000;17AS250FV21;2
S30000;17AS250G21;3
S30000;17AS250P19;5
S30000;17AS500E19;5
S30000;17AS500FV21;8
S30000;17AS500G21;8
S30000;17AS500P19;4
S30000;17DO050F13;10
S30000;17ER075P19;6
S30000;17HI001G19;143
S30000;17HI100G19;6
S30000;17MC200G21;13
S30000;17RC500E20;8
S30000;17RC500G21;12
S30000;17RC500P19;12
S30000;17RS500E20;28
S30000;17RS500FV21;13
S21000;11SV080I19;4
S21000;15AS250VA18;7
S21000;15BA500L16A;9
S21000;15ET010VB19;4
S21000;15ET100VA20;7
S21000;15ET100VB20;3
S21000;15ET100VBM22;7
S21000;15GD070VB21;60
S21000;15GD250L21;12
S21000;15GD250VA20;9
S21000;15GD250VB21;6
S21000;15GD250VBL22;9
S21000;15GD250VBM22;18
S21000;15GD500VB21;11
S21000;15GM065L21;13
S21000;15GM065VB21;12
S21000;15GM280VB21;11
S21000;15GN300L11;11
S21000;15GS150VBL22;6
S21000;15HE005L14;3
S21000;15LC250L14;8
S21000;15LC250VA20;9
S21000;15LC250VB3;5
S21000;15LC250VBM22;11
S21000;15LM300L11;8
S21000;15MA030L11;10
S21000;15MA030VA5;12
S21000;15MA030VB3;16
S21000;15MA030VBL22;10
S21000;15MA030VBM8;22
S21000;15MA075L20;10
S21000;15MA075VB4;9
S21000;15RC500VB21;17
S21000;15RG500L14;9
S21000;15RG500VA20;15
S21000;15RO010VBM22;12
S21000;15SA070VB6;1
S21000;15SE400VB5;2
S21000;15SH250VA20;11
S21000;17AF100G20;19
S21000;17AS250E19;5
S21000;17AS250FV21;4
S21000;17AS250G21;4
S21000;17AS250P19;6
S21000;17AS500E19;6
S21000;17AS500FV21;9
S21000;17AS500G21;11
S21000;17AS500P19;7
S21000;17DO050F13;13
S21000;17ER075P19;9
S21000;17HI001G19;138
S21000;17HI100G19;19
S90000;15MA030VB3;10
S90000;15MA075L20;11
S90000;15MA075VB4;9
S90000;15MF075VM20H;53
S90000;15RC500VB21;24
S90000;15RG500VA20;8
S90000;15SE400VB5;8
S90000;17AF100G20;9
S90000;17AS075E19;214
S90000;17AS075FV21;83
S90000;17AS075G21;10
S90000;17AS075P19;90
S90000;17AS250E19;9
S90000;17AS250FV21;11
S90000;17AS250G18;47
S90000;17AS250G21;9
S90000;17AS250P19;12
S90000;17AS500E19;11
S90000;17AS500FV21;11
S90000;17AS500G21;6
S90000;17AS500P19;14
S90000;17CS150P19;1
S90000;17DO050F13;9
S90000;17ER075P19;10
S90000;17HI001G19;100
S90000;17HI100G19;10
S90000;17MC200G21;8
S90000;17RC500E20;11
S90000;17RC500G21;8
S90000;17RC500P19;17
S90000;17RS500E20;2
S90000;17RS500FV21;12
S90000;17RS500G21;4
S90000;17RS500P19;3
S90000;17SE100FV21;6
S90000;17SE125D15;1
S90000;17SH060SE21;7
S90000;17SH060SG21;5
S90000;17SH060SP21;9
S90000;17SH075E19;75
S90000;17SH075FV21;7
S90000;17SH075G21;5
S90000;17SH075P19;11
S90000;17SH300E19;10
S90000;17SH300FV21;12
S90000;17SH300G18;1
S90000;17SH300G21;10
S90000;17SH300P19;6
S90000;17SH500E19;6
S90000;17SH500FV21;6
S90000;17SH500G21;5
S90000;17SH500P19;3
S90000;17VI100P19;10
S27000;15BA500L16A;7
S27000;15ET010VB19;4
S27000;15ET100VA20;2
S27000;15ET100VB20;4
S27000;15GD250L14;3
S27000;15GD250L21;16
S27000;15GD250VA20;4
S27000;15GD250VB21;11
S27000;15GD500VB21;12
S27000;15GM065L21;13
S27000;15GM065VB21;11
S27000;15GM280VB21;6
S27000;15GN300L11;9
S27000;15HE005L14;4
S27000;15LC250L14;11
S27000;15LC250VA20;3
S27000;15LC250VB3;16
S27000;15LM300L11;5
S27000;15MA030L11;20
S27000;15MA030VA5;5
S27000;15MA030VB3;8
S27000;15MA075L20;12
S27000;15MA075VB4;12
S27000;15RC500VB21;10
S27000;15RG500L14;9
S27000;15RG500VA20;8
S27000;15SA070VB6;4
S27000;15SE400VB5;4
S27000;15SH250VA20;4
S27000;17AF100G20;13
S27000;17AS250E19;10
S27000;17AS250FV21;5
S27000;17AS250G21;10
S27000;17AS250P19;6
S27000;17AS500E19;9
S27000;17AS500FV21;9
S27000;17AS500G21;17
S27000;17AS500P19;6
S27000;17DO050F13;9
S27000;17ER075P19;5
S27000;17HI001G19;43
S27000;17HI100G19;11
S27000;17MC200G21;8
S27000;17RC500E20;10
S27000;17RC500G21;24
S27000;17RC500P19;14
S27000;17RS500E20;20
S27000;17RS500FV21;12
S27000;17RS500G21;29
S27000;17RS500P19;22
S27000;17SE100FV21;8
S27000;17SH060SE21;6
S27000;17SH060SG21;6
S28000;17AS250P19;6
S28000;17AS500E19;10
S28000;17AS500FV21;12
S28000;17AS500G21;12
S28000;17AS500P19;8
S28000;17DO050F13;18
S28000;17ER075P19;13
S28000;17HI001G19;50
S28000;17HI100G19;13
S28000;17MC200G21;15
S28000;17RC500E20;12
S28000;17RC500G21;20
S28000;17RC500P19;3
S28000;17RS500E20;18
S28000;17RS500FV21;24
S28000;17RS500G21;31
S28000;17RS500P19;24
S28000;17SE100FV21;21
S28000;17SH060SE21;3
S28000;17SH060SG21;4
S28000;17SH060SP21;3
S28000;17SH075G21;49
S28000;17SH300E19;9
S28000;17SH300FV21;3
S28000;17SH300G21;10
S28000;17SH300P19;12
S28000;17SH500E19;19
S28000;17SH500FV21;19
S28000;17SH500G21;16
S28000;17SH500P19;16
S28000;17VI100P19;4
S28000;20AR075O20;12
S28000;20DO075CD20;12
S28000;20DO130HC20;3
S28000;20ET075CD20;4
S28000;20ET075HC20;3
S28000;20FE050H20;4
S28000;20GD250CD20;12
S28000;20GD250HC20;10
S28000;20GD250OC20;12
S28000;20GD500HC20;33
S28000;20HR050H20;4
S28000;20NV150H20;12
S28000;20SA050CD20;6
S28000;20SA050HC20;2
S28000;20SA050O20;4
S28000;24BL012CB5;9
S28000;24BL012R22;11
S28000;24BR050CB6;13
S28000;24BR050R22;15
S28000;24ET075CB21;10
S28000;24ET075R22;14
S28000;24GD250CB21;19
S20;15ET010VB19;3
S20;15ET100VA20;3
S20;15ET100VB20;4
S20;15ET100VBM22;8
S20;15GD070VB21;60
S20;15GD250L21;25
S20;15GD250VA20;10
S20;15GD250VB21;13
S20;15GD250VBL22;7
S20;15GD250VBM22;20
S20;15GD500VB21;13
S20;15GM065L21;8
S20;15GM065VB21;16
S20;15GM280VB21;11
S20;15GN300L11;16
S20;15GS150VBL22;6
S20;15HE005L14;12
S20;15LC250L14;9
S20;15LC250VA20;4
S20;15LC250VB3;13
S20;15LC250VBM22;12
S20;15LM300L11;15
S20;15MA030L11;15
S20;15MA030VA5;10
S20;15MA030VB3;9
S20;15MA030VBL22;11
S20;15MA030VBM8;24
S20;15MA075L20;12
S20;15MA075VB4;5
S20;15RC500VB21;17
S20;15RG500L14;13
S20;15RG500VA20;14
S20;15RO010VBM22;12
S20;15SE400VB5;11
S20;15SH250VA20;15
S20;17AF100G20;18
S20;17AS250E19;6
S20;17AS250FV21;4
S20;17AS250G21;7
S20;17AS250P19;6
S20;17AS500E19;13
S20;17AS500FV21;15
S20;17AS500G21;14
S20;17AS500P19;6
S20;17CS150P19;4
S20;17DO050F13;11
S20;17ER075P19;5
S20;17HI001G19;82
S20;17HI100G19;15
S20;17MC200G21;15
S20;17RC500E20;8
S20;17RC500G21;17
S20;17RC500P19;9
S20;17RS500E20;27
S30000;17RS500G21;31
S30000;17RS500P19;23
S30000;17SE100FV21;10
S30000;17SH060SE21;6
S30000;17SH060SG21;8
S30000;17SH060SP21;4
S30000;17SH075G21;33
S30000;17SH300E19;12
S30000;17SH300FV21;6
S30000;17SH300G21;10
S30000;17SH300P19;5
S30000;17SH500E19;4
S30000;17SH500FV21;9
S30000;17SH500G21;10
S30000;17SH500P19;7
S30000;17VI100P19;6
S30000;20AR075O20;7
S30000;20DO050O20;9
S30000;20DO075CD20;7
S30000;20ET075CD20;6
S30000;20ET075HC20;5
S30000;20ET075OC20;4
S30000;20FE050H20;5
S30000;20GD250CD20;9
S30000;20GD250HC20;10
S30000;20GD250OC20;5
S30000;20GD500HC20;9
S30000;20HR050H20;5
S30000;20NV150H20;7
S30000;20SA050CD20;3
S30000;20SA050HC20;2
S30000;24BL012CB5;9
S30000;24BL012R22;11
S30000;24BR050CB6;13
S30000;24BR050R22;11
S30000;24ET075CB21;10
S30000;24ET075R22;7
S30000;24GD250CB21;9
S30000;24GD250R22;13
S30000;24GD500R22;8
S30000;24LC250CB4;12
S30000;24LC250R22;10
S30000;24MA030CB4;28
S30000;24MA030P15;10
S30000;24MA030R22;13
S30000;24MA030RA19;2
S30000;24MA030RV19;9
S30000;24MA030S6;15
S30000;24MA075CB4;4
S30000;24MA075P15;9
S30000;24MA075R22;13
S30000;24RG500C20;5
S30000;24RG500R22;17
S29000;11SP200SL19;16
S29000;11SV080I19;10
S29000;15AS250VA18;8
S29000;15BA500L16A;23
S29000;15ET010VB19;2
S29000;15ET100VA20;4
S29000;15ET100VB20;7
S29000;15ET100VBM22;9
S29000;15GD070VB21;238
S29000;15GD250L14;1
S29000;15GD250VA20;9
S29000;15GD250VB21;16
S29000;15GD250VBL22;10
S29000;15GD250VBM22;35
S29000;15GD500VB21;28
S29000;15GM065L21;22
S29000;15GM065VB21;26
S29000;15GM280VB21;8
S29000;15GN300L11;22
S29000;15GS150VBL22;6
S29000;15HE005L14;3
S29000;15LC250L14;22
S29000;15LC250VA20;18
S29000;15LC250VB3;20
S29000;15LC250VBM22;16
S29000;15LM300L11;15
S29000;15MA030L11;25
S29000;15MA030VA5;7
S29000;15MA030VB3;21
S29000;15MA030VBL22;12
S29000;15MA030VBM8;35
S29000;15MA075L20;24
S29000;15MA075VB4;17
S29000;15RC500VB21;57
S29000;15RG500L14;26
S29000;15RG500VA20;30
S29000;15RO010VBM22;18
S29000;15SA070VB6;10
S29000;15SE400VB5;7
S29000;15SH250VA20;12
S29000;17AF100G20;31
S29000;17AS250E19;8
S29000;17AS250FV21;8
S29000;17AS250G21;7
S29000;17AS250P19;6
S29000;17AS500E19;27
S29000;17AS500FV21;21
S29000;17AS500G21;23
S29000;17AS500P19;13
S29000;17DO050F13;15
S29000;17ER075P19;24
S29000;17HI001G19;26
S10;11SV080I19;6
S10;15AS250VA18;9
S10;15BA500L16A;11
S10;15ET010VB19;3
S10;15ET100VA20;3
S10;15ET100VB20;2
S10;15ET100VBM22;7
S10;15GD070VB21;60
S10;15GD250L14;4
S10;15GD250VA20;15
S10;15GD250VB21;12
S10;15GD250VBL22;8
S10;15GD250VBM22;20
S10;15GD500VB21;15
S10;15GM065L21;7
S10;15GM065VB21;15
S10;15GM280VB21;5
S10;15GN300L11;8
S10;15GS150VBL22;5
S10;15HE005L14;4
S10;15LC250L14;13
S10;15LC250VA20;14
S10;15LC250VB3;9
S10;15LC250VBM22;12
S10;15LM300L11;14
S10;15MA030L11;15
S10;15MA030VA5;7
S10;15MA030VB3;7
S10;15MA030VBL22;9
S10;15MA030VBM8;19
S10;15MA075L20;7
S10;15MA075VB4;13
S10;15RC500VB21;15
S10;15RG500L14;10
S10;15RG500VA20;14
S10;15RO010VBM22;11
S10;15SA070VB6;6
S10;15SE400VB5;3
S10;15SH250VA20;11
S10;17AF100G20;12
S10;17AS250E19;5
S10;17AS250FV21;6
S10;17AS250G21;5
S10;17AS250P19;6
S10;17AS500E19;12
S10;17AS500FV21;7
S10;17AS500G21;11
S10;17AS500P19;8
S10;17DO050F13;16
S10;17ER075P19;6
S10;17HI001G19;206
S10;17HI100G19;10
S10;17MC200G21;12
S10;17RC500E20;14
S90000;20AR075O20;10
S90000;20DO050O20;11
S90000;20DO075CD20;9
S90000;20DO130HC20;4
S90000;20ET075CD20;10
S90000;20ET075HC20;2
S90000;20ET075OC20;9
S90000;20FE050H20;14
S90000;20GD250CD20;11
S90000;20GD250HC20;6
S90000;20GD250OC20;11
S90000;20GD500HC20;10
S90000;20HR050H20;8
S90000;20NV150H20;6
S90000;20SA050CD20;10
S90000;20SA050HC20;11
S90000;20SA050O20;6
S90000;24BL012CB5;9
S90000;24BL012R22;1
S90000;24BR050C21;44
S90000;24BR050CB6;9
S90000;24BR050R19;1
S90000;24BR050R22;10
S90000;24EDT10C21;65
S90000;24EF050R18;1
S90000;24ET050R18;1
S90000;24ET075CB21;6
S90000;24ET075R22;5
S90000;24GD075CB5;32
S90000;24GD250CB21;9
S90000;24GD250R22;13
S90000;24GD500R19;4
S90000;24GD500R22;13
S90000;24GM030C21;58
S90000;24LC075R22;145
S90000;24LC250C21;30
S90000;24LC250CB4;10
S90000;24LC250CBL22;3
S90000;24LC250R22;8
S90000;24MA030CB4;8
S90000;24MA030CBL22;3
S90000;24MA030P15;8
S90000;24MA030R22;12
S90000;24MA030RA19;9
S90000;24MA030RE19;10
S90000;24MA030RV19;8
S90000;24MA030S6;5
S90000;24MA075CB4;8
S90000;24MA075P15;7
S90000;24MA075R18;11
S90000;24MA075R22;19
S90000;24MA150R22;12
S90000;24RG500C20;13
S21000;17MC200G21;13
S21000;17RC500E20;20
S21000;17RC500G21;17
S21000;17RC500P19;3
S21000;17RS500E20;19
S21000;17RS500FV21;13
S21000;17RS500G21;17
S21000;17RS500P19;18
S21000;17SE100FV21;15
S21000;17SH060SE21;5
S21000;17SH060SG21;5
S21000;17SH060SP21;4
S21000;17SH075G21;53
S21000;17SH300E19;11
S21000;17SH300FV21;5
S21000;17SH300G21;5
S21000;17SH300P19;12
S21000;17SH500E19;11
S21000;17SH500FV21;13
S21000;17SH500G21;13
S21000;17SH500P19;9
S21000;17VI100P19;7
S21000;20AR075O20;5
S21000;20DO050O20;10
S21000;20DO075CD20;2
S21000;20DO130HC20;4
S21000;20ET075CD20;4
S21000;20ET075HC20;4
S21000;20ET075OC20;3
S21000;20FE050H20;4
S21000;20GD250CD20;3
S21000;20GD250HC20;9
S21000;20GD250OC20;8
S21000;20GD500HC20;15
S21000;20HR050H20;4
S21000;20NV150H20;12
S21000;20SA050CD20;4
S21000;20SA050HC20;5
S21000;20SA050O20;4
S21000;24BL012CB5;13
S21000;24BL012R22;9
S21000;24BR050CB6;8
S21000;24BR050R22;12
S21000;24ET075CB21;9
S21000;24ET075R22;7
S21000;24GD250CB21;15
S21000;24GD250R22;10
S21000;24GD500R22;6
S21000;24LC250CB4;11
S21000;24LC250R22;5
S21000;24MA030CB4;11
S21000;24MA030P15;5
S21000;24MA030R22;10
S28000;24GD250R22;10
S28000;24GD500R22;17
S28000;24GP010RJ21H;1
S28000;24LC250CB4;16
S28000;24LC250R22;13
S28000;24MA030CB4;29
S28000;24MA030P15;14
S28000;24MA030R22;17
S28000;24MA030RA19;12
S28000;24MA030RV19;3
S28000;24MA030S6;13
S28000;24MA075CB4;13
S28000;24MA075P15;4
S28000;24MA075R22;17
S28000;24MA150R22;14
S28000;24RG500C20;36
S28000;24RG500R22;29
S28000;24RO010CB4;13
S28000;24SA050CB21;15
S28000;24SA050R22;22
S28000;27BP050I19;18
S28000;27BY015I19;12
S28000;27CP050I19;15
S28000;27DB015I20;14
S28000;27DC030I20;16
S28000;27DC050I20;13
S28000;27DCB060I17;4
S28000;27DE015I21;17
S28000;27DF125I17;16
S28000;27DH015I20;13
S28000;27DH030I20;14
S28000;27DL200I21;19
S28000;27DS030I20;10
S28000;27ER015I22;13
S28000;27ER050I21;20
S28000;27ER150I21;26
S28000;27EV200I19;12
S28000;27HC050I18;3
S28000;27HCR050I16;4
S28000;27HS030I18;4
S28000;27HSR030I16;4
S28000;27MI150I20;4
S28000;27MP050I20;33
S28000;27MP150I20;13
S28000;27MQ065I15A;4
S28000;27MS050I20;12
S28000;27OR030I21;33
S28000;27OR050I21;66
S28000;27RM300I20;16
S28000;27SP030I19;3
S28000;29ASH240A20;11
S28000;29BP100A19;11
S28000;29EC200A21;16
S27000;17SH060SP21;10
S27000;17SH075G21;3
S27000;17SH300E19;10
S27000;17SH300FV21;12
S27000;17SH300G21;12
S27000;17SH300P19;7
S27000;17SH500E19;6
S27000;17SH500FV21;12
S27000;17SH500G21;10
S27000;17SH500P19;7
S27000;17VI100P19;5
S27000;20AR075O20;6
S27000;20DO050O20;5
S27000;20DO075CD20;4
S27000;20DO130HC20;1
S27000;20ET075CD20;3
S27000;20ET075HC20;4
S27000;20FE050H20;4
S27000;20GD250CD20;4
S27000;20GD250HC20;10
S27000;20GD250OC20;9
S27000;20GD500HC20;10
S27000;20HR050H20;4
S27000;20NV150H20;12
S27000;20SA050CD20;7
S27000;20SA050HC20;4
S27000;20SA050O20;2
S27000;24BL012CB5;7
S27000;24BL012R22;10
S27000;24BR050CB6;7
S27000;24BR050R22;10
S27000;24ET075CB21;5
S27000;24ET075R22;8
S27000;24GD250CB21;12
S27000;24GD250R22;8
S27000;24GD500R22;9
S27000;24LC250CB4;10
S27000;24LC250R22;7
S27000;24MA030CB4;14
S27000;24MA030P15;9
S27000;24MA030R22;6
S27000;24MA030RA19;10
S27000;24MA030RV19;6
S27000;24MA030S6;8
S27000;24MA075CB4;10
S27000;24MA075P15;9
S27000;24MA075R22;5
S27000;24MA150R22;8
S27000;24RG500C20;14
S27000;24RG500R22;19
S27000;24RO010CB4;10
S27000;24SA050CB21;11
S27000;24SA050R22;8
S30000;24RO010CB4;7
S30000;24SA050CB21;10
S30000;24SA050R22;9
S30000;27BP050I19;6
S30000;27BY015I19;6
S30000;27CP050I19;8
S30000;27DB015I20;15
S30000;27DC030I20;9
S30000;27DC050I20;16
S30000;27DCB060I17;4
S30000;27DE015I21;13
S30000;27DF125I17;14
S30000;27DH015I20;16
S30000;27DH030I20;16
S30000;27DL200I21;8
S30000;27DS030I20;9
S30000;27ER015I22;14
S30000;27ER050I21;8
S30000;27ER150I21;17
S30000;27EV200I19;7
S30000;27FP050I19;4
S30000;27HC050I18;4
S30000;27HCR050I16;4
S30000;27HS030I18;2
S30000;27HSR030I16;4
S30000;27MI150I20;4
S30000;27MP050I20;36
S30000;27MP150I20;7
S30000;27MQ065I15A;6
S30000;27MS050I20;10
S30000;27OR030I21;18
S30000;27OR050I21;31
S30000;27RM300I20;10
S30000;27SP030I19;6
S30000;29ASH240A20;7
S30000;29BP100A19;5
S30000;29EC200A21;8
S30000;29GE200A21;9
S30000;29HD075A15;18
S30000;29HD250A15;13
S30000;29HD500A15;36
S30000;29HS100A21;9
S30000;29HS100A22SM;15
S30000;29LC200A20US;16
S30000;29MA030A17;1
S30000;29MA075A21;21
S30000;29RC200A20;26
S30000;29RH500A15;29
S30000;29SA050A21;9
S30000;29SE125A21;3
S30000;29SH240A20;5
S30000;29VC240A22;10
S21000;38BV050A19;6
S90000;24RG500R22;8
S90000;24RO010CB4;8
S90000;24RO010R18;10
S90000;24SA050CB21;10
S90000;24SA050CB6;1
S90000;24SA050R18;2
S90000;24SA050R22;11
S90000;27BP050I19;11
S90000;27BY015I19;8
S90000;27CP050I19;8
S90000;27DB015I20;8
S90000;27DC050I20;7
S90000;27DCB060I17;7
S90000;27DE015I13US;1
S90000;27DE015I21;10
S90000;27DF125I17;8
S90000;27DH015I20;3
S90000;27DH030I20;9
S90000;27DL200I21;11
S90000;27DS030I20;9
S90000;27ER015I22;8
S90000;27ER050I21;10
S90000;27ER150I21;6
S90000;27EV200I19;4
S90000;27FP050I19;2
S90000;27HC050I18;4
S90000;27HCR050I16;4
S90000;27HS030I18;4
S90000;27HSR030I16;3
S90000;27MI150I20;14
S90000;27MP050I20;17
S90000;27MP150I20;14
S90000;27MQ065I15A;8
S90000;27MS050I20;11
S90000;27OR030I19;35
S90000;27OR030I21;8
S90000;27RM300I20;3
S90000;27SP030I19;8
S90000;27TS001I20;679
S90000;29ASH240A20;8
S90000;29BP100A19;9
S90000;29EC200A21;10
S90000;29GE200A21;10
S90000;29HD075A15;1
S90000;29HD250A15;7
S90000;29HD500A15;30
S90000;29HS100A21;8
S90000;29HS100A22SM;15
S90000;29LC200A20US;11
S90000;29LC200A21X;8
S90000;29MA030A17;4
S90000;29MA075A21;12
S90000;29MAV075A19;7
S20;17RS500FV21;14
S20;17RS500G21;22
S20;17RS500P19;22
S20;17SE100FV21;22
S20;17SH060SE21;6
S20;17SH060SG21;8
S20;17SH060SP21;8
S20;17SH075G21;47
S20;17SH300E19;6
S20;17SH300FV21;9
S20;17SH300G21;9
S20;17SH300P19;6
S20;17SH500E19;19
S20;17SH500FV21;16
S20;17SH500G21;16
S20;17SH500P19;15
S20;17VI100P19;4
S20;20AR075O20;9
S20;20DO050O20;8
S20;20DO075CD20;7
S20;20DO130HC20;7
S20;20ET075CD20;3
S20;20ET075HC20;4
S20;20ET075OC20;6
S20;20FE050H20;3
S20;20GD250CD20;11
S20;20GD250HC20;8
S20;20GD250OC20;14
S20;20GD500HC20;13
S20;20HR050H20;4
S20;20NV150H20;11
S20;20SA050CD20;4
S20;20SA050HC20;4
S20;20SA050O20;2
S20;24BL012CB5;10
S20;24BL012R22;8
S20;24BR050CB6;12
S20;24BR050R22;14
S20;24ET075CB21;12
S20;24ET075R22;7
S20;24GD250CB21;13
S20;24GD250R22;20
S20;24GD500R22;22
S20;24LC250CB4;14
S20;24LC250R22;12
S20;24MA030CB4;5
S20;24MA030P15;13
S20;24MA030R22;14
S20;24MA030RA19;5
S20;24MA030RE19;6
S20;24MA030RV19;7
S20;24MA030S6;4
S20;24MA075CB4;12
S20;24MA075P15;7
S20;24MA075R18;4
S29000;17HI100G19;21
S29000;17MC200G21;28
S29000;17RC500E20;40
S29000;17RC500G21;60
S29000;17RC500P19;17
S29000;17RS500E20;60
S29000;17RS500FV21;48
S29000;17RS500G21;70
S29000;17RS500P19;53
S29000;17SE100FV21;27
S29000;17SH060SE21;5
S29000;17SH060SG21;9
S29000;17SH060SP21;2
S29000;17SH075G21;3
S29000;17SH300E19;14
S29000;17SH300G21;10
S29000;17SH300P19;9
S29000;17SH500E19;30
S29000;17SH500FV21;35
S29000;17SH500G21;24
S29000;17SH500P19;25
S29000;17VI100P19;15
S29000;20AR075O20;18
S29000;20DO050O20;6
S29000;20DO075CD20;20
S29000;20DO130HC20;6
S29000;20ET075CD20;4
S29000;20ET075HC20;7
S29000;20ET075OC20;7
S29000;20FE050H20;4
S29000;20GD250CD20;27
S29000;20GD250HC20;24
S29000;20GD250OC20;32
S29000;20GD500HC20;11
S29000;20HR050H20;4
S29000;20NV150H20;28
S29000;20SA050CD20;10
S29000;20SA050HC20;8
S29000;20SA050O20;6
S29000;24BL012CB5;18
S29000;24BL012R22;13
S29000;24BR050CB6;22
S29000;24BR050R22;26
S29000;24ET075CB21;16
S29000;24ET075R22;14
S29000;24GD250CB21;25
S29000;24GD250R22;13
S29000;24GD500R22;33
S29000;24LC250CB4;21
S29000;24LC250R22;15
S29000;24MA030CB4;22
S29000;24MA030P15;11
S29000;24MA030R22;17
S10;17RC500G21;10
S10;17RC500P19;7
S10;17RS500E20;14
S10;17RS500FV21;17
S10;17RS500G21;10
S10;17RS500P19;18
S10;17SE100FV21;15
S10;17SH060SE21;6
S10;17SH060SG21;3
S10;17SH060SP21;8
S10;17SH075E19;15
S10;17SH075G21;56
S10;17SH300E19;3
S10;17SH300FV21;2
S10;17SH300G21;10
S10;17SH300P19;5
S10;17SH500E19;18
S10;17SH500FV21;12
S10;17SH500G21;12
S10;17SH500P19;18
S10;17VI100P19;6
S10;20AR075O20;4
S10;20DO050O20;5
S10;20DO075CD20;7
S10;20DO130HC20;5
S10;20ET075CD20;4
S10;20ET075HC20;5
S10;20ET075OC20;3
S10;20FE050H20;4
S10;20GD250CD20;12
S10;20GD250HC20;8
S10;20GD250OC20;12
S10;20GD500HC20;9
S10;20HR050H20;4
S10;20NV150H20;10
S10;20SA050CD20;1
S10;20SA050HC20;4
S10;24BL012CB5;12
S10;24BL012R22;7
S10;24BR050CB6;5
S10;24BR050R22;12
S10;24ET075CB21;6
S10;24ET075R22;12
S10;24GD250CB21;11
S10;24GD250R22;10
S10;24GD500R22;5
S10;24LC250CB4;14
S10;24LC250R22;8
S10;24MA030CB4;10
S10;24MA030P15;5
S10;24MA030R22;7
S10;24MA030RA19;3
S10;24MA030RV19;3
S10;24MA030S6;11
S10;24MA075CB4;18
S21000;24MA030RA19;9
S21000;24MA030RV19;11
S21000;24MA030S6;11
S21000;24MA075CB4;8
S21000;24MA075P15;13
S21000;24MA075R22;10
S21000;24MA150R22;9
S21000;24RG500C20;18
S21000;24RG500R22;16
S21000;24RO010CB4;7
S21000;24SA050CB21;10
S21000;24SA050R22;11
S21000;27BP050I19;5
S21000;27BY015I19;9
S21000;27CP050I19;12
S21000;27DB015I20;12
S21000;27DC030I20;5
S21000;27DC050I20;12
S21000;27DCB060I17;11
S21000;27DE015I21;15
S21000;27DF125I17;13
S21000;27DH015I20;13
S21000;27DH030I20;12
S21000;27DL200I21;7
S21000;27DS030I20;8
S21000;27ER015I22;26
S21000;27ER050I21;12
S21000;27ER150I21;15
S21000;27EV200I19;12
S21000;27FP050I19;1
S21000;27HC050I18;5
S21000;27HCR050I16;6
S21000;27HS030I18;4
S21000;27HSR030I16;6
S21000;27MI150I20;4
S21000;27MP050I20;43
S21000;27MP150I20;7
S21000;27MQ065I15A;4
S21000;27MS050I20;10
S21000;27OR030I21;16
S21000;27OR050I21;34
S21000;27RM300I20;14
S21000;27SP030I19;4
S21000;29ASH240A20;4
S21000;29BP100A19;6
S21000;29EC200A21;12
S21000;29GE200A21;13
S21000;29HD075A15;18
S21000;29HD250A15;29
S21000;29HD500A15;24
S21000;29HS100A21;10
S21000;29HS100A22SM;15
S21000;29LC200A20US;8
S28000;29GE200A21;22
S28000;29HD075A15;36
S28000;29HD250A15;21
S28000;29HD500A15;46
S28000;29HD9000A21;2
S28000;29HS100A21;1
S28000;29HS100A22SM;38
S28000;29LC200A20US;29
S28000;29MA030A17;12
S28000;29MA075A21;6
S28000;29RC200A20;36
S28000;29RH500A15;43
S28000;29SA050A21;17
S28000;29SE125A21;17
S28000;29SH240A20;14
S28000;29VC240A22;8
S28000;38BV050A19;8
S28000;38EC015A18;4
S28000;38EV075A21;14
S28000;38FT200A21;12
S28000;38MI150A22;17
S28000;38RC050A18;4
S28000;38RC050A22;18
S28000;38UV030A18;6
S28000;38WC050A21;14
S28000;38WM065A18;2
S28000;38WS030A21;13
S28000;49BO015CS19;55
S28000;49CL1SA18;30
S28000;49CM030I19;12
S28000;49CP020K22;80
S28000;49DC004I20;41
S28000;49DH004I20;17
S28000;49HD035A15;76
S28000;49LC020A20;70
S28000;49MA010A17;31
S28000;49MA010VB3;80
S28000;49MS008I20;72
S28000;49POU1O21;36
S28000;49RCWM22;5
S28000;52AF006G20;103
S28000;52AS006E19;120
S28000;52AS006FV21;245
S28000;52AS006G21;194
S28000;52AS006P19;59
S28000;52BY001I19;200
S28000;52CD0015A18;111
S28000;52CL0015K21;112
S28000;52CP0015I19;146
S28000;52CP006K22;396
S28000;52CV0015K22;335
S28000;52DB001I20;184
S28000;52DC0015I20;220
S30000;38BV050A19;3
S21000;38EC015A18;4
S30000;38EC015A18;6
S21000;38EV075A21;10
S30000;38EV075A21;8
S21000;38FT200A21;10
S30000;38FT200A21;3
S21000;38MI150A18;2
S21000;38MI150A22;18
S30000;38MI150A22;17
S21000;38RC050A22;14
S30000;38RC050A22;12
S21000;38UV030A18;13
S30000;38UV030A18;3
S21000;38WC050A21;12
S30000;38WC050A21;5
S21000;38WM065A18;3
S30000;38WM065A18;5
S21000;38WS030A21;9
S30000;38WS030A21;8
S21000;49BO015CS19;78
S30000;49BO015CS19;77
S21000;49CL1SA18;18
S30000;49CL1SA18;16
S21000;49CM030I19;8
S30000;49CM030I19;3
S21000;49CP020K22;60
S30000;49CP020K22;60
S21000;49DC004I20;18
S30000;49DC004I20;6
S21000;49DH004I20;35
S30000;49DH004I20;42
S21000;49HD035A15;108
S30000;49HD035A15;141
S21000;49LC020A20;95
S30000;49LC020A20;37
S21000;49MA010A17;25
S30000;49MA010A17;3
S21000;49MA010VB3;60
S30000;49MA010VB3;60
S21000;49OR005I21;99
S30000;49OR005I21;107
S30000;49POCKNO21;49
S21000;49POU1O21;18
S30000;49POU1O21;18
S21000;49RCWM22;7
S21000;52AF006G20;131
S30000;52AF006G20;156
S21000;52AS006E19;157
S30000;52AS006E19;120
S21000;52AS006FV21;143
S30000;52AS006FV21;119
S21000;52AS006G21;100
S27000;27BP050I19;5
S27000;27BY015I19;11
S00;27CN050I14;2
S27000;27CP050I19;7
S27000;27DB015I20;7
S27000;27DC030I20;11
S27000;27DC050I20;5
S27000;27DCB060I17;7
S27000;27DE015I21;5
S27000;27DF125I17;3
S27000;27DH015I20;5
S27000;27DH030I20;16
S27000;27DL200I21;12
S27000;27DS030I20;10
S27000;27ER015I22;13
S27000;27ER050I21;11
S27000;27ER150I21;17
S27000;27EV200I19;14
S27000;27FP050I19;4
S27000;27HC050I18;5
S27000;27HCR050I16;5
S27000;27HS030I18;5
S27000;27HSR030I16;4
S27000;27MI150I20;4
S27000;27MP050I20;3
S27000;27MP150I20;9
S27000;27MQ065I15A;4
S27000;27MS050I20;5
S27000;27OR030I21;19
S27000;27OR050I21;13
S27000;27RM300I20;10
S27000;27SP030I19;4
S27000;29ASH240A20;4
S27000;29BP100A19;4
S27000;29EC200A21;11
S27000;29GE200A21;14
S27000;29HD250A15;14
S27000;29HD500A15;38
S27000;29HS100A21;4
S27000;29LC200A20US;16
S27000;29MA030A17;12
S27000;29MA075A21;14
S27000;29RC200A20;24
S27000;29RH500A15;25
S27000;29SA050A21;5
S27000;29SE125A21;7
S27000;29SH240A20;10
S27000;29VC240A22;9
S27000;38BV050A19;4
S27000;38EC015A18;3
S27000;38EV075A21;9
S27000;38FT200A21;8
S27000;38MI150A18;1
S21000;29MA030A17;19
S21000;29MA075A21;14
S21000;29RC200A20;53
S21000;29RH500A15;74
S21000;29SA050A21;6
S21000;29SE125A21;3
S21000;29SH240A20;13
S21000;29VC240A22;11
S90000;29RC200A20;9
S90000;29RH500A15;33
S90000;29SA050A21;2
S90000;29SE125A21;7
S90000;29SH075A20;7
S90000;29SH240A20;8
S90000;29VC240A16;13
S90000;29VC240A22;12
S90000;38BV050A19;10
S90000;38EC015A18;7
S90000;38EV075A21;10
S90000;38FT200A18;20
S90000;38FT200A21;8
S90000;38MI150A18;4
S90000;38MI150A22;8
S90000;38RC050A18;4
S90000;38RC050A22;11
S90000;38UV030A18;10
S90000;38WC050A18;35
S90000;38WC050A21;7
S90000;38WM065A18;6
S90000;38WS030A18;22
S90000;38WS030A21;8
S90000;49AF015G20;160
S90000;49BM010K19;123
S90000;49BO015CS19;12
S90000;49CM030I19;8
S90000;49CP004I19;8
S90000;49CP008I19;29
S90000;49CP020K22;103
S90000;49DB004I20;30
S90000;49DC004I20;4
S90000;49DC008I20;16
S90000;49DH004I20;167
S90000;49GD035CB5;27
S90000;49HD035A15;97
S90000;49HD035K17;59
S90000;49IC1POU20;14
S90000;49IC2POU20;57
S90000;49IC3POU20;27
S90000;49LC020A20;50
S90000;49LC035CB6;16
S90000;49LD030I20;26
S90000;49MA010A17;50
S90000;49MA010A21X;66
S90000;49MA010CB4;12
S90000;49MA010K22;5
S90000;49MA010L16;131
S90000;49MA010VB3;106
S90000;49MASKRS21;26
S90000;49MR010K14;46
S90000;49MS008I20;42
S90000;49MWC030I19;101
S10;24MA075P15;4
S10;24MA075R18;15
S10;24MA075R22;9
S10;24MA150R22;14
S10;24RG500C20;17
S10;24RG500R22;25
S10;24RO010CB4;15
S10;24RO010R18;2
S10;24SA050CB21;9
S10;24SA050CB6;3
S10;24SA050R22;6
S10;27BP050I19;4
S10;27BY015I19;11
S10;27CP050I19;17
S10;27DB015I20;13
S10;27DC030I20;10
S10;27DC050I20;19
S10;27DCB060I17;5
S10;27DE015I21;3
S10;27DF125I17;8
S10;27DH015I20;8
S10;27DH030I20;18
S10;27DL200I21;8
S10;27DS030I20;4
S10;27ER015I22;12
S10;27ER050I21;11
S10;27ER150I21;12
S30000;52AS006G21;211
S21000;52AS006P19;152
S30000;52AS006P19;53
S21000;52BY001I19;215
S30000;52BY001I19;120
S21000;52CD0015A18;106
S30000;52CD0015A18;85
S21000;52CL0015K21;50
S30000;52CL0015K21;70
S21000;52CP0015I19;91
S30000;52CP0015I19;172
S21000;52CP006K22;174
S30000;52CP006K22;114
S21000;52CV0015K22;250
S30000;52CV0015K22;89
S21000;52DB001I20;165
S30000;52DB001I20;116
S21000;52DC0015I20;165
S30000;52DC0015I20;249
S21000;52DE001I21;116
S30000;52DE001I21;153
S21000;52DF002I17;82
S30000;52DF002I17;178
S21000;52DH001I20;141
S30000;52DH001I20;316
S21000;52DL002I21;119
S30000;52DL002I21;160
S21000;52DS001I20;151
S30000;52DS001I20;111
S21000;52ER002I21;105
S30000;52ER002I21;144
S21000;52GD0015A18;48
S30000;52GD0015A18;101
S21000;52HD006A18;218
S30000;52HD006A18;264
S21000;52HS001I17;186
S30000;52HS001I17;88
S21000;52HS004A18;94
S30000;52HS004A18;207
S21000;52LC006A20;198
S30000;52LC006A20;264
S21000;52LGEBAG19;85
S30000;52LGEBAG19;42
S21000;52LGEBOX18;9
S30000;52LGEBOX18;11
S21000;52LGENSA21;36
S30000;52LGENSA21;106
S21000;52LT002R21;168
S30000;52LT002R21;46
S21000;52MA003K22A;199
S30000;52MA003K22A;67
S21000;52MC006G21;49
S30000;52MC006G21;92
S20;24MA075R22;14
S20;24MA150R22;12
S20;24RG500C20;15
S20;24RG500R22;21
S20;24RO010CB4;5
S20;24SA050CB21;11
S20;24SA050R22;16
S20;27BP050I19;11
S20;27BY015I19;3
S20;27CP050I19;12
S20;27DB015I20;14
S20;27DC030I20;9
S20;27DC050I20;16
S20;27DCB060I17;4
S20;27DE015I21;14
S20;27DF125I17;16
S20;27DH015I20;15
S20;27DH030I20;17
S20;27DL200I21;12
S20;27DS030I20;5
S20;27ER015I22;14
S20;27ER050I21;12
S20;27ER150I21;13
S20;27EV200I19;13
S20;27HC050I18;3
S20;27HCR050I16;2
S20;27HS030I18;4
S20;27HSR030I16;13
S20;27MI150I20;4
S20;27MP050I20;39
S20;27MP150I20;13
S20;27MQ065I15A;3
S20;27MS050I20;2
S20;27OR030I21;15
S20;27OR050I21;29
S20;27RM300I20;17
S20;27SP030I19;4
S20;27TS001I20;257
S20;29ASH240A20;10
S20;29BP100A19;5
S20;29EC200A21;14
S20;29GE200A21;25
S20;29HD075A15;16
S20;29HD250A15;10
S20;29HD500A15;33
S20;29HS100A21;15
S20;29HS100A22SM;15
S20;29LC200A20US;10
S20;29MA030A17;8
S20;29MA075A21;15
S28000;52DE001I21;159
S28000;52DF002I17;353
S28000;52DH001I20;260
S28000;52DL002I21;123
S28000;52DS001I20;55
S28000;52ER002I21;80
S28000;52FP0015I19;87
S28000;52GD0015A18;68
S28000;52HD006A18;419
S28000;52HS001I17;66
S28000;52HS004A18;153
S28000;52LC006A20;586
S28000;52LGEBAG19;150
S28000;52LGEBOX18;8
S28000;52LGENSA21;98
S28000;52LT002R21;120
S28000;52MA003K22A;213
S28000;52MC006G21;175
S28000;52MGEBAG19;109
S28000;52MGEBOX18;28
S28000;52MGENSA21;61
S28000;52MIGEBAG19;370
S28000;52MS001I20;79
S28000;52OR001I21;651
S28000;52PMGBOX18;10
S28000;52PS0015R21;117
S28000;52SAMPENV18;516
S28000;52SGEBAG19;579
S28000;52SGENSA21;65
S28000;52SH006E19;147
S28000;52SH006FV21;117
S28000;52SH006G21;148
S28000;52SH006P19;189
S28000;52SP001I19;228
S28000;52TS001I22;142
S28000;52TS001R21;136
S28000;98BBGD030VE4;30
S28000;98BBHD050A0;21
S28000;98BBMA010KA3;46
S28000;98BBSA050LT1;13
S28000;ACPOCVEC00005;202
S28000;HKOCVE6T00055;13
S28000;SGOCVE600004;111
S28000;SGOCVE600005;5
S29000;24MA030RA19;8
S29000;24MA030S6;10
S29000;24MA075CB4;28
S29000;24MA075P15;4
S29000;24MA075R22;13
S29000;24MA150R22;15
S29000;24RG500C20;41
S29000;24RG500R22;43
S29000;24RO010CB4;14
S29000;24SA050CB21;21
S29000;24SA050CB6;2
S29000;24SA050R22;22
S29000;27BP050I19;2
S29000;27BY015I19;6
S29000;27CP050I19;19
S29000;27DB015I20;30
S29000;27DC030I20;4
S29000;27DC050I20;36
S29000;27DCB060I17;4
S29000;27DE015I21;25
S29000;27DF125I17;29
S29000;27DH015I20;23
S29000;27DH030I20;35
S29000;27DL200I21;20
S29000;27DS030I20;9
S29000;27ER015I22;28
S29000;27ER050I21;13
S29000;27ER150I21;21
S29000;27EV200I19;23
S10;27EV200I19;16
S10;27FP050I19;7
S29000;27FP050I19;2
S29000;27HC050I18;6
S10;27HC050I18;4
S10;27HCR050I16;4
S29000;27HCR050I16;20
S29000;27HS030I18;4
S10;27HS030I18;4
S10;27HSR030I16;4
S29000;27HSR030I16;19
S29000;27MI150I20;7
S10;27MI150I20;5
S10;27MP050I20;51
S29000;27MP050I20;3
S29000;27MP150I20;26
S10;27MP150I20;11
S10;27MQ065I15A;2
S29000;27MQ065I15A;4
S29000;27MS050I20;14
S10;27MS050I20;5
S10;27OR030I21;14
S29000;27OR030I21;21
S29000;27OR050I21;47
S90000;49OR005I21;31
S90000;49PFCWC21;40
S90000;49PI010K18;94
S90000;49PMENNO21;40
S90000;49PO1NH18;188
S90000;49PO2HER20;155
S90000;49PO2RS21;36
S90000;49PO2SA19;30
S90000;49POCKNO21;179
S90000;49POU1O21;28
S90000;49POUCB21;14
S90000;49POUCH2NO21;97
S90000;49POUID20;4
S90000;49POUIS19;23
S90000;49POUM21;101
S90000;49PWPBM22;7
S90000;49RCWM22;22
S90000;49SH035E21;198
S90000;49TFACH18;20
S90000;49TOBACH20;67
S90000;49TOTMC20;40
S90000;49TOTWC21;90
S90000;49TRAVNO21;81
S90000;52AF006G20;69
S90000;52AS006E19;329
S90000;52AS006FV21;358
S90000;52AS006G21;361
S90000;52AS006P19;255
S90000;52BOXMM22;58
S90000;52CL0015K21;221
S90000;52CP0015I19;285
S90000;52CP006K22;350
S90000;52CV0015K22;158
S90000;52DB001I20;207
S90000;52DC0015I20;159
S90000;52DE001I21;100
S90000;52DF002I17;547
S90000;52DH001I20;302
S90000;52DL002I21;182
S90000;52DS001I20;151
S90000;52ER002I21;256
S90000;52ET001O21;1
S90000;52FP0015I19;100
S90000;52HCTM21;25
S90000;52HCTM22;32
S90000;52HD006A18;499
S90000;52HR004G17;100
S90000;52HS004A18;305
S90000;52LC006A20;625
S90000;52LGEBOX18;19
S90000;52LT002R21;94
S90000;52MA003K16A;327
S90000;52MA003K22A;158
S27000;38MI150A22;18
S27000;38RC050A22;11
S27000;38UV030A18;4
S27000;38WC050A21;9
S27000;38WM065A18;4
S27000;38WS030A21;9
S27000;49BO015CS19;9
S27000;49CL1SA18;16
S27000;49CM030I19;9
S27000;49DH004I20;9
S27000;49HD035A15;3
S27000;49OR005I21;77
S27000;49POU1O21;18
S27000;52AF006G20;120
S27000;52AS006E19;217
S27000;52AS006FV21;159
S27000;52AS006G21;141
S27000;52AS006P19;255
S27000;52BY001I19;234
S27000;52CD0015A18;54
S27000;52CL0015K21;114
S27000;52CP0015I19;31
S27000;52CP006K22;276
S27000;52CV0015K22;161
S27000;52DB001I20;72
S27000;52DC0015I20;165
S27000;52DE001I21;225
S27000;52DF002I17;14
S27000;52DH001I20;183
S27000;52DL002I21;86
S27000;52DS001I20;146
S27000;52ER002I21;89
S27000;52FP0015I19;91
S27000;52GD0015A18;40
S27000;52HD006A18;248
S27000;52HS001I17;67
S27000;52HS004A18;159
S27000;52LC006A20;308
S27000;52LGEBAG19;106
S27000;52LGEBOX18;7
S27000;52LGENSA21;112
S27000;52LT002R21;126
S27000;52MA003K22A;181
S27000;52MC006G21;271
S27000;52MGEBAG19;109
S27000;52MGEBOX18;12
S27000;52MGENSA21;84
S27000;52MIGEBAG19;251
S27000;52MS001I20;119
S27000;52OR001I21;204
S27000;52PMGBOX18;3
S27000;52PS0015R21;98
S27000;52SGEBAG19;177
S90000;52MC006G21;100
S90000;52MMBYNO19;85
S90000;52MOCOL316;10
S90000;52MS001I20;378
S90000;52OR001I21;594
S90000;52PMGBOX18;11
S90000;52PS0015R21;100
S90000;52SH006E19;391
S90000;52SH006FV21;480
S90000;52SH006G21;379
S90000;52SH006P19;370
S90000;52SHBOM22;32
S90000;52SP001I19;302
S90000;52TBO1M21;54
S90000;52TBO2M21;31
S21000;52MGEBAG19;135
S30000;52MGEBAG19;101
S21000;52MGEBOX18;7
S30000;52MGEBOX18;4
S21000;52MGENSA21;99
S30000;52MGENSA21;119
S21000;52MIGEBAG19;195
S30000;52MIGEBAG19;75
S21000;52MS001I20;85
S30000;52MS001I20;116
S21000;52OR001I21;171
S30000;52OR001I21;324
S21000;52PMGBOX18;5
S30000;52PMGBOX18;5
S21000;52PS0015R21;158
S30000;52PS0015R21;104
S21000;52SAMPENV18;28
S21000;52SGEBAG19;186
S30000;52SGEBAG19;423
S21000;52SGENSA21;66
S30000;52SGENSA21;202
S21000;52SH006E19;93
S30000;52SH006E19;159
S21000;52SH006FV21;190
S30000;52SH006FV21;244
S21000;52SH006G21;84
S30000;52SH006G21;219
S21000;52SH006P19;151
S30000;52SH006P19;179
S21000;52SP001I19;221
S30000;52SP001I19;127
S21000;52TS001I22;142
S30000;52TS001I22;135
S21000;52TS001R21;138
S30000;52TS001R21;153
S21000;98BBDF015IM0;7
S21000;98BBGD030VE4;66
S30000;98BBGD030VE4;59
S21000;98BBMA010KA3;74
S30000;98BBMA010KA3;33
S21000;HKOCVE6T00055;11
S30000;HKOCVE6T00055;7
S21000;SGOCVE600004;85
S30000;SGOCVE600004;63
S21000;SGOCVE600005;5
S10;27OR050I21;17
S10;27RM300I20;17
S29000;27RM300I20;32
S29000;27SP030I19;8
S10;27SP030I19;4
S10;27TS001I20;151
S10;29ASH240A20;5
S29000;29ASH240A20;11
S29000;29BP100A19;11
S29000;29EC200A21;25
S10;29EC200A21;9
S10;29GE200A21;13
S29000;29GE200A21;38
S29000;29HD075A15;24
S10;29HD075A15;18
S10;29HD250A15;6
S29000;29HD250A15;30
S29000;29HD500A15;64
S10;29HD500A15;22
S10;29HS100A21;9
S29000;29HS100A21;14
S29000;29HS100A22SM;15
S10;29HS100A22SM;13
S10;29LC200A20US;17
S29000;29LC200A20US;47
S24000;29MA030A17;13
S29000;29MA030A17;16
S10;29MA030A17;15
S10;29MA075A21;10
S24000;29MA075A21;8
S29000;29MA075A21;22
S24000;29MAV075A19;3
S10;29MAV075A19;1
S10;29RC200A20;31
S24000;29RC200A20;21
S29000;29RC200A20;116
S24000;29RH500A15;27
S29000;29RH500A15;134
S10;29RH500A15;30
S10;29SA050A21;3
S24000;29SA050A21;4
S29000;29SA050A21;10
S24000;29SE125A21;10
S29000;29SE125A21;14
S10;29SE125A21;10
S10;29SH240A20;11
S24000;29SH240A20;12
S29000;29SH240A20;20
S24000;29VC240A22;14
S29000;29VC240A22;16
S10;29VC240A22;11
S10;38BV050A19;6
S24000;38BV050A19;7
S29000;38BV050A19;4
S27000;52SGENSA21;38
S27000;52SH006E19;117
S27000;52SH006FV21;145
S27000;52SH006G21;197
S27000;52SH006P19;174
S27000;52SP001I19;121
S27000;52TS001I22;125
S90000;52TS001I22;281
S27000;52TS001R21;89
S90000;52TS001R21;74
S90000;98BBGD050VE2;70
S90000;98BBHD035A0;140
S90000;98BBHD050A0;25
S90000;98BBSA025LT2;57
S90000;98BBSA050LT1;50
S90000;98BBSH035AR2;114
S90000;98BBSH050A0;71
S90000;98BBSH050AR2;86
S90000;ACPOCVE7T00015;1
S90000;ACPOCVE7T00016;10
S27000;HKOCVE6T00055;8
S90000;HKOCVE6T00055;22
S90000;J9517;9
S90000;JIMPN16;56
S90000;SGOCVE600005;5
S90000;SGOCVKI00176;6
S90000;SGOCVKI00182;5
S90000;SGOCVKI00184;7
S90000;SGOCVKI00187;4
S90000;SGOCVKI00188;1
S90000;SGOCVKI00189;5
S90000;SGOCVKI00190;3
S90000;SGOCVKI00191;3
S90000;SGOCVKI00198;1
S90000;SGOCVKI00204;4
S90000;SGOCVKI00208;1
S24000;38EC015A18;4
S29000;38EC015A18;8
S10;38EC015A18;4
S10;38EV075A21;13
S24000;38EV075A21;11
S29000;38EV075A21;13
S24000;38FT200A21;8
S29000;38FT200A21;10
S10;38FT200A21;13
S10;38MI150A18;2
S10;38MI150A22;18
S24000;38MI150A22;16
S29000;38MI150A22;19
S24000;38RC050A18;6
S29000;38RC050A18;4
S10;38RC050A18;4
S10;38RC050A22;15
S24000;38RC050A22;14
S29000;38RC050A22;18
S24000;38UV030A18;5
S29000;38UV030A18;4
S10;38UV030A18;7
S10;38WC050A21;5
S24000;38WC050A21;6
S29000;38WC050A21;13
S24000;38WM065A18;4
S29000;38WM065A18;6
S10;38WM065A18;4
S10;38WS030A21;5
S24000;38WS030A21;7
S29000;38WS030A21;9
S24000;49BO015CS19;6
S29000;49BO015CS19;18
S10;49BO015CS19;51
S10;49CL1SA18;16
S24000;49CL1SA18;18
S29000;49CL1SA18;18
S29000;49CM010O21;94
S24000;49CM030I19;6
S29000;49CM030I19;8
S10;49CM030I19;8
S10;49CP020K22;60
S24000;49CP020K22;50
S29000;49CP020K22;238
S10;49DC004I20;56
S10;49DH004I20;20
S29000;49DH004I20;5
S24000;49HD035A15;14
S29000;49HD035A15;94
S10;49HD035A15;67
S10;49LC020A20;165
S24000;49LC020A20;26
S29000;49LC020A20;9
S24000;49MA010A17;7
S10;49MA010A17;12
S29000;49MA010K22;46
S24000;49MA010VB3;50
S29000;49MA010VB3;238
S10;49MA010VB3;60
S10;49MS008I20;65
S10;49OR005I21;102
S24000;49OR005I21;50
S29000;49OR005I21;129
S29000;49PADCL20;92
S29000;49PMENNO21;46
S29000;49POU1O21;22
S10;49POU1O21;18
S29000;49POUCB21;1
S29000;49RCWM22;3
S10;49RCWM22;1
S10;52AF006G20;156
S24000;52AF006G20;201
S29000;52AF006G20;28
S24000;52AS006E19;213
S29000;52AS006E19;162
S10;52AS006E19;52
S10;52AS006FV21;279
S24000;52AS006FV21;115
S29000;52AS006FV21;135
S24000;52AS006G21;205
S29000;52AS006G21;194
S10;52AS006G21;314
S10;52AS006P19;214
S24000;52AS006P19;103
S29000;52AS006P19;125
S24000;52BY001I19;132
S29000;52BY001I19;179
S10;52BY001I19;289
S10;52CD0015A18;69
S24000;52CD0015A18;97
S29000;52CD0015A18;117
S24000;52CL0015K21;103
S29000;52CL0015K21;70
S24000;52CP0015I19;94
S29000;52CP0015I19;71
S10;52CP0015I19;117
S10;52CP006K22;164
S24000;52CP006K22;379
S29000;52CP006K22;151
S24000;52CV0015K22;156
S29000;52CV0015K22;159
S10;52CV0015K22;161
S10;52DB001I20;117
S24000;52DB001I20;148
S29000;52DB001I20;134
S24000;52DC0015I20;392
S29000;52DC0015I20;268
S10;52DC0015I20;129
S10;52DE001I21;179
S24000;52DE001I21;288
S29000;52DE001I21;97
S24000;52DF002I17;288
S29000;52DF002I17;261
S10;52DF002I17;43
S10;52DH001I20;127
S24000;52DH001I20;281
S29000;52DH001I20;297
S24000;52DL002I21;140
S29000;52DL002I21;124
S10;52DL002I21;126
S10;52DS001I20;181
S24000;52DS001I20;60
S29000;52DS001I20;50
S24000;52ER002I21;176
S29000;52ER002I21;46
S10;52ER002I21;205
S24000;52ER006P19;10
S29000;52ET001O21;94
S29000;52EV002I19;50
S10;52FP0015I19;73
S10;52GD0015A18;55
S24000;52GD0015A18;51
S29000;52GD0015A18;100
S24000;52HD006A18;406
S29000;52HD006A18;198
S10;52HD006A18;230
S10;52HS001I17;144
S24000;52HS001I17;123
S29000;52HS001I17;46
S24000;52HS004A18;97
S29000;52HS004A18;69
S10;52HS004A18;370
S24000;52LASANO21;120
S24000;52LC006A20;389
S29000;52LC006A20;173
S10;52LC006A20;233
S10;52LGEBAG19;45
S24000;52LGEBAG19;74
S24000;52LGEBOX18;8
S29000;52LGEBOX18;4
S10;52LGEBOX18;9
S10;52LGENSA18;12
S24000;52LGENSA21;74
S29000;52LGENSA21;90
S24000;52LT002R21;104
S29000;52LT002R21;109
S10;52LT002R21;297
S10;52MA003K22A;241
S24000;52MA003K22A;502
S29000;52MA003K22A;146
S24000;52MC006G21;184
S10;52MC006G21;85
S10;52MGEBAG19;9
S24000;52MGEBAG19;80
S24000;52MGEBOX18;14
S29000;52MGEBOX18;3
S10;52MGEBOX18;20
S10;52MGENSA21;68
S24000;52MGENSA21;84
S29000;52MGENSA21;129
S24000;52MIGEBAG19;137
S10;52MIGEBAG19;267
S10;52MS001I20;244
S24000;52MS001I20;258
S29000;52MS001I20;67
S24000;52OR001I21;365
S29000;52OR001I21;321
S10;52OR001I21;122
S10;52PMGBOX18;14
S24000;52PMGBOX18;5
S29000;52PMGBOX18;3
S24000;52PS0015R21;102
S29000;52PS0015R21;100
S10;52PS0015R21;210
S10;52SGEBAG19;187
S24000;52SGEBAG19;169
S24000;52SGENSA21;65
S29000;52SGENSA21;144
S10;52SGENSA21;87
S10;52SH006E19;547
S24000;52SH006E19;181
S29000;52SH006E19;141
S24000;52SH006FV21;216
S29000;52SH006FV21;92
S10;52SH006FV21;676
S10;52SH006G21;608
S24000;52SH006G21;174
S29000;52SH006G21;239
S24000;52SH006P19;157
S29000;52SH006P19;78
S10;52SH006P19;694
S10;52SP001I19;208
S24000;52SP001I19;99
S29000;52SP001I19;60
S24000;52TS001I22;157
S29000;52TS001I22;237
S10;52TS001I22;237
S10;52TS001R21;190
S24000;52TS001R21;107
S29000;52TS001R21;90
S10;98BBGD030VE4;38
S10;98BBHD050A0;90
S29000;98BBLC030VE5;26
S10;98BBMA010KA3;48
S10;98BBSA050LT1;81
S10;HKOCVE6T00055;5
S29000;HKOCVE6T00055;10
S24000;SGOCVE600004;57
S29000;SGOCVE600004;238
S10;SGOCVE600004;72
S10;SGOCVE600005;6
S24000;SGOCVE600005;5
S24000;01BK010K14;11
S24000;01BL012K18;9
S24000;01BM050K19;6
S24000;01BM150K19;13
S24000;01BP050K21;11
S24000;01BV050K16;2
S24000;01CD250K17;12
S24000;01CF050K22;7
S24000;01CL050K21;3
S24000;01CL175K22;10
S24000;01CM300K20;6
S24000;01CM500K20;7
S24000;01CMJ075K21;14
S24000;01CMR500K20;9
S24000;01CP200K22;13
S24000;01CPR200K22;11
S24000;01CV050K22;10
S24000;01EC200K22;12
S24000;01EM075K20;4
S24000;01HD250K17;8
S24000;01HD500K20;11
S24000;01HDR500K20;11
S24000;01HF100K17;10
S24000;01HN0075K19;9
S24000;01HV030K16;4
S24000;01LC250K17;11
S24000;01LT300K20;14
S24000;01MA030K22;16
S24000;01MA075K22;15
S24000;01MA150K22;22
S24000;01MR030K14;13
S24000;01PI030K18;2
S24000;01PI150K18;10
S24000;01RL500K20;3
S24000;01RV500K20;4
S24000;01SA050KV20;12
S24000;01SA100LT20;7
S24000;01SA100LV20;10
S24000;01SA100VE20;12
S24000;01SA250LT20;13
S24000;01SA250LV20;17
S24000;01SA250VE20;14
S24000;01SA300KRO22;9
S24000;01SA500KRO22;6
S24000;01SB020K21;6
S24000;01SE125K21;6
S24000;01SL0045K13;22
S24000;01SL300LV20;4
S24000;01SL300VE20;4
S24000;01SL500LV20;4
S24000;01SL500VE20;4
S24000;11BC100G21;28
S24000;11BG140CS19;9
S24000;11BG140SH19;3
S24000;11BG140SI19;6
S24000;11BG140SL19;10
S24000;11BH050A18;4
S24000;11BO100CS19;19
S24000;11BP100I19;3
S24000;11BR100A20;2
S24000;11CD050A18;5
S24000;11CF100TR19;4
S24000;11CM030H19;10
S24000;11CM030H20;14
S24000;11CM030O21;14
S24000;11CM125I19;4
S24000;11EDT050HF22;7
S24000;11EH150A18;4
S24000;11EP010H19;6
S24000;11ET010H20;6
S24000;11ET050H20;3
S24000;11ET075O21;5
S24000;11FAG10TR19;3
S24000;11GD050A18;6
S24000;11GD250H19;10
S24000;11GD250H20;13
S24000;11GD250O21;8
S24000;11GE075I20;10
S24000;11GN195A18;8
S24000;11HE005CS19;6
S24000;11LB250HF22;7
S24000;11LC250H19;6
S24000;11LC250H20;10
S24000;11LC250O21;8
S24000;11LD200I19;11
S24000;11LH200I19;9
S24000;11LT300I20;4
S24000;11MA030A20;4
S24000;11MH075A19;5
S24000;11MWC200I19;4
S24000;11PEP050I20;4
S24000;11PM100SH19;3
S24000;11PM100SI19;4
S24000;11PM100SL19;4
S24000;11SA050O21;3
S24000;11SA100H19;4
S24000;11SA100H20;8
S24000;11SD100CS19;4
S24000;11SD100SH19;9
S24000;11SD100SI19;4
S24000;11SD100SL19;10
S24000;11SP200CS19;7
S24000;11SP200SH19;10
S24000;11SP200SI19;6
S24000;11SP200SL19;7
S24000;11SV080I19;4
S24000;15AS250VA18;4
S24000;15BA500L16A;9
S24000;15ET010VB19;3
S24000;15ET100VA20;6
S24000;15ET100VB20;3
S24000;15ET100VBM22;7
S24000;15GD070VB21;50
S24000;15GD250L21;8
S24000;15GD250VA20;4
S24000;15GD250VB21;7
S24000;15GD250VBL22;9
S24000;15GD250VBM22;20
S24000;15GD500VB21;11
S24000;15GM065L21;11
S24000;15GM065VB21;14
S24000;15GM280VB21;4
S24000;15GN300L11;9
S24000;15GS150VBL22;6
S24000;15HE005L14;2
S24000;15LC250L14;4
S24000;15LC250VA20;9
S24000;15LC250VB3;10
S24000;15LC250VBM22;12
S24000;15LM300L11;3
S24000;15MA030L11;20
S24000;15MA030VA5;4
S24000;15MA030VB3;11
S24000;15MA030VBL22;10
S24000;15MA030VBM8;24
S24000;15MA075L20;7
S24000;15MA075VB4;11
S24000;15RC500VB21;18
S24000;15RG500L14;9
S24000;15RG500VA20;10
S24000;15RO010VBM22;11
S24000;15SA070VB6;4
S24000;15SE400VB5;4
S24000;15SH250VA20;7
S24000;17AF100G20;10
S24000;17AS250E19;5
S24000;17AS250FV21;5
S24000;17AS250G21;10
S24000;17AS250P19;6
S24000;17AS500E19;8
S24000;17AS500FV21;9
S24000;17AS500G21;12
S24000;17AS500P19;8
S24000;17DO050F13;10
S24000;17ER075P19;5
S24000;17HI001G19;133
S24000;17HI100G19;12
S24000;17MC200G21;10
S24000;17RC500E20;11
S24000;17RC500G21;13
S24000;17RC500P19;6
S24000;17RS500E20;17
S24000;17RS500FV21;16
S24000;17RS500G21;17
S24000;17RS500P19;20
S24000;17SE100FV21;11
S24000;17SH060SE21;4
S24000;17SH060SG21;3
S24000;17SH060SP21;4
S24000;17SH075G21;10
S24000;17SH300E19;9
S24000;17SH300FV21;12
S24000;17SH300G21;9
S24000;17SH300P19;5
S24000;17SH500E19;15
S24000;17SH500FV21;16
S24000;17SH500G21;13
S24000;17SH500P19;10
S24000;17VI100P19;4
S24000;20AR075O20;5
S24000;20DO050O20;4
S24000;20DO075CD20;3
S24000;20DO130HC20;4
S24000;20ET075CD20;4
S24000;20ET075HC20;4
S24000;20ET075OC20;4
S24000;20FE050H20;4
S24000;20GD250CD20;8
S24000;20GD250HC20;3
S24000;20GD250OC20;10
S24000;20GD500HC20;11
S24000;20HR050H20;8
S24000;20NV150H20;2
S24000;20SA050CD20;4
S24000;20SA050HC20;4
S24000;20SA050O20;4
S24000;24BL012CB5;8
S24000;24BL012R22;10
S24000;24BR050CB6;11
S24000;24BR050R22;11
S24000;24ET075CB21;11
S24000;24ET075R22;8
S24000;24GD250CB21;14
S24000;24GD250R22;12
S24000;24GD500R22;10
S24000;24LC250CB4;16
S24000;24LC250R22;12
S24000;24MA030CB4;25
S24000;24MA030P15;10
S24000;24MA030R22;12
S24000;24MA030RA19;10
S24000;24MA030RV19;10
S24000;24MA030S6;11
S24000;24MA075CB4;9
S24000;24MA075P15;11
S24000;24MA075R22;11
S24000;24MA150R22;14
S24000;24RG500C20;13
S24000;24RG500R22;21
S24000;24RO010CB4;3
S24000;24SA050CB21;12
S24000;24SA050R22;10
S24000;27BP050I19;8
S24000;27BY015I19;4
S24000;27CP050I19;11
S24000;27DB015I20;12
S24000;27DC030I20;7
S24000;27DC050I20;13
S24000;27DCB060I17;4
S24000;27DE015I21;11
S24000;27DF125I17;19
S24000;27DH015I20;12
S24000;27DH030I20;11
S24000;27DL200I21;11
S24000;27DS030I20;4
S24000;27ER015I22;19
S24000;27ER050I21;11
S24000;27ER150I21;21
S24000;27EV200I19;12
S24000;27FP050I19;1
S24000;27HC050I18;3
S24000;27HCR050I16;3
S24000;27HS030I18;4
S24000;27HSR030I16;3
S24000;27MI150I20;4
S24000;27MP050I20;5
S24000;27MP150I20;4
S24000;27MQ065I15A;4
S24000;27MS050I20;10
S24000;27OR030I21;16
S24000;27OR050I21;22
S24000;27RM300I20;12
S24000;27SP030I19;4
S24000;29ASH240A20;4
S24000;29BP100A19;4
S24000;29EC200A21;14
S24000;29GE200A21;13
S24000;29HD075A15;18
S24000;29HD250A15;16
S24000;29HD500A15;21
S24000;29HS100A21;6
S24000;29HS100A22SM;18
S24000;29LC200A20US;22
S20;29RC200A20;29
S20;29RH500A15;49
S20;29SA050A21;10
S20;29SE125A21;10
S20;29SH240A20;15
S20;29VC240A22;10
S20;38BV050A19;8
S20;38EC015A18;5
S20;38EV075A21;12
S20;38FT200A21;11
S20;38MI150A18;1
S20;38MI150A22;17
S20;38RC050A22;14
S20;38UV030A18;9
S20;38WC050A21;6
S20;38WM065A18;4
S20;38WS030A21;4
S20;49BO015CS19;94
S20;49CL1SA18;18
S20;49CM030I19;8
S20;49CP020K22;60
S20;49DC004I20;40
S20;49DH004I20;53
S20;49HD035A15;95
S20;49LC020A20;87
S20;49MA010A17;24
S20;49MA010VB3;60
S20;49OR005I21;110
S20;49POU1O21;18
S20;49POUVE17;2
S20;49RCWM22;10
S20;52AF006G20;78
S20;52AS006E19;91
S20;52AS006FV21;120
S20;52AS006G21;139
S20;52AS006P19;81
S20;52BY001I19;66
S20;52CD0015A18;60
S20;52CL0015K21;25
S20;52CP0015I19;94
S20;52CP006K22;167
S20;52CV0015K22;144
S20;52DB001I20;98
S20;52DC0015I20;172
S20;52DE001I21;166
S20;52DF002I17;106
S20;52DH001I20;209
S20;52DL002I21;132
S20;52DS001I20;56
S20;52ER002I21;57
S20;52GD0015A18;34
S20;52HD006A18;244
S20;52HS001I17;105
S20;52HS004A18;82
S20;52HV001K18;12
S20;52LC006A20;301
S20;52LGEBAG19;29
S20;52LGEBOX18;7
S20;52LGENSA21;87
S20;52LT002R21;40
S20;52MA003K22A;281
S20;52MC006G21;64
S20;52MGEBAG19;89
S20;52MGEBOX18;14
S20;52MGENSA21;47
S20;52MIGEBAG19;130
S20;52MS001I20;79
S20;52OR001I21;159
S20;52PMGBOX18;25
S20;52PS0015R21;57
S20;52SGEBAG19;225
S20;52SGENSA21;111
S20;52SH006E19;104
S20;52SH006FV21;59
S20;52SH006G21;131
S20;52SH006P19;86
S20;52SP001I19;59
S20;52TS001I22;219
S20;52TS001R21;88
S20;98BBGD030VE4;85
S20;98BBMA010KA3;70
S20;HKOCVE6T00055;8
S20;SGOCVE600004;84
S20;SGOCVE600005;5
