S29000;SGOCVKI00192;1
S90000;SGOCVE600005;5
S90000;SGOCVKI00176;6
S90000;SGOCVKI00182;5
S90000;SGOCVKI00184;7
S90000;SGOCVKI00187;4
S90000;SGOCVKI00188;1
S90000;SGOCVKI00189;5
S90000;SGOCVKI00190;3
S90000;SGOCVKI00191;3
S90000;SGOCVKI00198;1
S90000;SGOCVKI00204;4
S90000;SGOCVKI00208;1
S10;29MA030A17;17
S24000;29MA030A17;18
S10;29MA075A21;15
S24000;29MA075A21;10
S10;29MAV075A19;2
S24000;29MAV075A19;3
S10;29RC200A20;24
S24000;29RC200A20;29
S10;29RH500A15;24
S24000;29RH500A15;37
S10;29SA050A21;3
S24000;29SA050A21;5
S10;29SE125A21;11
S24000;29SE125A21;10
S10;29SH240A20;10
S24000;29SH240A20;15
S10;29VC240A22;9
S24000;29VC240A22;14
S10;38BV050A19;6
S24000;38BV050A19;7
S10;38EC015A18;4
S24000;38EC015A18;4
S10;38EV075A21;13
S24000;38EV075A21;12
S10;38FT200A21;13
S24000;38FT200A21;8
S10;38MI150A18;3
S10;38MI150A22;18
S24000;38MI150A22;17
S10;38RC050A18;4
S24000;38RC050A18;7
S10;38RC050A22;15
S24000;38RC050A22;14
S10;38UV030A18;9
S24000;38UV030A18;8
S10;38WC050A21;4
S24000;38WC050A21;8
S10;38WM065A18;4
S24000;38WM065A18;4
S10;38WS030A21;4
S24000;38WS030A21;10
S10;49BO015CS19;48
S24000;49BO015CS19;11
S10;49DC004I20;56
S10;49DH004I20;22
S24000;49DH004I20;1
S10;49HD035A15;40
S24000;49HD035A15;50
S10;49LC020A20;146
S24000;49LC020A20;53
S24000;49MA010A17;43
S10;49MA010A21X;21
S10;49MS008I20;65
S10;49OR005I21;47
S28000;01BK010K14;15
S28000;01BL012K18;15
S28000;01BM050K19;15
S28000;01BM150K19;21
S28000;01BP050K21;12
S28000;01BV050K16;4
S28000;01CD250K17;23
S28000;01CF050K22;9
S28000;01CL050K21;6
S28000;01CL175K22;12
S28000;01CM300K20;12
S28000;01CM500K20;15
S28000;01CMJ075K21;21
S28000;01CMR500K20;18
S28000;01CP200K22;19
S28000;01CPR200K22;15
S28000;01CV050K22;10
S28000;01EC200K22;15
S28000;01EM075K20;3
S28000;01HD250K17;11
S28000;01HD500K20;16
S28000;01HDR500K20;19
S28000;01HF100K17;8
S28000;01HN0075K19;11
S28000;01HV030K16;4
S28000;01LC250K17;16
S28000;01LT300K20;13
S28000;01MA030K22;32
S28000;01MA075K22;18
S28000;01MA150K22;32
S28000;01MR030K14;15
S28000;01PI030K18;13
S28000;01PI150K18;16
S28000;01RL500K20;13
S28000;01RV500K20;19
S28000;01SA050KV20;11
S28000;01SA100LT20;16
S28000;01SA100LV20;18
S28000;01SA100VE20;17
S28000;01SA250LT20;19
S28000;01SA250LV20;20
S28000;01SA250VE20;20
S28000;01SA300KRO22;20
S28000;01SA500KRO22;18
S28000;01SA9000KV21;1
S28000;01SB020K21;5
S28000;01SE125K21;12
S28000;01SL0045K13;26
S28000;01SL300LV20;4
S28000;01SL300VE20;12
S28000;01SL500LV20;4
S28000;01SL500VE20;12
S28000;10EST250V21;31
S15;01BK010K14;15
S15;01BL012K18;7
S15;01BM050K19;10
S15;01BM150K19;10
S15;01BP050K21;12
S15;01CD250K17;20
S15;01CF050K22;17
S15;01CL050K21;6
S15;01CL175K22;17
S15;01CM300K20;7
S15;01CM500K20;9
S15;01CMJ075K21;11
S15;01CMR500K20;12
S15;01CP200K22;11
S15;01CPR200K22;10
S15;01CV050K22;6
S15;01EC200K22;9
S15;01EM075K20;2
S15;01HD250K17;8
S15;01HD500K20;7
S15;01HDR500K20;7
S15;01HF100K17;8
S15;01HN0075K19;7
S15;01HV030K16;3
S15;01LC250K17;5
S15;01LT300K20;9
S15;01MA030K22;3
S15;01MA075K22;7
S15;01MA150K22;5
S15;01MR030K14;11
S15;01PI030K18;4
S15;01PI150K18;9
S15;01RL500K20;13
S15;01RV500K20;16
S15;01SA050KV20;4
S15;01SA100LT20;12
S15;01SA100LV20;16
S15;01SA100VE20;17
S15;01SA250LT20;6
S15;01SA250LV20;2
S15;01SA250VE20;8
S15;01SA300KRO22;11
S15;01SA500KRO22;9
S15;01SB020K21;6
S15;01SE125K21;12
S15;01SL0045K13;32
S15;01SL300LV20;3
S15;01SL300VE20;2
S15;01SL500LV20;12
S15;01SL500VE20;10
S15;11BC100G21;16
S15;11BG140CS19;5
S15;11BG140SH19;3
S15;11BG140SI19;2
S20;29RC200A20;45
S20;29RH500A15;65
S20;29SA050A21;10
S20;29SE125A21;15
S20;29SH240A20;15
S20;29VC240A22;16
S20;38BV050A19;8
S20;38EC015A18;5
S20;38EV075A21;13
S20;38FT200A21;11
S20;38MI150A18;1
S20;38MI150A22;17
S20;38RC050A22;15
S20;38UV030A18;16
S20;38WC050A21;6
S20;38WM065A18;4
S20;38WS030A21;5
S20;49BO015CS19;107
S20;49DC004I20;40
S20;49DH004I20;53
S20;49HD035A15;137
S20;49LC020A20;129
S20;49MA010A17;66
S20;49MA010A21X;23
S20;49OR005I21;142
S20;49PO2HER20;19
S20;49POCKNO21;18
S20;49POU1O21;18
S20;49POUM21;9
S20;49RCWM22;10
S20;49SH035E21;5
S20;52AF006G20;116
S20;52AS006E19;108
S20;52AS006FV21;139
S20;52AS006G21;166
S20;52AS006P19;90
S20;52BY001I19;67
S20;52CD0015A18;62
S20;52CL0015K21;36
S20;52CP0015I19;104
S20;52CP006K22;253
S20;52CV0015K22;146
S20;52DB001I20;116
S20;52DC0015I20;221
S20;52DE001I21;181
S20;52DF002I17;144
S20;52DH001I20;129
S20;52DL002I21;138
S20;52DS001I20;67
S20;52ER002I21;82
S20;52GD0015A18;36
S20;52HD006A18;343
S20;52HS001I17;112
S20;52HS004A18;118
S20;52HV001K18;20
S10;01BK010K14;10
S24000;01BK010K14;15
S10;01BL012K18;11
S24000;01BL012K18;9
S10;01BM050K19;9
S24000;01BM050K19;5
S10;01BM150K19;11
S24000;01BM150K19;13
S10;01BP050K21;5
S24000;01BP050K21;11
S10;01BV050K16;5
S24000;01BV050K16;4
S10;01CD250K17;15
S24000;01CD250K17;14
S10;01CF050K22;17
S24000;01CF050K22;7
S10;01CL050K21;8
S24000;01CL050K21;4
S10;01CL175K22;11
S24000;01CL175K22;10
S10;01CM300K20;12
S24000;01CM300K20;6
S10;01CM500K20;13
S24000;01CM500K20;8
S10;01CMJ075K21;14
S24000;01CMJ075K21;15
S10;01CMR500K20;26
S24000;01CMR500K20;10
S10;01CP200K22;12
S24000;01CP200K22;13
S10;01CPR200K22;11
S24000;01CPR200K22;11
S10;01CV050K22;3
S24000;01CV050K22;9
S10;01EC200K22;13
S24000;01EC200K22;11
S10;01EM075K20;4
S24000;01EM075K20;4
S10;01HD250K17;6
S24000;01HD250K17;8
S10;01HD500K20;5
S24000;01HD500K20;10
S10;01HDR500K20;11
S24000;01HDR500K20;11
S10;01HF100K17;1
S24000;01HF100K17;11
S10;01HN0075K19;10
S24000;01HN0075K19;10
S10;01HV030K16;12
S24000;01HV030K16;4
S10;01LC250K17;9
S24000;01LC250K17;12
S10;01LT300K20;16
S24000;01LT300K20;12
S20;01BK010K14;23
S27000;01BK010K14;19
S20;01BL012K18;18
S27000;01BL012K18;13
S20;01BM050K19;13
S27000;01BM050K19;6
S20;01BM150K19;20
S27000;01BM150K19;15
S20;01BP050K21;12
S27000;01BP050K21;10
S20;01BV050K16;11
S27000;01BV050K16;5
S20;01CD250K17;19
S27000;01CD250K17;16
S20;01CF050K22;14
S27000;01CF050K22;10
S20;01CL050K21;13
S27000;01CL050K21;5
S20;01CL175K22;10
S27000;01CL175K22;12
S20;01CM300K20;12
S27000;01CM300K20;8
S20;01CM500K20;17
S27000;01CM500K20;9
S20;01CMJ075K21;14
S27000;01CMJ075K21;17
S20;01CMR500K20;19
S27000;01CMR500K20;11
S20;01CP200K22;18
S27000;01CP200K22;15
S20;01CPR200K22;16
S27000;01CPR200K22;11
S20;01CV050K22;9
S27000;01CV050K22;5
S20;01EC200K22;16
S27000;01EC200K22;14
S20;01EM075K20;4
S27000;01EM075K20;5
S20;01HD250K17;12
S27000;01HD250K17;10
S20;01HD500K20;18
S27000;01HD500K20;12
S20;01HDR500K20;15
S27000;01HDR500K20;16
S20;01HF100K17;13
S27000;01HF100K17;5
S20;01HN0075K19;16
S27000;01HN0075K19;13
S20;01HV030K16;3
S27000;01HV030K16;4
S20;01LC250K17;12
S27000;01LC250K17;17
S20;01LT300K20;20
S27000;01LT300K20;11
S21000;01BK010K14;21
S21000;01BL012K18;16
S21000;01BM050K19;13
S21000;01BM150K19;18
S21000;01BP050K21;9
S21000;01BV050K16;5
S21000;01CD250K17;16
S21000;01CF050K22;4
S21000;01CL050K21;10
S21000;01CL175K22;9
S21000;01CM300K20;6
S21000;01CM500K20;8
S21000;01CMJ075K21;18
S21000;01CMR500K20;13
S21000;01CP200K22;17
S21000;01CPR200K22;14
S21000;01CV050K22;6
S21000;01EC200K22;15
S21000;01EM075K20;5
S21000;01HD250K17;11
S21000;01HD500K20;10
S21000;01HDR500K20;13
S21000;01HF100K17;5
S21000;01HN0075K19;11
S21000;01HV030K16;4
S21000;01LC250K17;11
S21000;01LT300K20;15
S21000;01MA030K22;118
S21000;01MA075K22;17
S21000;01MA150K22;18
S21000;01MR030K14;75
S21000;01PI030K18;10
S21000;01PI150K18;14
S21000;01RL500K20;10
S21000;01RV500K20;12
S21000;01SA050KV20;8
S21000;01SA100LT20;11
S21000;01SA100LV20;10
S21000;01SA100VE20;10
S21000;01SA250LT20;10
S21000;01SA250LV20;16
S21000;01SA250VE20;17
S21000;01SA300KRO22;7
S21000;01SA500KRO22;12
S21000;01SB020K21;6
S21000;01SE125K21;10
S21000;01SL0045K13;24
S21000;01SL300LV20;6
S21000;01SL300VE20;6
S21000;01SL500LV20;6
S21000;01SL500VE20;6
S21000;11BC100G21;21
S21000;11BG140CS19;8
S90000;01BK010K14;4
S90000;01BL012K18;8
S90000;01BM050K19;10
S90000;01BM150K19;2
S90000;01BP050K21;9
S90000;01BS020K22;1
S90000;01BV050K16;7
S90000;01CD250K17;8
S90000;01CF050K22;7
S90000;01CL050K21;12
S90000;01CL175K22;7
S90000;01CL200K17;34
S90000;01CM300K20;10
S90000;01CM500K20;15
S90000;01CMJ075K21;11
S90000;01CMR500K20;16
S90000;01CP050K22;10
S90000;01CP100K21H;9
S90000;01CP200K22;8
S90000;01CPR200K22;15
S90000;01CV050K18;27
S90000;01CV050K22;12
S90000;01EC200K22;14
S90000;01EM075K20;10
S90000;01EN300KB19;14
S90000;01HD250K17;5
S90000;01HD500K20;12
S90000;01HDR500K20;17
S90000;01HF100K17;5
S90000;01HN0075K19;10
S90000;01HV030K16;3
S90000;01KTPWP21;32
S90000;01LC250K17;9
S90000;01LC250K21H;1
S90000;01LC500K20;1
S90000;01LT300K20;11
S90000;01MA075K18;6
S90000;01MA075K22;1
S90000;01MA150K18;4
S90000;01MA150K22;11
S90000;01MR030K14;10
S90000;01PI030K18;9
S90000;01PI075K18;15
S90000;01PI150K18;7
S90000;01RL500K20;13
S90000;01RV500K20;8
S90000;01SA050KL20;4
S90000;01SA050KV20;9
S90000;01SA100LT20;10
S90000;01SA100LV20;13
S90000;01SA100VE20;11
S90000;01SA250LT20;8
S90000;01SA250LV20;5
S29000;01BK010K14;17
S29000;01BL012K18;11
S29000;01BM050K19;12
S29000;01BM150K19;24
S29000;01BP050K21;15
S29000;01BV050K16;4
S29000;01CD250K17;24
S29000;01CF050K22;15
S29000;01CL050K21;7
S29000;01CL175K22;17
S29000;01CM300K20;17
S29000;01CM500K20;14
S29000;01CMJ075K21;12
S29000;01CMR500K20;10
S29000;01CP200K22;23
S29000;01CPR200K22;11
S29000;01CV050K22;12
S29000;01EC200K22;9
S29000;01EM075K20;14
S29000;01HD250K17;7
S29000;01HD500K20;14
S29000;01HDR500K20;21
S29000;01HF100K17;9
S29000;01HN0075K19;15
S29000;01HV030K16;4
S29000;01LC250K17;16
S29000;01LT300K20;15
S29000;01MA030K22;12
S29000;01MA075K22;11
S29000;01MA150K22;32
S29000;01MR030K14;12
S29000;01PI030K18;12
S29000;01PI150K18;14
S29000;01RL500K20;18
S29000;01RV500K20;12
S29000;01SA050KV20;6
S29000;01SA100LT20;16
S29000;01SA100LV20;14
S29000;01SA100VE20;18
S29000;01SA250LT20;17
S29000;01SA250LV20;15
S29000;01SA250VE20;23
S29000;01SA300KRO22;17
S29000;01SA500KRO22;9
S29000;01SB020K21;6
S29000;01SE125K21;4
S29000;01SL0045K13;9
S29000;01SL300LV20;6
S29000;01SL300VE20;1
S29000;01SL500LV20;13
S29000;01SL500VE20;15
S29000;11BG140CS19;9
S29000;11BG140SH19;10
S30000;01BK010K14;23
S30000;01BL012K18;13
S30000;01BM050K19;6
S30000;01BM150K19;18
S30000;01BV050K16;4
S30000;01CD250K17;11
S30000;01CF050K22;10
S30000;01CL050K21;4
S30000;01CL175K22;6
S30000;01CM300K20;7
S30000;01CM500K20;9
S30000;01CMJ075K21;12
S30000;01CMR500K20;20
S30000;01CP200K22;14
S30000;01CPR200K22;10
S30000;01CV050K22;5
S30000;01EC200K22;5
S30000;01EM075K20;7
S30000;01HD250K17;12
S30000;01HD500K20;15
S30000;01HDR500K20;14
S30000;01HF100K17;7
S30000;01HN0075K19;15
S30000;01HV030K16;4
S30000;01LC250K17;10
S30000;01LT300K20;10
S30000;01MA030K22;44
S30000;01MA075K22;16
S30000;01MA150K22;23
S30000;01MR030K14;8
S30000;01PI030K18;12
S30000;01PI150K18;7
S30000;01RL500K20;14
S30000;01RV500K20;22
S30000;01SA050KV20;3
S30000;01SA100LT20;14
S30000;01SA100LV20;15
S30000;01SA100VE20;21
S30000;01SA250LT20;12
S30000;01SA250LV20;18
S30000;01SA250VE20;15
S30000;01SA300KRO22;12
S30000;01SA500KRO22;12
S30000;01SE125K21;8
S30000;01SL0045K13;37
S30000;01SL300LV20;5
S30000;01SL300VE20;10
S30000;01SL500LV20;11
S30000;01SL500VE20;10
S30000;11BC100G21;3
S30000;11BG140CS19;6
S30000;11BG140SH19;9
S30000;11BG140SI19;6
S21000;38BV050A19;6
S21000;38EC015A18;4
S21000;38EV075A21;12
S21000;38FT200A21;12
S21000;38MI150A18;2
S21000;38MI150A22;18
S21000;38RC050A22;15
S21000;38UV030A18;14
S21000;38WC050A21;12
S21000;38WM065A18;4
S21000;38WS030A21;11
S21000;49BO015CS19;89
S21000;49DC004I20;19
S21000;49DH004I20;36
S21000;49HD035A15;159
S21000;49LC020A20;132
S21000;49MA010A17;57
S21000;49OR005I21;131
S21000;49POU1O21;18
S21000;49RCWM22;7
S21000;52AF006G20;159
S21000;52AS006E19;165
S21000;52AS006FV21;144
S21000;52AS006G21;125
S21000;52AS006P19;164
S21000;52BY001I19;214
S21000;52CD0015A18;112
S21000;52CL0015K21;63
S21000;52CP0015I19;136
S21000;52CP006K22;217
S21000;52CV0015K22;255
S21000;52DB001I20;174
S21000;52DC0015I20;211
S21000;52DE001I21;165
S21000;52DF002I17;143
S21000;52DH001I20;193
S21000;52DL002I21;145
S21000;52DS001I20;190
S21000;52ER002I21;135
S21000;52GD0015A18;63
S21000;52HD006A18;307
S21000;52HS001I17;190
S21000;52HS004A18;127
S21000;52K20BLAV21;2
S21000;52LC006A20;309
S21000;52LGEBAG19;92
S21000;52LGEBOX18;10
S21000;52LGENSA21;80
S21000;52LT002R21;177
S21000;52MA003K22A;224
S21000;52MC006G21;83
S21000;52MGEBAG19;180
S21000;52MGEBOX18;17
S24000;49OR005I21;93
S10;49PO1NH18;35
S10;49PO2HER20;16
S10;49POCKNO21;19
S10;49POU1O21;18
S10;49POUM21;9
S10;49SH035E21;10
S24000;49SH035E21;7
S10;49TOBACH20;26
S10;49TOTMC20;10
S10;52AF006G20;184
S24000;52AF006G20;231
S10;52AS006E19;72
S24000;52AS006E19;241
S10;52AS006FV21;290
S24000;52AS006FV21;124
S10;52AS006G21;333
S24000;52AS006G21;231
S10;52AS006P19;219
S24000;52AS006P19;104
S24000;52BGERIB18;1
S24000;52BOXMM22;1
S10;52BY001I19;293
S24000;52BY001I19;142
S10;52CD0015A18;70
S24000;52CD0015A18;51
S24000;52CL0015K21;113
S10;52CP0015I19;128
S24000;52CP0015I19;114
S10;52CP006K22;142
S24000;52CP006K22;421
S10;52CV0015K22;171
S24000;52CV0015K22;156
S10;52DB001I20;152
S24000;52DB001I20;172
S10;52DC0015I20;111
S24000;52DC0015I20;402
S10;52DE001I21;206
S24000;52DE001I21;293
S10;52DF002I17;48
S24000;52DF002I17;296
S10;52DH001I20;29
S24000;52DH001I20;304
S10;52DL002I21;112
S24000;52DL002I21;143
S10;52DS001I20;192
S24000;52DS001I20;66
S10;52ER002I21;213
S24000;52ER002I21;161
S24000;52ER006P19;10
S10;52FP0015I19;69
S10;52GD0015A18;57
S24000;52GD0015A18;59
S10;52HD006A18;333
S20;52K20BLAV21;2
S20;52LC006A20;436
S20;52LGEBAG19;36
S20;52LGEBOX18;10
S20;52LGENSA18;4
S20;52LGENSA21;99
S20;52LT002R21;61
S20;52MA003K22A;329
S20;52MC006G21;98
S20;52MGEBAG19;122
S20;52MGEBOX18;18
S20;52MGENSA21;70
S20;52MIGEBAG19;258
S20;52MOCOL316;1
S20;52MS001I20;88
S20;52OR001I21;258
S20;52PMGBOX18;2
S20;52PS0015R21;69
S20;52SGEBAG19;333
S20;52SGENSA21;139
S20;52SH006E19;161
S20;52SH006FV21;101
S20;52SH006G21;163
S20;52SH006P19;125
S20;52SP001I19;59
S20;52TS001I22;114
S20;52TS001R21;126
S20;98BBGD030VE4;87
S20;98BBGD050VE2;2
S20;98BBMA010KA3;74
S20;ACPOCVE7T00016;1
S20;SGOCVE600004;66
S20;SGOCVE600005;5
S28000;10EST500V21;65
S28000;10P250V21;31
S28000;10P500V21;64
S28000;11AS90005G21;1
S28000;11BC100G21;3
S28000;11BG140CS19;14
S28000;11BG140SH19;12
S28000;11BG140SI19;4
S28000;11BG140SL19;8
S28000;11BH050A18;4
S28000;11BO100CS19;21
S28000;11BP100I19;4
S28000;11BR100A20;4
S28000;11CD050A18;12
S28000;11CF100TR19;12
S28000;11CM030H19;16
S28000;11CM030H20;19
S28000;11CM030O21;12
S28000;11CM125I19;13
S28000;11EDT050HF22;7
S28000;11EH150A18;4
S28000;11EP010H19;4
S28000;11ET010H20;13
S28000;11ET050H20;4
S28000;11ET075O21;6
S28000;11FAG10TR19;13
S28000;11GD050A18;10
S28000;11GD250H19;13
S28000;11GD250H20;18
S28000;11GD250O21;9
S28000;11GE075I20;4
S28000;11GN195A18;14
S28000;11HE005CS19;7
S28000;11LB250HF22;20
S28000;11LC250H19;4
S28000;11LC250H20;13
S28000;11LC250O21;9
S28000;11LD200I19;11
S28000;11LH200I19;12
S28000;11LT300I20;4
S28000;11MA030A20;11
S28000;11MA030HF22;1
S28000;11MH075A19;4
S28000;11MWC200I19;4
S28000;11PEP050I20;4
S28000;11PM100SH19;4
S28000;11PM100SI19;4
S28000;11PM100SL19;4
S28000;11SA100H19;13
S28000;11SA100H20;16
S28000;11SD100CS19;13
S28000;11SD100SH19;12
S28000;11SD100SI19;4
S15;11BG140SL19;4
S15;11BH050A18;2
S15;11BO100CS19;10
S15;11BP100I19;4
S15;11BR100A20;4
S15;11CD050A18;11
S15;11CF100TR19;11
S15;11CM030H19;8
S15;11CM030H20;7
S15;11CM030O21;7
S15;11CM125I19;2
S15;11EH150A18;4
S15;11EP010H19;1
S15;11ET010H20;1
S15;11ET050H20;4
S15;11ET075O21;1
S15;11FAG10TR19;13
S15;11GD050A18;8
S15;11GD250H19;10
S15;11GD250H20;14
S15;11GD250O21;11
S15;11GE075I20;4
S15;11GN195A18;6
S15;11HE005CS19;8
S15;11LC250H19;3
S15;11LC250H20;11
S15;11LC250O21;5
S15;11LD200I19;7
S15;11LH200I19;10
S15;11LT300I20;4
S15;11MA030A20;11
S15;11MH075A19;4
S15;11MWC200I19;3
S15;11PEP050I20;4
S15;11PM100SH19;3
S15;11PM100SI19;4
S15;11PM100SL19;2
S15;11SA050O21;28
S15;11SA100H19;12
S15;11SA100H20;5
S15;11SD100CS19;13
S15;11SD100SH19;4
S15;11SD100SI19;11
S15;11SD100SL19;3
S15;11SP200CS19;7
S15;11SP200SH19;8
S15;11SP200SI19;1
S15;11SP200SL19;8
S15;11SV080I19;1
S15;15AS250VA18;12
S15;15BA500L16A;12
S15;15ET010VB19;2
S15;15ET100VB20;4
S15;15GD250L14;9
S21000;52MGENSA21;101
S21000;52MIGEBAG19;345
S21000;52MOCOL316;2
S21000;52MS001I20;94
S21000;52OR001I21;277
S21000;52PS0015R21;172
S21000;52SAMPENV18;28
S21000;52SGEBAG19;261
S21000;52SGENSA21;96
S21000;52SH006E19;170
S21000;52SH006FV21;206
S21000;52SH006G21;117
S21000;52SH006P19;182
S21000;52SP001I19;222
S21000;52TS001I22;166
S21000;52TS001R21;163
S21000;52YGERIB20;2
S21000;98BBDF015IM0;7
S21000;98BBGD030VE4;95
S21000;98BBMA010KA3;105
S21000;HKOCVE6T00055;11
S21000;SGOCVE600004;57
S21000;SGOCVE600005;5
S10;01MA030K22;5
S24000;01MA030K22;22
S10;01MA075K22;16
S24000;01MA075K22;19
S10;01MA150K22;11
S24000;01MA150K22;21
S10;01MR030K14;13
S24000;01MR030K14;12
S10;01PI030K18;1
S24000;01PI030K18;4
S10;01PI075K18;1
S10;01PI150K18;9
S24000;01PI150K18;11
S10;01RL500K20;12
S24000;01RL500K20;4
S10;01RV500K20;10
S24000;01RV500K20;4
S10;01SA050KL20;6
S10;01SA050KV20;7
S24000;01SA050KV20;12
S10;01SA100LT20;6
S24000;01SA100LT20;11
S10;01SA100LV20;10
S24000;01SA100LV20;11
S10;01SA100VE20;11
S24000;01SA100VE20;13
S10;01SA250LT20;16
S24000;01SA250LT20;13
S10;01SA250LV20;10
S24000;01SA250LV20;18
S10;01SA250VE20;14
S24000;01SA250VE20;14
S10;01SA300KRO22;4
S24000;01SA300KRO22;9
S10;01SA500KRO22;10
S24000;01SA500KRO22;6
S10;01SB020K21;8
S24000;01SB020K21;6
S10;01SE125K21;8
S24000;01SE125K21;7
S10;01SL0045K13;9
S24000;01SL0045K13;23
S10;01SL300LV20;9
S24000;01SL300LV20;4
S10;01SL300VE20;8
S24000;01SL300VE20;4
S10;01SL500LV20;4
S24000;01SL500LV20;4
S10;01SL500VE20;11
S24000;01SL500VE20;4
S10;11BC100G21;40
S24000;11BC100G21;28
S10;11BG140CS19;4
S21000;11BG140SH19;4
S21000;11BG140SI19;4
S21000;11BG140SL19;9
S21000;11BH050A18;6
S21000;11BO100CS19;15
S21000;11BP100I19;4
S21000;11BR100A20;6
S21000;11CD050A18;6
S21000;11CF100TR19;11
S21000;11CM030H19;13
S21000;11CM030H20;13
S21000;11CM030O21;16
S21000;11CM125I19;12
S21000;11EDT050HF22;3
S21000;11EH150A18;6
S21000;11EP010H19;11
S21000;11ET010H20;12
S21000;11ET050H20;9
S21000;11ET075O21;11
S21000;11FAG10TR19;10
S21000;11GD050A18;12
S21000;11GD250H19;15
S21000;11GD250H20;12
S21000;11GD250O21;13
S21000;11GE075I20;4
S21000;11GN195A18;13
S21000;11HE005CS19;4
S21000;11LB250HF22;16
S21000;11LC250H19;6
S21000;11LC250H20;6
S21000;11LC250O21;8
S21000;11LD200I19;11
S21000;11LH200I19;9
S21000;11LT300I20;5
S21000;11MA030A20;6
S21000;11MA030HF22;40
S21000;11MH075A19;4
S21000;11MWC200I19;4
S21000;11PEP050I20;4
S21000;11PM100SH19;5
S21000;11PM100SI19;4
S21000;11PM100SL19;5
S21000;11SA050O21;9
S21000;11SA100H19;11
S21000;11SA100H20;14
S21000;11SD100CS19;12
S21000;11SD100SH19;4
S21000;11SD100SI19;10
S21000;11SD100SL19;10
S21000;11SP200CS19;10
S21000;11SP200SH19;4
S21000;11SP200SI19;3
S20;01MA030K22;36
S27000;01MA030K22;37
S20;01MA075K22;17
S27000;01MA075K22;17
S20;01MA150K22;22
S27000;01MA150K22;20
S20;01MR030K14;17
S27000;01MR030K14;10
S20;01PI030K18;6
S27000;01PI030K18;5
S20;01PI075K18;1
S20;01PI150K18;17
S27000;01PI150K18;14
S20;01RL500K20;18
S27000;01RL500K20;8
S20;01RV500K20;17
S27000;01RV500K20;5
S20;01SA050KV20;8
S27000;01SA050KV20;11
S20;01SA100LT20;13
S27000;01SA100LT20;12
S20;01SA100LV20;19
S27000;01SA100LV20;11
S20;01SA100VE20;13
S27000;01SA100VE20;17
S20;01SA250LT20;17
S27000;01SA250LT20;15
S20;01SA250LV20;11
S27000;01SA250LV20;18
S20;01SA250VE20;21
S27000;01SA250VE20;16
S20;01SA300KRO22;4
S27000;01SA300KRO22;5
S20;01SA500KRO22;9
S27000;01SA500KRO22;8
S20;01SB020K21;5
S27000;01SB020K21;10
S20;01SE125K21;6
S27000;01SE125K21;5
S20;01SL0045K13;22
S27000;01SL0045K13;32
S20;01SL300LV20;6
S27000;01SL300LV20;5
S20;01SL300VE20;17
S27000;01SL300VE20;5
S20;01SL500LV20;10
S27000;01SL500LV20;6
S20;01SL500VE20;12
S27000;01SL500VE20;6
S27000;11BC100G21;33
S20;11BG140CS19;12
S27000;11BG140CS19;10
S20;11BG140SH19;6
S24000;52HD006A18;448
S10;52HS001I17;159
S24000;52HS001I17;125
S10;52HS004A18;395
S24000;52HS004A18;108
S10;52K20BLAV21;2
S24000;52K20BLAV21;2
S24000;52LASANO21;120
S10;52LC006A20;179
S24000;52LC006A20;461
S10;52LGEBAG19;55
S24000;52LGEBAG19;78
S10;52LGEBOX18;7
S24000;52LGEBOX18;10
S10;52LGENSA18;21
S24000;52LGENSA18;3
S24000;52LGENSA21;88
S10;52LT002R21;307
S24000;52LT002R21;108
S10;52MA003K22A;88
S24000;52MA003K22A;531
S10;52MC006G21;74
S24000;52MC006G21;167
S10;52MGEBAG19;31
S24000;52MGEBAG19;101
S10;52MGEBOX18;20
S24000;52MGEBOX18;13
S10;52MGENSA21;38
S24000;52MGENSA21;73
S10;52MIGEBAG19;132
S24000;52MIGEBAG19;162
S24000;52MOCOL216;1
S10;52MOCOL316;2
S24000;52MOCOL316;3
S10;52MS001I20;250
S24000;52MS001I20;290
S24000;52OR001I21;366
S10;52PMGBOX18;14
S24000;52PMGBOX18;6
S10;52PS0015R21;207
S24000;52PS0015R21;105
S10;52SGEBAG19;94
S24000;52SGEBAG19;270
S10;52SGENSA18;3
S10;52SGENSA21;50
S24000;52SGENSA21;109
S24000;52SH006E19;232
S10;52SH006E19;569
S10;52SH006FV21;686
S24000;52SH006FV21;193
S24000;52SH006G21;145
S10;52SH006G21;643
S10;52SH006P19;708
S24000;52SH006P19;186
S30000;11BG140SL19;5
S30000;11BH050A18;10
S30000;11BO100CS19;18
S30000;11BP100I19;3
S30000;11BR100A20;9
S30000;11CD050A18;9
S30000;11CF100TR19;8
S30000;11CM030H20;12
S30000;11CM030O21;18
S30000;11CM125I19;7
S30000;11EH150A18;5
S30000;11EP010H19;7
S30000;11ET010H20;12
S30000;11ET050H20;6
S30000;11ET075O21;10
S30000;11FAG10TR19;17
S30000;11GD050A18;7
S30000;11GD250H19;14
S30000;11GD250H20;10
S30000;11GD250O21;11
S30000;11GE075I20;5
S30000;11GN195A18;6
S30000;11HE005CS19;9
S30000;11LB250HF22;12
S30000;11LC250H19;11
S30000;11LC250H20;9
S30000;11LC250O21;11
S30000;11LD200I19;7
S30000;11LH200I19;7
S30000;11LT300I20;5
S30000;11MA030A20;1
S30000;11MA030HF22;14
S30000;11MH075A19;3
S30000;11MWC200I19;7
S30000;11PEP050I20;5
S30000;11PM100SH19;11
S30000;11SA050O21;16
S30000;11SA100H19;5
S30000;11SA100H20;14
S30000;11SD100CS19;11
S30000;11SD100SH19;10
S30000;11SD100SI19;11
S30000;11SD100SL19;6
S30000;11SP200CS19;8
S30000;11SP200SH19;8
S30000;11SP200SI19;4
S30000;11SP200SL19;9
S30000;11SV080I19;5
S30000;15AS250VA18;3
S30000;15BA500L16A;14
S30000;15ET010VB19;10
S30000;15ET100VA20;4
S90000;01SA250VE20;10
S90000;01SA300KRO22;12
S90000;01SA500KRO22;16
S90000;01SB020K21;10
S90000;01SE125K21;9
S90000;01SL0045K13;10
S90000;01SL300LV20;10
S90000;01SL300VE20;9
S90000;01SL500LV20;15
S90000;01SL500VE20;14
S90000;10BOWEB219;500
S90000;10BOWEB319;700
S90000;10BOWEB419;300
S90000;11BC100G21;10
S90000;11BG140CS19;13
S90000;11BG140SH19;9
S90000;11BG140SI19;12
S90000;11BG140SL19;12
S90000;11BH050A18;9
S90000;11BO100CS19;14
S90000;11BP100I19;8
S90000;11BR100A20;8
S90000;11CD050A18;10
S90000;11CF100TR19;10
S90000;11CM030H19;10
S90000;11CM030H20;10
S90000;11CM030O21;3
S90000;11CM125I19;9
S90000;11EDT050HF22;1
S90000;11EH150A18;8
S90000;11EP010H19;6
S90000;11EP050H19;5
S90000;11ET010H20;10
S90000;11ET050H20;8
S90000;11ET075O21;7
S90000;11FAG10TR19;10
S90000;11GD050A18;8
S90000;11GD250H19;12
S90000;11GD250H20;12
S90000;11GD250HF22;1
S90000;11GD250O21;9
S90000;11GE075I20;6
S90000;11GM200I19;1
S90000;11GN040A19;88
S90000;11GN195A18;5
S90000;11HE005CS19;12
S90000;11LB250HF22;9
S90000;11LC250H19;12
S90000;11LC250H20;12
S90000;11LC250O21;8
S90000;11LD200I19;9
S90000;11LH200I19;10
S90000;11LT300I20;10
S29000;11BG140SI19;6
S29000;11BG140SL19;5
S29000;11BH050A18;2
S29000;11BO100CS19;15
S29000;11BP100I19;2
S29000;11BR100A20;13
S29000;11CD050A18;12
S29000;11CF100TR19;11
S29000;11CM030H19;13
S29000;11CM030H20;16
S29000;11CM030O21;10
S29000;11CM125I19;4
S29000;11EDT050HF22;3
S29000;11EH150A18;4
S29000;11EP010H19;4
S29000;11ET010H20;4
S29000;11ET050H20;4
S29000;11ET075O21;6
S29000;11FAG10TR19;14
S29000;11GD050A18;11
S29000;11GD250H19;10
S29000;11GD250H20;20
S29000;11GD250O21;16
S29000;11GE075I20;3
S29000;11GM200I19;19
S29000;11GN195A18;8
S29000;11HE005CS19;10
S29000;11LB250HF22;17
S29000;11LC250H19;10
S29000;11LC250H20;13
S29000;11LC250O21;13
S29000;11LD200I19;12
S29000;11LH200I19;7
S29000;11LT300I20;8
S29000;11MA030A20;3
S29000;11MA030HF22;17
S29000;11MH075A19;3
S29000;11MWC200I19;4
S29000;11PEP050I20;3
S29000;11PM100SH19;3
S29000;11PM100SI19;4
S29000;11PM100SL19;4
S29000;11SA050O21;6
S29000;11SA100H19;4
S29000;11SA100H20;15
S29000;11SD100CS19;13
S29000;11SD100SH19;13
S29000;11SD100SI19;15
S29000;11SD100SL19;2
S29000;11SP200CS19;6
S29000;11SP200SH19;12
S29000;11SP200SI19;4
S29000;11SP200SL19;13
S28000;11SD100SL19;4
S28000;11SH90005G21;1
S28000;11SP200CS19;12
S28000;11SP200SH19;4
S28000;11SP200SI19;4
S28000;11SP200SL19;12
S28000;11SV080I19;4
S28000;15AS250VA18;4
S28000;15BA500L16A;16
S28000;15ET010VB19;4
S28000;15ET100VA20;4
S28000;15ET100VB20;6
S28000;15GD250L14;4
S28000;15GD250L21;13
S28000;15GD250VA20;13
S28000;15GD250VB21;14
S28000;15GD500VB21;16
S28000;15GD9000V21;1
S28000;15GM065L21;14
S28000;15GM065VB21;15
S28000;15GM280VB21;8
S28000;15GN300L11;15
S28000;15HE005L14;13
S28000;15LC250L14;14
S28000;15LC250VA20;12
S28000;15LC250VB3;16
S28000;15LM300L11;12
S28000;15MA030L11;31
S28000;15MA030VA5;3
S28000;15MA030VB3;13
S28000;15MA075L20;13
S28000;15MA075VB4;14
S28000;15RC500VB21;38
S28000;15RG500L14;17
S28000;15RG500VA20;13
S28000;15SA070VB6;3
S28000;15SE400VB5;12
S28000;15SH250VA20;10
S28000;17AF100G20;20
S28000;17AS250E19;3
S28000;17AS250FV21;4
S28000;17AS250G21;10
S28000;17AS250P19;6
S28000;17AS500E19;11
S28000;17AS500FV21;17
S28000;17AS500G21;19
S28000;17AS500P19;7
S28000;17DO050F13;13
S28000;17ER075P19;13
S28000;17HI001G19;76
S28000;17HI100G19;11
S28000;17MC200G21;11
S24000;52SP001I19;99
S10;52SP001I19;213
S10;52TS001I22;46
S24000;52TS001I22;202
S24000;52TS001R21;117
S10;52TS001R21;205
S24000;52YGERIB18;2
S24000;52YGERIB20;1
S10;52YGERIB20;5
S10;98BBDF015IM0;4
S10;98BBGD030VE4;32
S10;98BBGD050VE2;10
S10;98BBHD050A0;89
S10;98BBMA010KA3;46
S10;98BBSA050LT1;82
S24000;ACPOCVE7T00017;1
S10;ACPOCVE7T00019;3
S10;HKOCVE6T00055;5
S24000;SGOCVE600004;43
S24000;SGOCVE600005;5
S10;SGOCVE600005;6
S15;15GD250VB21;9
S15;15GD500VB21;10
S15;15GM065L21;12
S15;15GM065VB21;12
S15;15GM280VB21;6
S15;15GN300L11;10
S15;15HE005L14;3
S15;15LC250L14;13
S15;15LC250VA20;2
S15;15LC250VB3;5
S15;15LM300L11;11
S15;15MA030L11;30
S15;15MA030VA5;2
S15;15MA030VB3;1
S15;15MA075L20;9
S15;15MA075VB4;7
S15;15RC500VB21;9
S15;15RG500L14;8
S15;15RG500VA20;7
S15;15SA070VB6;1
S15;15SH250VA20;4
S15;17AF100G20;7
S15;17AS250E19;5
S15;17AS250FV21;4
S15;17AS250G21;7
S15;17AS250P19;10
S15;17AS500E19;10
S15;17AS500FV21;13
S15;17AS500G21;11
S15;17AS500P19;8
S15;17DO050F13;8
S15;17ER075P19;12
S15;17HI001G19;66
S15;17HI100G19;7
S15;17MC200G21;6
S15;17RC500E20;15
S15;17RC500G21;9
S15;17RC500P19;10
S15;17RS500E20;16
S15;17RS500FV21;12
S15;17RS500G21;2
S15;17RS500P19;6
S15;17SE100FV21;15
S15;17SH060SE21;2
S15;17SH060SG21;10
S15;17SH060SP21;1
S15;17SH300E19;10
S15;17SH300FV21;1
S15;17SH300G21;3
S15;17SH300P19;1
S15;17SH500E19;7
S15;17SH500FV21;7
S15;17SH500G21;8
S15;17SH500P19;12
S21000;11SP200SL19;6
S21000;11SV080I19;4
S21000;15AS250VA18;8
S21000;15BA500L16A;11
S21000;15ET010VB19;4
S21000;15ET100VA20;8
S21000;15ET100VB20;5
S21000;15GD250L14;1
S21000;15GD250L21;14
S21000;15GD250VA20;10
S21000;15GD250VB21;8
S21000;15GD500VB21;11
S21000;15GM065L21;15
S21000;15GM065VB21;14
S21000;15GM280VB21;12
S21000;15GN300L11;11
S21000;15HE005L14;4
S21000;15LC250L14;10
S21000;15LC250VA20;9
S21000;15LC250VB3;8
S21000;15LM300L11;8
S21000;15MA030L11;14
S21000;15MA030VA5;12
S21000;15MA030VB3;16
S21000;15MA075L20;11
S21000;15MA075VB4;10
S21000;15RC500VB21;23
S21000;15RG500L14;11
S21000;15RG500VA20;16
S21000;15SA070VB6;5
S21000;15SE400VB5;3
S21000;15SH250VA20;13
S21000;17AF100G20;23
S21000;17AS250E19;5
S21000;17AS250FV21;5
S21000;17AS250G21;6
S21000;17AS250P19;6
S21000;17AS500E19;8
S21000;17AS500FV21;10
S21000;17AS500G21;13
S21000;17AS500P19;8
S21000;17DO050F13;14
S21000;17ER075P19;11
S21000;17HI001G19;150
S21000;17HI100G19;19
S21000;17MC200G21;13
S21000;17RC500E20;23
S21000;17RC500G21;18
S21000;17RC500P19;7
S21000;17RS500E20;25
S21000;17RS500FV21;18
S21000;17RS500G21;19
S21000;17RS500P19;27
S24000;11BG140CS19;8
S10;11BG140SH19;7
S24000;11BG140SH19;4
S10;11BG140SI19;3
S24000;11BG140SI19;7
S10;11BG140SL19;8
S24000;11BG140SL19;11
S10;11BH050A18;12
S24000;11BH050A18;4
S10;11BO100CS19;17
S24000;11BO100CS19;17
S10;11BP100I19;3
S24000;11BP100I19;4
S10;11BR100A20;9
S24000;11BR100A20;4
S10;11CD050A18;11
S24000;11CD050A18;5
S10;11CF100TR19;14
S24000;11CF100TR19;4
S10;11CM030H19;15
S24000;11CM030H19;9
S10;11CM030H20;18
S24000;11CM030H20;13
S10;11CM030O21;15
S24000;11CM030O21;14
S10;11CM125I19;4
S24000;11CM125I19;3
S24000;11EDT050HF22;8
S10;11EH150A18;6
S24000;11EH150A18;4
S10;11EP010H19;4
S24000;11EP010H19;6
S10;11ET010H20;5
S24000;11ET010H20;6
S10;11ET050H20;2
S24000;11ET050H20;4
S10;11ET075O21;5
S24000;11ET075O21;6
S10;11FAG10TR19;12
S24000;11FAG10TR19;4
S10;11GD050A18;10
S24000;11GD050A18;6
S10;11GD250H19;15
S24000;11GD250H19;11
S10;11GD250H20;14
S24000;11GD250H20;12
S10;11GD250HF22;1
S10;11GD250O21;17
S24000;11GD250O21;12
S10;11GE075I20;6
S24000;11GE075I20;10
S10;11GM200I19;2
S10;11GN195A18;11
S24000;11GN195A18;10
S27000;11BG140SH19;4
S20;11BG140SI19;6
S27000;11BG140SI19;4
S20;11BG140SL19;6
S27000;11BG140SL19;7
S20;11BH050A18;5
S27000;11BH050A18;5
S20;11BO100CS19;18
S27000;11BO100CS19;16
S20;11BP100I19;6
S27000;11BP100I19;4
S20;11BR100A20;8
S27000;11BR100A20;9
S20;11CD050A18;4
S27000;11CD050A18;6
S20;11CF100TR19;15
S27000;11CF100TR19;6
S20;11CM030H19;16
S27000;11CM030H19;13
S20;11CM030H20;14
S27000;11CM030H20;19
S20;11CM030O21;15
S27000;11CM030O21;11
S20;11CM125I19;3
S27000;11CM125I19;12
S20;11EDT050HF22;7
S27000;11EDT050HF22;1
S20;11EH150A18;4
S27000;11EH150A18;2
S20;11EP010H19;3
S27000;11EP010H19;10
S20;11ET010H20;11
S27000;11ET010H20;9
S20;11ET050H20;5
S27000;11ET050H20;4
S20;11ET075O21;8
S27000;11ET075O21;5
S20;11FAG10TR19;15
S27000;11FAG10TR19;4
S20;11GD050A18;6
S27000;11GD050A18;5
S20;11GD250H19;14
S27000;11GD250H19;11
S20;11GD250H20;16
S27000;11GD250H20;16
S20;11GD250O21;18
S27000;11GD250O21;11
S20;11GE075I20;8
S27000;11GE075I20;4
S20;11GM200I19;10
S20;11GN195A18;13
S27000;11GN195A18;15
S20;11HE005CS19;5
S27000;11HE005CS19;6
S28000;17RC500E20;15
S28000;17RC500G21;20
S28000;17RC500P19;4
S28000;17RS500E20;22
S28000;17RS500FV21;24
S28000;17RS500G21;32
S28000;17RS500P19;27
S28000;17SE100FV21;20
S28000;17SH060SE21;3
S28000;17SH060SG21;4
S28000;17SH060SP21;4
S28000;17SH075G21;52
S28000;17SH300E19;12
S28000;17SH300FV21;4
S28000;17SH300G21;11
S28000;17SH300P19;14
S28000;17SH500E19;21
S28000;17SH500FV21;22
S28000;17SH500G21;21
S28000;17SH500P19;18
S28000;17VI100P19;4
S28000;20AR075O20;12
S28000;20DO050O20;3
S28000;20DO075CD20;10
S28000;20DO130HC20;4
S28000;20ET075CD20;4
S28000;20ET075HC20;3
S28000;20ET075OC20;4
S28000;20FE050H20;4
S28000;20GD250CD20;13
S28000;20GD250HC20;11
S28000;20GD250OC20;10
S28000;20GD500HC20;35
S28000;20HR050H20;4
S28000;20NV150H20;15
S28000;20SA050CD20;7
S28000;20SA050HC20;4
S28000;20SA050O20;4
S28000;24BL012CB5;11
S28000;24BL012R22;10
S28000;24BR050CB6;9
S28000;24BR050R22;13
S28000;24ET075CB21;14
S28000;24ET075R22;15
S28000;24GD250CB21;21
S28000;24GD250R22;12
S28000;24GD500R22;18
S28000;24GP010RJ21H;1
S28000;24LC250CB4;20
S28000;24LC250R22;16
S28000;24MA030CB4;28
S28000;24MA030P15;15
S28000;24MA030R22;15
S30000;15ET100VB20;4
S30000;15GD250L14;10
S30000;15GD250VA20;8
S30000;15GD250VB21;10
S30000;15GD500VB21;5
S30000;15GM065L21;16
S30000;15GM065VB21;15
S30000;15GM280VB21;4
S30000;15GN300L11;11
S30000;15HE005L14;10
S30000;15LC250L14;9
S30000;15LC250VA20;12
S30000;15LC250VB3;7
S30000;15LM300L11;9
S30000;15MA030L11;26
S30000;15MA030VA5;14
S30000;15MA030VB3;16
S30000;15MA075L20;12
S30000;15MA075VB4;5
S30000;15RC500VB21;10
S30000;15RG500L14;22
S30000;15RG500VA20;11
S30000;15SA070VB6;3
S30000;15SE400VB5;9
S30000;15SH250VA20;7
S30000;17AF100G20;10
S30000;17AS250E19;7
S30000;17AS250FV21;2
S30000;17AS250G21;4
S30000;17AS250P19;5
S30000;17AS500E19;6
S30000;17AS500FV21;8
S30000;17AS500G21;10
S30000;17AS500P19;5
S30000;17DO050F13;13
S30000;17ER075P19;6
S30000;17HI001G19;153
S30000;17HI100G19;8
S30000;17MC200G21;13
S30000;17RC500E20;9
S30000;17RC500G21;16
S30000;17RC500P19;12
S30000;17RS500E20;32
S30000;17RS500FV21;20
S30000;17RS500G21;32
S30000;17RS500P19;26
S30000;17SE100FV21;14
S30000;17SH060SE21;6
S30000;17SH060SG21;8
S30000;17SH060SP21;4
S30000;17SH075G21;35
S30000;17SH300E19;12
S30000;17SH300FV21;6
S90000;11MA030A20;9
S90000;11MA030HF22;28
S90000;11MH075A19;11
S90000;11MWC200I19;5
S90000;11PEP050I20;8
S90000;11PM100DE20H;2
S90000;11PM100SH19;8
S90000;11PM100SI19;9
S90000;11PM100SL19;8
S90000;11SA050O21;9
S90000;11SA100H19;11
S90000;11SA100H20;10
S90000;11SD100CS19;9
S90000;11SD100SH19;9
S90000;11SD100SI19;13
S90000;11SD100SL19;9
S90000;11SP200CS19;2
S90000;11SP200SH19;8
S90000;11SP200SI19;10
S90000;11SP200SL19;8
S90000;11SV080I19;5
S90000;15AS150VCL21;53
S90000;15AS250VA18;8
S90000;15BA500L16A;17
S90000;15CF150VBL21;11
S90000;15DF200VBL21;14
S90000;15DO050VA5;1
S90000;15ET100VA20;8
S90000;15ET100VB3;6
S90000;15ET100VCL21;49
S90000;15GC150VBL20;2
S90000;15GD070VB21;100
S90000;15GD075L15;11
S90000;15GD250L21;11
S90000;15GD250VA20;8
S90000;15GD250VB21;5
S90000;15GD500VB21;11
S90000;15GG150VAL21;276
S90000;15GM065L21;15
S90000;15GM065VB21;15
S90000;15GM280VB21;8
S90000;15GN300L11;9
S90000;15HE005L14;9
S90000;15LC070VB5;69
S90000;15LC075L15;20
S90000;15LC250L14;7
S90000;15LC250VA20;12
S90000;15LC250VB3;6
S90000;15LM300L11;9
S90000;15MA030L11;6
S90000;15MA030VA5;16
S90000;15MA030VAL21;67
S29000;11SV080I19;6
S29000;15BA500L16A;17
S29000;15ET010VB19;3
S29000;15ET100VA20;4
S29000;15ET100VB20;1
S29000;15GD070VB21;26
S29000;15GD250VA20;3
S29000;15GD250VB21;8
S29000;15GD500VB21;11
S29000;15GM065L21;23
S29000;15GM065VB21;27
S29000;15GM280VB21;3
S29000;15GN300L11;14
S29000;15HE005L14;5
S29000;15LC250L14;14
S29000;15LC250VA20;13
S29000;15LC250VB3;19
S29000;15LM300L11;11
S29000;15MA030L11;11
S29000;15MA030VA5;3
S29000;15MA030VB3;13
S29000;15MA075L20;15
S29000;15MA075VB4;17
S29000;15RC500VB21;28
S29000;15RG500L14;18
S29000;15RG500VA20;21
S29000;15SA070VB6;13
S29000;15SE400VB5;1
S29000;17AF100G20;23
S29000;17AS250E19;9
S29000;17AS250FV21;9
S29000;17AS250G21;9
S29000;17AS250P19;6
S29000;17AS500E19;19
S29000;17AS500FV21;23
S29000;17AS500G21;17
S29000;17AS500P19;13
S29000;17DO050F13;9
S29000;17ER075P19;18
S29000;17HI001G19;44
S29000;17HI100G19;16
S29000;17MC200G21;18
S29000;17RC500E20;5
S29000;17RC500G21;29
S29000;17RC500P19;11
S29000;17RS500E20;42
S29000;17RS500FV21;34
S29000;17RS500G21;37
S29000;17RS500P19;33
S29000;17SE100FV21;19
S29000;17SH060SE21;5
S29000;17SH060SG21;10
S29000;17SH060SP21;3
S15;17VI100P19;7
S15;20AR075O20;10
S15;20DO050O20;13
S15;20DO075CD20;1
S15;20DO130HC20;1
S15;20ET075CD20;1
S15;20ET075HC20;1
S15;20ET075OC20;2
S15;20FE050H20;4
S15;20GD250CD20;12
S15;20GD250HC20;7
S15;20GD250OC20;9
S15;20GD500HC20;18
S15;20HR050H20;6
S15;20NV150H20;7
S15;20SA050CD20;7
S15;20SA050HC20;2
S15;20SA050O20;2
S15;24BL012CB5;1
S15;24BL012R22;6
S15;24BR050CB6;7
S15;24BR050R22;14
S15;24ET075CB21;10
S15;24ET075R22;7
S15;24GD075R22;1
S15;24GD250CB21;15
S15;24GD250R22;16
S15;24GD500R22;37
S15;24LC250CB4;11
S15;24LC250R22;14
S15;24MA030CB4;15
S15;24MA030P15;9
S15;24MA030R22;14
S15;24MA030RA19;3
S15;24MA030RV19;3
S15;24MA030S6;2
S15;24MA075CB4;5
S15;24MA075R22;8
S15;24MA150R22;10
S15;24RG500C20;18
S15;24RG500R22;20
S15;24RO010CB4;1
S15;24SA050CB21;8
S15;24SA050R22;11
S15;27BP050I19;9
S15;27BY015I19;1
S00;27CN050I14;2
S15;27CP050I19;9
S15;27DB015I20;8
S15;27DC050I20;9
S15;27DCB060I17;4
S15;27DE015I21;8
S15;27DF125I17;12
S15;27DH015I20;12
S15;27DH030I20;7
S21000;17SE100FV21;18
S21000;17SH060SE21;5
S21000;17SH060SG21;5
S21000;17SH060SP21;5
S21000;17SH075G21;58
S21000;17SH300E19;11
S21000;17SH300FV21;6
S21000;17SH300G21;6
S21000;17SH300P19;12
S21000;17SH500E19;16
S21000;17SH500FV21;14
S21000;17SH500G21;16
S21000;17SH500P19;14
S21000;17VI100P19;7
S21000;20AR075O20;5
S21000;20DO050O20;10
S21000;20DO075CD20;5
S21000;20DO130HC20;4
S21000;20ET075CD20;4
S21000;20ET075HC20;4
S21000;20ET075OC20;4
S21000;20FE050H20;4
S21000;20GD250CD20;5
S21000;20GD250HC20;11
S21000;20GD250OC20;10
S21000;20GD500HC20;16
S21000;20HR050H20;4
S21000;20NV150H20;14
S21000;20SA050CD20;4
S21000;20SA050HC20;5
S21000;20SA050O20;5
S21000;24BL012CB5;16
S21000;24BL012R22;10
S21000;24BR050CB6;12
S21000;24BR050R22;12
S21000;24ET075CB21;11
S21000;24ET075R22;8
S21000;24GD250CB21;18
S21000;24GD250R22;11
S21000;24GD500R22;8
S21000;24LC250CB4;14
S21000;24LC250R22;10
S21000;24MA030CB4;17
S21000;24MA030P15;7
S21000;24MA030R22;15
S21000;24MA030RA19;9
S21000;24MA030RV19;11
S21000;24MA030S6;13
S21000;24MA075CB4;16
S21000;24MA075P15;14
S21000;24MA075R22;12
S21000;24MA150R22;12
S21000;24RG500C20;19
S28000;24MA030RA19;11
S28000;24MA030RV19;4
S28000;24MA030S6;9
S28000;24MA075CB4;13
S28000;24MA075P15;4
S28000;24MA075R22;15
S28000;24MA150R22;15
S28000;24RG500C20;36
S28000;24RG500R22;32
S28000;24RO010CB4;12
S28000;24SA050CB21;7
S28000;24SA050R22;22
S28000;27BP050I19;18
S28000;27BY015I19;12
S28000;27CP050I19;17
S28000;27DB015I20;14
S28000;27DC030I20;17
S28000;27DC050I20;16
S28000;27DCB060I17;4
S28000;27DE015I21;17
S28000;27DF125I17;19
S28000;27DH015I20;22
S28000;27DH030I20;18
S28000;27DL200I21;20
S28000;27DS030I20;12
S28000;27ER015I22;21
S28000;27ER050I21;21
S28000;27ER150I21;27
S28000;27EV200I19;16
S28000;27HC050I18;4
S28000;27HCR050I16;3
S28000;27HS030I18;4
S28000;27HSR030I16;2
S28000;27MI150I20;3
S28000;27MP050I20;33
S28000;27MP150I20;16
S28000;27MQ065I15A;4
S28000;27MS050I20;12
S28000;27OR030I21;35
S28000;27OR050I21;75
S28000;27RM300I20;18
S28000;27SP030I19;4
S28000;27TS001I20;8
S28000;29ASH240A20;13
S28000;29BP100A19;11
S28000;29EC200A21;15
S28000;29GE200A21;23
S28000;29HD250A15;19
S28000;29HD500A15;42
S28000;29HD9000A21;2
S28000;29HS100A21;9
S28000;29LC200A20US;40
S28000;29MA030A17;17
S10;11HE005CS19;6
S24000;11HE005CS19;7
S10;11LB250HF22;3
S24000;11LB250HF22;7
S10;11LC250H19;17
S24000;11LC250H19;6
S10;11LC250H20;8
S24000;11LC250H20;11
S10;11LC250O21;14
S24000;11LC250O21;8
S10;11LD200I19;9
S24000;11LD200I19;11
S10;11LH200I19;9
S24000;11LH200I19;11
S10;11LT300I20;7
S24000;11LT300I20;4
S10;11MA030A20;2
S24000;11MA030A20;4
S10;11MA030HF22;22
S24000;11MA030HF22;6
S10;11MH075A19;4
S24000;11MH075A19;5
S10;11MWC200I19;3
S24000;11MWC200I19;4
S10;11PEP050I20;8
S24000;11PEP050I20;4
S10;11PM100SH19;4
S24000;11PM100SH19;2
S10;11PM100SI19;3
S24000;11PM100SI19;4
S24000;11PM100SL19;4
S10;11SA050O21;14
S24000;11SA050O21;4
S10;11SA100H19;9
S24000;11SA100H19;4
S10;11SA100H20;10
S24000;11SA100H20;8
S10;11SD100CS19;8
S24000;11SD100CS19;4
S10;11SD100SH19;8
S24000;11SD100SH19;10
S10;11SD100SI19;5
S24000;11SD100SI19;4
S10;11SD100SL19;3
S24000;11SD100SL19;10
S10;11SP200CS19;10
S24000;11SP200CS19;8
S10;11SP200SH19;12
S24000;11SP200SH19;10
S10;11SP200SI19;3
S24000;11SP200SI19;6
S10;11SP200SL19;5
S24000;11SP200SL19;8
S20;11LB250HF22;8
S27000;11LB250HF22;1
S20;11LC250H19;4
S27000;11LC250H19;8
S20;11LC250H20;12
S27000;11LC250H20;10
S20;11LC250O21;12
S27000;11LC250O21;13
S20;11LD200I19;7
S27000;11LD200I19;6
S20;11LH200I19;11
S27000;11LH200I19;4
S20;11LT300I20;5
S27000;11LT300I20;3
S20;11MA030A20;4
S27000;11MA030A20;4
S20;11MA030HF22;16
S27000;11MA030HF22;1
S20;11MH075A19;3
S27000;11MH075A19;4
S20;11MWC200I19;4
S27000;11MWC200I19;3
S20;11PEP050I20;5
S27000;11PEP050I20;6
S20;11PM100SH19;11
S27000;11PM100SH19;4
S20;11PM100SI19;6
S27000;11PM100SI19;4
S20;11PM100SL19;10
S27000;11PM100SL19;4
S20;11SA050O21;8
S27000;11SA050O21;10
S20;11SA100H19;10
S27000;11SA100H19;10
S20;11SA100H20;12
S27000;11SA100H20;12
S20;11SD100CS19;13
S27000;11SD100CS19;12
S20;11SD100SH19;10
S27000;11SD100SH19;10
S20;11SD100SI19;13
S27000;11SD100SI19;5
S20;11SD100SL19;12
S27000;11SD100SL19;5
S20;11SP200CS19;12
S27000;11SP200CS19;12
S20;11SP200SH19;6
S27000;11SP200SH19;4
S20;11SP200SI19;12
S27000;11SP200SI19;4
S20;11SP200SL19;12
S27000;11SP200SL19;8
S20;11SV080I19;5
S30000;17SH300G21;10
S30000;17SH300P19;6
S30000;17SH500E19;9
S30000;17SH500FV21;12
S30000;17SH500G21;12
S30000;17SH500P19;12
S30000;17VI100P19;6
S30000;20AR075O20;8
S30000;20DO050O20;10
S30000;20DO075CD20;7
S30000;20ET075CD20;6
S30000;20ET075HC20;5
S30000;20ET075OC20;4
S30000;20FE050H20;5
S30000;20GD250CD20;9
S30000;20GD250HC20;12
S30000;20GD250OC20;6
S30000;20GD500HC20;11
S30000;20HR050H20;5
S30000;20NV150H20;8
S30000;20SA050CD20;3
S30000;20SA050HC20;2
S30000;24BL012CB5;9
S30000;24BL012R22;13
S30000;24BR050CB6;15
S30000;24BR050R22;19
S30000;24ET075CB21;12
S30000;24ET075R22;10
S30000;24GD250CB21;12
S30000;24GD250R22;15
S30000;24GD500R22;8
S30000;24LC250CB4;12
S30000;24LC250R22;11
S30000;24MA030CB4;35
S30000;24MA030P15;10
S30000;24MA030R22;19
S30000;24MA030RA19;3
S30000;24MA030RV19;9
S30000;24MA030S6;15
S30000;24MA075CB4;7
S30000;24MA075P15;10
S30000;24MA075R22;16
S30000;24MA150R22;1
S30000;24RG500C20;9
S30000;24RG500R22;20
S30000;24RO010CB4;10
S30000;24SA050CB21;12
S30000;24SA050R22;10
S30000;27BP050I19;8
S30000;27BY015I19;7
S30000;27CP050I19;12
S30000;27DB015I20;15
S30000;27DC030I20;11
S15;27DL200I21;7
S15;27DS030I20;11
S15;27ER015I22;9
S15;27ER050I21;12
S15;27ER150I21;12
S15;27EV200I19;12
S15;27FP050I19;4
S15;27HC050I18;4
S15;27HCR050I16;1
S15;27HS030I18;4
S15;27HSR030I16;2
S15;27MI150I20;1
S15;27MP150I20;13
S15;27MQ065I15A;3
S15;27MS050I20;10
S15;27OR030I21;23
S15;27OR050I21;27
S15;27RM300I20;13
S15;27SP030I19;2
S15;27TS001I20;1
S15;29ASH240A20;3
S15;29BP100A19;2
S15;29EC200A21;10
S15;29GE200A21;8
S15;29HD250A15;12
S15;29HD500A15;24
S15;29HS100A21;2
S15;29LC200A20US;26
S15;29MA030A17;10
S15;29MA075A21;6
S15;29MAV075A19;3
S15;29RC200A20;9
S15;29RH500A15;8
S15;29SA050A21;12
S15;29SE125A21;11
S15;29SH240A20;12
S15;29VC240A22;10
S15;38BV050A19;2
S15;38EC015A18;4
S15;38EV075A21;11
S15;38FT200A21;4
S15;38MI150A18;2
S15;38RC050A18;3
S15;38UV030A18;4
S15;38WC050A21;4
S15;38WM065A18;3
S15;38WS030A21;5
S15;49CP004I19;1
S90000;15MA030VB3;10
S90000;15MA075L20;12
S90000;15MA075VB4;9
S90000;15MF075VM20H;53
S90000;15RC500VB21;24
S90000;15RG500L14;8
S90000;15RG500VA20;9
S90000;15SA070VB6;6
S90000;15SE400VB5;8
S90000;15SH250VA20;6
S90000;17AF100G20;10
S90000;17AS075E19;170
S90000;17AS075FV21;83
S90000;17AS075G21;12
S90000;17AS075P19;90
S90000;17AS250E19;9
S90000;17AS250FV21;11
S90000;17AS250G18;47
S90000;17AS250G21;9
S90000;17AS250P19;12
S90000;17AS500E19;13
S90000;17AS500FV21;11
S90000;17AS500G21;8
S90000;17AS500P19;14
S90000;17CS150P19;1
S90000;17DO050F13;9
S90000;17ER075P19;11
S90000;17HI001G19;100
S90000;17HI100G19;11
S90000;17MC200G21;8
S90000;17RC500E20;14
S90000;17RC500G21;11
S90000;17RC500P19;17
S90000;17RS500E20;9
S90000;17RS500FV21;12
S90000;17RS500G21;9
S90000;17RS500P19;9
S90000;17SE100FV21;8
S90000;17SE125D15;1
S90000;17SH060SE21;7
S90000;17SH060SG21;8
S90000;17SH060SP21;9
S90000;17SH075E19;75
S90000;17SH075FV21;7
S90000;17SH075G21;7
S90000;17SH075P19;11
S90000;17SH300E19;10
S90000;17SH300FV21;12
S90000;17SH300G18;1
S90000;17SH300G21;11
S90000;17SH300P19;7
S90000;17SH500E19;10
S90000;17SH500FV21;6
S29000;17SH075G21;3
S29000;17SH300E19;14
S29000;17SH300G21;8
S29000;17SH300P19;12
S29000;17SH500E19;32
S29000;17SH500FV21;22
S29000;17SH500G21;13
S29000;17SH500P19;13
S29000;17VI100P19;15
S29000;20AR075O20;20
S29000;20DO050O20;3
S29000;20DO075CD20;13
S29000;20DO130HC20;1
S29000;20ET075CD20;4
S29000;20ET075HC20;2
S29000;20ET075OC20;1
S29000;20FE050H20;4
S29000;20GD250CD20;17
S29000;20GD250HC20;16
S29000;20GD250OC20;8
S29000;20GD500HC20;3
S29000;20HR050H20;4
S29000;20NV150H20;18
S29000;20SA050CD20;4
S29000;20SA050HC20;4
S29000;20SA050O20;3
S29000;24BL012CB5;8
S29000;24BL012R22;10
S29000;24BR050CB6;15
S29000;24BR050R22;16
S29000;24ET075CB21;10
S29000;24ET075R22;8
S29000;24GD250CB21;17
S29000;24GD250R22;13
S29000;24GD500R22;15
S29000;24LC250CB4;12
S29000;24LC250R22;10
S29000;24MA030CB4;17
S29000;24MA030P15;14
S29000;24MA030R22;11
S29000;24MA030RA19;2
S29000;24MA030RV19;3
S29000;24MA030S6;5
S29000;24MA075CB4;19
S29000;24MA075P15;4
S29000;24MA075R22;14
S29000;24MA150R22;15
S29000;24RG500C20;23
S29000;24RG500R22;22
S29000;24RO010CB4;14
S29000;24SA050CB21;21
S29000;24SA050CB6;3
S29000;24SA050R22;13
S21000;24RG500R22;17
S21000;24RO010CB4;9
S21000;24SA050CB21;12
S21000;24SA050R22;12
S21000;27BP050I19;6
S21000;27BY015I19;11
S21000;27CP050I19;17
S21000;27DB015I20;12
S21000;27DC030I20;10
S21000;27DC050I20;15
S21000;27DCB060I17;11
S21000;27DE015I21;16
S21000;27DF125I17;16
S21000;27DH015I20;19
S21000;27DH030I20;13
S21000;27DL200I21;12
S21000;27DS030I20;11
S21000;27ER015I22;30
S21000;27ER050I21;14
S21000;27ER150I21;17
S21000;27EV200I19;15
S21000;27FP050I19;2
S21000;27HC050I18;5
S21000;27HCR050I16;6
S21000;27HS030I18;4
S21000;27HSR030I16;6
S21000;27MI150I20;4
S21000;27MP050I20;46
S21000;27MP150I20;10
S21000;27MQ065I15A;4
S21000;27MS050I20;11
S21000;27OR030I21;25
S21000;27OR050I21;43
S21000;27RM300I20;15
S21000;27SP030I19;4
S21000;27TS001I20;4
S21000;29ASH240A20;5
S21000;29BP100A19;6
S21000;29EC200A21;12
S21000;29GE200A21;16
S21000;29HD250A15;34
S21000;29HD500A15;30
S21000;29HS100A21;12
S21000;29LC200A20US;13
S21000;29MA030A17;23
S21000;29MA075A21;18
S21000;29RC200A20;55
S21000;29RH500A15;83
S21000;29SA050A21;10
S21000;29SE125A21;14
S21000;29SH240A20;14
S21000;29VC240A22;12
S15;49MA010R18;1
S28000;29MA075A21;4
S28000;29RC200A20;50
S28000;29RH500A15;59
S28000;29SA050A21;5
S28000;29SE125A21;16
S28000;29SH240A20;15
S28000;29VC240A22;14
S28000;38BV050A19;8
S28000;38EC015A18;4
S28000;38EV075A21;14
S28000;38FT200A21;12
S28000;38MI150A22;17
S28000;38RC050A18;6
S28000;38RC050A22;18
S28000;38UV030A18;11
S28000;38WC050A21;15
S28000;38WM065A18;2
S28000;38WS030A21;15
S28000;49BO015CS19;74
S28000;49DC004I20;41
S28000;49DH004I20;19
S28000;49HD035A15;166
S28000;49LC020A20;137
S28000;49MA010A17;96
S28000;49MS008I20;72
S28000;49OR005I21;68
S28000;49POU1O21;36
S28000;49RCWM22;6
S28000;52AF006G20;103
S28000;52AS006E19;115
S28000;52AS006FV21;261
S28000;52AS006G21;174
S28000;52AS006P19;88
S28000;52BY001I19;200
S28000;52CD0015A18;119
S28000;52CL0015K21;128
S28000;52CP0015I19;169
S28000;52CP006K22;421
S28000;52CV0015K22;336
S28000;52DB001I20;179
S28000;52DC0015I20;285
S28000;52DE001I21;189
S28000;52DF002I17;432
S28000;52DH001I20;275
S28000;52DL002I21;147
S28000;52DS001I20;77
S28000;52ER002I21;134
S28000;52FP0015I19;90
S28000;52GD0015A18;84
S28000;52HD006A18;484
S28000;52HS001I17;94
S28000;52HS004A18;150
S28000;52K20BLAV21;6
S27000;11SV080I19;5
S20;15AS250VA18;5
S27000;15AS250VA18;11
S20;15BA500L16A;18
S27000;15BA500L16A;9
S20;15ET010VB19;5
S27000;15ET010VB19;4
S20;15ET100VA20;5
S27000;15ET100VA20;3
S20;15ET100VB20;5
S27000;15ET100VB20;4
S20;15GD250L14;5
S27000;15GD250L14;3
S20;15GD250L21;25
S27000;15GD250L21;16
S20;15GD250VA20;10
S27000;15GD250VA20;6
S20;15GD250VB21;15
S27000;15GD250VB21;12
S20;15GD500VB21;15
S27000;15GD500VB21;16
S20;15GM065L21;11
S27000;15GM065L21;13
S20;15GM065VB21;21
S27000;15GM065VB21;11
S20;15GM280VB21;12
S27000;15GM280VB21;6
S20;15GN300L11;19
S27000;15GN300L11;9
S20;15HE005L14;12
S27000;15HE005L14;5
S20;15LC250L14;13
S27000;15LC250L14;11
S20;15LC250VA20;6
S27000;15LC250VA20;5
S20;15LC250VB3;15
S27000;15LC250VB3;16
S20;15LM300L11;17
S27000;15LM300L11;5
S20;15MA030L11;19
S27000;15MA030L11;20
S20;15MA030VA5;10
S27000;15MA030VA5;5
S20;15MA030VB3;9
S27000;15MA030VB3;9
S20;15MA075L20;13
S27000;15MA075L20;12
S20;15MA075VB4;6
S27000;15MA075VB4;13
S20;15RC500VB21;20
S27000;15RC500VB21;15
S20;15RG500L14;18
S27000;15RG500L14;10
S10;11SV080I19;5
S24000;11SV080I19;4
S10;15AS250VA18;9
S24000;15AS250VA18;4
S10;15BA500L16A;9
S24000;15BA500L16A;12
S24000;15DF200VBL21;10
S10;15ET010VB19;2
S24000;15ET010VB19;4
S10;15ET100VA20;2
S24000;15ET100VA20;6
S10;15ET100VB20;1
S24000;15ET100VB20;5
S10;15GD250L14;8
S24000;15GD250L21;10
S24000;15GD250VA20;4
S10;15GD250VA20;13
S10;15GD250VB21;13
S24000;15GD250VB21;7
S24000;15GD500VB21;12
S10;15GD500VB21;16
S10;15GM065L21;7
S24000;15GM065L21;13
S24000;15GM065VB21;15
S10;15GM065VB21;15
S10;15GM280VB21;4
S24000;15GM280VB21;3
S24000;15GN300L11;11
S10;15GN300L11;9
S10;15HE005L14;4
S24000;15HE005L14;4
S24000;15LC250L14;4
S10;15LC250L14;12
S10;15LC250VA20;13
S24000;15LC250VA20;10
S24000;15LC250VB3;9
S10;15LC250VB3;10
S10;15LM300L11;14
S24000;15LM300L11;6
S24000;15MA030L11;24
S10;15MA030L11;21
S10;15MA030VA5;9
S24000;15MA030VA5;6
S24000;15MA030VB3;12
S10;15MA030VB3;4
S10;15MA075L20;10
S24000;15MA075L20;10
S24000;15MA075VB4;12
S10;15MA075VB4;14
S10;15RC500VB21;14
S24000;15RC500VB21;17
S24000;15RG500L14;10
S10;15RG500L14;9
S28000;52LC006A20;658
S28000;52LGEBAG19;166
S28000;52LGEBOX18;7
S28000;52LGENSA21;145
S28000;52LT002R21;146
S28000;52MA003K22A;239
S28000;52MC006G21;224
S28000;52MGEBAG19;91
S28000;52MGEBOX18;26
S28000;52MGENSA21;25
S28000;52MIGEBAG19;362
S28000;52MOCOL216;1
S28000;52MOCOL316;3
S28000;52MS001I20;100
S28000;52OR001I21;736
S28000;52PMGBOX18;8
S28000;52PS0015R21;137
S28000;52SAMPENV18;516
S28000;52SGEBAG19;444
S28000;52SGENSA21;92
S28000;52SH006E19;218
S28000;52SH006FV21;178
S28000;52SH006G21;190
S28000;52SH006P19;279
S28000;52SP001I19;229
S28000;52TS001I22;304
S28000;52TS001R21;157
S28000;52YGERIB20;5
S28000;98BBGD030VE4;67
S28000;98BBHD050A0;23
S28000;98BBMA010KA3;110
S28000;98BBSA050LT1;13
S28000;ACPOCVEC00005;251
S28000;HKOCVE6T00055;13
S28000;SGOCVE600004;96
S28000;SGOCVE600005;5
S30000;27DC050I20;17
S30000;27DCB060I17;5
S30000;27DE015I21;13
S30000;27DF125I17;17
S30000;27DH015I20;23
S30000;27DH030I20;18
S30000;27DL200I21;9
S30000;27DS030I20;9
S30000;27ER015I22;19
S30000;27ER050I21;10
S30000;27ER150I21;18
S30000;27EV200I19;7
S30000;27FP050I19;4
S30000;27HC050I18;5
S30000;27HCR050I16;4
S30000;27HS030I18;4
S30000;27HSR030I16;4
S30000;27MI150I20;5
S30000;27MP050I20;36
S30000;27MP150I20;8
S30000;27MQ065I15A;6
S30000;27MS050I20;11
S30000;27OR030I21;30
S30000;27OR050I21;44
S30000;27RM300I20;10
S30000;27SP030I19;6
S30000;29ASH240A20;8
S30000;29BP100A19;5
S30000;29EC200A21;8
S30000;29GE200A21;12
S30000;29HD250A15;21
S30000;29HD500A15;43
S30000;29HS100A21;19
S30000;29LC200A20US;24
S30000;29MA030A17;12
S30000;29MA075A21;23
S30000;29RC200A20;28
S30000;29RH500A15;34
S30000;29SA050A21;10
S30000;29SE125A21;4
S30000;29SH240A20;6
S30000;29VC240A22;10
S30000;38BV050A19;4
S30000;38EC015A18;7
S30000;38EV075A21;9
S30000;38FT200A21;5
S30000;38MI150A22;17
S30000;38RC050A22;12
S30000;38UV030A18;6
S30000;38WC050A21;6
S30000;38WM065A18;5
S30000;38WS030A21;9
S30000;49BO015CS19;86
S15;49OR005I21;50
S15;49POU1O21;29
S15;52AF006G20;81
S15;52AS006E19;203
S15;52AS006FV21;192
S15;52AS006G21;240
S15;52AS006P19;106
S15;52BY001I19;185
S15;52CD0015A18;49
S15;52CL0015K21;45
S15;52CP0015I19;92
S15;52CP006K22;248
S15;52CV0015K18;63
S15;52CV0015K22;30
S15;52DB001I20;100
S15;52DC0015I20;253
S15;52DE001I21;167
S15;52DF002I17;159
S15;52DH001I20;181
S15;52DL002I21;114
S15;52DS001I20;86
S15;52ER002I21;221
S15;52GD0015A18;99
S15;52HD006A18;327
S15;52HS001I17;92
S15;52HS004A18;125
S15;52K20BIM21;50
S15;52K20BLAV21;2
S15;52LC006A20;298
S15;52LGEBAG19;95
S15;52LGEBOX18;7
S15;52LGENSA21;64
S15;52LT002R21;81
S15;52MA003K16A;165
S15;52MA003K22A;167
S15;52MC006G21;136
S15;52MGEBAG19;182
S15;52MGEBOX18;13
S15;52MGENSA21;47
S15;52MIGEBAG19;68
S15;52MOCOL216;1
S15;52MOCOL316;1
S15;52MS001I20;103
S15;52OR001I21;147
S15;52PS0015R21;94
S15;52SGEBAG19;90
S15;52SGENSA21;13
S15;52SH006E19;222
S15;52SH006FV21;187
S15;52SH006G21;257
S15;52SH006P19;112
S15;52SP001I19;118
S15;52TS001I22;228
S15;52TS001R21;98
S15;52YGERIB20;1
S29000;27BP050I19;3
S29000;27BY015I19;1
S29000;27CP050I19;15
S29000;27DB015I20;21
S29000;27DC030I20;12
S29000;27DC050I20;16
S29000;27DCB060I17;4
S29000;27DE015I21;13
S29000;27DF125I17;18
S29000;27DH015I20;11
S29000;27DH030I20;21
S29000;27DL200I21;14
S29000;27DS030I20;3
S29000;27ER015I22;8
S29000;27ER050I21;15
S29000;27ER150I21;19
S29000;27EV200I19;13
S29000;27FP050I19;4
S29000;27HC050I18;3
S29000;27HCR050I16;15
S29000;27HS030I18;4
S29000;27HSR030I16;16
S29000;27MI150I20;8
S29000;27MP050I20;3
S29000;27MP150I20;17
S29000;27MQ065I15A;4
S29000;27MS050I20;15
S29000;27OR030I21;14
S29000;27OR050I21;25
S29000;27RM300I20;18
S29000;27SP030I19;8
S29000;29ASH240A20;6
S29000;29BP100A19;3
S29000;29EC200A21;17
S29000;29GE200A21;23
S29000;29HD250A15;14
S29000;29HD500A15;43
S29000;29HS100A21;23
S29000;29LC200A20US;35
S29000;29MA030A17;10
S29000;29MA075A21;12
S29000;29RC200A20;68
S29000;29RH500A15;99
S29000;29SA050A21;16
S29000;29SE125A21;12
S29000;29SH240A20;19
S29000;29VC240A22;18
S29000;38BV050A19;5
S29000;38EC015A18;8
S29000;38EV075A21;6
S29000;38FT200A21;5
S29000;38MI150A22;19
S29000;38RC050A18;4
S90000;17SH500G21;9
S90000;17SH500P19;6
S90000;17VI100P19;10
S90000;20AR075O20;10
S90000;20DO050O20;11
S90000;20DO075CD20;9
S90000;20DO130HC20;5
S90000;20ET075CD20;10
S90000;20ET075HC20;8
S90000;20ET075OC20;9
S90000;20FE050H20;14
S90000;20GD250CD20;11
S90000;20GD250HC20;6
S90000;20GD250OC20;11
S90000;20GD500HC20;12
S90000;20HR050H20;8
S90000;20NV150H20;6
S90000;20SA050CD20;10
S90000;20SA050HC20;11
S90000;20SA050O20;7
S90000;24BL012CB5;10
S90000;24BL012R22;1
S90000;24BR050C21;44
S90000;24BR050CB6;9
S90000;24BR050R19;1
S90000;24BR050R22;10
S90000;24EDT10C21;65
S90000;24EF050R18;1
S90000;24ET050R18;1
S90000;24ET075CB21;7
S90000;24ET075R22;7
S90000;24GD075CB5;32
S90000;24GD250CB21;9
S90000;24GD250R22;14
S90000;24GD500R19;4
S90000;24GD500R22;14
S90000;24GM030C21;58
S90000;24LC075R22;110
S90000;24LC250C21;30
S90000;24LC250CB4;10
S90000;24LC250CBL22;3
S90000;24LC250R22;10
S90000;24MA030CB4;9
S90000;24MA030CBL22;3
S90000;24MA030P15;8
S90000;24MA030R22;12
S90000;24MA030RA19;9
S90000;24MA030RE19;10
S90000;24MA030RV19;8
S90000;24MA030S6;6
S90000;24MA075CB4;9
S90000;24MA075P15;7
S90000;24MA075R18;11
S15;ACPOCVE7T00015;1
S15;ACPOCVE7T00017;2
S15;SGOCVE600004;1
S15;SGOCVE600005;5
S20;15RG500VA20;16
S27000;15RG500VA20;11
S20;15SA070VB6;4
S27000;15SA070VB6;4
S20;15SE400VB5;12
S27000;15SE400VB5;5
S20;15SH250VA20;15
S27000;15SH250VA20;5
S20;17AF100G20;21
S27000;17AF100G20;16
S20;17AS075E19;23
S20;17AS250E19;6
S27000;17AS250E19;10
S20;17AS250FV21;6
S27000;17AS250FV21;6
S20;17AS250G21;8
S27000;17AS250G21;10
S20;17AS250P19;6
S27000;17AS250P19;8
S20;17AS500E19;13
S27000;17AS500E19;9
S20;17AS500FV21;16
S27000;17AS500FV21;10
S20;17AS500G21;16
S27000;17AS500G21;17
S20;17AS500P19;7
S27000;17AS500P19;6
S20;17CS150P19;6
S20;17DO050F13;16
S27000;17DO050F13;10
S20;17ER075P19;6
S27000;17ER075P19;5
S20;17HI001G19;85
S27000;17HI001G19;50
S20;17HI100G19;17
S27000;17HI100G19;14
S20;17MC200G21;16
S27000;17MC200G21;12
S20;17RC500E20;12
S27000;17RC500E20;13
S20;17RC500G21;19
S27000;17RC500G21;28
S20;17RC500P19;10
S27000;17RC500P19;15
S20;17RS500E20;31
S27000;17RS500E20;23
S20;17RS500FV21;22
S27000;17RS500FV21;17
S20;17RS500G21;25
S27000;17RS500G21;32
S20;17RS500P19;35
S27000;17RS500P19;26
S20;17SE100FV21;25
S27000;17SE100FV21;14
S10;15RG500VA20;16
S24000;15RG500VA20;11
S24000;15SA070VB6;4
S10;15SA070VB6;5
S10;15SE400VB5;4
S24000;15SE400VB5;4
S24000;15SH250VA20;7
S10;15SH250VA20;9
S10;17AF100G20;11
S24000;17AF100G20;13
S10;17AS075E19;21
S10;17AS250E19;5
S24000;17AS250E19;6
S24000;17AS250FV21;6
S10;17AS250FV21;5
S10;17AS250G21;5
S24000;17AS250G21;9
S24000;17AS250P19;6
S10;17AS250P19;6
S10;17AS500E19;11
S24000;17AS500E19;7
S24000;17AS500FV21;11
S10;17AS500FV21;9
S10;17AS500G21;9
S24000;17AS500G21;13
S24000;17AS500P19;8
S10;17AS500P19;8
S10;17DO050F13;14
S24000;17DO050F13;10
S24000;17ER075P19;5
S10;17ER075P19;5
S10;17HI001G19;219
S24000;17HI001G19;145
S24000;17HI100G19;13
S10;17HI100G19;9
S10;17MC200G21;5
S24000;17MC200G21;8
S24000;17RC500E20;11
S24000;17RC500G21;14
S10;17RC500G21;7
S10;17RC500P19;6
S24000;17RC500P19;6
S24000;17RS500E20;19
S10;17RS500E20;12
S10;17RS500FV21;8
S24000;17RS500FV21;22
S24000;17RS500G21;19
S10;17RS500G21;13
S10;17RS500P19;10
S24000;17RS500P19;22
S24000;17SE100FV21;13
S10;17SE100FV21;14
S10;17SH060SE21;6
S24000;17SH060SE21;4
S30000;49DC004I20;6
S30000;49DH004I20;44
S30000;49HD035A15;170
S30000;49LC020A20;65
S30000;49MA010A17;30
S30000;49OR005I21;154
S30000;49POCKNO21;49
S30000;49POU1O21;18
S30000;52AF006G20;168
S30000;52AS006E19;168
S30000;52AS006FV21;131
S30000;52AS006G21;233
S30000;52AS006P19;55
S30000;52BY001I19;120
S30000;52CD0015A18;94
S30000;52CL0015K21;73
S30000;52CP0015I19;185
S30000;52CP006K22;149
S30000;52CV0015K22;91
S30000;52DB001I20;114
S30000;52DC0015I20;332
S30000;52DE001I21;168
S30000;52DF002I17;223
S30000;52DH001I20;367
S30000;52DL002I21;175
S30000;52DS001I20;136
S30000;52ER002I21;167
S30000;52GD0015A18;115
S30000;52HD006A18;345
S30000;52HS001I17;99
S30000;52HS004A18;211
S30000;52LC006A20;349
S30000;52LGEBAG19;37
S30000;52LGEBOX18;14
S30000;52LGENSA21;130
S30000;52LT002R21;67
S30000;52MA003K22A;106
S30000;52MC006G21;123
S30000;52MGEBAG19;107
S30000;52MGEBOX18;6
S30000;52MGENSA21;126
S30000;52MIGEBAG19;198
S30000;52MOCOL316;2
S30000;52MS001I20;131
S30000;52OR001I21;418
S30000;52PMARRON;6
S30000;52PMGBOX18;5
S30000;52PS0015R21;128
S30000;52SGEBAG19;524
S30000;52SGENSA21;211
S30000;52SH006E19;223
S30000;52SH006FV21;268
S30000;52SH006G21;250
S30000;52SH006P19;197
S30000;52SP001I19;131
S30000;52TS001I22;209
S30000;52TS001R21;180
S30000;52YGERIB20;5
S30000;98BBGD030VE4;65
S30000;98BBMA010KA3;41
S30000;HKOCVE6T00055;7
S30000;SGOCVE600004;30
S90000;24MA075R22;19
S90000;24MA150R22;13
S90000;24RG500C20;14
S90000;24RG500R22;11
S90000;24RO010CB4;9
S90000;24RO010R18;10
S90000;24SA050CB21;10
S90000;24SA050CB6;1
S90000;24SA050R18;2
S90000;24SA050R22;11
S90000;27BP050I19;11
S90000;27BY015I19;9
S90000;27CP050I19;8
S90000;27DB015I20;8
S90000;27DC050I20;8
S90000;27DCB060I17;7
S90000;27DE015I13US;1
S90000;27DE015I21;10
S90000;27DF125I17;12
S90000;27DH015I20;6
S90000;27DH030I20;11
S90000;27DL200I21;11
S90000;27DS030I20;9
S90000;27ER015I22;10
S90000;27ER050I21;10
S90000;27ER150I21;11
S90000;27EV200I19;6
S90000;27FP050I19;2
S90000;27HC050I18;4
S90000;27HCR050I16;4
S90000;27HS030I18;4
S90000;27HSR030I16;4
S90000;27MI150I20;14
S90000;27MP050I20;17
S90000;27MP150I20;15
S90000;27MQ065I15A;8
S90000;27MS050I20;11
S90000;27OR030I19;35
S90000;27OR030I21;16
S90000;27OR050I21;8
S90000;27RM300I20;9
S90000;27SP030I19;8
S90000;27TS001I20;679
S90000;29ASH240A20;9
S90000;29BP100A19;9
S90000;29EC200A21;10
S90000;29GE200A21;11
S90000;29HD075A15;3
S90000;29HD250A15;11
S90000;29HD500A15;38
S90000;29HS100A21;10
S90000;29HS100A22SM;15
S90000;29LC200A20US;14
S29000;38RC050A22;18
S29000;38UV030A18;7
S29000;38WC050A21;13
S29000;38WM065A18;6
S29000;38WS030A21;5
S29000;49CP020K22;46
S29000;49DH004I20;6
S29000;49HD035A15;123
S29000;49LC020A20;28
S29000;49MA010A17;28
S29000;49MA010K22;46
S29000;49MA010VB3;26
S29000;49OR005I21;34
S29000;49PADCL20;93
S29000;49PMENNO21;46
S29000;49POU1O21;22
S29000;49POUCB21;3
S29000;49RCWM22;3
S29000;52AF006G20;62
S29000;52AS006E19;68
S29000;52AS006FV21;97
S29000;52AS006G21;132
S29000;52AS006P19;130
S29000;52BY001I19;183
S29000;52CD0015A18;77
S29000;52CL0015K21;77
S29000;52CP0015I19;37
S29000;52CP006K22;86
S29000;52CV0015K22;163
S29000;52DB001I20;84
S29000;52DC0015I20;41
S29000;52DE001I21;33
S29000;52DF002I17;91
S29000;52DH001I20;14
S29000;52DL002I21;128
S29000;52DS001I20;13
S29000;52ER002I21;15
S29000;52EV002I19;50
S29000;52FP0015I19;5
S29000;52GD0015A18;12
S29000;52HD006A18;75
S29000;52HS001I17;57
S29000;52HS004A18;97
S29000;52K20BLAV21;2
S29000;52LC006A20;57
S29000;52LGEBOX18;7
S29000;52LGENSA21;97
S29000;52LT002R21;113
S29000;52MA003K22A;71
S29000;52MC006G21;34
S29000;52MGEBOX18;3
S29000;52MGENSA21;84
S29000;52MOCOL316;1
S24000;17SH060SG21;4
S10;17SH060SG21;4
S10;17SH060SP21;8
S24000;17SH060SP21;4
S10;17SH075E19;17
S10;17SH075G21;57
S24000;17SH075G21;10
S24000;17SH300E19;10
S10;17SH300E19;4
S10;17SH300FV21;4
S24000;17SH300FV21;12
S24000;17SH300G21;10
S10;17SH300G21;8
S10;17SH300P19;6
S24000;17SH300P19;6
S24000;17SH500E19;17
S10;17SH500E19;14
S10;17SH500FV21;13
S24000;17SH500FV21;19
S24000;17SH500G21;14
S10;17SH500G21;6
S10;17SH500P19;14
S24000;17SH500P19;10
S24000;17VI100P19;4
S10;17VI100P19;6
S10;20AR075O20;1
S24000;20AR075O20;5
S24000;20DO050O20;4
S10;20DO050O20;5
S10;20DO075CD20;6
S24000;20DO075CD20;4
S24000;20DO130HC20;4
S10;20DO130HC20;1
S10;20ET075CD20;5
S24000;20ET075CD20;4
S24000;20ET075HC20;4
S10;20ET075HC20;3
S24000;20ET075OC20;4
S24000;20FE050H20;4
S10;20FE050H20;4
S10;20GD250CD20;9
S24000;20GD250CD20;8
S24000;20GD250HC20;4
S10;20GD250HC20;8
S10;20GD250OC20;11
S24000;20GD250OC20;9
S24000;20GD500HC20;12
S10;20GD500HC20;9
S10;20HR050H20;3
S24000;20HR050H20;8
S24000;20NV150H20;4
S10;20NV150H20;9
S10;20SA050CD20;4
S20;17SH060SE21;6
S27000;17SH060SE21;6
S20;17SH060SG21;8
S27000;17SH060SG21;6
S20;17SH060SP21;8
S27000;17SH060SP21;10
S20;17SH075G21;47
S27000;17SH075G21;3
S20;17SH300E19;8
S27000;17SH300E19;10
S20;17SH300FV21;12
S27000;17SH300FV21;13
S20;17SH300G21;11
S27000;17SH300G21;12
S20;17SH300P19;6
S27000;17SH300P19;8
S20;17SH500E19;19
S27000;17SH500E19;13
S20;17SH500FV21;19
S27000;17SH500FV21;16
S20;17SH500G21;21
S27000;17SH500G21;15
S20;17SH500P19;21
S27000;17SH500P19;14
S20;17VI100P19;4
S27000;17VI100P19;5
S20;20AR075O20;13
S27000;20AR075O20;6
S20;20DO050O20;9
S27000;20DO050O20;5
S20;20DO075CD20;14
S27000;20DO075CD20;5
S20;20DO130HC20;8
S27000;20DO130HC20;5
S20;20ET075CD20;4
S27000;20ET075CD20;3
S20;20ET075HC20;5
S27000;20ET075HC20;4
S20;20ET075OC20;6
S27000;20ET075OC20;4
S20;20FE050H20;4
S27000;20FE050H20;4
S20;20GD250CD20;12
S27000;20GD250CD20;6
S20;20GD250HC20;15
S27000;20GD250HC20;11
S20;20GD250OC20;16
S27000;20GD250OC20;10
S20;20GD500HC20;15
S27000;20GD500HC20;11
S20;20HR050H20;4
S27000;20HR050H20;4
S20;20NV150H20;18
S29000;52MS001I20;74
S29000;52PMGBOX18;3
S29000;52SGENSA21;101
S29000;52SH006E19;56
S29000;52SH006FV21;46
S29000;52SH006G21;174
S29000;52SH006P19;40
S29000;52SP001I19;63
S29000;52TS001I22;90
S29000;52TS001R21;24
S29000;98BBLC030VE5;26
S29000;ACPOCVE7T00019;1
S29000;HKOCVE6T00055;10
S29000;SGOCVE600004;28
S29000;SGOCVE600005;7
S24000;20SA050CD20;4
S24000;20SA050HC20;4
S10;20SA050HC20;4
S10;20SA050O20;2
S24000;20SA050O20;4
S24000;24BL012CB5;8
S10;24BL012CB5;10
S10;24BL012R22;8
S24000;24BL012R22;9
S24000;24BR050CB6;11
S24000;24BR050R22;14
S10;24BR050R22;8
S10;24ET075CB21;9
S24000;24ET075CB21;10
S24000;24ET075R22;8
S10;24ET075R22;10
S10;24GD250CB21;10
S24000;24GD250CB21;20
S24000;24GD250R22;14
S10;24GD250R22;10
S10;24GD500R22;6
S24000;24GD500R22;12
S10;24LC075R22;16
S10;24LC250CB4;12
S24000;24LC250CB4;18
S24000;24LC250R22;13
S10;24LC250R22;12
S24000;24MA030CB4;28
S24000;24MA030P15;10
S10;24MA030P15;8
S10;24MA030R22;1
S24000;24MA030R22;15
S24000;24MA030RA19;10
S10;24MA030RA19;1
S10;24MA030RV19;2
S24000;24MA030RV19;10
S24000;24MA030S6;11
S10;24MA030S6;9
S10;24MA075CB4;17
S24000;24MA075CB4;10
S24000;24MA075P15;11
S10;24MA075P15;1
S10;24MA075R18;15
S10;24MA075R22;12
S24000;24MA075R22;12
S24000;24MA150R22;16
S10;24MA150R22;5
S10;24RG500C20;16
S24000;24RG500C20;15
S24000;24RG500R22;24
S10;24RG500R22;24
S10;24RO010CB4;14
S24000;24RO010CB4;4
S10;24RO010R18;1
S27000;20NV150H20;12
S20;20SA050CD20;4
S27000;20SA050CD20;8
S20;20SA050HC20;4
S27000;20SA050HC20;4
S20;20SA050O20;5
S27000;20SA050O20;4
S20;24BL012CB5;14
S27000;24BL012CB5;9
S20;24BL012R22;12
S27000;24BL012R22;10
S20;24BR050CB6;14
S27000;24BR050CB6;10
S20;24BR050R22;15
S27000;24BR050R22;10
S20;24ET075CB21;13
S27000;24ET075CB21;7
S20;24ET075R22;8
S27000;24ET075R22;9
S20;24GD250CB21;16
S27000;24GD250CB21;17
S27000;24GD250R22;10
S20;24GD250R22;23
S20;24GD500R22;24
S27000;24GD500R22;10
S20;24LC075R22;19
S20;24LC250CB4;17
S27000;24LC250CB4;12
S27000;24LC250R22;10
S20;24LC250R22;15
S20;24MA030CB4;16
S27000;24MA030CB4;17
S27000;24MA030P15;9
S20;24MA030P15;13
S20;24MA030R22;19
S27000;24MA030R22;11
S27000;24MA030RA19;10
S20;24MA030RA19;5
S20;24MA030RE19;6
S20;24MA030RV19;7
S27000;24MA030RV19;6
S27000;24MA030S6;10
S20;24MA030S6;4
S20;24MA075CB4;14
S27000;24MA075CB4;13
S27000;24MA075P15;9
S20;24MA075P15;7
S20;24MA075R22;14
S27000;24MA075R22;8
S27000;24MA150R22;10
S20;24MA150R22;12
S20;24RG500C20;19
S27000;24RG500C20;16
S27000;24RG500R22;19
S90000;29LC200A21X;8
S90000;29MA030A17;7
S90000;29MA075A21;12
S90000;29MAV075A19;7
S90000;29RC200A20;11
S90000;29RH500A15;47
S90000;29SA050A21;6
S90000;29SE125A21;8
S90000;29SH075A20;7
S90000;29SH240A20;9
S90000;29VC240A16;13
S90000;29VC240A22;12
S90000;38BV050A19;10
S90000;38EC015A18;7
S90000;38EV075A21;10
S90000;38FT200A18;20
S90000;38FT200A21;8
S90000;38MI150A18;4
S90000;38MI150A22;8
S90000;38RC050A18;4
S90000;38RC050A22;12
S90000;38UV030A18;10
S90000;38WC050A18;35
S90000;38WC050A21;8
S90000;38WM065A18;6
S90000;38WS030A18;22
S90000;38WS030A21;9
S90000;49AF015G20;160
S90000;49BM010K19;124
S90000;49BO015CS19;12
S90000;49CL1SA18;1
S90000;49CM030I19;8
S90000;49CP004I19;8
S90000;49CP008I19;29
S90000;49CP020K22;103
S90000;49DB004I20;30
S90000;49DC004I20;4
S90000;49DC008I20;16
S90000;49DH004I20;167
S90000;49GD035CB5;27
S90000;49HD035A15;99
S90000;49HD035K17;59
S90000;49IC1POU20;14
S90000;49IC2POU20;57
S90000;49IC3POU20;27
S90000;49LC020A20;53
S90000;49LC035CB6;16
S90000;49LD030I20;26
S90000;49MA010A17;55
S90000;49MA010A21X;22
S90000;49MA010CB4;12
S90000;49MA010K22;5
S90000;49MA010L16;134
S10;24SA050CB21;7
S24000;24SA050CB21;11
S24000;24SA050CB6;1
S10;24SA050CB6;3
S10;24SA050R22;10
S24000;24SA050R22;10
S24000;27BP050I19;7
S10;27BP050I19;3
S10;27BY015I19;12
S24000;27BY015I19;4
S24000;27CP050I19;12
S10;27CP050I19;13
S10;27DB015I20;10
S24000;27DB015I20;12
S24000;27DC030I20;10
S24000;27DC050I20;11
S10;27DC050I20;14
S10;27DCB060I17;5
S24000;27DCB060I17;4
S24000;27DE015I21;11
S10;27DE015I21;2
S10;27DF125I17;13
S24000;27DF125I17;20
S24000;27DH015I20;14
S10;27DH015I20;11
S10;27DH030I20;13
S24000;27DH030I20;13
S24000;27DL200I20;1
S24000;27DL200I21;12
S10;27DL200I21;6
S10;27DS030I20;5
S24000;27DS030I20;4
S24000;27ER015I22;19
S10;27ER015I22;12
S10;27ER050I21;10
S24000;27ER050I21;12
S24000;27ER150I21;21
S10;27ER150I21;11
S10;27EV200I19;19
S24000;27EV200I19;12
S24000;27FP050I19;2
S10;27FP050I19;7
S10;27HC050I18;3
S24000;27HC050I18;4
S24000;27HCR050I16;4
S10;27HCR050I16;4
S10;27HS030I18;4
S24000;27HS030I18;4
S24000;27HSR030I16;4
S10;27HSR030I16;1
S10;27MI150I20;5
S24000;27MI150I20;4
S24000;27MP050I20;6
S10;27MP050I20;51
S20;24RG500R22;26
S20;24RO010CB4;5
S27000;24RO010CB4;12
S20;24RO010R18;4
S20;24SA050CB21;16
S27000;24SA050CB21;14
S27000;24SA050R22;10
S20;24SA050R22;17
S20;27BP050I19;12
S27000;27BP050I19;6
S27000;27BY015I19;11
S20;27BY015I19;5
S20;27CP050I19;15
S27000;27CP050I19;12
S27000;27DB015I20;9
S20;27DB015I20;16
S20;27DC030I20;9
S27000;27DC030I20;12
S27000;27DC050I20;13
S20;27DC050I20;16
S20;27DCB060I17;4
S27000;27DCB060I17;7
S27000;27DE015I21;5
S20;27DE015I21;14
S20;27DF125I17;20
S27000;27DF125I17;14
S27000;27DH015I20;13
S20;27DH015I20;17
S20;27DH030I20;18
S27000;27DH030I20;19
S27000;27DL200I21;13
S20;27DL200I21;12
S20;27DS030I20;5
S27000;27DS030I20;10
S27000;27ER015I22;19
S20;27ER015I22;20
S20;27ER050I21;12
S27000;27ER050I21;14
S27000;27ER150I21;19
S20;27ER150I21;13
S20;27EV200I19;15
S27000;27EV200I19;14
S27000;27FP050I19;4
S27000;27HC050I18;5
S20;27HC050I18;4
S20;27HCR050I16;4
S27000;27HCR050I16;5
S27000;27HS030I18;5
S20;27HS030I18;5
S20;27HSR030I16;13
S27000;27HSR030I16;4
S27000;27MI150I20;4
S20;27MI150I20;4
S20;27MP050I20;39
S10;27MP150I20;12
S24000;27MP150I20;3
S24000;27MQ065I15A;4
S10;27MQ065I15A;4
S10;27MS050I20;5
S24000;27MS050I20;10
S24000;27OR030I21;20
S10;27OR030I21;6
S10;27OR050I21;14
S24000;27OR050I21;30
S24000;27RM300I20;12
S10;27RM300I20;13
S10;27SP030I19;3
S24000;27SP030I19;3
S10;27TS001I20;187
S10;29ASH240A20;4
S24000;29ASH240A20;4
S24000;29BP100A19;4
S10;29BP100A19;4
S10;29EC200A21;7
S24000;29EC200A21;14
S24000;29GE200A21;18
S10;29GE200A21;13
S10;29HD250A15;2
S24000;29HD250A15;23
S24000;29HD500A15;29
S10;29HD500A15;20
S10;29HS100A21;12
S24000;29HS100A21;11
S24000;29LC200A20US;26
S10;29LC200A20US;20
S90000;49MA010VB3;108
S90000;49MASKRS21;26
S90000;49MR010K14;46
S90000;49MS008I20;42
S90000;49MWC030I19;101
S90000;49OR005I21;31
S90000;49PFCWC21;40
S90000;49PI010K18;94
S90000;49PMENNO21;40
S90000;49PO1NH18;153
S90000;49PO2HER20;120
S90000;49PO2RS21;36
S90000;49PO2SA19;30
S90000;49POCKNO21;142
S90000;49POU1O21;28
S90000;49POUCB21;14
S90000;49POUCH2NO21;97
S90000;49POUID20;4
S90000;49POUIS19;23
S90000;49POUM21;83
S90000;49PWPBM22;7
S90000;49RCWM22;22
S90000;49SH035E21;183
S90000;49TFACH18;20
S90000;49TOBACH20;41
S90000;49TOTMC20;30
S90000;49TOTWC21;90
S90000;49TRAVNO21;81
S90000;52AF006G20;75
S90000;52AS006E19;335
S90000;52AS006FV21;358
S90000;52AS006G21;371
S90000;52AS006P19;259
S90000;52BOXMM22;58
S90000;52CL0015K21;221
S90000;52CP0015I19;285
S90000;52CP006K22;367
S90000;52CV0015K22;168
S90000;52DB001I20;207
S90000;52DC0015I20;190
S90000;52DE001I21;100
S90000;52DF002I17;562
S90000;52DH001I20;334
S90000;52DL002I21;187
S90000;52DS001I20;173
S90000;52ER002I21;295
S90000;52ET001O21;1
S90000;52FP0015I19;100
S90000;52HCTM21;25
S90000;52HCTM22;32
S90000;52HD006A18;525
S90000;52HR004G17;100
S90000;52HS004A18;319
S27000;27MP050I20;3
S27000;27MP150I20;10
S20;27MP150I20;16
S20;27MQ065I15A;4
S27000;27MQ065I15A;4
S27000;27MS050I20;5
S20;27MS050I20;4
S20;27OR030I21;18
S27000;27OR030I21;20
S27000;27OR050I21;26
S20;27OR050I21;35
S20;27RM300I20;17
S27000;27RM300I20;10
S27000;27SP030I19;4
S20;27SP030I19;4
S20;27TS001I20;257
S27000;27TS001I20;5
S27000;29ASH240A20;4
S20;29ASH240A20;10
S20;29BP100A19;8
S27000;29BP100A19;4
S27000;29EC200A21;13
S20;29EC200A21;17
S20;29GE200A21;30
S27000;29GE200A21;18
S27000;29HD250A15;16
S20;29HD250A15;17
S20;29HD500A15;46
S27000;29HD500A15;46
S27000;29HS100A21;10
S20;29HS100A21;16
S20;29LC200A20US;19
S27000;29LC200A20US;22
S27000;29MA030A17;15
S20;29MA030A17;18
S20;29MA075A21;16
S27000;29MA075A21;14
S27000;29RC200A20;35
S27000;29RH500A15;43
S27000;29SA050A21;6
S27000;29SE125A21;9
S27000;29SH240A20;10
S27000;29VC240A22;13
S27000;38BV050A19;5
S27000;38EC015A18;3
S27000;38EV075A21;11
S27000;38FT200A21;9
S27000;38MI150A18;1
S27000;38MI150A22;18
S27000;38RC050A22;13
S27000;38UV030A18;11
S27000;38WC050A21;10
S27000;38WM065A18;4
S90000;52LC006A20;658
S90000;52LGEBOX18;20
S90000;52LT002R21;95
S90000;52MA003K16A;327
S90000;52MA003K22A;171
S90000;52MC006G21;100
S90000;52MGEBOX18;8
S90000;52MMBYNO19;85
S90000;52MOCOL316;10
S90000;52MS001I20;378
S90000;52OR001I21;635
S90000;52PMGBOX18;11
S90000;52PS0015R21;100
S90000;52SH006E19;405
S90000;52SH006FV21;484
S90000;52SH006G21;392
S90000;52SH006P19;379
S90000;52SHBOM22;32
S90000;52SP001I19;302
S90000;52TBO1M21;54
S90000;52TBO2M21;31
S90000;52TS001I22;320
S90000;52TS001R21;80
S90000;98BBGD050VE2;58
S90000;98BBHD035A0;140
S90000;98BBHD050A0;25
S90000;98BBSA025LT2;57
S90000;98BBSA050LT1;50
S90000;98BBSH035AR2;114
S90000;98BBSH050A0;71
S90000;98BBSH050AR2;86
S90000;ACPOCVE7T00015;1
S90000;ACPOCVE7T00016;10
S90000;HKOCVE6T00055;22
S90000;J9517;9
S90000;JIMPN16;56
S27000;38WS030A21;10
S27000;49BO015CS19;10
S27000;49DH004I20;9
S27000;49HD035A15;26
S27000;49LC020A20;23
S27000;49MA010A17;23
S27000;49OR005I21;117
S27000;49POU1O21;18
S27000;52AF006G20;147
S27000;52AS006E19;236
S27000;52AS006FV21;182
S27000;52AS006G21;161
S27000;52AS006P19;259
S27000;52BY001I19;240
S27000;52CD0015A18;68
S27000;52CL0015K21;121
S27000;52CP0015I19;60
S27000;52CP006K22;328
S27000;52CV0015K22;163
S27000;52DB001I20;97
S27000;52DC0015I20;270
S27000;52DE001I21;242
S27000;52DF002I17;96
S27000;52DH001I20;274
S27000;52DL002I21;142
S27000;52DS001I20;154
S27000;52ER002I21;115
S27000;52EV002I19;2
S27000;52FP0015I19;92
S27000;52GD0015A18;56
S27000;52HD006A18;377
S27000;52HS001I17;91
S27000;52HS004A18;166
S27000;52K20BLAV21;2
S27000;52LC006A20;434
S27000;52LGEBAG19;113
S27000;52LGEBOX18;10
S27000;52LGENSA21;131
S27000;52LT002R21;138
S27000;52MA003K22A;220
S27000;52MC006G21;296
S27000;52MGEBAG19;127
S27000;52MGEBOX18;14
S27000;52MGENSA21;104
S27000;52MIGEBAG19;334
S27000;52MOCOL316;2
S27000;52MS001I20;131
S27000;52OR001I21;314
S27000;52PMGBOX18;3
S27000;52PS0015R21;122
S27000;52SGEBAG19;259
S27000;52SGENSA21;67
S27000;52SH006E19;179
S27000;52SH006FV21;190
S27000;52SH006G21;234
S27000;52SH006P19;207
S27000;52SP001I19;120
S27000;52TS001I22;185
S27000;52TS001R21;108
S27000;52YGERIB20;2
S27000;HKOCVE6T00055;8
S27000;SGOCVE600004;23
