S90000;01BK010K14;1
S90000;01BL012K18;8
S90000;01BL012KC22H;35
S90000;01BL012KG22H;31
S90000;01BM050K19;3
S90000;01BM150K19;1
S90000;01BP050K21;1
S90000;01BV050K16;5
S90000;01CD250K17;9
S90000;01CD250KC22H;31
S90000;01CE200KC22H;48
S90000;01CF050K22;1
S90000;01CL050K21;8
S90000;01CL175K22;4
S90000;01CL200K17;20
S90000;01CL200KG22H;48
S90000;01CM300K20;11
S90000;01CM500K20;7
S90000;01CMJ075K21;10
S90000;01CMR500K20;7
S90000;01CP050K22;13
S90000;01CP100KC22H;31
S90000;01CP200K22;2
S90000;01CPR200K22;3
S90000;01CV050K18;22
S90000;01CV050K22;4
S90000;01EC200K17;4
S90000;01EC200K22;14
S90000;01EM075K20;9
S90000;01EN300KB19;14
S90000;01HD250K17;4
S90000;01HD500K20;9
S90000;01HDR500K20;11
S90000;01HF100K17;2
S90000;01HN0075K19;7
S90000;01HN075KG22H;28
S90000;01HV030K16;4
S90000;01KTPWP21;13
S90000;01LC250K17;9
S90000;01LC500K20;1
S90000;01LT300K20;9
S90000;01MA030K22H;96
S90000;01MA030KC22H;62
S90000;01MA030KG22H;72
S90000;01MA075K22;1
S90000;01MA150K18;2
S90000;01MA150K22;2
S90000;01MA150KC22H;76
S90000;01MA150KG22H;74
S90000;01MD200KG22H;40
S90000;01MR030K14;9
S90000;01ORKAR22;187
S90000;01PI030K18;9
S20;52CRA2C22;3
S20;52CRA3C22;3
S20;52CRA4C22;3
S20;52CV0015K22;72
S20;52DB001I20;133
S20;52DC0015I20;270
S20;52DE001I21;153
S20;52DF002I17;149
S20;52DH001I22;304
S20;52DL002I21;190
S20;52DS001I20;85
S20;52ER002I21;341
S20;52GD0015A18;52
S20;52GIF1NO22;6
S20;52GIF2NO22;6
S20;52HD006A18;328
S20;52HS001I17;104
S20;52HS004A18;122
S20;52LABANO22;190
S20;52LASANO22;327
S20;52LC006A20;374
S20;52LGEBOX18;9
S20;52LGENSA21;58
S20;52LT002R21;50
S20;52MA003K22A;255
S20;52MC006G21;126
S20;52MGEBAG19;2
S20;52MGEBOX18;11
S20;52MGENSA21;71
S20;52MIBANO22;347
S20;52MMB1NO22;128
S20;52MMB2NO22;115
S20;52MMB3NO22;108
S20;52MMBANO22;471
S20;52MMSANO22;315
S20;52MOCOL316;6
S20;52MS001I20;70
S20;52OR001I21;300
S20;52PMGBOX18;8
S20;52PS0015R21;91
S20;52PSAC18;1
S20;52RBO2NO22;5
S20;52RBO3NO22;5
S20;52RIB1NO22;10
S20;52RIB2NO22;10
S20;52RIBOXNO22;631
S20;52SGENSA21GPS;77
S20;52SH006E19;133
S20;52SH006FV21;103
S20;52SH006G21;168
S20;52SH006P19;133
S20;52SMB1NO22;3
S20;52SMB2NO22;3
S20;52SMBANO22;547
S20;52SMSANO22;454
S20;01BK010K14;16
S20;01BL012K18;20
S20;01BL012KC22H;6
S20;01BL012KG22H;6
S20;01BM050K19;8
S20;01BM150K19;11
S20;01BP050K21;1
S20;01BV050K16;12
S20;01CD250K17;16
S20;01CD250KC22H;13
S20;01CE200KC22H;13
S20;01CF050K22;8
S20;01CL050K21;8
S20;01CL175K22;6
S20;01CL200KG22H;12
S20;01CM300K20;16
S20;01CM500K20;12
S20;01CMJ075K21;24
S20;01CMR500K20;21
S20;01CP100KC22H;15
S20;01CP200K22;15
S20;01CPR200K22;17
S20;01CV050K22;7
S20;01EC200K22;10
S20;01EM075K20;4
S20;01HD250K17;15
S20;01HD500K20;17
S20;01HDR500K20;19
S20;01HF100K17;7
S20;01HN0075K19;11
S20;01HN075KG22H;11
S20;01HV030K16;4
S20;01LC250K17;20
S20;01LT300K20;16
S20;01MA030K22;60
S20;01MA030K22H;52
S20;01MA030KC22H;28
S20;01MA030KG22H;50
S20;01MA075K22;46
S20;01MA150K22;44
S20;01MA150KC22H;39
S20;01MA150KG22H;37
S20;01MD200KG22H;18
S20;01MR030K14;38
S20;01MR150K16;2
S20;01ORKAR22;105
S20;01PI030K18;9
S20;01PI150K18;17
S20;01PWPKT22;13
S20;01RL500K20;23
S20;01RV500K20;23
S20;01SA050KC22H;20
S20;01SA050KG22H;7
S20;01SA100LT20;28
S00;27CN050I14;2
S90000;SGOCVKI00176;6
S90000;SGOCVKI00187;1
S90000;SGOCVKI00188;1
S90000;SGOCVKI00190;1
S90000;SGOCVKI00198;1
S90000;SGOCVKI00204;4
S90000;SGOCVKI00208;1
S90000;SGOCVKI00215;41
S90000;SGOCVKI00216;150
S90000;SGOCVKI00217;18
S90000;SGOCVKI00218;17
S90000;SGOCVKI00219;76
S90000;SGOCVKI00220;76
S90000;SGOCVKI00221;25
S90000;SGOCVKI00222;94
S90000;SGOCVKI00223;19
S90000;SGOCVKI00224;13
S90000;SGOCVKI00225;70
S90000;SGOCVKI00226;54
S90000;SGOCVKI00227;38
S90000;SGOCVKI00228;31
S90000;SGOCVKI00229;32
S90000;SGOCVKI00230;35
S90000;SGOCVKI00231;38
S90000;SGOCVKI00232;38
S90000;SGOCVKI00233;67
S90000;SGOCVKI00234;94
S90000;SGOCVKI00235;54
S90000;SGOCVKI00236;16
S90000;SGOCVKI00237;42
S90000;SGOCVKI00238;10
S90000;SGOCVKI00239;18
S90000;SGOCVKI00240;10
S90000;SGOCVKI00241;47
S90000;SGOCVKI00242;39
S90000;SGOCVKI00243;22
S90000;SGOCVKI00244;111
S90000;SGOCVKI00245;2
S90000;SGOCVKI00246;102
S90000;SGOCVKI00247;53
S90000;SGOCVKI00248;98
S90000;SGOCVKI00254;53
S90000;SGOCVKI00255;108
S31000;01BK010K14;13
S31000;01BL012K18;7
S31000;01BL012KC22H;19
S31000;01BL012KG22H;20
S31000;01BM050K19;3
S31000;01BM150K19;1
S31000;01BV050K16;10
S31000;01CD250K17;10
S31000;01CD250KC22H;2
S31000;01CE200KC22H;17
S31000;01CF050K22;14
S31000;01CL050K21;6
S31000;01CL175K22;4
S31000;01CL200KG22H;3
S31000;01CM300K20;8
S31000;01CM500K20;10
S31000;01CMJ075K21;22
S31000;01CMR500K20;12
S31000;01CP100KC22H;10
S31000;01CP200K22;9
S31000;01CPR200K22;22
S31000;01CV050K22;6
S31000;01EC200K22;10
S31000;01EM075K20;5
S31000;01HD250K17;5
S31000;01HD500K20;9
S31000;01HDR500K20;10
S31000;01HF100K17;3
S31000;01HN0075K19;6
S31000;01HV030K16;3
S31000;01LC250K17;1
S31000;01LC500K20;7
S31000;01LT300K20;7
S31000;01MA030K22;51
S31000;01MA030K22H;13
S31000;01MA030KC22H;68
S31000;01MA030KG22H;78
S31000;01MA075K22;28
S31000;01MA150K22;22
S31000;01MA150KC22H;47
S31000;01MA150KG22H;72
S31000;01MD200KG22H;16
S31000;01MR030K14;19
S31000;01MR150K16;22
S31000;01ORKAR22;153
S31000;01PI030K18;6
S31000;01PI150K18;12
S31000;01PWPKT22;33
S31000;01RL500K20;8
S31000;01RV500K20;13
S31000;01SA050KC22H;24
S31000;01SA050KG22H;23
S31000;01SA100LT20;18
S10;01BK010K14;2
S10;01BL012KC22H;9
S10;01BL012KG22H;13
S10;01BM050K19;8
S10;01BM150K19;3
S10;01BP050K21;6
S10;01BV050K16;3
S10;01CD250K17;7
S10;01CD250KC22H;11
S10;01CE200KC22H;10
S10;01CF050K22;1
S10;01CL050K21;2
S10;01CL175K22;7
S10;01CL200KG22H;5
S10;01CL300KB20;5
S10;01CM300K20;4
S10;01CM500K20;2
S10;01CMJ075K21;11
S10;01CMR500K20;3
S10;01CP100KC22H;5
S10;01CP200K22;7
S10;01CPR200K22;12
S10;01CV050K22;5
S10;01EC200K22;6
S10;01EM075K20;4
S10;01HD250K17;2
S10;01HD500K20;6
S10;01HDR500K20;5
S10;01HF100K17;3
S10;01HN0075K19;3
S10;01HN075KG22H;6
S10;01HV030K16;6
S10;01LC250K17;3
S10;01LT300K20;8
S10;01MA030K22;45
S10;01MA030KC22H;20
S10;01MA030KG22H;21
S10;01MA075K22;9
S10;01MA150K22;13
S10;01MA150KC22H;11
S10;01MA150KG22H;22
S10;01MD200KG22H;19
S10;01MR030K14;15
S10;01MR150K16;6
S10;01ORKAR22;60
S10;01PI030K18;2
S10;01PI150K18;5
S10;01PWPKT22;18
S10;01RL500K20;10
S10;01RV500K20;5
S10;01SA050KC22H;7
S10;01SA100LT20;5
S10;01SA100LV20;7
S10;01SA100VE20;10
S27000;01BK010K14;6
S27000;01BL012K18;6
S27000;01BL012KC22H;12
S27000;01BL012KG22H;6
S27000;01BM050K19;3
S27000;01BP050K21;6
S27000;01BV050K16;4
S27000;01CD250K17;8
S27000;01CD250KC22H;5
S27000;01CE200KC22H;10
S27000;01CF050K22;10
S27000;01CL050K21;5
S27000;01CL175K22;10
S27000;01CL200KG22H;4
S27000;01CM300K20;9
S27000;01CM500K20;5
S27000;01CMJ075K21;9
S27000;01CMR500K20;6
S27000;01CP100KC22H;2
S27000;01CP200K22;12
S27000;01CPR200K22;9
S27000;01CV050K22;5
S27000;01EC200K22;9
S27000;01EM075K20;6
S27000;01HD250K17;6
S27000;01HD500K20;6
S27000;01HDR500K20;6
S27000;01HF100K17;6
S27000;01HN0075K19;2
S27000;01HV030K16;4
S27000;01LT300K20;4
S27000;01MA030K22;44
S27000;01MA030KC22H;16
S27000;01MA030KG22H;25
S27000;01MA075K22;35
S27000;01MA150K22;27
S27000;01MA150KC22H;3
S27000;01MA150KG22H;19
S27000;01MD200KG22H;27
S27000;01MR030K14;8
S27000;01MR150K16;5
S27000;01ORKAR22;71
S27000;01PI030K18;5
S27000;01PI150K18;6
S27000;01PWPKT22;22
S27000;01RL500K20;5
S27000;01RV500K20;6
S27000;01SA050KC22H;4
S27000;01SA050KG22H;3
S27000;01SA100LT20;9
S27000;01SA100LV20;14
S27000;01SA100VE20;14
S27000;01SA250LT20;12
S30000;01BK010K14;15
S30000;01BL012K18;2
S30000;01BL012KC22H;6
S30000;01BL012KG22H;3
S30000;01BP050K21;4
S30000;01BV050K16;4
S30000;01CD250K17;8
S30000;01CD250KC22H;12
S30000;01CE200KC22H;13
S30000;01CF050K22;9
S30000;01CL050K21;3
S30000;01CL175K22;6
S30000;01CL200KG22H;7
S30000;01CM300K20;8
S30000;01CM500K20;10
S30000;01CMJ075K21;22
S30000;01CMR500K20;9
S30000;01CP100KC22H;13
S30000;01CP200K22;8
S30000;01CPR200K22;4
S30000;01CV050K22;4
S30000;01EC200K22;6
S30000;01EM075K20;4
S30000;01HD250K17;11
S30000;01HD500K20;7
S30000;01HDR500K20;4
S30000;01HF100K17;3
S30000;01HN0075K19;1
S30000;01HN075KG22H;6
S30000;01HV030K16;3
S30000;01MA030K22;44
S30000;01MA030K22H;18
S30000;01MA030KC22H;38
S30000;01MA030KG22H;37
S30000;01MA075K22;35
S30000;01MA150K22;23
S30000;01MA150KC22H;6
S30000;01MA150KG22H;18
S30000;01MD200KG22H;33
S30000;01MR030K14;8
S30000;01MR150K16;23
S30000;01ORKAR22;63
S30000;01PI030K18;6
S30000;01PWPKT22;22
S30000;01RL500K20;10
S30000;01RV500K20;16
S30000;01SA050KC22H;10
S30000;01SA050KG22H;7
S30000;01SA100LT20;10
S30000;01SA100LV20;14
S30000;01SA100VE20;13
S30000;01SA250LT20;12
S29000;01BK010K14;10
S29000;01BL012K18;10
S29000;01BL012KC22H;7
S29000;01BL012KG22H;19
S29000;01BM050K19;8
S29000;01BM150K19;11
S29000;01BP050K21;7
S29000;01BV050K16;6
S29000;01CD250K17;34
S29000;01CE200KC22H;14
S29000;01CF050K22;8
S29000;01CL050K21;5
S29000;01CL175K22;7
S29000;01CL200KG22H;11
S29000;01CM300K20;17
S29000;01CM500K20;12
S29000;01CMJ075K21;18
S29000;01CMR500K20;24
S29000;01CP100KC22H;5
S29000;01CP200K22;15
S29000;01CPR200K22;23
S29000;01CV050K22;6
S29000;01EC200K22;13
S29000;01EM075K20;9
S29000;01HD250K17;11
S29000;01HD500K20;14
S29000;01HDR500K20;23
S29000;01HF100K17;7
S29000;01HN0075K19;6
S29000;01HN075KG22H;7
S29000;01HV030K16;4
S29000;01LC250K17;22
S29000;01LT300K20;9
S29000;01MA030K22;50
S29000;01MA030K22H;1
S29000;01MA030KC22H;9
S29000;01MA030KG22H;33
S29000;01MA075K22;33
S29000;01MA150K22;77
S29000;01MA150KC22H;8
S29000;01MA150KG22H;23
S29000;01MD200KG22H;5
S29000;01MR030K14;20
S29000;01MR150K16;29
S29000;01ORKAR22;81
S29000;01PI030K18;6
S29000;01PI150K18;18
S29000;01PWPKT22;36
S29000;01RL500K20;44
S29000;01RV500K20;31
S29000;01SA050KC22H;5
S29000;01SA050KG22H;11
S29000;01SA050KV20;3
S24000;01BK010K14;3
S24000;01BL012KG22H;11
S24000;01BP050K21;3
S24000;01BV050K16;6
S24000;01CD250K17;8
S24000;01CE200KC22H;7
S24000;01CF050K22;1
S24000;01CL050K21;2
S24000;01CL175K22;6
S24000;01CL200KG22H;1
S24000;01CM300K20;9
S24000;01CM500K20;6
S24000;01CMJ075K21;3
S24000;01CMR500K20;6
S24000;01CP200K22;3
S24000;01CPR200K22;9
S24000;01CV050K22;7
S24000;01EC200K22;4
S24000;01EM075K20;4
S24000;01HD250K17;4
S24000;01HD500K20;1
S24000;01HDR500K20;1
S24000;01HF100K17;4
S24000;01HN075KG22H;5
S24000;01HV030K16;3
S24000;01LC250K17;2
S24000;01LT300K20;7
S24000;01MA030K22;23
S24000;01MA030KC22H;11
S24000;01MA030KG22H;30
S24000;01MA075K22;11
S24000;01MA150K22;25
S24000;01MA150KC22H;2
S24000;01MA150KG22H;16
S24000;01MD200KG22H;14
S24000;01MR030K14;20
S24000;01MR150K16;12
S24000;01ORKAR22;48
S24000;01PI030K18;4
S24000;01PI150K18;6
S24000;01PWPKT22;13
S24000;01RL500K20;5
S24000;01RV500K20;3
S24000;01SA050KC22H;6
S24000;01SA050KG22H;5
S24000;01SA050KV20;6
S24000;01SA100LT20;13
S24000;01SA100LV20;12
S24000;01SA100VE20;14
S24000;01SA250LT20;6
S24000;01SA250LV20;14
S24000;01SA250VE20;16
S28000;01BL012K18;12
S28000;01BL012KC22H;9
S28000;01BL012KG22H;5
S28000;01BP050K21;2
S28000;01BV050K16;8
S28000;01CD250K17;13
S28000;01CE200KC22H;1
S28000;01CL050K21;2
S28000;01CL175K22;4
S28000;01CM300K20;12
S28000;01CM500K20;14
S28000;01CMJ075K21;23
S28000;01CMR500K20;10
S28000;01CP200K22;1
S28000;01CPR200K22;4
S28000;01CV050K22;2
S28000;01EC200K22;9
S28000;01EM075K20;6
S28000;01HD250K17;4
S28000;01HD500K20;7
S28000;01HDR500K20;1
S28000;01HF100K17;4
S28000;01HV030K16;3
S28000;01LT300K20;11
S28000;01MA030K22;67
S28000;01MA030K22H;1
S28000;01MA030KG22H;35
S28000;01MA075K22;16
S28000;01MA150K22;31
S28000;01MA150KG22H;13
S28000;01MR030K14;14
S28000;01MR150K16;16
S28000;01ORKAR22;52
S28000;01PI030K18;2
S28000;01PI150K18;1
S28000;01PWPKT22;28
S28000;01RL500K20;13
S28000;01RV500K20;7
S28000;01SA100LT20;20
S28000;01SA100LV20;21
S28000;01SA100VE20;22
S28000;01SA250LT20;12
S28000;01SA250LV20;8
S28000;01SA250VE20;21
S28000;01SA300KRO22;5
S28000;01SA500KRO22;7
S28000;01SA9000KV21;1
S28000;01SAR500KRO22;16
S28000;01SL0045K13;10
S28000;01SL300LV20;7
S28000;01SL300VE20;11
S28000;01SL500LV20;9
S20;52SP001I19;71
S20;52STINO22;9
S20;52TS001I22;200
S20;52TS001R21;112
S20;52WRAPNO22;7
S20;54VMWHSHOLIDAY22;1
S20;98BBGD030VE4;13
S20;98BBMA010KA3;19
S20;ACPOCVEC00001;136
S20;ACPOCVEC00002;182
S20;ACPOCVEC00003;100
S20;ACPOCVKA00700;21
S20;SGOCVE600004;17
S20;SGOCVKI00215;26
S20;SGOCVKI00216;55
S20;SGOCVKI00217;47
S20;SGOCVKI00218;44
S20;SGOCVKI00220;7
S20;SGOCVKI00221;18
S20;SGOCVKI00222;61
S20;SGOCVKI00223;15
S20;SGOCVKI00224;20
S20;SGOCVKI00225;43
S20;SGOCVKI00226;45
S20;SGOCVKI00227;9
S20;SGOCVKI00228;11
S20;SGOCVKI00229;13
S20;SGOCVKI00230;47
S20;SGOCVKI00231;8
S20;SGOCVKI00232;8
S20;SGOCVKI00233;17
S20;SGOCVKI00234;22
S20;SGOCVKI00235;16
S20;SGOCVKI00236;12
S20;SGOCVKI00237;19
S20;SGOCVKI00239;11
S20;SGOCVKI00240;6
S20;SGOCVKI00241;11
S20;SGOCVKI00242;28
S20;SGOCVKI00243;13
S20;SGOCVKI00244;61
S20;SGOCVKI00245;12
S20;SGOCVKI00254;22
S90000;01PI150K18;5
S90000;01PWPKT22;22
S90000;01RL500K20;14
S90000;01RV500K20;13
S90000;01SA050KC22H;38
S90000;01SA050KG22H;31
S90000;01SA050KV20;2
S90000;01SA100LT20;15
S90000;01SA100LV20;13
S90000;01SA100VE20;12
S90000;01SA250LT20;16
S90000;01SA250LV20;15
S90000;01SA250VE20;6
S90000;01SA300KRO22;11
S90000;01SA500KRO22;14
S90000;01SAR500KRO22;8
S90000;01SE125K21;2
S90000;01SL0045K13;4
S90000;01SL0045KR22;20
S90000;01SL300LV20;8
S90000;01SL300VE20;9
S90000;01SL500LV20;6
S90000;01SL500VE20;14
S90000;10BOWEB219;1100
S90000;10BOWEB319;2300
S90000;10BOWEB419;1900
S90000;10CACLA22;8
S90000;10CRAKT22;150
S90000;11BC100G21;7
S90000;11BG140CS19;1
S90000;11BG140SH19;8
S90000;11BG140SI19;9
S90000;11BG140SL19;12
S90000;11BH050A18;7
S90000;11BO100CS19;7
S90000;11BO100CS22H;38
S90000;11BP100I19;8
S90000;11BR100A20;4
S90000;11CD050A18;9
S90000;11CF100TR19;5
S90000;11CM030H19;11
S90000;11CM030H20;13
S90000;11CM030O21;8
S90000;11CM125I19;9
S90000;11EH150A18;9
S90000;11EP010H19;1
S90000;11EP050H19;5
S90000;11ET010H20;10
S90000;11ET050H20;8
S90000;11ET075O21;6
S90000;11FAG10TR19;9
S90000;11GD050A18;4
S10;01SA250LT20;14
S10;01SA250LV20;11
S10;01SA250VE20;12
S10;01SA300KRO22;5
S10;01SA500KRO22;6
S10;01SAR500KRO22;8
S10;01SE125K21;2
S10;01SL0045K13;27
S10;01SL0045KR22;4
S10;01SL300LV20;6
S10;01SL300VE20;8
S10;01SL500LV20;6
S10;01SL500RO20;3
S10;01SL500VE20;5
S10;10CRAKT22;48
S10;11AS040SG22;16
S10;11BC100G21;5
S10;11BG140CS19;12
S10;11BG140SH19;10
S10;11BG140SI19;11
S10;11BG140SL19;7
S10;11BH050A18;2
S10;11BO100CS19;12
S10;11BO100CS22H;1
S10;11BP100I19;4
S10;11BR100A20;3
S10;11CD050A18;3
S10;11CF100TR19;6
S10;11CM030H19;26
S10;11CM030H20;40
S10;11CM030O21;19
S10;11CM125I19;10
S10;11EH150A18;7
S10;11EP010H19;6
S10;11ET010H20;6
S10;11ET050H20;1
S10;11ET075O21;6
S10;11FAG10TR19;7
S10;11GD050A18;4
S10;11GD250H19;9
S10;11GD250H20;14
S10;11GD250O21;14
S10;11GE075I20;4
S10;11GM200I19;11
S10;11GN195A18;9
S10;11LC250H19;13
S10;11LC250H20;5
S10;11LC250O21;6
S10;11LD200I19;6
S10;11LH200I19;8
S10;11LT300I20;6
S10;11MH075A19;5
S10;11MWC200I19;5
S10;11PEP050I20;8
S31000;01SA100LV20;19
S31000;01SA100VE20;18
S31000;01SA250LT20;15
S31000;01SA250LV20;18
S31000;01SA250VE20;19
S31000;01SA300KRO22;8
S31000;01SA500KRO22;10
S31000;01SA9000KV21;1
S31000;01SAR500KRO22;18
S31000;01SL0045K13;24
S31000;01SL0045KR22;15
S31000;01SL300LV20;8
S31000;01SL300VE20;10
S31000;01SL500LV20;8
S31000;01SL500RO20;2
S31000;01SL500VE20;7
S31000;10CRAKT22;47
S31000;10EST250V21;23
S31000;10EST500V21;42
S31000;10P250V21;23
S31000;10P500V21;43
S31000;11AS040SG22;26
S31000;11AS90005G21;1
S31000;11BC100G21;3
S31000;11BG140CS19;14
S31000;11BG140SH19;9
S31000;11BG140SI19;5
S31000;11BG140SL19;5
S31000;11BH050A18;8
S31000;11BO100CS19;15
S31000;11BO100CS22H;1
S31000;11BP100I19;4
S31000;11BR100A20;10
S31000;11CD050A18;8
S31000;11CF100TR19;18
S31000;11CM030H19;28
S31000;11CM030H20;48
S31000;11CM030O21;39
S31000;11CM125I19;8
S31000;11EH150A18;3
S31000;11EP010H19;8
S31000;11ET010H20;11
S31000;11ET050H20;4
S31000;11ET075O21;7
S31000;11FAG10TR19;16
S31000;11GD050A18;6
S31000;11GD250H19;20
S31000;11GD250H20;24
S31000;11GD250O21;20
S31000;11GE075I20;4
S31000;11GM200I19;8
S31000;11GN195A18;7
S30000;01SA250LV20;14
S30000;01SA250VE20;9
S30000;01SA300KRO22;8
S30000;01SA500KRO22;5
S30000;01SAR500KRO22;9
S30000;01SE125K21;2
S30000;01SL0045K13;5
S30000;01SL300LV20;5
S30000;01SL300VE20;6
S30000;01SL500LV20;6
S30000;01SL500RO20;2
S30000;01SL500VE20;6
S30000;10CRAKT22;50
S30000;11AS040SG22;18
S30000;11BC100G21;7
S30000;11BG140CS19;9
S30000;11BG140SH19;4
S30000;11BG140SI19;5
S30000;11BG140SL19;5
S30000;11BH050A18;4
S30000;11BO100CS19;23
S30000;11BO100CS22H;1
S30000;11BP100I19;3
S30000;11BR100A20;1
S30000;11CD050A18;3
S30000;11CF100TR19;9
S30000;11CM030H19;7
S30000;11CM030H20;45
S30000;11CM030O21;14
S30000;11CM125I19;5
S30000;11EH150A18;4
S30000;11EP010H19;5
S30000;11EP050H19;1
S30000;11ET010H20;10
S30000;11ET050H20;2
S30000;11ET075O21;9
S30000;11FAG10TR19;5
S30000;11GD050A18;5
S30000;11GD250H19;11
S30000;11GD250H20;32
S30000;11GD250O21;12
S30000;11GE075I20;6
S30000;11GM200I19;6
S30000;11GN195A18;5
S30000;11HE005CS19;3
S30000;11LB250HF22;4
S30000;11LC250H19;6
S30000;11LC250H20;11
S30000;11LC250O21;7
S30000;11LD200I19;3
S30000;11LH200I19;6
S30000;11LT300I20;4
S20;01SA100LV20;26
S20;01SA100VE20;27
S20;01SA250LT20;29
S20;01SA250LV20;29
S20;01SA250VE20;29
S20;01SA300KRO22;11
S20;01SA500KRO22;12
S20;01SAR500KRO22;11
S20;01SL0045K13;23
S20;01SL0045KR22;25
S20;01SL300LV20;11
S20;01SL300VE20;12
S20;01SL500LV20;11
S20;01SL500VE20;12
S20;10CRAKT22;44
S20;11AS040SG22;25
S20;11BC100G21;4
S20;11BG140CS19;15
S20;11BG140SH19;16
S20;11BG140SI19;12
S20;11BG140SL19;3
S20;11BH050A18;15
S20;11BO100CS19;28
S20;11BP100I19;4
S20;11BR100A20;19
S20;11CD050A18;4
S20;11CF100TR19;27
S20;11CM030H19;40
S20;11CM030H20;40
S20;11CM030O21;35
S20;11CM125I19;24
S20;11EH150A18;5
S20;11EP010H19;12
S20;11EP050H19;4
S20;11ET010H20;8
S20;11ET050H20;4
S20;11ET075O21;6
S20;11FAG10TR19;12
S20;11GD050A18;5
S20;11GD250H19;38
S20;11GD250H20;37
S20;11GD250O21;33
S20;11GE075I20;6
S20;11GM200I19;28
S20;11GN195A18;5
S20;11LB250HF22;3
S20;11LC250H19;24
S20;11LC250H20;24
S20;11LC250O21;22
S20;11LD200I19;10
S20;11LH200I19;10
S20;11LT300I20;4
S20;11MH075A19;4
S20;11MWC200I19;8
S27000;01SA250LV20;18
S27000;01SA250VE20;12
S27000;01SA300KRO22;6
S27000;01SA500KRO22;6
S27000;01SAR500KRO22;10
S27000;01SE125K21;4
S27000;01SL0045K13;22
S27000;01SL0045KR22;4
S27000;01SL300LV20;6
S27000;01SL300VE20;5
S27000;01SL500LV20;6
S27000;01SL500VE20;7
S27000;10CRAKT22;43
S27000;11AS040SG22;17
S27000;11BC100G21;16
S27000;11BG140CS19;10
S27000;11BG140SH19;8
S27000;11BG140SI19;5
S27000;11BG140SL19;4
S27000;11BH050A18;5
S27000;11BO100CS19;24
S27000;11BO100CS22H;1
S27000;11BP100I19;4
S27000;11BR100A20;6
S27000;11CD050A18;4
S27000;11CF100TR19;10
S27000;11CM030H19;16
S27000;11CM030H20;49
S27000;11CM030O21;19
S27000;11CM125I19;10
S27000;11EH150A18;9
S27000;11EP010H19;4
S27000;11EP050H19;2
S27000;11ET010H20;8
S27000;11ET050H20;4
S27000;11ET075O21;4
S27000;11FAG10TR19;4
S27000;11GD050A18;5
S27000;11GD250H19;14
S27000;11GD250H20;31
S27000;11GD250O21;13
S27000;11GE075I20;5
S27000;11GM200I19;9
S27000;11GN195A18;4
S27000;11LC250H19;8
S27000;11LC250H20;12
S27000;11LC250O21;15
S27000;11LD200I19;8
S27000;11LH200I19;6
S27000;11LT300I20;5
S27000;11MH075A19;4
S27000;11MWC200I19;5
S29000;01SA100LT20;16
S29000;01SA100LV20;18
S29000;01SA100VE20;19
S29000;01SA250LT20;18
S29000;01SA250LV20;21
S29000;01SA250VE20;19
S29000;01SA300KRO22;11
S29000;01SA500KRO22;9
S29000;01SAR500KRO22;7
S29000;01SB020K21;1
S29000;01SE125K21;1
S29000;01SL0045K13;10
S29000;01SL0045KR22;14
S29000;01SL300LV20;11
S29000;01SL300VE20;8
S29000;01SL500LV20;9
S29000;01SL500RO20;2
S29000;01SL500VE20;8
S29000;10CACLA22;1
S29000;10CRAKT22;13
S29000;11AS040SG22;20
S29000;11BC100G21;6
S29000;11BG140CS19;17
S29000;11BG140SH19;12
S29000;11BG140SI19;6
S29000;11BG140SL19;7
S29000;11BH050A18;6
S29000;11BO100CS19;42
S29000;11BP100I19;4
S29000;11BR100A20;11
S29000;11CD050A18;5
S29000;11CF100TR19;9
S29000;11CM030H19;30
S29000;11CM030H20;59
S29000;11CM030O21;50
S29000;11CM125I19;24
S29000;11EH150A18;5
S29000;11EP010H19;11
S29000;11EP050H19;2
S29000;11ET010H20;7
S29000;11ET050H20;3
S29000;11ET075O21;6
S29000;11FAG10TR19;7
S29000;11GD050A18;6
S29000;11GD250H19;24
S29000;11GD250H20;24
S29000;11GD250O21;34
S29000;11GE075I20;4
S29000;11GM200I19;17
S29000;11GN195A18;27
S29000;11LB250HF22;2
S29000;11LC250H19;12
S90000;11GD075O21;258
S90000;11GD250H19;11
S90000;11GD250H20;15
S90000;11GD250HF22;1
S90000;11GD250O21;10
S90000;11GE075I20;2
S90000;11GN040A19;88
S90000;11GN195A18;6
S90000;11HE005CS19;12
S90000;11LC250H19;10
S90000;11LC250H20;12
S90000;11LC250O21;10
S90000;11LD200I19;6
S90000;11LH200I19;7
S90000;11LT300I20;10
S90000;11MH075A19;8
S90000;11MWC200I19;5
S90000;11PEP050I20;3
S90000;11PM100SH19;6
S90000;11PM100SI19;8
S90000;11SA050O21;9
S90000;11SA100H19;11
S90000;11SA100H20;10
S90000;11SD100CS19;5
S90000;11SD100SH19;8
S90000;11SD100SI19;7
S90000;11SD100SL19;9
S90000;11SP200CS19;8
S90000;11SP200SH19;7
S90000;11SP200SI19;7
S90000;11SP200SL19;9
S90000;11SV080I19;7
S90000;15AS250VA18;10
S90000;15BA500L16A;8
S90000;15BM500VB21;2
S90000;15DF200VBL21;1
S90000;15ET100VA20;6
S90000;15ET100VB20;7
S90000;15GD070VB21;105
S90000;15GD075L15;45
S90000;15GD075L21;3
S90000;15GD250L21;24
S90000;15GD250VA20;10
S90000;15GD250VB21;12
S90000;15GD250VBL22;1
S90000;15GD500VB21;16
S90000;15GM065L21;14
S90000;15GM065VB21;14
S90000;15GM280VB21;6
S90000;15GN300L21;9
S90000;15GS150VBL22;2
S90000;15HE005L14;9
S24000;01SA300KRO22;5
S24000;01SA500KRO22;7
S24000;01SAR500KRO22;10
S24000;01SL0045K13;9
S24000;01SL300LV20;6
S24000;01SL300VE20;5
S24000;01SL500LV20;4
S24000;01SL500VE20;6
S24000;10CACLA22;1
S24000;10CRAKT22;17
S24000;11AS040SG22;18
S24000;11BC100G21;14
S24000;11BG140CS19;3
S24000;11BG140SH19;3
S24000;11BG140SI19;5
S24000;11BG140SL19;7
S24000;11BH050A18;3
S24000;11BO100CS19;20
S24000;11BP100I19;4
S24000;11BR100A20;3
S24000;11CD050A18;4
S24000;11CF100TR19;7
S24000;11CM030H19;20
S24000;11CM030H20;42
S24000;11CM030O21;14
S24000;11CM125I19;2
S24000;11EH150A18;4
S24000;11EP010H19;4
S24000;11ET010H20;8
S24000;11ET050H20;2
S24000;11ET075O21;3
S24000;11FAG10TR19;6
S24000;11GD250H19;13
S24000;11GD250H20;16
S24000;11GD250O21;12
S24000;11GE075I20;4
S24000;11GM200I19;11
S24000;11GN195A18;5
S24000;11LC250H19;6
S24000;11LC250H20;9
S24000;11LC250O21;5
S24000;11LD200I19;4
S24000;11LH200I19;6
S24000;11LT300I20;3
S24000;11MA030A20;5
S24000;11MH075A19;8
S24000;11MWC200I19;3
S24000;11PEP050I20;4
S24000;11PM100SH19;4
S24000;11PM100SI19;2
S24000;11SA050O21;11
S24000;11SA100H19;20
S24000;11SA100H20;17
S28000;01SL500RO20;1
S28000;01SL500VE20;10
S28000;10CRAKT22;2
S28000;10EST250V21;29
S28000;10EST500V21;24
S28000;10P250V21;29
S28000;10P500V21;20
S28000;11AS040SG22;20
S28000;11AS90005G21;1
S28000;11BC100G21;13
S28000;11BG140CS19;19
S28000;11BG140SH19;12
S28000;11BG140SI19;11
S28000;11BH050A18;7
S28000;11BO100CS19;35
S28000;11BP100I19;7
S28000;11BR100A20;6
S28000;11CF100TR19;5
S28000;11CM030H19;39
S28000;11CM030H20;66
S28000;11CM030O21;41
S28000;11CM125I19;13
S28000;11EH150A18;3
S28000;11EP010H19;10
S28000;11EP050H19;2
S28000;11ET010H20;6
S28000;11ET050H20;5
S28000;11ET075O21;7
S28000;11FAG10TR19;8
S28000;11GD050A18;9
S28000;11GD250H19;22
S28000;11GD250H20;27
S28000;11GD250O21;26
S28000;11GE075I20;4
S28000;11GM200I19;10
S28000;11GN195A18;11
S28000;11LC250H19;18
S28000;11LC250H20;20
S28000;11LC250O21;19
S28000;11LD200I19;4
S28000;11LH200I19;8
S28000;11LT300I20;3
S28000;11MA030A20;2
S28000;11MH075A19;4
S28000;11MWC200I19;7
S28000;11PEP050I20;4
S28000;11PM100SH19;5
S28000;11PM100SI19;6
S28000;11SA050O21;19
S28000;11SA100H19;14
S28000;11SA100H20;24
S28000;11SD100CS19;8
S28000;11SD100SH19;6
S10;11PM100SH19;5
S10;11PM100SI19;4
S10;11SA050O21;1
S10;11SA100H19;14
S10;11SA100H20;11
S10;11SD100CS19;6
S10;11SD100SH19;4
S10;11SD100SI19;4
S10;11SD100SL19;3
S10;11SP200CS19;3
S10;11SP200SH19;7
S10;11SP200SI19;3
S10;11SP200SL19;4
S10;11SV080I19;7
S10;12GD245NO21H;8
S10;12LC250NO22;8
S10;15AS250VA18;2
S10;15BA500L16A;8
S10;15BM500VB21;17
S10;15DO050VA5;10
S10;15ET010VB19;2
S10;15ET100VA20;3
S10;15ET100VB20;1
S10;15GD250L21;18
S10;15GD250VA20;5
S10;15GD250VB21;6
S10;15GD250VBL22;35
S10;15GD500VB21;6
S10;15GM065L21;33
S10;15GM065VB21;23
S10;15GM280VB21;4
S10;15GN300L21;7
S10;15HE005L14;8
S10;15LC250L14;7
S10;15LC250VA20;5
S10;15LC250VB3;5
S10;15LM300L11;7
S10;15MA030L21;42
S10;15MA030VA5;6
S10;15MA030VB3;19
S10;15MA075L20;23
S10;15MA075VB4;6
S10;15ORVER22;102
S10;15RB500L17;9
S10;15RC500VB21;1
S10;15RG500L14;1
S10;15RG500VA20;2
S10;15RO010VBM22;41
S10;15SA075VB21;6
S10;15SH250VA20;4
S10;17AF100G20;1
S10;17AS075G21;9
S10;17AS250E19;4
S10;17AS250FV21;6
S31000;11LC250H19;10
S31000;11LC250H20;10
S31000;11LC250O21;11
S31000;11LD200I19;7
S31000;11LH200I19;8
S31000;11LT300I20;4
S31000;11MH075A19;4
S31000;11MWC200I19;4
S31000;11PEP050I20;4
S31000;11PM100SH19;8
S31000;11PM100SI19;5
S31000;11SA050O21;18
S31000;11SA100H19;14
S31000;11SA100H20;18
S31000;11SD100CS19;12
S31000;11SD100SH19;10
S31000;11SD100SI19;5
S31000;11SD100SL19;6
S31000;11SH90005G21;1
S31000;11SP200CS19;9
S31000;11SP200SH19;10
S31000;11SP200SI19;7
S31000;11SP200SL19;11
S31000;11SV080I19;10
S31000;12GD245NO21H;34
S31000;12LC250NO22;10
S31000;15AS250VA18;6
S31000;15BA500L16A;12
S31000;15BM500VB21;18
S31000;15ET010VB19;6
S31000;15ET100VA20;4
S31000;15ET100VB20;8
S31000;15ET100VCL21;1
S31000;15GD250L21;37
S31000;15GD250VA20;15
S31000;15GD250VB21;14
S31000;15GD250VBL22;30
S31000;15GD500VB21;14
S31000;15GD9000V21;1
S31000;15GM065L21;31
S31000;15GM065VB21;37
S31000;15GM280VB21;6
S31000;15GN300L21;14
S31000;15HE005L14;6
S31000;15LC250L14;7
S31000;15LC250VA20;8
S31000;15LC250VB3;6
S31000;15LM300L11;7
S31000;15MA030L21;58
S31000;15MA030VA5;6
S31000;15MA030VB3;40
S31000;15MA075L20;20
S30000;11MH075A19;4
S30000;11MWC200I19;5
S30000;11PEP050I20;2
S30000;11PM100SH19;4
S30000;11PM100SI19;4
S30000;11SA050O21;5
S30000;11SA100H19;4
S30000;11SA100H20;10
S30000;11SD100CS19;6
S30000;11SD100SH19;8
S30000;11SD100SI19;3
S30000;11SD100SL19;5
S30000;11SP200CS19;6
S30000;11SP200SH19;5
S30000;11SP200SI19;5
S30000;11SP200SL19;5
S30000;11SV080I19;4
S30000;12GD245NO21H;18
S30000;12LC250NO22;10
S30000;15AS150VCL21;4
S30000;15AS250VA18;4
S30000;15BA500L16A;5
S30000;15BM500VB21;20
S30000;15DO050VA5;6
S30000;15ET010VB19;6
S30000;15ET100VA20;2
S30000;15ET100VB20;4
S30000;15ET100VCL21;4
S30000;15GD075L21;18
S30000;15GD250L21;18
S30000;15GD250VA20;5
S30000;15GD250VB21;15
S30000;15GD250VBL22;44
S30000;15GD500VB21;7
S30000;15GM065L21;19
S30000;15GM065VB21;31
S30000;15GM280VB21;4
S30000;15GN300L11;2
S30000;15GN300L21;10
S30000;15HE005L14;4
S30000;15LC250L14;6
S30000;15LC250VA20;5
S30000;15LC250VB3;6
S30000;15LM300L11;8
S30000;15MA030L21;26
S30000;15MA030VA5;2
S30000;15MA030VB3;22
S30000;15MA030VBM8;2
S30000;15MA075L20;7
S30000;15MA075VB4;3
S30000;15MF075VM20H;3
S30000;15ORVER22;99
S90000;15LC070VB5;117
S90000;15LC075L15;20
S90000;15LC250L14;7
S90000;15LC250VA20;12
S90000;15LC250VB3;1
S90000;15LC250VBM22;1
S90000;15LM300L11;9
S90000;15MA030L21;20
S90000;15MA030VA5;9
S90000;15MA030VB3;10
S90000;15MA030VBL22;1
S90000;15MA030VBM8;12
S90000;15MA075L20;21
S90000;15MA075VB4;13
S90000;15ORVER22;215
S90000;15RC500VB21;16
S90000;15RG500L14;6
S90000;15RG500VA20;9
S90000;15SA075VB21;39
S90000;15SE400VB5;2
S90000;15SH250VA20;11
S90000;17AF100G20;9
S90000;17AS075E19;156
S90000;17AS075FV21;44
S90000;17AS075G21;28
S90000;17AS075P19;52
S90000;17AS250E19;9
S90000;17AS250FV21;9
S90000;17AS250G21;12
S90000;17AS250P19;9
S90000;17AS500E19;11
S90000;17AS500FV21;11
S90000;17AS500G21;7
S90000;17AS500P19;18
S90000;17DO050F13;8
S90000;17ER075P19;6
S90000;17HB050A22;2
S90000;17HI001G19;100
S90000;17HI100G19;9
S90000;17MC200G21;6
S90000;17RC500E20;3
S90000;17RC500G21;7
S90000;17RC500P19;22
S90000;17RS500FV21;16
S90000;17RS500G21;33
S90000;17SE100FV21;18
S90000;17SH060SE21;9
S90000;17SH060SG21;5
S90000;17SH060SP21;6
S90000;17SH075E19;34
S90000;17SH075FV21;11
S90000;17SH075G21;21
S90000;17SH075P19;14
S27000;11PM100SH19;4
S27000;11PM100SI19;4
S27000;11PM100SL19;1
S27000;11SA050O21;5
S27000;11SA100H19;5
S27000;11SA100H20;9
S27000;11SD100CS19;8
S27000;11SD100SH19;8
S27000;11SD100SI19;5
S27000;11SD100SL19;4
S27000;11SP200CS19;6
S27000;11SP200SH19;5
S27000;11SP200SI19;4
S27000;11SP200SL19;5
S27000;11SV080I19;4
S27000;12GD245NO21H;16
S27000;12LC250NO22;3
S27000;15AS250VA18;10
S27000;15BA500L16A;10
S27000;15BM500VB21;17
S27000;15DO050VA5;6
S27000;15ET010VB19;4
S27000;15ET100VA20;2
S27000;15ET100VB20;3
S27000;15GD075L21;4
S27000;15GD250L21;23
S27000;15GD250VA20;6
S27000;15GD250VB21;17
S27000;15GD250VBL22;39
S27000;15GD500VB21;7
S27000;15GM065L21;19
S27000;15GM065VB21;30
S27000;15GM280VB21;5
S27000;15GN300L21;9
S27000;15GS150VBL22;2
S27000;15HE005L14;4
S27000;15LC250L14;15
S27000;15LC250VA20;5
S27000;15LC250VB3;8
S27000;15LM300L11;5
S27000;15MA030L21;32
S27000;15MA030VA5;5
S27000;15MA030VB3;25
S27000;15MA030VBL22;1
S27000;15MA075L20;14
S27000;15MA075VB4;7
S27000;15ORVER22;93
S27000;15RB500L17;7
S27000;15RC500VB21;9
S27000;15RG500L14;6
S27000;15RG500VA20;3
S27000;15RO010VBM22;43
S20;11PEP050I20;4
S20;11PM100SH19;10
S20;11PM100SI19;10
S20;11SA050O21;6
S20;11SA100H19;16
S20;11SA100H20;16
S20;11SD100CS19;18
S20;11SD100SH19;13
S20;11SD100SI19;12
S20;11SD100SL19;10
S20;11SP200CS19;12
S20;11SP200SH19;10
S20;11SP200SI19;12
S20;11SP200SL19;12
S20;11SV080I19;4
S20;12GD245NO21H;27
S20;12LC250NO22;1
S20;15AS250VA18;7
S20;15BA500L16A;8
S20;15BM500VB21;18
S20;15ET010VB19;4
S20;15ET100VB20;3
S20;15ET100VCL21;2
S20;15GD075L21;17
S20;15GD250L21;39
S20;15GD250VA20;26
S20;15GD250VB21;35
S20;15GD250VBL22;17
S20;15GD500VB21;23
S20;15GM065L21;50
S20;15GM065VB21;49
S20;15GM280VB21;10
S20;15GN300L21;16
S20;15HE005L14;6
S20;15LC250L14;28
S20;15LC250VA20;14
S20;15LC250VB3;24
S20;15LM300L11;10
S20;15MA030L21;60
S20;15MA030VA5;29
S20;15MA030VB3;32
S20;15MA075L20;37
S20;15MA075VB4;29
S20;15ORVER22;114
S20;15RC500VB21;23
S20;15RG500L14;17
S20;15RG500VA20;18
S20;15RO010VBM22;40
S20;15SA070VB6;3
S20;15SA075VB21;5
S20;15SH250VA20;7
S20;17AF100G20;13
S20;17AS250E19;10
S20;17AS250FV21;8
S29000;11LC250H20;12
S29000;11LC250O21;12
S29000;11LD200I19;14
S29000;11LH200I19;13
S29000;11LT300I20;4
S29000;11MH075A19;5
S29000;11MWC200I19;4
S29000;11PEP050I20;5
S29000;11PM100SH19;9
S29000;11PM100SI19;5
S29000;11SA050O21;13
S29000;11SA100H19;15
S29000;11SA100H20;17
S29000;11SD100CS19;8
S29000;11SD100SH19;10
S29000;11SD100SI19;6
S29000;11SD100SL19;9
S29000;11SP200CS19;18
S29000;11SP200SH19;14
S29000;11SP200SI19;13
S29000;11SP200SL19;13
S29000;11SV080I19;14
S29000;12GD245NO21H;14
S29000;12LC250NO22;1
S29000;15AS150VCL21;1
S29000;15AS250VA18;10
S29000;15BA500L16A;11
S29000;15BM500VB21;18
S29000;15DO050VA5;8
S29000;15ET010VB19;6
S29000;15ET100VA20;3
S29000;15ET100VB20;7
S29000;15ET100VCL21;1
S29000;15GD250L21;59
S29000;15GD250VA20;15
S29000;15GD250VB21;38
S29000;15GD250VBL22;74
S29000;15GD500VB21;29
S29000;15GM065L21;80
S29000;15GM065VB21;49
S29000;15GM280VB21;11
S29000;15GN300L21;19
S29000;15HE005L14;6
S29000;15LC250L14;19
S29000;15LC250VA20;12
S29000;15LC250VB3;11
S29000;15LM300L11;12
S29000;15MA030L21;79
S29000;15MA030VA5;24
S29000;15MA030VAL21;2
S29000;15MA030VB3;32
S29000;15MA030VBM8;1
S24000;11SD100CS19;5
S24000;11SD100SH19;3
S24000;11SD100SI19;6
S24000;11SD100SL19;2
S24000;11SP200CS19;6
S24000;11SP200SH19;3
S24000;11SP200SI19;5
S24000;11SP200SL19;7
S24000;11SV080I19;4
S24000;12GD245NO21H;15
S24000;12LC250NO22;6
S24000;15AS150VCL21;4
S24000;15AS250VA18;5
S24000;15BA500L16A;11
S24000;15BM500VB21;15
S24000;15ET010VB19;2
S24000;15ET100VA20;3
S24000;15ET100VB20;2
S24000;15ET100VCL21;2
S24000;15GD250L21;7
S24000;15GD250VA20;4
S24000;15GD250VB21;12
S24000;15GD250VBL22;38
S24000;15GD500VB21;2
S24000;15GM065L21;36
S24000;15GM065VB21;22
S24000;15GM280VB21;4
S24000;15GN300L21;6
S24000;15GS150VBL22;1
S24000;15HE005L14;6
S24000;15LC250L14;7
S24000;15LC250VA20;4
S24000;15LC250VB3;8
S24000;15LM300L11;8
S24000;15MA030L21;51
S24000;15MA030VA5;3
S24000;15MA030VAL21;1
S24000;15MA030VB3;18
S24000;15MA075L20;7
S24000;15MA075VB4;5
S24000;15MF075VM20H;5
S24000;15ORVER22;110
S24000;15RB500L17;10
S24000;15RC500VB21;2
S24000;15RG500L14;1
S24000;15RG500VA20;6
S24000;15RO010VBM22;31
S24000;15SA075VB21;5
S24000;15SE400VB5;2
S24000;15SH250VA20;5
S24000;17AF100G20;5
S24000;17AS075G21;11
S10;17AS250G21;8
S10;17AS250P19;8
S10;17AS500E19;2
S10;17AS500FV21;7
S10;17AS500G21;8
S10;17AS500P19;5
S10;17ER075P19;2
S10;17HI001G19;83
S10;17HI100G19;4
S10;17MC200G21;7
S10;17RC500E20;4
S10;17RC500G18;2
S10;17RC500G21;6
S10;17RC500P19;4
S10;17RS500E20;12
S10;17RS500G21;8
S10;17RS500P19;11
S10;17SE100FV21;8
S10;17SH060SE21;3
S10;17SH060SG21;4
S10;17SH060SP21;5
S10;17SH075E19;15
S10;17SH075G21;63
S10;17SH300E19;16
S10;17SH300FV21;9
S10;17SH300G21;10
S10;17SH300P19;11
S10;17SH500E19;10
S10;17SH500FV21;4
S10;17SH500G21;11
S10;17SH500P19;4
S10;17VI100P19;5
S10;18ET010TL17;3
S10;20AR075O20;5
S10;20DO050O20;3
S10;20DO130HC20;7
S10;20ET075CD20;2
S10;20ET075HC20;4
S10;20ET075OC20;6
S10;20FE050H20;3
S10;20GD250CD20;11
S10;20GD250HC20;9
S10;20GD250OC20;8
S10;20GD500HC20;14
S10;20HR050H20;3
S10;20NV150H20;9
S10;20SA050CD20;3
S10;20SA050HC20;3
S10;24BL012CB5;11
S10;24BL012R22;7
S10;24BR050CB21;4
S10;24BR050R22;10
S10;24ET075CB21;1
S10;24ET075R22;11
S28000;11SD100SI19;1
S28000;11SD100SL19;4
S28000;11SP200CS19;8
S28000;11SP200SH19;10
S28000;11SP200SI19;9
S28000;11SP200SL19;11
S28000;11SV080I19;4
S28000;12GD245NO21H;41
S28000;12LC250NO22;1
S28000;15AS250VA18;7
S28000;15BA500L16A;5
S28000;15BM500VB21;56
S28000;15CF150VBL21;7
S28000;15DF200VBL21;38
S28000;15ET010VB19;4
S28000;15ET100VA20;8
S28000;15ET100VB20;8
S28000;15ET100VCL21;1
S28000;15GD250L21;32
S28000;15GD250VA20;8
S28000;15GD250VB21;19
S28000;15GD250VBL22;123
S28000;15GD250VBM8;13
S28000;15GD9000V21;1
S28000;15GM065L21;55
S28000;15GM065VB21;33
S28000;15GM280VB21;3
S28000;15GN300L21;8
S28000;15HE005L14;9
S28000;15LC250L14;17
S28000;15LC250VA20;12
S28000;15LC250VB3;16
S28000;15LM300L11;8
S28000;15MA030L21;64
S28000;15MA030VA5;12
S28000;15MA030VB3;32
S28000;15MA075L20;14
S28000;15MA075VB4;15
S28000;15ORVER22;139
S28000;15RB500L17;22
S28000;15RC500VB21;3
S28000;15RG500L14;4
S28000;15RG500VA20;3
S28000;15RO010VBM22;102
S28000;15SA075VB21;5
S28000;15SH250VA20;8
S28000;17AF100G20;1
S28000;17AS075G21;14
S28000;17AS250E19;4
S28000;17AS250FV21;3
S28000;17AS250G18;3
S28000;17AS250G21;6
S30000;15RB500L17;7
S30000;15RC500VB21;12
S30000;15RG500L14;11
S30000;15RG500VA20;8
S30000;15RO010VBM22;39
S30000;15SA075VB21;3
S30000;15SE400VB5;7
S30000;15SH250VA20;2
S30000;17AF100G20;8
S30000;17AS250E19;6
S30000;17AS250FV21;6
S30000;17AS250G18;2
S30000;17AS250G21;8
S30000;17AS250P19;5
S30000;17AS500E19;5
S30000;17AS500FV21;4
S30000;17AS500G21;5
S30000;17AS500P19;6
S30000;17DO050F13;2
S30000;17HI001G19;83
S30000;17MC200G21;3
S30000;17RC500E20;12
S30000;17RC500G18;4
S30000;17RC500G21;8
S30000;17RC500P19;8
S30000;17RS500E20;20
S30000;17RS500FV21;13
S30000;17RS500G21;20
S30000;17RS500P19;17
S30000;17SE100FV21;3
S30000;17SH060SE21;4
S30000;17SH060SG21;3
S30000;17SH060SP21;4
S30000;17SH075G21;23
S30000;17SH300E19;9
S30000;17SH300FV21;7
S30000;17SH300G21;10
S30000;17SH300P19;7
S30000;17SH500E19;10
S30000;17SH500FV21;5
S30000;17SH500G21;15
S30000;17SH500P19;12
S30000;17VI100P19;5
S30000;18ET010TL17;8
S30000;20AR075O20;6
S30000;20DO050O20;3
S30000;20DO075CD20;2
S30000;20DO130HC20;4
S30000;20ET075CD20;4
S30000;20ET075HC20;4
S30000;20ET075OC20;5
S30000;20FE050H20;3
S30000;20GD250CD20;8
S29000;15MA075L20;29
S29000;15MA075VB4;23
S29000;15MF075VM20H;1
S29000;15ORVER22;87
S29000;15RB500L17;20
S29000;15RC500VB21;34
S29000;15RG500L14;19
S29000;15RG500VA20;23
S29000;15RO010VBM22;67
S29000;15SA070VB6;7
S29000;15SA075VB21;14
S29000;15SH250VA20;15
S29000;17AF100G20;20
S29000;17AS250E19;6
S29000;17AS250FV21;6
S29000;17AS250G18;4
S29000;17AS250G21;15
S29000;17AS250P19;6
S29000;17AS500E19;15
S29000;17AS500FV21;7
S29000;17AS500G21;10
S29000;17AS500P19;7
S29000;17DO050F13;7
S29000;17ER075P19;4
S29000;17HB050A22;28
S29000;17HI001G19;110
S29000;17HI100G19;11
S29000;17MC200G21;12
S29000;17RC500E20;31
S29000;17RC500G18;10
S29000;17RC500G21;35
S29000;17RC500P19;24
S29000;17RS500E20;27
S29000;17RS500FV21;17
S29000;17RS500G21;47
S29000;17RS500P19;46
S29000;17SE100FV21;16
S29000;17SH060SE21;9
S29000;17SH060SG21;7
S29000;17SH060SP21;9
S29000;17SH075E19;193
S29000;17SH075G21;195
S29000;17SH300E19;25
S29000;17SH300FV21;10
S29000;17SH300G21;25
S29000;17SH300P19;11
S29000;17SH500E19;19
S29000;17SH500FV21;16
S29000;17SH500G21;17
S29000;17SH500P19;12
S29000;17VI100P19;5
S29000;18ET010TL17;31
S29000;20AR075O20;9
S90000;17SH300E19;6
S90000;17SH300FV21;11
S90000;17SH300G21;9
S90000;17SH300P19;10
S90000;17SH500E19;4
S90000;17SH500FV21;11
S90000;17SH500G21;14
S90000;17SH500P19;5
S90000;17VI100P19;10
S90000;20AR075O20;8
S90000;20DO050O20;10
S90000;20DO075CD20;3
S90000;20DO130HC20;8
S90000;20ET075CD20;8
S90000;20ET075HC20;4
S90000;20ET075OC20;6
S90000;20FE050H20;14
S90000;20GD250CD20;10
S90000;20GD250HC20;5
S90000;20GD250OC20;7
S90000;20GD500HC20;13
S90000;20HR050H20;8
S90000;20NV150H20;6
S90000;20SA050CD20;7
S90000;20SA050HC20;11
S90000;20SA050O20;1
S90000;24BL012CB5;8
S90000;24BR050CB21;11
S90000;24BR050R22;9
S90000;24CM030R22H;2
S90000;24ET075CB21;3
S90000;24ET075R22;7
S90000;24GD075CB5;11
S90000;24GD250CB21;11
S90000;24GD250R22;22
S90000;24GD250R22H;1
S90000;24GD500R22;12
S90000;24GM030C21;1
S90000;24LC075R22;145
S90000;24LC250CB4;5
S90000;24LC250CBL22;3
S90000;24LC250R22;10
S90000;24MA030CB21;30
S90000;24MA030CB4;7
S90000;24MA030CBL22;3
S90000;24MA030P15;2
S90000;24MA030R22;11
S90000;24MA030RA19;9
S90000;24MA030RE19;10
S90000;24MA030RV19;8
S90000;24MA075CB4;6
S90000;24MA075P15;9
S27000;15SA070VB6;2
S27000;15SA075VB21;4
S27000;15SE400VB5;1
S27000;15SH250VA20;5
S27000;17AF100G20;10
S27000;17AS250E19;6
S27000;17AS250FV21;5
S27000;17AS250G18;4
S27000;17AS250G21;5
S27000;17AS250P19;7
S27000;17AS500E19;5
S27000;17AS500FV21;5
S27000;17AS500G21;5
S27000;17AS500P19;5
S27000;17DO050F13;3
S27000;17ER075P19;7
S27000;17HB050A22;16
S27000;17HI001G19;71
S27000;17HI100G19;7
S27000;17MC200G21;6
S27000;17RC500E20;6
S27000;17RC500G18;2
S27000;17RC500G21;13
S27000;17RC500P19;4
S27000;17RS500E20;5
S27000;17RS500FV21;4
S27000;17RS500G21;9
S27000;17RS500P19;15
S27000;17SE100FV21;6
S27000;17SH060SE21;6
S27000;17SH060SG21;4
S27000;17SH060SP21;6
S27000;17SH075E19;118
S27000;17SH075G21;119
S27000;17SH300E19;14
S27000;17SH300FV21;11
S27000;17SH300G21;14
S27000;17SH300P19;8
S27000;17SH500E19;9
S27000;17SH500FV21;6
S27000;17SH500G21;15
S27000;17SH500P19;8
S27000;17VI100P19;4
S27000;18ET010TL17;3
S27000;20AR075O20;6
S27000;20DO050O20;5
S27000;20DO075CD20;4
S27000;20DO130HC20;11
S27000;20ET075CD20;4
S27000;20ET075HC20;3
S27000;20ET075OC20;5
S27000;20FE050H20;8
S27000;20GD250CD20;7
S20;17AS250G18;5
S20;17AS250G21;9
S20;17AS250P19;6
S20;17AS500E19;9
S20;17AS500FV21;9
S20;17AS500G21;14
S20;17AS500P19;6
S20;17DO050F13;13
S20;17ER075P19;5
S20;17HB050A22;18
S20;17HI001G19;53
S20;17HI100G19;4
S20;17MC200G21;13
S20;17RC500E20;14
S20;17RC500G18;13
S20;17RC500G21;23
S20;17RC500P19;12
S20;17RS500E20;31
S20;17RS500FV21;21
S20;17RS500G21;36
S20;17RS500P19;16
S20;17SE100FV21;7
S20;17SH060SE21;4
S20;17SH060SG21;6
S20;17SH060SP21;4
S20;17SH075E19;115
S20;17SH075G21;124
S20;17SH300E19;24
S20;17SH300FV21;20
S20;17SH300G21;22
S20;17SH300P19;18
S20;17SH500E19;15
S20;17SH500FV21;18
S20;17SH500G21;18
S20;17SH500P19;11
S20;17VI100P19;6
S20;20AR075O20;8
S20;20DO050O20;7
S20;20DO075CD20;16
S20;20DO130HC20;8
S20;20ET075CD20;3
S20;20ET075HC20;3
S20;20ET075OC20;3
S20;20FE050H20;3
S20;20GD250CD20;20
S20;20GD250HC20;29
S20;20GD250OC20;30
S20;20GD500HC20;18
S20;20HR050H20;1
S20;20NV150H20;23
S20;20SA050CD20;4
S20;20SA050HC20;1
S20;24BL012CB5;14
S20;24BL012R22;13
S30000;20GD250HC20;14
S30000;20GD250OC20;8
S30000;20GD500HC20;5
S30000;20HR050H20;4
S30000;20NV150H20;9
S30000;20SA050CD20;3
S30000;20SA050HC20;2
S30000;24BL012CB5;12
S30000;24BL012R22;12
S30000;24BR050CB21;13
S30000;24BR050R22;12
S30000;24EDT10C21;4
S30000;24ET075CB21;11
S30000;24ET075R22;10
S30000;24GD250CB21;33
S30000;24GD250R22;19
S30000;24GD500R22;7
S30000;24GM030C21;1
S30000;24LC250CB4;11
S30000;24LC250R22;9
S30000;24MA030CB4;75
S30000;24MA030P15;6
S30000;24MA030R22;36
S30000;24MA030RV19;6
S30000;24MA030S6;4
S30000;24MA075CB4;18
S30000;24MA075P15;8
S30000;24MA075R22;6
S30000;24MA150R22;7
S30000;24ORCHB22;58
S30000;24RG500CB21;12
S30000;24RG500R22;23
S30000;24RO010CB4;12
S30000;24SA050CB21;6
S30000;24SA050R22;7
S30000;27BP050I19;8
S30000;27BY015I19;4
S30000;27CP050I19;4
S30000;27DB015I20;5
S30000;27DC050I20;9
S30000;27DCB060I17;3
S30000;27DE015I21;3
S30000;27DF125I17;4
S30000;27DH015I22;22
S30000;27DH030I20;5
S30000;27DH030I22;20
S30000;27DL200I21;2
S30000;27DS030I20;6
S30000;27ER015I22;26
S30000;27ER050I21;6
S30000;27ER150I21;15
S30000;27EV200I19;3
S30000;27FP050I19;2
S10;24GD250CB21;24
S10;24GD250R22;19
S10;24GD250RJ21H;2
S10;24GD500R22;8
S10;24LC250CB4;9
S10;24LC250R22;14
S10;24MA030CB4;50
S10;24MA030R22;28
S10;24MA030RA19;6
S10;24MA030RV19;6
S10;24MA075CB4;16
S10;24MA075P15;8
S10;24MA075R22;9
S10;24MA150R22;6
S10;24ORCHB22;58
S10;24RG500CB21;6
S10;24RG500R22;9
S10;24RO010CB4;7
S10;24SA050R22;6
S10;27BP050I19;1
S10;27BY015I19;3
S10;27CP050I19;3
S10;27DB015I20;4
S10;27DC050I20;6
S10;27DCB060I17;4
S10;27DF125I17;1
S10;27DH015I22;5
S10;27DH030I20;4
S10;27DH030I22;11
S10;27DL200I21;2
S10;27DS030I20;3
S10;27ER015I22;14
S10;27ER050I21;8
S10;27ER150I21;13
S10;27EV200I19;3
S10;27HC050I18;4
S10;27HCR050I16;2
S10;27HS030I18;4
S10;27HSR030I16;2
S10;27MI150I20;4
S10;27MP050I20;10
S10;27MP150I22;3
S10;27MQ065I15A;4
S10;27MS050I20;4
S10;27OR030I21;25
S10;27OR050I21;1
S10;27SP030I19;4
S10;29ASH240A20;5
S10;29BP100A22;6
S10;29EC200A21;8
S10;29GE200A21;20
S10;29HD075A15;34
S10;29HD250A15;7
S10;29HD500A15;17
S24000;17AS250E19;6
S24000;17AS250FV21;6
S24000;17AS250G18;4
S24000;17AS250G21;4
S24000;17AS250P19;3
S24000;17AS500E19;8
S24000;17AS500FV21;6
S24000;17AS500G21;4
S24000;17AS500P19;4
S24000;17DO050F13;9
S24000;17ER075P19;4
S24000;17HB050A22;1
S24000;17HI001G19;134
S24000;17HI100G19;5
S24000;17MC200G21;7
S24000;17RC500E20;3
S24000;17RC500G18;5
S24000;17RC500G21;11
S24000;17RC500P19;2
S24000;17RS500E20;6
S24000;17RS500FV21;4
S24000;17RS500G21;5
S24000;17RS500P19;8
S24000;17SE100FV21;6
S24000;17SH060SE21;4
S24000;17SH060SG21;4
S24000;17SH060SP21;4
S24000;17SH075G21;6
S24000;17SH300E19;6
S24000;17SH300FV21;4
S24000;17SH300G21;6
S24000;17SH300P19;6
S24000;17SH500E19;3
S24000;17SH500G21;5
S24000;17SH500P19;4
S24000;17VI100P19;4
S24000;20AR075O20;6
S24000;20DO050O20;5
S24000;20DO075CD20;6
S24000;20DO130HC20;5
S24000;20ET075CD20;1
S24000;20ET075HC20;2
S24000;20ET075OC20;5
S24000;20FE050H20;2
S24000;20GD250CD20;8
S24000;20GD250HC20;10
S24000;20GD250OC20;8
S24000;20GD500HC20;7
S24000;20HR050H20;7
S24000;20NV150H20;12
S24000;20SA050CD20;3
S24000;20SA050HC20;2
S24000;24BL012CB5;7
S28000;17AS250P19;5
S28000;17AS500E19;3
S28000;17AS500FV21;8
S28000;17AS500G21;9
S28000;17AS500P19;6
S28000;17DO050F13;5
S28000;17ER075P19;12
S28000;17HI001G19;51
S28000;17HI100G19;6
S28000;17MC200G21;12
S28000;17RC500E20;8
S28000;17RC500G18;12
S28000;17RC500G21;22
S28000;17RC500P19;10
S28000;17RS500E20;15
S28000;17RS500FV21;26
S28000;17RS500G21;24
S28000;17RS500P19;20
S28000;17SE100FV21;7
S28000;17SH060SE21;7
S28000;17SH060SG21;5
S28000;17SH300E19;5
S28000;17SH300FV21;7
S28000;17SH300G21;10
S28000;17SH300P19;14
S28000;17SH500E19;10
S28000;17SH500FV21;15
S28000;17SH500G21;10
S28000;17SH500P19;8
S28000;17VI100P19;2
S28000;18ET010TL17;3
S28000;20DO050O20;2
S28000;20DO130HC20;2
S28000;20ET075CD20;3
S28000;20ET075HC20;4
S28000;20ET075OC20;6
S28000;20FE050H20;5
S28000;20GD250CD20;13
S28000;20GD250HC20;25
S28000;20GD250OC20;18
S28000;20GD500HC20;9
S28000;20HR050H20;5
S28000;20NV150H20;22
S28000;20SA050CD20;10
S28000;20SA050HC20;10
S28000;24BL012CB5;11
S28000;24BL012R22;6
S28000;24BR050CB6;3
S28000;24BR050R22;13
S28000;24CC150R22H;1
S28000;24EDT10C21;1
S28000;24ET050R22H;1
S28000;24ET075CB21;6
S30000;27HC050I18;4
S30000;27HCR050I16;3
S30000;27HS030I18;4
S30000;27HSR030I16;4
S30000;27MI150I20;4
S30000;27MP050I20;15
S30000;27MP150I20;7
S30000;27MQ065I15A;3
S30000;27MS050I20;6
S30000;27OR030I21;31
S30000;27OR050I21;10
S30000;27SP030I19;4
S30000;29ASH240A20;2
S30000;29BP100A19;2
S30000;29BP100A22;4
S30000;29EC200A21;3
S30000;29GE200A21;21
S30000;29HD075A15;5
S30000;29HD250A15;16
S30000;29HD500A15;19
S30000;29HS100A22SM;6
S30000;29LC200A20US;20
S30000;29MA030A17;9
S30000;29MA075A21;12
S30000;29ORALM22;99
S30000;29RC200A20;27
S30000;29RH500A15;12
S30000;29SA050A21;7
S30000;29SE125A21;6
S30000;29VC240A22;7
S30000;38BV050A19;1
S30000;38EC015A18;3
S30000;38EV075A21;5
S30000;38FT200A21;3
S30000;38MI150A22;2
S30000;38RC050A22;3
S30000;38UV030A18;4
S30000;38WS030A21;5
S30000;49BO015CS19;12
S30000;49CABNO22;37
S30000;49DC004I20;2
S30000;49DH004I20;32
S30000;49DISC3NO22;5
S30000;49HD035A15;4
S30000;49LC020A20;26
S30000;49MA010K22;18
S30000;49OR005I21;9
S30000;52AF006G20;5
S30000;52AS006E19;63
S30000;52AS006FV21;31
S30000;52AS006G21;117
S30000;52AS006P19;54
S30000;52BY001I19;151
S29000;20DO050O20;4
S29000;20DO075CD20;7
S29000;20DO130HC20;7
S29000;20ET075CD20;4
S29000;20ET075HC20;3
S29000;20ET075OC20;6
S29000;20GD250CD20;20
S29000;20GD250HC20;28
S29000;20GD250OC20;22
S29000;20GD500HC20;31
S29000;20HR050H20;3
S29000;20NV150H20;27
S29000;20SA050CD20;16
S29000;20SA050HC20;13
S29000;20SA050O20;2
S29000;24BL012CB5;11
S29000;24BL012R22;8
S29000;24BR050CB21;18
S29000;24BR050CB6;11
S29000;24BR050CBL22;1
S29000;24BR050R22;22
S29000;24EDT10C21;7
S29000;24ET075CB21;11
S29000;24ET075R22;10
S29000;24GD250CB21;59
S29000;24GD250R22;54
S29000;24GD250RJ21H;6
S29000;24GD500CB21;5
S29000;24GD500R22;13
S29000;24GM030C21;1
S29000;24LC250CB4;22
S29000;24LC250R22;18
S29000;24MA030CB4;96
S29000;24MA030P15;16
S29000;24MA030R22;67
S29000;24MA030RA19;7
S29000;24MA030RV19;6
S29000;24MA075CB4;26
S29000;24MA075P15;24
S29000;24MA075R22;14
S29000;24MA150R22;13
S29000;24ORCHB22;57
S29000;24RG500CB21;26
S29000;24RG500R22;20
S29000;24RO010CB4;8
S29000;24SA050CB21;11
S29000;24SA050R22;14
S29000;27BY015I19;3
S29000;27CP050I19;15
S29000;27DB015I20;14
S29000;27DC050I20;19
S29000;27DCB060I17;4
S90000;24MA075R18;24
S90000;24MA075R22;18
S90000;24MA150R22;8
S90000;24ORCHB22;135
S90000;24RG500CB21;13
S90000;24RG500R22;9
S90000;24RO010CB4;4
S90000;24SA050CB21;7
S90000;24SA050R22;6
S90000;27BY015I19;5
S90000;27CP050I19;2
S90000;27DB015I20;9
S90000;27DC050I20;5
S90000;27DCB060I17;6
S90000;27DE015I21;10
S90000;27DF125I17;7
S90000;27DH015I20;3
S90000;27DH015I22;13
S90000;27DH030I20;8
S90000;27DH030I22;15
S90000;27DL200I21;10
S90000;27DS030I20;8
S90000;27ER015I22;9
S90000;27ER050I21;8
S90000;27ER150I21;12
S90000;27EV200I19;1
S90000;27HC050I18;5
S90000;27HCR050I16;5
S90000;27HS030I18;5
S90000;27HSR030I16;4
S90000;27MI150I20;9
S90000;27MP050I20;172
S90000;27MP150I20;5
S90000;27MP150I22;15
S90000;27MQ065I15A;4
S90000;27MS050I20;3
S90000;27OR030I21;15
S90000;27OR050I21;5
S90000;27SP030I19;8
S90000;27TS001I20;679
S90000;29ASH240A20;8
S90000;29BP100A22;10
S90000;29EC200A21;12
S90000;29GE200A21;5
S90000;29HD075A15;62
S90000;29HD250A15;13
S90000;29HD500A15;33
S90000;29HS100A21;9
S90000;29HS100A22SM;7
S90000;29LC200A20US;18
S90000;29MA030A17;7
S90000;29MA075A21;14
S90000;29ORALM22;7
S20;24BR050CB21;20
S20;24BR050CB6;3
S20;24BR050R22;21
S20;24EDT10C21;1
S20;24ET075CB21;3
S20;24ET075R22;8
S20;24GD250CB21;49
S20;24GD250R22;35
S20;24GD500R22;18
S20;24LC250CB4;28
S20;24LC250R22;23
S20;24MA030CB4;56
S20;24MA030P15;31
S20;24MA030R22;58
S20;24MA030RA19;2
S20;24MA030RV19;9
S20;24MA075CB4;34
S20;24MA075P15;24
S20;24MA075R22;33
S20;24MA150R22;14
S20;24ORCHB22;103
S20;24RG500CB21;26
S20;24RG500R22;24
S20;24RO010CB4;5
S20;24SA050CB21;16
S20;24SA050R22;16
S20;27BY015I19;4
S20;27CP050I19;10
S20;27DB015I20;12
S20;27DC050I20;13
S20;27DCB060I17;4
S20;27DE015I21;12
S20;27DF125I17;16
S20;27DH015I20;2
S20;27DH015I22;18
S20;27DH030I20;3
S20;27DH030I22;17
S20;27DL200I21;6
S20;27DS030I20;4
S20;27ER015I22;18
S20;27ER050I21;10
S20;27ER150I21;12
S20;27EV200I19;8
S20;27HC050I18;6
S20;27HCR050I16;5
S20;27HS030I18;4
S20;27HSR030I16;6
S20;27MI150I20;4
S20;27MP050I20;5
S20;27MP150I20;1
S20;27MP150I22;16
S20;27MQ065I15A;4
S20;27MS050I20;8
S20;27OR030I21;21
S20;27OR050I21;23
S27000;20GD250HC20;12
S27000;20GD250OC20;8
S27000;20GD500HC20;10
S27000;20HR050H20;8
S27000;20NV150H20;10
S27000;20SA050CD20;4
S27000;20SA050HC20;4
S27000;24BL012CB5;6
S27000;24BL012R22;9
S27000;24BR050CB21;17
S27000;24BR050CB6;2
S27000;24BR050R22;18
S27000;24EDT10C21;6
S27000;24ET075CB21;6
S27000;24ET075R22;5
S27000;24GD250CB21;34
S27000;24GD250R22;22
S27000;24GD500R22;5
S27000;24GM030C21;1
S27000;24LC250CB4;15
S27000;24LC250R22;9
S27000;24MA030CB4;75
S27000;24MA030P15;6
S27000;24MA030R22;40
S27000;24MA030RA19;4
S27000;24MA030RV19;6
S27000;24MA075CB4;16
S27000;24MA075P15;5
S27000;24MA075R22;5
S27000;24MA150R22;4
S27000;24ORCHB22;60
S27000;24RG500CB21;10
S27000;24RG500R22;11
S27000;24RO010CB4;6
S27000;24SA050CB21;7
S27000;24SA050R22;7
S27000;27BY015I19;4
S27000;27CP050I19;5
S27000;27DB015I20;5
S27000;27DC050I20;8
S27000;27DCB060I17;5
S27000;27DE015I21;5
S27000;27DF125I17;9
S27000;27DH015I22;12
S27000;27DH030I20;4
S27000;27DH030I22;8
S27000;27DL200I21;5
S27000;27DS030I20;6
S27000;27ER015I22;20
S27000;27ER050I21;6
S27000;27ER150I21;11
S27000;27EV200I19;5
S27000;27HC050I18;4
S10;29LC200A20US;21
S10;29MA030A17;12
S10;29MA075A21;12
S10;29ORALM22;98
S10;29RC200A20;20
S10;29RH500A15;13
S10;29SA050A21;1
S10;29SE125A21;3
S10;29SH240A20;4
S10;38BV050A19;4
S10;38EC015A18;4
S10;38EV075A21;7
S10;38FT200A21;7
S10;38MI150A22;12
S10;38RC050A18;2
S10;38RC050A22;14
S10;38UV030A18;2
S10;38WC050A21;5
S10;38WM065A18;2
S10;38WS030A21;4
S10;49BO015CS19;53
S10;49CABNO22;43
S10;49CP020K22;10
S10;49DC004I20;35
S10;49DH004I20;10
S10;49DISC3NO22;24
S24000;52BY001I19;88
S24000;52CARDNO22;8
S24000;52CD0015A18;47
S24000;52CL0015K21;98
S24000;52CP0015I19;55
S24000;52CP006K22;319
S24000;52CV0015K22;123
S24000;52DB001I20;140
S24000;52DC0015I20;215
S24000;52DE001I21;263
S24000;52DF002I17;160
S24000;52DH001I22;108
S24000;52DL002I21;89
S24000;52DS001I20;50
S24000;52ER002I21;389
S24000;52GD0015A18;74
S24000;52GIF1NO22;6
S24000;52GIF2NO22;6
S24000;52HD006A18;265
S24000;52HS001I17;114
S24000;52HS004A18;90
S24000;52LABANO22;104
S24000;52LASANO21;120
S24000;52LASANO22;180
S24000;52LC006A20;242
S24000;52LGEBAG19;51
S24000;52LGEBOX18;12
S24000;52LGENSA21;31
S31000;15MA075VB4;10
S31000;15ORVER22;149
S31000;15RB500L17;12
S31000;15RC500VB21;15
S31000;15RG500L14;11
S31000;15RG500VA20;9
S31000;15SA070VB6;1
S31000;15SA075VB21;6
S31000;15SH250VA20;8
S31000;17AF100G20;10
S31000;17AS250E19;5
S31000;17AS250FV21;6
S31000;17AS250G18;5
S31000;17AS250G21;8
S31000;17AS250P19;6
S31000;17AS500E19;7
S31000;17AS500FV21;7
S31000;17AS500G21;10
S31000;17AS500P19;6
S31000;17DO050F13;13
S31000;17ER075P19;6
S31000;17HB050A22;19
S31000;17HI001G19;98
S31000;17HI100G19;9
S31000;17MC200G21;12
S31000;17RC500E20;8
S31000;17RC500G18;9
S31000;17RC500G21;22
S31000;17RC500P19;8
S31000;17RS500E20;32
S31000;17RS500FV21;19
S31000;17RS500G21;59
S31000;17RS500P19;18
S31000;17SE100FV21;12
S31000;17SH060SE21;4
S31000;17SH060SG21;4
S31000;17SH060SP21;6
S31000;17SH075E19;200
S31000;17SH075G21;229
S31000;17SH300E19;17
S31000;17SH300FV21;7
S31000;17SH300G21;11
S31000;17SH300P19;10
S31000;17SH500E19;15
S31000;17SH500FV21;12
S31000;17SH500G21;17
S31000;17SH500P19;9
S31000;17VI100P19;4
S31000;18ET010TL17;1
S31000;20AR075O20;7
S31000;20DO050O20;6
S31000;20DO075CD20;6
S31000;20DO130HC20;6
S24000;24BL012R22;9
S24000;24BR050CB21;8
S24000;24BR050R22;15
S24000;24EDT10C21;1
S24000;24ET075R22;5
S24000;24GD250CB21;26
S24000;24GD250R22;27
S24000;24GD500CB21;5
S24000;24GD500R22;6
S24000;24GM030C21;2
S24000;24LC250CB4;13
S24000;24LC250R22;3
S24000;24MA030CB4;54
S24000;24MA030R22;47
S24000;24MA030RA19;5
S24000;24MA030RV19;8
S24000;24MA075CB4;24
S24000;24MA075P15;9
S24000;24MA075R22;10
S24000;24MA150R22;2
S24000;24ORCHB22;23
S24000;24RG500R22;3
S24000;24RO010CB4;6
S24000;24SA050CB21;17
S24000;24SA050R22;10
S24000;27BY015I19;6
S24000;27CP050I19;4
S24000;27DB015I20;5
S24000;27DC050I20;5
S24000;27DCB060I17;4
S24000;27DE015I21;3
S24000;27DS030I20;2
S24000;27ER015I22;6
S24000;27ER050I21;10
S24000;27ER150I21;7
S24000;27EV200I19;1
S24000;27HC050I18;4
S24000;27HCR050I16;3
S24000;27HS030I18;2
S24000;27HSR030I16;3
S24000;27MI150I20;3
S24000;27MP050I20;5
S24000;27MP150I20;2
S24000;27MP150I22;3
S24000;27MQ065I15A;4
S24000;27MS050I20;7
S24000;27OR030I21;8
S24000;27SP030I19;3
S24000;29ASH240A20;5
S24000;29BP100A22;3
S24000;29EC200A21;3
S24000;29GE200A21;32
S24000;29HD075A15;25
S28000;24ET075R22;4
S28000;24GD250CB21;25
S28000;24GD250R22;33
S28000;24GD500CB21;26
S28000;24GD500R22;8
S28000;24LC250CB4;19
S28000;24LC250R22;14
S28000;24MA030CB4;51
S28000;24MA030P15;9
S28000;24MA030R22;62
S28000;24MA030RV19;11
S28000;24MA075CB4;8
S28000;24MA075P15;17
S28000;24MA075R22;26
S28000;24RG500CB21;13
S28000;24RG500R22;12
S28000;24RO010CB4;2
S28000;24SA050CB21;5
S28000;27BY015I19;3
S28000;27CP050I19;3
S28000;27DB015I20;8
S28000;27DC050I20;11
S28000;27DCB060I17;2
S28000;27DE015I21;7
S28000;27DF125I17;23
S28000;27DH015I20;2
S28000;27DH015I22;29
S28000;27DH030I20;3
S28000;27DH030I22;23
S28000;27DL200I21;2
S28000;27DS030I20;9
S28000;27ER015I22;12
S28000;27ER050I21;10
S28000;27ER150I21;28
S28000;27EV200I19;2
S28000;27HC050I18;4
S28000;27HCR050I16;3
S28000;27HS030I18;3
S28000;27HSR030I16;4
S28000;27MI150I20;3
S28000;27MP050I20;25
S28000;27MP150I22;10
S28000;27MQ065I15A;3
S28000;27MS050I20;9
S28000;27OR030I21;27
S28000;27OR050I21;23
S28000;27SP030I19;3
S28000;29ASH240A20;6
S28000;29BP100A22;7
S28000;29EC200A21;2
S28000;29GE200A21;26
S28000;29HD075A15;55
S28000;29HD250A15;6
S30000;52CARDNO22;8
S30000;52CD0015A18;109
S30000;52CL0015K21;107
S30000;52CP0015I19;83
S30000;52CP006K22;86
S30000;52CV0015K22;61
S30000;52DB001I20;169
S30000;52DC0015I20;143
S30000;52DE001I21;54
S30000;52DF002I17;34
S30000;52DH001I22;257
S30000;52DL002I21;52
S30000;52DS001I20;70
S30000;52ER002I21;463
S30000;52GD0015A18;109
S30000;52GIF1NO22;6
S30000;52GIF2NO22;6
S30000;52HD006A18;160
S30000;52HS001I17;104
S30000;52HS004A18;64
S30000;52LABANO22;159
S30000;52LASANO22;303
S30000;52LC006A20;69
S30000;52LGEBAG19;28
S30000;52LGEBOX18;15
S30000;52LGENSA21;113
S30000;52LT002R21;81
S30000;52MA003K22A;92
S30000;52MC006G21;20
S30000;52MGEBAG19;43
S30000;52MGEBOX18;8
S30000;52MGENSA21;128
S30000;52MIBANO22;206
S30000;52MMB1NO22;20
S30000;52MMB2NO22;23
S30000;52MMB3NO22;22
S30000;52MMBANO22;414
S30000;52MMSANO22;527
S30000;52MOCOL316;2
S30000;52MS001I20;54
S30000;52OR001I21;107
S30000;52PMGBOX18;7
S30000;52PS0015R21;63
S30000;52RIB1NO22;10
S30000;52RIB2NO22;10
S30000;52RIBOXNO22;214
S30000;52SGENSA21GPS;70
S30000;52SH006E19;63
S30000;52SH006FV21;56
S30000;52SH006G21;69
S30000;52SH006P19;80
S30000;52SMBANO22;411
S30000;52SMSANO22;385
S29000;27DE015I21;14
S29000;27DF125I17;31
S29000;27DH015I20;4
S29000;27DH015I22;13
S29000;27DH030I20;4
S29000;27DH030I22;20
S29000;27DL200I21;5
S29000;27DS030I20;8
S29000;27ER015I22;22
S29000;27ER050I21;14
S29000;27ER150I21;15
S29000;27EV200I19;15
S29000;27HC050I18;4
S29000;27HCR050I16;5
S29000;27HS030I18;1
S29000;27HSR030I16;8
S29000;27MI150I20;4
S29000;27MP050I20;2
S29000;27MP150I20;4
S29000;27MP150I22;12
S29000;27MQ065I15A;3
S29000;27MS050I20;8
S29000;27OR030I21;24
S29000;27OR050I21;24
S29000;27SP030I19;6
S29000;29ASH240A20;18
S29000;29BP100A22;6
S29000;29EC200A21;11
S29000;29GE200A21;58
S29000;29HD250A15;28
S29000;29HD500A15;33
S29000;29HS100A22SM;7
S29000;29LC200A20US;30
S29000;29MA030A17;30
S29000;29MA075A21;20
S29000;29ORALM22;52
S29000;29RC200A20;56
S29000;29RH500A15;88
S29000;29SA050A21;16
S29000;29SE125A21;12
S29000;29SH240A20;11
S29000;29VC240A22;21
S29000;38BV050A19;4
S29000;38EC015A18;5
S29000;38EV075A21;12
S29000;38FT200A21;12
S29000;38MI150A22;5
S29000;38RC050A22;11
S29000;38UV030A18;13
S29000;38WC050A21;9
S29000;38WS030A21;9
S29000;49CABNO22;48
S29000;49CRM1NO22;48
S21000;01BK010K14;4
S21000;01BL012K18;4
S21000;01BL012KC22H;5
S21000;01BL012KG22H;6
S21000;01BM050K19;6
S21000;01BM150K19;3
S21000;01BV050K16;6
S21000;01CD250K17;12
S21000;01CD250KC22H;6
S21000;01CE200KC22H;2
S21000;01CF050K22;2
S21000;01CL050K21;2
S21000;01CL175K22;6
S21000;01CL200KG22H;5
S21000;01CM300K20;5
S21000;01CM500K20;4
S21000;01CMJ075K21;15
S21000;01CP100KC22H;9
S21000;01CP200K22;5
S21000;01CPR200K22;17
S21000;01EC200K22;13
S21000;01EM075K20;4
S21000;01HD250K17;9
S21000;01HD500K20;3
S21000;01HDR500K20;8
S21000;01HN0075K19;6
S21000;01HN075KG22H;6
S21000;01HV030K16;4
S21000;01LC250K17;9
S21000;01LT300K20;4
S21000;01MA030K22;147
S21000;01MA030K22H;11
S21000;01MA030KC22H;9
S21000;01MA030KG22H;28
S21000;01MA075K22;13
S21000;01MA150K22;25
S21000;01MA150KC22H;15
S21000;01MA150KG22H;17
S21000;01MD200KG22H;24
S21000;01MR030K14;91
S21000;01MR150K16;5
S21000;01ORKAR22;58
S21000;01PI030K18;5
S21000;01PI150K18;6
S21000;01PWPKT22;21
S21000;01RL500K20;2
S21000;01RV500K20;8
S21000;01SA050KC22H;12
S21000;01SA050KG22H;3
S21000;01SA050KV20;4
S21000;01SA100LT20;17
S21000;01SA100LV20;17
S90000;29RC200A20;22
S90000;29RH500A15;32
S90000;29SA050A21;1
S90000;29SE125A21;9
S90000;29SH240A20;5
S90000;29VC240A16;13
S90000;29VC240A22;12
S90000;38BV050A19;10
S90000;38EC015A18;9
S90000;38EV075A21;10
S90000;38FT200A18;10
S90000;38FT200A21;8
S90000;38MI150A18;1
S90000;38MI150A22;9
S90000;38RC050A18;1
S90000;38RC050A22;7
S90000;38UV030A18;12
S90000;38WC050A18;32
S90000;38WC050A21;8
S90000;38WS030A18;14
S90000;38WS030A21;8
S90000;49AF015G20;160
S90000;49BM010K19;348
S90000;49BO015CS19;130
S90000;49CABNO22;197
S90000;49CAS2NO22;60
S90000;49CL008K21;7
S90000;49CL1SA18;43
S90000;49CM010O21;147
S90000;49CM030I19;70
S90000;49CP004I19;8
S90000;49CP008I19;25
S90000;49CP020K22;136
S90000;49CRM1NO22;42
S90000;49CRM3NO22;5
S90000;49DB004I20;30
S90000;49DC004I20;10
S90000;49DC008I20;16
S90000;49DH004I20;51
S90000;49DH004I22;30
S90000;49DISC3NO22;48
S90000;49EDT0075O22;25
S90000;49ET007CB22;19
S90000;49GD035CB5;48
S90000;49HD035A15;410
S90000;49HS015A18;18
S90000;49IC1POU20;14
S90000;49IC2POU20;47
S90000;49IC3POU20;27
S90000;49LC020A20;8
S90000;49LD030I20;26
S90000;49LD030I21;21
S90000;49LT030R21;90
S20;27SP030I19;4
S20;29ASH240A20;8
S20;29BP100A22;6
S20;29EC200A21;8
S20;29GE200A21;29
S20;29HD250A15;29
S20;29HD500A15;21
S20;29LC200A20US;25
S20;29MA030A17;57
S20;29MA075A21;34
S20;29ORALM22;144
S20;29RC200A20;43
S20;29RH500A15;35
S20;29SE125A21;15
S20;29SH240A20;8
S20;29VC240A22;9
S20;38BV050A19;10
S21000;38BV050A19;3
S20;38EC015A18;4
S21000;38EC015A18;6
S20;38EV075A21;11
S21000;38EV075A21;8
S20;38FT200A21;7
S21000;38FT200A21;10
S20;38MI150A22;8
S21000;38MI150A22;8
S20;38RC050A22;5
S21000;38RC050A22;3
S20;38UV030A18;9
S21000;38UV030A18;6
S20;38WC050A21;8
S21000;38WC050A21;4
S20;38WS030A21;8
S21000;38WS030A21;8
S20;49BO015CS19;48
S21000;49BO015CS19;81
S20;49CABNO22;34
S21000;49CABNO22;13
S20;49CRM1NO22;30
S20;49CRM2NO22;115
S20;49CUPNO22;80
S20;49DC004I20;11
S20;49DH004I20;53
S21000;49DH004I20;8
S21000;49DISC3NO22;7
S21000;49HD035A15;3
S20;49LC020A20;13
S21000;49LC020A20;24
S20;49MA010K22;27
S21000;49MA010K22;25
S20;49OR005I21;101
S21000;49OR005I21;26
S20;49ORALM22;5
S20;49ORCHB22;8
S24000;52LT002R21;43
S24000;52MA003K22A;327
S24000;52MC006G21;127
S24000;52MGEBAG19;55
S24000;52MGEBOX18;9
S24000;52MGENSA21;83
S24000;52MIBANO22;135
S24000;52MMB1NO22;18
S24000;52MMB2NO22;8
S24000;52MMB3NO22;5
S24000;52MMBANO22;278
S24000;52MMSANO22;174
S24000;52MOCOL316;1
S24000;52MS001I20;245
S24000;52OR001I21;285
S24000;52PMGBOX18;14
S24000;52PS0015R21;71
S24000;52RIB1NO22;10
S24000;52RIB2NO22;10
S24000;52RIBOXNO22;297
S24000;52SGENSA21GPS;77
S24000;52SH006E19;143
S24000;52SH006FV21;167
S24000;52SH006G21;117
S24000;52SH006P19;121
S24000;52SMBANO22;244
S24000;52SMSANO22;198
S24000;52SP001I19;63
S24000;52STINO22;9
S24000;52TS001I22;174
S24000;52TS001R21;81
S24000;98BBGD030VE4;6
S24000;98BBLC030VE5;6
S24000;ACPOCVEC00002;66
S24000;ACPOCVEC00005;241
S24000;ACPOCVKA00700;21
S24000;SGOCVKI00214;1
S24000;SGOCVKI00215;49
S24000;SGOCVKI00216;29
S24000;SGOCVKI00217;20
S24000;SGOCVKI00218;35
S24000;SGOCVKI00220;3
S24000;SGOCVKI00222;59
S24000;SGOCVKI00223;4
S24000;SGOCVKI00225;37
S24000;SGOCVKI00226;8
S24000;SGOCVKI00227;13
S24000;SGOCVKI00229;15
S24000;SGOCVKI00230;27
S24000;SGOCVKI00231;14
S24000;SGOCVKI00232;6
S24000;SGOCVKI00234;21
S27000;27HCR050I16;4
S27000;27HS030I18;3
S27000;27HSR030I16;4
S27000;27MI150I20;4
S27000;27MP050I20;2
S27000;27MP150I20;5
S27000;27MP150I22;6
S27000;27MQ065I15A;4
S27000;27MS050I20;4
S27000;27OR030I21;18
S27000;27OR050I21;15
S27000;27SP030I19;4
S27000;29ASH240A20;5
S27000;29BP100A19;3
S27000;29BP100A22;4
S27000;29EC200A21;3
S27000;29GE200A21;21
S27000;29HD250A15;22
S27000;29HD500A15;15
S27000;29HS100A22SM;9
S27000;29LC200A20US;22
S27000;29MA030A17;19
S27000;29MA075A21;16
S27000;29ORALM22;104
S27000;29RC200A20;28
S27000;29RH500A15;23
S27000;29SE125A21;8
S27000;29SH240A20;5
S27000;29VC240A22;8
S27000;38BV050A19;2
S27000;38EC015A18;4
S27000;38EV075A21;6
S27000;38FT200A21;3
S27000;38MI150A22;13
S27000;38RC050A22;4
S27000;38UV030A18;6
S27000;38WC050A21;7
S27000;38WS030A21;9
S27000;49BO015CS19;4
S27000;49CABNO22;31
S27000;49CRM1NO22;30
S27000;49CRM2NO22;118
S27000;49CUPNO22;80
S27000;49HD035A15;1
S27000;49MA010K22;3
S27000;49OR005I21;81
S27000;52AF006G20;112
S27000;52AS006E19;101
S27000;52AS006FV21;81
S27000;52AS006G21;154
S27000;52AS006P19;96
S27000;52BY001I19;183
S27000;52CARDNO22;11
S30000;52SP001I19;98
S30000;52STINO22;9
S30000;52TS001I22;139
S30000;52TS001R21;126
S30000;98BBGD030VE4;7
S30000;ACPOCVEC00001;313
S30000;ACPOCVEC00002;530
S30000;ACPOCVEC00003;100
S30000;ACPOCVEC00005;167
S30000;ACPOCVKA00700;24
S30000;SGOCVE600004;18
S30000;SGOCVKI00215;79
S30000;SGOCVKI00216;44
S28000;SGOCVKI00217;47
S30000;SGOCVKI00217;43
S28000;SGOCVKI00218;49
S30000;SGOCVKI00218;49
S30000;SGOCVKI00219;6
S30000;SGOCVKI00220;21
S28000;SGOCVKI00221;43
S30000;SGOCVKI00221;22
S28000;SGOCVKI00222;40
S30000;SGOCVKI00222;58
S28000;SGOCVKI00223;20
S30000;SGOCVKI00223;8
S28000;SGOCVKI00224;19
S30000;SGOCVKI00224;14
S28000;SGOCVKI00225;7
S30000;SGOCVKI00225;41
S30000;SGOCVKI00226;9
S28000;SGOCVKI00227;10
S30000;SGOCVKI00227;25
S28000;SGOCVKI00228;3
S30000;SGOCVKI00228;10
S28000;SGOCVKI00229;27
S30000;SGOCVKI00229;19
S28000;SGOCVKI00230;24
S30000;SGOCVKI00230;27
S30000;SGOCVKI00231;10
S30000;SGOCVKI00232;14
S28000;SGOCVKI00233;24
S30000;SGOCVKI00233;8
S28000;SGOCVKI00234;41
S30000;SGOCVKI00234;21
S28000;SGOCVKI00235;16
S30000;SGOCVKI00235;37
S28000;SGOCVKI00236;15
S30000;SGOCVKI00236;11
S28000;SGOCVKI00237;2
S28000;SGOCVKI00240;8
S30000;SGOCVKI00240;9
S28000;SGOCVKI00241;12
S24000;29HD250A15;16
S24000;29HD500A15;10
S24000;29LC200A20US;13
S24000;29MA030A17;19
S24000;29MA075A21;15
S24000;29ORALM22;65
S24000;29RC200A20;14
S24000;29RH500A15;13
S24000;29SA050A21;2
S24000;29SE125A21;6
S24000;29SH240A20;3
S24000;29VC240A22;3
S24000;38BV050A19;5
S24000;38EC015A18;3
S24000;38EV075A21;6
S24000;38FT200A21;1
S24000;38MI150A22;8
S24000;38RC050A22;6
S24000;38UV030A18;7
S24000;38WC050A21;5
S24000;38WS030A21;2
S24000;49CABNO22;29
S24000;49CP020K22;9
S24000;49DC004I20;4
S24000;49DISC3NO22;16
S24000;49HD035A15;4
S10;49HD035A15;28
S10;49LC020A20;54
S24000;49LC020A20;23
S24000;49LD030I21;4
S24000;49MA010K22;9
S10;49MA010K22;9
S10;49OR005I21;30
S24000;49OR005I21;157
S24000;52AF006G20;110
S10;52AF006G20;84
S10;52AS006E19;48
S24000;52AS006E19;182
S24000;52AS006FV21;71
S10;52AS006FV21;42
S10;52AS006G21;19
S24000;52AS006G21;181
S24000;52AS006P19;93
S10;52AS006P19;107
S10;52BY001I19;253
S10;52CARDNO22;8
S10;52CD0015A18;29
S10;52CL0015K21;75
S10;52CP0015I19;65
S10;52CP006K22;96
S10;52CV0015K22;72
S10;52DB001I20;126
S10;52DC0015I20;42
S90000;49MA010A17;179
S90000;49MA010A21X;10
S90000;49MA010CB4;76
S90000;49MA010K22;24
S90000;49MA010L16;73
S90000;49MA010VB3;16
S90000;49MASKRS21;26
S90000;49MR010K14;45
S90000;49MS008I20;169
S90000;49MWC030I19;101
S90000;49NOTNO22;100
S90000;49OR005I21;48
S90000;49PFCWC21;40
S90000;49PI010K18;32
S90000;49PMENNO21;46
S90000;49PMENNO22;6
S90000;49PO1NH18;145
S90000;49PO2HER20;1
S90000;49PO2RS21;36
S90000;49PO2SA19;30
S90000;49POBFNO22;340
S90000;49POCK1NO22;160
S90000;49POCK2NO22;6
S90000;49POCKNO21;125
S90000;49POSUCS22;80
S90000;49POU1O21;139
S90000;49POUCB21;15
S90000;49POUCH2NO21;47
S90000;49POUHE22;39
S90000;49POUID20;1
S90000;49POUIS19;23
S90000;49PWPBM22;7
S90000;49PWPBNO22;42
S90000;49RCWM22;48
S90000;49SH035E21;198
S90000;49TFACH18;19
S90000;49TOBACH20;67
S90000;49TOTMC20;40
S90000;49TOTWC21;90
S90000;49TRAVNO21;81
S90000;49TS004R21;79
S90000;52AF006G20;152
S90000;52AS006E19;515
S90000;52AS006FV21;353
S90000;52AS006G21;238
S90000;52AS006P19;287
S90000;52BOXMM22;52
S90000;52CL0015K21;221
S90000;52CP0015I19;485
S90000;52CP006K22;270
S90000;52CUSTNO22;99
S90000;52CV0015K22;220
S90000;52DB001I20;207
S24000;SGOCVKI00235;28
S24000;SGOCVKI00236;8
S24000;SGOCVKI00239;1
S24000;SGOCVKI00240;3
S24000;SGOCVKI00242;1
S24000;SGOCVKI00244;31
S24000;SGOCVKI00254;4
S21000;01SA100VE20;13
S21000;01SA250LT20;12
S21000;01SA250LV20;11
S21000;01SA250VE20;13
S21000;01SA300KRO22;6
S21000;01SA500KRO22;7
S21000;01SAR500KRO22;8
S21000;01SB020K21;3
S21000;01SL0045K13;26
S21000;01SL0045KR22;12
S21000;01SL300LV20;4
S21000;01SL300VE20;4
S21000;01SL500LV20;14
S21000;01SL500VE20;10
S21000;10CRAKT22;32
S21000;11AS040SG22;18
S21000;11BC100G21;8
S21000;11BG140CS19;12
S21000;11BG140SH19;8
S21000;11BG140SI19;9
S21000;11BH050A18;10
S21000;11BO100CS19;25
S21000;11BP100I19;4
S21000;11BR100A20;12
S21000;11CD050A18;2
S21000;11CF100TR19;20
S21000;11CM030H19;20
S21000;11CM030H20;27
S21000;11CM030O21;21
S21000;11CM125I19;15
S21000;11EH150A18;3
S21000;11EP010H19;7
S21000;11ET010H20;5
S21000;11ET050H20;4
S21000;11ET075O21;1
S21000;11FAG10TR19;6
S21000;11GD050A18;2
S21000;11GD250H19;21
S21000;11GD250H20;22
S21000;11GD250O21;23
S21000;11GE075I20;4
S21000;11GM200I19;17
S21000;11GN195A18;6
S21000;11LC250H19;10
S21000;11LC250H20;19
S21000;11LC250O21;13
S21000;11LD200I19;7
S21000;11LH200I19;9
S21000;11LT300I20;6
S21000;11MH075A19;3
S21000;11MWC200I19;10
S21000;11PEP050I20;4
S20;49ORKAR22;5
S20;49ORMEN22;1
S20;52AF006G20;124
S21000;52AF006G20;6
S20;52AS006E19;106
S21000;52AS006E19;17
S20;52AS006FV21;146
S21000;52AS006FV21;63
S20;52AS006G21;168
S21000;52AS006G21;91
S20;52AS006P19;75
S21000;52AS006P19;66
S20;52BY001I19;50
S21000;52BY001I19;135
S20;52CARDNO22;12
S21000;52CARDNO22;8
S20;52CD0015A18;34
S21000;52CD0015A18;33
S20;52CL0015K21;35
S21000;52CL0015K21;32
S20;52CP0015I19;98
S21000;52CP0015I19;51
S20;52CP006K22;219
S21000;52CP006K22;116
S20;52CRA1C22;3
S21000;52CV0015K22;192
S21000;52DB001I20;32
S21000;52DC0015I20;83
S21000;52DE001I21;106
S21000;52DF002I17;77
S21000;52DH001I22;265
S21000;52DL002I21;163
S21000;52DS001I20;106
S21000;52ER002I21;205
S21000;52GD0015A18;34
S21000;52GIF1NO22;6
S21000;52GIF2NO22;6
S21000;52HD006A18;141
S21000;52HS001I17;78
S21000;52HS004A18;82
S21000;52LABANO22;187
S21000;52LASANO22;230
S21000;52LC006A20;54
S21000;52LGEBAG19;52
S21000;52LGEBOX18;12
S21000;52LGENSA21;81
S21000;52LT002R21;7
S21000;52MA003K22A;134
S21000;52MC006G21;72
S21000;52MGEBAG19;16
S21000;52MGEBOX18;9
S21000;52MGENSA21;36
S21000;52MIBANO22;113
S27000;52CD0015A18;23
S27000;52CL0015K21;43
S27000;52CP0015I19;55
S27000;52CP006K22;331
S27000;52CV0015K22;115
S27000;52DB001I20;121
S27000;52DC0015I20;322
S27000;52DE001I21;137
S27000;52DF002I17;84
S27000;52DH001I22;344
S27000;52DL002I21;169
S27000;52DS001I20;85
S27000;52ER002I21;342
S27000;52FP0015I19;82
S27000;52GD0015A18;54
S27000;52GIF1NO22;6
S27000;52GIF2NO22;6
S27000;52HD006A18;355
S27000;52HS001I17;84
S27000;52HS004A18;150
S27000;52LABANO22;169
S27000;52LASANO22;330
S27000;52LC006A20;400
S27000;52LGEBAG19;52
S27000;52LGEBOX18;10
S27000;52LGENSA21;71
S27000;52LT002R21;52
S27000;52MA003K22A;188
S27000;52MC006G21;267
S27000;52MGEBOX18;9
S27000;52MGENSA21;78
S27000;52MIBANO22;291
S27000;52MMB1NO22;49
S27000;52MMB2NO22;50
S27000;52MMB3NO22;54
S27000;52MMBANO22;303
S27000;52MMSANO22;388
S27000;52MOCOL316;2
S27000;52MS001I20;122
S27000;52OR001I21;248
S27000;52PMGBOX18;2
S27000;52PS0015R21;125
S27000;52PSAC18;1
S27000;52RIB1NO22;10
S27000;52RIB2NO22;10
S27000;52RIBOXNO22;408
S27000;52SGENSA21GPS;70
S27000;52SH006E19;219
S27000;52SH006FV21;158
S27000;52SH006G21;177
S27000;52SH006P19;124
S27000;52SMBANO22;295
S27000;52SMSANO22;207
S30000;SGOCVKI00241;15
S28000;SGOCVKI00242;2
S30000;SGOCVKI00242;21
S30000;SGOCVKI00243;3
S28000;SGOCVKI00244;91
S30000;SGOCVKI00244;71
S28000;SGOCVKI00254;25
S30000;SGOCVKI00254;39
S28000;29HD500A15;8
S28000;29HS100A22SM;31
S28000;29LC200A20US;37
S28000;29MA030A17;38
S28000;29MA075A21;8
S28000;29RC200A20;11
S28000;29RH500A15;14
S28000;29SA050A21;2
S28000;29SE125A21;5
S28000;29SH240A20;6
S28000;29VC240A22;9
S28000;38BV050A19;1
S28000;38EC015A18;4
S28000;38FT200A21;1
S28000;38MI150A22;5
S28000;38RC050A22;10
S28000;38UV030A18;7
S28000;38WC050A21;6
S28000;38WS030A21;4
S28000;49CABNO22;18
S28000;49CP020K22;27
S28000;49DC004I20;11
S28000;49DH004I20;14
S28000;49DISC3NO22;28
S28000;49LC020A20;27
S28000;49MA010K22;27
S28000;52AF006G20;57
S28000;52AS006E19;138
S28000;52AS006FV21;81
S28000;52AS006G21;219
S28000;52AS006P19;32
S28000;52BY001I19;122
S28000;52CARDNO22;12
S28000;52CD0015A18;14
S28000;52CL0015K21;66
S28000;52CP0015I19;62
S28000;52CP006K22;263
S28000;52CV0015K22;242
S28000;52DB001I20;156
S28000;52DC0015I20;19
S28000;52DE001I21;133
S28000;52DF002I17;128
S28000;52DH001I22;285
S28000;52DL002I21;129
S28000;52DS001I20;19
S28000;52ER002I21;227
S28000;52FP0015I19;58
S28000;52GD0015A18;30
S28000;52GIF1NO22;9
S28000;52GIF2NO22;9
S28000;52HD006A18;145
S28000;52HS001I17;68
S28000;52HS004A18;288
S29000;49CRM2NO22;193
S29000;49CUPNO22;120
S29000;49OR005I21;52
S29000;49PADCL20;52
S29000;52AF006G20;147
S29000;52AS006E19;97
S29000;52AS006FV21;121
S29000;52AS006G21;205
S29000;52AS006P19;138
S29000;52BY001I19;137
S29000;52CARDNO22;12
S29000;52CD0015A18;20
S29000;52CL0015K21;26
S29000;52CP0015I19;181
S29000;52CP006K22;142
S29000;52CV0015K22;125
S29000;52DB001I20;105
S29000;52DC0015I20;176
S29000;52DE001I21;112
S29000;52DF002I17;116
S29000;52DH001I20;100
S29000;52DH001I22;199
S29000;52DL002I21;166
S29000;52DS001I20;51
S29000;52ER002I21;328
S29000;52EV002I19;50
S29000;52GD0015A18;26
S29000;52GIF1NO22;4
S29000;52GIF2NO22;4
S29000;52HD006A18;205
S29000;52HS001I17;46
S29000;52HS004A18;119
S29000;52LASANO22;306
S29000;52LC006A20;198
S29000;52LGEBOX18;8
S29000;52LGENSA21;75
S29000;52LT002R21;74
S29000;52MA003K22A;177
S29000;52MC006G21;114
S29000;52MGEBOX18;3
S29000;52MGENSA21;67
S29000;52MMB1NO22;131
S29000;52MMB2NO22;143
S29000;52MMB3NO22;147
S29000;52MMSANO22;223
S29000;52MOCOL316;5
S29000;52MS001I20;80
S29000;52OR001I21;226
S29000;52PMGBOX18;2
S29000;52PS0015R21;91
S29000;52RIB1NO22;12
S29000;52RIB2NO22;12
S29000;52RIBOXNO22;854
S21000;52MMB1NO22;56
S21000;52MMB2NO22;61
S21000;52MMB3NO22;37
S21000;52MMBANO22;390
S21000;52MMSANO22;207
S21000;52MOCOL316;2
S21000;52MS001I20;88
S21000;52OR001I21;208
S21000;52PMGBOX18;4
S21000;52PS0015R21;25
S21000;52PSAC18;1
S21000;52RIB1NO22;10
S21000;52RIB2NO22;10
S21000;52RIBOXNO22;427
S21000;52SAMPENV18;27
S21000;52SGENSA21GPS;99
S21000;52SH006E19;79
S21000;52SH006FV21;82
S21000;52SH006G21;91
S21000;52SH006P19;25
S21000;52SMBANO22;284
S21000;52SMSANO22;244
S21000;52SP001I19;155
S21000;52STINO22;9
S21000;52TS001I22;44
S21000;52TS001R21;36
S21000;98BBGD030VE4;28
S21000;98BBMA010KA3;22
S21000;ACPOCVEC00001;172
S21000;ACPOCVEC00002;157
S21000;ACPOCVEC00003;100
S21000;ACPOCVEC00005;146
S21000;ACPOCVKA00700;15
S21000;SGOCVE600004;25
S21000;SGOCVKI00215;21
S21000;SGOCVKI00216;22
S21000;SGOCVKI00217;40
S21000;SGOCVKI00218;44
S21000;SGOCVKI00221;6
S21000;SGOCVKI00222;69
S21000;SGOCVKI00223;10
S21000;SGOCVKI00224;5
S21000;SGOCVKI00225;31
S21000;SGOCVKI00226;21
S21000;SGOCVKI00227;14
S21000;SGOCVKI00228;56
S21000;SGOCVKI00229;13
S21000;SGOCVKI00230;41
S21000;SGOCVKI00231;13
S21000;SGOCVKI00232;4
S21000;SGOCVKI00233;20
S21000;SGOCVKI00234;23
S27000;52SP001I19;45
S27000;52STINO22;9
S27000;52TS001I22;132
S27000;52TS001R21;120
S27000;ACPOCVEC00001;141
S27000;ACPOCVEC00002;14
S27000;ACPOCVEC00003;70
S27000;ACPOCVEC00005;102
S27000;ACPOCVKA00700;19
S27000;SGOCVE600004;3
S27000;SGOCVKI00215;62
S27000;SGOCVKI00216;54
S27000;SGOCVKI00217;27
S27000;SGOCVKI00218;49
S27000;SGOCVKI00220;16
S27000;SGOCVKI00221;8
S27000;SGOCVKI00222;71
S27000;SGOCVKI00223;11
S27000;SGOCVKI00224;12
S27000;SGOCVKI00225;47
S27000;SGOCVKI00226;27
S27000;SGOCVKI00227;16
S27000;SGOCVKI00228;27
S27000;SGOCVKI00229;16
S27000;SGOCVKI00230;12
S27000;SGOCVKI00231;13
S27000;SGOCVKI00232;9
S27000;SGOCVKI00233;24
S27000;SGOCVKI00234;23
S27000;SGOCVKI00235;19
S27000;SGOCVKI00236;12
S27000;SGOCVKI00237;4
S27000;SGOCVKI00239;5
S27000;SGOCVKI00240;6
S27000;SGOCVKI00241;12
S27000;SGOCVKI00242;16
S27000;SGOCVKI00243;4
S27000;SGOCVKI00244;33
S27000;SGOCVKI00245;12
S27000;SGOCVKI00254;36
S90000;52DC0015I20;147
S90000;52DE001I21;100
S90000;52DF002I17;266
S90000;52DH001I22;608
S90000;52DL002I21;248
S90000;52DS001I20;82
S90000;52ER002I21;220
S90000;52ET001O21;78
S90000;52FP0015I19;100
S90000;52HCTM21;25
S90000;52HCTM22;32
S90000;52HD006A18;563
S90000;52HR004G17;100
S90000;52HS004A18;317
S90000;52LC006A20;566
S90000;52LGEBOX18;20
S90000;52LT002R21;91
S90000;52MA003K16A;327
S90000;52MA003K22A;302
S90000;52MC006G21;100
S90000;52MGEBOX18;35
S90000;52MMB1NO22;40
S90000;52MMB3NO22;41
S90000;52MMBANO22;5
S90000;52MMBYNO19;85
S90000;52MOCOL316;33
S90000;52MS001I20;378
S90000;52OR001I21;419
S90000;52PMGBOX18;3
S90000;52PS0015R21;100
S90000;52RIBOXNO22;150
S90000;52SH006E19;418
S90000;52SH006FV21;373
S90000;52SH006G21;304
S90000;52SH006P19;251
S90000;52SP001I19;302
S90000;52TBO1M21;54
S90000;52TBO2M21;31
S90000;52TS001I22;436
S90000;52TS001R21;40
S90000;98BBACLUFNT1;6
S90000;98BBGD030VE4;12
S90000;98BBGD050VE2;70
S90000;98BBHD035A0;140
S90000;98BBHD050A0;134
S90000;98BBLC030VE5;15
S90000;98BBSA025LT2;207
S90000;98BBSA050LT1;144
S90000;98BBSH035AR2;50
S90000;98BBSH050A0;71
S90000;98BBSH050AR2;86
S90000;ACPOCVKA00700;65
S90000;HKOCVE6T00055;28
S10;52DE001I21;81
S10;52DF002I17;48
S10;52DH001I22;97
S10;52DL002I21;196
S10;52DS001I20;70
S10;52ER002I21;496
S10;52GD0015A18;83
S10;52GIF1NO22;6
S10;52GIF2NO22;6
S10;52HD006A18;93
S10;52HS001I17;11
S10;52HS004A18;44
S10;52LABANO22;101
S10;52LASANO22;281
S10;52LC006A20;126
S10;52LGEBOX18;10
S10;52LGENSA21;124
S10;52LT002R21;114
S10;52MA003K22A;87
S10;52MC006G21;69
S10;52MGEBOX18;20
S10;52MGENSA21;55
S10;52MIBANO22;6
S10;52MMB1NO22;11
S10;52MMB2NO22;15
S10;52MMB3NO22;10
S10;52MMBANO22;491
S10;52MMSANO22;472
S10;52MOCOL316;1
S10;52MS001I20;53
S10;52OR001I21;69
S10;52PMGBOX18;8
S10;52PS0015R21;42
S10;52PSAC18;1
S10;52RIB1NO22;10
S10;52RIB2NO22;10
S10;52RIBOXNO22;298
S10;52SGENSA21GPS;74
S10;52SH006E19;102
S10;52SH006FV21;139
S10;52SH006G21;28
S10;52SH006P19;108
S10;52SMBANO22;205
S10;52SMSANO22;276
S10;52SP001I19;154
S10;52STINO22;9
S10;52TS001I22;138
S10;52TS001R21;52
S10;98BBGD030VE4;49
S10;98BBLC030VE5;15
S10;98BBMA010KA3;66
S10;ACPOCVEC00001;200
S10;ACPOCVEC00002;192
S10;ACPOCVEC00003;102
S28000;52LABANO22;21
S28000;52LASANO22;253
S28000;52LC006A20;147
S28000;52LGEBAG19;19
S28000;52LGEBOX18;12
S28000;52LGENSA21;129
S28000;52LT002R21;2
S28000;52MA003K22A;124
S28000;52MC006G21;111
S28000;52MGEBOX18;5
S28000;52MGENSA21;65
S28000;52MMBANO22;179
S28000;52MMSANO22;143
S28000;52MOCOL316;2
S28000;52MS001I20;91
S28000;52OR001I21;195
S28000;52PHGHTS20;4
S28000;52PMGBOX18;35
S28000;52PS0015R21;295
S28000;52PSAC18;1
S28000;52RIB1NO22;16
S28000;52RIB2NO22;16
S28000;52RIBOXNO22;560
S28000;52SAMPENV18;516
S28000;52SGENSA21GPS;52
S28000;52SH006E19;188
S28000;52SH006FV21;282
S28000;52SH006G21;108
S28000;52SH006P19;222
S28000;52SMBANO22;11
S28000;52SMSANO22;459
S28000;52SP001I19;161
S28000;52STINO22;14
S28000;52TS001I22;297
S28000;52TS001R21;258
S28000;ACPOCVEC00002;47
S28000;ACPOCVEC00003;100
S28000;ACPOCVEC00005;322
S28000;ACPOCVKA00700;25
S90000;J9517;9
S90000;JIMPN16;56
S90000;SGOCVE600005;1
S21000;SGOCVKI00235;16
S21000;SGOCVKI00236;6
S21000;SGOCVKI00238;3
S21000;SGOCVKI00239;5
S21000;SGOCVKI00240;10
S21000;SGOCVKI00241;13
S21000;SGOCVKI00242;20
S21000;SGOCVKI00243;14
S21000;SGOCVKI00244;43
S21000;SGOCVKI00254;33
S29000;52SGENSA21GPS;181
S29000;52SH006E19;88
S29000;52SH006FV21;88
S29000;52SH006G21;143
S29000;52SH006P19;47
S29000;52SMSANO22;473
S29000;52SP001I19;24
S29000;52STINO22;12
S29000;52TS001I22;178
S29000;52TS001R21;101
S29000;ACPOCVKA00700;48
S29000;SGOCVKI00216;44
S29000;SGOCVKI00217;67
S29000;SGOCVKI00218;72
S29000;SGOCVKI00219;1
S29000;SGOCVKI00221;32
S29000;SGOCVKI00222;73
S29000;SGOCVKI00223;8
S29000;SGOCVKI00224;23
S29000;SGOCVKI00225;37
S29000;SGOCVKI00226;5
S29000;SGOCVKI00227;11
S29000;SGOCVKI00228;23
S29000;SGOCVKI00229;13
S29000;SGOCVKI00230;40
S29000;SGOCVKI00231;6
S29000;SGOCVKI00232;10
S29000;SGOCVKI00233;8
S29000;SGOCVKI00234;28
S29000;SGOCVKI00235;39
S29000;SGOCVKI00236;18
S29000;SGOCVKI00237;19
S29000;SGOCVKI00238;9
S29000;SGOCVKI00239;9
S29000;SGOCVKI00240;11
S29000;SGOCVKI00241;10
S29000;SGOCVKI00242;24
S29000;SGOCVKI00243;12
S29000;SGOCVKI00244;85
S29000;SGOCVKI00245;20
S29000;SGOCVKI00254;60
S10;ACPOCVEC00004;4
S10;ACPOCVEC00005;115
S10;ACPOCVKA00700;21
S10;SGOCVE600004;1
S10;SGOCVKI00214;1
S10;SGOCVKI00215;53
S10;SGOCVKI00216;50
S10;SGOCVKI00217;29
S10;SGOCVKI00218;40
S10;SGOCVKI00220;9
S10;SGOCVKI00221;21
S10;SGOCVKI00222;63
S10;SGOCVKI00223;20
S10;SGOCVKI00224;21
S10;SGOCVKI00225;46
S10;SGOCVKI00226;40
S10;SGOCVKI00227;16
S10;SGOCVKI00228;25
S10;SGOCVKI00229;9
S10;SGOCVKI00230;37
S10;SGOCVKI00231;10
S10;SGOCVKI00232;8
S10;SGOCVKI00233;29
S10;SGOCVKI00234;23
S10;SGOCVKI00235;33
S10;SGOCVKI00236;9
S10;SGOCVKI00237;5
S10;SGOCVKI00239;9
S10;SGOCVKI00240;11
S10;SGOCVKI00241;14
S10;SGOCVKI00242;21
S10;SGOCVKI00243;21
S10;SGOCVKI00244;55
S10;SGOCVKI00254;31
S31000;20ET075CD20;4
S31000;20ET075HC20;5
S31000;20ET075OC20;5
S31000;20FE050H20;7
S31000;20GD250CD20;13
S31000;20GD250HC20;16
S31000;20GD250OC20;14
S31000;20GD500HC20;12
S31000;20HR050H20;8
S31000;20NV150H20;15
S31000;20SA050CD20;5
S31000;20SA050HC20;6
S31000;24BL012CB5;19
S31000;24BL012R22;5
S31000;24BR050CB21;22
S31000;24BR050R22;19
S31000;24EDT10C21;3
S31000;24ET075CB21;14
S31000;24ET075R22;6
S31000;24GD250CB21;38
S31000;24GD250R22;28
S31000;24GD500CB21;12
S31000;24GD500R22;9
S31000;24LC250CB4;18
S31000;24LC250R22;14
S31000;24MA030CB4;76
S31000;24MA030P15;4
S31000;24MA030R22;55
S31000;24MA030RV19;8
S31000;24MA075CB4;22
S31000;24MA075P15;7
S31000;24MA075R22;15
S31000;24MA150R22;7
S31000;24ORCHB22;152
S31000;24RG500CB21;20
S31000;24RG500R22;12
S31000;24RO010CB4;16
S31000;24SA050CB21;25
S31000;24SA050R22;23
S31000;27BY015I19;6
S31000;27CP050I19;10
S31000;27DB015I20;8
S31000;27DC050I20;42
S31000;27DCB060I17;1
S31000;27DE015I21;8
S31000;27DF125I17;54
S31000;27DH015I22;30
S31000;27DH030I22;38
S31000;27DL200I21;6
S31000;27DS030I20;9
S31000;27ER015I22;41
S31000;27ER050I21;14
S31000;27ER150I21;25
S31000;27EV200I19;7
S31000;27HC050I18;4
S31000;27HCR050I16;10
S31000;27HS030I18;2
S31000;27HSR030I16;12
S31000;27MI150I20;4
S31000;27MP050I20;70
S31000;27MP150I22;28
S31000;27MQ065I15A;4
S31000;27MS050I20;4
S31000;27OR030I21;18
S31000;27OR050I21;57
S31000;27SP030I19;4
S31000;29ASH240A20;8
S31000;29BP100A22;8
S31000;29EC200A21;7
S31000;29GE200A21;30
S31000;29HD075A15;18
S31000;29HD250A15;38
S31000;29HD500A15;38
S31000;29HD9000A21;2
S31000;29HS100A22SM;2
S31000;29LC200A20US;19
S31000;29MA030A17;48
S31000;29MA075A21;23
S31000;29ORALM22;207
S31000;29RC200A20;74
S31000;29RH500A15;103
S31000;29SA050A21;8
S31000;29SE125A21;19
S31000;29SH240A20;8
S31000;29VC240A22;18
S31000;38BV050A19;6
S31000;38EC015A18;6
S31000;38EV075A21;10
S31000;38FT200A21;6
S31000;38MI150A22;4
S31000;38RC050A22;4
S31000;38UV030A18;27
S31000;38WC050A21;4
S31000;38WS030A21;6
S31000;49BO015CS19;16
S31000;49CABNO22;22
S31000;49CM010O21;19
S31000;49CM030I19;7
S31000;49CP020K22;5
S31000;49CRM1NO22;48
S31000;49CRM2NO22;200
S31000;49CUPNO22;120
S31000;49DC004I20;39
S31000;49DH004I20;30
S31000;49DISC3NO22;13
S31000;49HD035A15;8
S31000;49LC020A20;12
S31000;49LD030I21;3
S31000;49MA010K22;5
S31000;49OR005I21;126
S31000;49ORALM22;7
S31000;49ORCHB22;10
S31000;49ORKAR22;7
S31000;49ORMEN22;2
S31000;52AF006G20;94
S31000;52AS006E19;172
S31000;52AS006FV21;48
S31000;52AS006G21;103
S31000;52AS006P19;88
S31000;52BY001I19;73
S31000;52CARDNO22;8
S31000;52CERJAR20;2
S31000;52CL0015K21;54
S31000;52CP0015I19;187
S31000;52CP006K22;245
S31000;52CRA1C22;5
S31000;52CRA2C22;5
S31000;52CRA3C22;5
S31000;52CRA4C22;5
S31000;52CV0015K22;173
S31000;52DB001I20;184
S31000;52DC0015I20;349
S31000;52DE001I21;227
S31000;52DF002I17;251
S31000;52DH001I22;349
S31000;52DL002I21;215
S31000;52DS001I20;136
S31000;52ER002I21;345
S31000;52GD0015A18;60
S31000;52GIF1NO22;6
S31000;52GIF2NO22;6
S31000;52HD006A18;445
S31000;52HKNO22;1
S31000;52HS001I17;107
S31000;52HS004A18;143
S31000;52LABANO22;147
S31000;52LASANO22;352
S31000;52LC006A20;431
S31000;52LGEBAG19;9
S31000;52LGEBOX18;8
S31000;52LGENSA21;126
S31000;52LT002R21;9
S31000;52MA003K22A;189
S31000;52MC006G21;87
S31000;52MGEBOX18;6
S31000;52MGENSA21;98
S31000;52MIBANO22;221
S31000;52MMB1NO22;129
S31000;52MMB2NO22;118
S31000;52MMB3NO22;116
S31000;52MMBANO22;644
S31000;52MMSANO22;416
S31000;52MOCOL216;1
S31000;52MOCOL316;2
S31000;52MS001I20;116
S31000;52OR001I21;329
S31000;52PHGHTS20;4
S31000;52PMGBOX18;1
S31000;52PRBONO22;1
S31000;52PS0015R21;95
S31000;52PSAC18;1
S31000;52QUAGD22;1
S31000;52RBO2NO22;6
S31000;52RBO3NO22;6
S31000;52RIB1NO22;12
S31000;52RIB2NO22;12
S31000;52RIBOXNO22;780
S31000;52SGEBOX18;10
S31000;52SGENSA21GPS;106
S31000;52SH006E19;208
S31000;52SH006FV21;113
S31000;52SH006G21;109
S31000;52SH006P19;120
S31000;52SMB1NO22;6
S31000;52SMB2NO22;6
S31000;52SMBANO22;252
S31000;52SMSANO22;415
S31000;52SP001I19;20
S31000;52STINO22;10
S31000;52TS001I22;334
S31000;52TS001R21;52
S31000;52TSANIVISLI20;1
S31000;52TSPDIS20;3
S31000;52WRAPNO22;7
S31000;54VMHOLIDAY22;1
S31000;54VMWHSHOLIDAY22;2
S31000;98BBGD030VE4;10
S31000;98BBLC030VE5;9
S31000;98BBMA010KA3;18
S31000;ACPOCVEC00001;125
S31000;ACPOCVEC00002;177
S31000;ACPOCVEC00003;64
S31000;ACPOCVEC00005;258
S31000;ACPOCVKA00700;30
S31000;SGOCVKI00215;32
S31000;SGOCVKI00216;81
S31000;SGOCVKI00217;77
S31000;SGOCVKI00218;88
S31000;SGOCVKI00220;14
S31000;SGOCVKI00221;12
S31000;SGOCVKI00222;106
S31000;SGOCVKI00223;16
S31000;SGOCVKI00224;24
S31000;SGOCVKI00225;64
S31000;SGOCVKI00226;13
S31000;SGOCVKI00227;15
S31000;SGOCVKI00228;13
S31000;SGOCVKI00229;25
S31000;SGOCVKI00230;38
S31000;SGOCVKI00231;14
S31000;SGOCVKI00232;16
S31000;SGOCVKI00233;28
S31000;SGOCVKI00234;36
S31000;SGOCVKI00235;34
S31000;SGOCVKI00236;10
S31000;SGOCVKI00237;34
S31000;SGOCVKI00238;1
S31000;SGOCVKI00239;1
S31000;SGOCVKI00240;12
S31000;SGOCVKI00241;19
S31000;SGOCVKI00242;38
S31000;SGOCVKI00243;17
S31000;SGOCVKI00244;62
S31000;SGOCVKI00245;20
S31000;SGOCVKI00254;77
S21000;11PM100SH19;4
S21000;11PM100SI19;5
S21000;11SA050O21;10
S21000;11SA100H19;11
S21000;11SA100H20;9
S21000;11SD100CS19;12
S21000;11SD100SH19;8
S21000;11SD100SI19;8
S21000;11SD100SL19;9
S21000;11SP200CS19;7
S21000;11SP200SH19;7
S21000;11SP200SI19;8
S21000;11SP200SL19;5
S21000;11SV080I19;4
S21000;12GD245NO21H;22
S21000;15AS250VA18;6
S21000;15BA500L16A;7
S21000;15BM500VB21;19
S21000;15DO050VA5;5
S21000;15ET010VB19;3
S21000;15ET100VA20;3
S21000;15ET100VB20;4
S21000;15ET100VCL21;3
S21000;15GD075L21;25
S21000;15GD250L21;21
S21000;15GD250VA20;14
S21000;15GD250VB21;19
S21000;15GD250VBL22;36
S21000;15GD500VB21;2
S21000;15GM065L21;36
S21000;15GM065VB21;38
S21000;15GN300L21;7
S21000;15HE005L14;5
S21000;15LC250L14;15
S21000;15LC250VA20;9
S21000;15LC250VB3;10
S21000;15LM300L11;6
S21000;15MA030L21;35
S21000;15MA030VA5;13
S21000;15MA030VB3;18
S21000;15MA075L20;18
S21000;15MA075VB4;12
S21000;15ORVER22;84
S21000;15RB500L17;2
S21000;15RC500VB21;3
S21000;15RG500L14;10
S21000;15RG500VA20;12
S21000;15RO010VBM22;1
S21000;15SA070VB6;2
S21000;15SA075VB21;10
S21000;15SH250VA20;6
S21000;17AF100G20;8
S21000;17AS250E19;7
S21000;17AS250FV21;7
S21000;17AS250G18;5
S21000;17AS250G21;8
S21000;17AS250P19;6
S21000;17AS500E19;4
S21000;17AS500FV21;5
S21000;17AS500G21;8
S21000;17AS500P19;3
S21000;17DO050F13;7
S21000;17HB050A22;4
S21000;17HI100G19;10
S21000;17MC200G21;3
S21000;17RC500E20;13
S21000;17RC500G18;6
S21000;17RC500G21;18
S21000;17RC500P19;3
S21000;17RS500E20;11
S21000;17RS500FV21;15
S21000;17RS500G21;19
S21000;17RS500P19;6
S21000;17SE100FV21;19
S21000;17SH060SE21;4
S21000;17SH060SG21;1
S21000;17SH060SP21;4
S21000;17SH075G21;9
S21000;17SH300E19;7
S21000;17SH300FV21;8
S21000;17SH300G21;15
S21000;17SH300P19;8
S21000;17SH500E19;6
S21000;17SH500FV21;7
S21000;17SH500G21;9
S21000;17SH500P19;3
S21000;17VI100P19;5
S21000;20AR075O20;5
S21000;20DO050O20;5
S21000;20DO075CD20;2
S21000;20DO130HC20;3
S21000;20ET075CD20;3
S21000;20ET075HC20;4
S21000;20ET075OC20;4
S21000;20FE050H20;5
S21000;20GD250CD20;15
S21000;20GD250HC20;18
S21000;20GD250OC20;14
S21000;20GD500HC20;10
S21000;20HR050H20;5
S21000;20NV150H20;5
S21000;20SA050CD20;4
S21000;20SA050HC20;3
S21000;24BL012CB5;9
S21000;24BL012R22;7
S21000;24BR050CB21;19
S21000;24BR050R22;1
S21000;24ET075CB21;2
S21000;24ET075R22;6
S21000;24GD250CB21;27
S21000;24GD250R22;19
S21000;24GD500CB21;2
S21000;24GD500R22;4
S21000;24LC250CB4;13
S21000;24LC250R22;9
S21000;24MA030CB4;39
S21000;24MA030P15;13
S21000;24MA030R22;38
S21000;24MA030RA19;5
S21000;24MA030RV19;10
S21000;24MA075CB4;15
S21000;24MA075P15;13
S21000;24MA075R22;12
S21000;24MA150R22;5
S21000;24ORCHB22;4
S21000;24RG500CB21;12
S21000;24RG500R22;11
S21000;24RO010CB4;4
S21000;24SA050CB21;13
S21000;24SA050R22;14
S21000;27BP050I19;6
S21000;27BY015I19;5
S21000;27CP050I19;3
S21000;27DB015I20;8
S21000;27DC050I20;11
S21000;27DCB060I17;7
S21000;27DE015I21;6
S21000;27DF125I17;6
S21000;27DH015I22;15
S21000;27DH030I20;2
S21000;27DH030I22;13
S21000;27DL200I21;5
S21000;27DS030I20;6
S21000;27ER015I22;18
S21000;27ER050I21;9
S21000;27ER150I21;11
S21000;27EV200I19;1
S21000;27HC050I18;4
S21000;27HCR050I16;6
S21000;27HS030I18;3
S21000;27HSR030I16;6
S21000;27MI150I20;6
S21000;27MP050I20;11
S21000;27MP150I22;2
S21000;27MQ065I15A;2
S21000;27MS050I20;8
S21000;27OR030I21;19
S21000;27OR050I21;9
S21000;27SP030I19;6
S21000;29ASH240A20;4
S21000;29BP100A19;2
S21000;29BP100A22;3
S21000;29EC200A21;5
S21000;29GE200A21;24
S21000;29HD075A15;7
S21000;29HD250A15;16
S21000;29HD500A15;18
S21000;29HS100A22SM;3
S21000;29LC200A20US;21
S21000;29MA030A17;24
S21000;29MA075A21;10
S21000;29ORALM22;73
S21000;29RH500A15;14
S21000;29SA050A21;5
S21000;29SE125A21;9
S21000;29SH240A20;7
S21000;29VC240A22;6
