S10;01BK010K14;17
S10;01BL012K18;13
S10;01BM050K19;8
S10;01BM150K19;17
S10;01BP050K21;1
S10;01BV050K16;5
S10;01CD250K17;14
S10;01CF050K22;16
S10;01CL050K21;12
S10;01CL175K22;7
S10;01CM300K20;9
S10;01CM500K20;9
S10;01CMJ075K21;9
S10;01CMR500K20;15
S10;01CP200K22;7
S10;01CPR200K22;13
S10;01CV050K22;5
S10;01EC200K22;10
S10;01EM075K20;4
S10;01HD250K17;3
S10;01HD500K20;5
S10;01HDR500K20;12
S10;01HF100K17;3
S10;01HN0075K19;12
S10;01HV030K16;7
S10;01LC250K17;13
S10;01LT300K20;14
S10;01MA030K22;26
S10;01MA075K22;11
S10;01MA150K22;15
S10;01PI030K18;3
S10;01PI150K18;13
S10;01RL500K20;12
S10;01RV500K20;15
S10;01SA050KL20;1
S10;01SA100LT20;14
S10;01SA100LV20;13
S10;01SA100VE20;15
S10;01SA250VE20;19
S10;01SA300KRO22;3
S10;01SA500KRO22;9
S10;01SB020K21;8
S10;01SE125K21;7
S10;01SL0045K13;19
S10;01SL500LV20;6
S10;11AS040SG22;24
S10;11BC100G21;18
S10;11BG140SH19;6
S10;11BG140SL19;8
S10;11BH050A18;10
S10;11BO100CS19;12
S10;11BP100I19;4
S10;11BR100A20;10
S10;11CD050A18;10
S10;11CM030H19;11
S10;11CM030H20;3
S10;11CM030O21;7
S10;11CM125I19;5
S10;11EH150A18;6
S10;11EP010H19;4
S10;11ET010H20;8
S10;11ET050H20;4
S10;11ET075O21;4
S10;11FAG10TR19;12
S10;11GD050A18;10
S10;11GD250H19;16
S10;11GD250H20;14
S10;11GD250O21;16
S10;11GE075I20;6
S10;11GM200I19;7
S10;11GN195A18;12
S10;11HE005CS19;2
S10;11LC250H19;15
S10;11LC250H20;10
S10;11LC250O21;12
S10;11LD200I19;9
S10;11LH200I19;11
S10;11LT300I20;7
S10;11MA030A20;5
S10;11MH075A19;4
S10;11MWC200I19;5
S10;11PEP050I20;8
S10;11PM100SH19;5
S10;11PM100SL19;1
S10;11SA050O21;5
S10;11SA100H19;8
S10;11SA100H20;10
S10;11SD100CS19;9
S10;11SD100SH19;6
S10;11SP200SH19;11
S10;11SP200SL19;4
S10;11SV080I19;3
S10;15AS250VA18;8
S10;15BA500L16A;9
S10;15ET010VB19;2
S10;15ET100VB20;4
S10;15GD250L14;2
S10;15GD250L21;10
S10;15GD250VA20;10
S10;15GD250VB21;10
S10;15GD250VBM22;7
S10;15GD500VB21;14
S10;15GM280VB21;6
S10;15GS150VBL22;5
S10;15HE005L14;6
S10;15LC250L14;13
S10;15LC250VA20;12
S10;15LC250VBM22;3
S10;15LM300L11;14
S10;15MA030L11;19
S10;15MA030VA5;5
S10;15MA030VB3;7
S10;15MA030VBL22;3
S10;15MA075L20;3
S10;15MA075VB4;13
S10;15RC500VB21;7
S10;15RG500L14;7
S10;15RG500VA20;13
S10;15RO010VBM22;1
S10;15SE400VB5;2
S10;15SH250VA20;10
S10;17AF100G20;12
S10;17AS250E19;3
S10;17AS250FV21;5
S10;17AS250G21;5
S10;17AS250P19;5
S10;17AS500G21;13
S10;17ER075P19;5
S10;17HB050A22;36
S10;17HI001G19;168
S10;17HI100G19;12
S10;17MC200G21;13
S10;17RC500E20;10
S10;17RC500G21;9
S10;17RC500P19;6
S10;17RS500E20;14
S10;17RS500FV21;16
S10;17RS500P19;9
S10;17SE100FV21;9
S10;17SH060SE21;5
S10;17SH060SP21;8
S10;17SH075G21;99
S10;17SH300E19;5
S10;17SH300FV21;3
S10;17SH300G21;9
S10;17SH300P19;2
S10;17SH500E19;8
S10;17SH075E19;15
S10;17SH060SG21;4
S10;17RS500G21;19
S10;17DO050F13;2
S10;17AS500P19;6
S10;17AS500FV21;5
S10;17AS500E19;10
S10;15SA070VB6;3
S10;15LC250VB3;8
S10;15GN300L11;2
S10;15GM065VB21;12
S10;15GM065L21;13
S10;15ET100VA20;4
S10;11SP200SI19;3
S10;11SP200CS19;9
S10;49POU1O21;18
S10;49RCWM22;1
S10;52AF006G20;88
S10;52AS006E19;90
S10;52AS006FV21;212
S10;52AS006G21;251
S10;52AS006P19;195
S10;52BY001I19;279
S10;52CD0015A18;62
S10;52CP0015I19;92
S10;52CP006K22;107
S10;52CV0015K22;153
S10;52DB001I20;78
S10;52DC0015I20;5
S10;52DH001I20;103
S10;52DL002I21;124
S10;52ER002I21;581
S10;52FP0015I19;63
S10;52GD0015A18;50
S10;52HD006A18;108
S10;52HS001I17;112
S10;52HS004A18;233
S10;52LC006A20;162
S10;52LGENSA18;1
S10;52LGENSA21;48
S10;52LT002R21;266
S10;52MA003K22A;52
S10;52MC006G21;60
S10;52MGEBAG19;57
S10;52MGENSA21;64
S10;52MS001I20;219
S10;52OR001I21;77
S10;52PMGBOX18;14
S10;52PS0015R21;168
S10;52MGEBOX18;13
S10;52LGEBOX18;7
S10;52LGEBAG19;40
S10;52DS001I20;141
S10;52DF002I17;58
S10;52DE001I21;77
S10;52SGEBAG19;127
S10;52SGENSA21;43
S10;52SH006E19;181
S10;52SH006FV21;403
S10;52SH006G21;332
S10;52SH006P19;397
S10;52SP001I19;204
S10;52TS001I22;200
S10;52TS001R21;139
S10;52YGERIB20;2
S10;98BBGD030VE4;50
S10;98BBHD050A0;90
S10;98BBMA010KA3;60
S10;98BBSA050LT1;81
S20;01BK010K14;21
S20;01BL012K18;13
S20;01BM050K19;10
S20;01BM150K19;18
S20;01BP050K21;2
S20;01BV050K16;6
S20;01CD250K17;11
S20;01CF050K22;14
S20;01CL050K21;9
S20;01CL175K22;5
S20;01CM300K20;10
S20;01CM500K20;11
S20;01CMJ075K21;4
S20;01CMR500K20;15
S20;01CP200K22;8
S20;01CPR200K22;11
S20;01CV050K22;11
S20;01EC200K22;12
S20;01EM075K20;6
S20;01HD250K17;9
S20;01HD500K20;14
S20;01HDR500K20;7
S20;01HF100K17;11
S20;01HN0075K19;12
S20;01HV030K16;5
S20;01LC250K17;22
S20;01LT300K20;13
S20;01MA030K22;27
S20;01MA075K22;15
S20;01MA150K22;12
S20;01MR030K14;5
S20;01PI030K18;10
S20;01PI150K18;10
S20;01RL500K20;6
S20;01RV500K20;15
S20;01SA050KV20;6
S20;01SA100LT20;14
S20;01SA100LV20;21
S20;01SA100VE20;16
S20;01SA250LT20;16
S20;01SA250LV20;14
S20;01SA250VE20;8
S20;01SA300KRO22;2
S20;01SA500KRO22;6
S20;01SB020K21;5
S20;01SE125K21;7
S20;01SL0045K13;18
S20;01SL300LV20;5
S20;01SL300VE20;12
S20;01SL500LV20;4
S20;01SL500VE20;7
S20;11AS040SG22;30
S20;11BG140CS19;11
S20;11BG140SH19;8
S21000;01BK010K14;18
S21000;01BL012K18;10
S21000;01BM050K19;9
S21000;01BM150K19;13
S21000;01BP050K21;8
S21000;01BV050K16;4
S21000;01CD250K17;8
S21000;01CF050K22;4
S21000;01CL050K21;4
S21000;01CL175K22;7
S21000;01CM300K20;2
S21000;01CM500K20;9
S21000;01CMJ075K21;15
S21000;01CMR500K20;10
S21000;01CP200K22;11
S21000;01CPR200K22;9
S21000;01CV050K22;2
S21000;01EC200K22;10
S21000;01EM075K20;4
S21000;01HD250K17;10
S21000;01HD500K20;4
S21000;01HDR500K20;9
S21000;01HF100K17;4
S21000;01HN0075K19;7
S21000;01HV030K16;4
S21000;01LC250K17;18
S21000;01LT300K20;9
S21000;01MA030K22;88
S21000;01MA075K22;17
S21000;01MA150K22;10
S21000;01MR030K14;51
S21000;01PI030K18;10
S21000;01PI150K18;11
S21000;01RL500K20;11
S21000;01RV500K20;6
S21000;01SA050KV20;8
S21000;01SA100LT20;9
S21000;01SA100LV20;10
S21000;01SA100VE20;12
S21000;01SA250LT20;10
S21000;01SA250LV20;14
S21000;01SA250VE20;18
S21000;01SA300KRO22;5
S21000;01SA500KRO22;8
S21000;01SB020K21;5
S21000;01SE125K21;8
S21000;01SL0045K13;7
S21000;01SL300LV20;5
S21000;01SL500LV20;5
S21000;01SL500VE20;9
S21000;11AS040SG22;24
S21000;11BC100G21;19
S21000;11BG140CS19;5
S20;11BG140SI19;5
S20;11BH050A18;5
S20;11BO100CS19;13
S20;11BP100I19;6
S20;11BR100A20;6
S20;11CD050A18;5
S20;11CF100TR19;12
S20;11CM030H19;15
S20;11CM030H20;13
S20;11CM125I19;5
S20;11EH150A18;3
S20;11EP010H19;7
S20;11ET010H20;11
S20;11ET050H20;5
S20;11ET075O21;10
S20;11FAG10TR19;12
S20;11GD050A18;6
S20;11GD250H19;11
S20;11GD250H20;12
S20;11GD250O21;14
S20;11GE075I20;6
S20;11GM200I19;10
S20;11GN195A18;14
S20;11HE005CS19;1
S20;11LB250HF22;8
S20;11LC250H19;4
S20;11LC250H20;10
S20;11LC250O21;9
S20;11LD200I19;6
S20;11LH200I19;4
S20;11LT300I20;4
S20;11MA030A20;3
S20;11MA030HF22;11
S20;11MH075A19;4
S20;11MWC200I19;3
S20;11PEP050I20;5
S20;11PM100SH19;7
S20;11SA050O21;5
S20;11SA100H19;8
S20;11SA100H20;7
S20;11SD100CS19;11
S20;11SD100SH19;10
S20;11SD100SI19;9
S20;11SP200CS19;10
S20;11SP200SH19;4
S20;11SP200SI19;8
S20;11SP200SL19;8
S20;11SV080I19;3
S20;15AS250VA18;4
S20;15BA500L16A;15
S20;15ET010VB19;3
S20;15ET100VA20;4
S20;15ET100VB20;5
S20;15ET100VBM22;3
S21000;11BG140SH19;5
S21000;11BG140SI19;4
S21000;11BG140SL19;8
S21000;11BH050A18;6
S21000;11BO100CS19;11
S21000;11BP100I19;4
S21000;11BR100A20;6
S21000;11CD050A18;4
S21000;11CF100TR19;10
S21000;11CM030H19;9
S21000;11CM030H20;7
S21000;11CM030O21;12
S21000;11CM125I19;11
S21000;11EH150A18;4
S21000;11EP010H19;8
S21000;11ET010H20;4
S21000;11ET050H20;6
S21000;11ET075O21;10
S21000;11FAG10TR19;9
S21000;11GD050A18;7
S21000;11GD250H19;7
S21000;11GD250H20;13
S21000;11GD250O21;6
S21000;11GE075I20;3
S21000;11GM200I19;11
S21000;11GN195A18;10
S21000;11LB250HF22;8
S21000;11LC250H19;8
S21000;11LC250H20;9
S21000;11LC250O21;6
S21000;11LD200I19;9
S21000;11LH200I19;6
S21000;11LT300I20;5
S21000;11MA030A20;8
S21000;11MA030HF22;23
S21000;11MH075A19;3
S21000;11MWC200I19;4
S21000;11PEP050I20;4
S21000;11PM100SH19;5
S21000;11PM100SI19;3
S21000;11PM100SL19;2
S21000;11SA050O21;7
S21000;11SA100H19;6
S21000;11SA100H20;12
S21000;11SD100CS19;8
S21000;11SD100SH19;4
S21000;11SD100SI19;8
S21000;11SD100SL19;7
S21000;11SP200CS19;9
S21000;11SP200SH19;4
S21000;11SP200SI19;3
S21000;11SP200SL19;6
S21000;11SV080I19;2
S20;15GD250VA20;7
S20;15GD250VB21;14
S20;15GD250VBM22;7
S20;15GD500VB21;9
S20;15GG150VAL21;4
S20;15GM065L21;9
S20;15GM065VB21;16
S20;15GM280VB21;10
S20;15GS150VBL22;2
S20;15HE005L14;8
S20;15LC250VA20;5
S20;15LC250VB3;12
S20;15LC250VBM22;3
S20;15LM300L11;14
S20;15MA030VA5;6
S20;15MA030VB3;4
S20;15MA030VBL22;5
S20;15MA030VBM8;19
S20;15MA075L20;11
S20;15MA075VB4;5
S20;15RG500L14;18
S20;15RG500VA20;3
S20;15RO010VBM22;5
S20;15SE400VB5;8
S20;15SH250VA20;11
S20;17AF100G20;16
S20;17AS250E19;4
S20;17AS250FV21;9
S20;17AS250G21;4
S20;17AS250P19;5
S20;17AS500E19;11
S20;17AS500FV21;16
S20;17AS500G21;12
S20;17CS150P19;2
S20;17DO050F13;17
S20;17ER075P19;4
S20;17HB050A22;35
S20;17HI001G19;51
S20;17HI100G19;10
S20;17RC500E20;14
S20;17RC500G21;15
S20;17RC500P19;9
S20;17RS500E20;15
S20;17RS500FV21;15
S20;17RS500G21;13
S20;17RS500P19;23
S20;17SE100FV21;13
S20;17SH060SE21;6
S20;17SH060SG21;7
S20;17SH060SP21;8
S20;17SH075G21;102
S20;17SH300E19;13
S20;17SH300FV21;10
S20;17SH300G21;10
S29000;01BK010K14;16
S29000;01BL012K18;17
S29000;01BM050K19;5
S29000;01BM150K19;16
S29000;01BP050K21;9
S29000;01CD250K17;19
S29000;01CF050K22;15
S29000;01CL050K21;7
S29000;01CL175K22;11
S29000;01CM300K20;10
S29000;01CM500K20;12
S29000;01CMJ075K21;25
S29000;01CMR500K20;18
S29000;01CP200K22;22
S29000;01CPR200K22;15
S29000;01CV050K22;11
S29000;01EC200K22;25
S29000;01EM075K20;12
S29000;01HD250K17;11
S29000;01HD500K20;18
S29000;01HDR500K20;32
S29000;01HF100K17;13
S29000;01HN0075K19;10
S29000;01HV030K16;3
S29000;01LC250K17;12
S29000;01LT300K20;14
S29000;01MA030K22;28
S29000;01MA075K22;11
S29000;01MA150K22;29
S29000;01MR030K14;11
S29000;01PI030K18;11
S29000;01PI150K18;19
S29000;01RL500K20;8
S29000;01RV500K20;23
S29000;01SA050KV20;6
S29000;01SA100LT20;25
S29000;01SA100LV20;18
S29000;01SA100VE20;13
S29000;01SA250LT20;21
S29000;01SA250LV20;22
S29000;01SA250VE20;27
S29000;01SA300KRO22;17
S29000;01SA500KRO22;7
S29000;01SB020K21;7
S29000;01SE125K21;13
S29000;01SL0045K13;38
S29000;01SL500LV20;19
S29000;11AS040SG22;36
S29000;11BG140CS19;14
S29000;11BG140SH19;10
S29000;11BG140SL19;11
S29000;11BO100CS19;12
S29000;11BP100I19;4
S30000;01BK010K14;21
S30000;01BL012K18;15
S30000;01BM050K19;4
S30000;01BM150K19;14
S30000;01BP050K21;10
S30000;01BV050K16;5
S30000;01CD250K17;13
S30000;01CF050K22;10
S30000;01CL050K21;1
S30000;01CL175K22;6
S30000;01CM300K20;6
S30000;01CM500K20;11
S30000;01CMJ075K21;8
S30000;01CMR500K20;12
S30000;01CP200K22;12
S30000;01CPR200K22;9
S30000;01CV050K22;4
S30000;01EC200K22;13
S30000;01EM075K20;5
S30000;01HD250K17;10
S30000;01HD500K20;9
S30000;01HDR500K20;11
S30000;01HF100K17;4
S30000;01HN0075K19;8
S30000;01HV030K16;3
S30000;01LC250K17;12
S30000;01LT300K20;12
S30000;01MA030K22;19
S30000;01MA075K22;12
S30000;01MA150K22;17
S30000;01MR030K14;11
S30000;01PI030K18;9
S30000;01PI150K18;10
S30000;01RL500K20;13
S30000;01RV500K20;20
S30000;01SA050KV20;7
S30000;01SA100LT20;12
S30000;01SA100LV20;13
S30000;01SA100VE20;20
S30000;01SA250LT20;6
S30000;01SA250LV20;9
S30000;01SA250VE20;11
S30000;01SA300KRO22;11
S30000;01SA500KRO22;9
S30000;01SE125K21;7
S30000;01SL0045K13;42
S30000;01SL300LV20;7
S30000;01SL500LV20;8
S30000;01SL500VE20;9
S30000;11AS040SG22;24
S30000;11BC100G21;2
S30000;11BG140CS19;2
S30000;11BG140SH19;8
S27000;01BK010K14;17
S27000;01BL012K18;11
S27000;01BM050K19;2
S27000;01BM150K19;11
S27000;01BP050K21;6
S27000;01BV050K16;6
S27000;01CD250K17;12
S27000;01CF050K22;11
S27000;01CL050K21;5
S27000;01CL175K22;11
S27000;01CM300K20;8
S27000;01CM500K20;7
S27000;01CMJ075K21;13
S27000;01CMR500K20;7
S27000;01CP200K22;9
S27000;01CPR200K22;7
S27000;01CV050K22;5
S27000;01EC200K22;14
S27000;01EM075K20;4
S27000;01HD250K17;10
S27000;01HD500K20;9
S27000;01HDR500K20;4
S27000;01HF100K17;7
S27000;01HN0075K19;7
S27000;01HV030K16;4
S27000;01LC250K17;10
S27000;01LT300K20;14
S27000;01MA030K22;14
S27000;01MA075K22;14
S27000;01MA150K22;11
S27000;01MR030K14;9
S27000;01PI030K18;3
S27000;01PI150K18;7
S27000;01RL500K20;7
S27000;01RV500K20;4
S27000;01SA050KV20;7
S27000;01SA100LT20;10
S27000;01SA100LV20;6
S27000;01SA100VE20;13
S27000;01SA250LT20;9
S27000;01SA250LV20;7
S27000;01SA250VE20;5
S27000;01SA300KRO22;5
S27000;01SA500KRO22;7
S27000;01SB020K21;7
S27000;01SE125K21;5
S27000;01SL0045K13;23
S27000;01SL300LV20;5
S27000;01SL300VE20;5
S27000;01SL500LV20;4
S27000;01SL500VE20;4
S27000;11AS040SG22;24
S27000;11BC100G21;28
S30000;11BG140SL19;5
S30000;11BO100CS19;14
S30000;11BP100I19;6
S30000;11BR100A20;5
S30000;11CD050A18;7
S30000;11CF100TR19;9
S30000;11CM030H19;22
S30000;11CM030H20;27
S30000;11CM030O21;22
S30000;11CM125I19;11
S30000;11EH150A18;4
S30000;11EP010H19;13
S30000;11ET010H20;13
S30000;11ET075O21;13
S30000;11GD050A18;5
S30000;11GD250H19;11
S30000;11GD250H20;9
S30000;11GD250O21;8
S30000;11GE075I20;6
S30000;11GM200I19;7
S30000;11GN195A18;5
S30000;11HE005CS19;8
S30000;11LB250HF22;9
S30000;11LC250H19;11
S30000;11LC250O21;9
S30000;11LD200I19;9
S30000;11LH200I19;11
S30000;11LT300I20;5
S30000;11MA030A20;4
S30000;11MA030HF22;6
S30000;11MH075A19;4
S30000;11PEP050I20;5
S30000;11PM100SH19;8
S30000;11SA100H19;4
S30000;11SA100H20;12
S30000;11SD100CS19;9
S30000;11SD100SH19;7
S30000;11SP200CS19;5
S30000;11SP200SH19;7
S30000;11SP200SI19;4
S30000;11SP200SL19;8
S30000;11SV080I19;5
S30000;15AS250VA18;5
S30000;15BA500L16A;13
S30000;15ET010VB19;9
S30000;15ET100VA20;6
S30000;15ET100VB20;5
S30000;15ET100VBM22;5
S30000;15GD070VB21;1
S30000;15GD075L15;30
S30000;15GD250L14;1
S30000;15GD250VA20;6
S29000;11BR100A20;13
S29000;11CD050A18;11
S29000;11CF100TR19;10
S29000;11CM030H19;11
S29000;11CM030O21;8
S29000;11CM125I19;5
S29000;11EDT050HF22;2
S29000;11EH150A18;3
S29000;11EP010H19;12
S29000;11ET010H20;9
S29000;11ET075O21;4
S29000;11GD050A18;12
S29000;11GD075O21;77
S29000;11GD250H19;18
S29000;11GD250H20;9
S29000;11GD250O21;15
S29000;11GE075I20;4
S29000;11GM200I19;11
S29000;11GN195A18;15
S29000;11HE005CS19;7
S29000;11LB250HF22;5
S29000;11LC250H19;12
S29000;11LC250O21;12
S29000;11LD200I19;13
S29000;11LH200I19;18
S29000;11LT300I20;8
S29000;11MA030A20;3
S29000;11MH075A19;7
S29000;11PEP050I20;5
S29000;11PM100SH19;5
S29000;11PM100SI19;7
S29000;11PM100SL19;9
S29000;11SA050O21;9
S29000;11SA100H19;14
S29000;11SA100H20;8
S29000;11SD100CS19;14
S29000;11SD100SH19;8
S29000;11SD100SL19;6
S29000;11SP200CS19;8
S29000;11SP200SH19;11
S29000;11SP200SI19;10
S29000;11SP200SL19;14
S29000;11SV080I19;13
S29000;15AS250VA18;14
S29000;15BA500L16A;10
S29000;15ET010VB19;4
S29000;15ET100VA20;5
S29000;15ET100VB20;3
S29000;15ET100VBM22;6
S29000;15GD250L21;14
S29000;15GD250VA20;13
S29000;15GD250VB21;14
S27000;11BG140CS19;6
S27000;11BG140SH19;5
S27000;11BG140SI19;4
S27000;11BG140SL19;6
S27000;11BH050A18;2
S27000;11BO100CS19;9
S27000;11BP100I19;4
S27000;11BR100A20;5
S27000;11CD050A18;5
S27000;11CF100TR19;10
S27000;11CM030H19;7
S27000;11CM030H20;13
S27000;11CM030O21;4
S27000;11CM125I19;8
S27000;11EH150A18;10
S27000;11EP010H19;7
S27000;11ET010H20;7
S27000;11ET050H20;3
S27000;11ET075O21;1
S27000;11FAG10TR19;2
S27000;11GD050A18;5
S27000;11GD250H19;2
S27000;11GD250H20;11
S27000;11GD250O21;3
S27000;11GE075I20;3
S27000;11GN195A18;9
S27000;11HE005CS19;5
S27000;11LC250H19;8
S27000;11LC250H20;8
S27000;11LC250O21;6
S27000;11LD200I19;7
S27000;11LH200I19;4
S27000;11LT300I20;4
S27000;11MA030A20;3
S27000;11MH075A19;3
S27000;11MWC200I19;3
S27000;11PEP050I20;6
S27000;11PM100SH19;4
S27000;11PM100SI19;3
S27000;11PM100SL19;4
S27000;11SA050O21;8
S27000;11SA100H19;4
S27000;11SA100H20;9
S27000;11SD100CS19;10
S27000;11SD100SH19;10
S27000;11SD100SI19;6
S27000;11SD100SL19;2
S27000;11SP200CS19;9
S27000;11SP200SH19;4
S27000;11SP200SI19;5
S27000;11SP200SL19;7
S27000;11SV080I19;5
S27000;15AS250VA18;11
S30000;15GD250VB21;13
S30000;15GD500VB21;9
S30000;15GM065VB21;1
S30000;15GM280VB21;5
S30000;15GS150VBL22;3
S30000;15HE005L14;9
S30000;15LC250L14;8
S30000;15LC250VA20;12
S30000;15LC250VBM22;8
S30000;15LM300L11;10
S30000;15MA030VA5;13
S30000;15MA030VB3;12
S30000;15MA030VBL22;3
S30000;15MA030VBM8;12
S30000;15MA075L20;12
S30000;15MA075VB4;7
S30000;15RC500VB21;9
S30000;15RG500L14;20
S30000;15RG500VA20;8
S30000;15RO010VBM22;1
S30000;15SA070VB6;6
S30000;15SE400VB5;8
S30000;15SH250VA20;4
S30000;17AS250E19;4
S30000;17AS250FV21;5
S30000;17AS250G21;9
S30000;17AS250P19;5
S30000;17AS500G21;7
S30000;17ER075P19;4
S30000;17HB050A22;36
S30000;17HI001G19;129
S30000;17HI100G19;10
S30000;17MC200G21;11
S30000;17RC500E20;8
S30000;17RC500G21;18
S30000;17RC500P19;12
S30000;17RS500E20;16
S30000;17RS500FV21;20
S30000;17RS500P19;15
S30000;17SE100FV21;18
S30000;17SH060SE21;5
S30000;17SH060SG21;8
S30000;17SH300E19;5
S30000;17SH300FV21;9
S30000;17SH300G21;8
S30000;17SH300P19;10
S30000;17SH500E19;10
S30000;17SH500FV21;18
S30000;17SH500G21;10
S30000;17SH500P19;5
S30000;17VI100P19;6
S30000;20AR075O20;6
S30000;20DO050O20;5
S24000;01BK010K14;11
S28000;01BK010K14;14
S24000;01BL012K18;8
S24000;01BM050K19;11
S24000;01BM150K19;9
S24000;01BP050K21;10
S24000;01BV050K16;10
S24000;01CD250K17;15
S24000;01CF050K22;5
S24000;01CL050K21;8
S24000;01CL175K22;6
S24000;01CM300K20;10
S24000;01CM500K20;7
S24000;01CMJ075K21;13
S24000;01CMR500K20;11
S24000;01CP200K22;9
S24000;01CPR200K22;8
S24000;01CV050K22;10
S24000;01EC200K22;11
S24000;01EM075K20;4
S24000;01HD250K17;10
S24000;01HD500K20;2
S24000;01HDR500K20;10
S24000;01HF100K17;5
S24000;01HN0075K19;8
S24000;01HV030K16;4
S24000;01LC250K17;15
S24000;01LT300K20;13
S24000;01MA030K22;26
S24000;01MA075K22;12
S24000;01MA150K22;18
S24000;01MR030K14;16
S24000;01PI030K18;11
S24000;01PI150K18;14
S24000;01RL500K20;3
S24000;01RV500K20;2
S24000;01SA050KV20;11
S24000;01SA100LT20;7
S24000;01SA100LV20;6
S24000;01SA100VE20;9
S24000;01SA250LT20;8
S24000;01SA250LV20;7
S24000;01SA250VE20;8
S24000;01SA300KRO22;9
S24000;01SA500KRO22;5
S24000;01SB020K21;2
S24000;01SE125K21;5
S24000;01SL0045K13;12
S24000;01SL300LV20;4
S24000;01SL300VE20;2
S24000;01SL500LV20;3
S24000;01SL500VE20;3
S24000;11AS040SG22;24
S24000;11BC100G21;26
S24000;11BG140CS19;6
S24000;11BG140SH19;4
S24000;11BG140SI19;6
S24000;11BG140SL19;9
S24000;11BH050A18;4
S24000;11BO100CS19;7
S24000;11BP100I19;4
S24000;11BR100A20;4
S24000;11CD050A18;3
S24000;11CF100TR19;4
S24000;11CM030H19;11
S24000;11CM030H20;12
S24000;11CM030O21;14
S24000;11CM125I19;4
S24000;11EH150A18;4
S24000;11EP010H19;5
S24000;11ET010H20;6
S24000;11ET050H20;4
S24000;11ET075O21;4
S24000;11FAG10TR19;5
S24000;11GD050A18;4
S24000;11GD250H19;11
S24000;11GD250H20;12
S24000;11GD250O21;11
S24000;11GE075I20;10
S24000;11GM200I19;7
S24000;11GN195A18;10
S24000;11HE005CS19;5
S24000;11LB250HF22;4
S24000;11LC250H19;4
S24000;11LC250H20;9
S24000;11LC250O21;8
S24000;11LD200I19;6
S24000;11LH200I19;10
S24000;11LT300I20;3
S24000;11MA030A20;2
S24000;11MH075A19;7
S24000;11MWC200I19;3
S24000;11PEP050I20;4
S24000;11PM100SH19;5
S24000;11PM100SI19;4
S24000;11PM100SL19;4
S24000;11SA050O21;10
S24000;11SA100H19;8
S24000;11SA100H20;11
S24000;11SD100CS19;5
S24000;11SD100SH19;10
S24000;11SD100SI19;4
S24000;11SD100SL19;10
S24000;11SP200CS19;8
S24000;11SP200SH19;10
S24000;11SP200SI19;5
S29000;15GD500VB21;16
S29000;15GG150VAL21;9
S29000;15GM065L21;17
S29000;15GM065VB21;25
S29000;15GM280VB21;8
S29000;15GN300L11;14
S29000;15GS150VBL22;3
S29000;15HE005L14;2
S29000;15LC250L14;16
S29000;15LC250VA20;17
S29000;15LC250VBM22;5
S29000;15LM300L11;15
S29000;15MA030L11;20
S29000;15MA030VA5;15
S29000;15MA030VB3;13
S29000;15MA030VBM8;21
S29000;15MA075L20;22
S29000;15MA075VB4;15
S29000;15RC500VB21;17
S29000;15RG500L14;10
S29000;15RG500VA20;21
S29000;15RO010VBM22;13
S29000;15SA070VB6;16
S29000;15SE400VB5;6
S29000;15SH250VA20;16
S29000;17AF100G20;15
S29000;17AS250E19;9
S29000;17AS250FV21;5
S29000;17AS250G21;11
S29000;17AS250P19;5
S29000;17AS500E19;11
S29000;17AS500G21;20
S29000;17AS500P19;12
S29000;17DO050F13;23
S29000;17ER075P19;21
S29000;17HB050A22;40
S29000;17HI001G19;12
S29000;17HI100G19;20
S29000;17MC200G21;24
S29000;17RC500E20;26
S29000;17RC500G21;46
S29000;17RC500P19;13
S29000;17RS500E20;25
S29000;17RS500FV21;25
S29000;17RS500G21;53
S29000;17RS500P19;40
S29000;17SE100FV21;14
S29000;17SH060SE21;4
S29000;17SH060SG21;7
S29000;17SH060SP21;2
S29000;17SH075G21;73
S29000;17SH300E19;11
S29000;17SH300FV21;9
S30000;20DO075CD20;2
S30000;20DO130HC20;3
S30000;20ET075CD20;6
S30000;20ET075HC20;7
S30000;20ET075OC20;4
S30000;20FE050H20;5
S30000;20GD250CD20;9
S30000;20GD250HC20;15
S30000;20GD250OC20;5
S30000;20GD500HC20;8
S30000;20HR050H20;5
S30000;20NV150H20;10
S30000;20SA050CD20;6
S30000;20SA050HC20;5
S30000;24BL012CB5;10
S30000;24BR050R22;8
S30000;24ET075R22;14
S30000;24GD250CB21;8
S30000;24GD250R22;12
S30000;24GD500R22;9
S30000;24LC250CB4;6
S30000;24MA030CB4;5
S30000;24MA030P15;22
S30000;24MA030R22;22
S30000;24MA030RA19;18
S30000;24MA030S6;26
S30000;24MA075CB4;13
S30000;24MA075P15;10
S30000;24MA075R22;7
S30000;24MA150R22;10
S30000;24RG500CB21;12
S30000;27BP050I19;13
S30000;27BY015I19;10
S30000;27CP050I19;9
S30000;27DB015I20;12
S30000;27DC030I20;8
S30000;27DC050I20;11
S30000;27DCB060I17;4
S30000;27DE015I21;11
S30000;27DF125I17;4
S30000;27DH015I20;19
S30000;27DH030I20;9
S30000;27DL200I21;7
S30000;27DS030I20;8
S30000;27ER015I22;16
S30000;27ER050I21;9
S30000;27EV200I19;6
S30000;27FP050I19;4
S30000;27HC050I18;4
S30000;27HCR050I16;4
S30000;27HS030I18;4
S30000;27HSR030I16;4
S30000;27MI150I20;4
S27000;15BA500L16A;11
S27000;15ET010VB19;4
S27000;15ET100VA20;2
S27000;15ET100VB20;1
S27000;15ET100VBM22;5
S27000;15GD250L21;10
S27000;15GD250VA20;8
S27000;15GD250VB21;8
S27000;15GD250VBM22;8
S27000;15GD500VB21;12
S27000;15GG150VAL21;8
S27000;15GM065L21;5
S27000;15GM065VB21;10
S27000;15GM280VB21;6
S27000;15GN300L11;1
S27000;15GS150VBL22;5
S27000;15HE005L14;5
S27000;15LC250L14;8
S27000;15LC250VA20;6
S27000;15LC250VB3;13
S27000;15LC250VBM22;8
S27000;15LM300L11;5
S27000;15MA030L11;7
S27000;15MA030VA5;3
S27000;15MA030VB3;9
S27000;15MA030VBL22;4
S27000;15MA030VBM8;17
S27000;15MA075L20;5
S27000;15MA075VB4;5
S27000;15RC500VB21;11
S27000;15RG500L14;10
S27000;15RG500VA20;8
S27000;15RO010VBM22;4
S27000;15SA070VB6;3
S27000;15SE400VB5;4
S27000;15SH250VA20;5
S27000;17AF100G20;13
S27000;17AS250E19;7
S27000;17AS250FV21;5
S27000;17AS250G21;9
S27000;17AS250P19;6
S27000;17AS500E19;4
S27000;17AS500FV21;5
S27000;17AS500G21;14
S27000;17AS500P19;5
S27000;17DO050F13;10
S27000;17ER075P19;5
S27000;17HB050A22;36
S27000;17HI001G19;73
S27000;17HI100G19;10
S27000;17MC200G21;10
S27000;17RC500E20;13
S30000;27MP050I20;34
S30000;27MP150I20;10
S30000;27MQ065I15A;6
S30000;27MS050I20;10
S30000;27OR030I21;20
S30000;27OR050I21;15
S30000;27RM300I20;10
S30000;27SP030I19;6
S30000;29ASH240A20;5
S30000;29BP100A19;4
S30000;29EC200A21;3
S30000;29GE200A21;10
S30000;29HD250A15;14
S30000;29HD500A15;24
S30000;29HS100A22SM;13
S30000;29LC200A20US;19
S30000;29MA030A17;21
S30000;29MA075A21;11
S30000;29RC200A20;31
S30000;29RH500A15;28
S30000;29SE125A21;10
S30000;29SH075A20;15
S30000;29VC240A22;1
S30000;38BV050A19;7
S30000;38EV075A21;3
S30000;38FT200A21;9
S30000;38MI150A22;16
S30000;38RC050A22;9
S30000;38WC050A21;10
S30000;38WS030A21;11
S30000;49BO015CS19;79
S30000;49CL1SA18;15
S30000;49CM030I19;3
S30000;49CP020K22;1
S30000;49DC004I20;4
S30000;49DH004I20;42
S30000;49LC020A20;47
S30000;49MA010K22;60
S30000;49MA010VB3;1
S30000;49OR005I21;26
S30000;52AF006G20;117
S30000;52AS006E19;116
S30000;52AS006FV21;90
S30000;52AS006G21;166
S30000;52AS006P19;41
S30000;52BY001I19;116
S30000;52CD0015A18;73
S30000;52CL0015K21;58
S30000;52CP006K22;92
S30000;52CV0015K22;89
S30000;52DB001I20;142
S30000;52DC0015I20;70
S30000;52DE001I21;121
S30000;52DH001I20;376
S30000;52DL002I21;87
S30000;52DS001I20;88
S30000;52ER002I21;514
S30000;52GD0015A18;82
S30000;52HD006A18;201
S30000;52HS001I17;58
S30000;52HS004A18;153
S30000;52LC006A20;290
S30000;52LGEBAG19;42
S30000;52LGENSA21;67
S30000;52MA003K22A;128
S30000;52MC006G21;90
S30000;52MGEBAG19;168
S30000;52MGENSA21;98
S30000;52MIGEBAG19;125
S30000;52MS001I20;82
S30000;52OR001I21;246
S30000;52PMGBOX18;5
S30000;52PS0015R21;168
S30000;52SGEBAG19;656
S30000;52SGENSA21;221
S30000;52SH006E19;182
S30000;52SH006FV21;267
S30000;52SH006G21;308
S30000;52SH006P19;126
S30000;52SP001I19;118
S30000;52TS001I22;52
S30000;52TS001R21;174
S30000;98BBGD030VE4;35
S30000;98BBMA010KA3;38
S30000;HKOCVE6T00055;7
S30000;SGOCVE600004;61
S30000;52LGEBOX18;20
S30000;52DF002I17;90
S30000;52CP0015I19;130
S30000;49POCKNO21;49
S30000;49HD035A15;184
S30000;38WM065A18;5
S30000;38EC015A18;7
S30000;29SH240A20;3
S30000;29SA050A21;8
S30000;27ER150I21;13
S30000;24SA050CB21;10
S30000;24RO010CB4;14
S30000;24RG500R22;11
S30000;24RG500C20;2
S30000;24MA030RV19;20
S30000;24LC250R22;11
S30000;24ET075CB21;11
S30000;24BR050CB6;13
S30000;24BL012R22;12
S30000;17SH075G21;89
S30000;17SH060SP21;3
S30000;17RS500G21;21
S30000;17DO050F13;13
S30000;17AS500P19;6
S30000;17AS500FV21;5
S30000;17AS500E19;11
S30000;17AF100G20;11
S30000;15MA030L11;15
S30000;15LC250VB3;8
S30000;15GN300L11;8
S30000;15GM065L21;6
S30000;15GD250VBM22;6
S30000;11SD100SL19;5
S30000;11SD100SI19;9
S30000;11SA050O21;11
S30000;11MWC200I19;6
S30000;11LC250H20;6
S30000;11FAG10TR19;14
S30000;11ET050H20;3
S30000;11BH050A18;8
S30000;11BG140SI19;6
S30000;01SL300VE20;7
S30000;52MGEBOX18;16
S30000;52LT002R21;60
S10;HKOCVE6T00055;5
S10;SGOCVE600004;57
S90000;01BK010K14;12
S90000;01BL012K18;7
S90000;01BM050K19;10
S90000;01BM150K19;11
S90000;01BP050K21;8
S90000;01BS020K22;1
S90000;01BV050K16;3
S90000;01CD250K17;5
S90000;01CF050K22;6
S90000;01CL050K21;14
S90000;01CL175K22;5
S90000;01CL200K17;34
S90000;01CM300K20;8
S90000;01CM500K20;8
S90000;01CMJ075K21;7
S90000;01CMR500K20;13
S90000;01CP050K22;1
S90000;01CP200K22;12
S90000;01CPR200K22;11
S90000;01CV050K18;27
S90000;01CV050K22;8
S90000;01EC200K22;14
S90000;01EM075K20;8
S90000;01EN300KB19;14
S90000;01HD250K17;4
S90000;01HD500K20;5
S90000;01HDR500K20;14
S90000;01HF100K17;4
S90000;01HN0075K19;8
S90000;01HV030K16;4
S90000;01LC250K17;10
S90000;01LC250K21H;1
S90000;01LC500K20;1
S90000;01LT300K20;8
S90000;01MA075K18;6
S90000;01MA150K18;4
S90000;01MA150K22;8
S90000;01MR030K14;6
S90000;01PI030K18;9
S90000;01PI150K18;2
S90000;01RL500K20;17
S90000;01RV500K20;12
S90000;01SA050KV20;8
S90000;01SA100LT20;11
S90000;01SA100LV20;12
S90000;01SA100VE20;11
S90000;01SA250LV20;2
S90000;01SA250VE20;9
S90000;01SA300KRO22;12
S90000;01SA500KRO22;17
S90000;01SB020K21;10
S90000;01SE125K21;7
S90000;01SL0045K13;4
S90000;01SL500LV20;14
S90000;01SL500VE20;12
S90000;10BOWEB219;500
S90000;10BOWEB319;1000
S90000;10BOWEB419;600
S90000;11BC100G21;5
S90000;11BG140CS19;11
S90000;11BG140SH19;9
S90000;11BG140SI19;12
S90000;11BG140SL19;12
S90000;11BH050A18;9
S90000;11BO100CS19;8
S90000;11BP100I19;8
S90000;11BR100A20;6
S90000;11CD050A18;11
S90000;11CM030H19;12
S90000;11CM030H20;10
S90000;11CM030O21;7
S90000;11CM125I19;9
S90000;11EDT050HF22;1
S90000;11EH150A18;7
S90000;11EP010H19;3
S90000;11EP050H19;5
S90000;11ET010H20;10
S90000;11ET050H20;8
S90000;11ET075O21;8
S90000;11FAG10TR19;9
S90000;11GD050A18;5
S90000;11GD250H19;6
S90000;11GD250H20;12
S90000;11GD250O21;5
S90000;11GE075I20;8
S90000;11GM200I19;1
S90000;11GN040A19;88
S90000;11GN195A18;7
S90000;11HE005CS19;12
S90000;11LB250HF22;3
S90000;11LC250H19;9
S90000;11LC250H20;12
S90000;11LC250O21;16
S90000;11LD200I19;11
S90000;11LH200I19;6
S90000;11LT300I20;10
S90000;11MA030A20;6
S90000;11MA030HF22;26
S90000;11MH075A19;8
S90000;11MWC200I19;4
S90000;11PEP050I20;8
S90000;11PM100DE20H;2
S90000;11PM100SH19;8
S90000;11PM100SI19;8
S90000;11PM100SL19;5
S90000;11SA050O21;9
S29000;17SH300G21;12
S29000;17SH300P19;11
S29000;17SH500E19;17
S29000;17SH500FV21;14
S29000;17SH500G21;26
S29000;17SH500P19;19
S29000;17VI100P19;14
S29000;15LC250VB3;19
S29000;11SD100SI19;12
S29000;11MWC200I19;5
S29000;11LC250H20;9
S29000;11FAG10TR19;11
S29000;11ET050H20;4
S29000;11BH050A18;2
S29000;11BG140SI19;6
S29000;01SL500VE20;15
S29000;01SL300VE20;4
S29000;01SL300LV20;4
S29000;17AS500FV21;8
S29000;20AR075O20;12
S29000;20DO050O20;13
S29000;20DO075CD20;15
S29000;20DO130HC20;13
S29000;20ET075CD20;5
S29000;20ET075HC20;7
S29000;20ET075OC20;5
S29000;20FE050H20;4
S29000;20GD250CD20;22
S29000;20GD250HC20;19
S29000;20GD250OC20;28
S29000;20GD500HC20;16
S29000;20HR050H20;4
S29000;20NV150H20;23
S29000;20SA050CD20;10
S29000;20SA050HC20;6
S29000;20SA050O20;12
S29000;24BL012CB5;16
S29000;24BL012R22;11
S29000;24BR050CB6;16
S29000;24BR050R22;16
S29000;24ET075CB21;14
S29000;24ET075R22;12
S29000;24GD250CB21;19
S29000;24GD250R22;11
S29000;24GD500R22;11
S29000;24LC250CB4;20
S29000;24LC250R22;11
S29000;24MA030P15;6
S29000;24MA030R22;14
S29000;24MA030RA19;3
S29000;24MA030RV19;3
S29000;24MA030S6;8
S10;11SD100SL19;6
S10;11SD100SI19;5
S10;11PM100SI19;5
S10;11MA030HF22;5
S10;11CF100TR19;12
S10;11BG140SI19;4
S10;11BG140CS19;4
S10;01SL500VE20;10
S10;01SL300VE20;7
S10;01SL300LV20;8
S10;01SA250LV20;6
S10;01SA250LT20;12
S10;01SA050KV20;8
S10;01MR030K14;11
S10;17SH500G21;16
S10;17SH500P19;5
S10;17VI100P19;6
S10;20AR075O20;5
S10;20DO050O20;5
S10;20DO075CD20;6
S10;20DO130HC20;4
S10;20ET075CD20;5
S10;20ET075HC20;5
S10;20ET075OC20;2
S10;20FE050H20;4
S10;20GD250CD20;11
S10;20GD250HC20;13
S10;20GD250OC20;12
S10;20GD500HC20;11
S10;20HR050H20;3
S10;20NV150H20;10
S10;20SA050CD20;4
S10;20SA050HC20;3
S10;20SA050O20;5
S10;24BL012CB5;9
S10;24BL012R22;7
S10;24ET075R22;9
S10;24ET075CB21;13
S10;24BR050R22;10
S10;24BR050CB6;12
S10;24GD250CB21;16
S10;24GD250R22;15
S10;24GD500R22;10
S10;24LC250CB4;17
S10;24LC250R22;16
S10;24MA030P15;5
S10;24MA030R22;12
S10;24MA030S6;10
S10;24MA075CB4;9
S10;24MA075P15;1
S10;24MA075R22;10
S10;24MA150R22;14
S10;24RG500CB21;12
S10;24RO010R18;2
S10;24SA050CB21;8
S20;17SH300P19;9
S20;17MC200G21;10
S20;17AS500P19;5
S20;15SA070VB6;6
S20;15MA030L11;10
S20;15LC250L14;5
S20;15GN300L11;10
S20;15GD250L21;12
S20;11SD100SL19;6
S20;11PM100SI19;3
S20;11CM030O21;8
S20;11BG140SL19;5
S20;17SH500E19;11
S20;17SH500FV21;14
S20;17SH500G21;16
S20;17SH500P19;10
S20;17VI100P19;2
S20;20AR075O20;13
S20;20DO050O20;8
S20;20DO075CD20;4
S20;20DO130HC20;13
S20;20ET075CD20;3
S20;20ET075HC20;3
S20;20ET075OC20;4
S20;20FE050H20;4
S20;20GD250CD20;10
S20;20GD250HC20;18
S20;20GD250OC20;8
S20;20GD500HC20;16
S20;20HR050H20;5
S20;20NV150H20;20
S20;20SA050CD20;5
S20;20SA050HC20;2
S20;20SA050O20;4
S20;24BL012CB5;9
S20;24BL012R22;11
S20;24BR050CB6;11
S20;24ET075R22;9
S20;24ET075CB21;8
S20;24BR050R22;10
S20;24GD250CB21;16
S20;24GD250R22;18
S20;24GD500R22;22
S20;24LC250R22;6
S20;24MA030R22;4
S20;24MA030RA19;1
S20;24MA030RE19;4
S20;24MA030RV19;6
S20;24MA075CB4;9
S20;24MA075R18;4
S20;24MA075R22;14
S20;24MA150R22;11
S20;24RG500CB21;7
S20;24RG500R22;19
S27000;17RC500G21;12
S27000;17RC500P19;15
S27000;17RS500E20;14
S27000;17RS500FV21;11
S27000;17RS500G21;13
S27000;17RS500P19;9
S27000;17SE100FV21;9
S27000;17SH060SE21;4
S27000;17SH060SG21;6
S27000;17SH060SP21;8
S27000;17SH075G21;45
S27000;17SH300E19;8
S27000;17SH300FV21;10
S27000;17SH300G21;7
S27000;17SH300P19;5
S27000;17SH500E19;7
S27000;17SH500FV21;9
S27000;17SH500G21;6
S27000;17SH500P19;18
S27000;17VI100P19;4
S27000;20AR075O20;5
S27000;20DO050O20;4
S27000;20DO130HC20;8
S27000;20ET075CD20;4
S27000;20ET075HC20;3
S27000;20ET075OC20;4
S27000;20FE050H20;4
S27000;20GD250CD20;6
S27000;20GD250HC20;8
S27000;20GD250OC20;3
S27000;20GD500HC20;9
S27000;20HR050H20;4
S27000;20NV150H20;7
S27000;20SA050CD20;6
S27000;20SA050HC20;5
S27000;20SA050O20;3
S27000;24BL012CB5;7
S27000;24BL012R22;8
S27000;24BR050CB6;10
S27000;24BR050R22;3
S27000;24ET075CB21;4
S27000;24ET075R22;6
S27000;24GD250CB21;12
S27000;24GD250R22;7
S27000;24GD500R22;8
S27000;24LC250CB4;12
S27000;24LC250R22;9
S27000;24MA030P15;8
S27000;24MA030R22;15
S27000;24MA030RA19;7
S27000;24MA030RV19;5
S27000;24MA030S6;7
S27000;24MA075CB4;7
S21000;52GD0015A18;66
S21000;52HD006A18;197
S21000;52HS001I17;152
S21000;52HS004A18;183
S21000;52LC006A20;213
S21000;52LGEBAG19;82
S21000;52LGEBOX18;8
S21000;52LGENSA21;70
S21000;52LT002R21;141
S21000;52MA003K22A;177
S21000;52MC006G21;57
S21000;52MGEBAG19;73
S21000;52MGEBOX18;8
S21000;52MGENSA21;12
S21000;52MS001I20;98
S21000;52OR001I21;289
S21000;52PMGBOX18;5
S21000;52PS0015R21;123
S21000;52SAMPENV18;28
S21000;52SGEBAG19;285
S21000;52SGENSA21;55
S21000;52SH006E19;183
S21000;52SH006FV21;358
S21000;52SH006G21;301
S21000;52SH006P19;276
S21000;52SP001I19;195
S21000;52TS001I22;112
S21000;52TS001R21;100
S21000;98BBGD030VE4;48
S21000;98BBMA010KA3;37
S21000;SGOCVE600004;65
S29000;24MA075CB4;20
S29000;24MA075P15;13
S29000;24MA075R22;13
S29000;24MA150R22;16
S29000;24RG500C20;32
S29000;24RG500R22;22
S29000;24RO010CB4;13
S29000;24SA050CB21;21
S29000;24SA050R22;19
S29000;27BP050I19;3
S29000;27BY015I19;5
S29000;27CP050I19;16
S29000;27DB015I20;20
S29000;27DC030I20;4
S29000;27DC050I20;30
S29000;27DCB060I17;4
S29000;27DE015I21;23
S29000;27DF125I17;32
S29000;27DH015I20;17
S29000;27DH030I20;18
S29000;27DL200I21;15
S29000;27DS030I20;11
S29000;27ER015I22;22
S29000;27ER050I21;14
S29000;27ER150I21;23
S29000;27EV200I19;20
S29000;27FP050I19;1
S29000;27HC050I18;6
S29000;27HCR050I16;9
S29000;27HS030I18;4
S29000;27HSR030I16;17
S29000;27MI150I20;7
S29000;27MP050I20;3
S29000;27MP150I20;17
S29000;27MQ065I15A;3
S29000;27MS050I20;13
S29000;27OR030I21;21
S29000;27OR050I21;38
S29000;27RM300I20;19
S29000;24SA050CB6;1
S29000;27SP030I19;8
S29000;29ASH240A20;13
S29000;29BP100A19;6
S29000;29EC200A21;18
S29000;29GE200A21;28
S29000;29HD250A15;13
S29000;29HD500A15;51
S29000;29HS100A22SM;10
S29000;29LC200A20US;42
S29000;29MA030A17;10
S29000;29MA075A21;19
S29000;29RC200A20;55
S29000;29RH500A15;69
S21000;15AS250VA18;8
S21000;15BA500L16A;11
S21000;15ET010VB19;2
S21000;15ET100VA20;8
S21000;15ET100VB20;5
S21000;15GD070VB21;5
S21000;15GD250L21;2
S21000;15GD250VA20;10
S21000;15GD250VB21;5
S21000;15GD250VBM22;3
S21000;15GD500VB21;10
S21000;15GG150VAL21;3
S21000;15GM065L21;5
S21000;15GM065VB21;4
S21000;15GM280VB21;12
S21000;15GN300L11;8
S21000;15GS150VBL22;4
S21000;15HE005L14;4
S21000;15LC250L14;10
S21000;15LC250VA20;9
S21000;15LC250VB3;9
S21000;15LM300L11;10
S21000;15MA030VA5;8
S21000;15MA030VB3;8
S21000;15MA030VBL22;8
S21000;15MA030VBM8;20
S21000;15MA075L20;9
S21000;15MA075VB4;7
S21000;15RC500VB21;13
S21000;15MA030L11;14
S21000;15RG500L14;13
S21000;15RG500VA20;14
S21000;15RO010VBM22;5
S21000;15SA070VB6;9
S21000;15SE400VB5;1
S21000;15SH250VA20;12
S21000;17AF100G20;19
S21000;17AS250E19;4
S21000;17AS250FV21;6
S21000;17AS250G21;4
S21000;17AS250P19;6
S21000;17AS500E19;9
S21000;17AS500FV21;7
S21000;17AS500G21;11
S21000;17AS500P19;6
S21000;17DO050F13;9
S21000;17ER075P19;9
S21000;17HB050A22;36
S21000;17HI001G19;95
S21000;17HI100G19;9
S21000;17MC200G21;11
S21000;17RC500E20;15
S24000;11SP200SL19;10
S24000;11SV080I19;4
S24000;15AS250VA18;5
S24000;15BA500L16A;11
S24000;15ET010VB19;4
S24000;15ET100VA20;4
S24000;15ET100VB20;6
S24000;15GD250L21;6
S24000;15GD250VA20;7
S24000;15GD250VB21;6
S24000;15GD250VBM22;13
S24000;15GD500VB21;10
S24000;15GM065L21;10
S24000;15GM065VB21;15
S24000;15GM280VB21;2
S24000;15GN300L11;10
S24000;15GS150VBL22;6
S24000;15HE005L14;5
S24000;15LC250L14;10
S24000;15LC250VA20;8
S24000;15LC250VB3;10
S24000;15LC250VBM22;10
S24000;15LM300L11;10
S24000;15MA030L11;15
S24000;15MA030VA5;10
S24000;15MA030VB3;7
S24000;15MA030VBL22;8
S24000;15MA030VBM8;22
S24000;15MA075L20;9
S24000;15MA075VB4;3
S24000;15RC500VB21;15
S24000;15RG500L14;10
S24000;15RG500VA20;11
S24000;15RO010VBM22;4
S24000;15SA070VB6;3
S24000;15SE400VB5;4
S24000;15SH250VA20;2
S24000;17AF100G20;12
S24000;17AS250E19;5
S24000;17AS250FV21;8
S24000;17AS250G21;8
S24000;17AS250P19;5
S24000;17AS500E19;8
S24000;17AS500FV21;11
S24000;17AS500G21;12
S24000;17AS500P19;6
S24000;17DO050F13;10
S24000;17ER075P19;5
S24000;17HB050A22;35
S24000;17HI001G19;95
S24000;17HI100G19;10
S24000;17MC200G21;10
S27000;24MA075P15;5
S27000;24MA075R22;8
S27000;24MA150R22;8
S27000;24RG500C20;13
S27000;24RG500R22;12
S27000;24RO010CB4;11
S27000;24SA050CB21;10
S27000;24SA050R22;10
S27000;27BP050I19;5
S27000;27BY015I19;6
S27000;27CP050I19;8
S27000;27DB015I20;7
S27000;27DC030I20;10
S27000;27DC050I20;11
S27000;27DCB060I17;6
S27000;27DE015I21;7
S27000;27DF125I17;14
S27000;27DH015I20;5
S27000;27DH030I20;12
S27000;27DL200I21;10
S27000;27DS030I20;10
S27000;27ER015I22;8
S27000;27ER050I21;13
S27000;27ER150I21;10
S27000;27EV200I19;7
S27000;27FP050I19;4
S27000;27HC050I18;5
S27000;27HCR050I16;5
S27000;27HS030I18;5
S27000;27HSR030I16;4
S27000;27MI150I20;4
S27000;27MP050I20;3
S27000;27MP150I20;10
S27000;27MQ065I15A;4
S27000;27MS050I20;5
S27000;27OR030I21;11
S27000;27OR050I21;12
S27000;27RM300I20;7
S27000;27SP030I19;4
S27000;29ASH240A20;3
S27000;29BP100A19;5
S27000;29EC200A21;9
S27000;29GE200A21;13
S27000;29HD075A15;2
S27000;29HD250A15;4
S27000;29HD500A15;20
S27000;29HS100A22SM;12
S27000;29LC200A20US;13
S27000;29MA030A17;8
S27000;29MA075A21;9
S27000;29RC200A20;11
S27000;29RH500A15;24
S27000;29SA050A21;6
S90000;11SA100H19;11
S90000;11SA100H20;10
S90000;11SD100CS19;8
S90000;11SD100SH19;8
S90000;11SD100SI19;12
S90000;11SD100SL19;8
S90000;11SP200CS19;8
S90000;11SP200SH19;8
S90000;11GD250HF22;1
S90000;11CF100TR19;9
S90000;01SL300VE20;8
S90000;01SL300LV20;9
S90000;01SA250LT20;18
S90000;11SP200SI19;10
S90000;11SP200SL19;11
S90000;11SV080I19;5
S90000;15AS250VA18;8
S90000;15BA500L16A;12
S90000;15DF200VBL21;1
S90000;15DO050VA5;1
S90000;15ET100VA20;7
S90000;15ET100VB3;4
S90000;15GC150VBL20;2
S90000;15GD075L15;50
S90000;15GD250L21;9
S90000;15GD250VA20;12
S90000;15GD250VB21;11
S90000;15GD250VBL22;1
S90000;15GD250VBM22;1
S90000;15GD500VB21;10
S90000;15GM065L21;15
S90000;15GM065VB21;15
S90000;15GM280VB21;6
S90000;15GN300L11;7
S90000;15GS150VBL22;6
S90000;15HE005L14;6
S90000;15LC070VB5;69
S90000;15LC075L15;20
S90000;15LC250L14;4
S90000;15LC250VA20;12
S90000;15LC250VB3;5
S90000;15LC250VBM22;9
S90000;15LM300L11;15
S90000;15MA030L11;6
S90000;15MA030VA5;14
S90000;15MA030VB3;9
S90000;15MA030VBL22;6
S90000;15MA030VBM8;21
S90000;15MA075L20;6
S90000;15MA075VB4;4
S90000;15RC500VB21;24
S90000;15RG500L14;17
S20;49LC020A20;58
S20;49MA010K22;60
S20;49OR005I21;57
S20;49RCWM22;10
S20;52AF006G20;99
S24000;52AF006G20;212
S20;52AS006E19;75
S24000;52AS006E19;205
S20;52AS006FV21;112
S24000;52AS006FV21;119
S20;52AS006G21;148
S24000;52AS006G21;199
S20;52AS006P19;64
S24000;52AS006P19;77
S20;52BY001I19;63
S24000;52BY001I19;128
S20;52CD0015A18;51
S24000;52CD0015A18;89
S20;52CL0015K21;61
S24000;52CL0015K21;133
S20;52CP0015I19;85
S24000;52CP0015I19;128
S20;52CP006K22;172
S24000;52CP006K22;364
S20;52CV0015K22;135
S24000;52CV0015K22;153
S20;52DB001I20;82
S24000;52DB001I20;130
S20;52DC0015I20;9
S24000;52DC0015I20;254
S20;52DE001I21;90
S24000;52DE001I21;198
S20;52DF002I17;93
S24000;52DF002I17;244
S20;52DH001I20;106
S24000;52DH001I20;292
S20;52DL002I21;170
S24000;52DL002I21;156
S20;52DS001I20;68
S24000;52DS001I20;45
S20;52ER002I21;471
S24000;52ER002I21;567
S24000;52ER006P19;1
S20;52GD0015A18;22
S24000;52GD0015A18;79
S20;52HD006A18;266
S24000;52HD006A18;297
S20;52HS001I17;73
S24000;52HS001I17;129
S20;52HS004A18;40
S24000;52HS004A18;76
S24000;52LASANO21;120
S20;52LC006A20;306
S24000;52LC006A20;323
S90000;15RG500VA20;10
S90000;15RO010VBM22;1
S90000;15SA070VB6;8
S90000;15SE400VB5;6
S90000;15SH250VA20;6
S90000;17AF100G20;1
S90000;17AS075E19;212
S90000;17AS075FV21;81
S90000;17AS075G21;6
S90000;17AS075P19;90
S90000;17AS250E19;7
S90000;17AS250FV21;9
S90000;17AS250G21;9
S90000;17AS250P19;12
S90000;17AS500E19;27
S90000;17AS500FV21;15
S90000;17AS500G21;20
S90000;17AS500P19;21
S90000;17CS150P19;1
S90000;17DO050F13;2
S90000;17ER075P19;6
S90000;17HI001G19;100
S90000;17HI100G19;12
S90000;17MC200G21;8
S90000;17RC500E20;22
S90000;17RC500G21;12
S90000;17RC500P19;16
S90000;17RS500E20;12
S90000;17RS500FV21;11
S90000;17RS500G21;18
S90000;17SE125D15;1
S90000;17SH060SE21;8
S90000;17SH060SG21;8
S90000;17SH060SP21;7
S90000;17SH075E19;68
S90000;17SH075FV21;9
S90000;17SH075G21;64
S90000;17SH075P19;5
S90000;17SH300E19;4
S90000;17SH300FV21;10
S90000;17SH300G18;1
S90000;17SH300G21;9
S90000;17SH300P19;7
S90000;17SH500E19;7
S90000;17SH500FV21;10
S90000;17SH500G21;7
S90000;17SH500P19;3
S90000;17VI100P19;3
S90000;20AR075O20;9
S90000;20DO050O20;8
S90000;20DO075CD20;3
S90000;20DO130HC20;6
S90000;20ET075CD20;8
S10;24SA050CB6;3
S10;24SA050R22;13
S10;24RO010CB4;10
S10;24RG500R22;20
S10;24RG500C20;12
S10;24MA075R18;15
S10;24MA030RV19;2
S10;24MA030RA19;4
S10;27BP050I19;8
S10;27BY015I19;10
S10;27CP050I19;12
S10;27DB015I20;7
S10;27DC030I20;7
S10;27DC050I20;12
S10;27DCB060I17;4
S10;27DE015I21;3
S10;27DF125I17;14
S10;27DH015I20;10
S10;27DH030I20;13
S10;27DL200I21;8
S10;27ER015I22;10
S10;27ER050I21;12
S10;27EV200I19;17
S10;27FP050I19;7
S10;27HC050I18;4
S10;27HCR050I16;4
S10;27HS030I18;4
S10;27HSR030I16;4
S10;27MI150I20;4
S10;27ER150I21;13
S10;27DS030I20;5
S10;27MP050I20;48
S10;27MP150I20;14
S10;27MQ065I15A;4
S10;27MS050I20;5
S10;27OR030I21;19
S10;27OR050I21;21
S10;27RM300I20;13
S10;27SP030I19;4
S10;27TS001I20;68
S10;29ASH240A20;6
S10;29BP100A19;3
S10;29BP100A22;8
S10;29EC200A21;12
S10;29GE200A21;17
S10;29HD075A15;3
S10;29HD250A15;22
S10;29HD500A15;22
S10;29HS100A21;7
S10;29HS100A22SM;1
S10;29LC200A20US;28
S10;29MA030A17;7
S10;29MA075A21;11
S10;29RC200A20;22
S21000;17RC500G21;9
S21000;17RC500P19;5
S21000;17RS500E20;14
S21000;17RS500FV21;11
S21000;17RS500G21;15
S21000;17RS500P19;16
S21000;17SE100FV21;13
S21000;17SH060SE21;3
S21000;17SH060SG21;3
S21000;17SH060SP21;4
S21000;17SH075G21;98
S21000;17SH300E19;8
S21000;17SH300FV21;6
S21000;17SH300G21;6
S21000;17SH300P19;10
S21000;17SH500E19;10
S21000;17SH500FV21;8
S21000;17SH500G21;11
S21000;17SH500P19;12
S21000;17VI100P19;7
S21000;20AR075O20;5
S21000;20DO050O20;7
S21000;20DO130HC20;5
S21000;20ET075CD20;4
S21000;20ET075HC20;5
S21000;20ET075OC20;3
S21000;20FE050H20;4
S21000;20GD250CD20;5
S21000;20GD250HC20;5
S21000;20GD250OC20;4
S21000;20GD500HC20;13
S21000;20HR050H20;4
S21000;20NV150H20;10
S21000;20SA050CD20;5
S21000;20SA050HC20;5
S21000;20SA050O20;5
S21000;24BL012CB5;11
S21000;24BL012R22;7
S21000;24BR050CB6;8
S21000;24BR050R22;8
S21000;24ET075CB21;8
S21000;24ET075R22;7
S21000;24GD250CB21;8
S21000;24GD250R22;10
S21000;24GD500R22;8
S21000;24LC250CB4;13
S21000;24LC250R22;5
S21000;24MA030CB4;15
S21000;24MA030P15;10
S21000;24MA030R22;7
S21000;24MA030RA19;7
S21000;24MA030RV19;9
S21000;24MA030S6;10
S29000;29SA050A21;7
S29000;29SE125A21;13
S29000;29SH075A20;16
S29000;29SH240A20;14
S29000;29VC240A22;4
S29000;38BV050A19;5
S29000;38EC015A18;6
S29000;38EV075A21;17
S29000;38FT200A21;12
S29000;38MI150A22;15
S29000;38RC050A22;18
S29000;38WC050A21;13
S29000;38WM065A18;4
S29000;38WS030A21;12
S29000;49BO015CS19;18
S29000;49CL1SA18;16
S29000;49CM010O21;77
S29000;49CM030I19;8
S29000;49DH004I20;14
S29000;49HD035A15;156
S29000;49LC020A20;3
S29000;49MA010K22;116
S29000;49OR005I21;85
S29000;49PADCL20;84
S29000;49PMENNO21;46
S29000;49POU1O21;112
S29000;49RCWM22;3
S29000;52AF006G20;19
S29000;52AS006E19;99
S29000;52AS006FV21;83
S29000;52AS006G21;114
S29000;52AS006P19;106
S29000;52BY001I19;179
S29000;52CD0015A18;104
S29000;52CL0015K21;56
S29000;52CP0015I19;42
S29000;52CP006K22;102
S29000;52CV0015K22;159
S29000;52DB001I20;99
S29000;52DC0015I20;36
S29000;52DE001I21;67
S29000;52DF002I17;149
S29000;52DH001I20;63
S29000;52DL002I21;146
S29000;52DS001I20;65
S29000;52ER002I21;452
S29000;52ET001O21;77
S29000;52EV002I19;50
S29000;52GD0015A18;93
S29000;52HD006A18;22
S29000;52HS001I17;18
S29000;52LC006A20;111
S29000;52LGEBOX18;2
S27000;29SE125A21;9
S27000;29SH075A20;16
S27000;29SH240A20;7
S27000;29VC240A22;7
S27000;38BV050A19;4
S27000;38EC015A18;3
S27000;38EV075A21;8
S27000;38FT200A21;8
S27000;38MI150A22;17
S27000;38RC050A22;8
S27000;38WC050A21;9
S27000;38WM065A18;4
S27000;38WS030A21;11
S27000;49CL1SA18;16
S27000;49CM030I19;9
S27000;49HD035A15;45
S27000;49LC020A20;2
S27000;49MA010K22;42
S27000;49OR005I21;17
S27000;52AF006G20;106
S27000;52AS006E19;162
S27000;52AS006FV21;90
S27000;52AS006G21;89
S27000;52AS006P19;217
S27000;52BY001I19;231
S27000;52CD0015A18;24
S27000;52CL0015K21;77
S27000;52CP006K22;224
S27000;52CV0015K22;156
S27000;52DB001I20;120
S27000;52DC0015I20;140
S27000;52DE001I21;141
S27000;52DF002I17;24
S27000;52DH001I20;108
S27000;52DL002I21;137
S27000;52DS001I20;112
S27000;52ER002I21;446
S27000;52FP0015I19;91
S27000;52GD0015A18;66
S27000;52HD006A18;132
S27000;52HS001I17;68
S27000;52HS004A18;53
S27000;52LC006A20;260
S27000;52LGEBAG19;99
S27000;52LGEBOX18;5
S27000;52LGENSA21;69
S27000;52LT002R21;94
S27000;52MA003K22A;134
S27000;52MC006G21;198
S27000;52MGEBAG19;69
S27000;52MGEBOX18;7
S27000;52MGENSA21;22
S27000;52MIGEBAG19;3
S21000;24MA075CB4;8
S21000;24MA075P15;14
S21000;24MA075R22;9
S21000;24MA150R22;10
S21000;24RG500C20;10
S21000;24RG500CB21;2
S21000;24RG500R22;14
S21000;24RO010CB4;8
S21000;24SA050CB21;11
S21000;24SA050R22;9
S21000;27BP050I19;9
S21000;27BY015I19;9
S21000;27CP050I19;8
S21000;27DB015I20;9
S21000;27DC030I20;5
S21000;27DC050I20;15
S21000;27DCB060I17;10
S21000;27DE015I21;12
S21000;27DF125I17;14
S21000;27DH015I20;17
S21000;27DH030I20;16
S21000;27DL200I21;11
S21000;27DS030I20;11
S21000;27ER015I22;20
S21000;27ER050I21;9
S21000;27ER150I21;10
S21000;27EV200I19;6
S21000;27HC050I18;4
S21000;27HCR050I16;6
S21000;27HS030I18;4
S21000;27HSR030I16;6
S21000;27MI150I20;4
S21000;27MP050I20;33
S21000;27MP150I20;6
S21000;27MQ065I15A;3
S21000;27MS050I20;10
S21000;27OR030I21;13
S21000;27OR050I21;22
S21000;27RM300I20;10
S21000;27SP030I19;5
S21000;29ASH240A20;5
S21000;29BP100A19;8
S21000;29EC200A21;9
S21000;29GE200A21;3
S21000;29HD075A15;7
S21000;29HD250A15;8
S21000;29HD500A15;34
S21000;29HS100A22SM;14
S21000;29LC200A20US;27
S21000;29MA030A17;7
S21000;29MA075A21;6
S21000;29RC200A20;33
S21000;29RH500A15;28
S20;24RO010CB4;8
S20;24SA050CB21;16
S20;24SA050R22;4
S20;24MA030P15;3
S20;24MA030S6;3
S20;24LC250CB4;4
S20;24MA075P15;2
S20;27BP050I19;10
S20;27BY015I19;5
S20;27CP050I19;14
S20;27DB015I20;10
S20;27DC030I20;9
S20;27DC050I20;9
S20;27DCB060I17;4
S20;27DE015I21;13
S20;27DF125I17;9
S20;27DH015I20;12
S20;27DH030I20;11
S20;27DL200I21;9
S20;27DS030I20;6
S20;27ER015I22;16
S20;27ER050I21;7
S20;27ER150I21;14
S20;27EV200I19;9
S20;27HC050I18;2
S20;27HS030I18;4
S20;27HSR030I16;9
S20;27MI150I20;4
S20;27MP050I20;36
S20;27MP150I20;11
S20;27MQ065I15A;4
S20;27MS050I20;3
S20;27OR030I21;19
S20;27OR050I21;24
S20;27RM300I20;9
S20;27SP030I19;2
S20;29ASH240A20;9
S20;29BP100A19;3
S20;29EC200A21;6
S20;29GE200A21;18
S20;29HD250A15;14
S20;29HD500A15;35
S20;29HS100A22SM;1
S20;29LC200A20US;18
S20;29MA030A17;13
S20;29MA075A21;8
S20;29RC200A20;18
S20;29RH500A15;16
S20;29SA050A21;9
S20;29SE125A21;5
S20;29SH075A20;15
S20;29SH240A20;14
S20;38BV050A19;6
S20;38EC015A18;3
S27000;52MS001I20;89
S27000;52OR001I21;102
S27000;52PMGBOX18;3
S27000;52PS0015R21;65
S27000;52SGEBAG19;231
S27000;52SGENSA21;52
S27000;52SH006E19;71
S27000;52SH006FV21;65
S27000;52SH006G21;114
S27000;52SH006P19;59
S27000;52SP001I19;86
S27000;52TS001I22;95
S27000;52TS001R21;65
S27000;SGOCVE600004;42
S29000;52LGENSA21;53
S29000;52LT002R21;107
S29000;52MA003K22A;116
S29000;52MC006G21;27
S29000;52MGEBOX18;9
S29000;52MGENSA21;73
S29000;52MS001I20;51
S29000;52OR001I21;97
S29000;52PMGBOX18;3
S29000;52PS0015R21;92
S29000;52SGENSA21;73
S29000;52SH006FV21;20
S29000;52SH006G21;14
S29000;52SH006P19;44
S29000;52SP001I19;55
S29000;52TS001I22;158
S29000;52TS001R21;72
S29000;98BBLC030VE5;26
S29000;HKOCVE6T00055;10
S29000;SGOCVE600004;70
S00;27CN050I14;2
S90000;SGOCVKI00176;6
S90000;SGOCVKI00187;2
S90000;SGOCVKI00188;1
S90000;SGOCVKI00190;2
S90000;SGOCVKI00191;3
S90000;SGOCVKI00198;1
S90000;SGOCVKI00204;4
S90000;SGOCVKI00208;1
S24000;17RC500E20;8
S24000;17RC500G21;15
S24000;17RC500P19;6
S24000;17RS500E20;11
S24000;17RS500FV21;13
S24000;17RS500G21;12
S24000;17RS500P19;15
S24000;17SE100FV21;14
S24000;17SH060SE21;4
S24000;17SH060SG21;4
S24000;17SH060SP21;4
S24000;17SH075G21;75
S24000;17SH300E19;8
S24000;17SH300FV21;9
S24000;17SH300G21;6
S24000;17SH300P19;5
S24000;17SH500E19;6
S24000;17SH500FV21;14
S24000;17SH500G21;17
S24000;17SH500P19;8
S24000;17VI100P19;4
S24000;20AR075O20;6
S24000;20DO050O20;8
S24000;20DO075CD20;10
S24000;20DO130HC20;5
S24000;20ET075CD20;4
S24000;20ET075HC20;4
S24000;20ET075OC20;5
S24000;20FE050H20;4
S24000;20GD250CD20;6
S24000;20GD250HC20;10
S24000;20GD250OC20;8
S24000;20GD500HC20;10
S24000;20HR050H20;8
S24000;20NV150H20;9
S24000;20SA050CD20;4
S24000;20SA050HC20;4
S24000;20SA050O20;4
S24000;24BL012CB5;10
S24000;24BL012R22;9
S24000;24BR050CB6;6
S24000;24BR050R22;9
S24000;24ET075CB21;5
S24000;24ET075R22;5
S24000;24GD250CB21;15
S24000;24GD250R22;11
S24000;24GD500R22;10
S24000;24LC250CB4;12
S24000;24LC250R22;6
S24000;24MA030CB4;14
S24000;24MA030P15;5
S24000;24MA030R22;16
S24000;24MA030RA19;6
S90000;20ET075HC20;12
S90000;20ET075OC20;6
S90000;20FE050H20;14
S90000;20GD250CD20;6
S90000;20GD250HC20;15
S90000;20GD250OC20;5
S90000;20GD500HC20;17
S90000;20HR050H20;12
S90000;20NV150H20;9
S90000;20SA050CD20;9
S90000;20SA050HC20;11
S90000;20SA050O20;9
S90000;24BL012CB5;9
S90000;24BL012R22;1
S90000;24BR050CB6;8
S90000;24BR050R19;1
S90000;24BR050R22;15
S90000;24EF050R18;1
S90000;24ET050R18;1
S90000;24ET075CB21;4
S90000;24ET075R22;6
S90000;24GD075CB5;32
S90000;24GD250CB21;11
S90000;24GD250R22;10
S90000;24GD500R22;10
S90000;24GM030C21;1
S90000;24LC075R22;145
S90000;24LC250CB4;6
S90000;24LC250CBL22;3
S90000;24LC250R22;7
S90000;24MA030CB4;1
S90000;24MA030CBL22;3
S90000;24MA030P15;11
S90000;24MA030R22;9
S90000;24MA030RA19;9
S90000;24MA030RE19;10
S90000;24MA030RV19;8
S90000;24MA030S6;7
S90000;24MA075CB4;5
S90000;24MA075P15;11
S90000;24MA075R18;11
S90000;24MA075R22;18
S90000;24MA150R22;11
S90000;24RG500CB21;24
S90000;24RG500R22;6
S90000;24RO010CB4;7
S90000;24RO010R18;10
S90000;24SA050CB21;10
S90000;24SA050CB6;1
S90000;24SA050R18;2
S90000;24SA050R22;7
S90000;27BP050I19;7
S90000;27BY015I19;7
S90000;27CP050I19;7
S90000;27DB015I20;10
S90000;27DC050I20;10
S90000;27DCB060I17;6
S90000;27DE015I13US;1
S90000;27DE015I21;6
S90000;27DF125I17;9
S90000;27DH015I20;10
S90000;27DH030I20;10
S90000;27DL200I21;9
S90000;27DS030I20;7
S90000;27ER015I22;12
S90000;27ER050I21;16
S90000;27ER150I21;8
S90000;27EV200I19;11
S90000;27FP050I19;1
S90000;27HC050I18;3
S90000;27HCR050I16;6
S90000;27HS030I18;4
S90000;27HSR030I16;6
S90000;27MI150I20;12
S90000;27MP050I20;13
S90000;27MP150I20;6
S90000;27MQ065I15A;8
S90000;27MS050I20;10
S90000;27OR030I19;35
S90000;27OR030I21;4
S90000;27OR050I21;5
S90000;27RM300I20;6
S90000;27SP030I19;10
S90000;27TS001I20;679
S90000;29ASH240A20;8
S90000;29EC200A21;15
S90000;29GE200A21;5
S90000;29HD500A15;2
S90000;29HS100A21;9
S90000;29LC200A20US;3
S90000;29MA030A17;3
S90000;29MA075A21;12
S90000;29MAV075A19;5
S90000;29RC200A20;17
S90000;29RH500A15;36
S90000;29SE125A21;7
S90000;29SH075A20;37
S90000;29SH240A20;6
S90000;29VC240A16;13
S90000;29VC240A22;12
S90000;38BV050A19;10
S90000;38EC015A18;9
S90000;38EV075A21;10
S90000;38FT200A18;20
S90000;38FT200A21;9
S90000;38MI150A18;4
S24000;24MA030RV19;8
S24000;24MA030S6;8
S24000;24MA075CB4;10
S24000;24MA075P15;9
S24000;24MA075R22;8
S24000;24MA150R22;13
S24000;24RG500CB21;4
S24000;24RG500R22;21
S24000;24RO010CB4;8
S24000;24SA050CB21;11
S24000;24SA050R22;10
S24000;27BP050I19;6
S24000;27BY015I19;5
S24000;27CP050I19;9
S24000;27DB015I20;9
S24000;27DC030I20;3
S24000;27DC050I20;10
S24000;27DCB060I17;4
S24000;27DE015I21;9
S24000;27DF125I17;11
S24000;27DH015I20;3
S24000;27DH030I20;8
S24000;27DL200I21;7
S24000;27DS030I20;1
S24000;27ER015I22;13
S24000;27ER050I21;10
S24000;27ER150I21;12
S24000;27EV200I19;10
S24000;27HC050I18;4
S24000;27HCR050I16;4
S24000;27HS030I18;2
S24000;27HSR030I16;4
S24000;27MI150I20;4
S24000;27MP050I20;5
S24000;27MP150I20;7
S24000;27MQ065I15A;3
S24000;27MS050I20;9
S24000;27OR030I21;15
S24000;27OR050I21;19
S24000;27RM300I20;11
S24000;27SP030I19;4
S24000;29ASH240A20;4
S24000;29BP100A19;6
S24000;29EC200A21;8
S24000;29GE200A21;18
S24000;29HD075A15;2
S24000;29HD250A15;14
S24000;29HD500A15;22
S24000;29HS100A22SM;9
S24000;29LC200A20US;23
S24000;29MA030A17;13
S24000;29MA075A21;14
S24000;29RC200A20;17
S10;29RH500A15;28
S10;29SA050A21;6
S10;29SH075A20;13
S10;29VC240A22;7
S10;29SE125A21;10
S10;29SH240A20;8
S10;38BV050A19;6
S10;38EC015A18;3
S10;38EV075A21;10
S10;38FT200A21;13
S10;38MI150A22;16
S10;38RC050A18;3
S10;38RC050A22;15
S10;38WC050A21;4
S10;38WM065A18;3
S10;38WS030A21;3
S10;49BO015CS19;20
S10;49CL1SA18;13
S10;49CM030I19;8
S10;49DC004I20;55
S10;49DH004I20;18
S10;49LC020A20;80
S10;49MA010K22;57
S10;49HD035A15;140
S10;49MS008I20;65
S10;49OR005I21;88
S20;38EV075A21;4
S20;38FT200A21;9
S20;38MI150A22;16
S20;38RC050A22;13
S20;38WC050A21;7
S20;38WM065A18;4
S20;38WS030A21;6
S20;49BO015CS19;89
S20;49CL1SA18;15
S20;49CM030I19;8
S20;49DC004I20;40
S20;49DH004I20;53
S20;49HD035A15;121
S90000;38MI150A22;7
S90000;38RC050A18;4
S90000;38RC050A22;7
S90000;38UV030A18;8
S90000;38WC050A18;35
S90000;38WC050A21;7
S90000;38WM065A18;2
S90000;38WS030A18;22
S90000;38WS030A21;8
S90000;49AF015G20;160
S90000;49BM010K19;59
S90000;49BO015CS19;12
S90000;49CL1SA18;35
S90000;49CM030I19;8
S90000;49CP004I19;8
S90000;49CP008I19;28
S90000;49DB004I20;30
S90000;49DC004I20;4
S90000;49DC008I20;16
S90000;49DH004I20;159
S90000;49GD035CB5;27
S90000;49HD035A15;97
S90000;49HD035K17;58
S90000;49IC1POU20;14
S90000;49IC2POU20;54
S90000;49IC3POU20;27
S90000;49LC020A20;3
S90000;49LC035CB6;16
S90000;49LD030I20;26
S90000;49MA010A17;36
S90000;49MA010A21X;40
S90000;49MA010CB4;12
S90000;49MA010K22;13
S90000;49MA010L16;113
S90000;49MASKRS21;26
S90000;49MR010K14;46
S90000;49MS008I20;111
S90000;49MWC030I19;101
S90000;49OR005I21;15
S90000;49PFCWC21;40
S90000;49PI010K18;32
S90000;49PMENNO21;40
S90000;49PO1NH18;188
S90000;49PO2HER20;155
S90000;49PO2RS21;36
S90000;49PO2SA19;30
S90000;49POCKNO21;126
S90000;49POU1O21;46
S90000;49POUCB21;15
S90000;49POUCH2NO21;97
S90000;49POUHE22;39
S90000;49POUID20;1
S90000;49POUIS19;23
S20;52LGEBAG19;58
S24000;52LGEBAG19;73
S20;52LGEBOX18;10
S24000;52LGEBOX18;10
S20;52LGENSA21;75
S24000;52LGENSA21;103
S20;52LT002R21;71
S24000;52LT002R21;98
S20;52MA003K22A;266
S24000;52MA003K22A;513
S20;52MC006G21;59
S24000;52MC006G21;155
S20;52MGEBAG19;34
S24000;52MGEBAG19;22
S20;52MGEBOX18;14
S24000;52MGEBOX18;15
S20;52MGENSA21;58
S24000;52MGENSA21;39
S24000;52MIGEBAG19;72
S20;52MOCOL316;1
S20;52MS001I20;52
S24000;52MS001I20;260
S20;52OR001I21;197
S24000;52OR001I21;364
S20;52PMGBOX18;22
S24000;52PMGBOX18;5
S20;52PS0015R21;49
S24000;52PS0015R21;124
S20;52SGEBAG19;206
S24000;52SGEBAG19;29
S20;52SGENSA21;63
S24000;52SGENSA21;91
S20;52SH006E19;62
S24000;52SH006E19;111
S20;52SH006FV21;84
S24000;52SH006FV21;194
S20;52SH006G21;103
S24000;52SH006G21;103
S20;52SH006P19;83
S24000;52SH006P19;137
S20;52SP001I19;56
S20;52TS001I22;225
S20;52TS001R21;75
S20;98BBGD030VE4;84
S20;98BBMA010KA3;61
S20;HKOCVE6T00055;8
S20;SGOCVE600004;60
S24000;52SP001I19;91
S24000;52TS001I22;105
S24000;52TS001R21;120
S24000;52YGERIB20;1
S24000;SGOCVE600004;65
S21000;29SA050A21;10
S21000;29SE125A21;11
S21000;29SH075A20;14
S21000;29SH240A20;13
S21000;29VC240A22;9
S21000;38BV050A19;6
S21000;38EC015A18;10
S21000;38EV075A21;5
S21000;38FT200A21;11
S21000;38MI150A22;18
S21000;38RC050A22;12
S21000;38UV030A18;2
S21000;38WC050A21;8
S21000;38WM065A18;3
S21000;38WS030A21;12
S21000;49BO015CS19;48
S21000;49CL1SA18;14
S21000;49CM030I19;8
S21000;49CP020K22;5
S21000;49DC004I20;8
S21000;49DH004I20;31
S21000;49HD035A15;108
S21000;49LC020A20;51
S21000;49MA010K22;60
S21000;49MA010VB3;5
S21000;49OR005I21;32
S21000;49RCWM22;7
S21000;52AF006G20;69
S21000;52AS006E19;106
S21000;52AS006FV21;117
S21000;52AS006G21;66
S21000;52AS006P19;136
S21000;52BY001I19;200
S21000;52CD0015A18;92
S21000;52CL0015K21;38
S21000;52CP0015I19;67
S21000;52CP006K22;161
S21000;52CV0015K22;239
S21000;52DB001I20;137
S21000;52DC0015I20;27
S21000;52DE001I21;20
S21000;52DF002I17;69
S21000;52DH001I20;153
S21000;52DL002I21;167
S21000;52DS001I20;116
S21000;52ER002I21;452
S24000;29RH500A15;19
S24000;29SA050A21;11
S24000;29SE125A21;11
S24000;29SH075A20;16
S24000;29SH240A20;11
S24000;29VC240A22;8
S24000;38BV050A19;5
S24000;38EC015A18;4
S24000;38EV075A21;5
S24000;38FT200A21;5
S24000;38MI150A22;13
S24000;38RC050A18;6
S24000;38RC050A22;14
S24000;38UV030A18;10
S24000;38WC050A21;10
S24000;38WM065A18;3
S24000;38WS030A21;9
S24000;49BO015CS19;6
S24000;49CL1SA18;16
S24000;49CM030I19;6
S24000;49HD035A15;72
S24000;49LC020A20;12
S24000;49MA010K22;65
S24000;49OR005I21;62
S28000;01BL012K18;22
S28000;01BM050K19;5
S28000;01BM150K19;3
S28000;01BP050K21;15
S28000;01BV050K16;3
S28000;01CD250K17;13
S28000;01CF050K22;5
S28000;01CL050K21;7
S28000;01CL175K22;8
S28000;01CM300K20;13
S28000;01CM500K20;13
S28000;01CMJ075K21;23
S28000;01CMR500K20;9
S28000;01CP200K22;17
S28000;01CPR200K22;11
S28000;01CV050K22;8
S28000;01EC200K22;15
S28000;01EM075K20;5
S28000;01HD250K17;10
S28000;01HD500K20;14
S28000;01HDR500K20;15
S28000;01HF100K17;3
S28000;01HN0075K19;16
S28000;01HV030K16;4
S28000;01LC250K17;13
S28000;01LT300K20;16
S28000;01MA030K22;9
S28000;01MA075K22;14
S28000;01MA150K22;19
S28000;01MR030K14;11
S28000;01PI030K18;12
S28000;01PI075K18;15
S28000;01PI150K18;16
S28000;01RL500K20;17
S28000;01RV500K20;15
S28000;01SA050KL20;1
S28000;01SA050KV20;12
S28000;01SA100LT20;10
S28000;01SA100LV20;15
S28000;01SA100VE20;17
S28000;01SA250LT20;13
S28000;01SA250LV20;17
S28000;01SA250VE20;21
S28000;01SA300KRO22;18
S28000;01SA500KRO22;15
S28000;01SA9000KV21;1
S28000;01SB020K21;5
S28000;01SE125K21;13
S28000;01SL0045K13;19
S28000;01SL300LV20;3
S28000;01SL300VE20;10
S28000;01SL500LV20;5
S28000;01SL500VE20;11
S28000;10EST250V21;31
S28000;10EST500V21;59
S28000;10P250V21;31
S28000;10P500V21;56
S28000;11AS040SG22;36
S28000;11AS90005G21;1
S28000;11BC100G21;17
S28000;11BG140CS19;12
S28000;11BG140SH19;8
S28000;11BG140SI19;5
S28000;11BG140SL19;5
S28000;11BH050A18;4
S28000;11BO100CS19;17
S28000;11BP100I19;3
S28000;11BR100A20;4
S28000;11CD050A18;7
S28000;11CF100TR19;13
S28000;11CM030H19;18
S28000;11CM030H20;13
S28000;11CM030O21;12
S28000;11CM125I19;12
S28000;11EH150A18;2
S28000;11EP010H19;7
S28000;11ET010H20;10
S28000;11ET050H20;2
S28000;11ET075O21;4
S28000;11FAG10TR19;13
S28000;11GD050A18;12
S28000;11GD250H19;15
S28000;11GD250H20;12
S28000;11GD250O21;15
S28000;11GE075I20;4
S28000;11GM200I19;8
S28000;11GN195A18;11
S28000;11HE005CS19;2
S28000;11LB250HF22;15
S28000;11LC250H19;11
S28000;11LC250H20;15
S28000;11LC250O21;11
S28000;11LD200I19;10
S28000;11LH200I19;14
S28000;11LT300I20;4
S28000;11MA030A20;13
S28000;11MA030HF22;1
S28000;11MH075A19;4
S28000;11MWC200I19;4
S28000;11PEP050I20;4
S28000;11PM100SH19;3
S28000;11PM100SI19;4
S28000;11PM100SL19;2
S28000;11SA050O21;4
S28000;11SA100H19;13
S28000;11SA100H20;13
S28000;11SD100CS19;13
S28000;11SD100SH19;13
S28000;11SD100SI19;4
S28000;11SD100SL19;7
S28000;11SH90005G21;1
S28000;11SP200CS19;10
S28000;11SP200SH19;10
S28000;11SP200SI19;4
S28000;11SP200SL19;8
S28000;11SV080I19;4
S28000;15AS250VA18;11
S28000;15BA500L16A;18
S28000;15ET010VB19;4
S28000;15ET100VA20;12
S28000;15ET100VB20;4
S28000;15GD250L21;5
S28000;15GD250VA20;10
S28000;15GD250VB21;13
S28000;15GD500VB21;15
S28000;15GD9000V21;1
S28000;15GM065L21;10
S28000;15GM065VB21;11
S28000;15GM280VB21;3
S28000;15GN300L11;12
S28000;15GS150VBL22;3
S28000;15HE005L14;11
S28000;15LC250L14;9
S28000;15LC250VA20;10
S28000;15LC250VB3;14
S28000;15LM300L11;11
S28000;15MA030L11;21
S28000;15MA030VA5;5
S28000;15MA030VB3;11
S28000;15MA030VBL22;10
S28000;15MA030VBM8;22
S28000;15MA075L20;12
S28000;15MA075VB4;14
S28000;15RC500VB21;19
S28000;15RG500L14;12
S28000;15RG500VA20;4
S28000;15RO010VBM22;5
S28000;15SA070VB6;4
S28000;15SE400VB5;9
S28000;15SH250VA20;12
S28000;17AF100G20;16
S28000;17AS250E19;5
S28000;17AS250FV21;5
S28000;17AS250G21;5
S28000;17AS250P19;4
S28000;17AS500E19;18
S28000;17AS500FV21;12
S28000;17AS500G21;13
S28000;17AS500P19;6
S28000;17DO050F13;13
S28000;17ER075P19;13
S28000;17HB050A22;40
S28000;17HI001G19;82
S28000;17HI100G19;10
S28000;17MC200G21;11
S28000;17RC500E20;15
S28000;17RC500G21;16
S28000;17RC500P19;8
S28000;17RS500E20;17
S28000;17RS500FV21;20
S28000;17RS500G21;24
S28000;17RS500P19;20
S28000;17SE100FV21;22
S28000;17SH060SE21;7
S28000;17SH060SG21;7
S28000;17SH060SP21;5
S28000;17SH075G21;133
S28000;17SH300E19;11
S28000;17SH300FV21;7
S28000;17SH300G21;11
S28000;17SH300P19;5
S28000;17SH500E19;14
S28000;17SH500FV21;19
S28000;17SH500G21;19
S28000;17SH500P19;13
S28000;17VI100P19;3
S90000;49POUM21;101
S90000;49PWPBM22;7
S90000;49RCWM22;22
S90000;49SH035E21;198
S90000;49TFACH18;20
S90000;49TOBACH20;67
S90000;49TOTMC20;40
S90000;49TOTWC21;90
S90000;49TRAVNO21;81
S90000;52AF006G20;89
S90000;52AS006E19;291
S90000;52AS006FV21;335
S90000;52AS006G21;267
S90000;52AS006P19;206
S90000;52BOXMM22;58
S90000;52CL0015K21;221
S90000;52CP0015I19;285
S90000;52CP006K22;227
S90000;52CV0015K22;199
S90000;52DB001I20;207
S90000;52DC0015I20;1
S90000;52DE001I21;100
S90000;52DF002I17;460
S90000;52DH001I20;47
S90000;52DL002I21;120
S90000;52DS001I20;7
S90000;52ER002I21;63
S90000;52ET001O21;1
S90000;52FP0015I19;100
S90000;52HCTM21;25
S90000;52HCTM22;32
S90000;52HD006A18;333
S90000;52HR004G17;100
S90000;52HS004A18;301
S90000;52LC006A20;451
S90000;52LGEBOX18;9
S90000;52LT002R21;55
S90000;52MA003K16A;327
S90000;52MA003K22A;174
S90000;52MC006G21;100
S90000;52MMBYNO19;85
S90000;52MOCOL316;15
S90000;52MS001I20;378
S90000;52OR001I21;339
S90000;52PMGBOX18;9
S90000;52PS0015R21;100
S90000;52MGEBOX18;8
S90000;52SH006E19;277
S90000;52SH006FV21;428
S90000;52SH006G21;275
S90000;52SH006P19;276
S90000;52SHBOM22;18
S90000;52SP001I19;302
S28000;20AR075O20;12
S28000;20DO050O20;6
S28000;20DO075CD20;7
S28000;20DO130HC20;1
S28000;20ET075CD20;4
S28000;20ET075HC20;4
S28000;20ET075OC20;4
S28000;20FE050H20;3
S28000;20GD250CD20;9
S28000;20GD250HC20;4
S28000;20GD250OC20;9
S28000;20GD500HC20;19
S28000;20HR050H20;4
S28000;20NV150H20;11
S28000;20SA050CD20;5
S28000;20SA050HC20;5
S28000;20SA050O20;5
S28000;24BL012CB5;15
S28000;24BL012R22;12
S28000;24BR050CB6;8
S28000;24BR050R22;10
S28000;24ET075CB21;9
S28000;24ET075R22;12
S28000;24GD250CB21;15
S28000;24GD250R22;11
S28000;24GD500R22;13
S28000;24LC250CB4;11
S28000;24LC250R22;6
S28000;24MA030CB4;16
S28000;24MA030P15;6
S28000;24MA030R22;7
S28000;24MA030RA19;9
S28000;24MA030RV19;3
S28000;24MA030S6;10
S28000;24MA075CB4;8
S28000;24MA075R22;9
S28000;24MA150R22;13
S28000;24RG500C20;19
S28000;24RG500R22;18
S28000;24RO010CB4;9
S28000;24SA050CB21;14
S28000;24SA050R22;15
S28000;27BP050I19;16
S28000;27BY015I19;5
S28000;27CP050I19;16
S28000;27DB015I20;11
S28000;27DC030I20;16
S28000;27DC050I20;13
S28000;27DCB060I17;1
S28000;27DE015I21;14
S28000;27DF125I17;5
S28000;27DH015I20;4
S28000;27DH030I20;19
S28000;27DL200I21;11
S28000;27DS030I20;11
S28000;27ER015I22;10
S28000;27ER050I21;20
S28000;27ER150I21;17
S28000;27EV200I19;13
S28000;27HC050I18;2
S28000;27HCR050I16;3
S28000;27HS030I18;4
S28000;27HSR030I16;3
S28000;27MI150I20;4
S28000;27MP050I20;30
S28000;27MP150I20;13
S28000;27MQ065I15A;4
S28000;27MS050I20;7
S28000;27OR030I21;19
S28000;27OR050I21;30
S28000;27RM300I20;17
S28000;27SP030I19;4
S28000;29ASH240A20;13
S28000;29BP100A19;8
S28000;29EC200A21;16
S28000;29GE200A21;15
S28000;29HD250A15;12
S28000;29HD500A15;30
S28000;29HD9000A21;2
S28000;29HS100A22SM;8
S28000;29LC200A20US;19
S28000;29MA030A17;7
S28000;29MA075A21;14
S28000;29RC200A20;7
S28000;29RH500A15;38
S28000;29SA050A21;14
S28000;29SE125A21;18
S28000;29SH075A20;26
S28000;29SH240A20;13
S28000;29VC240A22;16
S28000;38BV050A19;5
S28000;38EC015A18;3
S28000;38EV075A21;8
S28000;38FT200A21;12
S28000;38MI150A22;5
S28000;38RC050A18;3
S28000;38RC050A22;18
S28000;38UV030A18;8
S28000;38WC050A21;9
S28000;38WM065A18;2
S28000;38WS030A21;10
S28000;49BO015CS19;63
S28000;49CL1SA18;26
S28000;49CM030I19;12
S28000;49DC004I20;36
S28000;49DH004I20;15
S90000;52TBO1M21;54
S90000;52TBO2M21;31
S90000;52TS001I22;152
S90000;52TS001R21;18
S90000;98BBGD050VE2;70
S90000;98BBHD035A0;140
S90000;98BBHD050A0;44
S90000;98BBSA025LT2;57
S90000;98BBSA050LT1;63
S90000;98BBSH035AR2;114
S90000;98BBSH050A0;71
S90000;98BBSH050AR2;86
S90000;HKOCVE6T00055;54
S90000;J9517;9
S90000;JIMPN16;56
S90000;SGOCVE600005;1
S28000;49HD035A15;146
S28000;49LC020A20;76
S28000;49MA010K22;90
S28000;49OR005I21;30
S28000;49RCWM22;5
S28000;52AF006G20;129
S28000;52AS006E19;103
S28000;52AS006FV21;148
S28000;52AS006G21;155
S28000;52AS006P19;41
S28000;52BY001I19;189
S28000;52CD0015A18;101
S28000;52CL0015K21;80
S28000;52CP0015I19;114
S28000;52CP006K22;383
S28000;52CV0015K22;327
S28000;52DB001I20;155
S28000;52DC0015I20;4
S28000;52DE001I21;42
S28000;52DF002I17;352
S28000;52DH001I20;262
S28000;52DL002I21;137
S28000;52DS001I20;43
S28000;52ER002I21;490
S28000;52FP0015I19;82
S28000;52GD0015A18;48
S28000;52HD006A18;259
S28000;52HS001I17;92
S28000;52HS004A18;154
S28000;52LC006A20;355
S28000;52LGEBAG19;143
S28000;52LGEBOX18;6
S28000;52LGENSA21;36
S28000;52LT002R21;113
S28000;52MA003K22A;189
S28000;52MC006G21;224
S28000;52MGEBAG19;120
S28000;52MGEBOX18;21
S28000;52MIGEBAG19;299
S28000;52MS001I20;81
S28000;52OR001I21;567
S28000;52PMGBOX18;10
S28000;52PS0015R21;74
S28000;52SAMPENV18;516
S28000;52SGEBAG19;206
S28000;52SGENSA21;46
S28000;52SH006E19;105
S28000;52SH006FV21;157
S28000;52SH006G21;110
S28000;52SH006P19;125
S28000;52SP001I19;210
S28000;52TS001I22;327
S28000;52TS001R21;68
S28000;98BBGD030VE4;54
S28000;98BBMA010KA3;81
S28000;ACPOCVE7T00016;9
S28000;SGOCVE600004;90
