S20;01BK010K14;8
S20;01BL012K18;12
S20;01BM050K19;15
S20;01BM150K19;20
S20;01BP050K21;3
S20;01BV050K16;5
S20;01CD250K17;14
S20;01CF050K22;9
S20;01CL050K21;11
S20;01CL175K22;5
S20;01CM500K20;7
S20;01CMJ075K21;8
S20;01CMR500K20;7
S20;01CP200K22;18
S20;01CPR200K22;5
S20;01EC200K22;9
S20;01EM075K20;6
S20;01HD250K17;10
S20;01HD500K20;8
S20;01HF100K17;7
S20;01HN0075K19;14
S20;01HV030K16;5
S20;01LC250K17;22
S20;01LT300K20;8
S20;01MA030K22;32
S20;01MA075K22;13
S20;01MA150K22;19
S20;01MR030K14;14
S20;01PI030K18;10
S20;01PI150K18;11
S20;01RL500K20;15
S20;01RV500K20;6
S20;01SA100LT20;12
S20;01SA100LV20;26
S20;01SA100VE20;13
S20;01SA250LT20;10
S20;01SA250LV20;20
S20;01SA250VE20;14
S20;01SA500KRO22;2
S20;01SL300LV20;5
S20;01SL300VE20;10
S20;01SL500LV20;7
S20;01SL500VE20;8
S20;11BG140CS19;10
S20;11BG140SH19;7
S20;11BG140SI19;4
S20;11BG140SL19;5
S20;11BH050A18;1
S20;11BO100CS19;12
S20;11BR100A20;6
S20;11CD050A18;3
S20;11CF100TR19;4
S20;11CM030H19;10
S20;11CM030H20;13
S20;11CM030O21;15
S20;11CM125I19;6
S20;11EH150A18;4
S20;11EP010H19;9
S20;11ET010H20;10
S20;11ET050H20;5
S20;11ET075O21;11
S20;11FAG10TR19;13
S20;11GD050A18;6
S20;11GD250H19;11
S20;11GD250H20;14
S20;11GD250O21;9
S20;11GE075I20;3
S20;11GM200I19;9
S20;11GN195A18;11
S20;11LB250HF22;7
S20;11LC250H19;6
S20;11LC250H20;13
S20;11LC250O21;3
S20;11LD200I19;6
S20;11LH200I19;6
S20;11LT300I20;3
S20;11MA030A20;3
S20;11MWC200I19;4
S20;11PEP050I20;1
S20;11PM100SH19;3
S20;11PM100SI19;4
S20;11SA050O21;1
S20;11SA100H19;12
S20;11SA100H20;11
S20;11SD100SH19;2
S20;11SD100SL19;5
S20;11SP200CS19;11
S20;11SP200SH19;5
S20;11SP200SI19;6
S20;11SP200SL19;6
S20;11SV080I19;4
S20;15AS250VA18;4
S20;15BA500L16A;14
S20;15DO050VA5;15
S20;15ET010VB19;5
S20;15ET100VA20;5
S20;15ET100VB20;3
S20;15GD075L21;51
S20;15GD250L21;6
S20;15GD250VA20;9
S20;15GD250VB21;6
S20;15GD500VB21;18
S20;15GM065L21;14
S20;15GM065VB21;15
S20;15GM280VB21;12
S20;15HE005L14;6
S20;15LC250L14;11
S20;15LC250VA20;4
S20;15MA030VA5;5
S20;15MA030VB3;6
S20;15MA075L20;9
S20;15MA075VB4;6
S20;15RC500VB21;12
S20;15RG500L14;16
S20;15RG500VA20;14
S20;15SA070VB6;7
S20;15SH250VA20;12
S20;17AF100G20;19
S20;17AS075G21;11
S20;17AS250E19;4
S20;17AS250FV21;11
S20;17AS250G21;1
S20;17AS250P19;5
S20;17AS500FV21;5
S20;17AS500P19;6
S20;17DO050F13;19
S20;17ER075P19;5
S20;17HB050A22;21
S20;17HI001G19;69
S20;17HI100G19;9
S20;17MC200G21;12
S20;17RC500E20;12
S20;17RC500G21;20
S20;17RS500E20;21
S20;17RS500FV21;9
S20;17RS500G21;14
S20;17RS500P19;19
S20;17SE100FV21;8
S20;17SH060SG21;5
S20;17SH060SP21;6
S20;17SH300E19;10
S20;17SH300P19;10
S20;17SH500E19;14
S20;17SH500G21;12
S20;17SH500P19;10
S20;20DO075CD20;14
S20;20ET075OC20;4
S20;20GD250HC20;14
S20;17SH500FV21;17
S20;17SH300G21;9
S20;11BP100I19;3
S20;11AS040SG22;26
S20;01SL0045K13;16
S20;20NV150H20;18
S20;24BR050CB6;11
S20;01HDR500K20;4
S20;01CV050K22;12
S20;01CM300K20;3
S20;20DO130HC20;8
S20;20DO050O20;10
S20;11SD100SI19;5
S20;24ET075R22;8
S10;01BK010K14;11
S10;01BL012K18;9
S10;01BM050K19;9
S10;01BM150K19;16
S10;01BP050K21;3
S10;01BV050K16;4
S10;01CD250K17;4
S10;01CF050K22;5
S10;01CL050K21;12
S10;01CL175K22;3
S10;01CM300K20;9
S10;01CM500K20;1
S10;01CMJ075K21;9
S10;01CMR500K20;12
S10;01CP200K22;12
S10;01CPR200K22;11
S10;01CV050K22;5
S10;01EC200K22;11
S10;01EM075K20;2
S10;01HD500K20;3
S10;01HDR500K20;10
S10;01HF100K17;5
S10;01HN0075K19;1
S10;01HV030K16;7
S10;01LC250K17;6
S10;01LT300K20;11
S10;01MA030K22;26
S10;01MA075K22;11
S10;01MA150K22;13
S10;01MR030K14;13
S10;01PI030K18;2
S10;01PI150K18;13
S10;01RL500K20;10
S10;01RV500K20;8
S10;01SA100LT20;9
S10;01SA100LV20;11
S10;01SA100VE20;11
S10;01SA250LT20;9
S10;01SA250VE20;15
S10;01SA500KRO22;4
S10;01SE125K21;6
S10;01SL0045K13;27
S10;01SL300LV20;3
S10;01SL300VE20;6
S10;01SL500LV20;5
S10;11AS040SG22;21
S10;11BC100G21;5
S10;11BG140CS19;4
S10;11BG140SH19;4
S10;11BG140SI19;5
S10;11BG140SL19;8
S10;11BH050A18;8
S10;11BO100CS19;9
S10;11BP100I19;4
S10;11BR100A20;4
S10;11CF100TR19;5
S10;11CM030H19;11
S10;11CM030H20;10
S10;11CM030O21;17
S10;11CM125I19;5
S10;11EP010H19;2
S10;11ET010H20;7
S10;11ET050H20;4
S10;11ET075O21;3
S10;11FAG10TR19;9
S10;11GD050A18;5
S10;11GD250H19;12
S10;11GD250H20;8
S10;11GD250O21;13
S10;11GE075I20;5
S10;11GM200I19;12
S10;11GN195A18;12
S10;11LC250H19;12
S10;11LC250H20;6
S10;11LC250O21;8
S10;11LD200I19;5
S10;11LT300I20;4
S10;11MA030A20;3
S10;11MH075A19;4
S10;11MWC200I19;5
S10;11PEP050I20;8
S10;11PM100SH19;5
S10;11PM100SI19;4
S10;11SA050O21;5
S10;11SA100H19;5
S10;11SA100H20;4
S10;11SD100CS19;10
S10;11SD100SH19;5
S10;11SD100SI19;5
S10;11SD100SL19;1
S10;11SP200CS19;3
S10;11SP200SH19;9
S10;11SP200SI19;4
S10;11SP200SL19;5
S10;15AS250VA18;4
S10;15DO050VA5;11
S10;15ET010VB19;3
S10;15ET100VA20;4
S10;15ET100VB20;3
S10;15GD075L21;14
S10;15GD250L21;10
S10;15GD250VA20;8
S10;15GD250VB21;8
S10;15GD500VB21;13
S10;15GM065L21;15
S10;15GM065VB21;16
S10;15GM280VB21;4
S10;15HE005L14;5
S10;15LC250L14;7
S10;15LC250VA20;6
S10;15LC250VB3;4
S10;15MA030VA5;4
S10;15MA030VB3;7
S10;15MA075L20;5
S10;15MA075VB4;10
S10;15RC500VB21;13
S10;15RG500L14;10
S10;15SA070VB6;3
S10;15SH250VA20;11
S10;17AF100G20;12
S10;17AS075G21;9
S10;17AS250E19;5
S10;17AS250FV21;5
S10;17AS250G21;1
S10;17AS250P19;6
S10;17AS500E19;4
S10;17AS500FV21;4
S10;17AS500G21;13
S10;17AS500P19;6
S10;17DO050F13;11
S10;17ER075P19;5
S10;17HB050A22;16
S10;17HI001G19;104
S10;17HI100G19;9
S10;17MC200G21;13
S10;17RC500E20;9
S10;17RC500G21;14
S10;17RC500P19;5
S10;17RS500E20;7
S10;17RS500FV21;18
S10;17RS500G21;5
S10;17RS500P19;16
S10;17SE100FV21;15
S10;17SH060SG21;3
S10;17SH060SP21;4
S10;17SH075E19;15
S10;17SH075G21;103
S10;17SH300E19;5
S10;17SH300FV21;7
S10;17SH300G21;9
S10;17SH300P19;5
S10;17SH500E19;13
S10;17SH500FV21;9
S10;17SH500G21;14
S10;17SH500P19;7
S10;17VI100P19;6
S10;20AR075O20;2
S10;20DO050O20;5
S10;20DO075CD20;6
S10;20ET075CD20;4
S10;20ET075HC20;5
S10;20ET075OC20;3
S21000;01BK010K14;14
S27000;01BK010K14;4
S21000;01BL012K18;8
S27000;01BL012K18;10
S21000;01BM050K19;9
S27000;01BM050K19;6
S21000;01BM150K19;11
S27000;01BM150K19;9
S21000;01BP050K21;8
S27000;01BP050K21;7
S21000;01BV050K16;3
S21000;01CD250K17;6
S27000;01CD250K17;9
S21000;01CF050K22;3
S27000;01CF050K22;11
S21000;01CL050K21;3
S27000;01CL050K21;2
S21000;01CL175K22;5
S27000;01CL175K22;10
S27000;01BV050K16;6
S21000;01CM300K20;7
S27000;01CM300K20;8
S21000;01CM500K20;9
S27000;01CM500K20;8
S21000;01CMJ075K21;10
S27000;01CMJ075K21;9
S21000;01CMR500K20;8
S27000;01CMR500K20;8
S21000;01CP200K22;11
S27000;01CP200K22;13
S21000;01CPR200K22;2
S27000;01CPR200K22;9
S21000;01CV050K22;4
S27000;01CV050K22;4
S21000;01EC200K22;10
S27000;01EC200K22;10
S21000;01EM075K20;5
S27000;01EM075K20;4
S21000;01HD250K17;10
S27000;01HD250K17;10
S21000;01HD500K20;8
S27000;01HD500K20;11
S21000;01HDR500K20;7
S27000;01HDR500K20;11
S21000;01HF100K17;5
S27000;01HF100K17;5
S21000;01HN0075K19;3
S27000;01HN0075K19;5
S21000;01HV030K16;3
S27000;01HV030K16;4
S21000;01LC250K17;11
S27000;01LC250K17;11
S21000;01LT300K20;6
S10;20FE050H20;4
S10;20GD250CD20;9
S10;20GD250HC20;9
S10;20GD250OC20;7
S10;20GD500HC20;12
S10;20HR050H20;4
S10;20NV150H20;11
S10;20SA050CD20;4
S10;20SA050HC20;3
S10;24BL012CB5;11
S10;24BL012R22;8
S10;24BR050CB6;9
S10;24BR050R22;11
S10;24ET075CB21;13
S10;24ET075R22;10
S10;24GD250CB21;15
S10;24GD250R22;19
S10;24GD500R22;11
S10;24LC250CB4;15
S10;24LC250R22;14
S10;24MA030CB4;26
S10;24MA030P15;4
S10;24MA030R22;16
S10;24MA030RA19;3
S10;24MA030RV19;4
S10;24MA075CB4;13
S10;24MA075P15;3
S10;24MA075R22;6
S10;24MA150R22;12
S10;24RG500C20;2
S10;24RG500R22;9
S10;24SA050CB21;12
S10;24SA050R22;12
S10;27BP050I19;9
S10;27BY015I19;6
S10;27CP050I19;1
S10;27DB015I20;11
S10;27DC050I20;9
S10;27DE015I21;4
S10;27DF125I17;11
S10;27DH030I20;4
S10;27DH030I22;6
S10;27DL200I21;5
S10;27DS030I20;5
S10;27ER015I22;9
S10;27ER050I21;11
S10;27ER150I21;13
S10;27EV200I19;6
S10;27FP050I19;3
S10;27HC050I18;4
S10;27HCR050I16;4
S10;27HSR030I16;3
S10;27MI150I20;4
S10;27MP150I20;14
S27000;01LT300K20;11
S21000;01MA030K22;99
S27000;01MA030K22;15
S21000;01MA075K22;9
S27000;01MA075K22;17
S21000;01MA150K22;11
S27000;01MA150K22;15
S21000;01MR030K14;62
S27000;01MR030K14;10
S21000;01PI030K18;8
S27000;01PI030K18;5
S21000;01PI150K18;13
S27000;01PI150K18;9
S21000;01RL500K20;9
S27000;01RL500K20;8
S21000;01RV500K20;6
S27000;01RV500K20;6
S21000;01SA050KV20;4
S21000;01SA100LT20;10
S27000;01SA100LT20;6
S21000;01SA100LV20;9
S27000;01SA100LV20;10
S21000;01SA100VE20;13
S27000;01SA100VE20;11
S21000;01SA250LT20;7
S27000;01SA250LT20;9
S21000;01SA250LV20;13
S27000;01SA250LV20;9
S21000;01SA250VE20;17
S27000;01SA250VE20;3
S21000;01SA300KRO22;3
S27000;01SA300KRO22;5
S21000;01SA500KRO22;2
S27000;01SA500KRO22;4
S21000;01SB020K21;4
S27000;01SB020K21;4
S27000;01SE125K21;5
S21000;01SL0045K13;27
S27000;01SL0045K13;23
S21000;01SL300LV20;6
S27000;01SL300LV20;5
S21000;01SL300VE20;5
S27000;01SL300VE20;4
S21000;01SL500LV20;5
S27000;01SL500LV20;6
S21000;01SL500VE20;9
S27000;01SL500VE20;6
S21000;11AS040SG22;23
S27000;11AS040SG22;17
S21000;11BC100G21;11
S27000;11BC100G21;18
S21000;11BG140CS19;6
S27000;11BG140CS19;5
S21000;11BG140SH19;5
S27000;11BG140SH19;4
S21000;11BG140SI19;4
S27000;11BG140SI19;5
S21000;11BG140SL19;8
S27000;11BG140SL19;5
S21000;11BH050A18;4
S27000;11BH050A18;3
S21000;11BO100CS19;11
S27000;11BO100CS19;10
S21000;11BP100I19;4
S27000;11BP100I19;4
S21000;11BR100A20;1
S21000;11CD050A18;4
S21000;11CF100TR19;8
S21000;11CM030H19;5
S21000;11CM030H20;8
S21000;11CM030O21;8
S21000;11CM125I19;13
S21000;11EP010H19;11
S21000;11ET010H20;10
S21000;11ET050H20;6
S21000;11ET075O21;8
S21000;11FAG10TR19;10
S21000;11GD050A18;2
S21000;11GD250H19;8
S21000;11GD250H20;11
S21000;11GD250O21;9
S21000;11GE075I20;5
S21000;11GM200I19;4
S21000;11GN195A18;10
S21000;11LB250HF22;1
S21000;11LC250H19;7
S21000;11LC250H20;9
S21000;11LC250O21;4
S21000;11LD200I19;11
S21000;11LH200I19;8
S21000;11LT300I20;6
S21000;11MA030A20;5
S21000;11MH075A19;4
S21000;11MWC200I19;1
S21000;11PEP050I20;2
S21000;11PM100SH19;4
S21000;11PM100SI19;4
S21000;11SA050O21;5
S21000;11SA100H19;8
S21000;11SA100H20;10
S21000;11SD100CS19;3
S21000;11SD100SH19;5
S21000;11SD100SI19;5
S21000;11SD100SL19;6
S21000;11SP200CS19;4
S10;27MQ065I15A;3
S10;27MS050I20;5
S10;27OR030I21;16
S10;27OR050I21;14
S10;17SH060SE21;5
S10;27SP030I19;3
S10;29ASH240A20;5
S10;29EC200A21;11
S10;29HD075A15;11
S10;29HD250A15;14
S10;29HD500A15;30
S10;29HS100A22SM;14
S10;29LC200A20US;28
S10;29MA030A17;7
S10;29MA075A21;10
S10;29RC200A20;12
S10;29RH500A15;19
S10;29SA050A21;5
S10;29SE125A21;7
S10;29SH240A20;6
S10;29VC240A22;15
S10;15RG500VA20;9
S10;38BV050A19;5
S10;38EC015A18;3
S10;38EV075A21;13
S10;38FT200A21;10
S10;38RC050A18;2
S10;15LM300L11;7
S10;38UV030A18;5
S10;38WC050A21;3
S10;38WM065A18;3
S10;38WS030A21;3
S10;49BO015CS19;57
S10;49CP020K22;11
S10;49DC004I20;44
S10;49DH004I20;15
S10;49HD035A15;52
S10;49LC020A20;56
S20;49LC020A20;48
S20;49MA010K22;61
S10;15BA500L16A;14
S10;49OR005I21;129
S20;49OR005I21;109
S10;11SV080I19;3
S10;11LH200I19;11
S10;11EH150A18;5
S10;11CD050A18;4
S10;01SL500VE20;6
S10;01SA250LV20;11
S10;01HD250K17;3
S20;52AF006G20;99
S20;52AS006E19;87
S20;52AS006FV21;96
S20;52AS006G21;127
S30000;01BK010K14;17
S30000;01BL012K18;6
S30000;01BM050K19;3
S30000;01BM150K19;5
S30000;01BP050K21;9
S30000;01BV050K16;2
S30000;01CD250K17;14
S30000;01CF050K22;10
S30000;01CL050K21;3
S30000;01CL175K22;6
S30000;01CM300K20;6
S30000;01CM500K20;10
S30000;01CMJ075K21;25
S30000;01CMR500K20;3
S30000;01CP200K22;8
S30000;01CPR200K22;4
S30000;01CV050K22;4
S30000;01EC200K22;14
S30000;01EM075K20;4
S30000;01HD250K17;5
S30000;01HD500K20;11
S30000;01HDR500K20;11
S30000;01HF100K17;4
S30000;01HN0075K19;7
S30000;01HV030K16;4
S30000;01LC250K17;9
S30000;01LT300K20;11
S30000;01MA030K22;24
S30000;01MA075K22;13
S30000;01MA150K22;18
S30000;01MR030K14;17
S30000;01PI030K18;13
S30000;01PI150K18;11
S30000;01RL500K20;10
S30000;01RV500K20;19
S30000;01SA050KV20;3
S30000;01SA100LT20;11
S30000;01SA100LV20;10
S30000;01SA100VE20;11
S30000;01SA250LT20;6
S30000;01SA250LV20;4
S30000;01SA250VE20;11
S30000;01SA300KRO22;9
S30000;01SA500KRO22;5
S30000;01SE125K21;2
S30000;01SL0045K13;33
S30000;01SL300LV20;6
S30000;01SL300VE20;4
S30000;01SL500LV20;6
S30000;01SL500VE20;4
S30000;11AS040SG22;20
S30000;11BC100G21;9
S30000;11BG140CS19;4
S28000;01BK010K14;21
S28000;01BL012K18;17
S28000;01BM050K19;15
S28000;01BM150K19;15
S28000;01BP050K21;15
S28000;01BV050K16;4
S28000;01CD250K17;9
S28000;01CL050K21;5
S28000;01CL175K22;4
S28000;01CM300K20;12
S28000;01CM500K20;10
S28000;01CMJ075K21;13
S28000;01CMR500K20;6
S28000;01CP200K22;15
S28000;01CPR200K22;12
S28000;01CV050K22;5
S28000;01EC200K22;17
S28000;01EM075K20;5
S28000;01HD250K17;10
S28000;01HD500K20;8
S28000;01HDR500K20;6
S28000;01HF100K17;4
S28000;01HN0075K19;12
S28000;01LT300K20;16
S28000;01MA030K22;8
S28000;01MA075K22;20
S28000;01MA150K22;24
S28000;01MR030K14;20
S28000;01PI030K18;12
S28000;01PI150K18;15
S28000;01RL500K20;17
S28000;01RV500K20;14
S28000;01SA100LT20;9
S28000;01SA100LV20;7
S28000;01SA100VE20;15
S28000;01SA250LT20;17
S28000;01SA250LV20;14
S28000;01SA250VE20;10
S28000;01SA300KRO22;7
S28000;01SA500KRO22;7
S28000;01SA9000KV21;1
S28000;01SE125K21;9
S28000;01SL0045K13;30
S28000;01SL300LV20;4
S28000;01SL300VE20;11
S28000;01SL500LV20;4
S28000;01SL500VE20;9
S28000;11AS040SG22;26
S28000;11BC100G21;16
S28000;11BG140CS19;12
S28000;11BG140SH19;5
S28000;11BG140SI19;4
S28000;11BG140SL19;5
S28000;11BH050A18;4
S28000;11BO100CS19;16
S28000;11BP100I19;2
S28000;11BR100A20;4
S28000;11CD050A18;4
S28000;11CF100TR19;9
S28000;11CM030H19;8
S28000;11CM030H20;12
S28000;11CM030O21;19
S28000;11CM125I19;11
S28000;11EH150A18;4
S28000;11EP010H19;1
S28000;11ET010H20;13
S28000;11ET050H20;2
S28000;11FAG10TR19;14
S28000;11GD050A18;11
S28000;11GD250H20;13
S28000;11GD250O21;13
S28000;11GE075I20;3
S28000;11GM200I19;3
S28000;11GN195A18;12
S28000;11LB250HF22;9
S28000;11LC250H19;10
S28000;11LC250H20;13
S28000;11LC250O21;14
S28000;11LD200I19;8
S28000;11LH200I19;11
S28000;11MA030A20;11
S28000;11MH075A19;3
S28000;11MWC200I19;4
S28000;11PEP050I20;3
S28000;11PM100SH19;4
S28000;11PM100SI19;4
S28000;11PM100SL19;1
S28000;11SA100H19;12
S28000;11SA100H20;12
S28000;11SD100CS19;13
S28000;11SD100SH19;11
S28000;11SD100SI19;3
S28000;11SD100SL19;6
S28000;11SP200CS19;11
S28000;11SP200SH19;11
S28000;11SP200SI19;4
S28000;11SV080I19;4
S28000;15AS250VA18;11
S28000;15BA500L16A;16
S28000;15ET010VB19;3
S28000;15ET100VA20;9
S28000;15ET100VB20;5
S28000;15GD075L21;68
S28000;15GD250L21;8
S20;11SD100CS19;10
S20;11MH075A19;4
S20;20AR075O20;14
S20;20GD250OC20;7
S20;20FE050H20;4
S20;20GD250CD20;8
S20;24ET075CB21;7
S20;20ET075HC20;4
S20;20ET075CD20;5
S20;17VI100P19;6
S20;20GD500HC20;15
S20;17SH300FV21;10
S20;17SH075G21;29
S20;17SH060SE21;4
S20;17RC500P19;11
S20;17AS500G21;14
S20;17AS500E19;10
S20;15RO010VBM22;2
S20;15MA030VBM8;11
S20;15LM300L11;11
S20;15LC250VB3;10
S20;15GN300L21;9
S20;20HR050H20;5
S20;20SA050CD20;5
S20;20SA050O20;2
S20;24BL012CB5;8
S20;24BL012R22;10
S20;24BR050R22;11
S20;20SA050HC20;5
S20;24GD250CB21;16
S20;24GD250R22;11
S20;24GD500R22;6
S20;24LC250CB4;9
S20;24LC250R22;15
S20;24MA030CB4;18
S20;24MA030P15;3
S20;24MA030R22;27
S20;24MA030RA19;4
S20;24MA030RV19;3
S20;24MA075CB4;12
S20;24MA075P15;4
S20;24MA075R22;7
S20;24MA150R22;8
S20;24RG500CB21;6
S20;24RG500R22;13
S20;24SA050CB21;9
S20;24SA050R22;11
S20;27BP050I19;3
S20;27BY015I19;5
S20;27CP050I19;10
S20;27DB015I20;12
S20;27DC050I20;20
S20;27DCB060I17;4
S20;27DE015I21;5
S29000;01BK010K14;8
S29000;01BL012K18;12
S29000;01BM050K19;4
S29000;01BP050K21;4
S29000;01BV050K16;5
S29000;01CD250K17;4
S29000;01CF050K22;11
S29000;01CL050K21;1
S29000;01CL175K22;8
S29000;01CM300K20;9
S29000;01CM500K20;8
S29000;01CMJ075K21;14
S29000;01CMR500K20;20
S29000;01CP200K22;14
S29000;01CPR200K22;8
S29000;01EC200K22;7
S29000;01EM075K20;9
S29000;01HD250K17;18
S29000;01HD500K20;2
S29000;01HF100K17;12
S29000;01HN0075K19;10
S29000;01HV030K16;4
S29000;01LC250K17;19
S29000;01LT300K20;10
S29000;01MA030K22;26
S29000;01MA075K22;21
S29000;01MA150K22;27
S29000;01MR030K14;14
S29000;01PI030K18;5
S29000;01PI150K18;4
S29000;01RL500K20;64
S29000;01RV500K20;61
S29000;01SA050KV20;5
S29000;01SA100LT20;13
S29000;01SA100LV20;13
S29000;01SA100VE20;6
S29000;01SA250LT20;15
S29000;01SA250LV20;20
S29000;01SA250VE20;17
S29000;01SA300KRO22;15
S29000;01SA500KRO22;8
S29000;01SB020K21;4
S29000;01SE125K21;8
S29000;01SL0045K13;32
S29000;01SL300LV20;7
S29000;01SL500LV20;18
S29000;01SL500VE20;19
S29000;11AS040SG22;27
S29000;11BG140CS19;7
S29000;11BG140SH19;7
S29000;11BG140SI19;6
S29000;11BG140SL19;9
S20;52AS006P19;61
S20;52BY001I19;57
S20;52CD0015A18;40
S20;52CL0015K21;57
S20;52CP0015I19;60
S20;52CP006K22;190
S10;24RO010CB4;3
S10;24RG500CB21;12
S20;52CV0015K22;96
S20;52DB001I20;102
S20;52DC0015I20;159
S20;52DE001I21;159
S20;52DF002I17;88
S20;52DH001I20;26
S20;52DH001I22;176
S20;52DL002I21;173
S20;52DS001I20;53
S20;52ER002I21;409
S20;52GD0015A18;29
S20;52HD006A18;208
S20;52HS001I17;66
S20;52HS004A18;60
S20;52LC006A20;285
S20;52LGENSA21;87
S20;52LT002R21;75
S20;52MA003K22A;249
S20;52MC006G21;40
S20;52MGEBAG19;36
S20;52MGEBOX18;7
S20;52MGENSA21;59
S20;52OR001I21;158
S20;52PS0015R21;55
S10;27DCB060I17;4
S10;27DH015I22;16
S20;52SGEBAG19;15
S20;52SGENSA21GPS;63
S20;52SH006E19;93
S20;52SH006FV21;90
S20;52SH006G21;124
S10;27HS030I18;4
S10;27MP050I20;26
S10;29BP100A22;4
S10;29GE200A21;17
S20;52TS001I22;159
S20;52TS001R21;103
S20;98BBGD030VE4;64
S20;98BBMA010KA3;39
S20;ACPOCVEC00001;187
S20;ACPOCVEC00002;146
S10;38MI150A22;14
S10;38RC050A22;15
S20;49LD030I21;7
S10;49MA010K22;21
S10;49ORALM22;5
S30000;11BG140SH19;5
S30000;11BG140SI19;4
S30000;11BG140SL19;3
S30000;11BH050A18;5
S30000;11BO100CS19;15
S30000;11BP100I19;4
S30000;11BR100A20;3
S30000;11CD050A18;3
S30000;11CF100TR19;14
S30000;11CM030H19;12
S30000;11CM030H20;13
S30000;11CM030O21;13
S30000;11CM125I19;10
S30000;11EH150A18;4
S30000;11EP010H19;9
S30000;11ET010H20;9
S30000;11ET050H20;3
S30000;11ET075O21;9
S30000;11FAG10TR19;13
S30000;11GD050A18;4
S30000;11GD250H19;6
S30000;11GD250H20;6
S30000;11GD250O21;4
S30000;11GE075I20;4
S30000;11GN195A18;10
S30000;11HE005CS19;5
S30000;11LB250HF22;7
S30000;11LC250H19;9
S30000;11LC250H20;6
S30000;11LC250O21;4
S30000;11LD200I19;9
S30000;11LH200I19;10
S30000;11LT300I20;5
S30000;11MH075A19;3
S30000;11MWC200I19;3
S30000;11PEP050I20;4
S30000;11PM100SH19;6
S30000;11SA050O21;5
S30000;11SA100H19;4
S30000;11SA100H20;10
S30000;11SD100CS19;9
S30000;11SD100SH19;9
S30000;11SD100SI19;6
S30000;11SD100SL19;4
S30000;11SP200CS19;5
S30000;11SP200SH19;6
S30000;11SP200SI19;5
S30000;11SP200SL19;6
S30000;11SV080I19;5
S30000;15AS250VA18;5
S30000;15BA500L16A;9
S30000;15DO050VA5;12
S30000;15ET010VB19;7
S29000;11BH050A18;8
S29000;11BO100CS19;23
S29000;11BP100I19;4
S29000;11BR100A20;16
S29000;11CD050A18;3
S29000;11CF100TR19;20
S29000;11CM030H19;11
S29000;11CM030H20;11
S29000;11CM030O21;10
S29000;11CM125I19;9
S29000;11EH150A18;5
S29000;11EP010H19;12
S29000;11ET010H20;13
S29000;11ET050H20;5
S29000;11ET075O21;2
S29000;11FAG10TR19;14
S29000;11GD050A18;3
S29000;11GD075O21;77
S29000;11GD250H19;20
S29000;11GD250H20;13
S29000;11GD250O21;18
S29000;11GE075I20;1
S29000;11GM200I19;19
S29000;11GN195A18;1
S29000;11LB250HF22;4
S29000;11LC250H19;15
S29000;11LC250H20;5
S29000;11LC250O21;13
S29000;11LD200I19;16
S29000;11LH200I19;9
S29000;11MH075A19;4
S29000;11MWC200I19;5
S29000;11PEP050I20;5
S29000;11PM100SH19;3
S29000;11PM100SI19;6
S29000;11PM100SL19;2
S29000;11SA050O21;10
S29000;11SA100H19;13
S29000;11SA100H20;14
S29000;11SD100CS19;15
S29000;11SD100SH19;11
S29000;11SD100SI19;10
S29000;11SD100SL19;14
S29000;11SP200CS19;18
S29000;11SP200SH19;14
S29000;11SP200SI19;13
S29000;11SP200SL19;14
S29000;11SV080I19;13
S29000;15AS250VA18;21
S29000;15BA500L16A;11
S29000;15DO050VA5;21
S29000;15ET010VB19;4
S29000;15ET100VA20;2
S20;27DF125I17;19
S20;27DH015I20;2
S20;27DH015I22;14
S20;27DH030I20;3
S20;27DH030I22;12
S20;27DL200I21;7
S20;27DS030I20;5
S20;27ER015I22;10
S20;27ER050I21;5
S20;27ER150I21;12
S20;27EV200I19;4
S20;27HC050I18;4
S20;27HCR050I16;3
S20;27HS030I18;4
S20;27HSR030I16;3
S20;27MI150I20;4
S20;27MP050I20;27
S20;27MP150I20;13
S20;27MQ065I15A;4
S20;27MS050I20;3
S20;27OR030I21;20
S20;27OR050I21;20
S20;27SP030I19;4
S20;29ASH240A20;6
S20;29EC200A21;8
S20;29GE200A21;16
S20;29HD250A15;4
S20;29HD500A15;29
S20;29HS100A22SM;6
S20;29LC200A20US;28
S20;29MA030A17;8
S20;29MA075A21;12
S20;29RC200A20;23
S20;29RH500A15;25
S20;29SA050A21;10
S20;29SE125A21;6
S20;29SH240A20;3
S20;29VC240A22;7
S20;38BV050A19;5
S20;38EC015A18;2
S20;38EV075A21;15
S20;38FT200A21;9
S20;38MI150A22;7
S20;38RC050A22;9
S20;38UV030A18;13
S20;38WS030A21;7
S20;49BO015CS19;133
S20;49DC004I20;36
S20;49DH004I20;53
S20;49HD035A15;40
S30000;15ET100VA20;3
S30000;15ET100VB20;4
S30000;15GD075L21;23
S30000;15GD250L21;11
S30000;15GD250VA20;6
S30000;15GD250VB21;10
S30000;15GD500VB21;11
S30000;15GM065L21;9
S30000;15GM065VB21;3
S30000;15GM280VB21;4
S30000;15GN300L11;3
S30000;15GN300L21;3
S30000;15GS150VBL22;2
S30000;15HE005L14;6
S30000;15LC250L14;6
S30000;15LC250VA20;10
S30000;15LC250VB3;8
S30000;15LM300L11;9
S30000;15MA030L11;1
S30000;15MA030VA5;6
S30000;15MA030VB3;12
S30000;15MA030VBM8;7
S30000;15MA075L20;13
S30000;15MA075VB4;4
S30000;15RC500VB21;12
S30000;15RG500L14;16
S30000;15RG500VA20;7
S30000;15SA070VB6;2
S30000;15SE400VB5;7
S30000;15SH250VA20;5
S30000;17AF100G20;9
S30000;17AS075G21;8
S30000;17AS250E19;6
S30000;17AS250FV21;5
S30000;17AS250G21;9
S30000;17AS250P19;6
S30000;17AS500E19;8
S30000;17AS500FV21;4
S30000;17AS500G21;9
S30000;17AS500P19;6
S30000;17DO050F13;10
S30000;17ER075P19;6
S30000;17HB050A22;8
S30000;17HI001G19;74
S30000;17HI100G19;9
S30000;17MC200G21;11
S30000;17RC500E20;3
S30000;17RC500G21;10
S30000;17RC500P19;8
S30000;17RS500E20;2
S30000;17RS500FV21;12
S30000;17RS500G21;12
S30000;17RS500P19;9
S28000;15GD250VA20;6
S28000;15GD250VB21;14
S28000;15GD500VB21;17
S28000;15GM065L21;14
S28000;15GM065VB21;10
S28000;15GM280VB21;4
S28000;15GN300L21;11
S28000;15HE005L14;12
S28000;15LC250L14;13
S28000;15LC250VA20;5
S28000;15LC250VB3;13
S28000;15LM300L11;11
S28000;15MA030VA5;2
S28000;15MA030VB3;8
S28000;01HV030K16;4
S28000;15GD9000V21;1
S28000;15DO050VA5;6
S28000;11SP200SL19;13
S28000;11SH90005G21;1
S28000;11GD250H19;12
S28000;11ET075O21;6
S28000;11AS90005G21;1
S28000;10P500V21;36
S28000;10P250V21;26
S28000;10EST500V21;40
S28000;10EST250V21;26
S28000;15MA075L20;15
S28000;15MA075VB4;10
S28000;15RC500VB21;18
S28000;15RG500L14;9
S28000;15RG500VA20;2
S28000;15SE400VB5;2
S28000;15SH250VA20;9
S28000;17AF100G20;2
S28000;17AS075G21;13
S28000;17AS250E19;5
S28000;17AS250FV21;5
S28000;17AS250G21;7
S28000;17AS250P19;4
S28000;17AS500E19;15
S28000;17AS500FV21;10
S28000;17AS500G21;13
S28000;17AS500P19;4
S28000;17DO050F13;9
S28000;17ER075P19;12
S28000;17HB050A22;10
S28000;17HI001G19;46
S28000;17HI100G19;15
S28000;17MC200G21;9
S28000;17RC500E20;16
S28000;17RC500G21;17
S28000;17RC500P19;7
S28000;17RS500E20;19
S29000;15GD075L21;30
S29000;15GD250L21;1
S29000;15GD250VA20;16
S29000;15GD250VB21;13
S29000;15GD500VB21;7
S29000;15GM065L21;18
S29000;15GM065VB21;12
S29000;15GM280VB21;12
S29000;15GN300L21;7
S29000;15HE005L14;11
S29000;15LC250L14;19
S29000;15LC250VA20;16
S29000;15LC250VB3;6
S29000;15LM300L11;9
S29000;15MA030L21;16
S29000;15MA030VA5;12
S29000;15MA030VB3;15
S29000;15MA030VBM8;1
S29000;15MA075L20;8
S29000;15MA075VB4;12
S29000;15RC500VB21;19
S29000;15RG500L14;11
S29000;15RG500VA20;15
S29000;15RO010VBM22;4
S29000;15SA070VB6;13
S29000;15SE400VB5;2
S29000;15SH250VA20;17
S29000;17AF100G20;5
S29000;17AS075G21;11
S29000;17AS250E19;10
S29000;17AS250FV21;11
S29000;17AS250G21;15
S29000;17AS250P19;5
S29000;17AS500E19;24
S29000;17AS500FV21;14
S29000;17AS500G21;30
S29000;17AS500P19;5
S29000;17DO050F13;8
S29000;17ER075P19;10
S29000;17HB050A22;12
S29000;17HI001G19;41
S29000;17HI100G19;10
S29000;17MC200G21;5
S29000;17RC500E20;8
S29000;17RC500G21;33
S29000;17RC500P19;26
S29000;17RS500G21;41
S29000;17RS500P19;1
S29000;17SH060SE21;5
S29000;17SH060SG21;3
S29000;17SH060SP21;5
S29000;17SH075G21;3
S29000;17SH300E19;11
S24000;01BK010K14;13
S24000;01BL012K18;11
S24000;01BM050K19;11
S24000;01BM150K19;11
S24000;01BP050K21;10
S24000;01BV050K16;8
S24000;01CD250K17;10
S24000;01CF050K22;2
S24000;01CL050K21;9
S24000;01CL175K22;2
S24000;01CM300K20;8
S24000;01CM500K20;9
S24000;01CMJ075K21;8
S24000;01CMR500K20;13
S24000;01CP200K22;9
S24000;01CPR200K22;10
S24000;01CV050K22;10
S24000;01EC200K22;10
S24000;01EM075K20;3
S24000;01HD250K17;9
S24000;01HD500K20;5
S24000;01HDR500K20;11
S24000;01HF100K17;4
S24000;01HN0075K19;12
S24000;01HV030K16;4
S24000;01LC250K17;15
S24000;01LT300K20;15
S24000;01MA030K22;25
S24000;01MA075K22;16
S24000;01MA150K22;19
S24000;01MR030K14;15
S24000;01PI030K18;10
S24000;01PI150K18;12
S24000;01RL500K20;4
S24000;01RV500K20;4
S24000;01SA050KV20;7
S24000;01SA100LT20;10
S24000;01SA100LV20;9
S24000;01SA100VE20;10
S24000;01SA250LT20;10
S24000;01SA250LV20;14
S24000;01SA250VE20;9
S24000;01SA300KRO22;9
S24000;01SA500KRO22;4
S24000;01SB020K21;2
S24000;01SE125K21;4
S24000;01SL0045K13;19
S24000;01SL300LV20;3
S24000;01SL300VE20;4
S24000;01SL500LV20;3
S24000;01SL500VE20;4
S24000;11AS040SG22;21
S24000;11BC100G21;19
S30000;17SE100FV21;16
S30000;17SH060SE21;1
S30000;17SH060SG21;3
S30000;17SH060SP21;4
S30000;17SH075G21;23
S30000;17SH300E19;3
S30000;17SH300FV21;12
S30000;17SH300G21;3
S30000;17SH300P19;11
S30000;17SH500E19;11
S30000;17SH500FV21;13
S30000;17SH500G21;14
S30000;17SH500P19;14
S30000;17VI100P19;7
S30000;20AR075O20;4
S30000;20DO050O20;6
S30000;20DO075CD20;6
S30000;20DO130HC20;6
S30000;20ET075CD20;5
S30000;20ET075HC20;3
S30000;20ET075OC20;3
S30000;20FE050H20;4
S30000;20GD250CD20;7
S30000;20GD250HC20;14
S30000;20GD250OC20;5
S30000;20GD500HC20;8
S30000;20HR050H20;5
S30000;20NV150H20;11
S30000;20SA050CD20;3
S30000;20SA050HC20;4
S30000;24BL012CB5;6
S30000;24BL012R22;12
S30000;24BR050CB6;2
S30000;24BR050R22;17
S30000;24ET075CB21;12
S30000;24ET075R22;8
S30000;24GD250CB21;13
S30000;24GD250R22;13
S30000;24GD500R22;12
S30000;24LC250CB4;1
S30000;24LC250R22;9
S30000;24MA030CB4;4
S30000;24MA030P15;3
S30000;24MA030R22;16
S30000;24MA030RA19;1
S30000;24MA030RV19;9
S30000;24MA030S6;15
S30000;24MA075CB4;17
S30000;24MA075P15;10
S30000;24MA075R22;11
S30000;24MA150R22;11
S30000;24RG500CB21;6
S30000;24RG500R22;11
S30000;24SA050R22;2
S30000;27BP050I19;11
S30000;27BY015I19;7
S30000;27CP050I19;10
S30000;27DB015I20;9
S30000;27DC050I20;14
S30000;27DCB060I17;4
S30000;27DE015I21;2
S30000;27DF125I17;11
S30000;27DH015I22;12
S30000;27DH030I20;5
S30000;27DH030I22;17
S30000;27DL200I21;1
S30000;27DS030I20;7
S30000;27ER015I22;14
S30000;27ER050I21;10
S30000;27ER150I21;11
S30000;27EV200I19;6
S30000;27FP050I19;2
S30000;27HC050I18;4
S30000;27HCR050I16;3
S30000;27HS030I18;4
S30000;27HSR030I16;4
S30000;27MI150I20;4
S30000;27MP050I20;29
S30000;27MP150I20;11
S30000;27MQ065I15A;4
S30000;27MS050I20;5
S30000;27OR030I21;23
S30000;27OR050I21;26
S30000;27RM300I20;2
S30000;27SP030I19;3
S30000;29ASH240A20;6
S30000;29BP100A19;4
S30000;29EC200A21;10
S30000;29GE200A21;10
S30000;29HD075A15;2
S30000;29HD250A15;23
S30000;29HD500A15;25
S30000;29HS100A22SM;8
S30000;29LC200A20US;20
S30000;29MA030A17;19
S30000;29MA075A21;13
S30000;29RC200A20;5
S30000;29RH500A15;25
S30000;29SA050A21;9
S30000;29SE125A21;11
S30000;29SH240A20;5
S30000;29VC240A22;11
S30000;38BV050A19;4
S30000;38EC015A18;5
S30000;38EV075A21;5
S28000;17RS500FV21;8
S28000;17RS500G21;23
S28000;17RS500P19;17
S28000;17SE100FV21;14
S28000;17SH060SE21;8
S28000;17SH060SG21;8
S28000;17SH060SP21;5
S28000;17SH075G21;49
S28000;17SH300E19;10
S28000;17SH300FV21;3
S28000;17SH300G21;11
S28000;17SH300P19;7
S28000;17SH500E19;16
S28000;17SH500FV21;14
S28000;17SH500G21;11
S28000;17SH500P19;13
S28000;17VI100P19;4
S28000;20AR075O20;11
S28000;20DO050O20;4
S28000;20DO075CD20;2
S28000;20DO130HC20;6
S28000;20ET075CD20;5
S28000;20ET075HC20;5
S28000;20ET075OC20;5
S28000;20FE050H20;2
S28000;20GD250CD20;9
S28000;20GD250HC20;5
S28000;20GD250OC20;10
S28000;20GD500HC20;13
S28000;20HR050H20;3
S28000;20NV150H20;10
S28000;20SA050CD20;3
S28000;20SA050HC20;4
S28000;20SA050O20;2
S28000;24BL012CB5;12
S28000;24BL012R22;11
S28000;24BR050CB6;12
S28000;24BR050R22;6
S28000;24ET075CB21;14
S28000;24ET075R22;11
S28000;24GD250CB21;7
S28000;24GD250R22;10
S28000;24GD500R22;16
S28000;24LC250CB4;7
S28000;24LC250R22;13
S28000;24MA030CB4;14
S28000;24MA030P15;6
S28000;24MA030R22;9
S28000;24MA030RA19;6
S28000;24MA030RV19;5
S28000;24MA075CB4;12
S28000;24MA075P15;3
S24000;11BG140CS19;4
S24000;11BG140SH19;4
S24000;11BG140SI19;4
S24000;11BG140SL19;9
S24000;11BH050A18;4
S24000;11BO100CS19;8
S24000;11BP100I19;4
S24000;11BR100A20;4
S24000;11CD050A18;3
S24000;11CF100TR19;4
S24000;11CM030H19;9
S24000;11CM030H20;12
S24000;11CM030O21;11
S24000;11CM125I19;4
S24000;11EH150A18;3
S24000;11EP010H19;4
S24000;11ET010H20;6
S24000;11ET050H20;4
S24000;11ET075O21;4
S24000;11FAG10TR19;5
S24000;11GD050A18;1
S24000;11GD250H19;12
S24000;11GD250H20;11
S24000;11GD250O21;13
S24000;11GE075I20;8
S24000;11GM200I19;8
S24000;11GN195A18;9
S24000;11LC250H19;5
S24000;11LC250H20;9
S24000;11LC250O21;10
S24000;11LD200I19;7
S24000;11LH200I19;10
S24000;11LT300I20;4
S24000;11MA030A20;16
S24000;11MH075A19;8
S24000;11MWC200I19;3
S24000;11PEP050I20;4
S24000;11PM100SH19;5
S24000;11PM100SI19;4
S24000;11SA050O21;22
S24000;11SA100H19;12
S24000;11SA100H20;10
S24000;11SD100CS19;5
S24000;11SD100SH19;5
S24000;11SD100SI19;4
S24000;11SD100SL19;6
S24000;11SP200CS19;10
S24000;11SP200SH19;6
S24000;11SP200SI19;5
S24000;11SP200SL19;11
S24000;11SV080I19;3
S24000;15AS250VA18;4
S24000;15BA500L16A;14
S21000;52AF006G20;23
S21000;52AS006E19;52
S21000;52AS006FV21;59
S21000;52AS006G21;83
S21000;52AS006P19;74
S21000;52BY001I19;162
S21000;52CD0015A18;61
S21000;52CL0015K21;48
S21000;52CP0015I19;76
S21000;52CP006K22;162
S21000;52CRA1C22;3
S21000;52CRA2C22;3
S21000;52CRA3C22;3
S21000;52CRA4C22;3
S21000;52CV0015K22;226
S21000;52DB001I20;70
S21000;52DC0015I20;102
S21000;52DE001I21;112
S21000;52DF002I17;127
S21000;52DH001I20;167
S21000;52DH001I22;202
S21000;52DL002I21;182
S21000;52DS001I20;96
S21000;52ER002I21;349
S21000;52GD0015A18;56
S21000;52HD006A18;161
S21000;52HS001I17;64
S21000;52HS004A18;86
S21000;52LC006A20;161
S21000;52LGEBAG19;60
S21000;52LGEBOX18;12
S21000;52LGENSA21;95
S21000;52LT002R21;73
S21000;52MA003K22A;172
S21000;52MC006G21;105
S21000;52MGEBAG19;40
S21000;52MGEBOX18;3
S21000;52MGENSA21;69
S21000;52MMB1NO22;8
S21000;52MMB2NO22;8
S21000;52MMB3NO22;8
S21000;52MOCOL316;4
S21000;52MS001I20;87
S21000;52OR001I21;246
S21000;52PMGBOX18;4
S21000;52PS0015R21;58
S21000;52RBO2NO22;3
S21000;52RBO3NO22;3
S21000;52RIBOXNO22;24
S21000;52SAMPENV18;27
S21000;52SGEBAG19;11
S21000;52SGENSA21GPS;118
S21000;52SH006E19;80
S30000;38FT200A21;10
S30000;38MI150A22;8
S30000;38RC050A22;2
S30000;38UV030A18;13
S30000;38WC050A21;13
S30000;38WM065A18;1
S30000;38WS030A21;8
S30000;49BO015CS19;80
S30000;49CP020K22;2
S30000;49DH004I20;39
S30000;49HD035A15;59
S30000;49LC020A20;35
S30000;49MA010K22;25
S30000;49OR005I21;76
S30000;52AF006G20;88
S30000;52AS006E19;108
S30000;52AS006FV21;23
S30000;52AS006G21;98
S30000;52AS006P19;98
S30000;52BY001I19;155
S30000;52CD0015A18;116
S30000;52CL0015K21;126
S30000;52CP0015I19;172
S30000;52CP006K22;102
S30000;52CV0015K22;69
S30000;52DB001I20;204
S30000;52DC0015I20;173
S30000;52DE001I21;112
S30000;52DF002I17;3
S30000;52DH001I20;183
S30000;52DH001I22;215
S30000;52DL002I21;2
S30000;52DS001I20;94
S30000;52ER002I21;476
S30000;52GD0015A18;119
S30000;52HD006A18;80
S30000;52HS001I17;84
S30000;52HS004A18;163
S30000;52LC006A20;150
S30000;52LGEBAG19;31
S30000;52LGEBOX18;8
S30000;52LGENSA21;147
S30000;52LT002R21;2
S30000;52MA003K22A;63
S30000;52MC006G21;106
S30000;52MGEBAG19;83
S30000;52MGEBOX18;12
S30000;52MGENSA21;117
S30000;52MOCOL216;1
S30000;52MOCOL316;1
S30000;52MS001I20;70
S30000;52OR001I21;257
S30000;52PMGBOX18;7
S21000;11SP200SH19;4
S21000;11SP200SI19;4
S21000;11SP200SL19;3
S21000;11SV080I19;4
S21000;15AS250VA18;6
S21000;15BA500L16A;11
S21000;15DO050VA5;12
S21000;15ET010VB19;4
S21000;15ET100VA20;6
S21000;15ET100VB20;4
S21000;15GD075L21;47
S21000;15GD250L21;8
S21000;15GD250VA20;6
S21000;15GD250VB21;8
S21000;15GD500VB21;6
S21000;15GM065L21;8
S21000;15GM065VB21;7
S21000;15GM280VB21;7
S21000;15GN300L21;3
S21000;15GS150VBL22;3
S21000;15HE005L14;5
S21000;15LC250L14;9
S21000;15LC250VA20;5
S21000;15LC250VB3;10
S21000;15LM300L11;6
S21000;15MA030VA5;2
S21000;15MA030VB3;9
S21000;15MA030VBL22;1
S21000;15MA030VBM8;1
S21000;15MA075L20;7
S21000;15MA075VB4;7
S21000;15RC500VB21;9
S21000;15RG500L14;14
S21000;15RG500VA20;11
S21000;15RO010VBM22;1
S21000;15SA070VB6;8
S21000;15SH250VA20;9
S21000;17AF100G20;5
S21000;17AS075G21;10
S21000;17AS250E19;6
S21000;17AS250FV21;6
S21000;17AS250G21;5
S21000;17AS250P19;6
S21000;17AS500E19;7
S21000;17AS500FV21;10
S21000;17AS500G21;9
S21000;17AS500P19;5
S21000;17DO050F13;16
S21000;17ER075P19;7
S21000;17HB050A22;12
S21000;17HI001G19;2
S21000;17HI100G19;12
S30000;52PS0015R21;39
S30000;52SGEBAG19;110
S30000;52SGENSA21;3
S30000;52SGENSA21GPS;98
S30000;52SH006E19;65
S30000;52SH006FV21;168
S30000;52SH006G21;106
S30000;52SH006P19;29
S30000;52SP001I19;114
S30000;52TS001I22;176
S30000;52TS001R21;128
S30000;98BBGD030VE4;58
S30000;98BBMA010KA3;52
S30000;ACPOCVEC00001;354
S30000;ACPOCVEC00002;563
S30000;ACPOCVEC00003;94
S30000;ACPOCVEC00005;206
S30000;SGOCVE600004;23
S90000;01BK010K14;9
S90000;01BL012K18;10
S90000;01BM050K19;8
S90000;01BM150K19;6
S90000;01BP050K21;5
S90000;01BV050K16;5
S90000;01CD250K17;7
S90000;01CF050K22;3
S90000;01CL050K21;11
S90000;01CL175K22;7
S90000;01CL200K17;34
S90000;01CM300K20;9
S90000;01CM500K20;16
S90000;01CMJ075K21;13
S90000;01CMR500K20;16
S90000;01CP050K22;15
S90000;01CP200K22;5
S90000;01CPR200K22;15
S90000;01CV050K18;27
S90000;01CV050K22;8
S90000;01EC200K22;14
S90000;01EM075K20;11
S90000;01EN300KB19;14
S90000;01HD250K17;5
S90000;01HD500K20;12
S90000;01HDR500K20;19
S90000;01HF100K17;4
S90000;01HN0075K19;10
S90000;01HV030K16;5
S90000;01LC250K17;8
S90000;01LC500K20;1
S90000;01LT300K20;9
S90000;01MA075K18;6
S90000;01MA150K18;2
S90000;01MA150K22;12
S90000;01MR030K14;11
S90000;01PI030K18;9
S90000;01PI150K18;12
S90000;01RL500K20;15
S90000;01RV500K20;18
S90000;01SA050KV20;9
S90000;01SA100LT20;8
S90000;01SA100LV20;9
S90000;01SA100VE20;11
S90000;01SA250LT20;13
S90000;01SA250LV20;12
S90000;01SA250VE20;6
S90000;01SA300KRO22;15
S90000;01SA500KRO22;17
S90000;01SB020K21;10
S90000;01SE125K21;6
S90000;01SL0045K13;9
S90000;01SL300LV20;11
S29000;17SH300FV21;14
S29000;17SH300G21;15
S29000;17SH300P19;11
S29000;17SH500E19;17
S29000;17SH500FV21;4
S29000;17SH500G21;30
S29000;17SH500P19;15
S29000;17VI100P19;8
S29000;20AR075O20;9
S29000;20DO050O20;6
S29000;20DO075CD20;6
S29000;20DO130HC20;12
S29000;20ET075CD20;3
S29000;20ET075HC20;4
S29000;20ET075OC20;5
S29000;20FE050H20;3
S29000;20GD250CD20;25
S29000;20GD250HC20;19
S29000;20GD250OC20;11
S29000;20HR050H20;2
S29000;20NV150H20;18
S29000;20SA050CD20;9
S29000;20SA050HC20;4
S29000;20SA050O20;10
S29000;24BL012CB5;11
S29000;24BL012R22;6
S29000;24BR050CB6;17
S29000;24BR050R22;19
S29000;24ET075CB21;17
S29000;24ET075R22;9
S29000;24GD250CB21;25
S29000;24GD250R22;20
S29000;24GD500R22;16
S29000;24LC250CB4;16
S29000;24LC250R22;12
S29000;24MA030CB4;15
S29000;24MA030P15;14
S29000;24MA030R22;20
S29000;24MA030RV19;3
S29000;24MA075CB4;14
S29000;24MA075P15;9
S29000;24MA075R22;11
S29000;24MA150R22;10
S29000;24RG500CB21;36
S29000;24RG500R22;56
S29000;24RO010CB4;6
S29000;24SA050CB21;13
S29000;24SA050R22;8
S29000;27BP050I19;7
S29000;27BY015I19;5
S29000;27CP050I19;13
S29000;27DB015I20;10
S29000;27DC050I20;9
S28000;24MA075R22;14
S28000;24MA150R22;11
S28000;24RG500R22;9
S28000;24SA050CB21;15
S28000;24SA050R22;14
S28000;27BP050I19;16
S28000;27BY015I19;6
S28000;27CP050I19;13
S28000;27DB015I20;11
S28000;27DC050I20;10
S28000;27DCB060I17;4
S28000;27DE015I21;16
S28000;27DF125I17;10
S28000;27DH015I20;2
S28000;27DH015I22;12
S28000;27DH030I20;3
S28000;27DH030I22;11
S28000;27DL200I21;12
S28000;27DS030I20;7
S28000;27ER015I22;11
S28000;27ER050I21;12
S28000;27ER150I21;13
S28000;27EV200I19;13
S28000;27HC050I18;3
S28000;27HCR050I16;4
S28000;27HS030I18;3
S28000;27MI150I20;4
S28000;27MP050I20;59
S28000;27MP150I20;9
S28000;27MQ065I15A;4
S28000;27MS050I20;5
S28000;27OR030I21;18
S28000;27OR050I21;33
S28000;27SP030I19;3
S28000;29ASH240A20;13
S28000;29BP100A19;2
S28000;29BP100A22;2
S28000;29EC200A21;15
S28000;29GE200A21;15
S28000;29HD075A15;27
S28000;29HD250A15;17
S28000;29HD500A15;29
S28000;29HD9000A21;1
S28000;29HS100A22SM;3
S28000;29LC200A20US;20
S28000;29MA030A17;8
S28000;29MA075A21;15
S28000;29RC200A20;20
S28000;29RH500A15;38
S28000;29SA050A21;14
S28000;29SE125A21;17
S28000;29SH240A20;14
S28000;29VC240A22;14
S29000;27DCB060I17;3
S29000;27DE015I21;10
S29000;27DF125I17;12
S29000;27DH015I22;21
S29000;27DH030I22;10
S29000;27DL200I21;13
S29000;27DS030I20;15
S29000;27ER015I22;5
S29000;27ER050I21;9
S29000;27ER150I21;13
S29000;27EV200I19;23
S29000;27HC050I18;4
S29000;27HCR050I16;13
S29000;27HS030I18;3
S29000;27HSR030I16;11
S29000;27MI150I20;4
S29000;27MP050I20;5
S29000;27MP150I20;19
S29000;27MS050I20;8
S29000;27OR030I21;17
S29000;27OR050I21;9
S29000;27SP030I19;8
S29000;29ASH240A20;28
S29000;29EC200A21;5
S29000;29GE200A21;1
S29000;29HD075A15;11
S29000;29HD250A15;17
S29000;29HD500A15;40
S29000;29LC200A20US;31
S29000;29MA030A17;24
S29000;29MA075A21;34
S29000;29RC200A20;15
S29000;29SA050A21;2
S29000;29SE125A21;13
S29000;29SH075A20;16
S29000;29SH240A20;23
S29000;29VC240A22;16
S29000;38BV050A19;5
S29000;38EC015A18;6
S29000;38EV075A21;17
S29000;38FT200A21;10
S29000;38MI150A22;10
S29000;38RC050A22;12
S29000;38UV030A18;30
S29000;38WC050A21;11
S29000;38WS030A21;11
S29000;49BO015CS19;83
S29000;49CL1SA18;16
S29000;49CM010O21;77
S29000;49CM030I19;8
S29000;49CP020K22;11
S29000;49DC004I20;5
S29000;49GD035CB5;213
S90000;01SL300VE20;10
S90000;01SL500LV20;15
S90000;01SL500VE20;16
S90000;10BOWEB219;900
S90000;10BOWEB319;2300
S90000;10BOWEB419;1900
S90000;11AS040SG22;8
S90000;11BC100G21;7
S90000;11BG140CS19;8
S90000;11BG140SH19;9
S90000;11BG140SI19;11
S90000;11BG140SL19;12
S90000;11BH050A18;9
S90000;11BO100CS19;15
S90000;11BP100I19;8
S90000;11BR100A20;7
S90000;11CD050A18;9
S90000;11CF100TR19;9
S90000;11CM030H19;10
S90000;11CM030H20;10
S90000;11CM030O21;11
S90000;11CM125I19;10
S90000;11EH150A18;8
S90000;11EP010H19;5
S90000;11EP050H19;5
S90000;11ET010H20;10
S90000;11ET050H20;8
S90000;11ET075O21;8
S90000;11FAG10TR19;9
S90000;11GD050A18;3
S90000;11GD075O21;3
S90000;11GD250H19;10
S90000;11GD250H20;12
S90000;11GD250HF22;1
S90000;11GD250O21;8
S90000;11GE075I20;3
S90000;11GM200I19;10
S90000;11GN040A19;88
S90000;11GN195A18;7
S90000;11HE005CS19;12
S90000;11LC250H19;11
S90000;11LC250H20;12
S90000;11LC250O21;8
S90000;11LD200I19;11
S90000;11LH200I19;10
S90000;11LT300I20;10
S90000;11MA030A20;6
S90000;11MH075A19;8
S90000;11MWC200I19;3
S90000;11PEP050I20;4
S90000;11PM100SH19;9
S90000;11PM100SI19;8
S90000;11PM100SL19;1
S24000;15DO050VA5;9
S24000;15ET010VB19;3
S24000;15ET100VA20;4
S24000;15ET100VB20;5
S24000;15GD075L21;21
S24000;15GD250L21;11
S24000;15GD250VA20;5
S24000;15GD250VB21;6
S24000;15GD500VB21;9
S24000;15GM065L21;13
S24000;15GM065VB21;13
S24000;15GM280VB21;4
S24000;15GN300L21;10
S24000;15GS150VBL22;5
S24000;15HE005L14;5
S24000;15LC250L14;7
S24000;15LC250VA20;8
S24000;15LC250VB3;10
S24000;15LM300L11;9
S24000;15MA030L11;1
S24000;15MA030VA5;9
S24000;15MA030VB3;5
S24000;15MA075L20;10
S24000;15MA075VB4;4
S24000;15RC500VB21;17
S24000;15RG500L14;9
S24000;15RG500VA20;6
S24000;15SA070VB6;1
S24000;15SE400VB5;3
S24000;15SH250VA20;3
S24000;17AF100G20;17
S24000;17AS075G21;11
S24000;17AS250E19;6
S24000;17AS250FV21;9
S24000;17AS250G21;6
S24000;17AS250P19;5
S24000;17AS500E19;10
S24000;17AS500FV21;11
S24000;17AS500G21;11
S24000;17AS500P19;5
S24000;17DO050F13;7
S24000;17ER075P19;5
S24000;17HB050A22;13
S24000;17HI001G19;112
S24000;17HI100G19;12
S24000;17MC200G21;9
S24000;17RC500E20;10
S24000;17RC500G21;17
S24000;17RC500P19;5
S24000;17RS500E20;14
S24000;17RS500FV21;16
S24000;17RS500G21;13
S24000;17RS500P19;14
S90000;11SA050O21;12
S90000;11SA100H19;11
S90000;11SA100H20;10
S90000;11SD100CS19;7
S90000;11SD100SH19;7
S90000;11SD100SI19;10
S90000;11SD100SL19;10
S90000;11SP200CS19;8
S90000;11SP200SH19;7
S90000;11SP200SI19;6
S90000;11SP200SL19;7
S90000;11SV080I19;7
S90000;15AS250VA18;7
S90000;15BA500L16A;16
S90000;15DF200VBL21;1
S90000;15DO050VA5;9
S90000;15ET100VA20;9
S90000;15ET100VB20;7
S90000;15GD070VB21;1
S90000;15GD075L15;97
S90000;15GD250L21;10
S90000;15GD250VA20;12
S90000;15GD250VB21;9
S90000;15GD500VB21;15
S90000;15GM065L21;15
S90000;15GM065VB21;15
S90000;15GM280VB21;6
S90000;15GN300L11;1
S90000;15GN300L21;11
S90000;15GS150VBL22;5
S90000;15HE005L14;6
S90000;15LC070VB5;69
S90000;15LC075L15;20
S90000;15LC250L14;10
S90000;15LC250VA20;12
S90000;15LC250VB3;8
S90000;15LC250VBM22;1
S90000;15LM300L11;11
S90000;15MA030L11;6
S90000;15MA030VA5;10
S90000;15MA030VB3;10
S90000;15MA030VBL22;4
S90000;15MA030VBM8;20
S90000;15MA075L20;12
S90000;15MA075VB4;10
S90000;15RC500VB21;16
S90000;15RG500L14;16
S90000;15RG500VA20;15
S90000;15SA070VB6;1
S90000;15SE400VB5;6
S90000;15SH250VA20;6
S90000;17AF100G20;10
S10;49ORCHB22;7
S10;49ORKAR22;5
S10;49ORMEN22;1
S20;52LGEBOX18;8
S20;52MS001I20;61
S20;52SGENSA21;1
S20;52SH006P19;98
S20;52SP001I19;41
S20;ACPOCVEC00005;21
S20;52MOCOL316;2
S20;SGOCVE600004;51
S21000;17MC200G21;11
S21000;17RC500E20;8
S21000;17RC500G21;12
S21000;17RC500P19;2
S21000;17RS500E20;15
S21000;17RS500FV21;7
S21000;17RS500G21;14
S21000;17RS500P19;11
S21000;17SE100FV21;6
S21000;17SH060SE21;4
S21000;17SH060SG21;5
S21000;17SH060SP21;3
S21000;17SH075G21;27
S21000;17SH300E19;11
S21000;17SH300FV21;7
S21000;17SH300G21;5
S21000;17SH300P19;6
S21000;17SH500E19;9
S21000;17SH500FV21;10
S21000;17SH500G21;12
S21000;17SH500P19;8
S21000;17VI100P19;5
S21000;20AR075O20;3
S21000;20DO050O20;7
S21000;20DO075CD20;10
S21000;20DO130HC20;5
S21000;20ET075CD20;4
S21000;20ET075HC20;4
S21000;20ET075OC20;1
S21000;20FE050H20;3
S21000;20GD250CD20;10
S21000;20GD250HC20;10
S21000;20GD250OC20;5
S21000;20GD500HC20;9
S21000;20HR050H20;4
S21000;20NV150H20;6
S21000;20SA050CD20;5
S21000;20SA050HC20;5
S21000;20SA050O20;6
S21000;24BL012CB5;3
S21000;24BL012R22;8
S21000;24BR050R22;9
S21000;24ET075CB21;6
S21000;24ET075R22;5
S21000;24GD250CB21;12
S21000;24GD250R22;13
S21000;24GD500R22;10
S21000;24LC250CB4;9
S21000;24LC250R22;5
S21000;24MA030CB4;22
S21000;24MA030P15;8
S21000;24MA030R22;29
S21000;24MA030RA19;3
S21000;52SH006FV21;158
S21000;52SH006G21;99
S21000;52SH006P19;106
S21000;52SMB1NO22;3
S21000;52SMB2NO22;3
S21000;52SMSANO22;6
S21000;52SP001I19;176
S21000;52TS001I22;116
S21000;52TS001R21;77
S21000;52WRAPNO22;5
S21000;54VMWHSHOLIDAY22;1
S21000;98BBGD030VE4;26
S21000;98BBMA010KA3;39
S21000;ACPOCVEC00001;143
S21000;ACPOCVEC00002;287
S21000;ACPOCVEC00005;191
S21000;SGOCVE600004;47
S90000;17AS075E19;201
S90000;17AS075FV21;67
S90000;17AS075G21;13
S90000;17AS075P19;87
S90000;17AS250E19;9
S90000;17AS250FV21;8
S90000;17AS250G21;8
S90000;17AS250P19;10
S90000;17AS500E19;13
S90000;17AS500FV21;14
S90000;17AS500G21;17
S90000;17AS500P19;15
S90000;17DO050F13;8
S90000;17ER075P19;11
S90000;17HB050A22;14
S90000;17HI001G19;100
S90000;17HI100G19;9
S90000;17MC200G21;10
S90000;17RC500E20;18
S90000;17RC500G21;17
S90000;17RC500P19;19
S90000;17RS500E20;16
S90000;17RS500FV21;19
S90000;17RS500G21;16
S90000;17RS500P19;11
S90000;17SE100FV21;10
S90000;17SH060SE21;8
S90000;17SH060SG21;8
S90000;17SH060SP21;8
S90000;17SH075E19;53
S90000;17SH075FV21;14
S90000;17SH075G21;95
S90000;17SH075P19;8
S90000;17SH300E19;8
S90000;17SH300FV21;9
S90000;17SH300G21;9
S90000;17SH300P19;8
S90000;17SH500E19;10
S90000;17SH500FV21;11
S90000;17SH500G21;15
S90000;17SH500P19;11
S90000;17VI100P19;10
S90000;20AR075O20;9
S90000;20DO050O20;11
S90000;20DO075CD20;11
S90000;20DO130HC20;10
S90000;20ET075CD20;6
S90000;20ET075HC20;7
S90000;20ET075OC20;8
S90000;20FE050H20;14
S90000;20GD250CD20;11
S90000;20GD250HC20;6
S90000;20GD250OC20;9
S28000;38BV050A19;4
S28000;38EC015A18;5
S28000;38EV075A21;6
S28000;38FT200A21;7
S28000;38MI150A22;8
S28000;38RC050A22;16
S28000;38UV030A18;16
S28000;38WC050A21;13
S28000;38WS030A21;6
S28000;49BO015CS19;129
S28000;49CP020K22;27
S28000;49DC004I20;30
S28000;49DH004I20;31
S28000;49HD035A15;54
S28000;49LC020A20;11
S28000;49MA010K22;95
S28000;49OR005I21;129
S28000;52AF006G20;110
S28000;52AS006E19;68
S28000;52AS006FV21;71
S28000;52AS006G21;181
S28000;52AS006P19;66
S28000;52BY001I19;154
S28000;52CD0015A18;56
S28000;52CL0015K21;47
S28000;52CP0015I19;88
S28000;52CP006K22;370
S28000;52CV0015K22;286
S28000;52DB001I20;147
S28000;52DC0015I20;208
S28000;52DE001I21;186
S28000;52DF002I17;342
S28000;52DH001I20;204
S28000;52DH001I22;119
S28000;52DL002I21;143
S28000;52DS001I20;45
S28000;52ER002I21;273
S28000;52FP0015I19;64
S28000;52GD0015A18;70
S28000;52HD006A18;262
S28000;52HS001I17;54
S28000;52HS004A18;111
S28000;52LC006A20;456
S28000;52LGEBAG19;88
S28000;52LGEBOX18;6
S28000;52LGENSA21;121
S28000;52LT002R21;106
S28000;52MA003K22A;227
S28000;52MC006G21;163
S28000;52MGEBAG19;30
S28000;52MGEBOX18;17
S28000;52MGENSA21;97
S28000;52MOCOL216;1
S29000;49HD035A15;65
S29000;49LC035CB21;81
S29000;49LD030I21;5
S29000;49MA010CB4;70
S29000;49MA010K22;35
S29000;49OR005I21;47
S29000;49ORALM22;2
S29000;49ORCHB22;3
S29000;49ORKAR22;2
S29000;49ORMEN22;1
S29000;49PADCL20;63
S29000;49PMENNO21;46
S29000;49POU1O21;46
S29000;49RCWM22;3
S29000;52AF006G20;82
S29000;52AS006E19;81
S29000;52AS006FV21;42
S29000;52AS006G21;56
S29000;52AS006P19;62
S29000;52BY001I19;154
S29000;52CD0015A18;51
S29000;52CL0015K21;35
S29000;52CP0015I19;7
S29000;52CRA1C22;2
S29000;52CRA2C22;2
S29000;52CRA3C22;2
S29000;52CRA4C22;2
S29000;52CV0015K22;139
S29000;52DB001I20;81
S29000;52DE001I21;53
S29000;52DF002I17;59
S29000;52DH001I20;29
S29000;52DH001I22;56
S29000;52DL002I21;126
S29000;52DS001I20;38
S29000;52ER002I21;377
S29000;52ET001O21;77
S29000;52EV002I19;50
S29000;52GD0015A18;52
S29000;52HS004A18;61
S29000;52LGEBOX18;2
S29000;52LGENSA21;107
S29000;52LT002R21;84
S29000;52MA003K22A;25
S29000;52MC006G21;59
S29000;52MGEBOX18;11
S29000;52MGENSA21;85
S29000;52MMB1NO22;3
S29000;52MMB2NO22;3
S29000;52MMB3NO22;3
S29000;52MOCOL316;4
S29000;52MS001I20;38
S29000;52OR001I21;76
S24000;17SE100FV21;16
S24000;17SH060SE21;3
S24000;17SH060SG21;4
S24000;17SH060SP21;3
S24000;17SH075G21;5
S24000;17SH300E19;9
S24000;17SH300FV21;9
S24000;17SH300G21;6
S24000;17SH300P19;6
S24000;17SH500E19;13
S24000;17SH500FV21;15
S24000;17SH500G21;13
S24000;17SH500P19;11
S24000;17VI100P19;4
S24000;20AR075O20;7
S24000;20DO050O20;6
S24000;20DO075CD20;10
S24000;20DO130HC20;5
S24000;20ET075CD20;5
S24000;20ET075HC20;5
S24000;20ET075OC20;4
S24000;20FE050H20;4
S24000;20GD250CD20;6
S24000;20GD250HC20;10
S24000;20GD250OC20;9
S24000;20GD500HC20;8
S24000;20HR050H20;8
S24000;20NV150H20;8
S24000;20SA050CD20;4
S24000;20SA050HC20;4
S24000;20SA050O20;3
S24000;24BL012CB5;11
S24000;24BL012R22;9
S24000;24BR050CB6;10
S24000;24BR050R22;11
S24000;24ET075CB21;8
S24000;24ET075R22;6
S24000;24GD250CB21;10
S24000;24GD250R22;12
S24000;24GD500R22;9
S24000;24LC250CB4;14
S24000;24LC250R22;10
S24000;24MA030CB4;20
S24000;24MA030P15;5
S24000;24MA030R22;20
S24000;24MA030RA19;3
S24000;24MA030RV19;4
S24000;24MA075CB4;14
S24000;24MA075P15;3
S24000;24MA075R22;10
S24000;24MA150R22;12
S24000;24RG500R22;19
S24000;24SA050CB21;10
S21000;24MA030RV19;2
S21000;24MA075CB4;10
S21000;24MA075P15;9
S21000;24MA075R22;4
S21000;24MA150R22;9
S21000;24RG500CB21;17
S21000;24RG500R22;12
S21000;24RO010CB4;4
S21000;24SA050CB21;7
S21000;24SA050R22;6
S21000;27BP050I19;6
S21000;27BY015I19;9
S21000;27CP050I19;6
S21000;27DB015I20;9
S21000;27DC050I20;17
S21000;27DCB060I17;9
S21000;27DE015I21;11
S21000;27DF125I17;7
S21000;27DH015I22;3
S21000;27DH030I20;2
S21000;27DH030I22;13
S21000;27DL200I21;10
S21000;27DS030I20;9
S21000;27ER015I22;14
S21000;27ER050I21;9
S21000;27ER150I21;9
S21000;27EV200I19;13
S21000;27HC050I18;4
S21000;27HCR050I16;5
S21000;27HS030I18;4
S21000;27HSR030I16;5
S21000;27MI150I20;4
S21000;27MP050I20;25
S21000;27MP150I20;10
S21000;27MQ065I15A;4
S21000;27MS050I20;10
S21000;27OR030I21;8
S21000;27OR050I21;25
S21000;27SP030I19;5
S21000;29ASH240A20;4
S21000;29BP100A19;5
S21000;29EC200A21;8
S21000;29GE200A21;5
S21000;29HD075A15;1
S21000;29HD250A15;6
S21000;29HD500A15;39
S21000;29HS100A22SM;15
S21000;29LC200A20US;26
S21000;29MA030A17;4
S21000;29MA075A21;2
S21000;29RC200A20;18
S21000;29RH500A15;18
S21000;29SA050A21;9
S28000;52MOCOL316;3
S28000;52MS001I20;60
S28000;52OR001I21;684
S28000;52PMGBOX18;32
S28000;52PS0015R21;73
S28000;52SAMPENV18;516
S28000;52SGENSA21GPS;87
S28000;52SH006E19;161
S28000;52SH006FV21;101
S28000;52SH006G21;186
S28000;52SH006P19;115
S28000;52SP001I19;201
S28000;52STINO21;1
S28000;52TS001I22;316
S28000;52TS001R21;78
S28000;52YGERIB20;2
S28000;98BBGD030VE4;10
S28000;98BBMA010KA3;41
S28000;ACPOCVE7T00016;4
S28000;ACPOCVEC00001;249
S28000;ACPOCVEC00002;183
S28000;ACPOCVEC00005;379
S28000;SGOCVE600004;68
S29000;52PMGBOX18;16
S29000;52PS0015R21;43
S29000;52RBO2NO22;3
S29000;52RBO3NO22;3
S29000;52RIBOXNO22;9
S29000;52SGENSA21GPS;196
S29000;52SH006E19;64
S29000;52SH006FV21;65
S29000;52SH006G21;78
S29000;52SH006P19;78
S29000;52SMB1NO22;2
S29000;52SMB2NO22;2
S29000;52SMSANO22;3
S29000;52SP001I19;45
S29000;52TS001I22;146
S29000;52TS001R21;12
S29000;52WRAPNO22;7
S29000;54VMWHSHOLIDAY22;1
S29000;98BBLC030VE5;26
S29000;ACPOCVE7T00016;1
S29000;HKOCVE6T00055;10
S29000;SGOCVE600004;28
S21000;29SH240A20;9
S21000;29VC240A22;1
S21000;38BV050A19;5
S21000;38EC015A18;9
S21000;38EV075A21;9
S21000;38FT200A21;7
S21000;38MI150A22;13
S21000;38RC050A22;8
S21000;38UV030A18;11
S21000;38WC050A21;3
S21000;38WS030A21;14
S21000;49BO015CS19;70
S21000;49CP020K22;1
S21000;49DC004I20;3
S21000;49DH004I20;18
S21000;49HD035A15;27
S21000;49LC020A20;23
S21000;49MA010K22;48
S21000;49OR005I21;80
S21000;49ORALM22;5
S21000;49ORCHB22;7
S21000;49ORKAR22;5
S21000;49ORMEN22;1
S27000;11BR100A20;3
S27000;11CD050A18;4
S27000;11CF100TR19;9
S27000;11CM030H19;8
S27000;11CM030H20;4
S27000;11CM030O21;9
S27000;11CM125I19;4
S27000;11EH150A18;9
S27000;11EP010H19;4
S27000;11ET010H20;9
S27000;11ET050H20;5
S27000;11ET075O21;4
S27000;11FAG10TR19;5
S27000;11GD050A18;2
S27000;11GD250H19;5
S27000;11GD250H20;8
S27000;11GD250O21;9
S27000;11GE075I20;5
S27000;11GM200I19;5
S27000;11GN195A18;7
S27000;11LC250H19;6
S27000;11LC250H20;2
S27000;11LC250O21;8
S27000;11LD200I19;4
S27000;11LH200I19;9
S27000;11LT300I20;5
S27000;11MH075A19;2
S27000;11MWC200I19;3
S27000;11PEP050I20;5
S27000;11PM100SH19;4
S27000;11PM100SI19;4
S27000;11PM100SL19;2
S27000;11SA050O21;6
S27000;11SA100H19;5
S27000;11SA100H20;8
S27000;11SD100CS19;10
S27000;11SD100SH19;9
S27000;11SD100SI19;6
S27000;11SD100SL19;5
S27000;11SP200CS19;10
S27000;11SP200SH19;3
S27000;11SP200SI19;3
S27000;11SP200SL19;2
S27000;11SV080I19;2
S27000;15AS250VA18;10
S27000;15BA500L16A;10
S27000;15DO050VA5;14
S27000;15ET010VB19;2
S27000;15ET100VA20;4
S27000;15ET100VB20;3
S27000;15ET100VBM22;4
S27000;15GD075L21;16
S27000;15GD250L21;13
S27000;15GD250VA20;6
S27000;15GD250VB21;8
S27000;15GD500VB21;9
S27000;15GM065L21;13
S27000;15GM065VB21;2
S27000;15GM280VB21;5
S27000;15GN300L21;6
S27000;15GS150VBL22;4
S27000;15HE005L14;4
S27000;15LC250L14;6
S27000;15LC250VA20;6
S27000;15LC250VB3;6
S27000;15LM300L11;3
S27000;15MA030VA5;3
S27000;15MA030VB3;10
S27000;15MA030VBL22;1
S27000;15MA075VB4;1
S27000;15RC500VB21;5
S27000;15RG500L14;5
S27000;15RG500VA20;12
S27000;15SA070VB6;4
S27000;15SE400VB5;2
S27000;15SH250VA20;5
S27000;17AF100G20;10
S27000;17AS075G21;9
S27000;17AS250E19;6
S27000;17AS250FV21;5
S27000;17AS250G21;6
S27000;17AS250P19;5
S27000;17AS500E19;5
S27000;17AS500FV21;10
S27000;17AS500G21;13
S27000;17AS500P19;5
S27000;17DO050F13;12
S27000;17ER075P19;6
S27000;17HB050A22;15
S27000;17HI001G19;38
S27000;17HI100G19;7
S27000;17MC200G21;9
S27000;17RC500E20;7
S27000;17RC500G21;16
S27000;17RC500P19;9
S27000;17RS500E20;10
S27000;17RS500FV21;14
S27000;17RS500G21;14
S27000;17RS500P19;12
S27000;17SE100FV21;5
S27000;17SH060SE21;4
S27000;17SH060SG21;4
S27000;17SH060SP21;6
S27000;17SH075G21;3
S27000;17SH300E19;6
S27000;17SH300FV21;5
S27000;17SH300G21;9
S27000;17SH300P19;5
S27000;17SH500E19;11
S27000;17SH500FV21;9
S27000;17SH500G21;15
S27000;17SH500P19;12
S27000;17VI100P19;4
S27000;20AR075O20;2
S27000;20DO050O20;2
S27000;20DO075CD20;5
S27000;20DO130HC20;8
S27000;20ET075CD20;3
S27000;20ET075HC20;5
S27000;20ET075OC20;1
S27000;20FE050H20;4
S27000;20GD250CD20;5
S27000;20GD250HC20;5
S27000;20GD250OC20;5
S27000;20GD500HC20;5
S27000;20HR050H20;4
S27000;20NV150H20;8
S27000;20SA050HC20;4
S27000;20SA050O20;3
S27000;24BL012CB5;10
S27000;24BL012R22;9
S27000;24BR050CB6;9
S27000;24BR050R22;7
S27000;24ET075CB21;7
S27000;24ET075R22;10
S00;27CN050I14;2
S10;52AF006G20;82
S10;52AS006E19;78
S10;52AS006FV21;86
S10;52AS006G21;84
S10;52AS006P19;135
S10;52BY001I19;264
S10;52CD0015A18;44
S10;52CP0015I19;86
S10;52CP006K22;102
S10;52CRA1C22;3
S10;52CRA2C22;3
S10;52CRA3C22;3
S10;52CRA4C22;3
S10;52CV0015K22;102
S10;52DB001I20;111
S10;52DC0015I20;26
S10;52DE001I21;54
S10;52DF002I17;13
S10;52DH001I20;5
S10;52DH001I22;38
S10;52DL002I21;157
S10;52DS001I20;64
S10;52ER002I21;540
S10;52FP0015I19;31
S10;52GD0015A18;25
S10;52CONSTL20;1
S10;52HD006A18;160
S10;52HS001I17;42
S10;52HS004A18;100
S10;52LC006A20;111
S10;52LGEBAG19;4
S10;52LGEBOX18;4
S10;52LGENSA21;80
S10;52LT002R21;216
S10;52MA003K22A;140
S10;52MC006G21;89
S10;52MGEBAG19;30
S10;52MGEBOX18;14
S10;52MGENSA21;94
S10;52MMB1NO22;10
S10;52MMB2NO22;10
S10;52MMB3NO22;10
S10;52MOCOL216;1
S10;52MOCOL316;3
S10;52MS001I20;178
S10;52OR001I21;170
S10;52PMGBOX18;21
S10;52PS0015R21;100
S10;52RBO2NO22;4
S10;52RBO3NO22;4
S10;52RIBOXNO22;30
S10;52SGEBAG19;27
S10;52SGENSA21GPS;96
S24000;52SGENSA21GPS;119
S27000;24GD250CB21;6
S27000;24GD250R22;9
S27000;24GD500R22;7
S27000;24LC250CB4;8
S27000;24LC250R22;9
S27000;24MA030CB4;13
S27000;24MA030P15;2
S27000;24MA030R22;15
S27000;24MA030RA19;4
S27000;24MA030RV19;4
S27000;24MA075CB4;8
S27000;24MA075P15;5
S27000;24MA075R22;3
S27000;24MA150R22;11
S27000;24RG500R22;11
S27000;24SA050CB21;7
S27000;24SA050R22;8
S27000;27BP050I19;1
S27000;27BY015I19;4
S27000;27CP050I19;11
S27000;27DB015I20;8
S27000;27DC050I20;13
S27000;27DCB060I17;6
S27000;27DE015I21;5
S27000;27DF125I17;11
S27000;27DH015I22;7
S27000;27DH030I20;4
S27000;27DH030I22;12
S27000;27DL200I21;8
S27000;27DS030I20;4
S27000;27ER015I22;13
S27000;27ER050I21;8
S27000;27ER150I21;6
S27000;27EV200I19;7
S27000;27FP050I19;1
S27000;27HC050I18;4
S27000;27HCR050I16;5
S27000;27HSR030I16;4
S27000;27MI150I20;3
S27000;27MP050I20;3
S27000;27MP150I20;8
S27000;27MQ065I15A;3
S27000;27MS050I20;3
S27000;27OR030I21;12
S27000;27OR050I21;15
S27000;27SP030I19;4
S27000;29ASH240A20;3
S27000;29BP100A19;4
S27000;29EC200A21;10
S27000;29GE200A21;11
S27000;29HD075A15;1
S27000;29HD250A15;9
S27000;29HD500A15;23
S90000;20GD500HC20;12
S90000;20HR050H20;9
S90000;20NV150H20;12
S90000;20SA050CD20;9
S90000;20SA050HC20;11
S90000;20SA050O20;6
S90000;24BL012CB5;10
S90000;24BL012R22;1
S90000;24BR050CB6;11
S90000;24BR050R22;8
S90000;24ET075CB21;7
S90000;24ET075R22;8
S90000;24GD075CB5;32
S90000;24GD250CB21;11
S90000;24GD250R22;8
S90000;24GD500R22;13
S90000;24GM030C21;1
S90000;24LC075R22;145
S90000;24LC250CB4;10
S90000;24LC250CBL22;3
S90000;24LC250R22;6
S90000;24MA030CB4;3
S90000;24MA030CBL22;3
S90000;24MA030P15;10
S90000;24MA030R22;9
S90000;24MA030RA19;9
S90000;24MA030RE19;10
S90000;24MA030RV19;8
S90000;24MA030S6;1
S90000;24MA075CB4;10
S90000;24MA075P15;10
S90000;24MA075R18;24
S90000;24MA075R22;16
S90000;24MA150R22;10
S90000;24RG500CB21;20
S90000;24RG500R22;13
S90000;24RO010CB4;1
S90000;24SA050CB21;9
S90000;24SA050R22;9
S90000;27BP050I19;10
S90000;27BY015I19;12
S90000;27CP050I19;10
S90000;27DB015I20;10
S90000;27DC050I20;6
S90000;27DCB060I17;6
S90000;27DE015I21;7
S90000;27DF125I17;7
S90000;27DH015I20;3
S90000;27DH015I22;2
S90000;27DH030I20;8
S90000;27DH030I22;20
S90000;27DL200I21;11
S90000;27DS030I20;10
S27000;29HS100A22SM;12
S27000;29LC200A20US;7
S27000;29MA030A17;7
S27000;29MA075A21;10
S27000;29RC200A20;21
S27000;29RH500A15;32
S27000;29SA050A21;2
S27000;29SE125A21;9
S27000;29SH240A20;5
S27000;29VC240A22;9
S27000;38BV050A19;5
S27000;38EC015A18;4
S27000;38EV075A21;7
S27000;38FT200A21;1
S27000;38MI150A22;15
S27000;38RC050A22;6
S27000;38UV030A18;8
S27000;38WC050A21;7
S27000;38WM065A18;2
S27000;38WS030A21;11
S27000;49BO015CS19;16
S27000;49CP020K22;1
S27000;49DC004I20;1
S27000;49HD035A15;3
S27000;49LD030I21;1
S27000;49MA010K22;17
S27000;49OR005I21;61
S27000;49ORALM22;5
S27000;49ORCHB22;5
S27000;49ORKAR22;5
S27000;49ORMEN22;1
S27000;52AF006G20;142
S27000;52AS006E19;68
S27000;52AS006FV21;38
S27000;52AS006G21;155
S27000;52AS006P19;133
S27000;52BY001I19;213
S27000;52CD0015A18;40
S27000;52CL0015K21;18
S27000;52CP0015I19;36
S27000;52CP006K22;232
S27000;52CRA1C22;2
S27000;52CRA2C22;2
S27000;52CRA3C22;2
S27000;52CRA4C22;2
S27000;52CV0015K22;122
S27000;52DB001I20;115
S27000;52DC0015I20;147
S27000;52DE001I21;61
S27000;52DF002I17;53
S27000;52DH001I20;105
S27000;52DH001I22;141
S27000;52DL002I21;165
S27000;52DS001I20;62
S27000;52ER002I21;384
S27000;52FP0015I19;88
S27000;52GD0015A18;32
S27000;52HD006A18;160
S27000;52HS001I17;67
S27000;52HS004A18;136
S27000;52LC006A20;238
S27000;52LGEBAG19;74
S27000;52LGEBOX18;3
S27000;52LGENSA21;105
S27000;52LT002R21;36
S27000;52MA003K22A;152
S27000;52MC006G21;250
S27000;52MGEBAG19;1
S27000;52MGEBOX18;9
S27000;52MGENSA21;45
S27000;52MMB1NO22;7
S27000;52MMB2NO22;7
S27000;52MMB3NO22;7
S27000;52MOCOL316;2
S27000;52MS001I20;114
S27000;52OR001I21;130
S27000;52PMGBOX18;4
S27000;52PS0015R21;76
S27000;52RBO2NO22;3
S27000;52RBO3NO22;3
S27000;52RIBOXNO22;24
S27000;52SGENSA21;1
S27000;52SGENSA21GPS;67
S27000;52SH006E19;133
S27000;52SH006FV21;103
S27000;52SH006G21;185
S27000;52SH006P19;48
S27000;52SMB1NO22;2
S27000;52SMB2NO22;2
S27000;52SMSANO22;5
S27000;52SP001I19;68
S27000;52TS001I22;84
S27000;52TS001R21;92
S27000;52WRAPNO22;5
S27000;52YGERIB20;1
S27000;54VMWHSHOLIDAY22;1
S27000;ACPOCVEC00001;208
S27000;ACPOCVEC00002;51
S27000;ACPOCVEC00003;100
S27000;ACPOCVEC00005;201
S27000;SGOCVE600004;16
S24000;24SA050R22;9
S24000;27BP050I19;5
S24000;27BY015I19;5
S24000;27CP050I19;11
S24000;27DB015I20;11
S24000;27DC050I20;12
S24000;27DCB060I17;4
S24000;27DE015I21;10
S24000;27DF125I17;15
S24000;27DH015I22;16
S24000;27DH030I22;14
S24000;27DL200I21;6
S24000;27DS030I20;4
S24000;27ER015I22;14
S24000;27ER050I21;3
S24000;27ER150I21;14
S24000;27EV200I19;10
S24000;27HC050I18;4
S24000;27HCR050I16;4
S24000;27HS030I18;4
S24000;27HSR030I16;3
S24000;27MI150I20;3
S24000;27MP050I20;5
S24000;27MP150I20;9
S24000;27MQ065I15A;4
S24000;27MS050I20;9
S24000;27OR030I21;18
S24000;27OR050I21;24
S24000;27SP030I19;4
S24000;29ASH240A20;4
S24000;29BP100A22;3
S24000;29EC200A21;9
S24000;29GE200A21;21
S24000;29HD075A15;9
S24000;29HD250A15;14
S24000;29HD500A15;32
S24000;29HS100A22SM;9
S24000;29LC200A20US;25
S24000;29MA030A17;6
S24000;29MA075A21;17
S24000;29RC200A20;23
S24000;29RH500A15;30
S24000;29SA050A21;17
S24000;29SE125A21;10
S24000;29SH240A20;12
S24000;29VC240A22;9
S24000;38BV050A19;5
S24000;38EC015A18;2
S24000;38EV075A21;4
S24000;38FT200A21;4
S24000;38MI150A22;8
S24000;38RC050A22;14
S24000;38UV030A18;10
S90000;27ER015I22;13
S90000;27ER050I21;11
S90000;27ER150I21;6
S90000;27EV200I19;11
S90000;27HC050I18;5
S90000;27HCR050I16;5
S90000;27HS030I18;5
S90000;27HSR030I16;6
S90000;27MI150I20;10
S90000;27MP050I20;11
S90000;27MP150I20;17
S90000;27MQ065I15A;7
S90000;27MS050I20;10
S90000;27OR030I19;35
S90000;27OR030I21;9
S90000;27OR050I21;11
S90000;27SP030I19;10
S90000;27TS001I20;679
S90000;29ASH240A20;8
S90000;29BP100A22;11
S90000;29EC200A21;11
S90000;29GE200A21;11
S90000;29HD075A15;41
S90000;29HD250A15;12
S90000;29HD500A15;48
S90000;29HS100A21;9
S90000;29HS100A22SM;2
S90000;29LC200A20US;18
S90000;29MA030A17;11
S90000;29MA075A21;12
S90000;29RC200A20;33
S90000;29RH500A15;64
S90000;29SA050A21;5
S90000;29SE125A21;10
S90000;29SH075A20;122
S90000;29SH240A20;6
S90000;29VC240A16;13
S90000;29VC240A22;12
S90000;38BV050A19;10
S90000;38EC015A18;8
S90000;38EV075A21;10
S90000;38FT200A18;20
S90000;38FT200A21;11
S90000;38MI150A18;4
S90000;38MI150A22;11
S90000;38RC050A18;4
S90000;38RC050A22;8
S90000;38UV030A18;9
S90000;38WC050A18;35
S90000;38WC050A21;10
S90000;38WS030A18;22
S90000;38WS030A21;9
S90000;49AF015G20;160
S24000;38WC050A21;8
S24000;38WM065A18;1
S24000;38WS030A21;9
S24000;49BO015CS19;21
S24000;49CP020K22;9
S24000;49DC004I20;4
S24000;49HD035A15;5
S24000;49LC020A20;7
S24000;49LD030I21;4
S24000;49MA010K22;30
S24000;49OR005I21;87
S24000;49ORALM22;5
S24000;49ORCHB22;8
S24000;49ORKAR22;5
S24000;49ORMEN22;1
S24000;52AF006G20;209
S24000;52AS006E19;215
S24000;52AS006FV21;133
S24000;52AS006G21;198
S24000;52AS006P19;90
S24000;52BY001I19;84
S24000;52CD0015A18;71
S24000;52CL0015K21;102
S24000;52CP0015I19;122
S24000;52CP006K22;367
S24000;52CRA1C22;3
S24000;52CRA2C22;3
S24000;52CRA3C22;3
S24000;52CRA4C22;3
S24000;52CV0015K22;134
S24000;52DB001I20;160
S24000;52DC0015I20;355
S24000;52DE001I21;322
S24000;52DF002I17;278
S24000;52DH001I22;239
S24000;52DL002I21;175
S24000;52DS001I20;84
S24000;52ER002I21;464
S24000;52ER006P19;1
S24000;52GD0015A18;67
S24000;52HD006A18;319
S24000;52HS001I17;127
S24000;52HS004A18;113
S24000;52LASANO21;120
S24000;52LC006A20;375
S24000;52LGEBAG19;56
S24000;52LGEBOX18;11
S24000;52LGENSA21;74
S24000;52LT002R21;94
S24000;52MA003K22A;454
S24000;52MC006G21;163
S24000;52MGEBAG19;77
S24000;52MGEBOX18;13
S24000;52MGENSA21;123
S24000;52MMB1NO22;15
S24000;52MMB2NO22;15
S24000;52MMB3NO22;15
S24000;52MOCOL216;1
S24000;52MOCOL316;4
S24000;52MS001I20;266
S24000;52OR001I21;338
S24000;52PMGBOX18;14
S24000;52PS0015R21;101
S24000;52RBO2NO22;6
S24000;52RBO3NO22;6
S24000;52RIBOXNO22;45
S90000;49BM010K19;27
S90000;49BO015CS19;115
S90000;49CL1SA18;121
S90000;49CM030I19;62
S90000;49CP004I19;8
S90000;49CP008I19;28
S90000;49CP020K22;11
S90000;49DB004I20;30
S90000;49DC004I20;8
S90000;49DC008I20;16
S90000;49DH004I20;51
S90000;49DH004I22;30
S90000;49HD035A15;91
S90000;49IC1POU20;14
S90000;49IC2POU20;47
S90000;49IC3POU20;27
S90000;49LC020A20;18
S90000;49LD030I20;26
S90000;49LD030I21;8
S90000;49MA010A17;19
S90000;49MA010A21X;10
S90000;49MA010CB4;18
S90000;49MA010K22;79
S90000;49MA010L16;95
S90000;49MA010VB3;13
S90000;49MASKRS21;26
S90000;49MR010K14;46
S90000;49MS008I20;169
S90000;49MWC030I19;101
S90000;49OR005I21;10
S90000;49PFCWC21;40
S90000;49PO1NH18;188
S90000;49PO2HER20;1
S90000;49PO2RS21;36
S90000;49POCKNO21;125
S90000;49POU1O21;93
S90000;49POUCB21;15
S90000;49POUCH2NO21;97
S90000;49POUHE22;39
S90000;49POUID20;14
S90000;49POUIS19;23
S90000;49RCWM22;45
S90000;49SH035E21;198
S90000;49TOBACH20;67
S90000;49TOTMC20;40
S90000;49TOTWC21;90
S90000;49TRAVNO21;81
S90000;52AF006G20;144
S90000;52AS006E19;318
S90000;52AS006FV21;391
S90000;52AS006G21;361
S90000;52AS006P19;300
S90000;52BOXMM22;52
S90000;52CL0015K21;221
S90000;52CP0015I19;285
S90000;52CP006K22;363
S90000;52CV0015K22;175
S90000;52DB001I20;207
S90000;52DC0015I20;172
S90000;52DE001I21;100
S90000;49PWPBM22;7
S90000;49PO2SA19;30
S90000;49PI010K18;32
S90000;49TFACH18;20
S90000;52DF002I17;408
S90000;52DH001I22;451
S90000;52DL002I21;248
S90000;52DS001I20;225
S90000;52ER002I21;154
S90000;52ET001O21;1
S90000;52FP0015I19;100
S90000;52HCTM21;25
S90000;52HCTM22;32
S90000;52HD006A18;520
S90000;52HR004G17;100
S90000;52HS004A18;300
S90000;52LC006A20;506
S90000;52LGEBOX18;32
S90000;52LT002R21;93
S90000;52MA003K16A;327
S90000;52MA003K22A;477
S90000;52MC006G21;100
S90000;52MGEBOX18;6
S90000;52MMBYNO19;85
S90000;52MOCOL316;27
S90000;52MS001I20;378
S90000;52OR001I21;451
S90000;52PMGBOX18;4
S90000;52PS0015R21;100
S90000;52SH006E19;267
S90000;52SH006FV21;318
S90000;52SH006G21;243
S90000;52SH006P19;311
S90000;52SP001I19;302
S90000;52TBO1M21;54
S90000;52TBO2M21;31
S90000;52TS001I22;337
S90000;52TS001R21;57
S90000;98BBACLUFNT1;9
S90000;98BBGD050VE2;70
S90000;98BBHD035A0;140
S90000;98BBHD050A0;134
S90000;98BBSA050LT1;144
S90000;98BBSH035AR2;50
S90000;98BBSH050A0;71
S90000;98BBSH050AR2;86
S90000;HKOCVE6T00055;74
S90000;J9517;9
S90000;JIMPN16;56
S90000;SGOCVE600005;1
S90000;SGOCVKI00176;6
S90000;SGOCVKI00187;1
S90000;SGOCVKI00188;1
S90000;SGOCVKI00190;1
S90000;SGOCVKI00191;1
S90000;SGOCVKI00198;1
S90000;SGOCVKI00204;4
S90000;SGOCVKI00208;1
S10;52SH006E19;62
S24000;52SH006E19;185
S10;52SH006FV21;242
S24000;52SH006FV21;222
S10;52SH006G21;74
S24000;52SH006G21;150
S10;52SH006P19;158
S24000;52SH006P19;160
S10;52SMB1NO22;3
S24000;52SMB1NO22;4
S10;52SMB2NO22;3
S24000;52SMB2NO22;4
S10;52SMSANO22;7
S24000;52SMSANO22;7
S10;52SP001I19;175
S24000;52SP001I19;78
S24000;52STINO21;1
S10;52TS001I22;133
S24000;52TS001I22;182
S10;52TS001R21;73
S24000;52TS001R21;93
S10;52WRAPNO22;5
S24000;52WRAPNO22;5
S24000;52YGERIB20;1
S10;54VMWHSHOLIDAY22;1
S24000;54VMWHSHOLIDAY22;1
S10;98BBGD030VE4;55
S10;98BBMA010KA3;50
S10;ACPOCVEC00001;168
S24000;ACPOCVEC00001;107
S10;ACPOCVEC00002;181
S24000;ACPOCVEC00002;154
S10;ACPOCVEC00005;119
S24000;ACPOCVEC00005;248
S10;SGOCVE600004;10
S24000;SGOCVE600004;21
