S15;01CM500K20;11
S27000;01CM500K20;7
S28000;01CM500K20;14
S15;01CP200K22;15
S27000;01CP200K22;10
S28000;01CP200K22;10
S15;01HD250K17;1
S27000;01HD250K17;5
S28000;01HD250K17;8
S15;01PI075K18;2
S27000;01PI075K18;4
S28000;01PI075K18;3
S27000;01SA050KL20;3
S15;01SL0045K13;21
S27000;01SL0045K13;11
S28000;01SL0045K13;25
S15;11CM030O21;12
S27000;11CM030O21;12
S28000;11CM030O21;14
S15;11GD050A18;7
S27000;11GD050A18;4
S28000;11GD050A18;9
S15;11LC250O21;7
S27000;11LC250O21;15
S28000;11LC250O21;5
S15;11SA100H20;8
S27000;11SA100H20;6
S28000;11SA100H20;12
S15;15BA500L16A;14
S27000;15BA500L16A;4
S28000;15BA500L16A;13
S15;15ET100VB20;4
S27000;15ET100VB20;6
S28000;15ET100VB20;3
S15;15GN300L11;12
S27000;15GN300L11;11
S28000;15GN300L11;7
S15;15MA030VA5;1
S27000;15MA030VA5;5
S28000;15MA030VA5;4
S15;17AS250G21;9
S27000;17AS250G21;6
S28000;17AS250G21;9
S15;17AS500FV21;9
S27000;17AS500FV21;8
S28000;17AS500FV21;13
S15;17SH060SE21;4
S27000;17SH060SE21;7
S15;17SH500P19;17
S27000;17SH500P19;5
S15;01LT300K20;15
S27000;01LT300K20;12
S28000;01LT300K20;14
S15;01MA075K22;2
S27000;01MA075K22;17
S28000;01MA075K22;29
S15;01RV500K20;12
S27000;01RV500K20;3
S28000;01RV500K20;11
S15;01SA100VE20;19
S27000;01SA100VE20;10
S28000;01SA100VE20;25
S15;01SA300KRO22;11
S27000;01SA300KRO22;6
S28000;01SA300KRO22;13
S15;01SA500KRO22;9
S27000;01SA500KRO22;12
S28000;01SA500KRO22;11
S28000;01SA9000KV21;1
S28000;10EST250V21;35
S28000;10EST500V21;26
S15;11BG140SH19;4
S27000;11BG140SH19;3
S15;11CM030H20;7
S27000;11CM030H20;11
S28000;11CM030H20;20
S15;11GN195A18;10
S27000;11GN195A18;8
S28000;11GN195A18;11
S15;11LT300I20;3
S27000;11LT300I20;4
S28000;11LT300I20;3
S15;11SA100H19;9
S27000;11SA100H19;9
S28000;11SA100H19;7
S15;15LC250VB3;1
S27000;15LC250VB3;2
S28000;15LC250VB3;7
S27000;15MA075L11;2
S15;15RG500L14;14
S27000;15RG500L14;11
S28000;15RG500L14;12
S27000;17AS075E19;20
S15;17AS500E19;11
S27000;17AS500E19;11
S28000;17AS500E19;10
S27000;17CS150P19;2
S15;17SH500FV21;9
S27000;17SH500FV21;13
S28000;17SH500FV21;18
S27000;20ET075OC20;3
S28000;20ET075OC20;5
S15;24MA030RA19;3
S27000;24MA030RA19;6
S27000;01CP200K17;1
S15;01CV050K22;7
S27000;01CV050K22;5
S15;01PI030K18;3
S28000;01PI030K18;10
S15;11EH150A18;3
S27000;11EH150A18;3
S28000;11EH150A18;3
S15;11GD250H19;12
S27000;11GD250H19;5
S28000;11GD250H19;10
S15;11GD250H20;12
S27000;11GD250H20;10
S28000;11GD250H20;22
S15;11MH075A19;4
S27000;11MH075A19;4
S28000;11MH075A19;3
S15;11SD100SH19;3
S27000;11SD100SH19;5
S28000;11SD100SH19;9
S15;15GD250VA20;3
S27000;15GD250VA20;5
S27000;15RG500VA20;9
S28000;15RG500VA20;8
S15;17AS500P19;8
S27000;17AS500P19;6
S28000;17AS500P19;7
S15;17MC200G21;9
S27000;17MC200G21;3
S28000;17MC200G21;8
S15;17SH300E19;11
S27000;17SH300E19;7
S28000;17SH300E19;8
S15;17SH300P19;4
S27000;17SH300P19;8
S28000;17SH300P19;11
S15;17SH500G21;14
S27000;17SH500G21;19
S28000;17SH500G21;10
S15;24BL012R22;11
S27000;24BL012R22;11
S28000;24BL012R22;11
S15;24GD250R22;23
S27000;24GD250R22;21
S28000;24GD250R22;19
S15;24GD500R22;45
S27000;24GD500R22;12
S28000;24GD500R22;16
S15;27DCB060I17;2
S27000;27DCB060I17;7
S28000;27DCB060I17;4
S15;27DF125I17;10
S15;01BM050K19;3
S27000;01BM050K19;2
S28000;01BM050K19;1
S15;01BV050K16;4
S27000;01BV050K16;3
S28000;01BV050K16;2
S27000;01CV050K18;2
S15;01SA100LT20;15
S27000;01SA100LT20;9
S15;01SL500LV20;9
S27000;01SL500LV20;3
S28000;01SL500LV20;9
S15;11BG140SI19;4
S27000;11BG140SI19;5
S28000;11BG140SI19;2
S15;11CM125I19;1
S27000;11CM125I19;8
S28000;11CM125I19;10
S15;11SP200SI19;2
S27000;11SP200SI19;4
S28000;11SP200SI19;3
S27000;15ET100VA20;6
S28000;15ET100VA20;3
S15;15LM300L11;12
S27000;15LM300L11;4
S28000;15LM300L11;9
S15;15RC500VB21;17
S27000;15RC500VB21;7
S28000;15RC500VB21;34
S15;17AS250P19;11
S27000;17AS250P19;7
S28000;17AS250P19;5
S15;17HI001G19;90
S27000;17HI001G19;93
S28000;17HI001G19;106
S15;17SH060SG21;13
S27000;17SH060SG21;5
S28000;17SH060SG21;1
S15;20HR050H20;6
S27000;20HR050H20;4
S28000;20HR050H20;4
S15;20SA050O20;4
S27000;20SA050O20;4
S28000;20SA050O20;3
S15;24ET075R22;6
S27000;24ET075R22;6
S28000;24ET075R22;5
S15;24LC075R22;15
S27000;24LC075R22;11
S27000;24MA030CB4;17
S28000;24MA030RV19;4
S15;27DS030I20;11
S27000;27DS030I20;2
S28000;27DS030I20;6
S15;01HDR500K20;11
S27000;01HDR500K20;11
S28000;01HDR500K20;14
S15;01SA100LV20;21
S27000;01SA100LV20;17
S28000;01SA100LV20;15
S15;11CF100TR19;12
S27000;11CF100TR19;4
S28000;11CF100TR19;10
S15;11ET075O21;5
S27000;11ET075O21;5
S28000;11ET075O21;4
S15;11GE075I20;3
S27000;11GE075I20;2
S28000;11GE075I20;4
S15;11SD100SI19;11
S27000;11SD100SI19;4
S28000;11SD100SI19;3
S15;15GM065VB21;21
S27000;15GM065VB21;11
S28000;15GM065VB21;8
S15;15SA070VB6;1
S27000;15SA070VB6;5
S28000;15SA070VB6;2
S15;17ER075P19;11
S27000;17ER075P19;6
S28000;17ER075P19;11
S15;17RC500P19;8
S27000;17RC500P19;8
S28000;17RC500P19;1
S15;20DO050O20;9
S27000;20DO050O20;3
S28000;20DO050O20;1
S15;20FE050H20;3
S27000;20FE050H20;4
S28000;20FE050H20;3
S15;20GD250OC20;12
S27000;20GD250OC20;5
S28000;20GD250OC20;9
S15;20SA050CD20;8
S27000;20SA050CD20;9
S28000;20SA050CD20;9
S15;24MA030P15;7
S27000;24MA030P15;5
S28000;24MA030P15;9
S28000;27BP050I19;9
S15;27DL200I21;5
S27000;27DL200I21;5
S28000;27DL200I21;4
S15;27MP150I20;11
S27000;27MP150I20;4
S28000;27MP150I20;9
S15;27RM300I20;7
S27000;27RM300I20;5
S28000;27RM300I20;14
S15;01SA050KV20;4
S27000;01SA050KV20;11
S28000;01SA050KV20;11
S15;11BP100I19;3
S27000;11BP100I19;4
S28000;11BP100I19;7
S15;11BR100A20;4
S27000;11BR100A20;15
S28000;11BR100A20;3
S15;11HE005CS19;10
S27000;11HE005CS19;8
S28000;11HE005CS19;10
S15;11SD100CS19;7
S27000;11SD100CS19;6
S28000;11SD100CS19;11
S28000;15GD250VB17;1
S15;17AF100G20;13
S27000;17AF100G20;9
S28000;17AF100G20;11
S15;17AS500G21;10
S27000;17AS500G21;12
S28000;17AS500G21;13
S15;17HI100G19;10
S27000;17HI100G19;11
S28000;17HI100G19;16
S15;17SH075G21;71
S27000;17SH075G21;52
S28000;17SH075G21;166
S15;17VI100P19;7
S27000;17VI100P19;6
S28000;17VI100P19;3
S15;20ET075HC20;4
S27000;20ET075HC20;3
S28000;20ET075HC20;4
S15;20SA050HC20;3
S27000;20SA050HC20;4
S28000;20SA050HC20;3
S15;24BR050CB6;2
S28000;24BR050CB6;10
S27000;24GD250R20;1
S15;24RG500C20;6
S27000;24RG500C20;4
S28000;24RG500C20;37
S27000;24SA050CB6;4
S15;27DB015I20;10
S27000;27DB015I20;5
S28000;27DB015I20;23
S15;27MP050I20;12
S27000;27MP050I20;15
S28000;27MP050I20;31
S15;27OR050I21;2
S15;01CD250K17;6
S27000;01CD250K17;14
S28000;01CD250K17;34
S15;01CM300K20;5
S27000;01CM300K20;2
S28000;01CM300K20;2
S15;01LC250K17;3
S27000;01LC250K17;18
S28000;01LC250K17;11
S15;01SA250VE20;12
S27000;01SA250VE20;9
S28000;01SA250VE20;17
S15;01SL300VE20;3
S27000;01SL300VE20;5
S28000;01SL300VE20;9
S15;11ET010H20;3
S27000;11ET010H20;7
S28000;11ET010H20;11
S15;11PM100SL19;4
S27000;11PM100SL19;4
S15;11SP200CS19;2
S27000;11SP200CS19;8
S28000;11SP200CS19;10
S28000;15GD250VA20;19
S15;17SH300G21;1
S27000;17SH300G21;7
S28000;17SH300G21;7
S15;20DO075CD20;6
S28000;24GP010RJ21H;6
S15;24MA030R22;29
S27000;24MA030R22;15
S28000;24MA030R22;11
S15;24SA050R22;8
S27000;24SA050R22;6
S28000;24SA050R22;1
S15;27DH030I20;9
S27000;27DH030I20;15
S28000;27DH030I20;24
S15;27ER015I22;20
S27000;27ER015I22;15
S28000;27ER015I22;50
S15;27ER050I21;9
S27000;27ER050I21;8
S28000;27ER050I21;19
S15;27HSR030I16;2
S27000;27HSR030I16;4
S15;27MI150I20;2
S27000;27MI150I20;4
S28000;27MI150I20;2
S15;29GE200A21;7
S27000;29GE200A21;12
S15;01MA030K22;23
S27000;01MA030K22;19
S28000;01MA030K22;51
S15;01SB020K21;6
S27000;01SB020K21;11
S28000;01SB020K21;5
S15;11BH050A18;4
S27000;11BH050A18;1
S28000;11BH050A18;3
S15;11GD250HF22;18
S27000;11GD250HF22;15
S28000;11GD250HF22;13
S15;11PM100SI19;3
S27000;11PM100SI19;4
S28000;11PM100SI19;4
S15;11SV080I19;4
S27000;11SV080I19;3
S15;15ET010VB19;2
S27000;15ET010VB19;5
S28000;15ET010VB19;2
S15;15GD250VB21;3
S27000;15GD250VB21;8
S28000;15GD250VB21;19
S15;15SE400VB5;3
S27000;15SE400VB5;4
S28000;15SE400VB5;11
S15;17AS250E19;4
S27000;17AS250E19;7
S28000;17AS250E19;1
S15;20DO130HC20;4
S27000;20DO130HC20;3
S28000;20DO130HC20;2
S15;20NV150H20;6
S27000;20NV150H20;3
S28000;20NV150H20;11
S15;24GD250CB21;4
S27000;24GD250CB21;10
S28000;24GD250CB21;5
S15;27DE015I21;9
S27000;27DE015I21;5
S28000;27DE015I21;21
S15;27ER150I21;14
S27000;27ER150I21;16
S28000;27ER150I21;20
S15;29ASH240A20;4
S27000;29ASH240A20;4
S28000;29ASH240A20;11
S15;29HD250A15;11
S27000;29HD250A15;22
S28000;29HD250A15;32
S15;29RC200A20;27
S27000;29RC200A20;29
S15;01BM150K19;8
S27000;01BM150K19;8
S28000;01BM150K19;1
S15;01CPR200K22;18
S27000;01CPR200K22;12
S28000;01CPR200K22;18
S15;11CD050A18;12
S27000;11CD050A18;5
S28000;11CD050A18;12
S15;11ET050H20;4
S27000;11ET050H20;5
S28000;11ET050H20;3
S15;11SP200SH19;10
S27000;11SP200SH19;5
S28000;11SP200SH19;3
S15;15AS250VA18;11
S27000;15AS250VA18;4
S28000;15AS250VA18;1
S15;15GM280VB21;6
S27000;15GM280VB21;4
S28000;15GM280VB21;8
S15;15LC250VA20;5
S27000;15LC250VA20;5
S28000;15LC250VA20;9
S27000;15MA030L11;20
S28000;15MA030L11;7
S15;17AS250FV21;3
S27000;17AS250FV21;7
S28000;17AS250FV21;2
S15;17RS500P19;16
S27000;17RS500P19;14
S28000;17RS500P19;42
S15;20AR075O20;10
S27000;20AR075O20;4
S28000;20AR075O20;10
S27000;20MP030H20;4
S15;24RO010R18;1
S27000;24RO010R18;8
S28000;24RO010R18;3
S15;27CP050I19;9
S27000;27CP050I19;6
S28000;27CP050I19;12
S27000;27DL200I20;1
S28000;27DL200I20;6
S15;29HS100A21;12
S27000;29HS100A21;8
S28000;29HS100A21;15
S15;29VC240A22;12
S27000;29VC240A22;12
S28000;29VC240A22;9
S15;01CMR500K20;8
S27000;01CMR500K20;3
S28000;01CMR500K20;7
S15;01EC200K22;7
S27000;01EC200K22;7
S28000;01EC200K22;21
S15;01HF100K17;7
S27000;01HF100K17;2
S28000;01HF100K17;7
S15;01RL500K20;15
S27000;01RL500K20;12
S28000;01RL500K20;1
S28000;10P250V21;35
S28000;10P500V21;26
S15;11LC250H19;4
S27000;11LC250H19;10
S28000;11LC250H19;3
S15;11MWC200I19;2
S27000;11MWC200I19;2
S28000;11MWC200I19;3
S15;11PEP050I20;4
S27000;11PEP050I20;6
S28000;11PEP050I20;3
S15;15GM065L21;15
S27000;15GM065L21;9
S28000;15GM065L21;9
S15;15SH250VA20;6
S27000;15SH250VA20;4
S28000;15SH250VA20;8
S15;17RC500G21;7
S27000;17RC500G21;10
S28000;17RC500G21;21
S15;17SH300FV21;4
S27000;17SH300FV21;11
S15;24LC250CB4;9
S27000;24LC250CB4;9
S28000;24LC250CB4;5
S15;24MA075CB4;10
S27000;24MA075CB4;13
S28000;24MA075CB4;9
S15;27BP050I19;8
S15;27TS001I20;1
S27000;27TS001I20;80
S28000;27TS001I20;8
S15;29MA075A21;7
S27000;29MA075A21;10
S28000;29MA075A21;19
S15;38WM065A18;4
S27000;38WM065A18;2
S28000;38WM065A18;4
S15;01CL175K22;17
S27000;01CL175K22;15
S28000;01CL175K22;11
S15;01HV030K16;4
S27000;01HV030K16;5
S28000;01HV030K16;4
S15;01MA150K22;23
S27000;01MA150K22;15
S28000;01MA150K22;19
S15;01SE125K21;12
S27000;01SE125K21;4
S28000;01SE125K21;11
S15;11BG140CS19;5
S27000;11BG140CS19;6
S28000;11BG140CS19;11
S15;11EP010H19;3
S27000;11EP010H19;3
S28000;11EP010H19;2
S15;11GD250O21;12
S27000;11GD250O21;15
S28000;11GD250O21;18
S15;11MA030A20;12
S27000;11MA030A20;4
S28000;11MA030A20;4
S15;11MA030HF22;36
S27000;11MA030HF22;38
S28000;11MA030HF22;34
S15;15LC250L14;9
S27000;15LC250L14;10
S28000;15LC250L14;26
S15;15MA030VB3;11
S27000;15MA030VB3;8
S28000;15MA030VB3;11
S15;17RS500G21;35
S27000;17RS500G21;11
S28000;17RS500G21;41
S15;24BR050R22;19
S28000;24BR050R22;9
S15;24RG500R22;10
S27000;24RG500R22;9
S28000;24RG500R22;18
S15;27FP050I19;4
S27000;27FP050I19;5
S28000;27FP050I19;3
S15;27MS050I20;3
S27000;27MS050I20;6
S28000;27MS050I20;7
S15;29SA050A21;12
S27000;29SA050A21;7
S28000;29SA050A21;13
S15;49RCWM22;13
S28000;49RCWM22;6
S15;01EM075K20;4
S27000;01EM075K20;5
S28000;01EM075K20;4
S15;01MR030K14;11
S27000;01MR030K14;12
S28000;01MR030K14;22
S15;01SA250LT20;15
S27000;01SA250LT20;10
S28000;01SA250LT20;4
S15;01SL500VE20;12
S27000;01SL500VE20;6
S28000;01SL500VE20;10
S28000;11AS90005G21;1
S15;11BC100G21;18
S27000;11BC100G21;34
S28000;11BC100G21;13
S15;11LC250H20;8
S27000;11LC250H20;5
S15;11PM100SH19;4
S27000;11PM100SH19;4
S28000;11PM100SH19;2
S28000;15GD9000V21;1
S15;15RG500VA20;11
S15;17RC500E20;23
S27000;17RC500E20;9
S28000;17RC500E20;9
S15;17SE100FV21;13
S27000;17SE100FV21;9
S28000;17SE100FV21;25
S15;24MA030S6;4
S27000;24MA030S6;5
S28000;24MA030S6;8
S15;27HS030I18;4
S27000;27HS030I18;5
S28000;27HS030I18;4
S15;27SP030I19;3
S27000;27SP030I19;5
S28000;27SP030I19;4
S15;29MAV075A19;4
S27000;29MAV075A19;3
S28000;29MAV075A19;13
S15;38RC050A18;3
S28000;38RC050A18;11
S15;52CP006K22;193
S27000;52CP006K22;152
S28000;52CP006K22;396
S15;52HS001I17;118
S15;01CL050K21;7
S27000;01CL050K21;8
S28000;01CL050K21;5
S15;01SA250LV20;11
S27000;01SA250LV20;13
S28000;01SA250LV20;10
S15;11BO100CS19;12
S27000;11BO100CS19;12
S28000;11BO100CS19;12
S28000;11ET010O21;1
S15;11LH200I19;9
S27000;11LH200I19;6
S28000;11LH200I19;11
S15;11SA050O21;32
S27000;11SA050O21;4
S15;11SP200SL19;10
S27000;11SP200SL19;6
S28000;11SP200SL19;11
S24000;01LT300K20;8
S90000;01LT300K20;5
S24000;01MA075K22;10
S24000;01RV500K20;4
S90000;01RV500K20;14
S24000;01SA100VE20;13
S90000;01SA100VE20;7
S24000;01SA300KRO22;10
S90000;01SA300KRO22;10
S24000;01SA500KRO22;10
S90000;01SA500KRO22;9
S24000;11BG140SH19;3
S24000;11CM030H20;11
S90000;11CM030H20;10
S24000;11GN195A18;9
S90000;11GN195A18;4
S24000;11LT300I20;1
S90000;11LT300I20;10
S24000;11SA100H19;3
S90000;11SA100H19;11
S24000;15LC250VB3;8
S90000;15LC250VB3;3
S24000;15RG500L14;8
S90000;15RG500L14;1
S24000;17AS075E19;18
S90000;17AS075E19;139
S24000;17AS500E19;9
S90000;17AS500E19;6
S24000;17CS150P19;2
S90000;17CS150P19;6
S24000;17SH500FV21;14
S90000;17SH500FV21;3
S24000;20ET075OC20;3
S90000;20ET075OC20;5
S24000;24MA030RA19;9
S90000;24MA030RA19;9
S24000;24MA075R18;6
S90000;24MA075R18;8
S24000;24SA050CB21;7
S90000;24SA050CB21;10
S24000;27DC050I20;15
S90000;27DC050I20;11
S90000;27ER015I20;2
S24000;29HD500A15;24
S90000;29HD500A15;41
S24000;29RH500A15;8
S90000;29RH500A15;14
S24000;38EV075A21;13
S90000;38EV075A21;10
S90000;49CM030I19;116
S90000;49DH004I20;246
S24000;49GD035CB5;21
S90000;49GD035CB5;92
S15;15ET100VA20;3
S15;15GD250L14;9
S27000;15GD250L14;8
S28000;15GD250L14;15
S15;17RS500E20;39
S27000;17RS500E20;21
S28000;17RS500E20;33
S15;17SH060SP21;4
S27000;17SH060SP21;4
S28000;17SH060SP21;4
S15;20ET075CD20;4
S27000;20ET075CD20;4
S28000;20ET075CD20;4
S15;24ET075CB21;2
S27000;24ET075CB21;4
S28000;24ET075CB21;5
S15;24GD075R22;1
S15;27HC050I18;3
S27000;27HC050I18;2
S15;29LC200A20US;23
S27000;29LC200A20US;27
S28000;29LC200A20US;32
S28000;49MA010A17;1
S15;52BY001I19;197
S27000;52BY001I19;260
S28000;52BY001I19;223
S15;52MGEBAG19;174
S27000;52MGEBAG19;187
S28000;52MGEBAG19;100
S15;52OR001I21;424
S27000;52OR001I21;284
S15;01BK010K14;16
S27000;01BK010K14;11
S28000;01BK010K14;13
S15;01BL012K18;7
S27000;01BL012K18;8
S28000;01BL012K18;3
S27000;01CL200K17;2
S15;01CMJ075K21;9
S27000;01CMJ075K21;14
S28000;01CMJ075K21;8
S15;01HN0075K19;9
S27000;01HN0075K19;6
S15;01PI150K18;16
S27000;01PI150K18;8
S28000;01PI150K18;6
S15;01SL300LV20;4
S27000;01SL300LV20;8
S28000;01SL300LV20;5
S15;11EDT050HF22;8
S27000;11EDT050HF22;7
S28000;11EDT050HF22;8
S15;11FAG10TR19;7
S27000;11FAG10TR19;3
S28000;11FAG10TR19;12
S15;15MA075VB4;3
S27000;15MA075VB4;7
S28000;15MA075VB4;12
S15;17DO050F13;10
S27000;17DO050F13;10
S28000;17DO050F13;10
S15;20GD500HC20;10
S27000;20GD500HC20;12
S28000;20GD500HC20;52
S15;24MA030RV19;3
S27000;24MA030RV19;7
S28000;29HD9000A21;2
S28000;49LC020A20;49
S15;49OR005I21;47
S27000;49OR005I21;62
S28000;49OR005I21;75
S15;52GD0015A18;63
S27000;52GD0015A18;84
S28000;52GD0015A18;128
S15;52HCTM22;4
S28000;52HCTM22;15
S15;52MC006G21;160
S27000;52MC006G21;118
S28000;52MC006G21;93
S15;52SH006FV21;214
S27000;52SH006FV21;374
S15;01BP050K21;10
S27000;01BP050K21;3
S15;01HD500K20;13
S27000;01HD500K20;7
S28000;01HD500K20;9
S15;11BG140SL19;4
S27000;11BG140SL19;8
S28000;11BG140SL19;12
S15;11LB250HF22;14
S27000;11LB250HF22;12
S28000;11LB250HF22;10
S15;11SD100SL19;4
S27000;11SD100SL19;4
S28000;11SD100SL19;4
S28000;11SH90005G21;1
S15;15GD500VB21;13
S27000;15GD500VB21;8
S28000;15GD500VB21;14
S15;15HE005L14;3
S27000;15HE005L14;5
S28000;15HE005L14;13
S15;17RS500FV21;27
S27000;17RS500FV21;14
S28000;17RS500FV21;36
S15;17SH500E19;17
S24000;49MA010CB4;21
S90000;49MA010CB4;71
S90000;49MASKRS21;26
S90000;49PMENNO21;40
S90000;49PO1NH18;139
S90000;49TBOM22;18
S24000;52CV0015K22;168
S90000;52CV0015K22;200
S90000;52MA003K16A;327
S24000;52MS001I20;263
S90000;01CP100K21H;23
S24000;01SA050KV20;12
S90000;01SA050KV20;9
S24000;11BP100I19;4
S90000;11BP100I19;8
S24000;11BR100A20;4
S90000;11BR100A20;7
S24000;11HE005CS19;9
S90000;11HE005CS19;12
S24000;11SD100CS19;3
S90000;11SD100CS19;8
S90000;15CF150VBL21;12
S24000;15DF200VBL21;10
S90000;15DF200VBL21;27
S24000;17AF100G20;5
S24000;17AS500G21;7
S90000;17AS500G21;17
S24000;17HI100G19;8
S90000;17HI100G19;4
S24000;17SH075G21;37
S90000;17SH075G21;83
S24000;17VI100P19;4
S90000;17VI100P19;11
S24000;20ET075HC20;3
S90000;20ET075HC20;8
S24000;20SA050HC20;4
S90000;20SA050HC20;11
S24000;24BR050CB6;9
S90000;24BR050CB6;9
S90000;24GD250R20;4
S90000;24MA030R18;3
S24000;24RG500C20;8
S90000;24RG500C20;11
S24000;24SA050CB6;1
S90000;24SA050CB6;1
S24000;27DB015I20;11
S90000;27DB015I20;4
S24000;27MP050I20;11
S90000;27MP050I20;15
S24000;27OR050I21;2
S90000;27OR050I21;9
S24000;29BP100A19;3
S90000;29BP100A19;4
S90000;29HD250A21X;2
S90000;49HD035K17;1
S90000;49MA010L16;140
S24000;49SH035E21;7
S90000;49SH035E21;173
S24000;52AS006G21;194
S90000;52AS006G21;399
S24000;52BOXMM22;10
S90000;52BOXMM22;63
S24000;52LGENSA18;3
S90000;52MMBYNO19;85
S24000;52SGENSA21;142
S24000;52SP001I19;112
S90000;52SP001I19;202
S90000;98BBSH050AR2;86
S24000;01CD250K17;13
S90000;01CD250K17;7
S24000;01CM300K20;4
S90000;01CM300K20;9
S24000;01LC250K17;2
S90000;01LC250K17;10
S90000;01MA150K18;4
S24000;01SA250VE20;11
S90000;01SA250VE20;2
S24000;01SL300VE20;3
S90000;01SL300VE20;10
S24000;11ET010H20;5
S90000;11ET010H20;10
S90000;11PM100SL19;5
S24000;11SP200CS19;4
S90000;11SP200CS19;2
S90000;15GD250VA20;9
S90000;17SE125D15;23
S24000;17SH300G21;10
S90000;17SH300G21;7
S90000;20DO075CD20;9
S90000;24ET050R18;1
S24000;24MA030R22;20
S90000;24MA030R22;27
S24000;24SA050R22;7
S90000;24SA050R22;10
S24000;27DH030I20;4
S90000;27DH030I20;7
S24000;27ER015I22;19
S90000;27ER015I22;20
S24000;27ER050I21;10
S90000;27ER050I21;6
S24000;27HSR030I16;4
S90000;27HSR030I16;4
S24000;27MI150I20;3
S90000;27MI150I20;14
S24000;29GE200A21;18
S90000;29GE200A21;1
S24000;38FT200A21;6
S90000;38FT200A21;10
S24000;49MA010A21X;18
S90000;49MA010A21X;114
S90000;49PFCWC21;40
S90000;49POUCB21;23
S90000;49POUCH2NO21;97
S24000;52ER006P19;21
S24000;52K20BLAV21;2
S24000;52MGEBOX18;1
S90000;52MGEBOX18;22
S24000;52MGENSA21;148
S24000;52SH006G21;78
S90000;52SH006G21;478
S90000;98BBHD035A0;140
S90000;98BBHD050A0;25
S24000;01HDR500K20;7
S90000;01HDR500K20;14
S90000;01KTPWP21;32
S24000;01SA100LV20;7
S90000;01SA100LV20;10
S24000;11CF100TR19;1
S90000;11CF100TR19;10
S24000;11ET075O21;6
S90000;11ET075O21;7
S24000;11GE075I20;10
S90000;11GE075I20;7
S24000;11SD100SI19;3
S90000;11SD100SI19;14
S24000;15GM065VB21;10
S90000;15GM065VB21;15
S24000;15SA070VB6;4
S90000;15SA070VB6;7
S24000;17ER075P19;5
S90000;17ER075P19;6
S24000;17RC500P19;5
S90000;17RC500P19;12
S24000;20DO050O20;2
S90000;20DO050O20;8
S24000;20FE050H20;4
S90000;20FE050H20;15
S24000;20GD250OC20;8
S90000;20GD250OC20;6
S24000;20SA050CD20;3
S90000;20SA050CD20;8
S90000;24EF050R18;12
S24000;24MA030P15;8
S90000;24MA030P15;8
S90000;27BP050I19;8
S24000;27DL200I21;6
S90000;27DL200I21;12
S24000;27MP150I20;8
S90000;27MP150I20;12
S00;27CN050I14;2
S24000;27RM300I20;5
S90000;27RM300I20;8
S24000;29EC200A21;11
S90000;29EC200A21;9
S90000;38FT200A18;20
S24000;38WC050A21;7
S90000;38WC050A21;9
S90000;49CL1SA18;197
S24000;52CL0015K21;114
S90000;52CL0015K21;221
S90000;52ET001O21;6
S24000;52LC006A20;446
S90000;52LC006A20;734
S90000;98BBDF015IM0;2
S90000;98BBSH035AR2;114
S90000;98BBSH050A0;71
S24000;01CF050K22;9
S90000;01CF050K22;7
S90000;10BOWEB219;200
S90000;10BOWEB319;400
S90000;10BOWEB419;300
S90000;11BG140SH19;9
S24000;11CM030H19;6
S90000;11CM030H19;10
S90000;11EP050H19;3
S24000;11LD200I19;11
S90000;11LD200I19;9
S90000;15GC150VBL20;6
S90000;15MA030VAL21;76
S24000;15MA075L20;5
S90000;15MA075L20;12
S24000;17SH075G18;7
S24000;20GD250CD20;2
S90000;20GD250CD20;4
S24000;24MA150R22;6
S90000;24MA150R22;14
S24000;27BY015I19;9
S90000;27BY015I19;8
S24000;27DH015I20;13
S90000;27DH015I20;4
S24000;27OR030I21;14
S90000;27OR030I21;5
S90000;29MA030A21X;1
S90000;38WS030A18;22
S90000;49MR010K14;46
S90000;49PI010K18;94
S24000;52HD006A18;417
S90000;52HD006A18;520
S24000;52MA003K22A;364
S90000;52MA003K22A;200
S24000;01BM150K19;13
S90000;01BM150K19;10
S90000;01CP050K22;7
S27000;17SH500E19;20
S28000;17SH500E19;16
S27000;24MA030RE19;6
S15;24MA075P15;5
S27000;24MA075P15;6
S15;27MQ065I15A;4
S27000;27MQ065I15A;3
S28000;27MQ065I15A;4
S15;49MA010R18;1
S28000;49MS008I20;72
S27000;49PO2HER20;11
S15;52AS006P19;118
S27000;52AS006P19;318
S28000;52AS006P19;170
S15;52DE001I21;118
S27000;52DE001I21;64
S28000;52DE001I21;13
S15;52LGEBAG19;45
S27000;52LGEBAG19;119
S28000;52LGEBAG19;168
S15;52LGEBOX18;11
S27000;52LGEBOX18;8
S28000;52LGEBOX18;4
S28000;98BBSA050LT1;13
S15;ACPOCVE7T00015;25
S27000;ACPOCVE7T00015;22
S28000;24MA030RA19;9
S27000;24MA075R18;2
S28000;24MA075R18;5
S15;24SA050CB21;10
S27000;24SA050CB21;8
S28000;24SA050CB21;9
S15;27DC050I20;17
S27000;27DC050I20;4
S28000;27DC050I20;20
S27000;27ER015I20;4
S15;29HD500A15;33
S27000;29HD500A15;31
S28000;29HD500A15;44
S15;29RH500A15;47
S27000;29RH500A15;29
S28000;29RH500A15;56
S15;38EV075A21;10
S27000;38EV075A21;7
S28000;38EV075A21;26
S28000;49DH004I20;27
S15;49GD035CB5;59
S27000;49GD035CB5;37
S28000;49GD035CB5;94
S15;49MA010CB4;59
S27000;49MA010CB4;37
S28000;49MA010CB4;94
S27000;49PO1NH18;14
S20;01CV050K22;7
S20;01PI030K18;2
S20;11EH150A18;4
S20;11GD250H19;11
S20;11GD250H20;12
S20;11MH075A19;5
S20;11SD100SH19;6
S20;15GD250VA20;4
S20;15RG500VA20;11
S20;17AS500P19;8
S20;17SH300E19;4
S20;17SH500G21;9
S20;24BL012R22;17
S20;24GD250R22;30
S20;24GD500R22;20
S20;27DCB060I17;4
S20;27DF125I17;20
S20;27HCR050I16;3
S20;29SE125A21;7
S20;38BV050A19;2
S20;49HD035A15;89
S20;49POU1O21;18
S20;52CD0015A18;76
S20;52CP0015I19;128
S20;52SH006E19;233
S20;01LT300K20;12
S20;01MA075K22;12
S20;01RV500K20;18
S20;01SA100VE20;11
S20;01SA300KRO22;7
S20;01SA500KRO22;11
S20;11BG140SH19;3
S20;11CM030H20;12
S20;11GN195A18;8
S20;11LT300I20;7
S20;11SA100H19;9
S20;15LC250VB3;11
S20;15RG500L14;20
S20;17AS075E19;23
S20;17AS500E19;9
S20;17CS150P19;10
S20;17SH500FV21;10
S20;24MA030RA19;8
S20;24MA075R18;7
S20;24SA050CB21;15
S20;27DC050I20;9
S20;29HD500A15;48
S20;29RH500A15;48
S20;38EV075A21;11
S20;49DH004I20;53
S20;49GD035CB5;13
S20;49MA010CB4;13
S20;52AS006FV21;130
S20;52CV0015K22;174
S10;01BM150K19;5
S10;01CPR200K22;8
S10;11CD050A18;1
S10;11ET050H20;2
S10;11SP200SH19;4
S10;15AS250VA18;9
S10;15GM280VB21;3
S10;15LC250VA20;3
S10;15MA030L11;6
S10;17AS250FV21;6
S10;17RS500P19;24
S10;20AR075O20;5
S10;20MP030H20;5
S10;24RO010R18;4
S10;27CP050I19;15
S10;29HS100A21;12
S10;29VC240A22;12
S10;38MI150A18;3
S10;52FP0015I19;88
S10;52MIGEBAG19;275
S10;01CF050K22;17
S10;11CM030H19;6
S10;11GD250O21;21
S10;11LD200I19;6
S10;15MA075L20;10
S10;20GD250CD20;5
S10;24MA150R22;12
S10;27BY015I19;5
S10;27DH015I20;13
S10;27OR030I21;19
S10;52HD006A18;391
S10;52MA003K22A;213
S10;01LT300K20;8
S10;01MA075K22;12
S10;01RV500K20;14
S10;01SA100VE20;6
S10;01SA300KRO22;8
S10;01SA500KRO22;11
S10;11BG140SH19;5
S10;11CM030H20;12
S10;11GN195A18;9
S10;11LT300I20;7
S10;11SA100H19;11
S10;15LC250VB3;10
S10;15MA075L11;5
S10;15RG500L14;11
S10;17AS075E19;21
S10;17AS500E19;7
S10;17SH500FV21;14
S10;20ET075OC20;1
S10;24MA030RA19;4
S10;24SA050CB21;10
S10;27DC050I20;15
S10;29HD500A15;28
S29000;01CF050K22;20
S29000;11BG140SH19;6
S29000;11CM030H19;14
S29000;11LD200I19;11
S29000;15MA075L20;12
S29000;20GD250CD20;19
S29000;24MA150R22;14
S29000;27BY015I19;8
S29000;27DH015I20;20
S29000;27OR030I21;29
S29000;52HD006A18;251
S29000;52MA003K22A;17
S29000;01BM150K19;17
S29000;01CPR200K22;16
S29000;11CD050A18;14
S29000;11ET050H20;4
S29000;11SP200SH19;13
S29000;15AS250VA18;6
S29000;15GM280VB21;14
S29000;15LC250VA20;15
S29000;15MA030L11;7
S29000;17AS250FV21;8
S29000;17RS500P19;30
S29000;20AR075O20;9
S29000;24RO010R18;3
S29000;27CP050I19;16
S29000;27DL200I20;10
S29000;29HS100A21;21
S29000;29VC240A22;14
S29000;38MI150A18;3
S29000;52AS006FV21;54
S29000;52FP0015I19;34
S29000;01LT300K20;20
S29000;01MA075K22;14
S29000;01RV500K20;24
S29000;01SA100VE20;20
S29000;01SA300KRO22;21
S29000;01SA500KRO22;10
S29000;11CM030H20;17
S29000;11GN195A18;11
S29000;11LT300I20;12
S29000;11SA100H19;3
S29000;15LC250VB3;15
S29000;15RG500L14;24
S29000;17AS500E19;19
S29000;17SH500FV21;25
S29000;20ET075OC20;2
S29000;24MA030RA19;4
S29000;24MA075R18;8
S29000;24SA050CB21;21
S29000;27DC050I20;24
S29000;29HD500A15;65
S29000;29RH500A15;108
S21000;01LT300K20;11
S21000;01MA075K22;8
S21000;01RV500K20;8
S21000;01SA100VE20;10
S21000;01SA300KRO22;9
S21000;01SA500KRO22;14
S21000;11BG140SH19;3
S21000;11CM030H20;16
S21000;11GN195A18;8
S21000;11SA100H19;2
S21000;15LC250VB3;4
S21000;15RG500L14;14
S21000;17AS500E19;8
S21000;17SH500FV21;11
S21000;20ET075OC20;3
S21000;24MA030RA19;5
S21000;24MA075R18;6
S21000;24SA050CB21;8
S21000;27DC050I20;5
S21000;29HD500A15;28
S21000;29RH500A15;28
S21000;38EV075A21;3
S21000;49DH004I20;20
S21000;49GD035CB5;8
S21000;49MA010CB4;8
S21000;52AS006FV21;139
S21000;52CV0015K22;156
S21000;52MS001I20;95
S21000;01CF050K22;7
S21000;11CM030H19;9
S21000;11LD200I19;14
S21000;15MA075L20;7
S21000;20GD250CD20;2
S21000;24MA150R22;11
S21000;27BY015I19;4
S21000;27DH015I20;9
S21000;27OR030I21;16
S21000;52HD006A18;328
S21000;52MA003K22A;320
S21000;01BM150K19;10
S21000;01CPR200K22;12
S21000;11CD050A18;3
S21000;11ET050H20;7
S21000;15AS250VA18;4
S21000;15GM280VB21;3
S21000;15LC250VA20;9
S21000;15MA030L11;3
S21000;17AS250FV21;6
S21000;17RS500P19;17
S21000;20AR075O20;2
S21000;24RO010R18;5
S21000;27CP050I19;12
S21000;29HS100A21;11
S15;52AS006FV21;214
S15;52CV0015K22;39
S27000;52CV0015K22;173
S28000;52CV0015K22;339
S27000;52EV002I19;11
S15;52MA003K16A;165
S15;52MS001I20;116
S27000;52MS001I20;206
S28000;52MS001I20;161
S27000;27DF125I17;14
S28000;27DF125I17;30
S15;27HCR050I16;3
S27000;27HCR050I16;4
S28000;27HCR050I16;2
S15;29SE125A21;14
S27000;29SE125A21;8
S28000;29SE125A21;2
S15;38BV050A19;2
S27000;38BV050A19;1
S28000;38BV050A19;1
S15;49HD035A15;25
S27000;49HD035A15;15
S28000;49HD035A15;73
S28000;49POU1O21;36
S15;52CD0015A18;80
S27000;52CD0015A18;111
S28000;52CD0015A18;138
S15;52CP0015I19;135
S27000;52CP0015I19;179
S28000;52CP0015I19;256
S15;52SH006E19;423
S27000;52SH006E19;393
S28000;52SH006E19;454
S15;38MI150A18;2
S27000;38MI150A18;2
S28000;38MI150A22;1
S27000;52AS006FV21;281
S28000;52AS006FV21;366
S27000;52FP0015I19;92
S28000;52FP0015I19;132
S15;52MIGEBAG19;85
S27000;52MIGEBAG19;185
S28000;52MIGEBAG19;137
S15;01CF050K22;17
S27000;01CF050K22;11
S28000;01CF050K22;9
S28000;11BG140SH19;11
S15;11CM030H19;10
S27000;11CM030H19;6
S28000;11CM030H19;21
S15;11LD200I19;10
S27000;11LD200I19;5
S28000;11LD200I19;11
S24000;01CPR200K22;16
S90000;01CPR200K22;19
S24000;11CD050A18;6
S90000;11CD050A18;7
S24000;11ET050H20;3
S90000;11ET050H20;4
S24000;11SP200SH19;8
S90000;11SP200SH19;5
S24000;15AS250VA18;4
S90000;15AS250VA18;6
S24000;15GM280VB21;3
S90000;15GM280VB21;6
S24000;15LC250VA20;9
S90000;15LC250VA20;12
S24000;15MA030L11;20
S90000;15MA030L11;3
S24000;17AS250FV21;3
S90000;17AS250FV21;10
S24000;17RS500P19;10
S90000;17RS500P19;16
S24000;20AR075O20;5
S90000;20AR075O20;10
S24000;20MP030H20;2
S24000;24RO010R18;3
S90000;24RO010R18;2
S90000;24SA050R18;2
S24000;27CP050I19;9
S90000;27CP050I19;6
S90000;27DE015I13US;6
S24000;27DL200I20;1
S90000;27DL200I20;9
S24000;29HS100A21;13
S90000;29HS100A21;6
S90000;29VC240A16;13
S24000;29VC240A22;4
S90000;29VC240A22;12
S24000;38MI150A18;4
S90000;38MI150A18;4
S90000;49PO2RS21;86
S90000;49POUIS19;23
S90000;49TRAVNO21;172
S24000;52AS006FV21;127
S90000;52AS006FV21;318
S90000;52FP0015I19;100
S24000;52MIGEBAG19;315
S90000;52MS001I20;378
S90000;01CP200K17;18
S90000;01CV050K18;31
S24000;01CV050K22;10
S90000;01CV050K22;12
S24000;01PI030K18;11
S90000;01PI030K18;9
S24000;11EH150A18;3
S21000;29VC240A22;12
S21000;38MI150A18;4
S21000;52MIGEBAG19;249
S21000;01CV050K22;7
S21000;01PI030K18;4
S21000;11EH150A18;4
S21000;11GD250H19;18
S21000;11GD250H20;20
S21000;11MH075A19;3
S21000;11SD100SH19;4
S21000;15GD250VA20;2
S21000;15RG500VA20;17
S21000;17AS500P19;8
S21000;17MC200G21;3
S21000;17SH300E19;8
S21000;17SH300P19;6
S21000;17SH500G21;11
S21000;24BL012R22;9
S21000;24GD250R22;23
S21000;24GD500R22;13
S21000;27DCB060I17;4
S21000;27DF125I17;25
S21000;27HCR050I16;4
S21000;29SE125A21;13
S21000;38BV050A19;2
S21000;49HD035A15;70
S21000;52CD0015A18;92
S21000;52CP0015I19;50
S21000;52SH006E19;401
S21000;01BK010K14;9
S21000;01BL012K18;9
S21000;01CMJ075K21;16
S21000;01HN0075K19;4
S21000;01PI150K18;8
S21000;01SL300LV20;5
S21000;11EDT050HF22;2
S21000;11FAG10TR19;6
S21000;17DO050F13;9
S21000;20GD500HC20;8
S21000;24MA030RV19;7
S21000;49LC020A20;53
S21000;49OR005I21;71
S21000;52GD0015A18;63
S21000;52MC006G21;75
S21000;52SH006FV21;340
S21000;98BBMA010KA3;32
S21000;01SA050KV20;5
S21000;11BP100I19;4
S21000;11BR100A20;4
S21000;11HE005CS19;9
S21000;11SD100CS19;9
S21000;15GD250VB17;2
S20;52MS001I20;128
S20;01BM150K19;18
S20;01CPR200K22;5
S20;11CD050A18;3
S20;11ET050H20;2
S20;11SP200SH19;4
S20;15AS250VA18;3
S20;15GM280VB21;6
S20;15LC250VA20;10
S20;15MA030L11;20
S20;17AS250FV21;1
S20;17RS500P19;21
S20;20AR075O20;9
S20;24RO010R18;5
S20;27CP050I19;8
S20;29HS100A21;11
S20;29VC240A22;7
S20;38MI150A18;7
S20;52MIGEBAG19;143
S20;01CF050K22;14
S20;11CM030H19;7
S20;11LD200I19;8
S20;15MA075L20;9
S20;20GD250CD20;11
S20;24MA150R22;12
S20;27BY015I19;3
S20;27DH015I20;2
S20;27OR030I21;18
S20;52HD006A18;469
S20;52MA003K22A;210
S20;01BK010K14;9
S20;01BL012K18;14
S20;01CL200K17;6
S20;01CMJ075K21;13
S20;01HN0075K19;9
S20;01PI150K18;12
S20;01SL300LV20;4
S20;11EDT050HF22;8
S20;11FAG10TR19;8
S20;15MA075VB4;8
S20;17DO050F13;5
S20;20GD500HC20;32
S20;24MA030RV19;8
S20;49LC020A20;64
S20;49OR005I21;93
S20;52GD0015A18;57
S20;52HCTM22;20
S20;52MC006G21;110
S20;52SH006FV21;237
S20;98BBMA010KA3;93
S20;01SA050KV20;4
S20;11BP100I19;5
S20;11BR100A20;11
S20;11HE005CS19;9
S10;29RH500A15;27
S10;38EV075A21;9
S10;49DH004I20;9
S10;49GD035CB5;28
S10;49MA010CB4;28
S10;49PO1NH18;35
S10;52AS006FV21;280
S10;52CV0015K22;154
S10;52MS001I20;274
S10;01CP200K17;4
S10;01CV050K22;4
S10;01PI030K18;4
S10;11EH150A18;4
S10;11GD250H19;5
S10;11GD250H20;14
S10;11MH075A19;4
S10;11SD100SH19;4
S10;15GD250VA20;5
S10;17AS500P19;9
S10;17MC200G21;6
S10;17SH300E19;11
S10;17SH300P19;3
S10;17SH500G21;15
S10;24BL012R22;9
S10;24GD250R22;16
S10;24GD500R22;9
S10;27DCB060I17;5
S10;27DF125I17;22
S10;27HCR050I16;1
S10;29SE125A21;11
S10;38BV050A19;6
S10;49HD035A15;61
S10;52CD0015A18;82
S10;52CP0015I19;191
S10;52SH006E19;337
S10;01BK010K14;11
S10;01BL012K18;12
S10;01CMJ075K21;6
S10;01HN0075K19;4
S10;01PI150K18;11
S10;01SL300LV20;10
S10;11EDT050HF22;7
S10;11FAG10TR19;9
S10;15MA075VB4;7
S10;17DO050F13;11
S10;20GD500HC20;11
S10;24MA030RV19;6
S10;49LC020A20;159
S10;49OR005I21;33
S10;52GD0015A18;78
S10;52HCTM22;2
S10;52MC006G21;183
S10;52SH006FV21;469
S10;98BBMA010KA3;15
S29000;38EV075A21;15
S29000;49GD035CB5;128
S29000;49MA010CB4;108
S29000;49PMENNO21;46
S29000;52CV0015K22;167
S29000;52EV002I19;50
S29000;52MS001I20;124
S29000;01CV050K22;13
S29000;01PI030K18;11
S29000;11EH150A18;8
S29000;11GD250H19;16
S29000;11GD250H20;18
S29000;11MH075A19;6
S29000;11SD100SH19;16
S29000;15RG500VA20;21
S29000;17AS500P19;11
S29000;17MC200G21;23
S29000;17SH300E19;13
S29000;17SH300P19;11
S29000;17SH500G21;20
S29000;24BL012R22;12
S29000;24GD250R22;27
S29000;24GD500R22;19
S29000;27DCB060I17;4
S29000;27DF125I17;29
S29000;27HCR050I16;15
S29000;29SE125A21;20
S29000;38BV050A19;5
S29000;49HD035A15;11
S29000;52CD0015A18;119
S29000;52CP0015I19;92
S29000;01BK010K14;10
S29000;01BL012K18;17
S29000;01CMJ075K21;18
S29000;01HN0075K19;7
S29000;01PI150K18;21
S29000;01SL300LV20;6
S29000;11EDT050HF22;10
S29000;11FAG10TR19;13
S29000;15MA075VB4;16
S29000;17DO050F13;13
S29000;20GD500HC20;11
S29000;49OR005I21;14
S29000;52GD0015A18;65
S29000;52MC006G21;80
S29000;52SH006FV21;178
S29000;01SA050KV20;6
S29000;11BP100I19;5
S29000;11BR100A20;11
S29000;11HE005CS19;12
S29000;11SD100CS19;12
S29000;15GD250VB17;5
S29000;17AF100G20;28
S90000;11EH150A18;9
S24000;11GD250H19;14
S90000;11GD250H19;8
S24000;11GD250H20;12
S90000;11GD250H20;8
S24000;11MH075A19;5
S90000;11MH075A19;10
S24000;11SD100SH19;9
S90000;11SD100SH19;8
S90000;15GD075L15;24
S24000;15GD250VA20;4
S24000;15RG500VA20;11
S90000;15RG500VA20;11
S90000;17AS075P19;92
S90000;17AS250G18;59
S24000;17AS500P19;8
S90000;17AS500P19;10
S24000;17MC200G21;5
S90000;17MC200G21;2
S24000;17SH300E19;6
S90000;17SH300E19;7
S24000;17SH300P19;6
S90000;17SH300P19;9
S24000;17SH500G21;6
S90000;17SH500G21;3
S24000;24BL012R22;9
S90000;24BL012R22;8
S24000;24GD250R22;13
S90000;24GD250R22;31
S24000;24GD500R22;14
S90000;24GD500R22;13
S24000;27DCB060I17;5
S90000;27DCB060I17;7
S24000;27DF125I17;27
S90000;27DF125I17;6
S24000;27HCR050I16;6
S90000;27HCR050I16;2
S90000;27OR030I19;77
S24000;29SE125A21;8
S90000;29SE125A21;1
S90000;29SH075A20;1
S24000;38BV050A19;8
S90000;38BV050A19;10
S90000;38UV030A18;11
S90000;49DB004I20;30
S24000;49HD035A15;22
S90000;49HD035A15;47
S90000;49POU1O21;10
S90000;49TOTWC21;90
S24000;52CD0015A18;68
S24000;52CP0015I19;95
S90000;52CP0015I19;3
S24000;52SH006E19;3
S15;15MA075L20;13
S27000;15MA075L20;6
S28000;15MA075L20;8
S15;20GD250CD20;11
S27000;20GD250CD20;5
S28000;20GD250CD20;12
S15;24MA150R22;8
S27000;24MA150R22;7
S28000;24MA150R22;8
S15;27BY015I19;3
S27000;27BY015I19;8
S28000;27BY015I19;10
S15;27DH015I20;5
S27000;27DH015I20;14
S28000;27DH015I20;19
S15;27OR030I21;23
S27000;27OR030I21;19
S28000;27OR030I21;43
S15;52HD006A18;320
S27000;52HD006A18;334
S28000;52HD006A18;340
S15;52MA003K22A;116
S27000;52MA003K22A;154
S28000;52MA003K22A;186
S28000;52SH006FV21;385
S28000;98BBMA010KA3;109
S27000;27OR050I21;14
S28000;27OR050I21;54
S15;29BP100A19;1
S27000;29BP100A19;4
S28000;29BP100A19;10
S27000;49SH035E21;10
S15;52AS006G21;361
S27000;52AS006G21;226
S28000;52AS006G21;229
S15;52BOXMM22;8
S27000;52BOXMM22;7
S28000;52BOXMM22;18
S15;52LGENSA21;48
S27000;52LGENSA21;139
S28000;52LGENSA21;256
S15;52SGENSA21;104
S27000;52SGENSA21;77
S28000;52SGENSA21;140
S15;52SP001I19;139
S27000;52SP001I19;180
S28000;52SP001I19;247
S28000;29GE200A21;27
S15;38FT200A21;6
S27000;38FT200A21;7
S28000;38FT200A21;9
S27000;49MA010A21X;20
S27000;49POUCB21;1
S20;11SD100CS19;10
S20;17AF100G20;4
S20;17AS500G21;8
S20;17HI100G19;10
S20;17SH075G21;74
S20;17VI100P19;4
S20;20ET075HC20;3
S20;20SA050HC20;3
S20;24BR050CB6;10
S20;24RG500C20;22
S20;24SA050CB6;1
S20;27DB015I20;8
S20;27MP050I20;53
S20;27OR050I21;7
S20;49SH035E21;5
S20;52AS006G21;161
S20;52BOXMM22;16
S20;52HV001K18;32
S20;52LGENSA18;11
S20;52LGENSA21;119
S20;52SGENSA21;138
S20;52SP001I19;76
S20;01CD250K17;6
S20;01CM300K20;5
S20;01LC250K17;8
S20;01SA250VE20;23
S20;01SL300VE20;8
S20;11ET010H20;1
S20;11SP200CS19;10
S20;17SH300G21;1
S20;20DO075CD20;5
S20;24MA030R22;35
S20;24SA050R22;7
S20;27DH030I20;12
S20;27ER015I22;18
S20;27ER050I21;13
S20;27HSR030I16;3
S20;27MI150I20;4
S20;29GE200A21;19
S20;38FT200A21;5
S20;49MA010A21X;23
S20;49POUCB21;5
S20;52K20BLAV21;2
S20;52MGEBOX18;26
S20;52MGENSA21;174
S20;52SH006G21;139
S20;01HDR500K20;15
S20;01SA100LV20;7
S20;11CF100TR19;13
S20;11ET075O21;4
S20;11GE075I20;4
S20;11SD100SI19;12
S20;15GM065VB21;12
S20;15SA070VB6;2
S20;17ER075P19;2
S21000;17AF100G20;12
S21000;17AS500G21;8
S21000;17HI100G19;3
S21000;17SH075G21;67
S21000;17VI100P19;8
S21000;20ET075HC20;4
S21000;20SA050HC20;3
S21000;24BR050CB6;6
S21000;24RG500C20;14
S21000;27DB015I20;2
S21000;27MP050I20;44
S21000;27OR050I21;6
S21000;29BP100A19;4
S21000;52AS006G21;189
S21000;52BOXMM22;10
S21000;52LGENSA21;177
S21000;52SGENSA21;100
S21000;52SP001I19;74
S21000;01CD250K17;16
S21000;01CM300K20;5
S21000;01LC250K17;14
S21000;01SL300VE20;5
S21000;11ET010H20;9
S21000;11PM100SL19;3
S21000;11SP200CS19;7
S21000;17SH300G21;5
S21000;20DO075CD20;3
S21000;24MA030R22;17
S21000;24SA050R22;4
S21000;27DH030I20;6
S21000;27ER015I22;13
S21000;27ER050I21;11
S21000;27HSR030I16;7
S21000;27MI150I20;3
S21000;29GE200A21;11
S21000;38FT200A21;9
S21000;52K20BLAV21;2
S21000;52MGEBOX18;10
S21000;52MGENSA21;29
S21000;52SH006G21;254
S21000;01HDR500K20;15
S21000;01SA100LV20;10
S21000;11CF100TR19;8
S21000;11ET075O21;3
S21000;11GE075I20;4
S21000;11SD100SI19;3
S21000;15GM065VB21;11
S21000;15SA070VB6;4
S21000;17ER075P19;10
S21000;17RC500P19;10
S21000;20DO050O20;6
S21000;20FE050H20;4
S21000;20GD250OC20;5
S10;01SA050KV20;12
S10;11BP100I19;4
S10;11BR100A20;4
S10;11HE005CS19;8
S10;11SD100CS19;12
S10;17AF100G20;13
S10;17AS500G21;11
S10;17HI100G19;5
S10;17SH075G21;92
S10;17VI100P19;6
S10;20ET075HC20;3
S10;20SA050HC20;3
S10;24BR050CB6;3
S10;24RG500C20;13
S10;24SA050CB6;3
S10;27DB015I20;12
S10;27MP050I20;33
S10;27OR050I21;13
S10;29BP100A19;1
S10;49SH035E21;10
S10;52AS006G21;263
S10;52BOXMM22;2
S10;52LGENSA18;59
S10;52SGENSA18;3
S10;52SGENSA21;78
S10;52SP001I19;218
S10;01CD250K17;10
S10;01CM300K20;8
S10;01LC250K17;7
S10;01SA250VE20;17
S10;01SL300VE20;1
S10;11ET010H20;3
S10;11PM100SL19;1
S10;11SP200CS19;10
S10;17SH300G21;3
S10;20DO075CD20;5
S10;24MA030R22;6
S10;24SA050R22;2
S10;27DH030I20;14
S10;27ER015I22;20
S10;27ER050I21;16
S10;27HSR030I16;2
S10;27MI150I20;4
S10;29GE200A21;12
S10;38FT200A21;3
S10;49MA010A21X;21
S10;52K20BLAV21;2
S10;52MGEBOX18;22
S10;52MGENSA21;82
S10;52SH006G21;473
S10;98BBHD050A0;89
S10;01HDR500K20;10
S10;01SA100LV20;6
S10;11CF100TR19;3
S10;11ET075O21;3
S90000;52SH006E19;77
S24000;01BK010K14;11
S90000;01BK010K14;10
S24000;01BL012K18;5
S90000;01BL012K18;9
S90000;01CL200K17;29
S24000;01CMJ075K21;10
S90000;01CMJ075K21;9
S24000;01HN0075K19;10
S90000;01HN0075K19;8
S24000;01PI150K18;7
S90000;01PI150K18;4
S24000;01SL300LV20;3
S90000;01SL300LV20;15
S24000;11EDT050HF22;4
S90000;11EDT050HF22;8
S24000;11FAG10TR19;3
S90000;11FAG10TR19;6
S90000;11GM200I19;1
S24000;15MA075VB4;12
S90000;15MA075VB4;8
S90000;17AS075FV21;83
S24000;17DO050F13;5
S90000;17DO050F13;5
S24000;20GD500HC20;10
S90000;20GD500HC20;7
S24000;24MA030RV19;9
S90000;29HD075A15;22
S90000;49CP008I19;30
S90000;49LC020A20;21
S24000;49OR005I21;112
S90000;49OR005I21;42
S24000;52GD0015A18;45
S90000;52HCTM21;25
S24000;52HCTM22;12
S90000;52HCTM22;35
S24000;52MC006G21;146
S90000;52MC006G21;100
S24000;52SH006FV21;155
S90000;52SH006FV21;505
S24000;01CM500K20;6
S90000;01CM500K20;15
S24000;01CP200K22;10
S90000;01CP200K22;8
S24000;01HD250K17;4
S90000;01HD250K17;5
S24000;01PI075K18;4
S90000;01PI075K18;15
S90000;01SA050KL20;5
S24000;01SL0045K13;17
S90000;01SL0045K13;11
S24000;11CM030O21;7
S90000;11CM030O21;9
S28000;49POUCB21;1
S15;52CV0015K18;63
S15;52K20BIM21;50
S15;52K20BLAV21;2
S27000;52K20BLAV21;2
S28000;52K20BLAV21;6
S15;52MGEBOX18;6
S27000;52MGEBOX18;13
S28000;52MGEBOX18;40
S15;52MGENSA21;35
S27000;52MGENSA21;111
S28000;52MGENSA21;228
S15;52SH006G21;373
S27000;52SH006G21;339
S28000;52SH006G21;345
S28000;98BBHD050A0;24
S15;29EC200A21;15
S27000;29EC200A21;5
S28000;29EC200A21;13
S15;38WC050A21;2
S27000;38WC050A21;5
S28000;38WC050A21;11
S15;52CL0015K21;66
S27000;52CL0015K21;164
S28000;52CL0015K21;157
S15;52LC006A20;366
S27000;52LC006A20;268
S28000;52LC006A20;283
S15;98BBDF015IM0;10
S27000;98BBDF015IM0;4
S28000;98BBDF015IM0;20
S28000;17SH500P19;15
S15;20GD250HC20;13
S27000;20GD250HC20;9
S28000;20GD250HC20;11
S15;24BL012CB5;4
S27000;24BL012CB5;7
S28000;24BL012CB5;9
S15;24LC250R22;22
S27000;24LC250R22;10
S28000;24LC250R22;15
S15;24MA075R22;8
S27000;24MA075R22;10
S28000;24MA075R22;18
S15;24RO010CB4;4
S27000;24RO010CB4;5
S28000;24RO010CB4;7
S27000;27DC030I20;2
S15;27EV200I19;10
S27000;27EV200I19;11
S28000;27EV200I19;12
S15;29MA030A17;16
S27000;29MA030A17;14
S29000;17AS500G21;18
S29000;17HI100G19;14
S29000;17SH075G21;34
S29000;17VI100P19;21
S29000;20ET075HC20;6
S29000;20SA050HC20;4
S29000;24BR050CB6;15
S29000;24RG500C20;23
S29000;24SA050CB6;8
S29000;27DB015I20;22
S29000;27MP050I20;12
S29000;27OR050I21;12
S29000;29BP100A19;7
S29000;52AS006G21;111
S29000;52BOXMM22;21
S29000;52LGENSA21;127
S29000;52SGENSA21;142
S29000;52SP001I19;77
S29000;01CD250K17;9
S29000;01CM300K20;9
S29000;01LC250K17;15
S29000;01SA250VE20;25
S29000;01SL300VE20;6
S29000;11ET010H20;2
S29000;11SP200CS19;9
S29000;15GD250VA20;9
S29000;17SH300G21;9
S29000;20DO075CD20;12
S29000;24MA030R22;16
S29000;24SA050R22;7
S29000;27DH030I20;19
S29000;27ER015I22;31
S29000;27ER050I21;16
S29000;27HSR030I16;16
S29000;27MI150I20;10
S29000;29GE200A21;19
S29000;38FT200A21;8
S29000;49POUCB21;5
S29000;52K20BLAV21;2
S29000;52MGEBOX18;6
S29000;52MGENSA21;90
S29000;52SH006G21;146
S29000;01HDR500K20;25
S29000;01SA100LV20;13
S29000;11CF100TR19;11
S29000;11ET075O21;6
S29000;11GE075I20;4
S29000;11SD100SI19;13
S29000;15GM065VB21;26
S29000;15SA070VB6;18
S29000;17ER075P19;14
S29000;17RC500P19;16
S29000;20DO050O20;3
S24000;11GD050A18;6
S90000;11GD050A18;5
S24000;11LC250O21;10
S90000;11LC250O21;5
S24000;11SA100H20;5
S90000;11SA100H20;8
S24000;15BA500L16A;9
S90000;15BA500L16A;13
S24000;15ET100VB20;4
S90000;15GG150VAL21;263
S24000;15GN300L11;9
S90000;15GN300L11;5
S24000;15MA030VA5;3
S90000;15MA030VA5;16
S24000;17AS250G21;6
S90000;17AS250G21;9
S24000;17AS500FV21;7
S90000;17AS500FV21;17
S24000;17SH060SE21;4
S90000;17SH060SE21;10
S90000;17SH075P19;15
S24000;17SH500P19;5
S90000;17SH500P19;8
S24000;20GD250HC20;1
S90000;20GD250HC20;4
S24000;24BL012CB5;6
S90000;24BL012CB5;6
S24000;24LC250R22;13
S90000;24LC250R22;14
S24000;24MA075R22;12
S90000;24MA075R22;19
S90000;24RO010CB4;2
S24000;27DC030I20;8
S90000;27DC030I20;3
S24000;27EV200I19;12
S90000;27EV200I19;4
S24000;29MA030A17;29
S90000;29MA030A17;1
S24000;29SH240A20;6
S90000;29SH240A20;6
S24000;38UV030A18;11
S90000;49DC008I20;16
S90000;49LD030I20;26
S90000;49POCKNO21;174
S24000;52LT002R21;137
S90000;52LT002R21;100
S24000;01BM050K19;4
S90000;01BM050K19;4
S24000;01BV050K16;4
S90000;01BV050K16;5
S90000;01MA075K18;6
S24000;01SA100LT20;10
S90000;01SA100LT20;8
S21000;20SA050CD20;3
S21000;24MA030P15;7
S21000;27DL200I21;6
S21000;27MP150I20;1
S21000;27RM300I20;9
S21000;29EC200A21;7
S21000;38WC050A21;3
S21000;52CL0015K21;39
S21000;52LC006A20;210
S21000;98BBDF015IM0;10
S21000;01CM500K20;9
S21000;01CP200K22;14
S21000;01HD250K17;3
S21000;01PI075K18;3
S21000;01SL0045K13;3
S21000;11CM030O21;10
S21000;11GD050A18;4
S21000;11LC250O21;7
S21000;11SA100H20;11
S21000;15BA500L16A;5
S21000;15ET100VB20;4
S21000;15GN300L11;5
S21000;15MA030VA5;4
S21000;17AS250G21;5
S21000;17AS500FV21;6
S21000;17SH060SE21;4
S21000;17SH500P19;11
S21000;20GD250HC20;4
S21000;24BL012CB5;9
S21000;24LC250R22;17
S21000;24MA075R22;12
S21000;24RO010CB4;3
S21000;27EV200I19;14
S21000;29MA030A17;12
S21000;29SH240A20;4
S21000;38UV030A18;5
S21000;52LT002R21;131
S21000;01BM050K19;4
S21000;01BV050K16;4
S21000;01SA100LT20;10
S21000;01SL500LV20;5
S21000;11BG140SI19;4
S21000;11CM125I19;7
S21000;11SP200SI19;3
S21000;15LM300L11;5
S21000;15RC500VB21;10
S21000;17AS250P19;7
S21000;17HI001G19;116
S21000;17SH060SG21;5
S21000;20HR050H20;4
S21000;20SA050O20;3
S21000;24ET075R22;6
S21000;24MA030CB4;5
S20;17RC500P19;3
S20;20DO050O20;2
S20;20FE050H20;4
S20;20GD250OC20;11
S20;20SA050CD20;7
S20;24MA030P15;3
S20;27DL200I21;5
S20;27MP150I20;10
S20;27RM300I20;9
S20;29EC200A21;12
S20;38WC050A21;2
S20;52CL0015K21;90
S20;52LC006A20;346
S20;98BBDF015IM0;4
S20;01CM500K20;8
S20;01CP200K22;20
S20;01HD250K17;3
S20;01PI075K18;5
S20;01SL0045K13;30
S20;11CM030O21;10
S20;11GD050A18;5
S20;11LC250O21;11
S20;11SA100H20;10
S20;15BA500L16A;10
S20;15ET100VB20;4
S20;15GG150VAL21;37
S20;15GN300L11;16
S20;15MA030VA5;10
S20;17AS250G21;2
S20;17AS500FV21;14
S20;17SH060SE21;4
S20;17SH500P19;12
S20;20GD250HC20;5
S20;24BL012CB5;12
S20;24LC250R22;18
S20;24MA030CBL22;11
S20;24MA075R22;18
S20;27EV200I19;15
S20;29MA030A17;5
S20;29SH240A20;3
S20;38UV030A18;7
S20;49POCKNO21;18
S20;52LT002R21;54
S20;01BV050K16;3
S20;01CV050K18;2
S20;01SA100LT20;8
S20;01SL500LV20;9
S20;11BG140SI19;4
S20;11CM125I19;4
S20;11SP200SI19;5
S20;15LM300L11;12
S20;15RC500VB21;22
S20;17AS250P19;5
S20;17HI001G19;86
S28000;29MA030A17;11
S15;29SH240A20;11
S27000;29SH240A20;5
S28000;29SH240A20;7
S15;38UV030A18;8
S27000;38UV030A18;5
S28000;38UV030A18;4
S27000;49POCKNO21;18
S15;52LT002R21;108
S27000;52LT002R21;165
S28000;52LT002R21;168
S15;38EC015A18;3
S27000;38EC015A18;2
S28000;38EC015A18;3
S15;52AS006E19;304
S27000;52AS006E19;289
S28000;52AS006E19;251
S15;52DB001I20;72
S27000;52DB001I20;72
S28000;52DB001I20;202
S15;52DH001I20;195
S27000;52DH001I20;446
S28000;52DH001I20;328
S15;52ER002I21;227
S27000;52ER002I21;264
S28000;52ER002I21;414
S28000;52SAMPENV18;516
S27000;52HS001I17;150
S28000;52HS001I17;271
S15;52HS004A18;34
S27000;52HS004A18;142
S28000;52HS004A18;136
S15;52PS0015R21;87
S27000;52PS0015R21;180
S28000;52PS0015R21;180
S28000;98BBGD030VE4;69
S15;SGOCVE600004;60
S27000;SGOCVE600004;37
S28000;SGOCVE600004;95
S15;SGOCVE600005;5
S27000;SGOCVE600005;2
S28000;SGOCVE600005;5
S28000;29RC200A20;66
S15;38WS030A21;2
S27000;38WS030A21;9
S28000;38WS030A21;10
S27000;49POUM21;11
S27000;49TOBACH20;15
S15;52AF006G20;134
S27000;52AF006G20;197
S28000;52AF006G20;101
S15;52DS001I20;84
S27000;52DS001I20;201
S10;11GE075I20;7
S10;11SD100SI19;4
S10;15GM065VB21;12
S10;15SA070VB6;4
S10;17ER075P19;8
S10;17RC500P19;7
S10;20DO050O20;3
S10;20FE050H20;7
S10;20GD250OC20;13
S10;20SA050CD20;4
S10;24MA030P15;12
S10;27DL200I21;4
S10;27MP150I20;10
S10;27RM300I20;8
S10;29EC200A21;6
S10;38WC050A21;1
S10;52LC006A20;276
S10;98BBDF015IM0;5
S10;01CM500K20;5
S10;01CP200K22;20
S10;01HD250K17;3
S10;01PI075K18;4
S10;01SA050KL20;13
S10;01SL0045K13;7
S10;11CM030O21;14
S10;11GD050A18;5
S10;11LC250O21;14
S10;11SA100H20;11
S10;15BA500L16A;5
S10;15ET100VB20;5
S10;15GN300L11;9
S10;15MA030VA5;4
S10;17AS250G21;7
S10;17AS500FV21;13
S10;17SH060SE21;6
S10;17SH500P19;15
S10;20GD250HC20;9
S10;24BL012CB5;10
S10;24LC250R22;4
S10;24MA075R22;10
S10;24RO010CB4;1
S10;27EV200I19;13
S10;29MA030A17;10
S10;38UV030A18;9
S10;49POCKNO21;19
S10;52LT002R21;284
S10;01BM050K19;5
S10;01BV050K16;4
S10;01CV050K18;5
S10;01SA100LT20;13
S10;01SL500LV20;5
S10;11BG140SI19;3
S10;11CM125I19;4
S10;11SP200SI19;5
S29000;20FE050H20;4
S29000;20GD250OC20;18
S29000;20SA050CD20;4
S29000;24MA030P15;15
S29000;27BP050I19;4
S29000;27DL200I21;2
S29000;27MP150I20;18
S29000;27RM300I20;22
S29000;29EC200A21;18
S29000;52CL0015K21;102
S29000;52LC006A20;198
S29000;01CM500K20;14
S29000;01CP200K22;17
S29000;01HD250K17;3
S29000;01PI075K18;3
S29000;01SL0045K13;29
S29000;11CM030O21;10
S29000;11GD050A18;10
S29000;11LC250O21;15
S29000;11SA100H20;8
S29000;15BA500L16A;24
S29000;15GN300L11;17
S29000;15MA030VA5;4
S29000;17AS250G21;9
S29000;17AS500FV21;18
S29000;17SH060SE21;8
S29000;17SH500P19;21
S29000;20GD250HC20;26
S29000;24BL012CB5;9
S29000;24LC250R22;16
S29000;24MA075R22;18
S29000;24RO010CB4;9
S29000;27EV200I19;17
S29000;29MA030A17;16
S29000;29SH240A20;13
S29000;38UV030A18;9
S29000;52LT002R21;140
S29000;01BM050K19;6
S29000;01BV050K16;2
S29000;01SA100LT20;15
S29000;01SL500LV20;12
S29000;11BG140SI19;6
S29000;11CM125I19;7
S29000;11SP200SI19;4
S29000;15ET100VA20;3
S29000;15LM300L11;12
S29000;15RC500VB21;39
S29000;17AS250P19;2
S29000;17HI001G19;132
S29000;17SH060SG21;13
S29000;20HR050H20;4
S29000;20SA050O20;5
S29000;24ET075R22;7
S20;17SH060SG21;1
S20;20HR050H20;2
S20;20SA050O20;4
S20;24ET075R22;10
S20;24LC075R22;19
S20;24MA030CB4;33
S20;27DS030I20;1
S20;38EC015A18;3
S20;52AS006E19;98
S20;52DB001I20;98
S20;52DH001I20;286
S20;52ER002I21;138
S20;01EM075K20;5
S20;01MR030K14;12
S20;01SA250LT20;14
S20;01SL500VE20;8
S20;11BC100G21;6
S20;11LC250H20;7
S20;11PM100SH19;12
S20;17RC500E20;10
S20;17SE100FV21;14
S20;27HS030I18;3
S20;27SP030I19;4
S20;29MAV075A19;4
S20;52CP006K22;270
S20;52HS001I17;81
S20;52HS004A18;182
S20;52PS0015R21;105
S20;98BBGD030VE4;94
S20;SGOCVE600004;13
S20;SGOCVE600005;5
S20;01MA030K22;33
S20;01SB020K21;8
S20;11BH050A18;4
S20;11GD250HF22;12
S20;11PM100SI19;4
S20;15ET010VB19;2
S20;15GD250VB21;9
S20;15SE400VB5;12
S20;17AS250E19;2
S20;20DO130HC20;2
S20;20NV150H20;9
S20;24GD250CB21;14
S20;24LC250C21;8
S20;27DE015I21;9
S20;27ER150I21;13
S20;29ASH240A20;8
S20;29HD250A15;14
S20;29RC200A20;31
S20;38WS030A21;3
S20;49POUM21;9
S20;52AF006G20;99
S20;52DS001I20;73
S20;52SH006P19;118
S21000;38EC015A18;1
S21000;52AS006E19;185
S21000;52DB001I20;156
S21000;52DH001I20;149
S21000;52ER002I21;311
S21000;52SAMPENV18;28
S21000;01EM075K20;5
S21000;01MR030K14;71
S21000;01SA250LT20;8
S21000;01SL500VE20;13
S21000;11BC100G21;24
S21000;11LC250H20;9
S21000;11PM100SH19;4
S21000;17RC500E20;14
S21000;17SE100FV21;6
S21000;24MA030S6;8
S21000;27HS030I18;4
S21000;27SP030I19;4
S21000;29MAV075A19;4
S21000;38RC050A18;3
S21000;52CP006K22;155
S21000;52HS001I17;60
S21000;52HS004A18;106
S21000;52PS0015R21;84
S21000;98BBGD030VE4;64
S21000;SGOCVE600004;8
S21000;SGOCVE600005;5
S21000;01MA030K22;120
S21000;01SB020K21;6
S21000;11BH050A18;3
S21000;11GD250HF22;11
S21000;11PM100SI19;5
S21000;11SV080I19;2
S21000;15ET010VB19;3
S21000;15GD250VB21;6
S21000;15SE400VB5;3
S21000;17AS250E19;6
S21000;20DO130HC20;3
S21000;20NV150H20;8
S21000;24GD250CB21;15
S21000;27DE015I21;13
S21000;27ER150I21;18
S21000;29ASH240A20;3
S21000;29HD250A15;17
S21000;29RC200A20;28
S21000;38WS030A21;4
S21000;52AF006G20;157
S21000;52DS001I20;82
S21000;52PMGBOX18;16
S21000;52SH006P19;242
S21000;01CMR500K20;8
S21000;01EC200K22;10
S21000;01HF100K17;6
S28000;52DS001I20;169
S15;52MOCOL216;1
S15;52PMGBOX18;12
S27000;52PMGBOX18;15
S28000;52PMGBOX18;13
S15;52SH006P19;147
S27000;52SH006P19;391
S28000;52SH006P19;515
S27000;J9517;2
S15;49CP004I19;1
S28000;49DC004I20;42
S27000;49TOTMC20;3
S15;52DC0015I20;87
S27000;52DC0015I20;145
S28000;52DC0015I20;340
S15;52DF002I17;8
S27000;52DF002I17;105
S28000;52DF002I17;105
S15;52MOCOL316;1
S27000;52MOCOL316;1
S28000;52MOCOL316;1
S15;52SGEBAG19;83
S27000;52SGEBAG19;376
S28000;52SGEBAG19;254
S27000;98BBGD050VE2;10
S15;ACPOCVE7T00016;8
S27000;ACPOCVE7T00016;15
S28000;ACPOCVE7T00016;36
S15;ACPOCVE7T00017;2
S27000;ACPOCVE7T00017;25
S27000;ACPOCVE7T00018;31
S28000;ACPOCVE7T00018;12
S27000;ACPOCVE7T00019;24
S28000;ACPOCVE7T00019;17
S28000;52OR001I21;861
S15;52TS001I22;198
S27000;52TS001I22;141
S28000;52TS001I22;318
S15;52TS001R21;101
S27000;52TS001R21;185
S28000;52TS001R21;259
S24000;01SL500LV20;3
S90000;01SL500LV20;9
S24000;11BG140SI19;7
S90000;11BG140SI19;9
S90000;11CM125I19;9
S24000;11SP200SI19;5
S90000;11SP200SI19;5
S24000;15DO050VA5;1
S90000;15DO050VA5;1
S24000;15ET100VA20;6
S90000;15ET100VA20;8
S24000;15LM300L11;6
S90000;15LM300L11;10
S24000;15RC500VB21;9
S90000;15RC500VB21;24
S24000;17AS250P19;5
S90000;17AS250P19;12
S24000;17HI001G19;117
S90000;17HI001G19;100
S24000;17SH060SG21;2
S90000;17SH060SG21;8
S24000;20HR050H20;8
S90000;20HR050H20;8
S24000;20SA050O20;4
S90000;20SA050O20;4
S90000;24BR050C21;58
S24000;24ET075R22;5
S90000;24ET075R22;11
S90000;24GM030C21;65
S90000;24LC075R22;84
S24000;24MA030CB4;19
S90000;24MA030CB4;14
S90000;24MA030RV19;8
S24000;27DS030I20;2
S90000;27DS030I20;7
S90000;29LC200A21X;27
S24000;38EC015A18;4
S90000;38EC015A18;3
S90000;38WC050A18;35
S90000;49BM010K19;126
S90000;49PADCL20;101
S24000;52AS006E19;196
S90000;52AS006E19;27
S24000;52BGERIB18;1
S24000;52DB001I20;164
S90000;52DB001I20;207
S24000;52DH001I20;237
S90000;52DH001I20;312
S24000;52ER002I21;124
S90000;52ER002I21;330
S24000;01EM075K20;3
S90000;01EM075K20;10
S90000;01LC250K21H;5
S10;15LM300L11;12
S10;15RC500VB21;12
S10;17AS250P19;6
S10;17HI001G19;203
S10;17SH060SG21;5
S10;20HR050H20;4
S10;20SA050O20;3
S10;24ET075R22;6
S10;24LC075R22;16
S10;24MA030CB4;8
S10;24MA075R18;15
S10;27DS030I20;2
S10;38EC015A18;4
S10;52AS006E19;71
S10;52DB001I20;209
S10;52DH001I20;206
S10;52ER002I21;289
S10;01EM075K20;3
S10;01MR030K14;11
S10;01SA250LT20;10
S10;01SL500VE20;6
S10;11BC100G21;40
S10;11LC250H20;5
S10;11PM100SH19;4
S10;15RG500VA20;16
S10;17RC500E20;9
S10;17SE100FV21;10
S10;24MA030S6;11
S10;27HS030I18;3
S10;27SP030I19;4
S10;29MAV075A19;4
S10;38RC050A18;4
S10;52CP006K22;193
S10;52HS001I17;214
S10;52HS004A18;326
S10;52PS0015R21;206
S10;98BBGD030VE4;43
S10;SGOCVE600004;30
S10;SGOCVE600005;6
S10;01BS020K22;5
S10;01MA030K22;34
S10;01SB020K21;7
S10;11BH050A18;1
S10;11GD250HF22;18
S10;11PM100SI19;4
S10;11SV080I19;4
S10;15ET010VB19;4
S10;15GD250VB21;10
S10;15SE400VB5;3
S10;17AS250E19;7
S10;17SH075E19;17
S10;20NV150H20;3
S10;24GD250CB21;19
S10;27DE015I21;4
S29000;24MA030CB4;5
S29000;24MA030RV19;2
S29000;27DS030I20;11
S29000;38EC015A18;4
S29000;49MA010K22;46
S29000;52AS006E19;69
S29000;52DB001I20;92
S29000;52DH001I20;107
S29000;52ER002I21;148
S29000;01EM075K20;13
S29000;01MR030K14;14
S29000;01SA250LT20;22
S29000;01SL500VE20;10
S29000;11LC250H20;9
S29000;11PM100SH19;4
S29000;17RC500E20;35
S29000;17SE100FV21;12
S29000;24MA030S6;1
S29000;27HS030I18;5
S29000;27SP030I19;8
S29000;29MAV075A19;1
S29000;38RC050A18;9
S29000;49CP020K22;46
S29000;52CP006K22;165
S29000;52HS001I17;54
S29000;52HS004A18;132
S29000;52PS0015R21;118
S29000;SGOCVE600004;22
S29000;SGOCVE600005;9
S29000;01MA030K22;18
S29000;01SB020K21;6
S29000;11BH050A18;5
S29000;11GD250HF22;18
S29000;11PM100SI19;4
S29000;11SV080I19;8
S29000;15ET010VB19;2
S29000;15GD250VB21;16
S29000;15SE400VB5;5
S29000;17AS250E19;8
S29000;20DO130HC20;4
S29000;20NV150H20;18
S29000;24GD250CB21;14
S29000;27DE015I21;16
S29000;27ER150I21;21
S29000;29ASH240A20;9
S29000;29HD250A15;18
S29000;29RC200A20;59
S29000;38WS030A21;6
S29000;52AF006G20;99
S29000;52DS001I20;67
S29000;52PMGBOX18;12
S29000;52SH006P19;103
S29000;01CMR500K20;8
S24000;01MR030K14;16
S90000;01MR030K14;7
S24000;01SA250LT20;10
S90000;01SA250LT20;7
S90000;01SL500VE20;15
S24000;11BC100G21;31
S90000;11BC100G21;3
S24000;11LC250H20;2
S90000;11LC250H20;9
S90000;11PM100DE20H;4
S24000;11PM100SH19;4
S90000;11PM100SH19;9
S90000;15GD070VB17;32
S24000;17RC500E20;8
S90000;17RC500E20;4
S24000;17SE100FV21;15
S90000;17SE100FV21;11
S90000;17SH300G18;16
S90000;24GD500R19;1
S90000;24LC250CBL22;3
S24000;24MA030S6;10
S90000;24MA030S6;3
S24000;27HS030I18;3
S90000;27HS030I18;4
S24000;27SP030I19;3
S90000;27SP030I19;10
S24000;29MAV075A19;7
S90000;29MAV075A19;8
S24000;38RC050A18;7
S90000;38RC050A18;8
S90000;49CP020K22;37
S24000;52CP006K22;342
S90000;52CP006K22;420
S24000;52HS001I17;110
S24000;52HS004A18;119
S90000;52HS004A18;3
S24000;52PS0015R21;110
S90000;52PS0015R21;100
S90000;52SHBOM22;32
S24000;52YGERIB18;2
S24000;SGOCVE600004;22
S24000;SGOCVE600005;5
S90000;SGOCVE600005;5
S90000;01BS020K22;1
S24000;01MA030K22;10
S24000;01SB020K21;13
S90000;01SB020K21;7
S24000;11BH050A18;4
S90000;11BH050A18;8
S24000;11GD250HF22;15
S90000;11GD250HF22;18
S24000;11PM100SI19;5
S90000;11PM100SI19;9
S20;01CMR500K20;17
S20;01EC200K22;9
S20;01HF100K17;6
S20;01RL500K20;22
S20;11LC250H19;2
S20;11MWC200I19;4
S20;11PEP050I20;5
S20;15GM065L21;12
S20;15SH250VA20;8
S20;17RC500G21;9
S20;17SH300FV21;6
S20;24LC250CB4;5
S20;24MA075CB4;6
S20;27BP050I19;3
S20;27TS001I20;257
S20;29MA075A21;16
S20;38WM065A18;4
S20;49DC004I20;40
S20;52DC0015I20;281
S20;52DF002I17;213
S20;52MOCOL316;1
S20;52SGEBAG19;388
S20;98BBGD050VE2;2
S20;01BP050K21;3
S20;01HD500K20;10
S20;11BG140SL19;6
S20;11LB250HF22;8
S20;11SD100SL19;7
S20;15ET100VCL21;9
S20;15GD500VB21;12
S20;15HE005L14;10
S20;17RS500FV21;17
S20;17SH500E19;17
S20;24MA030RE19;8
S20;24MA075P15;7
S20;27MQ065I15A;3
S20;49BO015CS19;54
S20;49PO2HER20;19
S20;52AS006P19;62
S20;52DE001I21;81
S20;52LGEBAG19;49
S20;52LGEBOX18;9
S20;ACPOCVE7T00015;16
S20;ACPOCVE7T00016;7
S20;ACPOCVE7T00017;9
S20;ACPOCVE7T00018;26
S20;ACPOCVE7T00019;20
S20;01CL175K22;10
S20;01HV030K16;3
S20;01MA150K22;23
S20;01SE125K21;3
S20;11BG140CS19;7
S20;11GD250O21;14
S20;11MA030A20;3
S21000;01RL500K20;8
S21000;11LC250H19;5
S21000;11MWC200I19;7
S21000;11PEP050I20;4
S21000;15GM065L21;1
S21000;15SH250VA20;7
S21000;17RC500G21;12
S21000;17SH300FV21;7
S21000;24LC250CB4;12
S21000;24MA075CB4;9
S21000;27BP050I19;3
S21000;27TS001I20;29
S21000;29MA075A21;5
S21000;38WM065A18;4
S21000;49DC004I20;22
S21000;52DC0015I20;128
S21000;52DF002I17;83
S21000;52MOCOL316;1
S21000;52SGEBAG19;538
S21000;01BP050K21;3
S21000;01HD500K20;5
S21000;11BG140SL19;11
S21000;11LB250HF22;11
S21000;11SD100SL19;4
S21000;15GD500VB21;12
S21000;15HE005L14;4
S21000;17RS500FV21;13
S21000;17SH500E19;15
S21000;24MA030RE19;1
S21000;24MA075P15;6
S21000;27MQ065I15A;3
S21000;49BO015CS19;39
S21000;52AS006P19;97
S21000;52DE001I21;156
S21000;52LGEBAG19;110
S21000;52LGEBOX18;7
S21000;ACPOCVE7T00015;2
S21000;ACPOCVE7T00016;7
S21000;ACPOCVE7T00017;1
S21000;ACPOCVE7T00018;19
S21000;ACPOCVE7T00019;9
S21000;01CL175K22;12
S21000;01HV030K16;3
S21000;01MA150K22;13
S21000;01SE125K21;11
S21000;11BG140CS19;8
S21000;11EP010H19;3
S21000;11GD250O21;7
S21000;11MA030A20;5
S21000;11MA030HF22;39
S21000;15LC250L14;4
S21000;15MA030VB3;9
S10;27ER150I21;26
S10;29ASH240A20;4
S10;29HD250A15;16
S10;29RC200A20;21
S10;38WS030A21;4
S10;49POUM21;9
S10;49TOBACH20;26
S10;52AF006G20;256
S10;52DS001I20;201
S10;52PMGBOX18;13
S10;52SH006P19;528
S10;01BP050K21;3
S10;01EN300KB19;14
S10;01HD500K20;6
S10;11BG140SL19;11
S10;11LB250HF22;12
S10;11SD100SL19;3
S10;15GD500VB21;10
S10;15HE005L14;4
S10;17RS500FV21;16
S10;17SH500E19;10
S10;24MA030RE19;1
S10;24MA075P15;4
S10;27MQ065I15A;4
S10;49BO015CS19;43
S10;49MS008I20;65
S10;49PO2HER20;16
S10;52AS006P19;250
S10;52DE001I21;222
S10;52LGEBAG19;10
S10;52LGEBOX18;5
S10;98BBSA050LT1;82
S10;ACPOCVE7T00015;23
S10;ACPOCVE7T00016;24
S10;ACPOCVE7T00017;32
S10;ACPOCVE7T00018;35
S10;ACPOCVE7T00019;32
S10;01CMR500K20;31
S10;01EC200K22;11
S10;01HF100K17;2
S10;01RL500K20;5
S10;11LC250H19;6
S10;11MWC200I19;3
S10;11PEP050I20;8
S10;15GM065L21;7
S10;15SH250VA20;9
S10;17RC500G21;16
S10;17SH300FV21;4
S10;24LC250CB4;12
S10;24MA075CB4;9
S10;27BP050I19;1
S10;27TS001I20;229
S10;29MA075A21;2
S10;38WM065A18;5
S29000;01EC200K22;13
S29000;01HF100K17;10
S29000;01RL500K20;24
S29000;11LC250H19;10
S29000;11MWC200I19;4
S29000;11PEP050I20;4
S29000;15GM065L21;26
S29000;15SH250VA20;5
S29000;17RC500G21;42
S29000;17SH300FV21;7
S29000;24LC250CB4;10
S29000;24MA075CB4;17
S29000;29MA075A21;13
S29000;38WM065A18;8
S29000;52DC0015I20;129
S29000;52DF002I17;31
S29000;01BP050K21;16
S29000;01HD500K20;11
S29000;11BG140SL19;8
S29000;11LB250HF22;14
S29000;11SD100SL19;6
S29000;15GD500VB21;20
S29000;15HE005L14;8
S29000;17RS500FV21;31
S29000;17SH500E19;30
S29000;24MA030RE19;2
S29000;24MA075P15;13
S29000;27MQ065I15A;4
S29000;52AS006P19;78
S29000;52DE001I21;85
S29000;52LGEBOX18;7
S29000;ACPOCVE7T00015;4
S29000;ACPOCVE7T00016;27
S29000;ACPOCVE7T00018;14
S29000;ACPOCVE7T00019;11
S29000;01CL175K22;22
S29000;01HV030K16;5
S29000;01LC500K20;5
S29000;01MA150K22;26
S29000;01SE125K21;4
S29000;11BG140CS19;11
S29000;11GD250O21;15
S29000;11MA030A20;3
S29000;11MA030HF22;39
S29000;15LC250L14;14
S29000;15MA030VB3;14
S29000;17RS500G21;28
S29000;24BR050R22;4
S29000;24RG500R22;15
S29000;27FP050I19;3
S29000;27MS050I20;14
S29000;29SA050A21;16
S21000;17RS500G21;13
S21000;24BR050R22;2
S21000;24RG500R22;9
S21000;27FP050I19;10
S21000;27MS050I20;3
S21000;29SA050A21;8
S21000;49RCWM22;7
S21000;01CL050K21;5
S21000;01SA250LV20;8
S21000;11BO100CS19;10
S21000;11LH200I19;6
S21000;11SA050O21;5
S21000;11SP200SL19;5
S21000;15ET100VA20;5
S21000;15GD250L14;10
S21000;17RS500E20;8
S21000;17SH060SP21;5
S21000;20ET075CD20;4
S21000;24ET075CB21;3
S21000;27HC050I18;3
S21000;29LC200A20US;21
S21000;52BY001I19;96
S21000;52MGEBAG19;266
S21000;52OR001I21;513
S21000;52TS001I22;147
S21000;52TS001R21;88
S20;11MA030HF22;37
S20;15LC250L14;12
S20;15MA030VB3;3
S20;17RS500G21;10
S20;24BR050R22;20
S20;24EDT10C21;8
S20;24RG500R22;32
S20;27FP050I19;4
S20;27MS050I20;6
S20;29SA050A21;2
S20;49RCWM22;10
S20;01CL050K21;3
S20;01SA250LV20;15
S20;11BO100CS19;17
S20;11SA050O21;8
S20;11SP200SL19;9
S20;15ET100VA20;3
S20;15GD250L14;22
S20;17RS500E20;11
S20;17SH060SP21;4
S20;20ET075CD20;4
S20;24ET075CB21;4
S20;27HC050I18;2
S20;29LC200A20US;27
S20;52BY001I19;75
S20;52MGEBAG19;139
S20;52OR001I21;306
S20;52TS001I22;151
S20;52TS001R21;134
S20;SGOCVKI00192;3
S20;SGOCVKI00195;1
S24000;11SV080I19;4
S90000;11SV080I19;5
S24000;15ET010VB19;5
S90000;15GD250VB21;7
S24000;15SE400VB5;4
S90000;15SE400VB5;6
S24000;17AS250E19;4
S90000;17AS250E19;9
S90000;17SH075E19;78
S24000;20DO130HC20;2
S90000;20DO130HC20;2
S90000;20NV150H20;6
S90000;24GD075CB5;32
S24000;24GD250CB21;5
S90000;24GD250CB21;2
S90000;24LC250C21;29
S24000;27DE015I21;9
S90000;27DE015I21;8
S24000;27ER150I21;13
S90000;27ER150I21;15
S24000;29ASH240A20;1
S90000;29ASH240A20;11
S24000;29HD250A15;15
S24000;29RC200A20;14
S90000;29RC200A20;10
S24000;38WS030A21;7
S90000;38WS030A21;9
S90000;49IC1POU20;14
S90000;49IC2POU20;63
S90000;49IC3POU20;27
S90000;49MA010VB3;20
S90000;49POUM21;72
S90000;49TOBACH20;26
S24000;52AF006G20;184
S90000;52AF006G20;100
S24000;52DS001I20;60
S90000;52DS001I20;230
S24000;52MOCOL216;1
S24000;52PMGBOX18;11
S24000;52SH006P19;131
S90000;52SH006P19;418
S90000;J9517;7
S90000;JIMPN16;56
S24000;01CMR500K20;2
S90000;01CMR500K20;14
S24000;01EC200K22;8
S90000;01EC200K22;23
S24000;01HF100K17;9
S90000;01HF100K17;5
S24000;01RL500K20;4
S90000;01RL500K20;3
S24000;11LC250H19;9
S90000;11LC250H19;10
S29000;49RCWM22;3
S29000;01CL050K21;7
S29000;01SA250LV20;22
S29000;11BO100CS19;20
S29000;11LH200I19;14
S29000;11SA050O21;9
S29000;11SP200SL19;14
S29000;15GD250L14;15
S29000;17RS500E20;31
S29000;17SH060SP21;5
S29000;20ET075CD20;5
S29000;24ET075CB21;10
S29000;27HC050I18;2
S29000;29LC200A20US;45
S29000;52BY001I19;198
S29000;52OR001I21;182
S29000;52TS001I22;173
S29000;52TS001R21;112
S29000;SGOCVKI00192;7
S10;49DC004I20;59
S10;49TOTMC20;10
S10;52DC0015I20;234
S10;52DF002I17;113
S10;52MOCOL316;1
S10;52SGEBAG19;357
S10;98BBGD050VE2;10
S10;01CL175K22;16
S10;01HV030K16;4
S10;01MA150K22;16
S10;01SE125K21;1
S10;11BG140CS19;7
S10;11EP010H19;3
S10;11MA030A20;2
S10;11MA030HF22;38
S10;15LC250L14;7
S10;15MA030VB3;13
S10;17RS500G21;19
S10;24BR050R22;11
S10;24RG500R22;28
S10;27FP050I19;7
S10;27MS050I20;5
S10;29SA050A21;5
S10;01CL050K21;5
S10;01SA250LV20;19
S10;11BO100CS19;13
S10;11LH200I19;6
S10;11SA050O21;18
S10;11SP200SL19;8
S10;15ET100VA20;4
S10;15GD250L14;8
S10;17RS500E20;20
S10;17SH060SP21;8
S10;20ET075CD20;5
S10;27HC050I18;3
S10;29LC200A20US;17
S10;52BY001I19;305
S10;52MGEBAG19;131
S10;52OR001I21;360
S10;52TS001I22;131
S10;52TS001R21;201
S24000;11MWC200I19;2
S90000;11MWC200I19;5
S24000;11PEP050I20;5
S90000;11PEP050I20;8
S90000;15AS150VCL21;59
S90000;15ET100VB3;6
S24000;15GM065L21;9
S90000;15GM065L21;15
S90000;15LC070VB5;69
S24000;15SH250VA20;7
S90000;15SH250VA20;2
S90000;17AS075G21;26
S24000;17RC500G21;5
S90000;17RC500G21;3
S90000;17SH075FV21;8
S24000;17SH300FV21;8
S90000;17SH300FV21;6
S24000;24LC250CB4;1
S90000;24LC250CB4;8
S24000;24MA075CB4;8
S90000;24MA075CB4;9
S24000;27BP050I19;5
S90000;27OR050I22C;5
S24000;27TS001I20;62
S90000;27TS001I20;679
S24000;29MA075A21;4
S90000;29MA075A21;12
S24000;38WM065A18;4
S90000;38WM065A18;3
S90000;49AF015G20;160
S90000;49CP004I19;9
S90000;49DC004I20;4
S90000;49LC035CB6;25
S90000;49TOTMC20;27
S24000;52DC0015I20;299
S90000;52DC0015I20;285
S24000;52DF002I17;248
S90000;52DF002I17;607
S90000;52HR004G17;100
S24000;52MOCOL316;2
S90000;52MOCOL316;5
S24000;52SGEBAG19;32
S90000;52TBO1M21;54
S90000;52TBO2M21;31
S90000;98BBGD050VE2;48
S24000;01BP050K21;8
S90000;01BP050K21;1
S24000;01HD500K20;9
S90000;01HD500K20;15
S24000;11BG140SL19;12
S90000;11BG140SL19;12
S24000;11LB250HF22;12
S90000;11LB250HF22;14
S24000;11SD100SL19;10
S90000;11SD100SL19;7
S90000;15ET100VCL21;45
S24000;15GD500VB21;5
S90000;15GD500VB21;22
S24000;15HE005L14;3
S90000;15HE005L14;9
S24000;17RS500FV21;12
S90000;17RS500FV21;12
S24000;17SH500E19;12
S24000;24MA030RE19;8
S90000;24MA030RE19;10
S24000;24MA075P15;8
S90000;24MA075P15;7
S24000;27MQ065I15A;4
S90000;27MQ065I15A;6
S90000;29HD250A22C;5
S90000;49BO015CS19;362
S90000;49MS008I20;48
S90000;49PO2HER20;109
S24000;52AS006P19;115
S90000;52AS006P19;153
S24000;52DE001I21;250
S90000;52DE001I21;100
S24000;52LGEBAG19;84
S24000;52LGEBOX18;9
S90000;52LGEBOX18;2
S90000;98BBSA050LT1;50
S24000;ACPOCVE7T00015;13
S90000;ACPOCVE7T00015;21
S24000;ACPOCVE7T00016;4
S90000;ACPOCVE7T00016;42
S24000;ACPOCVE7T00017;26
S90000;ACPOCVE7T00017;2
S24000;ACPOCVE7T00018;44
S90000;ACPOCVE7T00018;2
S24000;ACPOCVE7T00019;41
S90000;ACPOCVE7T00019;2
S24000;01CL175K22;13
S90000;01CL175K22;13
S24000;01HV030K16;4
S90000;01HV030K16;5
S90000;01LC500K20;1
S24000;01MA150K22;8
S90000;01MA150K22;11
S24000;01SE125K21;8
S90000;01SE125K21;6
S24000;11BG140CS19;7
S90000;11BG140CS19;25
S24000;11EP010H19;6
S90000;11EP010H19;9
S24000;11GD250O21;8
S90000;11GD250O21;7
S24000;11MA030A20;3
S90000;11MA030A20;14
S24000;11MA030HF22;38
S90000;11MA030HF22;40
S24000;15LC250L14;1
S90000;15LC250L14;6
S24000;15MA030VB3;5
S90000;15MA030VB3;7
S90000;15MF075VM20H;58
S24000;17RS500G21;15
S90000;24BR050R19;1
S24000;24BR050R22;3
S90000;24BR050R22;6
S90000;24EDT10C21;65
S24000;24RG500R22;11
S90000;24RG500R22;1
S24000;27FP050I19;4
S90000;27FP050I19;6
S24000;27MS050I20;6
S90000;27MS050I20;7
S90000;29LC200A22C;8
S24000;29SA050A21;13
S90000;49MWC030I19;101
S24000;49RCWM22;9
S90000;49TFACH18;20
S90000;98BBSA025LT2;77
S24000;01CL050K21;2
S90000;01CL050K21;4
S24000;01SA250LV20;9
S24000;11BO100CS19;18
S90000;11BO100CS19;26
S90000;11GN040A19;88
S24000;11LH200I19;9
S90000;11LH200I19;8
S24000;11SA050O21;5
S90000;11SA050O21;8
S24000;11SP200SL19;4
S90000;11SP200SL19;8
S24000;15GD250L14;7
S90000;15GD250L14;3
S24000;17RS500E20;12
S90000;17RS500E20;6
S24000;17SH060SP21;4
S90000;17SH060SP21;8
S24000;20ET075CD20;4
S90000;20ET075CD20;7
S24000;24ET075CB21;4
S24000;27HC050I18;3
S90000;27HC050I18;4
S24000;29LC200A20US;23
S90000;29LC200A20US;6
S90000;49BOTNO21;34
S90000;49MA010A17;24
S90000;49PO2SA19;30
S90000;49POUID20;8
S24000;52BY001I19;178
S24000;52LASANO21;120
S24000;52MGEBAG19;95
S24000;52OR001I21;262
S90000;52OR001I21;883
S24000;52TS001I22;200
S90000;52TS001I22;200
S24000;52TS001R21;87
S90000;52TS001R21;99
S90000;SGOCVKI00176;6
S90000;SGOCVKI00182;14
S90000;SGOCVKI00184;14
S90000;SGOCVKI00187;7
S90000;SGOCVKI00188;3
S90000;SGOCVKI00189;7
S90000;SGOCVKI00190;3
S90000;SGOCVKI00191;5
S90000;SGOCVKI00198;7
S90000;SGOCVKI00204;13
S90000;SGOCVKI00208;6
