S00;27CN050I14;2
S10;SGOCVKI00214;13
S10;SGOCVKI00215;75
S10;SGOCVKI00216;17
S10;SGOCVKI00217;48
S10;SGOCVKI00218;49
S10;SGOCVKI00219;15
S10;SGOCVKI00220;31
S10;SGOCVKI00221;5
S10;SGOCVKI00222;56
S10;SGOCVKI00223;25
S10;SGOCVKI00224;11
S10;SGOCVKI00225;50
S10;SGOCVKI00226;50
S10;SGOCVKI00227;8
S10;SGOCVKI00228;34
S10;SGOCVKI00229;19
S10;SGOCVKI00230;13
S10;SGOCVKI00231;14
S10;SGOCVKI00232;12
S10;SGOCVKI00233;36
S10;SGOCVKI00234;9
S10;SGOCVKI00235;37
S10;SGOCVKI00236;9
S10;SGOCVKI00237;6
S10;SGOCVKI00238;6
S10;SGOCVKI00239;10
S10;SGOCVKI00240;11
S10;SGOCVKI00241;18
S10;SGOCVKI00242;29
S10;SGOCVKI00243;23
S10;SGOCVKI00244;53
S10;SGOCVKI00254;14
S28000;ACPOCVEC00001;178
S28000;ACPOCVEC00002;193
S28000;ACPOCVEC00003;100
S28000;ACPOCVEC00005;322
S28000;ACPOCVKA00700;16
S28000;SGOCVKI00214;6
S28000;SGOCVKI00215;78
S28000;SGOCVKI00216;11
S28000;SGOCVKI00217;101
S28000;SGOCVKI00218;91
S28000;SGOCVKI00220;32
S28000;SGOCVKI00221;11
S28000;SGOCVKI00222;40
S28000;SGOCVKI00223;40
S28000;SGOCVKI00224;12
S28000;SGOCVKI00225;57
S28000;SGOCVKI00226;30
S28000;SGOCVKI00227;14
S28000;SGOCVKI00228;18
S28000;SGOCVKI00229;39
S28000;SGOCVKI00230;14
S28000;SGOCVKI00231;4
S28000;SGOCVKI00232;12
S28000;SGOCVKI00233;50
S28000;SGOCVKI00234;13
S28000;SGOCVKI00235;31
S28000;SGOCVKI00236;19
S28000;SGOCVKI00237;6
S28000;SGOCVKI00238;1
S28000;SGOCVKI00239;8
S28000;SGOCVKI00240;12
S28000;SGOCVKI00241;13
S28000;SGOCVKI00242;17
S28000;SGOCVKI00243;20
S28000;SGOCVKI00244;94
S28000;SGOCVKI00254;13
S10;01BK010K14;14
S27000;01BK010K14;7
S10;01BL012K18;6
S27000;01BL012K18;5
S10;01BL012KC22H;11
S27000;01BL012KC22H;12
S10;01BL012KG22H;15
S27000;01BL012KG22H;10
S10;01BM050K19;11
S27000;01BM050K19;6
S10;01BM150K19;16
S27000;01BM150K19;8
S10;01BP050K21;7
S27000;01BP050K21;7
S10;01BV050K16;3
S27000;01BV050K16;4
S10;01CD250K17;7
S27000;01CD250K17;7
S10;01CD250KC22H;15
S27000;01CD250KC22H;13
S10;01CE200KC22H;11
S27000;01CE200KC22H;11
S10;01CF050K22;4
S27000;01CF050K22;10
S10;01CL050K21;6
S27000;01CL050K21;5
S10;01CL175K22;4
S27000;01CL175K22;10
S10;01CL200KG22H;6
S27000;01CL200KG22H;8
S10;01CM300K20;4
S27000;01CM300K20;9
S10;01CM500K20;4
S27000;01CM500K20;2
S10;01CMJ075K21;12
S27000;01CMJ075K21;9
S10;01CMR500K20;7
S27000;01CMR500K20;8
S10;01CP100KC22H;9
S27000;01CP100KC22H;9
S10;01CP200K22;10
S27000;01CP200K22;13
S10;01CPR200K22;10
S27000;01CPR200K22;8
S10;01CV050K22;5
S27000;01CV050K22;5
S10;01EC200K22;8
S27000;01EC200K22;11
S10;01EM075K20;5
S27000;01EM075K20;6
S10;01HD250K17;2
S27000;01HD250K17;6
S10;01HD500K20;5
S24000;01BK010K14;7
S90000;01BK010K14;3
S24000;01BL012K18;4
S24000;01BL012KC22H;3
S24000;01BL012KG22H;14
S24000;01BM050K19;3
S90000;01BM050K19;5
S24000;01BP050K21;6
S24000;01BV050K16;7
S90000;01BV050K16;5
S24000;01CD250K17;8
S24000;01CE200KC22H;10
S24000;01CF050K22;1
S90000;01CF050K22;2
S24000;01CL050K21;8
S90000;01CL050K21;5
S24000;01CL175K22;6
S90000;01CL175K22;5
S90000;01CL200K17;34
S24000;01CL200KG22H;4
S24000;01CM300K20;9
S90000;01CM300K20;8
S24000;01CM500K20;8
S90000;01CM500K20;11
S24000;01CMJ075K21;9
S90000;01CMJ075K21;6
S24000;01CMR500K20;2
S90000;01CMR500K20;4
S90000;01CP050K22;6
S24000;01CP200K22;9
S24000;01CPR200K22;7
S90000;01CPR200K22;5
S90000;01CV050K18;27
S24000;01CV050K22;9
S90000;01CV050K22;1
S24000;01EC200K22;8
S90000;01EC200K22;14
S24000;01EM075K20;4
S90000;01EM075K20;11
S90000;01EN300KB19;14
S24000;01HD250K17;4
S90000;01HD250K17;5
S24000;01HD500K20;5
S90000;01HD500K20;6
S24000;01HDR500K20;4
S90000;01HDR500K20;8
S24000;01HF100K17;3
S90000;01HF100K17;5
S24000;01HN0075K19;8
S90000;01HN0075K19;5
S24000;01HN075KG22H;9
S24000;01HV030K16;4
S90000;01HV030K16;3
S90000;49SH035E21;198
S90000;49TFACH18;19
S90000;49TOBACH20;67
S90000;49TOTMC20;40
S90000;49TOTWC21;90
S90000;49TRAVNO21;81
S90000;52AS006E19;49
S90000;52AS006FV21;318
S90000;52AS006G21;232
S90000;52AS006P19;177
S90000;52BOXMM22;52
S90000;52CL0015K21;221
S90000;52CP0015I19;285
S90000;52CP006K22;194
S90000;52CV0015K22;27
S90000;52DB001I20;207
S90000;52DC0015I20;76
S90000;52DE001I21;100
S90000;52DF002I17;250
S90000;52DH001I22;197
S90000;52DL002I21;115
S90000;52ET001O21;78
S90000;52FP0015I19;100
S90000;52HCTM21;25
S90000;52HCTM22;32
S90000;52HD006A18;20
S90000;52HR004G17;100
S90000;52HS004A18;103
S90000;52LC006A20;68
S90000;52LGEBOX18;15
S90000;52LT002R21;112
S90000;52MA003K16A;327
S90000;52MA003K22A;258
S90000;52MC006G21;100
S90000;52MMBYNO19;85
S90000;52MOCOL316;27
S90000;52MS001I20;378
S90000;52PMGBOX18;11
S90000;52PS0015R21;100
S90000;52SH006FV21;177
S90000;52SH006P19;97
S90000;52SP001I19;302
S90000;52TBO1M21;54
S90000;52TBO2M21;31
S90000;52TS001R21;40
S90000;98BBACLUFNT1;22
S90000;98BBGD050VE2;70
S90000;98BBHD035A0;140
S90000;98BBHD050A0;134
S90000;98BBSA050LT1;144
S90000;98BBSH035AR2;50
S90000;98BBSH050A0;71
S90000;98BBSH050AR2;86
S31000;01BK010K14;4
S31000;01BL012K18;6
S31000;01BL012KC22H;23
S31000;01BL012KG22H;26
S31000;01BM050K19;11
S31000;01BM150K19;13
S31000;01BP050K21;8
S31000;01BV050K16;6
S31000;01CD250K17;17
S31000;01CD250KC22H;14
S31000;01CE200KC22H;21
S31000;01CF050K22;14
S31000;01CL050K21;12
S31000;01CL175K22;6
S31000;01CL200KG22H;11
S31000;01CM300K20;10
S31000;01CM500K20;6
S31000;01CMJ075K21;26
S31000;01CMR500K20;8
S31000;01CP100KC22H;19
S31000;01CP200K22;4
S31000;01CPR200K22;18
S31000;01CV050K22;6
S31000;01EC200K22;10
S31000;01EM075K20;6
S31000;01HD250K17;6
S31000;01HD500K20;13
S31000;01HDR500K20;9
S31000;01HF100K17;2
S31000;01HN0075K19;5
S31000;01HN075KG22H;6
S31000;01HV030K16;4
S31000;01LC250K17;7
S31000;01LT300K20;9
S31000;01MA030K22;53
S31000;01MA030K22H;38
S31000;01MA030KC22H;88
S31000;01MA030KG22H;86
S31000;01MA075K22;23
S31000;01MA150K22;20
S31000;01MA150KC22H;69
S31000;01MA150KG22H;78
S31000;01MD200KG22H;39
S31000;01MR030K14;14
S31000;01ORKAR22;38
S31000;01PI030K18;9
S31000;01PI150K18;10
S31000;01PWPKT22;17
S31000;01RL500K20;6
S31000;01RV500K20;18
S31000;01SA050KC22H;14
S31000;01SA050KG22H;13
S31000;01SA100LT20;18
S21000;01BK010K14;13
S21000;01BL012K18;9
S21000;01BL012KC22H;12
S21000;01BL012KG22H;10
S21000;01BM050K19;7
S21000;01BM150K19;12
S21000;01BP050K21;2
S21000;01BV050K16;5
S21000;01CD250K17;8
S21000;01CD250KC22H;11
S21000;01CE200KC22H;10
S21000;01CF050K22;2
S21000;01CL050K21;2
S21000;01CL175K22;6
S21000;01CL200KG22H;10
S21000;01CM300K20;7
S21000;01CM500K20;6
S21000;01CMJ075K21;19
S21000;01CMR500K20;1
S21000;01CP100KC22H;13
S21000;01CP200K22;7
S21000;01CPR200K22;2
S21000;01CV050K22;1
S21000;01EC200K22;7
S21000;01EM075K20;4
S21000;01HD250K17;10
S21000;01HD500K20;6
S21000;01HDR500K20;14
S21000;01HF100K17;4
S21000;01HN0075K19;4
S21000;01HN075KG22H;11
S21000;01HV030K16;4
S21000;01LC250K17;14
S21000;01LT300K20;5
S21000;01MA030K22;151
S21000;01MA030K22H;28
S21000;01MA030KC22H;33
S21000;01MA030KG22H;42
S21000;01MA075K22;23
S21000;01MA150K22;20
S21000;01MA150KC22H;16
S21000;01MA150KG22H;23
S21000;01MD200KG22H;35
S21000;01MR030K14;93
S21000;01ORKAR22;27
S21000;01PI030K18;6
S21000;01PI150K18;8
S21000;01PWPKT22;9
S21000;01RL500K20;6
S21000;01SA050KC22H;5
S21000;01SA050KG22H;8
S21000;01SA050KV20;4
S21000;01SA100LT20;18
S21000;27BP050I19;8
S21000;27BY015I19;6
S21000;27CP050I19;8
S21000;27DB015I20;7
S21000;27DC050I20;9
S21000;27DCB060I17;7
S21000;27DE015I21;11
S21000;27DF125I17;9
S21000;27DH015I22;12
S21000;27DH030I20;2
S21000;27DH030I22;12
S21000;27DL200I21;10
S21000;27DS030I20;7
S21000;27ER015I22;15
S21000;27ER050I21;11
S21000;27ER150I21;15
S21000;27EV200I19;8
S21000;27HC050I18;4
S21000;27HCR050I16;6
S21000;27HS030I18;3
S21000;27HSR030I16;6
S21000;27MI150I20;6
S21000;27MP050I20;11
S21000;27MP150I20;5
S21000;27MQ065I15A;4
S21000;27MS050I20;9
S21000;27OR030I21;20
S21000;27OR050I21;23
S21000;27SP030I19;6
S21000;29ASH240A20;5
S21000;29BP100A19;3
S21000;29BP100A22;4
S21000;29EC200A21;8
S21000;29GE200A21;27
S21000;29HD075A15;121
S21000;29HD250A15;18
S21000;29HD500A15;26
S21000;29HS100A22SM;12
S21000;29LC200A20US;22
S21000;29MA030A17;24
S21000;29MA075A21;19
S21000;29ORALM22;57
S21000;29RC200A20;27
S21000;29RH500A15;46
S21000;29SA050A21;8
S21000;29SE125A21;14
S21000;29SH240A20;9
S21000;29VC240A22;6
S21000;38BV050A19;5
S21000;38EC015A18;7
S21000;38EV075A21;8
S21000;38FT200A21;9
S21000;38MI150A22;9
S30000;01BK010K14;19
S30000;01BL012K18;6
S30000;01BL012KC22H;10
S30000;01BL012KG22H;8
S30000;01BM050K19;5
S30000;01BM150K19;7
S30000;01BP050K21;8
S30000;01BV050K16;2
S30000;01CD250K17;6
S30000;01CD250KC22H;15
S30000;01CE200KC22H;13
S30000;01CF050K22;9
S30000;01CL050K21;5
S30000;01CL175K22;6
S30000;01CL200KG22H;7
S30000;01CM300K20;8
S30000;01CM500K20;11
S30000;01CMJ075K21;23
S30000;01CMR500K20;16
S30000;01CP100KC22H;14
S30000;01CP200K22;6
S30000;01CPR200K22;5
S30000;01CV050K22;4
S30000;01EC200K22;10
S30000;01EM075K20;4
S30000;01HD250K17;16
S30000;01HD500K20;7
S30000;01HDR500K20;9
S30000;01HF100K17;5
S30000;01HN0075K19;4
S30000;01HN075KG22H;8
S30000;01HV030K16;4
S30000;01LC250K17;6
S30000;01LT300K20;7
S30000;01MA030K22;41
S30000;01MA030K22H;25
S30000;01MA030KC22H;38
S30000;01MA030KG22H;38
S30000;01MA075K22;35
S30000;01MA150K22;37
S30000;01MA150KC22H;13
S30000;01MA150KG22H;21
S30000;01MD200KG22H;36
S30000;01MR030K14;9
S30000;01ORKAR22;23
S30000;01PI030K18;11
S30000;01PI150K18;7
S30000;01PWPKT22;9
S30000;01RL500K20;10
S30000;01RV500K20;17
S30000;01SA050KC22H;11
S30000;01SA050KG22H;10
S30000;01SA100LT20;10
S29000;01BK010K14;12
S29000;01BL012K18;16
S29000;01BL012KC22H;19
S29000;01BL012KG22H;23
S29000;01BM050K19;11
S29000;01BM150K19;29
S29000;01BP050K21;14
S29000;01BV050K16;6
S29000;01CD250K17;34
S29000;01CD250KC22H;19
S29000;01CE200KC22H;20
S29000;01CF050K22;8
S29000;01CL050K21;5
S29000;01CL175K22;7
S29000;01CL200KG22H;18
S29000;01CM300K20;18
S29000;01CM500K20;15
S29000;01CMJ075K21;19
S29000;01CMR500K20;22
S29000;01CP100KC22H;22
S29000;01CP200K22;13
S29000;01CPR200K22;23
S29000;01CV050K22;4
S29000;01EC200K22;16
S29000;01EM075K20;13
S29000;01HD250K17;11
S29000;01HD500K20;16
S29000;01HDR500K20;20
S29000;01HF100K17;12
S29000;01HN0075K19;10
S29000;01HN075KG22H;10
S29000;01HV030K16;4
S29000;01LC250K17;31
S29000;01LT300K20;14
S29000;01MA030K22;50
S29000;01MA030K22H;32
S29000;01MA030KC22H;34
S29000;01MA030KG22H;46
S29000;01MA075K22;32
S29000;01MA150K22;74
S29000;01MA150KC22H;29
S29000;01MA150KG22H;34
S29000;01MD200KG22H;29
S29000;01MR030K14;19
S29000;01ORKAR22;18
S29000;01PI030K18;4
S29000;01PI150K18;17
S29000;01PWPKT22;18
S29000;01RL500K20;50
S29000;01RV500K20;34
S29000;01SA050KC22H;17
S29000;01SA050KG22H;17
S29000;01SA050KV20;3
S20;01BK010K14;14
S20;01BL012K18;15
S20;01BL012KC22H;12
S20;01BL012KG22H;11
S20;01BM050K19;17
S20;01BM150K19;29
S20;01BP050K21;12
S20;01BV050K16;12
S20;01CD250K17;15
S20;01CD250KC22H;29
S20;01CE200KC22H;11
S20;01CF050K22;8
S20;01CL050K21;7
S20;01CL175K22;6
S20;01CL200KG22H;9
S20;01CM300K20;16
S20;01CM500K20;16
S20;01CMJ075K21;24
S20;01CMR500K20;24
S20;01CP100KC22H;8
S20;01CP200K22;10
S20;01CPR200K22;14
S20;01CV050K22;7
S20;01EC200K22;9
S20;01EM075K20;4
S20;01HD250K17;15
S20;01HD500K20;16
S20;01HDR500K20;19
S20;01HF100K17;8
S20;01HN0075K19;13
S20;01HN075KG22H;16
S20;01HV030K16;4
S20;01LC250K17;24
S20;01LT300K20;13
S20;01MA030K22;60
S20;01MA030K22H;19
S20;01MA030KC22H;35
S20;01MA030KG22H;36
S20;01MA075K22;46
S20;01MA150K22;40
S20;01MA150KC22H;40
S20;01MA150KG22H;44
S20;01MD200KG22H;39
S20;01MR030K14;35
S20;01ORKAR22;28
S20;01PI030K18;10
S20;01PI150K18;15
S20;01PWPKT22;7
S20;01RL500K20;23
S20;01RV500K20;22
S20;01SA050KC22H;12
S20;01SA050KG22H;10
S20;01SA100LT20;27
S20;01SA100LV20;29
S27000;01HD500K20;9
S10;01HDR500K20;6
S27000;01HDR500K20;4
S10;01HF100K17;6
S27000;01HF100K17;7
S10;01HN0075K19;2
S27000;01HN0075K19;3
S10;01HN075KG22H;7
S27000;01HN075KG22H;4
S10;01HV030K16;6
S27000;01HV030K16;4
S27000;01LC250K17;3
S10;01LT300K20;14
S27000;01LT300K20;11
S10;01MA030K22;49
S27000;01MA030K22;44
S10;01MA030K22H;17
S27000;01MA030K22H;14
S10;01MA030KC22H;31
S27000;01MA030KC22H;29
S10;01MA030KG22H;32
S27000;01MA030KG22H;30
S10;01MA075K22;19
S27000;01MA075K22;32
S10;01MA150K22;26
S27000;01MA150K22;24
S10;01MA150KC22H;20
S27000;01MA150KC22H;10
S10;01MA150KG22H;24
S27000;01MA150KG22H;20
S10;01MD200KG22H;34
S27000;01MD200KG22H;34
S10;01MR030K14;17
S27000;01MR030K14;9
S10;01ORKAR22;21
S27000;01ORKAR22;15
S10;01PI030K18;6
S27000;01PI030K18;5
S10;01PI150K18;5
S27000;01PI150K18;5
S10;01PWPKT22;8
S27000;01PWPKT22;8
S10;01RL500K20;11
S27000;01RL500K20;4
S10;01RV500K20;10
S27000;01RV500K20;5
S10;01SA050KC22H;10
S27000;01SA050KC22H;10
S10;01SA050KG22H;4
S27000;01SA050KG22H;8
S10;01SA100LT20;14
S27000;01SA100LT20;6
S10;01SA100LV20;11
S28000;01BK010K14;7
S28000;01BL012K18;33
S28000;01BL012KC22H;20
S28000;01BL012KG22H;15
S28000;01BM050K19;7
S28000;01BM150K19;1
S28000;01BP050K21;8
S28000;01BV050K16;8
S28000;01CD250K17;18
S28000;01CD250KC22H;4
S28000;01CE200KC22H;8
S28000;01CL050K21;6
S28000;01CL175K22;4
S28000;01CM300K20;11
S28000;01CM500K20;14
S28000;01CMJ075K21;15
S28000;01CMR500K20;13
S28000;01CP100KC22H;4
S28000;01CP200K22;10
S28000;01CPR200K22;15
S28000;01CV050K22;2
S28000;01EC200K22;12
S28000;01EM075K20;6
S28000;01HD250K17;9
S28000;01HD500K20;8
S28000;01HDR500K20;1
S28000;01HF100K17;7
S28000;01HN0075K19;8
S28000;01HN075KG22H;2
S28000;01HV030K16;4
S28000;01LT300K20;12
S28000;01MA030K22;100
S28000;01MA030K22H;25
S28000;01MA030KC22H;37
S28000;01MA030KG22H;55
S28000;01MA075K22;25
S28000;01MA150K22;30
S28000;01MA150KC22H;14
S28000;01MA150KG22H;32
S28000;01MD200KG22H;12
S28000;01MR030K14;30
S28000;01ORKAR22;39
S28000;01PI030K18;7
S28000;01PI150K18;11
S28000;01PWPKT22;12
S28000;01RL500K20;20
S28000;01RV500K20;15
S28000;01SA050KG22H;6
S28000;01SA100LT20;27
S28000;01SA100LV20;29
S28000;01SA100VE20;25
S28000;01SA250LT20;17
S90000;HKOCVE6T00055;28
S90000;J9517;9
S90000;JIMPN16;56
S90000;SGOCVE600005;1
S90000;SGOCVKI00176;6
S90000;SGOCVKI00187;1
S90000;SGOCVKI00188;1
S90000;SGOCVKI00190;1
S90000;SGOCVKI00198;1
S90000;SGOCVKI00204;4
S90000;SGOCVKI00208;1
S90000;SGOCVKI00219;21
S90000;SGOCVKI00220;21
S90000;SGOCVKI00222;38
S90000;SGOCVKI00225;23
S90000;SGOCVKI00244;95
S90000;SGOCVKI00246;123
S90000;SGOCVKI00247;128
S90000;SGOCVKI00248;132
S90000;SGOCVKI00255;154
S24000;38BV050A19;5
S24000;38EC015A18;4
S24000;38EV075A21;8
S24000;38FT200A21;5
S24000;38MI150A22;8
S24000;38RC050A22;11
S24000;38UV030A18;8
S24000;38WC050A21;7
S24000;38WS030A21;5
S24000;49CABNO22;70
S24000;49CP020K22;9
S24000;49DC004I20;4
S24000;49DISC3NO22;126
S24000;49HD035A15;5
S24000;49LC020A20;133
S24000;49LD030I21;4
S24000;49MA010K22;9
S24000;49OR005I21;146
S24000;52AF006G20;210
S24000;52AS006E19;218
S24000;52AS006FV21;78
S24000;52AS006G21;181
S24000;52AS006P19;47
S24000;52BY001I19;53
S24000;52CARDNO22;4
S24000;52CD0015A18;51
S24000;52CL0015K21;122
S24000;52CP0015I19;120
S24000;52CP006K22;339
S24000;52CV0015K22;123
S24000;52DB001I20;162
S24000;52DC0015I20;320
S24000;52DE001I21;276
S24000;52DF002I17;225
S24000;52DH001I22;256
S24000;52DL002I21;139
S24000;52DS001I20;93
S24000;52ER002I21;440
S24000;52GD0015A18;85
S24000;52GIF1NO22;3
S24000;52GIF2NO22;3
S24000;52HD006A18;335
S24000;52HS001I17;104
S24000;52HS004A18;131
S24000;52LABANO22;151
S24000;52LASANO21;120
S24000;52LASANO22;223
S24000;52LC006A20;306
S24000;52LGEBAG19;51
S24000;52LGEBOX18;12
S24000;52LGENSA21;31
S24000;52LT002R21;69
S24000;52MA003K22A;395
S24000;01LC250K17;10
S90000;01LC500K20;1
S24000;01LT300K20;15
S90000;01LT300K20;1
S24000;01MA030K22;46
S24000;01MA030K22H;14
S24000;01MA030KC22H;21
S24000;01MA030KG22H;35
S90000;01MA075K18;6
S24000;01MA075K22;23
S90000;01MA150K18;2
S24000;01MA150K22;22
S90000;01MA150K22;1
S24000;01MA150KC22H;15
S24000;01MA150KG22H;28
S24000;01MD200KG22H;28
S24000;01MR030K14;30
S90000;01MR030K14;7
S24000;01ORKAR22;23
S24000;01PI030K18;10
S90000;01PI030K18;9
S24000;01PI150K18;9
S24000;01PWPKT22;4
S24000;01RL500K20;5
S90000;01RL500K20;9
S24000;01RV500K20;6
S90000;01RV500K20;9
S24000;01SA050KC22H;8
S24000;01SA050KG22H;8
S24000;01SA050KV20;6
S90000;01SA050KV20;3
S24000;01SA100LT20;15
S24000;01SA100LV20;19
S90000;01SA100LV20;5
S24000;01SA100VE20;16
S90000;01SA100VE20;12
S24000;01SA250LT20;6
S90000;01SA250LT20;10
S24000;01SA250LV20;13
S24000;01SA250VE20;7
S24000;01SA300KRO22;8
S90000;01SA300KRO22;14
S24000;01SA500KRO22;7
S90000;01SA500KRO22;15
S24000;01SAR500KRO22;10
S90000;01SAR500KRO22;9
S90000;01SB020K21;3
S24000;01SE125K21;1
S90000;01SE125K21;3
S24000;01SL0045K13;27
S90000;01SL0045KR22;20
S24000;01SL300LV20;6
S27000;01SA100LV20;14
S10;01SA100VE20;11
S27000;01SA100VE20;14
S10;01SA250LT20;17
S27000;01SA250LT20;10
S10;01SA250LV20;4
S27000;01SA250LV20;15
S10;01SA250VE20;15
S27000;01SA250VE20;11
S10;01SA300KRO22;6
S27000;01SA300KRO22;7
S10;01SA500KRO22;6
S27000;01SA500KRO22;6
S10;01SAR500KRO22;8
S27000;01SAR500KRO22;10
S10;01SE125K21;2
S27000;01SE125K21;4
S10;01SL0045K13;9
S27000;01SL0045K13;30
S10;01SL0045KR22;12
S10;01SL300LV20;6
S27000;01SL300LV20;6
S10;01SL300VE20;9
S27000;01SL300VE20;5
S10;01SL500LV20;5
S27000;01SL500LV20;5
S10;01SL500VE20;5
S27000;01SL500VE20;7
S10;10CACLA22;13
S27000;10CACLA22;11
S10;10CRAKT22;51
S27000;10CRAKT22;41
S10;11AS040SG22;17
S27000;11AS040SG22;17
S10;11BC100G21;5
S27000;11BC100G21;17
S10;11BG140CS19;5
S27000;11BG140CS19;9
S10;11BG140SH19;5
S27000;11BG140SH19;5
S10;11BG140SI19;5
S27000;11BG140SI19;5
S10;11BG140SL19;8
S27000;11BG140SL19;5
S10;11BH050A18;6
S27000;11BH050A18;4
S10;11BO100CS19;20
S27000;11BO100CS19;24
S10;11BO100CS22H;4
S27000;11BO100CS22H;4
S10;11BP100I19;4
S27000;11BP100I19;4
S10;11BR100A20;5
S21000;38RC050A22;4
S21000;38UV030A18;8
S21000;38WC050A21;5
S21000;38WS030A21;8
S20;49BO015CS19;48
S21000;49BO015CS19;81
S20;49CABNO22;91
S21000;49CABNO22;59
S20;49DC004I20;11
S20;49DH004I20;53
S21000;49DH004I20;8
S20;49DISC3NO22;142
S21000;49DISC3NO22;121
S20;49HD035A15;24
S21000;49HD035A15;38
S20;49LC020A20;155
S21000;49LC020A20;138
S20;49MA010K22;27
S21000;49MA010K22;25
S20;49OR005I21;117
S21000;49OR005I21;15
S20;49ORALM22;5
S20;49ORCHB22;8
S20;49ORKAR22;5
S20;49ORMEN22;1
S20;52AF006G20;102
S21000;52AF006G20;70
S21000;52AS006E19;32
S20;52AS006E19;95
S20;52AS006FV21;103
S21000;52AS006FV21;55
S21000;52AS006G21;64
S20;52AS006G21;92
S20;52AS006P19;66
S21000;52AS006P19;42
S21000;52BY001I19;146
S20;52BY001I19;53
S20;52CARDNO22;4
S21000;52CARDNO22;4
S21000;52CD0015A18;54
S20;52CD0015A18;37
S20;52CL0015K21;36
S21000;52CL0015K21;55
S21000;52CP0015I19;66
S20;52CP0015I19;76
S20;52CP006K22;206
S21000;52CP006K22;155
S20;52CRA1C22;3
S20;52CRA2C22;3
S20;52CRA3C22;3
S20;52CRA4C22;3
S20;52CV0015K22;77
S21000;52CV0015K22;212
S21000;52DB001I20;36
S31000;01SA100LV20;19
S31000;01SA100VE20;24
S31000;01SA250LT20;12
S31000;01SA250LV20;13
S31000;01SA250VE20;18
S31000;01SA300KRO22;8
S31000;01SA500KRO22;8
S31000;01SA9000KV21;1
S31000;01SAR500KRO22;21
S31000;01SL0045K13;19
S31000;01SL0045KR22;4
S31000;01SL300LV20;8
S31000;01SL300VE20;7
S31000;01SL500LV20;10
S31000;01SL500VE20;7
S31000;10CACLA22;3
S31000;10CRAKT22;65
S31000;10EST250V21;23
S31000;10EST500V21;43
S31000;10P250V21;23
S31000;10P500V21;44
S31000;11AS040SG22;27
S31000;11AS90005G21;1
S31000;11BC100G21;2
S31000;11BG140CS19;14
S31000;11BG140SH19;9
S31000;11BG140SI19;5
S31000;11BG140SL19;5
S31000;11BH050A18;7
S31000;11BO100CS19;17
S31000;11BO100CS22H;13
S31000;11BP100I19;5
S31000;11BR100A20;8
S31000;11CD050A18;7
S31000;11CF100TR19;18
S31000;11CM030H19;25
S31000;11CM030H20;45
S31000;11CM030O21;31
S31000;11CM125I19;8
S31000;11EH150A18;4
S31000;11EP010H19;8
S31000;11EP050H19;2
S31000;11ET010H20;9
S31000;11ET050H20;2
S31000;11ET075O21;7
S31000;11FAG10TR19;15
S31000;11GD050A18;6
S31000;11GD250H19;18
S31000;11GD250H20;21
S31000;11GD250O21;16
S31000;11GE075I20;3
S31000;11GM200I19;7
S29000;01SA100LT20;18
S29000;01SA100LV20;17
S29000;01SA100VE20;13
S29000;01SA250LT20;19
S29000;01SA250LV20;25
S29000;01SA250VE20;27
S29000;01SA300KRO22;12
S29000;01SA500KRO22;9
S29000;01SAR500KRO22;10
S29000;01SB020K21;3
S29000;01SE125K21;2
S29000;01SL0045K13;15
S29000;01SL0045KR22;11
S29000;01SL300LV20;11
S29000;01SL300VE20;13
S29000;01SL500LV20;9
S29000;01SL500VE20;6
S29000;10CACLA22;1
S29000;10CRAKT22;41
S29000;11AS040SG22;23
S29000;11BC100G21;6
S29000;11BG140CS19;15
S29000;11BG140SH19;15
S29000;11BG140SI19;6
S29000;11BG140SL19;7
S29000;11BH050A18;6
S29000;11BO100CS19;45
S29000;11BO100CS22H;6
S29000;11BP100I19;4
S29000;11BR100A20;13
S29000;11CD050A18;8
S29000;11CF100TR19;13
S29000;11CM030H19;28
S29000;11CM030H20;57
S29000;11CM030O21;47
S29000;11CM125I19;27
S29000;11EH150A18;6
S29000;11EP010H19;14
S29000;11EP050H19;4
S29000;11ET010H20;11
S29000;11ET050H20;4
S29000;11ET075O21;4
S29000;11FAG10TR19;13
S29000;11GD050A18;9
S29000;11GD250H19;21
S29000;11GD250H20;21
S29000;11GD250O21;38
S29000;11GE075I20;4
S29000;11GM200I19;28
S29000;11GN195A18;31
S29000;11LB250HF22;4
S29000;11LC250H19;12
S30000;01SA100LV20;12
S30000;01SA100VE20;15
S30000;01SA250LT20;10
S30000;01SA250LV20;16
S30000;01SA250VE20;9
S30000;01SA300KRO22;8
S30000;01SA500KRO22;6
S30000;01SAR500KRO22;10
S30000;01SE125K21;2
S30000;01SL0045K13;20
S30000;01SL0045KR22;5
S30000;01SL300LV20;6
S30000;01SL300VE20;6
S30000;01SL500LV20;5
S30000;01SL500VE20;6
S30000;10CACLA22;16
S30000;10CRAKT22;67
S30000;11AS040SG22;18
S30000;11BC100G21;8
S30000;11BG140CS19;7
S30000;11BG140SH19;5
S30000;11BG140SI19;5
S30000;11BG140SL19;5
S30000;11BH050A18;5
S30000;11BO100CS19;22
S30000;11BO100CS22H;8
S30000;11BP100I19;5
S30000;11BR100A20;3
S30000;11CD050A18;2
S30000;11CF100TR19;14
S30000;11CM030H19;11
S30000;11CM030H20;50
S30000;11CM030O21;16
S30000;11CM125I19;1
S30000;11EH150A18;4
S30000;11EP010H19;11
S30000;11EP050H19;2
S30000;11ET010H20;14
S30000;11ET050H20;2
S30000;11ET075O21;10
S30000;11FAG10TR19;7
S30000;11GD050A18;5
S30000;11GD250H19;11
S30000;11GD250H20;32
S30000;11GD250O21;11
S30000;11GE075I20;6
S30000;11GM200I19;7
S30000;11GN195A18;8
S30000;11HE005CS19;4
S30000;11LB250HF22;5
S30000;11LC250H19;6
S30000;11LC250H20;12
S28000;01SA250LV20;15
S28000;01SA250VE20;29
S28000;01SA300KRO22;8
S28000;01SA500KRO22;7
S28000;01SA9000KV21;1
S28000;01SAR500KRO22;22
S28000;01SL0045K13;26
S28000;01SL300LV20;10
S28000;01SL300VE20;14
S28000;01SL500LV20;12
S28000;01SL500VE20;9
S28000;10CACLA22;22
S28000;10CRAKT22;39
S28000;10EST250V21;25
S28000;10EST500V21;23
S28000;10P250V21;25
S28000;10P500V21;19
S28000;11AS040SG22;20
S28000;11AS90005G21;1
S28000;11BC100G21;14
S28000;11BG140CS19;26
S28000;11BG140SH19;9
S28000;11BG140SI19;12
S28000;11BG140SL19;3
S28000;11BH050A18;10
S28000;11BO100CS19;48
S28000;11BP100I19;8
S28000;11BR100A20;11
S28000;11CD050A18;4
S28000;11CF100TR19;6
S28000;11CM030H19;46
S28000;11CM030H20;75
S28000;11CM030O21;46
S28000;11CM125I19;17
S28000;11EH150A18;5
S28000;11EP010H19;7
S28000;11ET010H20;8
S28000;11ET050H20;3
S28000;11ET075O21;11
S28000;11FAG10TR19;11
S28000;11GD050A18;11
S28000;11GD250H19;21
S28000;11GD250H20;35
S28000;11GD250O21;27
S28000;11GE075I20;4
S28000;11GM200I19;21
S28000;11GN195A18;14
S28000;11LB250HF22;2
S28000;11LC250H19;15
S28000;11LC250H20;22
S28000;11LC250O21;15
S28000;11LD200I19;12
S21000;01SA100LV20;19
S21000;01SA100VE20;18
S21000;01SA250LT20;18
S21000;01SA250LV20;15
S21000;01SA250VE20;9
S21000;01SA300KRO22;5
S21000;01SA500KRO22;7
S21000;01SAR500KRO22;9
S21000;01SB020K21;4
S21000;01SL0045K13;36
S21000;01SL0045KR22;4
S21000;01SL300LV20;3
S21000;01SL300VE20;4
S21000;01SL500LV20;4
S21000;01SL500VE20;1
S21000;10CACLA22;8
S21000;10CRAKT22;31
S21000;11AS040SG22;20
S21000;11BC100G21;9
S21000;11BG140CS19;15
S21000;11BG140SH19;9
S21000;11BG140SI19;9
S21000;11BG140SL19;6
S21000;11BH050A18;9
S21000;11BO100CS19;30
S21000;11BO100CS22H;2
S21000;11BP100I19;4
S21000;11BR100A20;19
S21000;11CD050A18;5
S21000;11CF100TR19;21
S21000;11CM030H19;20
S21000;11CM030H20;30
S21000;11CM030O21;17
S21000;11CM125I19;17
S21000;11EH150A18;4
S21000;11EP010H19;7
S21000;11EP050H19;4
S21000;11ET010H20;6
S21000;11ET050H20;5
S21000;11ET075O21;2
S21000;11FAG10TR19;3
S21000;11GD250H19;22
S21000;11GD250H20;24
S21000;11GD250O21;25
S21000;11GE075I20;3
S21000;11GM200I19;10
S21000;11GN195A18;11
S21000;11LC250H19;9
S21000;11LC250H20;20
S21000;11LC250O21;14
S21000;11LD200I19;6
S21000;11LH200I19;10
S27000;11BR100A20;4
S10;11CD050A18;2
S27000;11CD050A18;5
S10;11CF100TR19;5
S27000;11CF100TR19;9
S10;11CM030H19;27
S27000;11CM030H19;14
S10;11CM030H20;40
S27000;11CM030H20;49
S10;11CM030O21;17
S27000;11CM030O21;20
S10;11CM125I19;11
S27000;11CM125I19;6
S10;11EH150A18;7
S27000;11EH150A18;9
S10;11EP010H19;7
S27000;11EP010H19;4
S10;11EP050H19;3
S27000;11EP050H19;3
S10;11ET010H20;8
S27000;11ET010H20;8
S10;11ET050H20;2
S27000;11ET050H20;2
S10;11ET075O21;7
S27000;11ET075O21;5
S10;11FAG10TR19;11
S27000;11FAG10TR19;4
S10;11GD050A18;5
S27000;11GD050A18;5
S10;11GD250H19;11
S27000;11GD250H19;10
S10;11GD250H20;16
S27000;11GD250H20;31
S10;11GD250O21;14
S27000;11GD250O21;7
S10;11GE075I20;5
S27000;11GE075I20;5
S10;11GM200I19;6
S27000;11GM200I19;7
S10;11GN195A18;10
S27000;11GN195A18;6
S10;11LC250H19;13
S27000;11LC250H19;7
S10;11LC250H20;8
S27000;11LC250H20;10
S10;11LC250O21;8
S27000;11LC250O21;8
S10;11LD200I19;8
S27000;11LD200I19;7
S10;11LH200I19;12
S27000;11LH200I19;9
S10;11LT300I20;7
S27000;11LT300I20;5
S10;11MH075A19;3
S90000;01SL300LV20;9
S24000;01SL300VE20;6
S90000;01SL300VE20;9
S24000;01SL500LV20;6
S90000;01SL500LV20;10
S24000;01SL500VE20;6
S90000;01SL500VE20;15
S90000;10BOWEB219;1100
S90000;10BOWEB319;2300
S90000;10BOWEB419;1900
S24000;10CACLA22;1
S24000;10CRAKT22;44
S90000;10CRAKT22;68
S24000;11AS040SG22;20
S90000;11AS040SG22;2
S24000;11BC100G21;16
S24000;11BG140CS19;7
S90000;11BG140CS19;2
S24000;11BG140SH19;6
S90000;11BG140SH19;8
S24000;11BG140SI19;6
S90000;11BG140SI19;11
S24000;11BG140SL19;7
S90000;11BG140SL19;12
S24000;11BH050A18;2
S90000;11BH050A18;6
S24000;11BO100CS19;36
S90000;11BO100CS19;11
S24000;11BO100CS22H;2
S24000;11BP100I19;4
S90000;11BP100I19;8
S24000;11BR100A20;5
S90000;11BR100A20;8
S24000;11CD050A18;3
S90000;11CD050A18;4
S24000;11CF100TR19;9
S90000;11CF100TR19;6
S24000;11CM030H19;28
S90000;11CM030H19;5
S24000;11CM030H20;49
S90000;11CM030H20;13
S24000;11CM030O21;25
S90000;11CM030O21;2
S24000;11CM125I19;4
S90000;11CM125I19;7
S24000;11EH150A18;4
S90000;11EH150A18;6
S24000;11EP010H19;7
S24000;11EP050H19;1
S90000;11EP050H19;5
S24000;11ET010H20;11
S90000;11ET010H20;10
S20;01SA100VE20;22
S20;01SA250LT20;25
S20;01SA250LV20;26
S20;01SA250VE20;30
S20;01SA300KRO22;12
S20;01SA500KRO22;12
S20;01SAR500KRO22;12
S20;01SL0045K13;41
S20;01SL0045KR22;23
S20;01SL300LV20;12
S20;01SL300VE20;11
S20;01SL500LV20;11
S20;01SL500VE20;11
S20;10CACLA22;22
S20;10CRAKT22;70
S20;11AS040SG22;26
S20;11BC100G21;4
S20;11BG140CS19;14
S20;11BG140SH19;14
S20;11BG140SI19;12
S20;11BG140SL19;4
S20;11BH050A18;15
S20;11BO100CS19;30
S20;11BO100CS22H;8
S20;11BP100I19;3
S20;11BR100A20;20
S20;11CD050A18;5
S20;11CF100TR19;26
S20;11CM030H19;35
S20;11CM030H20;37
S20;11CM030O21;36
S20;11CM125I19;21
S20;11EH150A18;4
S20;11EP010H19;11
S20;11EP050H19;4
S20;11ET010H20;8
S20;11ET075O21;9
S20;11FAG10TR19;12
S20;11GD050A18;5
S20;11GD250H19;35
S20;11GD250H20;37
S20;11GD250O21;36
S20;11GE075I20;5
S20;11GM200I19;26
S20;11GN195A18;9
S20;11LB250HF22;3
S20;11LC250H19;23
S20;11LC250H20;24
S20;11LC250O21;23
S20;11LD200I19;9
S20;11LH200I19;10
S20;11LT300I20;4
S20;11MH075A19;4
S20;11MWC200I19;8
S24000;52MC006G21;172
S24000;52MGEBAG19;55
S24000;52MGEBOX18;9
S24000;52MGENSA21;84
S24000;52MIBANO22;110
S24000;52MMBANO22;242
S24000;52MMSANO22;382
S24000;52MOCOL316;1
S24000;52MS001I20;231
S24000;52OR001I21;368
S24000;52PMGBOX18;14
S24000;52PS0015R21;122
S24000;52RIB1NO22;7
S24000;52RIB2NO22;7
S24000;52RIBOXNO22;147
S24000;52SGENSA21GPS;77
S24000;52SH006E19;189
S24000;52SH006FV21;169
S24000;52SH006G21;161
S24000;52SH006P19;167
S24000;52SMBANO22;172
S24000;52SMSANO22;125
S24000;52SP001I19;69
S24000;52STINO22;6
S24000;52TS001I22;188
S24000;52TS001R21;133
S24000;98BBGD030VE4;6
S24000;98BBLC030VE5;6
S24000;ACPOCVEC00002;66
S24000;ACPOCVEC00005;241
S24000;ACPOCVKA00700;10
S24000;SGOCVKI00214;4
S24000;SGOCVKI00215;52
S24000;SGOCVKI00216;19
S24000;SGOCVKI00217;44
S24000;SGOCVKI00218;48
S24000;SGOCVKI00219;6
S24000;SGOCVKI00220;29
S24000;SGOCVKI00222;54
S24000;SGOCVKI00223;17
S24000;SGOCVKI00224;2
S24000;SGOCVKI00225;39
S24000;SGOCVKI00226;35
S24000;SGOCVKI00227;7
S24000;SGOCVKI00228;17
S24000;SGOCVKI00229;18
S24000;SGOCVKI00230;9
S24000;SGOCVKI00231;17
S24000;SGOCVKI00232;13
S24000;SGOCVKI00233;23
S24000;SGOCVKI00234;9
S24000;SGOCVKI00235;37
S20;52DB001I20;102
S20;52DC0015I20;210
S21000;52DC0015I20;185
S21000;52DE001I21;135
S20;52DE001I21;173
S20;52DF002I17;132
S21000;52DF002I17;113
S21000;52DH001I22;226
S20;52DH001I22;299
S20;52DL002I21;196
S21000;52DL002I21;195
S21000;52DS001I20;113
S20;52DS001I20;67
S20;52ER002I21;381
S21000;52ER002I21;252
S21000;52GD0015A18;74
S20;52GD0015A18;66
S20;52GIF1NO22;3
S21000;52GIF1NO22;3
S21000;52GIF2NO22;3
S20;52GIF2NO22;3
S20;52HD006A18;265
S21000;52HD006A18;186
S21000;52HS001I17;62
S20;52HS001I17;97
S20;52HS004A18;100
S21000;52HS004A18;100
S21000;52LABANO22;150
S20;52LABANO22;101
S20;52LASANO22;208
S21000;52LASANO22;196
S21000;52LC006A20;209
S20;52LC006A20;303
S21000;52LGEBAG19;52
S21000;52LGEBOX18;13
S20;52LGEBOX18;9
S20;52LGENSA21;58
S21000;52LGENSA21;81
S21000;52LT002R21;29
S20;52LT002R21;55
S20;52MA003K22A;234
S21000;52MA003K22A;152
S21000;52MC006G21;69
S20;52MC006G21;122
S20;52MGEBAG19;2
S21000;52MGEBAG19;16
S21000;52MGEBOX18;9
S20;52MGEBOX18;11
S20;52MGENSA21;71
S21000;52MGENSA21;36
S21000;52MIBANO22;270
S20;52MIBANO22;288
S20;52MMB1NO22;49
S21000;52MMB1NO22;36
S24000;SGOCVKI00236;12
S24000;SGOCVKI00238;4
S24000;SGOCVKI00239;3
S24000;SGOCVKI00240;8
S24000;SGOCVKI00241;14
S24000;SGOCVKI00242;16
S24000;SGOCVKI00243;10
S24000;SGOCVKI00244;51
S24000;SGOCVKI00254;11
S27000;11MH075A19;4
S10;11MWC200I19;5
S27000;11MWC200I19;3
S10;11PEP050I20;8
S27000;11PEP050I20;5
S10;11PM100SH19;6
S27000;11PM100SH19;4
S10;11PM100SI19;5
S27000;11PM100SI19;4
S27000;11PM100SL19;1
S10;11SA050O21;5
S27000;11SA050O21;6
S10;11SA100H19;14
S27000;11SA100H19;3
S10;11SA100H20;12
S27000;11SA100H20;7
S10;11SD100CS19;9
S27000;11SD100CS19;7
S10;11SD100SH19;5
S27000;11SD100SH19;8
S10;11SD100SI19;5
S27000;11SD100SI19;7
S10;11SD100SL19;5
S27000;11SD100SL19;5
S10;11SP200CS19;5
S27000;11SP200CS19;7
S10;11SP200SH19;7
S27000;11SP200SH19;3
S10;11SP200SI19;1
S27000;11SP200SI19;2
S10;11SP200SL19;5
S27000;11SP200SL19;5
S10;11SV080I19;1
S27000;11SV080I19;4
S10;15AS250VA18;3
S27000;15AS250VA18;10
S10;15BA500L16A;11
S27000;15BA500L16A;10
S10;15DO050VA5;12
S27000;15DO050VA5;11
S10;15ET010VB19;3
S27000;15ET010VB19;3
S10;15ET100VA20;4
S27000;15ET100VA20;4
S10;15ET100VB20;5
S27000;15ET100VB20;5
S27000;15ET100VBM22;3
S27000;15GD075L21;4
S10;15GD250L21;17
S27000;15GD250L21;20
S10;15GD250VA20;7
S27000;15GD250VA20;6
S10;15GD250VB21;8
S31000;11GN195A18;9
S31000;11LC250H19;10
S31000;11LC250H20;10
S31000;11LC250O21;10
S31000;11LD200I19;9
S31000;11LH200I19;7
S31000;11LT300I20;3
S31000;11MH075A19;4
S31000;11MWC200I19;4
S31000;11PEP050I20;4
S31000;11PM100SH19;8
S31000;11PM100SI19;5
S31000;11SA050O21;18
S31000;11SA100H19;14
S31000;11SA100H20;18
S31000;11SD100CS19;12
S31000;11SD100SH19;9
S31000;11SD100SI19;4
S31000;11SD100SL19;8
S31000;11SH90005G21;1
S31000;11SP200CS19;7
S31000;11SP200SH19;8
S31000;11SP200SI19;8
S31000;11SP200SL19;12
S31000;11SV080I19;11
S31000;15AS250VA18;3
S31000;15BA500L16A;14
S31000;15DO050VA5;6
S31000;15ET010VB19;6
S31000;15ET100VA20;5
S31000;15ET100VB20;5
S31000;15GD250L21;30
S31000;15GD250VA20;12
S31000;15GD250VB21;10
S31000;15GD500VB21;13
S31000;15GD9000V21;1
S31000;15GM065L21;38
S31000;15GM065VB21;38
S31000;15GM280VB21;7
S31000;15GN300L21;14
S31000;15HE005L14;6
S31000;15LC250L14;11
S31000;15LC250VA20;7
S31000;15LC250VB3;8
S31000;15LM300L11;7
S31000;15MA030L21;53
S31000;15MA030VA5;6
S31000;15MA030VB3;39
S31000;15MA075L20;11
S31000;15MA075VB4;5
S31000;15ORVER22;142
S31000;15RC500VB21;23
S30000;11LC250O21;7
S30000;11LD200I19;8
S30000;11LH200I19;10
S30000;11LT300I20;2
S30000;11MH075A19;3
S30000;11MWC200I19;5
S30000;11PEP050I20;3
S30000;11PM100SH19;5
S30000;11PM100SI19;3
S30000;11SA050O21;5
S30000;11SA100H19;5
S30000;11SA100H20;11
S30000;11SD100CS19;9
S30000;11SD100SH19;7
S30000;11SD100SI19;5
S30000;11SD100SL19;5
S30000;11SP200CS19;6
S30000;11SP200SH19;5
S30000;11SP200SI19;5
S30000;11SP200SL19;3
S30000;11SV080I19;5
S30000;15AS250VA18;5
S30000;15BA500L16A;6
S30000;15DO050VA5;8
S30000;15ET010VB19;6
S30000;15ET100VA20;4
S30000;15ET100VB20;5
S30000;15GD075L21;18
S30000;15GD250L21;22
S30000;15GD250VA20;6
S30000;15GD250VB21;17
S30000;15GD500VB21;7
S30000;15GM065L21;20
S30000;15GM065VB21;32
S30000;15GM280VB21;4
S30000;15GN300L11;2
S30000;15GN300L21;10
S30000;15GS150VBL22;2
S30000;15HE005L14;6
S30000;15LC250L14;8
S30000;15LC250VA20;6
S30000;15LC250VB3;8
S30000;15LM300L11;10
S30000;15MA030L21;39
S30000;15MA030VA5;5
S30000;15MA030VB3;25
S30000;15MA030VBM8;6
S30000;15MA075L20;14
S30000;15MA075VB4;5
S30000;15ORVER22;96
S30000;15RC500VB21;21
S30000;15RG500L14;14
S29000;11LC250H20;12
S29000;11LC250O21;13
S29000;11LD200I19;16
S29000;11LH200I19;14
S29000;11LT300I20;4
S29000;11MH075A19;2
S29000;11MWC200I19;4
S29000;11PEP050I20;5
S29000;11PM100SH19;11
S29000;11PM100SI19;5
S29000;11SA050O21;18
S29000;11SA100H19;17
S29000;11SA100H20;20
S29000;11SD100CS19;12
S29000;11SD100SH19;9
S29000;11SD100SI19;8
S29000;11SD100SL19;11
S29000;11SP200CS19;18
S29000;11SP200SH19;18
S29000;11SP200SI19;14
S29000;11SP200SL19;15
S29000;11SV080I19;14
S29000;15AS250VA18;14
S29000;15BA500L16A;10
S29000;15DO050VA5;14
S29000;15ET010VB19;8
S29000;15ET100VA20;4
S29000;15ET100VB20;9
S29000;15GD250L21;60
S29000;15GD250VA20;15
S29000;15GD250VB21;36
S29000;15GD500VB21;29
S29000;15GM065L21;80
S29000;15GM065VB21;59
S29000;15GM280VB21;11
S29000;15GN300L21;20
S29000;15HE005L14;7
S29000;15LC250L14;16
S29000;15LC250VA20;14
S29000;15LC250VB3;15
S29000;15LM300L11;13
S29000;15MA030L21;78
S29000;15MA030VA5;20
S29000;15MA030VB3;30
S29000;15MA030VBM8;1
S29000;15MA075L20;27
S29000;15MA075VB4;18
S29000;15ORVER22;115
S29000;15RC500VB21;35
S29000;15RG500L14;22
S29000;15RG500VA20;29
S29000;15RO010VBM22;1
S24000;11ET050H20;2
S90000;11ET050H20;8
S24000;11ET075O21;2
S90000;11ET075O21;5
S24000;11FAG10TR19;6
S90000;11FAG10TR19;3
S24000;11GD050A18;4
S90000;11GD075O21;112
S24000;11GD250H19;15
S90000;11GD250H19;3
S24000;11GD250H20;19
S90000;11GD250H20;12
S90000;11GD250HF22;1
S24000;11GD250O21;23
S24000;11GE075I20;5
S24000;11GM200I19;12
S90000;11GN040A19;88
S24000;11GN195A18;4
S90000;11HE005CS19;12
S24000;11LC250H19;6
S90000;11LC250H19;11
S24000;11LC250H20;10
S90000;11LC250H20;12
S24000;11LC250O21;5
S90000;11LC250O21;4
S24000;11LD200I19;6
S90000;11LD200I19;9
S24000;11LH200I19;9
S90000;11LH200I19;5
S24000;11LT300I20;1
S90000;11LT300I20;10
S24000;11MA030A20;9
S24000;11MH075A19;8
S90000;11MH075A19;6
S24000;11MWC200I19;2
S24000;11PEP050I20;4
S90000;11PEP050I20;1
S24000;11PM100SH19;4
S90000;11PM100SH19;6
S24000;11PM100SI19;4
S90000;11PM100SI19;8
S24000;11SA050O21;14
S90000;11SA050O21;8
S24000;11SA100H19;18
S90000;11SA100H19;11
S24000;11SA100H20;21
S90000;11SA100H20;10
S24000;11SD100CS19;5
S90000;11SD100CS19;1
S24000;11SD100SH19;5
S90000;11SD100SH19;4
S24000;11SD100SI19;6
S90000;11SD100SI19;8
S28000;11LH200I19;12
S28000;11LT300I20;4
S28000;11MA030A20;4
S28000;11MH075A19;4
S28000;11MWC200I19;7
S28000;11PEP050I20;4
S28000;11PM100SH19;5
S28000;11PM100SI19;6
S28000;11SA050O21;15
S28000;11SA100H19;20
S28000;11SA100H20;29
S28000;11SD100CS19;12
S28000;11SD100SH19;12
S28000;11SD100SI19;3
S28000;11SD100SL19;6
S28000;11SH90005G21;1
S28000;11SP200CS19;8
S28000;11SP200SH19;9
S28000;11SP200SI19;10
S28000;11SP200SL19;11
S28000;11SV080I19;2
S28000;15AS250VA18;9
S28000;15BA500L16A;9
S28000;15DO050VA5;3
S28000;15ET010VB19;4
S28000;15ET100VA20;10
S28000;15ET100VB20;7
S28000;15GD250L21;43
S28000;15GD250VA20;15
S28000;15GD250VB21;20
S28000;15GD500VB21;12
S28000;15GD9000V21;1
S28000;15GM065L21;59
S28000;15GM065VB21;36
S28000;15GM280VB21;3
S28000;15GN300L21;7
S28000;15HE005L14;9
S28000;15LC250L14;20
S28000;15LC250VA20;13
S28000;15LC250VB3;16
S28000;15LM300L11;9
S28000;15MA030L21;67
S28000;15MA030VA5;20
S28000;15MA030VB3;35
S28000;15MA075L20;20
S28000;15MA075VB4;14
S28000;15ORVER22;137
S28000;15RC500VB21;12
S28000;15RG500VA20;7
S28000;15SA075VB21;4
S28000;15SH250VA20;7
S28000;17AF100G20;12
S20;11PEP050I20;4
S20;11PM100SH19;7
S20;11PM100SI19;10
S20;11SA050O21;6
S20;11SA100H19;16
S20;11SA100H20;16
S20;11SD100CS19;17
S20;11SD100SH19;14
S20;11SD100SI19;12
S20;11SD100SL19;13
S20;11SP200CS19;10
S20;11SP200SH19;12
S20;11SP200SI19;10
S20;11SP200SL19;12
S20;11SV080I19;3
S20;15AS250VA18;7
S20;15BA500L16A;8
S20;15DO050VA5;13
S20;15ET010VB19;4
S20;15ET100VA20;2
S20;15ET100VB20;3
S20;15GD075L21;17
S20;15GD250L21;32
S20;15GD250VA20;28
S20;15GD250VB21;36
S20;15GD500VB21;19
S20;15GM065L21;50
S20;15GM065VB21;50
S20;15GM280VB21;11
S20;15GN300L21;17
S20;15HE005L14;6
S20;15LC250L14;27
S20;15LC250VA20;14
S20;15LC250VB3;21
S20;15LM300L11;12
S20;15MA030L21;53
S20;15MA030VA5;26
S20;15MA030VB3;29
S20;15MA030VBM8;4
S20;15MA075L20;30
S20;15MA075VB4;29
S20;15ORVER22;97
S20;15RC500VB21;7
S20;15RG500L14;12
S20;15RG500VA20;21
S20;15RO010VBM22;1
S20;15SA070VB6;4
S20;15SA075VB21;5
S20;15SH250VA20;12
S20;17AF100G20;11
S20;17AS250E19;10
S20;17AS250FV21;11
S20;17AS250G21;9
S20;17AS250P19;6
S27000;15GD250VB21;15
S10;15GD500VB21;14
S27000;15GD500VB21;11
S10;15GM065L21;33
S27000;15GM065L21;20
S10;15GM065VB21;28
S27000;15GM065VB21;29
S10;15GM280VB21;3
S27000;15GM280VB21;6
S10;15GN300L21;7
S27000;15GN300L21;9
S27000;15GS150VBL22;4
S10;15HE005L14;9
S27000;15HE005L14;4
S10;15LC250L14;9
S27000;15LC250L14;8
S10;15LC250VA20;9
S27000;15LC250VA20;5
S10;15LC250VB3;8
S27000;15LC250VB3;7
S10;15LM300L11;7
S27000;15LM300L11;6
S10;15MA030L21;43
S27000;15MA030L21;35
S27000;15MA030VA5;4
S10;15MA030VB3;22
S27000;15MA030VB3;23
S27000;15MA030VBL22;1
S10;15MA075L20;1
S27000;15MA075L20;10
S10;15MA075VB4;11
S27000;15MA075VB4;5
S10;15ORVER22;95
S27000;15ORVER22;87
S10;15RC500VB21;9
S27000;15RC500VB21;14
S10;15RG500L14;10
S27000;15RG500L14;6
S10;15RG500VA20;13
S27000;15RG500VA20;10
S10;15SA070VB6;1
S27000;15SA070VB6;2
S10;15SA075VB21;4
S27000;15SA075VB21;4
S27000;15SE400VB5;1
S27000;15SH250VA20;5
S10;17AF100G20;10
S27000;17AF100G20;10
S10;17AS075G21;9
S10;17AS250E19;3
S27000;17AS250E19;3
S10;17AS250FV21;7
S27000;17AS250FV21;5
S24000;11SD100SL19;6
S90000;11SD100SL19;7
S24000;11SP200CS19;9
S24000;11SP200SH19;5
S90000;11SP200SH19;2
S24000;11SP200SI19;6
S24000;11SP200SL19;8
S90000;11SP200SL19;1
S24000;11SV080I19;4
S90000;11SV080I19;7
S24000;15AS250VA18;5
S90000;15AS250VA18;2
S24000;15BA500L16A;13
S90000;15BA500L16A;9
S90000;15DF200VBL21;1
S24000;15DO050VA5;9
S24000;15ET010VB19;4
S24000;15ET100VA20;4
S90000;15ET100VA20;6
S24000;15ET100VB20;5
S90000;15ET100VB20;1
S90000;15GD075L15;45
S90000;15GD075L21;3
S24000;15GD250L21;17
S90000;15GD250L21;12
S24000;15GD250VA20;6
S90000;15GD250VA20;10
S24000;15GD250VB21;11
S90000;15GD250VB21;8
S24000;15GD500VB21;7
S90000;15GD500VB21;12
S24000;15GM065L21;38
S90000;15GM065L21;15
S24000;15GM065VB21;27
S90000;15GM065VB21;15
S24000;15GM280VB21;4
S90000;15GM280VB21;6
S24000;15GN300L21;9
S90000;15GN300L21;6
S24000;15GS150VBL22;1
S90000;15GS150VBL22;3
S24000;15HE005L14;6
S90000;15HE005L14;3
S90000;15LC070VB5;117
S90000;15LC075L15;20
S24000;15LC250L14;9
S24000;15LC250VA20;5
S90000;15LC250VA20;12
S24000;15LC250VB3;8
S90000;15LC250VBM22;1
S24000;15LM300L11;10
S90000;15LM300L11;8
S10;17AS250G21;6
S27000;17AS250G21;6
S10;17AS250P19;8
S27000;17AS250P19;7
S10;17AS500E19;7
S27000;17AS500E19;7
S10;17AS500FV21;1
S27000;17AS500FV21;5
S10;17AS500G21;11
S27000;17AS500G21;9
S10;17AS500P19;6
S27000;17AS500P19;5
S10;17DO050F13;6
S27000;17DO050F13;10
S10;17ER075P19;5
S27000;17ER075P19;7
S10;17HB050A22;10
S27000;17HB050A22;6
S10;17HI001G19;46
S27000;17HI001G19;45
S10;17HI100G19;12
S27000;17HI100G19;7
S10;17MC200G21;14
S27000;17MC200G21;9
S10;17RC500E20;9
S27000;17RC500E20;10
S10;17RC500G21;6
S27000;17RC500G21;24
S10;17RC500P19;4
S27000;17RC500P19;4
S10;17RS500E20;17
S27000;17RS500E20;4
S10;17RS500FV21;14
S27000;17RS500FV21;24
S10;17RS500G21;7
S27000;17RS500G21;22
S10;17RS500P19;15
S27000;17RS500P19;13
S10;17SE100FV21;12
S27000;17SE100FV21;4
S10;17SH060SE21;3
S27000;17SH060SE21;7
S10;17SH060SG21;3
S27000;17SH060SG21;5
S10;17SH060SP21;5
S27000;17SH060SP21;6
S10;17SH075E19;15
S10;17SH075G21;63
S27000;17SH075G21;2
S10;17SH300E19;14
S27000;17SH300E19;10
S10;17SH300FV21;10
S27000;17SH300FV21;6
S10;17SH300G21;10
S30000;15RG500VA20;10
S30000;15SA075VB21;4
S30000;15SE400VB5;7
S30000;15SH250VA20;5
S30000;17AF100G20;6
S30000;17AS250E19;6
S30000;17AS250FV21;6
S30000;17AS250G21;11
S30000;17AS250P19;6
S30000;17AS500E19;8
S30000;17AS500FV21;3
S30000;17AS500G21;9
S30000;17AS500P19;7
S30000;17DO050F13;7
S30000;17ER075P19;5
S30000;17HB050A22;7
S30000;17HI001G19;126
S30000;17HI100G19;2
S30000;17MC200G21;9
S30000;17RC500E20;15
S30000;17RC500G21;17
S30000;17RC500P19;8
S30000;17RS500E20;31
S30000;17RS500FV21;24
S30000;17RS500G21;35
S30000;17RS500P19;25
S30000;17SE100FV21;7
S30000;17SH060SE21;4
S30000;17SH060SG21;4
S30000;17SH060SP21;4
S30000;17SH075G21;23
S30000;17SH300E19;12
S30000;17SH300FV21;13
S30000;17SH300G21;11
S30000;17SH300P19;11
S30000;17SH500E19;20
S30000;17SH500FV21;6
S30000;17SH500G21;22
S30000;17SH500P19;15
S30000;17VI100P19;6
S30000;20AR075O20;6
S30000;20DO050O20;4
S30000;20DO075CD20;2
S30000;20DO130HC20;5
S30000;20ET075CD20;5
S30000;20ET075HC20;4
S30000;20ET075OC20;5
S30000;20FE050H20;2
S30000;20GD250CD20;8
S30000;20GD250HC20;14
S30000;20GD250OC20;9
S30000;20GD500HC20;10
S30000;20HR050H20;4
S29000;15SA070VB6;8
S29000;15SA075VB21;16
S29000;15SH250VA20;16
S29000;17AF100G20;19
S29000;17AS250E19;8
S29000;17AS250FV21;8
S29000;17AS250G21;17
S29000;17AS250P19;6
S29000;17AS500E19;18
S29000;17AS500FV21;15
S29000;17AS500G21;15
S29000;17AS500P19;8
S29000;17DO050F13;11
S29000;17ER075P19;4
S29000;17HB050A22;28
S29000;17HI001G19;139
S29000;17HI100G19;17
S29000;17MC200G21;12
S29000;17RC500E20;37
S29000;17RC500G21;34
S29000;17RC500P19;25
S29000;17RS500E20;31
S29000;17RS500FV21;28
S29000;17RS500G21;40
S29000;17RS500P19;34
S29000;17SE100FV21;25
S29000;17SH060SE21;9
S29000;17SH060SG21;9
S29000;17SH060SP21;10
S29000;17SH075G21;2
S29000;17SH300E19;9
S29000;17SH300FV21;13
S29000;17SH300G21;13
S29000;17SH300P19;13
S29000;17SH500E19;16
S29000;17SH500FV21;17
S29000;17SH500G21;20
S29000;17SH500P19;16
S29000;17VI100P19;6
S29000;20AR075O20;10
S29000;20DO050O20;7
S29000;20DO130HC20;8
S29000;20ET075CD20;4
S29000;20ET075HC20;4
S29000;20ET075OC20;6
S29000;20FE050H20;3
S29000;20GD250CD20;18
S29000;20GD250HC20;28
S29000;20GD250OC20;27
S29000;20GD500HC20;40
S29000;20HR050H20;4
S29000;20NV150H20;26
S29000;20SA050CD20;17
S24000;15MA030L21;57
S24000;15MA030VA5;6
S90000;15MA030VA5;10
S24000;15MA030VB3;21
S90000;15MA030VB3;9
S90000;15MA030VBL22;1
S90000;15MA030VBM8;12
S24000;15MA075L20;11
S90000;15MA075L20;17
S24000;15MA075VB4;4
S90000;15MA075VB4;7
S24000;15ORVER22;91
S90000;15ORVER22;77
S24000;15RC500VB21;5
S24000;15RG500L14;4
S90000;15RG500L14;2
S24000;15RG500VA20;11
S24000;15SA075VB21;4
S90000;15SA075VB21;16
S24000;15SE400VB5;3
S90000;15SE400VB5;4
S24000;15SH250VA20;5
S24000;17AF100G20;3
S90000;17AF100G20;15
S90000;17AS075E19;178
S90000;17AS075FV21;55
S24000;17AS075G21;11
S90000;17AS075G21;56
S90000;17AS075P19;66
S24000;17AS250E19;5
S90000;17AS250E19;6
S24000;17AS250FV21;8
S90000;17AS250FV21;4
S24000;17AS250G21;3
S90000;17AS250G21;5
S24000;17AS250P19;4
S90000;17AS250P19;9
S24000;17AS500E19;11
S24000;17AS500FV21;6
S24000;17AS500G21;6
S90000;17AS500G21;7
S24000;17AS500P19;3
S90000;17AS500P19;6
S24000;17DO050F13;9
S24000;17ER075P19;3
S90000;17ER075P19;5
S24000;17HB050A22;4
S24000;17HI001G19;113
S90000;17HI001G19;100
S24000;17HI100G19;11
S24000;17MC200G21;5
S24000;17RC500E20;5
S24000;17RC500G21;10
S28000;17AS075G21;14
S28000;17AS250E19;4
S28000;17AS250FV21;4
S28000;17AS250G21;8
S28000;17AS250P19;6
S28000;17AS500E19;6
S28000;17AS500FV21;9
S28000;17AS500G21;10
S28000;17AS500P19;5
S28000;17DO050F13;7
S28000;17ER075P19;11
S28000;17HB050A22;9
S28000;17HI001G19;85
S28000;17HI100G19;10
S28000;17MC200G21;17
S28000;17RC500E20;10
S28000;17RC500G21;16
S28000;17RC500P19;7
S28000;17RS500E20;33
S28000;17RS500FV21;4
S28000;17RS500G21;15
S28000;17RS500P19;2
S28000;17SE100FV21;4
S28000;17SH060SE21;8
S28000;17SH060SG21;5
S28000;17SH060SP21;4
S28000;17SH300E19;15
S28000;17SH300FV21;11
S28000;17SH300G21;13
S28000;17SH300P19;18
S28000;17SH500E19;20
S28000;17SH500FV21;16
S28000;17SH500G21;27
S28000;17SH500P19;6
S28000;17VI100P19;4
S28000;20AR075O20;6
S28000;20DO050O20;4
S28000;20DO130HC20;3
S28000;20ET075CD20;4
S28000;20ET075HC20;4
S28000;20ET075OC20;4
S28000;20GD250CD20;16
S28000;20GD250HC20;29
S28000;20GD250OC20;30
S28000;20GD500HC20;12
S28000;20HR050H20;1
S28000;20NV150H20;25
S28000;20SA050CD20;10
S28000;20SA050HC20;4
S28000;24BL012CB5;12
S28000;24BL012R22;14
S28000;24BR050CB21;8
S28000;24BR050CB6;4
S21000;52MMB2NO22;37
S20;52MMB2NO22;43
S20;52MMB3NO22;44
S21000;52MMB3NO22;26
S21000;52MMBANO22;370
S20;52MMBANO22;395
S20;52MMSANO22;355
S21000;52MMSANO22;329
S21000;52MOCOL316;2
S20;52MOCOL316;5
S20;52MS001I20;75
S21000;52MS001I20;120
S21000;52OR001I21;239
S20;52OR001I21;233
S20;52PMGBOX18;8
S21000;52PMGBOX18;4
S21000;52PS0015R21;67
S20;52PS0015R21;61
S20;52PSAC18;1
S21000;52PSAC18;1
S20;52RBO2NO22;5
S20;52RBO3NO22;5
S20;52RIB1NO22;7
S21000;52RIB1NO22;7
S21000;52RIB2NO22;7
S20;52RIB2NO22;7
S20;52RIBOXNO22;331
S21000;52RIBOXNO22;307
S21000;52SAMPENV18;27
S21000;52SGENSA21GPS;99
S20;52SGENSA21GPS;77
S20;52SH006E19;133
S21000;52SH006E19;89
S21000;52SH006FV21;101
S20;52SH006FV21;118
S20;52SH006G21;131
S21000;52SH006G21;87
S21000;52SH006P19;71
S20;52SH006P19;105
S20;52SMB1NO22;3
S20;52SMB2NO22;3
S20;52SMBANO22;212
S21000;52SMBANO22;331
S21000;52SMSANO22;251
S20;52SMSANO22;321
S20;52SP001I19;32
S21000;52SP001I19;160
S21000;52STINO22;6
S20;52STINO22;6
S20;52TS001I22;169
S21000;52TS001I22;112
S21000;52TS001R21;65
S20;52TS001R21;81
S20;52WRAPNO22;7
S20;17AS500E19;9
S20;17AS500FV21;11
S20;17AS500G21;11
S20;17AS500P19;5
S20;17DO050F13;16
S20;17ER075P19;5
S20;17HB050A22;15
S20;17HI001G19;81
S20;17HI100G19;8
S20;17MC200G21;14
S20;17RC500E20;9
S20;17RC500G21;14
S20;17RC500P19;12
S20;17RS500E20;31
S20;17RS500FV21;27
S20;17RS500G21;25
S20;17RS500P19;14
S20;17SE100FV21;14
S20;17SH060SE21;5
S20;17SH060SG21;6
S20;17SH060SP21;6
S20;17SH075G21;9
S20;17SH300E19;23
S20;17SH300FV21;20
S20;17SH300G21;23
S20;17SH300P19;17
S20;17SH500E19;19
S20;17SH500FV21;17
S20;17SH500G21;20
S20;17SH500P19;11
S20;17VI100P19;7
S20;20AR075O20;9
S20;20DO050O20;8
S20;20DO075CD20;7
S20;20DO130HC20;8
S20;20ET075CD20;6
S20;20ET075HC20;6
S20;20ET075OC20;4
S20;20FE050H20;3
S20;20GD250CD20;20
S20;20GD250HC20;27
S20;20GD250OC20;29
S20;20GD500HC20;17
S20;20HR050H20;4
S20;20NV150H20;23
S20;20SA050CD20;3
S20;24BL012CB5;16
S20;24BL012R22;14
S20;24BR050CB21;21
S20;24BR050CB6;4
S20;24BR050R22;22
S20;24ET075CB21;6
S20;24ET075R22;9
S20;24GD250CB21;44
S31000;15RG500L14;13
S31000;15RG500VA20;9
S31000;15SA070VB6;1
S31000;15SA075VB21;5
S31000;15SH250VA20;2
S31000;17AF100G20;11
S31000;17AS250E19;6
S31000;17AS250FV21;6
S31000;17AS250G21;6
S31000;17AS250P19;4
S31000;17AS500E19;10
S31000;17AS500FV21;10
S31000;17AS500G21;7
S31000;17AS500P19;6
S31000;17DO050F13;7
S31000;17ER075P19;9
S31000;17HB050A22;1
S31000;17HI001G19;44
S31000;17HI100G19;5
S31000;17MC200G21;11
S31000;17RC500E20;12
S31000;17RC500G21;19
S31000;17RC500P19;10
S31000;17RS500E20;26
S31000;17RS500FV21;11
S31000;17RS500G21;32
S31000;17RS500P19;11
S31000;17SE100FV21;6
S31000;17SH060SE21;3
S31000;17SH060SG21;5
S31000;17SH060SP21;5
S31000;17SH075G21;29
S31000;17SH300E19;17
S31000;17SH300FV21;6
S31000;17SH300G21;12
S31000;17SH300P19;7
S31000;17SH500E19;26
S31000;17SH500FV21;8
S31000;17SH500G21;22
S31000;17SH500P19;10
S31000;17VI100P19;5
S31000;20AR075O20;5
S31000;20DO050O20;3
S31000;20DO075CD20;2
S31000;20DO130HC20;4
S31000;20ET075CD20;4
S31000;20ET075HC20;6
S31000;20ET075OC20;3
S31000;20FE050H20;4
S31000;20GD250CD20;15
S31000;20GD250HC20;18
S31000;20GD250OC20;11
S31000;20GD500HC20;13
S27000;17SH300G21;9
S10;17SH300P19;11
S27000;17SH300P19;8
S10;17SH500E19;14
S27000;17SH500E19;20
S10;17SH500FV21;2
S27000;17SH500FV21;5
S10;17SH500G21;16
S27000;17SH500G21;22
S10;17SH500P19;9
S27000;17SH500P19;13
S10;17VI100P19;6
S27000;17VI100P19;4
S10;20AR075O20;8
S27000;20AR075O20;6
S10;20DO050O20;4
S27000;20DO050O20;5
S10;20DO075CD20;3
S10;20DO130HC20;2
S27000;20DO130HC20;11
S10;20ET075CD20;3
S27000;20ET075CD20;4
S10;20ET075HC20;3
S27000;20ET075HC20;5
S10;20ET075OC20;3
S27000;20ET075OC20;5
S10;20FE050H20;3
S27000;20FE050H20;4
S10;20GD250CD20;7
S27000;20GD250CD20;8
S10;20GD250HC20;12
S27000;20GD250HC20;10
S10;20GD250OC20;8
S27000;20GD250OC20;9
S10;20GD500HC20;15
S27000;20GD500HC20;6
S10;20HR050H20;3
S27000;20HR050H20;4
S10;20NV150H20;11
S27000;20NV150H20;10
S10;20SA050CD20;4
S27000;20SA050CD20;4
S10;20SA050HC20;3
S27000;20SA050HC20;6
S10;24BL012CB5;9
S27000;24BL012CB5;9
S10;24BL012R22;6
S27000;24BL012R22;9
S10;24BR050CB21;10
S27000;24BR050CB21;13
S10;24BR050CB6;2
S27000;24BR050CB6;2
S10;24BR050R22;11
S20;54VMWHSHOLIDAY22;1
S20;98BBGD030VE4;13
S21000;98BBGD030VE4;28
S21000;98BBMA010KA3;22
S20;98BBMA010KA3;19
S20;ACPOCVEC00001;136
S21000;ACPOCVEC00001;172
S21000;ACPOCVEC00002;157
S20;ACPOCVEC00002;182
S20;ACPOCVEC00003;100
S21000;ACPOCVEC00003;100
S21000;ACPOCVEC00005;151
S21000;ACPOCVKA00700;9
S20;ACPOCVKA00700;9
S20;SGOCVE600004;17
S21000;SGOCVE600004;25
S20;SGOCVKI00214;6
S20;SGOCVKI00215;72
S20;SGOCVKI00216;20
S20;SGOCVKI00217;55
S20;SGOCVKI00218;56
S20;SGOCVKI00219;11
S20;SGOCVKI00220;38
S20;SGOCVKI00221;12
S20;SGOCVKI00222;31
S20;SGOCVKI00223;28
S20;SGOCVKI00224;14
S20;SGOCVKI00225;37
S20;SGOCVKI00226;50
S20;SGOCVKI00227;6
S20;SGOCVKI00228;20
S20;SGOCVKI00229;24
S20;SGOCVKI00230;19
S20;SGOCVKI00231;15
S20;SGOCVKI00232;15
S20;SGOCVKI00233;35
S20;SGOCVKI00234;9
S20;SGOCVKI00235;20
S20;SGOCVKI00236;13
S20;SGOCVKI00237;14
S20;SGOCVKI00238;4
S20;SGOCVKI00239;11
S20;SGOCVKI00240;7
S20;SGOCVKI00241;13
S20;SGOCVKI00242;23
S20;SGOCVKI00243;25
S20;SGOCVKI00244;54
S20;SGOCVKI00254;15
S24000;17RC500P19;3
S90000;17RC500P19;8
S24000;17RS500FV21;11
S24000;17RS500G21;13
S24000;17SE100FV21;12
S24000;17SH060SE21;4
S90000;17SH060SE21;3
S24000;17SH060SG21;2
S90000;17SH060SG21;5
S24000;17SH060SP21;3
S90000;17SH060SP21;6
S90000;17SH075E19;41
S90000;17SH075FV21;9
S24000;17SH075G21;6
S90000;17SH075G21;1
S90000;17SH075P19;22
S24000;17SH300E19;13
S90000;17SH300E19;3
S24000;17SH300FV21;7
S90000;17SH300FV21;9
S24000;17SH300G21;8
S90000;17SH300G21;7
S24000;17SH300P19;4
S90000;17SH300P19;2
S24000;17SH500E19;5
S24000;17SH500FV21;10
S24000;17SH500G21;6
S24000;17SH500P19;1
S24000;17VI100P19;4
S90000;17VI100P19;5
S24000;20AR075O20;6
S90000;20AR075O20;6
S24000;20DO050O20;1
S90000;20DO050O20;1
S24000;20DO075CD20;7
S90000;20DO075CD20;10
S24000;20DO130HC20;5
S90000;20DO130HC20;7
S24000;20ET075CD20;1
S90000;20ET075CD20;6
S24000;20ET075HC20;4
S90000;20ET075HC20;2
S24000;20ET075OC20;4
S90000;20ET075OC20;7
S24000;20FE050H20;3
S90000;20FE050H20;14
S24000;20GD250CD20;8
S90000;20GD250CD20;9
S24000;20GD250HC20;18
S90000;20GD250HC20;3
S24000;20GD250OC20;11
S90000;20GD250OC20;12
S21000;11LT300I20;6
S21000;11MA030A20;4
S21000;11MH075A19;4
S21000;11MWC200I19;9
S21000;11PEP050I20;4
S21000;11PM100SH19;5
S21000;11PM100SI19;6
S21000;11SA050O21;9
S21000;11SA100H19;11
S21000;11SA100H20;9
S21000;11SD100CS19;10
S21000;11SD100SH19;8
S21000;11SD100SI19;5
S21000;11SD100SL19;11
S21000;11SP200CS19;8
S21000;11SP200SH19;7
S21000;11SP200SI19;6
S21000;11SP200SL19;7
S21000;11SV080I19;3
S21000;15AS250VA18;6
S21000;15BA500L16A;9
S21000;15DO050VA5;9
S21000;15ET010VB19;3
S21000;15ET100VA20;4
S21000;15ET100VB20;2
S21000;15GD075L21;25
S21000;15GD250L21;25
S21000;15GD250VA20;13
S21000;15GD250VB21;19
S21000;15GD500VB21;7
S21000;15GM065L21;39
S21000;15GM065VB21;40
S21000;15GM280VB21;5
S21000;15GN300L21;8
S21000;15GS150VBL22;1
S21000;15HE005L14;3
S21000;15LC250L14;13
S21000;15LC250VA20;10
S21000;15LC250VB3;11
S21000;15LM300L11;6
S21000;15MA030L21;36
S21000;15MA030VA5;12
S21000;15MA030VB3;21
S21000;15MA075L20;17
S21000;15MA075VB4;14
S21000;15ORVER22;85
S21000;15RC500VB21;11
S21000;15RG500L14;12
S21000;15RG500VA20;12
S21000;15SA070VB6;3
S21000;15SA075VB21;10
S21000;15SH250VA20;6
S27000;24BR050R22;10
S10;24ET075CB21;11
S27000;24ET075CB21;6
S10;24ET075R22;13
S27000;24ET075R22;6
S10;24GD250CB21;21
S27000;24GD250CB21;32
S10;24GD250R22;15
S27000;24GD250R22;22
S10;24GD500R22;9
S27000;24GD500R22;6
S10;24LC250CB4;15
S27000;24LC250CB4;14
S10;24LC250R22;16
S27000;24LC250R22;7
S10;24MA030CB4;56
S27000;24MA030CB4;79
S27000;24MA030P15;8
S10;24MA030R22;31
S27000;24MA030R22;37
S10;24MA030RA19;8
S27000;24MA030RA19;4
S10;24MA030RV19;5
S27000;24MA030RV19;4
S10;24MA075CB4;13
S27000;24MA075CB4;18
S10;24MA075P15;9
S27000;24MA075P15;3
S10;24MA075R22;3
S27000;24MA075R22;5
S10;24MA150R22;6
S27000;24MA150R22;5
S10;24ORCHB22;19
S27000;24ORCHB22;18
S10;24RG500CB21;7
S27000;24RG500CB21;6
S10;24RG500R22;12
S27000;24RG500R22;15
S10;24RO010CB4;13
S27000;24RO010CB4;6
S10;24SA050CB21;10
S27000;24SA050CB21;5
S10;24SA050R22;12
S27000;24SA050R22;3
S10;27BP050I19;5
S10;27BY015I19;4
S27000;27BY015I19;5
S27000;27CP050I19;10
S27000;27DB015I20;8
S27000;27DC050I20;20
S27000;27DCB060I17;5
S27000;27DE015I21;5
S27000;27DF125I17;24
S27000;27DH015I22;14
S30000;20NV150H20;12
S30000;20SA050CD20;3
S30000;20SA050HC20;2
S30000;24BL012CB5;13
S30000;24BL012R22;13
S30000;24BR050CB21;10
S30000;24BR050R22;16
S30000;24ET075CB21;13
S30000;24ET075R22;13
S30000;24GD250CB21;33
S30000;24GD250R22;24
S30000;24GD500R22;8
S30000;24LC250CB4;15
S30000;24LC250R22;11
S30000;24MA030CB4;77
S30000;24MA030P15;7
S30000;24MA030R22;37
S30000;24MA030RA19;4
S30000;24MA030RV19;8
S30000;24MA030S6;8
S30000;24MA075CB4;21
S30000;24MA075P15;10
S30000;24MA075R22;9
S30000;24MA150R22;7
S30000;24ORCHB22;24
S30000;24RG500CB21;13
S30000;24RG500R22;25
S30000;24RO010CB4;13
S30000;24SA050CB21;11
S30000;24SA050R22;7
S30000;27BP050I19;8
S30000;27BY015I19;8
S10;27CP050I19;5
S30000;27CP050I19;8
S10;27DB015I20;11
S30000;27DB015I20;5
S10;27DC050I20;14
S30000;27DC050I20;21
S10;27DCB060I17;4
S30000;27DCB060I17;4
S10;27DE015I21;6
S30000;27DE015I21;5
S10;27DF125I17;19
S30000;27DF125I17;21
S10;27DH015I22;10
S30000;27DH015I22;23
S10;27DH030I20;4
S30000;27DH030I20;5
S10;27DH030I22;14
S30000;27DH030I22;23
S10;27DL200I21;6
S30000;27DL200I21;3
S10;27DS030I20;5
S29000;20SA050HC20;14
S29000;20SA050O20;2
S29000;24BL012CB5;18
S29000;24BL012R22;8
S29000;24BR050CB21;16
S29000;24BR050CB6;13
S29000;24BR050R22;21
S29000;24ET075CB21;14
S29000;24ET075R22;12
S29000;24GD250CB21;56
S29000;24GD250R22;52
S29000;24GD500R22;19
S29000;24LC250CB4;26
S29000;24LC250R22;9
S29000;24MA030CB4;92
S29000;24MA030P15;19
S29000;24MA030R22;57
S29000;24MA030RA19;9
S29000;24MA030RV19;7
S29000;24MA075CB4;44
S29000;24MA075P15;20
S29000;24MA075R22;34
S29000;24MA150R22;23
S29000;24ORCHB22;1
S29000;24RG500CB21;32
S29000;24RG500R22;33
S29000;24RO010CB4;7
S29000;24SA050CB21;14
S29000;24SA050R22;17
S29000;27CP050I19;18
S29000;27DB015I20;16
S29000;27DC050I20;14
S29000;27DCB060I17;4
S29000;27DE015I21;16
S29000;27DF125I17;22
S29000;27DH015I20;4
S29000;27DH015I22;22
S29000;27DH030I20;4
S29000;27DH030I22;22
S29000;27DL200I21;5
S29000;27DS030I20;10
S29000;27ER015I22;24
S29000;27ER050I21;16
S29000;27ER150I21;19
S29000;27EV200I19;19
S29000;27HC050I18;4
S29000;27HCR050I16;6
S29000;27HS030I18;2
S29000;27HSR030I16;11
S29000;27MI150I20;4
S29000;27MP050I20;2
S29000;27MP150I20;12
S29000;27MQ065I15A;3
S28000;24BR050R22;17
S28000;24CC150R22H;1
S28000;24ET050R22H;11
S28000;24ET075CB21;3
S28000;24ET075R22;4
S28000;24GD250CB21;36
S28000;24GD250R22;29
S28000;24GD500R22;10
S28000;24LC250CB4;18
S28000;24LC250R22;11
S28000;24MA030CB4;88
S28000;24MA030P15;24
S28000;24MA030R22;70
S28000;24MA030RA19;7
S28000;24MA030RV19;9
S28000;24MA075CB4;25
S28000;24MA075P15;18
S28000;24MA075R22;21
S28000;24MA150R22;8
S28000;24ORCHB22;9
S28000;24RG500CB21;20
S28000;24RG500R22;8
S28000;24RO010CB4;7
S28000;24SA050CB21;9
S28000;24SA050R22;17
S28000;27BY015I19;5
S28000;27CP050I19;9
S28000;27DB015I20;8
S28000;27DC050I20;9
S28000;27DCB060I17;4
S28000;27DE015I21;9
S28000;27DF125I17;25
S28000;27DH015I20;2
S28000;27DH015I22;16
S28000;27DH030I20;3
S28000;27DH030I22;17
S28000;27DL200I21;4
S28000;27DS030I20;5
S28000;27ER015I22;14
S28000;27ER050I21;12
S28000;27ER150I21;32
S28000;27EV200I19;9
S28000;27HC050I18;4
S28000;27HCR050I16;5
S28000;27HS030I18;3
S28000;27HSR030I16;4
S28000;27MI150I20;4
S28000;27MP050I20;28
S28000;27MP150I20;9
S28000;27MQ065I15A;4
S28000;27MS050I20;8
S28000;27OR030I21;22
S28000;27OR050I21;22
S24000;20GD500HC20;10
S90000;20GD500HC20;9
S24000;20HR050H20;8
S90000;20HR050H20;8
S24000;20NV150H20;15
S90000;20NV150H20;4
S24000;20SA050CD20;4
S90000;20SA050CD20;9
S24000;20SA050HC20;5
S90000;20SA050HC20;11
S24000;20SA050O20;2
S90000;20SA050O20;1
S24000;24BL012CB5;10
S90000;24BL012CB5;5
S24000;24BL012R22;10
S24000;24BR050CB21;20
S90000;24BR050CB21;3
S24000;24BR050R22;18
S90000;24BR050R22;3
S24000;24ET075CB21;5
S24000;24ET075R22;5
S90000;24ET075R22;3
S90000;24GD075CB5;29
S24000;24GD250CB21;39
S24000;24GD250R22;29
S90000;24GD250R22;4
S24000;24GD500R22;7
S90000;24GD500R22;8
S90000;24GM030C21;1
S90000;24LC075R22;145
S24000;24LC250CB4;15
S90000;24LC250CB4;4
S90000;24LC250CBL22;3
S24000;24LC250R22;7
S90000;24LC250R22;1
S90000;24MA030CB21;30
S24000;24MA030CB4;70
S90000;24MA030CBL22;3
S24000;24MA030P15;12
S90000;24MA030P15;9
S24000;24MA030R22;54
S90000;24MA030R22;6
S24000;24MA030RA19;7
S90000;24MA030RA19;9
S90000;24MA030RE19;10
S24000;24MA030RV19;7
S90000;24MA030RV19;8
S24000;24MA075CB4;32
S90000;24MA075CB4;4
S24000;24MA075P15;11
S90000;24MA075P15;7
S90000;24MA075R18;24
S24000;24MA075R22;14
S20;24GD250R22;34
S20;24GD500R22;16
S20;24LC250CB4;26
S20;24LC250R22;22
S20;24MA030CB4;55
S20;24MA030P15;34
S20;24MA030R22;55
S20;24MA030RA19;10
S20;24MA030RV19;10
S20;24MA075CB4;39
S20;24MA075P15;24
S20;24MA075R22;38
S20;24MA150R22;20
S20;24ORCHB22;24
S20;24RG500CB21;33
S20;24RG500R22;22
S20;24RO010CB4;4
S20;24SA050CB21;11
S20;24SA050R22;7
S20;27BP050I19;2
S20;27BY015I19;3
S20;27CP050I19;14
S20;27DB015I20;9
S20;27DC050I20;19
S20;27DCB060I17;4
S20;27DE015I21;11
S20;27DF125I17;19
S20;27DH015I20;2
S20;27DH015I22;17
S20;27DH030I20;3
S20;27DH030I22;16
S20;27DL200I21;9
S20;27DS030I20;4
S20;27ER015I22;20
S20;27ER050I21;10
S20;27ER150I21;13
S20;27EV200I19;8
S20;27HC050I18;5
S20;27HCR050I16;7
S20;27HS030I18;5
S20;27HSR030I16;5
S20;27MI150I20;4
S20;27MP050I20;5
S20;27MP150I20;7
S20;27MQ065I15A;3
S20;27MS050I20;8
S20;27OR030I21;23
S20;27OR050I21;20
S20;27SP030I19;4
S20;29ASH240A20;7
S20;29BP100A22;3
S20;29EC200A21;6
S20;29GE200A21;28
S20;29HD075A15;142
S20;29HD250A15;28
S31000;20HR050H20;4
S31000;20NV150H20;13
S31000;20SA050CD20;5
S31000;20SA050HC20;6
S31000;24BL012CB5;20
S31000;24BL012R22;3
S31000;24BR050CB21;20
S31000;24BR050R22;16
S31000;24CC150R22H;9
S31000;24ET050R22H;13
S31000;24ET075CB21;12
S31000;24ET075R22;4
S31000;24GD250CB21;33
S31000;24GD250R22;25
S31000;24GD500R22;7
S31000;24LC250CB4;18
S31000;24LC250R22;14
S31000;24MA030CB4;74
S31000;24MA030P15;9
S31000;24MA030R22;59
S31000;24MA030RA19;7
S31000;24MA030RV19;7
S31000;24MA075CB4;25
S31000;24MA075P15;4
S31000;24MA075R22;18
S31000;24MA150R22;11
S31000;24ORCHB22;30
S31000;24RG500CB21;22
S31000;24RG500R22;8
S31000;24RO010CB4;12
S31000;24SA050CB21;26
S31000;24SA050R22;21
S31000;27BY015I19;4
S31000;27CP050I19;7
S31000;27DB015I20;7
S31000;27DC050I20;13
S31000;27DCB060I17;4
S31000;27DE015I21;6
S31000;27DF125I17;5
S31000;27DH015I22;12
S31000;27DH030I22;10
S31000;27DL200I21;5
S31000;27DS030I20;10
S31000;27ER015I22;19
S31000;27ER050I21;12
S31000;27ER150I21;21
S31000;27EV200I19;9
S31000;27HC050I18;4
S31000;27HCR050I16;3
S31000;27HS030I18;4
S31000;27HSR030I16;2
S31000;27MI150I20;4
S31000;27MP050I20;70
S20;29HD500A15;43
S20;29HS100A22SM;11
S20;29LC200A20US;31
S20;29MA030A17;57
S20;29MA075A21;36
S20;29ORALM22;68
S20;29RC200A20;66
S20;29RH500A15;44
S20;29SA050A21;2
S20;29SE125A21;18
S20;29SH240A20;5
S20;29VC240A22;9
S20;38BV050A19;12
S20;38EC015A18;4
S20;38EV075A21;12
S20;38FT200A21;8
S20;38MI150A22;8
S20;38RC050A22;5
S20;38UV030A18;13
S20;38WC050A21;8
S20;38WS030A21;7
S90000;24MA075R22;14
S24000;24MA150R22;9
S90000;24MA150R22;9
S24000;24ORCHB22;26
S90000;24RG500CB21;6
S24000;24RG500R22;8
S24000;24RO010CB4;10
S24000;24SA050CB21;18
S90000;24SA050CB21;2
S24000;24SA050R22;9
S90000;24SA050R22;4
S24000;27BY015I19;6
S90000;27BY015I19;5
S24000;27CP050I19;5
S90000;27CP050I19;2
S24000;27DB015I20;5
S90000;27DB015I20;2
S24000;27DC050I20;3
S24000;27DCB060I17;4
S90000;27DCB060I17;4
S24000;27DE015I21;6
S90000;27DE015I21;2
S24000;27DF125I17;12
S90000;27DH015I20;3
S24000;27DH015I22;9
S90000;27DH030I20;8
S24000;27DH030I22;5
S90000;27DH030I22;4
S24000;27DL200I21;5
S90000;27DL200I21;7
S24000;27DS030I20;4
S90000;27DS030I20;6
S24000;27ER015I22;13
S24000;27ER050I21;10
S90000;27ER050I21;13
S24000;27ER150I21;10
S24000;27EV200I19;6
S24000;27HC050I18;4
S90000;27HC050I18;5
S24000;27HCR050I16;4
S90000;27HCR050I16;5
S24000;27HS030I18;4
S90000;27HS030I18;5
S24000;27HSR030I16;4
S90000;27HSR030I16;6
S24000;27MI150I20;4
S90000;27MI150I20;10
S24000;27MP050I20;5
S90000;27MP050I20;8
S24000;27MP150I20;7
S90000;27MP150I20;9
S24000;27MQ065I15A;3
S90000;27MQ065I15A;4
S27000;27DH030I20;4
S27000;27DH030I22;13
S27000;27DL200I21;3
S27000;27DS030I20;6
S27000;27ER015I22;24
S27000;27ER050I21;7
S27000;27ER150I21;16
S27000;27EV200I19;3
S27000;27FP050I19;1
S27000;27HC050I18;4
S27000;27HCR050I16;4
S27000;27HS030I18;3
S27000;27HSR030I16;3
S27000;27MI150I20;3
S27000;27MP050I20;3
S27000;27MP150I20;7
S27000;27MQ065I15A;4
S27000;27MS050I20;4
S27000;27OR030I21;18
S27000;27OR050I21;24
S27000;27SP030I19;4
S27000;29ASH240A20;4
S27000;29BP100A19;4
S27000;29BP100A22;4
S27000;29EC200A21;9
S27000;29GE200A21;20
S27000;29HD075A15;139
S27000;29HD250A15;19
S27000;29HD500A15;18
S27000;29HS100A22SM;6
S27000;29LC200A20US;26
S27000;29MA030A17;13
S27000;29MA075A21;11
S27000;29ORALM22;45
S27000;29RC200A20;25
S27000;29RH500A15;17
S27000;29SA050A21;5
S27000;29SE125A21;9
S27000;29SH240A20;5
S27000;29VC240A22;9
S27000;38BV050A19;4
S27000;38EC015A18;4
S27000;38EV075A21;7
S27000;38FT200A21;4
S27000;38MI150A22;14
S27000;38RC050A22;3
S27000;38UV030A18;10
S27000;38WC050A21;10
S27000;38WM065A18;1
S27000;38WS030A21;10
S27000;49BO015CS19;4
S27000;49CABNO22;92
S27000;49DISC3NO22;138
S30000;27DS030I20;7
S10;27ER015I22;14
S30000;27ER015I22;31
S10;27ER050I21;8
S30000;27ER050I21;11
S10;27ER150I21;16
S30000;27ER150I21;17
S10;27EV200I19;8
S30000;27EV200I19;5
S30000;27FP050I19;2
S10;27HC050I18;4
S30000;27HC050I18;4
S10;27HCR050I16;5
S30000;27HCR050I16;4
S10;27HS030I18;4
S30000;27HS030I18;4
S10;27HSR030I16;3
S30000;27HSR030I16;5
S10;27MI150I20;4
S30000;27MI150I20;4
S10;27MP050I20;10
S30000;27MP050I20;15
S10;27MP150I20;3
S30000;27MP150I20;11
S10;27MQ065I15A;3
S30000;27MQ065I15A;4
S10;27MS050I20;1
S30000;27MS050I20;9
S10;27OR030I21;25
S30000;27OR030I21;32
S10;27OR050I21;18
S30000;27OR050I21;34
S10;27SP030I19;4
S30000;27SP030I19;4
S10;29ASH240A20;4
S30000;29ASH240A20;5
S30000;29BP100A19;4
S10;29BP100A22;7
S30000;29BP100A22;4
S10;29EC200A21;10
S30000;29EC200A21;2
S10;29GE200A21;21
S30000;29GE200A21;22
S10;29HD075A15;166
S30000;29HD075A15;151
S10;29HD250A15;14
S30000;29HD250A15;20
S10;29HD500A15;22
S30000;29HD500A15;34
S10;29HS100A22SM;12
S30000;29HS100A22SM;5
S10;29LC200A20US;32
S30000;29LC200A20US;23
S10;29MA030A17;15
S21000;17AF100G20;16
S21000;17AS250E19;7
S21000;17AS250FV21;5
S21000;17AS250G21;8
S21000;17AS250P19;6
S21000;17AS500E19;9
S21000;17AS500FV21;5
S21000;17AS500G21;11
S21000;17AS500P19;4
S21000;17DO050F13;9
S21000;17ER075P19;6
S21000;17HI100G19;13
S21000;17MC200G21;8
S21000;17RC500E20;18
S21000;17RC500G21;10
S21000;17RC500P19;2
S21000;17RS500E20;24
S21000;17RS500FV21;25
S21000;17RS500G21;26
S21000;17RS500P19;19
S21000;17SH060SE21;5
S21000;17SH060SG21;5
S21000;17SH060SP21;3
S21000;17SH075G21;9
S21000;17SH300E19;10
S21000;17SH300FV21;8
S21000;17SH300G21;16
S21000;17SH300P19;8
S21000;17SH500E19;6
S21000;17SH500FV21;8
S21000;17SH500G21;11
S21000;17SH500P19;7
S21000;17VI100P19;5
S21000;20AR075O20;5
S21000;20DO050O20;3
S21000;20DO075CD20;7
S21000;20DO130HC20;5
S21000;20ET075CD20;3
S21000;20ET075HC20;4
S21000;20ET075OC20;5
S21000;20FE050H20;3
S21000;20GD250CD20;14
S21000;20GD250HC20;19
S21000;20GD250OC20;12
S21000;20GD500HC20;10
S21000;20HR050H20;3
S21000;20NV150H20;12
S21000;20SA050CD20;4
S21000;20SA050HC20;4
S21000;20SA050O20;1
S21000;24BL012CB5;10
S21000;24BL012R22;8
S21000;24BR050CB21;11
S29000;27MS050I20;9
S29000;27OR030I21;24
S29000;27OR050I21;22
S29000;27SP030I19;6
S29000;29ASH240A20;21
S29000;29BP100A22;6
S29000;29EC200A21;15
S29000;29GE200A21;57
S29000;29HD075A15;138
S29000;29HD250A15;24
S29000;29HD500A15;48
S29000;29HS100A22SM;14
S29000;29LC200A20US;38
S29000;29MA030A17;37
S29000;29MA075A21;23
S29000;29ORALM22;26
S29000;29RC200A20;58
S29000;29RH500A15;69
S29000;29SA050A21;18
S29000;29SE125A21;14
S29000;29SH240A20;12
S29000;29VC240A22;20
S29000;38BV050A19;6
S29000;38EC015A18;3
S29000;38EV075A21;15
S29000;38FT200A21;12
S29000;38MI150A22;7
S29000;38RC050A22;12
S29000;38UV030A18;18
S29000;38WC050A21;11
S29000;38WS030A21;11
S29000;49CABNO22;129
S29000;49DISC3NO22;138
S29000;49HD035A15;103
S29000;49LC020A20;138
S29000;49OR005I21;27
S29000;49PADCL20;54
S29000;52AF006G20;217
S29000;52AS006E19;84
S29000;52AS006FV21;134
S29000;52AS006G21;258
S29000;52AS006P19;153
S29000;52BY001I19;140
S29000;52CARDNO22;4
S29000;52CD0015A18;34
S29000;52CL0015K21;28
S29000;52CP0015I19;200
S29000;52CP006K22;205
S29000;52CV0015K22;131
S29000;52DB001I20;88
S29000;52DC0015I20;202
S29000;52DE001I21;194
S29000;52DF002I17;112
S28000;27SP030I19;4
S28000;29ASH240A20;9
S28000;29BP100A22;6
S28000;29EC200A21;7
S28000;29GE200A21;11
S28000;29HD075A15;61
S28000;29HD250A15;28
S28000;29HD500A15;27
S28000;29HD9000A21;1
S28000;29HS100A22SM;10
S28000;29LC200A20US;37
S28000;29MA030A17;36
S28000;29MA075A21;19
S28000;29ORALM22;35
S28000;29RC200A20;22
S28000;29RH500A15;26
S28000;29SA050A21;5
S28000;29SE125A21;10
S28000;29SH240A20;8
S28000;29VC240A22;7
S28000;38BV050A19;6
S28000;38EC015A18;3
S28000;38EV075A21;3
S28000;38FT200A21;5
S28000;38MI150A22;6
S28000;38RC050A22;13
S28000;38UV030A18;8
S28000;38WC050A21;10
S28000;38WS030A21;6
S28000;49CABNO22;60
S28000;49CP020K22;27
S28000;49DC004I20;11
S28000;49DH004I20;14
S28000;49DISC3NO22;34
S28000;49LC020A20;33
S28000;49MA010K22;27
S28000;49OR005I21;77
S28000;52AF006G20;104
S28000;52AS006E19;61
S28000;52AS006FV21;54
S28000;52AS006G21;114
S28000;52AS006P19;61
S28000;52BY001I19;136
S28000;52CARDNO22;4
S28000;52CD0015A18;30
S28000;52CL0015K21;31
S28000;52CP0015I19;104
S28000;52CP006K22;306
S28000;52CV0015K22;261
S28000;52DB001I20;159
S28000;52DC0015I20;101
S28000;52DE001I21;176
S28000;52DF002I17;134
S24000;27MS050I20;8
S90000;27MS050I20;6
S90000;27OR030I19;35
S24000;27OR030I21;19
S24000;27OR050I21;12
S24000;27SP030I19;3
S90000;27SP030I19;9
S90000;27TS001I20;679
S24000;29ASH240A20;3
S90000;29ASH240A20;2
S24000;29BP100A22;5
S90000;29BP100A22;8
S24000;29EC200A21;7
S90000;29EC200A21;3
S24000;29GE200A21;29
S24000;29HD075A15;135
S24000;29HD250A15;20
S24000;29HD500A15;11
S90000;29HS100A21;9
S24000;29HS100A22SM;16
S90000;29HS100A22SM;3
S24000;29LC200A20US;22
S24000;29MA030A17;22
S24000;29MA075A21;16
S90000;29MA075A21;12
S24000;29ORALM22;37
S24000;29RC200A20;2
S24000;29RH500A15;18
S24000;29SA050A21;7
S24000;29SE125A21;2
S90000;29SE125A21;2
S90000;29SH075A20;35
S24000;29SH240A20;2
S90000;29VC240A16;13
S24000;29VC240A22;9
S90000;29VC240A22;12
S90000;38BV050A19;10
S90000;38EC015A18;6
S90000;38EV075A21;10
S90000;38FT200A18;20
S90000;38FT200A21;6
S90000;38MI150A18;4
S90000;38MI150A22;4
S90000;38RC050A18;4
S90000;38RC050A22;4
S90000;38UV030A18;9
S90000;38WC050A18;35
S90000;38WC050A21;8
S90000;38WS030A18;22
S90000;38WS030A21;7
S90000;49AF015G20;160
S90000;49BM010K19;21
S90000;49BO015CS19;40
S21000;24BR050R22;1
S21000;24ET075CB21;2
S21000;24ET075R22;4
S21000;24GD250CB21;27
S21000;24GD250R22;23
S21000;24GD500R22;6
S21000;24LC250CB4;12
S21000;24LC250R22;8
S21000;24MA030CB4;46
S21000;24MA030P15;14
S21000;24MA030R22;38
S21000;24MA030RA19;10
S21000;24MA030RV19;10
S21000;24MA075CB4;15
S21000;24MA075P15;15
S21000;24MA075R22;14
S21000;24MA150R22;7
S21000;24ORCHB22;10
S21000;24RG500CB21;10
S21000;24RG500R22;10
S21000;24RO010CB4;7
S21000;24SA050CB21;14
S21000;24SA050R22;13
S27000;49HD035A15;18
S27000;49LC020A20;139
S27000;49MA010K22;3
S27000;49OR005I21;71
S27000;52AF006G20;104
S27000;52AS006E19;73
S27000;52AS006FV21;56
S27000;52AS006G21;100
S27000;52AS006P19;113
S27000;52BY001I19;199
S27000;52CARDNO22;4
S27000;52CD0015A18;32
S27000;52CL0015K21;52
S27000;52CP0015I19;58
S27000;52CP006K22;297
S27000;52CV0015K22;115
S27000;52DB001I20;88
S27000;52DC0015I20;246
S27000;52DE001I21;127
S27000;52DF002I17;74
S27000;52DH001I22;230
S27000;52DL002I21;165
S27000;52DS001I20;71
S27000;52ER002I21;363
S27000;52FP0015I19;86
S27000;52GD0015A18;66
S27000;52GIF1NO22;3
S27000;52GIF2NO22;3
S27000;52HD006A18;289
S27000;52HS001I17;78
S27000;52HS004A18;110
S27000;52LABANO22;76
S27000;52LASANO22;195
S27000;52LC006A20;351
S27000;52LGEBAG19;54
S27000;52LGEBOX18;9
S27000;52LGENSA21;74
S27000;52LT002R21;62
S27000;52MA003K22A;182
S27000;52MC006G21;228
S27000;52MGEBOX18;13
S27000;52MGENSA21;78
S27000;52MIBANO22;178
S27000;52MMB1NO22;31
S27000;52MMB2NO22;30
S27000;52MMB3NO22;34
S27000;52MMBANO22;292
S27000;52MMSANO22;324
S27000;52MOCOL316;1
S27000;52MS001I20;84
S27000;52OR001I21;175
S27000;52PMGBOX18;3
S27000;52PS0015R21;65
S31000;27MP150I20;2
S31000;27MQ065I15A;4
S31000;27MS050I20;4
S31000;27OR030I21;18
S31000;27OR050I21;12
S31000;27SP030I19;5
S31000;29ASH240A20;7
S31000;29BP100A22;8
S31000;29EC200A21;8
S31000;29GE200A21;25
S31000;29HD075A15;43
S31000;29HD250A15;26
S31000;29HD500A15;28
S31000;29HD9000A21;2
S31000;29HS100A22SM;3
S31000;29LC200A20US;7
S31000;29MA030A17;42
S31000;29MA075A21;20
S31000;29ORALM22;94
S31000;29RC200A20;37
S31000;29RH500A15;50
S31000;29SA050A21;19
S31000;29SE125A21;17
S31000;29SH240A20;7
S31000;29VC240A22;15
S31000;38BV050A19;6
S31000;38EC015A18;6
S31000;38EV075A21;9
S31000;38FT200A21;6
S31000;38MI150A22;4
S31000;38RC050A22;4
S31000;38UV030A18;9
S31000;38WC050A21;5
S31000;38WS030A21;4
S31000;49BO015CS19;16
S31000;49CABNO22;131
S31000;49CM010O21;19
S31000;49CM030I19;7
S31000;49CP020K22;5
S31000;49DC004I20;39
S31000;49DH004I20;30
S31000;49DISC3NO22;38
S31000;49HD035A15;7
S31000;49LC020A20;37
S31000;49LD030I21;3
S31000;49MA010K22;5
S31000;49OR005I21;126
S31000;49ORALM22;7
S31000;49ORCHB22;10
S31000;49ORKAR22;7
S31000;49ORMEN22;2
S31000;52AF006G20;72
S31000;52AS006E19;136
S29000;52DH001I20;100
S29000;52DH001I22;176
S29000;52DL002I21;193
S29000;52DS001I20;76
S29000;52ER002I21;346
S29000;52EV002I19;50
S29000;52GD0015A18;40
S29000;52GIF1NO22;2
S29000;52GIF2NO22;2
S29000;52HD006A18;188
S29000;52HS001I17;81
S29000;52HS004A18;186
S29000;52LASANO22;355
S29000;52LC006A20;185
S29000;52LGEBOX18;7
S29000;52LGENSA21;75
S29000;52LT002R21;74
S29000;52MA003K22A;183
S29000;52MC006G21;179
S29000;52MGEBOX18;3
S29000;52MGENSA21;67
S29000;52MMB1NO22;80
S29000;52MMB2NO22;88
S29000;52MMB3NO22;87
S29000;52MMSANO22;224
S29000;52MOCOL316;4
S29000;52MS001I20;95
S29000;52OR001I21;210
S29000;52PMGBOX18;2
S29000;52PS0015R21;116
S29000;52RIB1NO22;6
S29000;52RIB2NO22;6
S29000;52RIBOXNO22;554
S29000;52SGENSA21GPS;181
S29000;52SH006E19;76
S29000;52SH006FV21;78
S29000;52SH006G21;205
S29000;52SH006P19;80
S29000;52SMSANO22;350
S29000;52SP001I19;30
S29000;52STINO22;6
S29000;52TS001I22;123
S29000;52TS001R21;130
S29000;ACPOCVKA00700;18
S29000;SGOCVKI00214;1
S29000;SGOCVKI00215;65
S29000;SGOCVKI00216;26
S29000;SGOCVKI00217;89
S29000;SGOCVKI00218;91
S29000;SGOCVKI00219;6
S29000;SGOCVKI00220;29
S29000;SGOCVKI00221;16
S29000;SGOCVKI00222;29
S30000;29MA030A17;20
S10;29MA075A21;11
S30000;29MA075A21;12
S10;29ORALM22;48
S30000;29ORALM22;59
S10;29RC200A20;19
S30000;29RC200A20;39
S10;29RH500A15;14
S30000;29RH500A15;35
S10;29SA050A21;5
S30000;29SA050A21;11
S10;29SE125A21;6
S30000;29SE125A21;6
S10;29SH240A20;6
S30000;29SH240A20;4
S10;29VC240A22;10
S30000;29VC240A22;9
S10;38BV050A19;4
S30000;38BV050A19;4
S10;38EC015A18;4
S30000;38EC015A18;4
S10;38EV075A21;10
S30000;38EV075A21;4
S10;38FT200A21;1
S30000;38FT200A21;7
S10;38MI150A22;13
S30000;38MI150A22;4
S10;38RC050A18;2
S10;38RC050A22;14
S30000;38RC050A22;4
S10;38UV030A18;4
S30000;38UV030A18;8
S10;38WC050A21;1
S30000;38WC050A21;4
S10;38WM065A18;2
S10;38WS030A21;2
S30000;38WS030A21;8
S10;49BO015CS19;53
S30000;49BO015CS19;12
S10;49CABNO22;91
S30000;49CABNO22;101
S10;49CP020K22;10
S10;49DC004I20;35
S30000;49DC004I20;2
S10;49DH004I20;10
S30000;49DH004I20;32
S10;49DISC3NO22;156
S30000;49DISC3NO22;151
S10;49HD035A15;43
S30000;49HD035A15;40
S10;49LC020A20;186
S30000;49LC020A20;172
S10;49MA010K22;9
S30000;49MA010K22;18
S29000;SGOCVKI00223;30
S29000;SGOCVKI00224;17
S29000;SGOCVKI00225;37
S29000;SGOCVKI00226;37
S29000;SGOCVKI00227;12
S29000;SGOCVKI00228;35
S29000;SGOCVKI00229;37
S29000;SGOCVKI00230;19
S29000;SGOCVKI00231;10
S29000;SGOCVKI00232;8
S29000;SGOCVKI00233;25
S29000;SGOCVKI00234;12
S29000;SGOCVKI00235;28
S29000;SGOCVKI00236;19
S29000;SGOCVKI00237;29
S29000;SGOCVKI00238;15
S29000;SGOCVKI00239;12
S29000;SGOCVKI00240;14
S29000;SGOCVKI00241;14
S29000;SGOCVKI00242;23
S29000;SGOCVKI00243;27
S29000;SGOCVKI00244;80
S29000;SGOCVKI00254;27
S27000;52PSAC18;1
S27000;52RIB1NO22;7
S27000;52RIB2NO22;7
S27000;52RIBOXNO22;288
S27000;52SGENSA21GPS;71
S27000;52SH006E19;172
S27000;52SH006FV21;125
S27000;52SH006G21;148
S27000;52SH006P19;75
S27000;52SMBANO22;188
S27000;52SMSANO22;221
S27000;52SP001I19;51
S27000;52STINO22;6
S27000;52TS001I22;107
S27000;52TS001R21;56
S27000;ACPOCVEC00001;229
S27000;ACPOCVEC00002;64
S27000;ACPOCVEC00003;70
S27000;ACPOCVEC00005;162
S27000;ACPOCVKA00700;8
S27000;SGOCVE600004;3
S27000;SGOCVKI00214;5
S27000;SGOCVKI00215;66
S21000;SGOCVKI00215;57
S21000;SGOCVKI00216;15
S27000;SGOCVKI00216;18
S27000;SGOCVKI00217;49
S21000;SGOCVKI00217;53
S21000;SGOCVKI00218;50
S27000;SGOCVKI00218;51
S27000;SGOCVKI00219;9
S21000;SGOCVKI00219;13
S21000;SGOCVKI00220;18
S27000;SGOCVKI00220;25
S27000;SGOCVKI00221;9
S21000;SGOCVKI00221;6
S21000;SGOCVKI00222;61
S27000;SGOCVKI00222;40
S27000;SGOCVKI00223;16
S21000;SGOCVKI00223;23
S21000;SGOCVKI00224;10
S27000;SGOCVKI00224;5
S27000;SGOCVKI00225;36
S21000;SGOCVKI00225;53
S21000;SGOCVKI00226;47
S27000;SGOCVKI00226;39
S27000;SGOCVKI00227;8
S21000;SGOCVKI00227;7
S21000;SGOCVKI00228;67
S27000;SGOCVKI00228;31
S27000;SGOCVKI00229;18
S21000;SGOCVKI00229;22
S28000;52DH001I22;28
S28000;52DL002I21;164
S28000;52DS001I20;34
S28000;52ER002I21;258
S28000;52FP0015I19;58
S28000;52GD0015A18;44
S28000;52GIF1NO22;3
S28000;52GIF2NO22;3
S28000;52HD006A18;204
S28000;52HS001I17;39
S28000;52HS004A18;84
S28000;52LABANO22;92
S28000;52LASANO22;292
S28000;52LC006A20;252
S28000;52LGEBAG19;25
S28000;52LGEBOX18;8
S28000;52LGENSA21;129
S28000;52LT002R21;64
S28000;52MA003K22A;151
S28000;52MC006G21;159
S28000;52MGEBOX18;5
S28000;52MGENSA21;65
S28000;52MIBANO22;45
S28000;52MMB1NO22;49
S28000;52MMB2NO22;44
S28000;52MMB3NO22;47
S28000;52MMBANO22;191
S28000;52MMSANO22;209
S28000;52MOCOL316;1
S28000;52MS001I20;57
S28000;52OR001I21;405
S28000;52PHGHTS20;3
S28000;52PMGBOX18;38
S28000;52PS0015R21;65
S28000;52PSAC18;1
S28000;52RIB1NO22;8
S28000;52RIB2NO22;8
S28000;52RIBOXNO22;500
S28000;52SAMPENV18;516
S28000;52SGENSA21GPS;52
S28000;52SH006E19;213
S28000;52SH006FV21;217
S28000;52SH006G21;166
S28000;52SH006P19;199
S28000;52SMBANO22;19
S28000;52SMSANO22;471
S28000;52SP001I19;181
S28000;52STINO22;6
S28000;52TS001I22;296
S28000;52TS001R21;30
S28000;ACPOCVE7T00016;1
S21000;SGOCVKI00230;16
S27000;SGOCVKI00230;10
S27000;SGOCVKI00231;14
S21000;SGOCVKI00231;17
S21000;SGOCVKI00232;9
S27000;SGOCVKI00232;12
S27000;SGOCVKI00233;35
S21000;SGOCVKI00233;36
S21000;SGOCVKI00234;9
S27000;SGOCVKI00234;9
S27000;SGOCVKI00235;24
S21000;SGOCVKI00235;21
S21000;SGOCVKI00236;11
S27000;SGOCVKI00236;12
S27000;SGOCVKI00237;7
S21000;SGOCVKI00237;9
S21000;SGOCVKI00238;8
S27000;SGOCVKI00238;5
S27000;SGOCVKI00239;9
S21000;SGOCVKI00239;8
S21000;SGOCVKI00240;12
S27000;SGOCVKI00240;10
S27000;SGOCVKI00241;16
S21000;SGOCVKI00241;15
S21000;SGOCVKI00242;24
S27000;SGOCVKI00242;19
S27000;SGOCVKI00243;24
S21000;SGOCVKI00243;20
S21000;SGOCVKI00244;48
S27000;SGOCVKI00244;48
S27000;SGOCVKI00254;14
S21000;SGOCVKI00254;13
S90000;49CABNO22;46
S90000;49CL008K21;16
S90000;49CL1SA18;71
S90000;49CM030I19;70
S90000;49CP004I19;8
S90000;49CP008I19;27
S90000;49DB004I20;30
S90000;49DC004I20;10
S90000;49DC008I20;16
S90000;49DH004I20;51
S90000;49DH004I22;30
S90000;49EDT0075O22;41
S90000;49ET007CB22;38
S90000;49GD035CB5;50
S90000;49HD035A15;126
S90000;49HS015A18;34
S90000;49IC1POU20;14
S90000;49IC2POU20;47
S90000;49IC3POU20;27
S90000;49LD030I20;26
S90000;49LD030I21;21
S90000;49MA010A17;3
S90000;49MA010A21X;10
S90000;49MA010CB4;65
S90000;49MA010L16;83
S90000;49MA010L21;20
S90000;49MASKRS21;26
S90000;49MR010K14;45
S90000;49MS008I20;169
S90000;49MWC030I19;101
S90000;49PFCWC21;40
S90000;49PI010K18;32
S90000;49PMENNO21;46
S90000;49PO1NH18;145
S90000;49PO2HER20;1
S90000;49PO2RS21;36
S90000;49PO2SA19;30
S90000;49POCK2NO22;22
S90000;49POCKNO21;125
S90000;49POSUCS22;40
S90000;49POU1O21;139
S90000;49POUCB21;15
S90000;49POUCH2NO21;47
S90000;49POUHE22;39
S90000;49POUID20;4
S90000;49POUIS19;23
S90000;49PWPBM22;7
S90000;49RCWM22;48
S10;49OR005I21;88
S30000;49OR005I21;46
S10;52AF006G20;32
S30000;52AF006G20;52
S10;52AS006E19;31
S30000;52AS006E19;116
S10;52AS006FV21;62
S30000;52AS006FV21;51
S10;52AS006G21;72
S30000;52AS006G21;186
S10;52AS006P19;120
S30000;52AS006P19;69
S10;52BY001I19;253
S30000;52BY001I19;154
S10;52CARDNO22;4
S30000;52CARDNO22;4
S10;52CD0015A18;34
S30000;52CD0015A18;109
S30000;52CL0015K21;114
S10;52CP0015I19;70
S30000;52CP0015I19;120
S10;52CP006K22;164
S30000;52CP006K22;154
S10;52CV0015K22;81
S30000;52CV0015K22;64
S10;52DB001I20;163
S30000;52DB001I20;181
S10;52DC0015I20;43
S30000;52DC0015I20;270
S10;52DE001I21;72
S30000;52DE001I21;117
S10;52DF002I17;16
S30000;52DF002I17;225
S10;52DH001I22;152
S30000;52DH001I22;355
S10;52DL002I21;219
S30000;52DL002I21;70
S10;52DS001I20;49
S30000;52DS001I20;99
S10;52ER002I21;525
S30000;52ER002I21;467
S10;52GD0015A18;105
S30000;52GD0015A18;109
S10;52GIF1NO22;3
S30000;52GIF1NO22;3
S10;52GIF2NO22;3
S30000;52GIF2NO22;3
S10;52HD006A18;241
S30000;52HD006A18;342
S10;52HS001I17;36
S30000;52HS001I17;138
S10;52HS004A18;87
S30000;52HS004A18;117
S10;52LABANO22;49
S31000;52AS006FV21;54
S31000;52AS006G21;63
S31000;52AS006P19;32
S31000;52BY001I19;80
S31000;52CARDNO22;4
S31000;52CERJAR20;2
S31000;52CL0015K21;69
S31000;52CP0015I19;154
S31000;52CP006K22;242
S31000;52CRA1C22;5
S31000;52CRA2C22;5
S31000;52CRA3C22;5
S31000;52CRA4C22;5
S31000;52CV0015K22;185
S31000;52DB001I20;119
S31000;52DC0015I20;220
S31000;52DE001I21;153
S31000;52DF002I17;177
S31000;52DH001I22;239
S31000;52DL002I21;186
S31000;52DS001I20;62
S31000;52ER002I21;307
S31000;52GD0015A18;53
S31000;52GIF1NO22;3
S31000;52GIF2NO22;3
S31000;52HD006A18;377
S31000;52HKNO22;1
S31000;52HS001I17;82
S31000;52HS004A18;125
S31000;52LABANO22;46
S31000;52LASANO22;267
S31000;52LC006A20;291
S31000;52LGEBAG19;9
S31000;52LGEBOX18;8
S31000;52LGENSA21;126
S31000;52LT002R21;47
S31000;52MA003K22A;192
S31000;52MC006G21;112
S31000;52MGEBOX18;6
S31000;52MGENSA21;98
S31000;52MIBANO22;318
S31000;52MMB1NO22;79
S31000;52MMB2NO22;84
S31000;52MMB3NO22;74
S31000;52MMBANO22;557
S31000;52MMSANO22;400
S31000;52MOCOL216;1
S31000;52MOCOL316;1
S31000;52MS001I20;117
S31000;52OR001I21;176
S31000;52PHGHTS20;4
S31000;52PMGBOX18;1
S31000;52PRBONO22;1
S30000;52LABANO22;102
S10;52LASANO22;209
S30000;52LASANO22;222
S10;52LC006A20;133
S30000;52LC006A20;242
S30000;52LGEBAG19;28
S10;52LGEBOX18;10
S30000;52LGEBOX18;15
S10;52LGENSA21;124
S30000;52LGENSA21;113
S10;52LT002R21;147
S30000;52LT002R21;107
S10;52MA003K22A;101
S30000;52MA003K22A;170
S10;52MC006G21;144
S30000;52MC006G21;84
S30000;52MGEBAG19;43
S10;52MGEBOX18;20
S30000;52MGEBOX18;8
S10;52MGENSA21;55
S30000;52MGENSA21;128
S10;52MIBANO22;204
S30000;52MIBANO22;210
S10;52MMB1NO22;40
S30000;52MMB1NO22;39
S10;52MMB2NO22;29
S30000;52MMB2NO22;37
S10;52MMB3NO22;33
S30000;52MMB3NO22;41
S10;52MMBANO22;427
S30000;52MMBANO22;324
S10;52MMSANO22;386
S30000;52MMSANO22;441
S10;52MOCOL316;1
S30000;52MOCOL316;2
S10;52MS001I20;48
S30000;52MS001I20;132
S10;52OR001I21;144
S30000;52OR001I21;222
S10;52PMGBOX18;8
S30000;52PMGBOX18;7
S10;52PS0015R21;34
S30000;52PS0015R21;150
S10;52PSAC18;1
S10;52RIB1NO22;7
S30000;52RIB1NO22;7
S10;52RIB2NO22;7
S30000;52RIB2NO22;7
S10;52RIBOXNO22;298
S30000;52RIBOXNO22;214
S10;52SGENSA21GPS;74
S30000;52SGENSA21GPS;70
S10;52SH006E19;137
S30000;52SH006E19;165
S31000;52PS0015R21;80
S31000;52PSAC18;1
S31000;52QUAGD22;1
S31000;52RBO2NO22;6
S31000;52RBO3NO22;6
S31000;52RIB1NO22;8
S31000;52RIB2NO22;8
S31000;52RIBOXNO22;540
S31000;52SGEBOX18;10
S31000;52SGENSA21GPS;107
S31000;52SH006E19;220
S31000;52SH006FV21;117
S31000;52SH006G21;119
S31000;52SH006P19;66
S31000;52SMB1NO22;6
S31000;52SMB2NO22;6
S31000;52SMBANO22;406
S31000;52SMSANO22;318
S31000;52SP001I19;38
S31000;52STINO22;6
S31000;52TS001I22;263
S31000;52TS001R21;46
S31000;52TSANIVISLI20;1
S31000;52TSPDIS20;3
S31000;52WRAPNO22;7
S31000;54VMHOLIDAY22;1
S31000;54VMWHSHOLIDAY22;2
S31000;98BBGD030VE4;10
S31000;98BBLC030VE5;9
S31000;98BBMA010KA3;19
S31000;ACPOCVEC00001;126
S31000;ACPOCVEC00002;217
S31000;ACPOCVEC00003;68
S31000;ACPOCVEC00005;261
S31000;ACPOCVKA00700;17
S31000;SGOCVKI00214;5
S31000;SGOCVKI00215;90
S31000;SGOCVKI00216;20
S31000;SGOCVKI00217;102
S31000;SGOCVKI00218;106
S31000;SGOCVKI00219;23
S31000;SGOCVKI00220;49
S31000;SGOCVKI00221;10
S31000;SGOCVKI00222;93
S31000;SGOCVKI00223;34
S31000;SGOCVKI00224;10
S31000;SGOCVKI00225;69
S31000;SGOCVKI00226;42
S31000;SGOCVKI00227;13
S31000;SGOCVKI00228;31
S31000;SGOCVKI00229;37
S31000;SGOCVKI00230;19
S10;52SH006FV21;190
S30000;52SH006FV21;140
S10;52SH006G21;82
S30000;52SH006G21;193
S10;52SH006P19;78
S30000;52SH006P19;152
S10;52SMBANO22;291
S30000;52SMBANO22;311
S10;52SMSANO22;282
S30000;52SMSANO22;291
S10;52SP001I19;169
S30000;52SP001I19;103
S10;52STINO22;6
S30000;52STINO22;6
S10;52TS001I22;211
S30000;52TS001I22;139
S10;52TS001R21;19
S30000;52TS001R21;201
S10;98BBGD030VE4;49
S30000;98BBGD030VE4;7
S10;98BBLC030VE5;15
S10;98BBMA010KA3;66
S10;ACPOCVEC00001;210
S30000;ACPOCVEC00001;313
S10;ACPOCVEC00002;192
S30000;ACPOCVEC00002;530
S10;ACPOCVEC00003;102
S30000;ACPOCVEC00003;100
S10;ACPOCVEC00004;4
S10;ACPOCVEC00005;115
S30000;ACPOCVEC00005;200
S10;ACPOCVKA00700;7
S30000;ACPOCVKA00700;8
S10;SGOCVE600004;1
S30000;SGOCVE600004;18
S30000;SGOCVKI00214;13
S30000;SGOCVKI00215;69
S30000;SGOCVKI00216;16
S30000;SGOCVKI00217;48
S30000;SGOCVKI00218;55
S30000;SGOCVKI00219;23
S30000;SGOCVKI00220;36
S30000;SGOCVKI00221;6
S30000;SGOCVKI00222;58
S30000;SGOCVKI00223;14
S30000;SGOCVKI00224;6
S30000;SGOCVKI00225;49
S30000;SGOCVKI00226;29
S30000;SGOCVKI00227;10
S30000;SGOCVKI00228;21
S30000;SGOCVKI00229;22
S30000;SGOCVKI00230;10
S30000;SGOCVKI00231;15
S31000;SGOCVKI00231;16
S31000;SGOCVKI00232;19
S31000;SGOCVKI00233;50
S31000;SGOCVKI00234;14
S31000;SGOCVKI00235;38
S31000;SGOCVKI00236;16
S31000;SGOCVKI00237;30
S31000;SGOCVKI00238;12
S31000;SGOCVKI00239;11
S31000;SGOCVKI00240;17
S31000;SGOCVKI00241;22
S31000;SGOCVKI00242;46
S31000;SGOCVKI00243;30
S31000;SGOCVKI00244;57
S31000;SGOCVKI00254;34
S30000;SGOCVKI00232;16
S30000;SGOCVKI00233;26
S30000;SGOCVKI00234;9
S30000;SGOCVKI00235;39
S30000;SGOCVKI00236;12
S30000;SGOCVKI00237;4
S30000;SGOCVKI00238;4
S30000;SGOCVKI00239;4
S30000;SGOCVKI00240;10
S30000;SGOCVKI00241;18
S30000;SGOCVKI00242;30
S30000;SGOCVKI00243;16
S30000;SGOCVKI00244;57
S30000;SGOCVKI00254;15
