S15;01BM150K19;14
S27000;01BM150K19;12
S28000;01BM150K19;16
S15;01SA100LT20;14
S27000;01SA100LT20;10
S28000;01SA100LT20;16
S15;11ET075O21;7
S27000;11ET075O21;3
S28000;11ET075O21;5
S15;11FAG10TR19;14
S27000;11FAG10TR19;3
S28000;11FAG10TR19;10
S15;11MWC200I19;4
S27000;11MWC200I19;3
S28000;11MWC200I19;4
S15;11PEP050I20;4
S27000;11PEP050I20;6
S28000;11PEP050I20;3
S15;15ET010VB19;4
S27000;15ET010VB19;5
S28000;15ET010VB19;3
S15;15MA075L20;15
S27000;15MA075L20;4
S28000;15MA075L20;11
S15;17AF100G20;17
S27000;17AF100G20;14
S28000;17AF100G20;17
S15;17AS500G21;14
S27000;17AS500G21;9
S28000;17AS500G21;13
S15;17RC500G21;19
S27000;17RC500G21;20
S28000;17RC500G21;20
S15;17SH060SP21;4
S27000;17SH060SP21;4
S28000;17SH060SP21;4
S15;20HR050H20;7
S27000;20HR050H20;4
S28000;20HR050H20;4
S15;01CMR500K20;13
S27000;01CMR500K20;8
S28000;01CMR500K20;15
S15;01CP200K22;16
S27000;01CP200K22;9
S28000;01CP200K22;18
S15;01EM075K20;4
S27000;01EM075K20;5
S28000;01EM075K20;3
S15;01PI075K18;4
S27000;01PI075K18;3
S28000;01PI075K18;4
S15;11BP100I19;2
S27000;11BP100I19;4
S28000;11BP100I19;7
S15;11BR100A20;4
S27000;11BR100A20;15
S28000;11BR100A20;3
S15;11MH075A19;4
S27000;11MH075A19;3
S28000;11MH075A19;4
S15;11SD100CS19;15
S27000;11SD100CS19;1
S28000;11SD100CS19;13
S15;17RC500E20;16
S27000;17RC500E20;13
S28000;17RC500E20;13
S15;17SH500G21;18
S27000;17SH500G21;7
S28000;17SH500G21;15
S27000;01CP200K17;1
S15;01HDR500K20;16
S27000;01HDR500K20;11
S28000;01HDR500K20;19
S15;01SA250LT20;14
S27000;01SA250LT20;10
S28000;01SA250LT20;18
S15;01SL300LV20;4
S27000;01SL300LV20;9
S28000;01SL300LV20;8
S15;11BG140CS19;9
S27000;11BG140CS19;7
S28000;11BG140CS19;12
S15;11CM030H20;11
S27000;11CM030H20;15
S28000;11CM030H20;33
S28000;11ET010O21;4
S15;11PM100SL19;4
S27000;11PM100SL19;4
S15;11SV080I19;4
S27000;11SV080I19;4
S28000;11SV080I19;3
S15;15LM300L11;13
S27000;15LM300L11;5
S28000;15LM300L11;12
S15;17AS250G21;12
S27000;17AS250G21;7
S28000;17AS250G21;12
S15;17DO050F13;15
S27000;17DO050F13;11
S28000;17DO050F13;13
S15;17RS500FV21;22
S27000;17RS500FV21;14
S28000;17RS500FV21;31
S15;17SH300FV21;4
S27000;17SH300FV21;11
S28000;17SH300FV21;3
S15;29GE200A21;18
S27000;29GE200A21;18
S28000;29GE200A21;19
S15;01CL050K21;3
S27000;01CL050K21;9
S15;01CM500K20;11
S27000;01CM500K20;8
S28000;01CM500K20;15
S15;01EC200K22;11
S27000;01EC200K22;5
S28000;01EC200K22;12
S15;11BH050A18;4
S27000;11BH050A18;4
S28000;11BH050A18;4
S15;11EH150A18;4
S27000;11EH150A18;5
S28000;11EH150A18;4
S15;15AS250VA18;13
S27000;15AS250VA18;4
S28000;15AS250VA18;4
S15;15GD250VA20;4
S27000;15GD250VA20;4
S15;15HE005L14;4
S27000;15HE005L14;4
S28000;15HE005L14;13
S15;15RC500VB21;13
S27000;15RC500VB21;8
S28000;15RC500VB21;26
S15;17RS500P19;24
S27000;17RS500P19;13
S28000;17RS500P19;18
S15;17SH500FV21;17
S27000;17SH500FV21;16
S28000;17SH500FV21;21
S15;20ET075CD20;4
S27000;20ET075CD20;3
S28000;20ET075CD20;4
S15;20FE050H20;4
S27000;20FE050H20;4
S28000;20FE050H20;2
S15;20GD250CD20;12
S27000;20GD250CD20;4
S28000;20GD250CD20;15
S15;29HD250A15;20
S28000;27OR030I21;66
S27000;27OR030I21;31
S15;27OR030I21;34
S28000;27MS050I20;7
S27000;27MS050I20;4
S15;27MS050I20;6
S15;24GD075R22;1
S28000;15GD250VB17;1
S28000;24MA030CB4;46
S27000;24MA030CB4;32
S15;24MA030CB4;44
S28000;24ET075R22;10
S27000;24ET075R22;9
S15;24ET075R22;9
S28000;24ET050R18;1
S28000;01SE125K21;8
S27000;01SE125K21;4
S15;01SE125K21;13
S27000;01SA050KL20;5
S28000;01RL500K20;14
S27000;01RL500K20;13
S15;01RL500K20;14
S28000;24MA030RA19;12
S27000;24MA030RA19;5
S15;24MA030RA19;4
S28000;24BR050CB6;12
S27000;24BR050CB6;6
S15;24BR050CB6;3
S28000;20AR075O20;12
S27000;20AR075O20;5
S15;20AR075O20;12
S28000;11LD200I19;11
S27000;11LD200I19;6
S15;11LD200I19;11
S28000;01HV030K16;4
S27000;01HV030K16;5
S15;01HV030K16;4
S28000;17SH075G21;83
S27000;17SH075G21;27
S15;17SH075G21;15
S28000;17SH060SG21;2
S27000;17SH060SG21;7
S15;17SH060SG21;14
S28000;17MC200G21;12
S27000;17MC200G21;8
S15;17MC200G21;13
S28000;17CS150P19;2
S27000;17CS150P19;8
S28000;17AS500E19;14
S27000;17AS500E19;10
S15;17AS500E19;13
S28000;15SH250VA20;10
S27000;15SH250VA20;4
S15;15SH250VA20;12
S28000;15MA075VB4;14
S27000;15MA075VB4;10
S15;15MA075VB4;10
S28000;15GN300L11;14
S27000;15GN300L11;10
S15;15GN300L11;12
S28000;15BA500L16A;19
S27000;15BA500L16A;4
S15;15BA500L16A;15
S28000;11SD100SI19;4
S27000;11SD100SI19;4
S15;11SD100SI19;12
S28000;11HE005CS19;13
S27000;11HE005CS19;9
S15;11HE005CS19;6
S28000;11ET010H20;13
S27000;11ET010H20;7
S15;11ET010H20;3
S28000;11CM030H19;30
S27000;11CM030H19;10
S15;11CM030H19;12
S27000;11BG140SH19;3
S15;11BG140SH19;4
S28000;10EST500V21;31
S28000;10EST250V21;32
S28000;01SA100LV20;2
S27000;01SA100LV20;14
S15;01SA100LV20;20
S28000;01PI030K18;12
S27000;01PI030K18;3
S15;01PI030K18;4
S28000;01MA030K22;31
S27000;01MA030K22;7
S15;01MA030K22;28
S28000;10P500V21;31
S28000;10P250V21;32
S28000;24MA075CB4;17
S27000;24MA075CB4;7
S15;24MA075CB4;13
S28000;24MA030RE19;1
S27000;24MA030RE19;6
S15;24MA030RE19;4
S28000;24MA030S6;10
S27000;24MA030S6;6
S15;24MA030S6;4
S15;24BR050R22;8
S27000;24BR050R22;9
S28000;24BR050R22;15
S15;24LC250R22;18
S27000;24LC250R22;15
S28000;24LC250R22;35
S15;24SA050R22;9
S27000;24SA050R22;8
S28000;24SA050R22;15
S15;27MQ065I15A;4
S27000;27MQ065I15A;4
S28000;27MQ065I15A;4
S15;29HD500A15;36
S27000;29HD500A15;40
S28000;29HD500A15;44
S15;01HN0075K19;14
S27000;01HN0075K19;6
S28000;01HN0075K19;11
S15;01MR030K14;17
S27000;01MR030K14;15
S28000;01MR030K14;29
S15;01SL500LV20;11
S27000;01SL500LV20;6
S28000;01SL500LV20;10
S15;11CM125I19;4
S27000;11CM125I19;3
S28000;11CM125I19;10
S15;11GD250O21;14
S27000;11GD250O21;9
S28000;11GD250O21;27
S15;11LC250H20;10
S27000;11LC250H20;9
S28000;11LC250H20;10
S15;15LC250L14;13
S27000;15LC250L14;8
S28000;15LC250L14;30
S15;15RG500L14;16
S27000;15RG500L14;11
S28000;15RG500L14;13
S15;17AS500FV21;11
S27000;17AS500FV21;9
S28000;17AS500FV21;11
S15;20GD250HC20;14
S27000;20GD250HC20;9
S28000;20GD250HC20;17
S15;24BL012R22;11
S27000;24BL012R22;11
S28000;24BL012R22;15
S15;24ET075CB21;4
S27000;24ET075CB21;5
S28000;24ET075CB21;11
S15;24MA030RV19;4
S27000;24MA030RV19;7
S15;24RG500C20;11
S27000;24RG500C20;10
S28000;24RG500C20;41
S15;27DB015I20;10
S27000;27DB015I20;8
S28000;27DB015I20;14
S15;29HS100A21;18
S27000;29HS100A21;11
S28000;29HS100A21;20
S15;01CF050K22;17
S27000;01CF050K22;14
S28000;01CF050K22;12
S27000;01CL200K17;2
S15;01SL0045K13;29
S27000;01SL0045K13;17
S28000;01SL0045K13;20
S15;11BO100CS19;21
S27000;11BO100CS19;8
S28000;11BO100CS19;19
S15;11SA100H20;8
S27000;11SA100H20;9
S28000;11SA100H20;13
S15;15GD250L14;14
S27000;15GD250L14;12
S28000;15GD250L14;24
S28000;15GD9000V21;1
S15;17AS250E19;8
S27000;17AS250E19;8
S28000;17AS250E19;4
S15;17SH500P19;18
S27000;17SH500P19;11
S28000;17SH500P19;20
S15;20ET075HC20;4
S27000;20ET075HC20;3
S28000;20ET075HC20;3
S15;20SA050HC20;4
S27000;20SA050HC20;4
S28000;20SA050HC20;4
S15;24MA030R22;46
S27000;24MA030R22;47
S28000;24MA030R22;65
S15;24MA075R18;1
S27000;24MA075R18;5
S28000;24MA075R18;12
S15;24RG500R22;15
S27000;24RG500R22;7
S28000;24RG500R22;30
S15;27EV200I19;13
S27000;27EV200I19;12
S28000;27EV200I19;16
S28000;29HD9000A21;2
S15;29MA075A21;13
S27000;29MA075A21;14
S28000;29MA075A21;2
S15;29RC200A20;29
S27000;29RC200A20;20
S28000;29RC200A20;39
S15;01CPR200K22;11
S27000;01CPR200K22;15
S28000;01CPR200K22;14
S15;01HD250K17;4
S27000;01HD250K17;5
S28000;01HD250K17;8
S15;01SB020K21;6
S27000;01SB020K21;11
S28000;01SB020K21;6
S15;01SL500VE20;12
S27000;01SL500VE20;6
S28000;01SL500VE20;13
S15;11CF100TR19;14
S28000;24GD500R22;25
S27000;24GD500R22;15
S15;24GD500R22;48
S28000;01LC250K17;22
S27000;01LC250K17;10
S15;01LC250K17;14
S28000;29LC200A20US;38
S27000;29LC200A20US;26
S15;29LC200A20US;26
S28000;11SA100H19;12
S27000;11SA100H19;9
S15;11SA100H19;12
S28000;01BK010K14;11
S27000;01BK010K14;11
S15;01BK010K14;16
S27000;11CF100TR19;4
S28000;11CF100TR19;11
S15;11GD050A18;8
S27000;11GD050A18;6
S28000;11GD050A18;10
S15;11PM100SI19;4
S27000;11PM100SI19;4
S28000;11PM100SI19;4
S15;11SP200SH19;10
S27000;11SP200SH19;5
S28000;11SP200SH19;1
S27000;15ET100VA20;6
S28000;15ET100VA20;3
S27000;15RG500VA20;8
S28000;15RG500VA20;14
S15;17HI001G19;103
S27000;17HI001G19;115
S28000;17HI001G19;161
S15;17SE100FV21;21
S27000;17SE100FV21;9
S28000;17SE100FV21;22
S15;17SH500E19;11
S27000;17SH500E19;15
S28000;17SH500E19;11
S27000;24LC250R20;3
S15;27DH030I20;15
S27000;27DH030I20;19
S28000;27DH030I20;15
S15;27FP050I19;4
S27000;27FP050I19;4
S28000;27FP050I19;4
S15;29RH500A15;37
S27000;29RH500A15;27
S28000;29RH500A15;42
S15;38BV050A19;4
S27000;38BV050A19;3
S28000;38BV050A19;4
S15;38MI150A18;3
S15;01BV050K16;4
S27000;01BV050K16;5
S28000;01BV050K16;4
S15;01HF100K17;8
S28000;01HF100K17;8
S15;11SP200SL19;9
S27000;11SP200SL19;5
S28000;11SP200SL19;12
S15;15ET100VB20;5
S27000;15ET100VB20;6
S28000;15ET100VB20;5
S15;15GD500VB21;10
S27000;15GD500VB21;10
S28000;15GD500VB21;15
S15;15GM065VB21;18
S27000;15GM065VB21;11
S28000;15GM065VB21;19
S15;15SA070VB6;1
S27000;15SA070VB6;5
S28000;15SA070VB6;3
S27000;17AS075E19;20
S15;17AS250P19;12
S27000;17AS250P19;8
S28000;17AS250P19;6
S15;17SH060SE21;4
S27000;17SH060SE21;8
S28000;17SH060SE21;3
S15;20DO050O20;13
S27000;20DO050O20;3
S28000;20DO050O20;3
S27000;20MP030H20;4
S15;24LC250CB4;14
S27000;24LC250CB4;9
S28000;24LC250CB4;15
S15;24MA075P15;8
S27000;24MA075P15;6
S28000;24MA075P15;4
S15;27DE015I21;7
S27000;27DE015I21;8
S28000;27DE015I21;13
S15;27ER015I20;7
S27000;27ER015I20;4
S15;27MI150I20;5
S27000;27MI150I20;4
S28000;27MI150I20;4
S15;49BO015CS19;102
S27000;49BO015CS19;31
S28000;49BO015CS19;33
S27000;49MA010A21X;20
S15;49OR005I21;124
S15;01CD250K17;10
S27000;01CD250K17;17
S28000;01CD250K17;34
S15;01CL175K22;18
S27000;01CL175K22;15
S28000;01CL175K22;12
S15;01CV050K22;7
S27000;01CV050K22;5
S28000;01CV050K22;2
S15;01PI150K18;17
S27000;01PI150K18;9
S28000;01PI150K18;12
S15;01SA300KRO22;12
S27000;01SA300KRO22;10
S28000;01SA300KRO22;14
S15;01SA500KRO22;8
S27000;01SA500KRO22;13
S28000;01SA500KRO22;14
S28000;01SA9000KV21;1
S28000;11AS90005G21;1
S15;11BC100G21;20
S27000;11BC100G21;36
S28000;11BC100G21;13
S15;11LC250H19;4
S27000;11LC250H19;10
S28000;11LC250H19;4
S15;11SA050O21;34
S27000;11SA050O21;4
S28000;11SA050O21;2
S15;15LC250VB3;13
S27000;15LC250VB3;2
S28000;15LC250VB3;16
S15;17SH300E19;13
S27000;17SH300E19;7
S28000;17SH300E19;11
S15;17VI100P19;7
S27000;17VI100P19;6
S28000;17VI100P19;4
S15;20SA050O20;4
S27000;20SA050O20;7
S28000;20SA050O20;5
S28000;24MA030RV19;5
S15;27DL200I20;3
S27000;27DL200I20;3
S28000;27DL200I20;8
S15;27ER050I21;16
S27000;27ER050I21;10
S28000;27ER050I21;18
S15;27HCR050I16;4
S27000;27HCR050I16;4
S28000;27HCR050I16;3
S15;49POUCB21;16
S27000;49POUCB21;9
S15;01SL300VE20;3
S27000;01SL300VE20;6
S28000;01SL300VE20;11
S15;11GD250H19;13
S27000;11GD250H19;5
S28000;11GD250H19;7
S15;11GD250H20;16
S27000;11GD250H20;11
S28000;11GD250H20;29
S15;11LC250O21;8
S27000;11LC250O21;9
S28000;11LC250O21;12
S15;11LT300I20;3
S27000;11LT300I20;4
S28000;11LT300I20;4
S15;11MA030A20;11
S27000;11MA030A20;4
S28000;11MA030A20;8
S28000;15GD250VA20;24
S15;15GM280VB21;8
S27000;15GM280VB21;3
S28000;15GM280VB21;8
S15;15SE400VB5;4
S27000;15SE400VB5;2
S28000;15SE400VB5;12
S15;17HI100G19;1
S27000;17HI100G19;4
S28000;17HI100G19;20
S15;17RS500E20;23
S27000;17RS500E20;16
S28000;17RS500E20;19
S15;20SA050CD20;8
S27000;20SA050CD20;9
S28000;20SA050CD20;10
S15;27DCB060I17;2
S27000;27DCB060I17;7
S28000;27DCB060I17;4
S15;27DH015I20;10
S27000;27DH015I20;19
S28000;27DH015I20;20
S15;27SP030I19;4
S27000;27SP030I19;2
S28000;27SP030I19;4
S15;29BP100A19;4
S27000;29BP100A19;4
S28000;29BP100A19;11
S27000;49PO2HER20;11
S15;49RCWM22;13
S27000;49RCWM22;6
S28000;49RCWM22;14
S15;01CMJ075K21;15
S27000;01CMJ075K21;14
S28000;01CMJ075K21;18
S15;01LT300K20;15
S27000;01LT300K20;6
S28000;01LT300K20;13
S15;01SA250LV20;20
S27000;01SA250LV20;11
S28000;01SA250LV20;17
S15;11BG140SI19;4
S27000;11BG140SI19;6
S28000;11BG140SI19;2
S15;11CM030O21;14
S27000;11CM030O21;12
S28000;11CM030O21;26
S15;11GE075I20;4
S27000;11GE075I20;4
S28000;11GE075I20;4
S15;11LH200I19;12
S27000;11LH200I19;8
S28000;11LH200I19;14
S15;11SD100SL19;4
S27000;11SD100SL19;3
S28000;11SD100SL19;3
S28000;11SH90005G21;1
S15;15MA030L11;41
S27000;15MA030L11;33
S28000;15MA030L11;50
S15;17RS500G21;25
S28000;17RS500G21;35
S15;17SH075E19;102
S27000;17SH075E19;31
S28000;17SH075E19;85
S15;24MA030P15;13
S27000;24MA030P15;5
S28000;24MA030P15;15
S15;27HSR030I16;4
S27000;27HSR030I16;4
S28000;52DB001I20;229
S27000;52DB001I20;127
S15;52DB001I20;121
S28000;01MA075K22;17
S27000;01MA075K22;16
S15;01MA075K22;16
S28000;27HSR030I16;6
S15;27OR050I21;28
S27000;27OR050I21;35
S28000;27OR050I21;37
S15;27RM300I20;16
S27000;27RM300I20;6
S28000;27RM300I20;15
S15;52HD006A18;325
S27000;52HD006A18;304
S15;01SA100VE20;22
S27000;01SA100VE20;10
S28000;01SA100VE20;40
S15;11BG140SL19;4
S27000;11BG140SL19;8
S28000;11BG140SL19;13
S15;11ET050H20;3
S27000;11ET050H20;3
S28000;11ET050H20;5
S15;11PM100SH19;4
S27000;11PM100SH19;4
S28000;11PM100SH19;4
S15;11SP200SI19;4
S27000;11SP200SI19;2
S28000;11SP200SI19;3
S15;15GM065L21;10
S27000;15GM065L21;9
S28000;15GM065L21;17
S15;15MA030VB3;12
S27000;15MA030VB3;6
S28000;15MA030VB3;15
S15;17AS250FV21;4
S27000;17AS250FV21;8
S28000;17AS250FV21;5
S15;20DO075CD20;12
S27000;20DO075CD20;3
S28000;20DO075CD20;7
S15;20ET075OC20;4
S27000;20ET075OC20;5
S28000;20ET075OC20;6
S15;24GD250CB21;12
S27000;24GD250CB21;10
S28000;24GD250CB21;16
S15;24MA075R22;10
S27000;24MA075R22;10
S28000;24MA075R22;18
S28000;27BP050I19;7
S15;27HS030I18;4
S27000;27HS030I18;5
S28000;27HS030I18;6
S15;29MA030A17;18
S27000;29MA030A17;14
S28000;29MA030A17;32
S15;29SE125A21;15
S27000;29SE125A21;8
S28000;29SE125A21;13
S15;29VC240A22;14
S27000;29VC240A22;11
S28000;29VC240A22;12
S27000;49SH035E21;10
S15;52AS006FV21;235
S15;52LC006A20;205
S27000;52LC006A20;236
S15;01BL012K18;13
S27000;01BL012K18;7
S28000;01BL012K18;15
S15;01CM300K20;2
S27000;01CM300K20;4
S24000;01HV030K16;4
S90000;01HV030K16;5
S90000;01LC500K20;1
S24000;01SA100LT20;11
S90000;01SA100LT20;8
S24000;11ET075O21;6
S90000;11ET075O21;6
S24000;11FAG10TR19;4
S90000;11FAG10TR19;7
S24000;11LD200I19;11
S90000;11LD200I19;10
S24000;11MWC200I19;3
S90000;11MWC200I19;3
S24000;11PEP050I20;5
S90000;11PEP050I20;8
S24000;15ET010VB19;5
S24000;15MA075L20;8
S90000;15MA075L20;6
S24000;17AF100G20;12
S90000;17AF100G20;4
S24000;17AS500G21;9
S90000;17AS500G21;5
S24000;17RC500G21;12
S90000;17RC500G21;3
S24000;17SH060SP21;3
S90000;17SH060SP21;9
S24000;17SH075G18;7
S24000;20AR075O20;5
S90000;20AR075O20;7
S24000;20HR050H20;8
S90000;20HR050H20;6
S24000;24BR050CB6;10
S90000;24BR050CB6;9
S90000;24EF050R18;12
S24000;24MA030RA19;10
S90000;24MA030RA19;6
S24000;24MA030S6;10
S90000;24MA030S6;4
S24000;24RO010CB4;3
S90000;24RO010CB4;5
S90000;27DE015I13US;6
S24000;27DS030I20;4
S90000;27DS030I20;8
S24000;27MP150I20;3
S90000;27MP150I20;15
S90000;27OR030I19;77
S24000;29EC200A21;14
S90000;29EC200A21;10
S24000;29MAV075A19;10
S90000;29MAV075A19;8
S24000;38FT200A21;7
S90000;38FT200A21;7
S90000;49CP008I19;30
S90000;49GD035CB5;11
S90000;49MA010K22;7
S90000;49MA010VB3;14
S90000;49POU1O21;197
S90000;49TOBACH20;26
S90000;52FP0015I19;100
S90000;52HR004G17;100
S24000;52MA003K22A;491
S90000;52MA003K22A;200
S24000;52PMGBOX18;15
S24000;01CMR500K20;14
S90000;01CMR500K20;17
S24000;01CP200K22;12
S90000;01CP200K22;6
S24000;01EM075K20;4
S90000;01EM075K20;10
S90000;01MA075K18;6
S24000;01PI075K18;4
S90000;01PI075K18;15
S24000;01RL500K20;4
S90000;01RL500K20;2
S24000;01SA050KL20;4
S90000;01SA050KL20;5
S24000;01SE125K21;8
S90000;01SE125K21;9
S24000;11BP100I19;4
S90000;11BP100I19;8
S24000;11BR100A20;6
S90000;11BR100A20;5
S24000;11MH075A19;4
S90000;11MH075A19;10
S24000;11SD100CS19;4
S90000;11SD100CS19;8
S24000;15DO050VA5;1
S90000;15DO050VA5;1
S90000;15ET100VB3;5
S90000;17AS075P19;93
S24000;17RC500E20;10
S90000;17RC500E20;13
S24000;17SH500G21;11
S90000;17SH500G21;9
S90000;24ET050R18;1
S24000;24ET075R22;6
S24000;24MA030CB4;47
S24000;24MA030RE19;10
S90000;24MA030RE19;7
S24000;24MA075CB4;11
S90000;24MA075CB4;9
S24000;24RO010R18;4
S90000;24RO010R18;2
S24000;27MP050I20;15
S90000;27MP050I20;17
S90000;29HD250A21X;2
S24000;29SH240A20;10
S90000;29SH240A20;9
S24000;38WC050A21;3
S90000;38WC050A21;5
S90000;49HD035K17;17
S90000;49LD030I20;26
S90000;49POUM21;72
S90000;49TOTMC20;27
S90000;49TRAVNO21;172
S24000;52AS006G21;235
S90000;52AS006G21;399
S24000;52BGERIB18;1
S24000;52BOXMM22;35
S24000;52BY001I19;197
S24000;52ER006P19;27
S24000;52MIGEBAG19;178
S24000;52SH006G21;167
S90000;52SH006G21;478
S24000;98BBDF015IM0;5
S90000;98BBDF015IM0;7
S24000;01CPR200K22;17
S90000;01CPR200K22;19
S24000;01HD250K17;4
S90000;01HD250K17;5
S24000;01SB020K21;13
S90000;01SB020K21;7
S24000;01SL500VE20;4
S90000;01SL500VE20;16
S24000;11CF100TR19;4
S90000;11CF100TR19;7
S24000;11GD050A18;6
S90000;11GD050A18;7
S24000;11PM100SI19;5
S90000;11PM100SI19;9
S24000;11SP200SH19;10
S90000;11SP200SH19;7
S24000;15ET100VA20;6
S90000;15ET100VA20;8
S24000;15RG500VA20;10
S90000;15RG500VA20;5
S90000;17AS250G18;59
S24000;17HI001G19;100
S90000;17HI001G19;100
S24000;17SE100FV21;10
S90000;17SE100FV21;9
S90000;17SH075P19;15
S24000;17SH500E19;15
S90000;17SH500E19;7
S24000;24LC250R20;3
S90000;24MA030R18;3
S24000;27DH030I20;12
S90000;27DH030I20;6
S24000;27FP050I19;2
S28000;01CM300K20;5
S15;01HD500K20;14
S27000;01HD500K20;8
S28000;01HD500K20;14
S15;01MA150K22;24
S27000;01MA150K22;18
S28000;01MA150K22;26
S15;01RV500K20;13
S27000;01RV500K20;3
S28000;01RV500K20;18
S15;01SA050KV20;4
S27000;01SA050KV20;8
S28000;01SA050KV20;11
S28000;11BG140SH19;12
S15;15MA030VA5;4
S27000;15MA030VA5;5
S28000;15MA030VA5;9
S27000;15MA075L11;7
S15;20GD250OC20;11
S27000;20GD250OC20;7
S28000;20GD250OC20;9
S27000;24GD500R19;3
S27000;27DC030I20;5
S28000;27DC030I20;3
S15;27ER150I21;17
S27000;27ER150I21;15
S28000;27ER150I21;26
S15;29SA050A21;15
S27000;29SA050A21;9
S28000;29SA050A21;17
S27000;49PO1NH18;14
S15;52DH001I20;252
S27000;52DH001I20;370
S28000;52DH001I20;384
S15;52LGEBAG19;53
S27000;52LGEBAG19;121
S28000;52LGEBAG19;170
S15;52LGEBOX18;7
S27000;52LGEBOX18;9
S28000;52LGEBOX18;13
S15;01BM050K19;12
S27000;01BM050K19;3
S28000;01BM050K19;11
S27000;01CV050K18;2
S15;11CD050A18;11
S27000;11CD050A18;5
S28000;11CD050A18;12
S15;11SD100SH19;4
S27000;11SD100SH19;2
S28000;11SD100SH19;11
S15;15ET100VA20;4
S15;15LC250VA20;8
S27000;15LC250VA20;6
S21000;01BM050K19;7
S21000;11CD050A18;3
S21000;11SD100SH19;5
S21000;15ET100VA20;5
S21000;15LC250VA20;7
S21000;17RC500P19;12
S21000;17SH300G21;7
S21000;20DO130HC20;4
S21000;24BL012CB5;7
S21000;24MA150R22;14
S21000;24SA050CB6;1
S21000;27BP050I19;3
S21000;27DC050I20;9
S21000;27TS001I20;104
S21000;29ASH240A20;4
S21000;01BL012K18;9
S21000;01CM300K20;6
S21000;01HD500K20;3
S21000;01MA150K22;15
S21000;01RV500K20;12
S21000;01SA050KV20;6
S21000;15MA030VA5;3
S21000;15MA075L11;5
S21000;20GD250OC20;4
S21000;27DC030I20;1
S21000;27ER150I21;21
S21000;29SA050A21;10
S21000;52DH001I20;122
S21000;52LGEBAG19;110
S21000;52LGEBOX18;9
S21000;52MGEBOX18;16
S21000;52MGENSA21;75
S21000;01SA100VE20;9
S21000;11BG140SL19;11
S21000;11ET050H20;8
S21000;11PM100SH19;4
S21000;11SP200SI19;3
S21000;15GM065L21;10
S21000;15MA030VB3;8
S21000;17AS250FV21;6
S21000;20DO075CD20;8
S21000;20ET075OC20;4
S21000;24GD250CB21;17
S21000;24MA075R22;12
S21000;27HS030I18;3
S21000;29MA030A17;12
S21000;29SE125A21;16
S21000;29VC240A22;11
S21000;52AS006FV21;110
S21000;52LC006A20;196
S21000;52SGEBAG19;685
S21000;52SH006P19;181
S21000;01HV030K16;4
S90000;27FP050I19;6
S24000;29RH500A15;32
S90000;29RH500A15;8
S24000;38BV050A19;4
S90000;38BV050A19;10
S24000;38MI150A18;4
S90000;38MI150A18;6
S24000;38UV030A18;8
S90000;49CM030I19;116
S90000;49TOTWC21;90
S24000;52AS006FV21;106
S90000;52AS006FV21;318
S24000;52AS006P19;128
S90000;52AS006P19;198
S24000;52CP0015I19;104
S90000;52CP0015I19;107
S24000;52HS001I17;141
S24000;52HS004A18;145
S90000;52HS004A18;172
S24000;52MGEBAG19;156
S90000;98BBGD050VE2;28
S24000;01BM050K19;6
S90000;01BM050K19;3
S24000;11CD050A18;4
S90000;11CD050A18;7
S24000;11SD100SH19;10
S90000;11SD100SH19;6
S90000;15LC070VB5;69
S24000;15LC250VA20;10
S90000;15LC250VA20;12
S24000;17RC500P19;3
S90000;17RC500P19;18
S24000;17SH300G21;8
S90000;17SH300G21;10
S24000;20DO130HC20;3
S24000;24BL012CB5;8
S90000;24BL012CB5;8
S90000;24GM030C21;65
S90000;24LC075R22;84
S24000;24MA150R22;10
S24000;24SA050CB6;1
S90000;24SA050CB6;1
S24000;27BP050I19;4
S24000;27DC050I20;11
S90000;27DC050I20;6
S24000;27TS001I20;117
S90000;27TS001I20;679
S24000;29ASH240A20;4
S90000;29ASH240A20;10
S90000;29LC200A22C;8
S90000;38WS030A18;22
S90000;49MWC030I19;101
S24000;52MOCOL216;1
S24000;52MS001I20;266
S90000;52MS001I20;378
S24000;01BL012K18;7
S90000;01BL012K18;8
S24000;01CM300K20;4
S90000;01CM300K20;10
S24000;01HD500K20;11
S90000;01HD500K20;12
S24000;01MA150K22;20
S90000;01MA150K22;9
S24000;01RV500K20;4
S90000;01RV500K20;12
S24000;01SA050KV20;12
S90000;01SA050KV20;9
S90000;11BG140SH19;10
S90000;11EP050H19;3
S90000;11LC075O21;20
S24000;15MA030VA5;6
S90000;15MA030VA5;16
S24000;20GD250OC20;8
S90000;20GD250OC20;9
S90000;24GD500R19;2
S24000;27DC030I20;9
S90000;27DC030I20;5
S24000;27ER150I21;17
S90000;29LC200A21X;27
S24000;29SA050A21;3
S90000;29SA050A21;1
S90000;49BM010K19;126
S90000;49MA010L16;152
S90000;49PMENNO21;40
S90000;49PO1NH18;139
S90000;49POUIS19;23
S24000;52DH001I20;314
S90000;52DH001I20;334
S24000;52LASANO21;120
S24000;52LGEBAG19;84
S24000;52LGEBOX18;9
S90000;52LGEBOX18;10
S24000;52MGEBOX18;19
S90000;52MGEBOX18;34
S24000;52MGENSA21;102
S90000;52MMBYNO19;85
S24000;01SA100VE20;16
S90000;01SA100VE20;8
S24000;11BG140SL19;14
S90000;11BG140SL19;12
S24000;11ET050H20;4
S90000;11ET050H20;5
S90000;11GM200I19;1
S90000;11PM100DE20H;4
S24000;11PM100SH19;4
S90000;11PM100SH19;10
S28000;15LC250VA20;11
S15;15RG500VA20;13
S15;17RC500P19;12
S27000;17RC500P19;6
S28000;17RC500P19;4
S15;17SH300G21;3
S27000;17SH300G21;12
S28000;17SH300G21;11
S15;20DO130HC20;2
S27000;20DO130HC20;4
S28000;20DO130HC20;1
S15;24BL012CB5;8
S27000;24BL012CB5;7
S28000;24BL012CB5;10
S15;24LC075R22;15
S27000;24LC075R22;11
S15;24MA150R22;15
S27000;24MA150R22;9
S28000;24MA150R22;15
S27000;24SA050CB6;6
S15;27BP050I19;11
S27000;27BP050I19;3
S15;27DC050I20;15
S27000;27DC050I20;13
S28000;27DC050I20;17
S15;27TS001I20;103
S27000;27TS001I20;93
S28000;27TS001I20;146
S15;29ASH240A20;4
S27000;29ASH240A20;4
S28000;29ASH240A20;12
S15;52MS001I20;149
S27000;52MS001I20;241
S28000;52MS001I20;176
S28000;52SAMPENV18;516
S15;52MGEBOX18;37
S27000;52MGEBOX18;27
S28000;52MGEBOX18;67
S15;52MGENSA21;52
S27000;52MGENSA21;137
S28000;52MGENSA21;272
S15;ACPOCVE7T00015;47
S27000;ACPOCVE7T00015;24
S28000;ACPOCVE7T00015;53
S15;ACPOCVE7T00016;36
S27000;ACPOCVE7T00016;26
S28000;ACPOCVE7T00016;68
S15;ACPOCVE7T00017;10
S27000;ACPOCVE7T00017;12
S28000;ACPOCVE7T00017;38
S15;ACPOCVE7T00018;46
S27000;ACPOCVE7T00018;23
S28000;ACPOCVE7T00018;43
S10;01BM050K19;6
S10;01CV050K18;5
S10;11CD050A18;3
S10;11SD100SH19;5
S10;15ET100VA20;4
S10;15LC250VA20;8
S10;15RG500VA20;13
S10;17RC500P19;7
S10;17SH300G21;4
S10;20DO130HC20;4
S10;24BL012CB5;9
S10;24LC075R22;16
S10;24MA150R22;14
S10;24SA050CB6;6
S10;27BP050I19;4
S10;27DC050I20;16
S10;27TS001I20;302
S10;29ASH240A20;3
S10;52MS001I20;283
S10;01BL012K18;6
S10;01CM300K20;10
S10;01EN300KB19;14
S10;01HD500K20;6
S10;01MA150K22;20
S10;01RV500K20;11
S10;01SA050KV20;12
S10;15MA030VA5;5
S10;15MA075L11;6
S10;20GD250OC20;12
S10;27DC030I20;1
S10;27ER150I21;19
S10;29SA050A21;4
S10;49PO1NH18;35
S10;52DH001I20;107
S10;52LGEBAG19;16
S10;52LGEBOX18;6
S10;52MGEBOX18;16
S10;52MGENSA21;87
S10;ACPOCVE7T00015;24
S10;ACPOCVE7T00016;18
S10;ACPOCVE7T00018;13
S10;ACPOCVE7T00019;3
S10;01SA100VE20;9
S10;11BG140SL19;11
S10;11ET050H20;4
S10;11PM100SH19;4
S10;11SP200SI19;5
S10;15GM065L21;11
S10;15MA030VB3;8
S10;17AS250FV21;9
S10;20DO075CD20;5
S10;20ET075OC20;4
S10;24GD250CB21;5
S10;24GD500R19;2
S29000;01BM050K19;11
S29000;11CD050A18;13
S29000;11SD100SH19;16
S29000;15LC250VA20;15
S29000;17RC500P19;20
S29000;17SH300G21;13
S29000;20DO130HC20;6
S29000;24BL012CB5;9
S29000;24MA150R22;19
S29000;24SA050CB6;9
S29000;27DC050I20;21
S29000;27TS001I20;64
S29000;29ASH240A20;10
S29000;52MS001I20;138
S29000;01BL012K18;13
S29000;01CM300K20;9
S29000;01HD500K20;13
S29000;01MA150K22;43
S29000;01RV500K20;27
S29000;01SA050KV20;7
S29000;11BG140SH19;6
S29000;15MA030VA5;7
S29000;15MA075L11;1
S29000;20GD250OC20;19
S29000;24GD500R19;5
S29000;27ER150I21;19
S29000;29SA050A21;12
S29000;49PMENNO21;46
S29000;52DH001I20;108
S29000;52LGEBOX18;4
S29000;52MGEBOX18;29
S29000;52MGENSA21;122
S29000;ACPOCVE7T00015;40
S29000;ACPOCVE7T00016;50
S29000;ACPOCVE7T00017;39
S29000;ACPOCVE7T00018;43
S29000;ACPOCVE7T00019;43
S29000;01SA100VE20;31
S29000;11BG140SL19;9
S29000;11ET050H20;4
S29000;11GM200I19;4
S29000;11PM100SH19;2
S29000;11SP200SI19;2
S29000;15GM065L21;29
S29000;15MA030VB3;10
S29000;17AS250FV21;8
S29000;20DO075CD20;14
S29000;20ET075OC20;3
S29000;24GD250CB21;31
S29000;24MA075R22;18
S29000;27BP050I19;3
S29000;27HS030I18;6
S20;01BM050K19;5
S20;01CV050K18;2
S20;11CD050A18;2
S20;11SD100SH19;7
S20;15ET100VA20;4
S20;15LC250VA20;11
S20;17RC500P19;3
S20;17SH300G21;3
S20;20DO130HC20;4
S20;24BL012CB5;9
S20;24LC075R22;19
S20;24MA150R22;14
S20;24SA050CB6;2
S20;27BP050I19;3
S20;27DC050I20;14
S20;27TS001I20;294
S20;29ASH240A20;4
S20;52MS001I20;109
S20;01BL012K18;13
S20;01CM300K20;7
S20;01HD500K20;10
S20;01MA150K22;25
S20;01RV500K20;20
S20;01SA050KV20;6
S20;15MA030VA5;11
S20;15MA075L11;1
S20;20GD250OC20;9
S20;27DC030I20;2
S20;27ER150I21;12
S20;29SA050A21;5
S20;52DH001I20;286
S20;52LGEBAG19;57
S20;52LGEBOX18;5
S20;52MGEBOX18;46
S20;52MGENSA21;210
S20;ACPOCVE7T00015;30
S20;ACPOCVE7T00016;25
S20;ACPOCVE7T00018;14
S20;ACPOCVE7T00019;4
S20;01SA100VE20;16
S20;11BG140SL19;6
S20;11ET050H20;4
S20;11PM100SH19;11
S20;11SP200SI19;7
S20;15GM065L21;10
S20;15MA030VB3;2
S20;17AS250FV21;2
S20;20DO075CD20;10
S20;20ET075OC20;2
S20;24GD250CB21;20
S20;24MA030CBL22;13
S20;24MA075R22;12
S20;27HS030I18;4
S20;29MA030A17;11
S21000;01SA100LT20;10
S21000;11ET075O21;6
S21000;11FAG10TR19;6
S21000;11LD200I19;15
S21000;11MWC200I19;7
S21000;11PEP050I20;4
S21000;15ET010VB19;3
S21000;15MA075L20;6
S21000;17AF100G20;17
S21000;17AS500G21;7
S21000;17RC500G21;13
S21000;17SH060SP21;8
S21000;20AR075O20;3
S21000;20HR050H20;4
S21000;24BR050CB6;7
S21000;24MA030RA19;4
S21000;24MA030S6;8
S21000;24RO010CB4;4
S21000;27DS030I20;2
S21000;27MP150I20;3
S21000;29EC200A21;9
S21000;29MAV075A19;3
S21000;38FT200A21;7
S21000;52MA003K22A;367
S21000;52PMGBOX18;20
S21000;01CPR200K22;16
S21000;01HD250K17;3
S21000;01SB020K21;6
S21000;01SL500VE20;15
S21000;11CF100TR19;9
S21000;11GD050A18;5
S21000;52SP001I19;82
S21000;52SAMPENV18;28
S21000;52MS001I20;92
S21000;ACPOCVE7T00019;16
S21000;ACPOCVE7T00018;17
S21000;ACPOCVE7T00017;15
S21000;ACPOCVE7T00016;20
S21000;ACPOCVE7T00015;27
S21000;11PM100SI19;5
S21000;11SP200SH19;2
S21000;15RG500VA20;22
S21000;17HI001G19;94
S21000;17SE100FV21;14
S21000;17SH500E19;17
S21000;24LC250R20;2
S21000;27DH030I20;13
S21000;27FP050I19;9
S21000;29RH500A15;27
S21000;38BV050A19;4
S21000;38MI150A18;4
S21000;38UV030A18;7
S29000;29MA030A17;13
S29000;29SE125A21;17
S29000;29VC240A16;1
S29000;29VC240A22;21
S29000;52LC006A20;245
S29000;52SH006P19;78
S29000;52SP001I19;81
S29000;01HV030K16;5
S29000;01LC500K20;18
S29000;01SA100LT20;28
S29000;11ET075O21;6
S29000;11FAG10TR19;13
S29000;11LD200I19;11
S29000;11MWC200I19;4
S29000;11PEP050I20;1
S29000;15ET010VB19;2
S29000;15MA075L20;10
S29000;17AF100G20;27
S29000;17AS500G21;27
S29000;17RC500G21;58
S29000;17SH060SP21;6
S29000;20AR075O20;13
S29000;20HR050H20;3
S29000;24BR050CB6;14
S29000;24MA030RA19;3
S29000;24MA030S6;3
S29000;24RO010CB4;11
S29000;27DS030I20;11
S29000;27MP150I20;18
S29000;29EC200A21;20
S29000;29MAV075A19;5
S29000;38FT200A21;5
S29000;49GD035CB5;166
S29000;49MA010K22;46
S29000;52FP0015I19;37
S29000;52MA003K22A;77
S29000;52PMGBOX18;19
S29000;01CPR200K22;24
S29000;01HD250K17;1
S29000;01SB020K21;6
S29000;01SL500VE20;13
S29000;11CF100TR19;12
S29000;11GD050A18;4
S29000;11PM100SI19;4
S29000;11SP200SH19;12
S29000;15ET100VA20;1
S29000;15RG500VA20;27
S29000;17HI001G19;158
S29000;17SE100FV21;20
S29000;17SH500E19;25
S29000;27DH030I20;25
S29000;27FP050I19;3
S29000;29RH500A15;85
S20;29SE125A21;9
S20;29VC240A22;8
S20;49SH035E21;5
S20;52AS006FV21;158
S20;52LC006A20;398
S20;52SGEBAG19;184
S20;52SH006P19;78
S20;52SP001I19;79
S20;01SA100LT20;11
S20;11ET075O21;4
S20;11FAG10TR19;13
S20;11LD200I19;9
S20;11MWC200I19;5
S20;11PEP050I20;7
S20;15ET010VB19;3
S20;15MA075L20;9
S20;17AF100G20;17
S20;17AS500G21;10
S20;17RC500G21;19
S20;17SH060SP21;3
S20;20AR075O20;12
S20;20HR050H20;3
S20;24BR050CB6;10
S20;24MA030RA19;10
S20;24MA030S6;6
S20;24RO010CB4;3
S20;27DS030I20;4
S20;27MP150I20;11
S20;29EC200A21;12
S20;38FT200A21;3
S20;52MA003K22A;270
S20;52PMGBOX18;15
S20;01CPR200K22;12
S20;01HD250K17;4
S20;01SB020K21;9
S20;01SL500VE20;11
S20;11CF100TR19;15
S20;11GD050A18;4
S20;11PM100SI19;4
S20;11SP200SH19;4
S20;15RG500VA20;16
S20;17HI001G19;123
S20;17SE100FV21;11
S20;17SH500E19;17
S20;27DH030I20;11
S20;27FP050I19;4
S20;29RH500A15;53
S20;38BV050A19;4
S20;38MI150A18;10
S20;38UV030A18;5
S20;52AS006P19;74
S20;52CP0015I19;155
S20;52HS001I17;133
S20;52HS004A18;112
S20;52MGEBAG19;118
S29000;38BV050A19;6
S29000;38MI150A18;5
S29000;38UV030A18;2
S29000;52AS006FV21;94
S29000;52AS006P19;42
S29000;52CP0015I19;114
S29000;52HS001I17;60
S29000;52HS004A18;172
S29000;01BM150K19;11
S29000;01MA030K22;3
S29000;01PI030K18;13
S29000;01SA100LV20;23
S29000;11CM030H19;14
S29000;11ET010H20;4
S29000;11HE005CS19;8
S29000;11SD100SI19;14
S29000;15BA500L16A;24
S29000;15GN300L11;22
S29000;15MA075VB4;15
S29000;15SH250VA20;14
S29000;17AS500E19;15
S29000;17MC200G21;24
S29000;17SH060SG21;13
S29000;17SH075G21;19
S29000;24GD250R20;1
S29000;24GD250R22;37
S29000;24SA050CB21;12
S29000;27BY015I19;9
S29000;27CP050I19;18
S29000;27DF125I17;39
S29000;52GD0015A18;70
S29000;52SH006FV21;172
S29000;01SA250VE20;41
S29000;11EP010H19;3
S29000;11GN195A18;10
S29000;11SP200CS19;3
S29000;15GD250VB21;17
S29000;17AS500P19;11
S29000;17ER075P19;15
S29000;17SH300P19;11
S29000;20GD500HC20;18
S29000;20NV150H20;24
S29000;27HC050I18;2
S29000;38WM065A18;10
S29000;49HD035A15;84
S29000;52TS001R21;125
S29000;01BV050K16;2
S29000;01HF100K17;15
S29000;11SP200SL19;9
S29000;15GD500VB21;30
S29000;15GM065VB21;32
S29000;15SA070VB6;18
S29000;17AS250P19;4
S15;ACPOCVE7T00019;28
S27000;ACPOCVE7T00019;21
S28000;ACPOCVE7T00019;40
S28000;52LC006A20;388
S15;52SGEBAG19;384
S27000;52SGEBAG19;355
S28000;52SGEBAG19;370
S15;52SH006P19;167
S27000;52SH006P19;231
S28000;52SH006P19;441
S15;52SP001I19;147
S27000;52SP001I19;193
S28000;52SP001I19;247
S28000;98BBSA050LT1;14
S15;24RO010CB4;4
S27000;24RO010CB4;5
S28000;24RO010CB4;12
S15;27DS030I20;12
S27000;27DS030I20;3
S28000;27DS030I20;12
S15;27MP150I20;12
S27000;27MP150I20;5
S28000;27MP150I20;14
S15;29EC200A21;15
S27000;29EC200A21;10
S28000;29EC200A21;17
S15;29MAV075A19;4
S27000;29MAV075A19;5
S28000;29MAV075A19;12
S15;38FT200A21;8
S27000;38FT200A21;8
S28000;38FT200A21;11
S28000;49GD035CB5;15
S27000;49TOBACH20;15
S27000;52FP0015I19;97
S28000;52FP0015I19;150
S15;52MA003K22A;219
S27000;52MA003K22A;110
S28000;52MA003K22A;169
S15;52PMGBOX18;15
S27000;52PMGBOX18;27
S28000;52PMGBOX18;23
S27000;38MI150A18;2
S28000;38MI150A22;3
S15;38UV030A18;12
S27000;38UV030A18;8
S28000;38UV030A18;18
S27000;52AS006FV21;306
S28000;52AS006FV21;398
S15;52AS006P19;129
S27000;52AS006P19;331
S28000;52AS006P19;172
S15;52CP0015I19;204
S10;24MA075R22;10
S10;27HS030I18;4
S10;29MA030A17;9
S10;29SE125A21;12
S10;29VC240A22;15
S10;49SH035E21;10
S10;52AS006FV21;234
S10;52LC006A20;90
S10;52SGEBAG19;603
S10;52SH006P19;236
S10;52SP001I19;221
S10;98BBSA050LT1;82
S10;01HV030K16;4
S10;01LC500K20;2
S10;01SA100LT20;15
S10;11ET075O21;2
S10;11FAG10TR19;11
S10;11LD200I19;4
S10;11MWC200I19;4
S10;11PEP050I20;8
S10;15ET010VB19;4
S10;15MA075L20;4
S10;17AF100G20;13
S10;17AS500G21;10
S10;17RC500G21;13
S10;17SH060SP21;8
S10;20AR075O20;5
S10;20HR050H20;5
S10;24BR050CB6;2
S10;24MA030RA19;1
S10;24MA030S6;10
S10;24RO010CB4;2
S10;27DS030I20;3
S10;27MP150I20;14
S10;29EC200A21;7
S10;29MAV075A19;5
S10;38FT200A21;5
S10;49GD035CB5;151
S10;49TOBACH20;26
S10;52FP0015I19;93
S10;52MA003K22A;187
S10;52PMGBOX18;20
S10;01CPR200K22;12
S10;01HD250K17;3
S10;01SB020K21;8
S10;01SL500VE20;5
S10;11CF100TR19;5
S10;11GD050A18;5
S10;11PM100SI19;4
S10;11SP200SH19;3
S10;17HI001G19;177
S10;17SE100FV21;12
S10;17SH500E19;16
S10;27DH030I20;14
S29000;17SH060SE21;9
S29000;20DO050O20;5
S29000;24LC250CB4;21
S29000;24MA075P15;14
S29000;27DE015I21;20
S29000;27ER015I20;1
S29000;27MI150I20;10
S29000;49OR005I21;94
S29000;52AF006G20;147
S29000;52ER002I21;187
S29000;52SGENSA21;178
S29000;01BP050K21;1
S29000;01CL050K21;5
S29000;01CM500K20;22
S29000;01EC200K22;23
S29000;11BH050A18;6
S29000;11EH150A18;10
S29000;15AS250VA18;7
S29000;15HE005L14;9
S29000;15RC500VB21;51
S29000;17RS500P19;44
S29000;17SH500FV21;28
S29000;20ET075CD20;5
S29000;20FE050H20;4
S29000;20GD250CD20;22
S29000;24BR050R22;6
S29000;24LC250R22;21
S29000;24SA050R22;11
S29000;27MQ065I15A;3
S29000;29HD500A15;57
S29000;52DC0015I20;112
S29000;52DF002I17;140
S29000;52HCTM22;24
S29000;01CF050K22;20
S29000;01LC250K17;16
S29000;01SL0045K13;16
S29000;11BO100CS19;26
S29000;11SA100H20;15
S29000;15GD250L14;25
S29000;17AS250E19;10
S29000;17SH500P19;13
S29000;52CD0015A18;124
S29000;52CL0015K21;106
S29000;52EV002I19;50
S29000;52PS0015R21;137
S29000;20ET075HC20;6
S29000;20SA050HC20;4
S29000;24GD500R22;20
S29000;24MA030R22;59
S29000;24MA075R18;10
S29000;24RG500R22;24
S29000;27EV200I19;19
S29000;29MA075A21;7
S27000;52CP0015I19;205
S28000;52CP0015I19;291
S27000;52EV002I19;16
S15;52HS001I17;94
S27000;52HS001I17;153
S28000;52HS001I17;211
S15;52HS004A18;119
S27000;52HS004A18;193
S28000;52HS004A18;143
S15;52MGEBAG19;262
S27000;52MGEBAG19;248
S28000;52MGEBAG19;218
S27000;98BBGD050VE2;10
S15;24GD250R20;4
S27000;24GD250R20;6
S15;24GD250R22;32
S27000;24GD250R22;30
S28000;24GD250R22;46
S15;24SA050CB21;11
S27000;24SA050CB21;6
S28000;24SA050CB21;13
S15;27BY015I19;4
S27000;27BY015I19;9
S28000;27BY015I19;11
S15;27CP050I19;11
S27000;27CP050I19;9
S28000;27CP050I19;14
S15;27DF125I17;26
S27000;27DF125I17;22
S28000;27DF125I17;54
S15;52CL0015K21;78
S27000;52CL0015K21;172
S28000;52CL0015K21;166
S15;52GD0015A18;74
S27000;52GD0015A18;112
S28000;52GD0015A18;137
S15;52PS0015R21;112
S27000;52PS0015R21;219
S28000;52PS0015R21;216
S15;52SH006FV21;280
S27000;52SH006FV21;323
S28000;52SH006FV21;486
S15;01SA250VE20;21
S27000;01SA250VE20;7
S28000;01SA250VE20;21
S15;11EP010H19;3
S27000;11EP010H19;4
S28000;11EP010H19;4
S15;11GN195A18;12
S27000;11GN195A18;10
S28000;11GN195A18;12
S15;11SP200CS19;10
S27000;11SP200CS19;4
S21000;52AS006P19;103
S21000;52CP0015I19;100
S21000;52HS001I17;92
S21000;52HS004A18;93
S21000;52MGEBAG19;214
S21000;01BM150K19;11
S21000;01MA030K22;83
S21000;01PI030K18;3
S21000;01SA100LV20;5
S21000;11BG140SH19;4
S21000;11CM030H19;9
S21000;11ET010H20;11
S21000;11HE005CS19;6
S21000;11SD100SI19;3
S21000;15BA500L16A;5
S21000;15GN300L11;2
S21000;15MA075VB4;3
S21000;15SH250VA20;10
S21000;17AS500E19;10
S21000;17CS150P19;1
S21000;17MC200G21;10
S21000;17SH060SG21;5
S21000;17SH075G21;68
S21000;24GD250R20;1
S21000;24GD250R22;37
S21000;24SA050CB21;11
S21000;27BY015I19;5
S21000;27CP050I19;12
S21000;27DF125I17;38
S21000;52CL0015K21;56
S21000;52GD0015A18;71
S21000;52PS0015R21;54
S21000;52SH006FV21;252
S21000;01SA250VE20;11
S21000;11EP010H19;1
S21000;11GN195A18;6
S21000;11SP200CS19;8
S21000;15GD250VB21;6
S21000;17AS500P19;8
S21000;17ER075P19;10
S21000;17SH300P19;5
S21000;20GD500HC20;10
S21000;20NV150H20;13
S21000;27HC050I18;3
S21000;38WM065A18;4
S21000;49HD035A15;99
S21000;52TS001R21;61
S21000;01BV050K16;3
S21000;01HF100K17;2
S21000;11SP200SL19;6
S21000;15ET100VB20;3
S21000;15GD500VB21;10
S21000;15GM065VB21;11
S20;98BBGD050VE2;2
S20;01BM150K19;4
S20;01MA030K22;5
S20;01PI030K18;8
S20;01SA100LV20;17
S20;11BG140SH19;4
S20;11CM030H19;11
S20;11ET010H20;3
S20;11HE005CS19;9
S20;11SD100SI19;13
S20;15BA500L16A;13
S20;15GG150VAL21;37
S20;15GN300L11;19
S20;15MA075VB4;11
S20;15SH250VA20;4
S20;17AS500E19;9
S20;17CS150P19;11
S20;17MC200G21;1
S20;17SH060SG21;2
S20;17SH075G21;83
S20;24GD250R22;40
S20;24SA050CB21;14
S20;27BY015I19;4
S20;27CP050I19;7
S20;27DF125I17;39
S20;52CL0015K21;103
S20;52GD0015A18;64
S20;52PS0015R21;126
S20;52SH006FV21;228
S20;01SA250VE20;24
S20;11EP010H19;4
S20;11GN195A18;7
S20;11SP200CS19;9
S20;15GD250VB21;11
S20;17AS500P19;8
S20;17ER075P19;3
S20;17SH300P19;1
S20;20GD500HC20;1
S20;20NV150H20;7
S20;27HC050I18;3
S20;38WM065A18;3
S20;49HD035A15;137
S20;52TS001R21;120
S20;01BV050K16;3
S20;01HF100K17;4
S20;11SP200SL19;10
S20;15ET100VB20;4
S20;15GD500VB21;15
S20;15GM065VB21;10
S20;15SA070VB6;3
S20;17AS075E19;23
S20;17AS250P19;6
S20;17SH060SE21;2
S20;20DO050O20;2
S28000;11SP200CS19;12
S15;15GD250VB21;12
S27000;15GD250VB21;6
S28000;15GD250VB21;24
S15;17AS500P19;8
S27000;17AS500P19;7
S28000;17AS500P19;7
S15;17ER075P19;13
S27000;17ER075P19;7
S28000;17ER075P19;13
S15;17SH300P19;4
S27000;17SH300P19;5
S28000;17SH300P19;6
S15;20GD500HC20;13
S27000;20GD500HC20;8
S28000;20GD500HC20;58
S15;20NV150H20;9
S27000;20NV150H20;10
S28000;20NV150H20;13
S28000;24GP010RJ21H;11
S15;27HC050I18;3
S27000;27HC050I18;3
S15;38WM065A18;4
S27000;38WM065A18;2
S28000;38WM065A18;2
S15;49HD035A15;130
S27000;49HD035A15;58
S28000;49HD035A15;179
S15;49MA010R18;1
S15;52TS001R21;89
S27000;52TS001R21;233
S28000;52TS001R21;285
S28000;98BBHD050A0;25
S27000;49OR005I21;77
S28000;49OR005I21;145
S15;52AF006G20;119
S27000;52AF006G20;286
S28000;52AF006G20;153
S15;52CD0015A18;109
S27000;52CD0015A18;128
S28000;52CD0015A18;141
S15;52ER002I21;125
S27000;52ER002I21;177
S28000;52ER002I21;447
S15;52SGENSA21;103
S27000;52SGENSA21;140
S28000;52SGENSA21;220
S15;49CP004I19;1
S28000;49DC004I20;42
S28000;49MA010A17;1
S27000;49POCKNO21;18
S15;52DC0015I20;148
S27000;52DC0015I20;311
S21000;15SA070VB6;3
S21000;17AS250P19;7
S21000;17SH060SE21;4
S21000;20DO050O20;9
S21000;20MP030H20;4
S21000;24LC250CB4;10
S21000;24MA075P15;8
S21000;27DE015I21;1
S21000;27MI150I20;1
S21000;49BO015CS19;59
S21000;49OR005I21;64
S21000;52AF006G20;190
S21000;52CD0015A18;103
S21000;52ER002I21;146
S21000;52SGENSA21;145
S21000;01CL050K21;1
S21000;01CM500K20;10
S21000;01EC200K22;6
S21000;11BH050A18;1
S21000;11EH150A18;3
S21000;15AS250VA18;5
S21000;15GD250VA20;5
S21000;15HE005L14;5
S21000;15RC500VB21;22
S21000;17RS500P19;15
S21000;17SH500FV21;11
S21000;20ET075CD20;4
S21000;20FE050H20;3
S21000;20GD250CD20;4
S21000;24BR050R22;8
S21000;24LC250R22;18
S21000;24SA050R22;9
S21000;27MQ065I15A;3
S21000;29HD500A15;24
S21000;49DC004I20;23
S21000;52DC0015I20;170
S21000;52DF002I17;162
S21000;52HCTM22;24
S21000;01CF050K22;8
S21000;01LC250K17;20
S21000;01SL0045K13;18
S21000;11BO100CS19;9
S21000;11SA100H20;10
S21000;15GD250L14;4
S21000;17AS250E19;6
S21000;17SH500P19;7
S21000;20ET075HC20;4
S21000;20SA050HC20;4
S21000;24AF050R18;4
S21000;24GD500R22;19
S21000;24MA030R22;47
S21000;24MA075R18;11
S21000;24RG500R22;4
S20;24LC250CB4;11
S20;24MA075P15;8
S20;27DE015I21;11
S20;27ER015I20;1
S20;27MI150I20;4
S20;49BO015CS19;79
S20;49MA010A21X;23
S20;49OR005I21;118
S20;52AF006G20;136
S20;52CD0015A18;80
S20;52ER002I21;152
S20;52SGENSA21;52
S20;01CL050K21;5
S20;01CM500K20;11
S20;01EC200K22;8
S20;11BH050A18;4
S20;11EH150A18;4
S20;15AS250VA18;1
S20;15GD250VA20;5
S20;15HE005L14;12
S20;15RC500VB21;24
S20;17RS500P19;19
S20;17SH500FV21;12
S20;20ET075CD20;3
S20;20FE050H20;4
S20;20GD250CD20;13
S20;24BR050R22;9
S20;24EDT10C21;8
S20;24LC250R22;15
S20;24SA050R22;12
S20;27MQ065I15A;4
S20;29HD500A15;46
S20;49DC004I20;40
S20;49POCKNO21;18
S20;52DC0015I20;279
S20;52DF002I17;90
S20;52HCTM22;24
S20;52HV001K18;34
S20;01CF050K22;16
S20;01CL200K17;6
S20;01LC250K17;13
S20;01SL0045K13;20
S20;11BO100CS19;18
S20;11SA100H20;11
S20;15GD250L14;23
S20;17AS250E19;2
S20;17SH500P19;16
S20;20ET075HC20;3
S20;20SA050HC20;4
S20;24GD500R22;20
S20;24MA030R22;57
S20;24MA075R18;8
S20;24RG500R22;10
S20;27EV200I19;14
S20;29MA075A21;12
S10;27FP050I19;8
S10;29RH500A15;28
S10;38BV050A19;7
S10;38MI150A18;3
S10;38UV030A18;8
S10;52AS006P19;257
S10;52CP0015I19;209
S10;52HS001I17;185
S10;52HS004A18;174
S10;52MGEBAG19;98
S10;98BBGD050VE2;10
S10;01BM150K19;11
S10;01MA030K22;3
S10;01PI030K18;2
S10;01SA100LV20;5
S10;11BG140SH19;5
S10;11CM030H19;4
S10;11ET010H20;1
S10;11HE005CS19;5
S10;11SD100SI19;4
S10;15BA500L16A;5
S10;15GN300L11;11
S10;15MA075VB4;5
S10;15SH250VA20;12
S10;17AS500E19;6
S10;17MC200G21;10
S10;17SH060SG21;5
S10;17SH075G21;73
S10;24GD250R22;24
S10;24SA050CB21;6
S10;27BY015I19;5
S10;27CP050I19;14
S10;27DF125I17;29
S10;52GD0015A18;86
S10;52PS0015R21;180
S10;52SH006FV21;225
S10;01BS020K22;7
S10;01SA250VE20;14
S10;11EP010H19;3
S10;11GN195A18;8
S10;11SP200CS19;9
S10;15GD250VB21;8
S10;17AS500P19;9
S10;17ER075P19;9
S10;17SH300P19;6
S10;20GD500HC20;6
S10;20NV150H20;6
S10;27HC050I18;3
S10;38WM065A18;5
S10;49HD035A15;92
S10;52TS001R21;171
S10;98BBHD050A0;89
S10;01BV050K16;3
S10;01HF100K17;4
S10;11SP200SL19;7
S10;15ET100VB20;3
S10;15GD500VB21;11
S10;15GM065VB21;14
S10;15SA070VB6;3
S10;17AS075E19;21
S10;17AS250P19;6
S10;17SH060SE21;7
S10;20DO050O20;3
S10;20MP030H20;5
S10;24LC250CB4;3
S10;24MA075P15;4
S10;24MA075R18;15
S10;27DE015I21;5
S10;27ER015I20;2
S10;27MI150I20;4
S10;49BO015CS19;64
S10;49MA010A21X;21
S10;49OR005I21;61
S10;52AF006G20;274
S10;52CD0015A18;82
S10;52ER002I21;270
S10;52SGENSA18;3
S10;52SGENSA21;46
S10;01CL050K21;4
S10;01CM500K20;4
S10;01EC200K22;10
S10;11BH050A18;3
S10;11EH150A18;4
S10;11GD250O21;14
S10;15AS250VA18;10
S10;15GD250VA20;4
S10;15HE005L14;2
S10;15RC500VB21;15
S10;17RS500P19;21
S10;17SH500FV21;17
S10;20ET075CD20;4
S10;20FE050H20;7
S10;20GD250CD20;3
S10;24BR050R22;12
S10;24LC250R22;13
S10;24SA050R22;8
S10;27MQ065I15A;4
S10;29HD500A15;25
S10;49DC004I20;59
S10;49POCKNO21;19
S10;52DC0015I20;137
S10;52DF002I17;160
S10;52HCTM22;18
S10;01CF050K22;17
S10;01LC250K17;13
S10;01SL0045K13;15
S10;11BO100CS19;15
S10;11SA100H20;13
S10;15GD250L14;13
S24000;11SP200SI19;6
S90000;11SP200SI19;9
S24000;15GM065L21;11
S90000;15GM065L21;15
S24000;15MA030VB3;11
S90000;15MA030VB3;7
S24000;17AS250FV21;5
S90000;17AS250FV21;7
S24000;20DO075CD20;3
S90000;20DO075CD20;9
S24000;20ET075OC20;4
S90000;20ET075OC20;6
S24000;24GD250CB21;14
S90000;24GD250CB21;6
S24000;24MA075R22;12
S90000;27BP050I19;10
S24000;27HS030I18;4
S90000;27HS030I18;4
S24000;29MA030A17;18
S24000;29SE125A21;10
S90000;29SE125A21;4
S90000;29SH075A20;6
S24000;ACPOCVE7T00019;33
S24000;ACPOCVE7T00018;35
S24000;ACPOCVE7T00017;33
S24000;ACPOCVE7T00016;27
S24000;ACPOCVE7T00015;21
S90000;29VC240A16;13
S24000;29VC240A22;14
S90000;29VC240A22;12
S90000;49BOTNO21;34
S90000;49DC008I20;16
S90000;49PO2RS21;86
S90000;49PO2SA19;30
S24000;49SH035E21;7
S90000;49SH035E21;173
S24000;52LC006A20;552
S90000;52LC006A20;534
S24000;52SGEBAG19;265
S24000;52SH006P19;149
S90000;52SH006P19;418
S24000;52SP001I19;123
S90000;52SP001I19;202
S90000;98BBSA050LT1;50
S90000;52TBO1M21;54
S90000;52TBO2M21;31
S24000;01BM150K19;12
S90000;01BM150K19;7
S90000;01KTPWP21;32
S24000;01MA030K22;23
S24000;01PI030K18;4
S90000;01PI030K18;9
S24000;01SA100LV20;11
S29000;29RC200A20;56
S29000;38RC050A18;9
S29000;38WS030A21;5
S29000;52AS006E19;125
S29000;52CP006K22;96
S29000;52CV0015K22;171
S29000;52OR001I21;178
S29000;01CMR500K20;9
S29000;01CP200K22;21
S29000;01EM075K20;13
S29000;01PI075K18;1
S29000;01RL500K20;27
S29000;01SE125K21;3
S29000;11BP100I19;5
S29000;11BR100A20;13
S29000;11MH075A19;6
S29000;11SD100CS19;13
S29000;17RC500E20;44
S29000;17SH500G21;24
S29000;24ET075R22;8
S29000;24MA030CB4;40
S29000;24MA030RE19;2
S29000;24MA075CB4;18
S29000;24RO010R18;4
S29000;27MP050I20;19
S29000;29SH240A20;11
S29000;38WC050A21;3
S29000;52AS006G21;167
S29000;52BOXMM22;38
S29000;52BY001I19;198
S29000;52SH006G21;181
S29000;98BBDF015IM0;5
S29000;01BK010K14;12
S29000;01HN0075K19;10
S29000;01MR030K14;16
S29000;01SL500LV20;13
S29000;11CM125I19;8
S29000;11GD250O21;18
S29000;11LC250H20;11
S29000;11SA100H19;3
S29000;15LC250L14;17
S29000;15RG500L14;32
S29000;17AS500FV21;17
S29000;20GD250HC20;29
S29000;24BL012R22;13
S29000;24ET075CB21;12
S29000;24RG500C20;26
S29000;27DB015I20;16
S29000;29HS100A21;28
S29000;29LC200A20US;43
S29000;38EC015A18;5
S29000;49MA010CB4;146
S29000;52DS001I20;88
S28000;52DC0015I20;382
S15;52DF002I17;140
S27000;52DF002I17;207
S28000;52DF002I17;283
S15;52HCTM22;36
S27000;52HCTM22;20
S28000;52HCTM22;46
S15;38RC050A18;3
S27000;38RC050A18;2
S28000;38RC050A18;11
S15;38WS030A21;4
S27000;38WS030A21;7
S28000;38WS030A21;12
S28000;49DH004I20;19
S28000;49LC020A20;50
S28000;49MS008I20;72
S15;52AS006E19;384
S27000;52AS006E19;307
S28000;52AS006E19;195
S15;52CP006K22;286
S27000;52CP006K22;93
S28000;52CP006K22;327
S15;52CV0015K22;39
S27000;52CV0015K22;173
S28000;52CV0015K22;349
S15;52MA003K16A;165
S15;52OR001I21;615
S27000;52OR001I21;316
S28000;52OR001I21;706
S28000;98BBMA010KA3;53
S15;24RO010R18;3
S27000;24RO010R18;3
S28000;24RO010R18;3
S15;27MP050I20;15
S27000;27MP050I20;27
S28000;27MP050I20;41
S15;29SH240A20;13
S27000;29SH240A20;5
S28000;29SH240A20;13
S15;38WC050A21;4
S27000;38WC050A21;8
S28000;38WC050A21;13
S27000;49POUM21;11
S27000;49TOTMC20;3
S15;52AS006G21;357
S27000;52AS006G21;214
S28000;52AS006G21;219
S15;52BOXMM22;51
S27000;52BOXMM22;28
S28000;52BOXMM22;58
S15;52BY001I19;205
S27000;52BY001I19;275
S28000;52BY001I19;227
S15;52MIGEBAG19;153
S10;17AS250E19;7
S10;17SH500P19;14
S10;20ET075HC20;3
S10;20SA050HC20;4
S10;24GD500R22;15
S10;24MA030R22;38
S10;24RG500R22;18
S10;27EV200I19;13
S10;29MA075A21;4
S10;29RC200A20;18
S10;38RC050A18;4
S10;38WS030A21;5
S10;49DH004I20;20
S10;49LC020A20;160
S10;49MS008I20;65
S10;52AS006E19;125
S10;52CP006K22;187
S10;52CV0015K22;123
S10;52OR001I21;37
S10;98BBMA010KA3;24
S10;01CMR500K20;35
S10;01CP200K22;23
S10;01EM075K20;4
S10;01PI075K18;1
S10;01RL500K20;2
S10;01SA050KL20;14
S10;01SE125K21;4
S10;11BP100I19;4
S10;11BR100A20;8
S10;11MH075A19;4
S10;11SD100CS19;13
S10;17RC500E20;8
S10;17SH500G21;9
S10;24ET075R22;10
S10;24MA030CB4;31
S10;24MA030RE19;3
S10;24MA075CB4;6
S10;24RO010R18;3
S10;27MP050I20;40
S10;38WC050A21;4
S10;49POUM21;9
S10;49TOTMC20;10
S10;52AS006G21;218
S10;52BOXMM22;29
S10;52BY001I19;314
S10;52MIGEBAG19;360
S10;52SH006G21;224
S10;98BBDF015IM0;10
S10;01BK010K14;13
S10;01HN0075K19;2
S10;01MR030K14;11
S10;01SL500LV20;6
S10;11CM125I19;5
S10;11LC250H20;6
S10;11SA100H19;10
S21000;27EV200I19;12
S21000;29MA075A21;10
S21000;29RC200A20;22
S21000;38RC050A18;3
S21000;38WS030A21;6
S21000;49DH004I20;30
S21000;49LC020A20;55
S21000;52AS006E19;212
S21000;52CP006K22;223
S21000;52CV0015K22;163
S21000;52OR001I21;402
S21000;98BBMA010KA3;41
S21000;01CMR500K20;18
S21000;01CP200K22;11
S21000;01EM075K20;5
S21000;01PI075K18;3
S21000;01RL500K20;14
S21000;01SE125K21;11
S21000;11BP100I19;4
S21000;11BR100A20;8
S21000;11MH075A19;4
S21000;11SD100CS19;11
S21000;17RC500E20;20
S21000;17SH500G21;12
S21000;24ET075R22;8
S21000;24MA030CB4;33
S21000;24MA030RE19;4
S21000;24MA075CB4;10
S21000;24RO010R18;5
S21000;27MP050I20;49
S21000;29SH240A20;6
S21000;38WC050A21;5
S21000;52AS006G21;180
S21000;52BOXMM22;32
S21000;52BY001I19;103
S21000;52MIGEBAG19;215
S21000;52SH006G21;238
S21000;98BBDF015IM0;19
S21000;01BK010K14;8
S21000;01HN0075K19;4
S21000;01MR030K14;66
S21000;01SL500LV20;5
S21000;11CM125I19;12
S21000;11GD250O21;7
S21000;11LC250H20;11
S21000;11SA100H19;2
S21000;15LC250L14;5
S21000;15RG500L14;10
S21000;17AS500FV21;5
S21000;20GD250HC20;4
S21000;24BL012R22;11
S21000;24ET075CB21;3
S21000;24MA030RV19;7
S20;29RC200A20;36
S20;38RC050A18;2
S20;38WS030A21;1
S20;49DH004I20;40
S20;49LC020A20;64
S20;52AS006E19;125
S20;52CP006K22;321
S20;52CV0015K22;183
S20;52OR001I21;338
S20;98BBMA010KA3;101
S20;01CMR500K20;22
S20;01CP200K22;14
S20;01EM075K20;5
S20;01PI075K18;5
S20;01RL500K20;26
S20;01SE125K21;4
S20;11BP100I19;5
S20;11BR100A20;10
S20;11MH075A19;6
S20;11SD100CS19;13
S20;17RC500E20;13
S20;17SH500G21;9
S20;24ET075R22;8
S20;24MA030CB4;40
S20;24MA030RE19;8
S20;24MA075CB4;10
S20;24RO010R18;1
S20;27MP050I20;75
S20;29SH240A20;4
S20;38WC050A21;2
S20;49POUM21;9
S20;52AS006G21;212
S20;52BOXMM22;35
S20;52BY001I19;80
S20;52MIGEBAG19;153
S20;52SH006G21;212
S20;98BBDF015IM0;12
S20;01BK010K14;12
S20;01HN0075K19;8
S20;01MR030K14;16
S20;01SL500LV20;12
S20;11CM125I19;3
S20;11GD250O21;7
S20;11LC250H20;12
S20;11SA100H19;9
S20;15LC250L14;13
S20;15RG500L14;20
S20;17AS500FV21;10
S20;20GD250HC20;14
S20;24BL012R22;11
S20;24ET075CB21;3
S20;24MA030RV19;8
S20;24RG500C20;29
S20;27DB015I20;10
S10;15LC250L14;9
S10;15RG500L14;13
S10;17AS500FV21;11
S10;20GD250HC20;11
S10;24BL012R22;9
S10;24ET075CB21;3
S10;24MA030RV19;6
S10;24RG500C20;20
S10;27DB015I20;11
S10;29HS100A21;15
S10;29LC200A20US;18
S10;38EC015A18;4
S10;52DS001I20;178
S10;01CD250K17;14
S10;01CL175K22;16
S10;01CV050K22;4
S10;01PI150K18;8
S10;01SA300KRO22;10
S10;01SA500KRO22;11
S10;11BC100G21;41
S10;11LC250H19;3
S10;11SA050O21;19
S10;15LC250VB3;10
S10;17SH300E19;10
S10;17VI100P19;6
S10;20SA050O20;4
S10;27DL200I20;3
S10;27ER050I21;18
S10;27HCR050I16;4
S10;49POUCB21;9
S10;52K20BLAV21;2
S10;52LGENSA18;73
S10;52LT002R21;242
S10;52MC006G21;137
S10;01SL300VE20;4
S10;11GD250H19;4
S10;11GD250H20;13
S10;11LC250O21;5
S10;11LT300I20;7
S10;11MA030A20;3
S10;15GM280VB21;4
S10;15SE400VB5;3
S10;17HI100G19;3
S10;17RS500E20;15
S10;20SA050CD20;4
S10;27DCB060I17;5
S10;27DH015I20;6
S10;27SP030I19;4
S10;29BP100A19;3
S10;49PO2HER20;16
S10;52DB001I20;178
S10;52SH006E19;165
S10;98BBGD030VE4;44
S10;01CP200K17;4
S21000;24RG500C20;24
S21000;27DB015I20;4
S21000;29HS100A21;3
S21000;29LC200A20US;21
S21000;38EC015A18;2
S21000;52DS001I20;133
S21000;01CD250K17;5
S21000;01CL175K22;12
S21000;01CV050K22;11
S21000;01PI150K18;6
S21000;01SA300KRO22;12
S21000;01SA500KRO22;14
S21000;11BC100G21;27
S21000;11LC250H19;6
S21000;11SA050O21;1
S21000;15LC250VB3;4
S21000;17SH300E19;7
S21000;17VI100P19;8
S21000;20SA050O20;4
S21000;27DL200I20;1
S21000;27ER050I21;14
S21000;27HCR050I16;4
S21000;49POUCB21;9
S21000;52K20BLAV21;2
S21000;52LGENSA21;189
S21000;52LT002R21;101
S21000;52MC006G21;111
S21000;01SL300VE20;5
S21000;11GD250H19;14
S21000;11GD250H20;17
S21000;11LC250O21;7
S21000;11MA030A20;3
S21000;15GM280VB21;2
S21000;15SE400VB5;2
S21000;17HI100G19;12
S21000;17RS500E20;19
S21000;20SA050CD20;6
S21000;27DCB060I17;4
S21000;27DH015I20;17
S21000;27SP030I19;3
S21000;29BP100A19;4
S21000;49RCWM22;7
S21000;52DB001I20;182
S21000;52SH006E19;336
S21000;98BBGD030VE4;61
S21000;01HDR500K20;15
S21000;01SA250LT20;11
S21000;01SL300LV20;8
S21000;11BG140CS19;6
S21000;11CM030H20;13
S21000;11PM100SL19;4
S21000;11SV080I19;4
S21000;15GD250VB17;4
S20;29HS100A21;12
S20;29LC200A20US;23
S20;38EC015A18;3
S20;52DS001I20;100
S20;01CD250K17;16
S20;01CL175K22;11
S20;01CV050K22;11
S20;01PI150K18;15
S20;01SA300KRO22;8
S20;01SA500KRO22;11
S20;11BC100G21;11
S20;11LC250H19;5
S20;11SA050O21;10
S20;15LC250VB3;13
S20;17SH300E19;6
S20;17VI100P19;4
S20;20SA050O20;4
S20;27DL200I20;2
S20;27ER050I21;13
S20;27HCR050I16;4
S20;49POUCB21;12
S20;52K20BLAV21;2
S20;52LGENSA18;22
S20;52LGENSA21;119
S20;52LT002R21;70
S20;52MC006G21;166
S20;01SL300VE20;12
S20;11GD250H19;12
S20;11GD250H20;13
S20;11LC250O21;11
S20;11LT300I20;7
S20;11MA030A20;4
S20;15GM280VB21;8
S20;15SE400VB5;12
S20;17HI100G19;6
S20;17RS500E20;19
S20;20SA050CD20;8
S20;27DCB060I17;6
S20;27DH015I20;10
S20;27SP030I19;4
S20;29BP100A19;4
S20;49PO2HER20;19
S20;49RCWM22;11
S20;52DB001I20;150
S20;52SH006E19;285
S20;98BBGD030VE4;98
S20;01HDR500K20;16
S20;01SA250LT20;8
S20;01SL300LV20;4
S20;11BG140CS19;7
S20;11CM030H20;11
S20;11SV080I19;6
S20;15ET100VCL21;9
S20;15LM300L11;14
S29000;01CD250K17;12
S29000;01CL175K22;23
S29000;01CV050K22;12
S29000;01PI150K18;29
S29000;01SA300KRO22;21
S29000;01SA500KRO22;6
S29000;11LC250H19;12
S29000;11SA050O21;7
S29000;15LC250VB3;20
S29000;17SH300E19;13
S29000;17VI100P19;21
S29000;20SA050O20;4
S29000;24MA030RV19;2
S29000;27DL200I20;12
S29000;27ER050I21;14
S29000;27HCR050I16;13
S29000;49POUCB21;12
S29000;52K20BLAV21;2
S29000;52LGENSA21;153
S29000;52LT002R21;149
S29000;52MC006G21;113
S29000;01SL300VE20;4
S29000;11GD250H19;21
S29000;11GD250H20;15
S29000;11LC250O21;17
S29000;11LT300I20;12
S29000;11MA030A20;4
S29000;15GD250VA20;11
S29000;15GM280VB21;16
S29000;15SE400VB5;8
S29000;17HI100G19;8
S29000;17RS500E20;47
S29000;20SA050CD20;4
S29000;27DCB060I17;4
S29000;27DH015I20;12
S29000;27SP030I19;8
S29000;29BP100A19;10
S29000;49RCWM22;6
S29000;52DB001I20;109
S29000;52SH006E19;169
S29000;01HDR500K20;20
S29000;01SA250LT20;39
S29000;01SL300LV20;4
S29000;11BG140CS19;6
S29000;11CM030H20;10
S29000;11SV080I19;6
S29000;15GD250VB17;15
S29000;15LM300L11;14
S29000;17AS250G21;14
S29000;17DO050F13;17
S29000;17RS500FV21;47
S29000;17SH300FV21;10
S29000;27MS050I20;14
S90000;01SA100LV20;9
S24000;11BG140SH19;4
S24000;11CM030H19;9
S90000;11CM030H19;10
S24000;11ET010H20;6
S90000;11ET010H20;3
S24000;11HE005CS19;10
S90000;11HE005CS19;12
S24000;11SD100SI19;4
S90000;11SD100SI19;14
S24000;15BA500L16A;12
S90000;15BA500L16A;11
S90000;15GC150VBL20;6
S90000;15GG150VAL21;263
S24000;15GN300L11;10
S90000;15GN300L11;2
S90000;15MA030VAL21;76
S24000;15MA075VB4;11
S90000;15MA075VB4;9
S24000;15SH250VA20;7
S90000;15SH250VA20;6
S90000;17AS075G21;28
S24000;17AS500E19;9
S90000;17AS500E19;10
S24000;17CS150P19;3
S90000;17CS150P19;5
S24000;17MC200G21;10
S90000;17MC200G21;4
S24000;17SH060SG21;4
S90000;17SH060SG21;9
S24000;17SH075G21;26
S90000;17SH075G21;188
S24000;24GD250R20;1
S90000;24GD250R20;4
S24000;24GD250R22;30
S90000;24GD250R22;10
S24000;24SA050CB21;11
S90000;24SA050CB21;10
S24000;27BY015I19;4
S90000;27BY015I19;9
S24000;27CP050I19;11
S90000;27CP050I19;10
S24000;27DF125I17;23
S90000;27DF125I17;4
S24000;52CL0015K21;122
S90000;52CL0015K21;221
S24000;52GD0015A18;58
S24000;52PS0015R21;96
S90000;52PS0015R21;100
S24000;52SH006FV21;202
S90000;52SH006FV21;505
S24000;52YGERIB18;2
S90000;98BBSA025LT2;77
S24000;01BS020K22;6
S90000;01BS020K22;1
S24000;01SA250VE20;10
S90000;01SA250VE20;9
S24000;11EP010H19;5
S90000;11EP010H19;6
S24000;11GN195A18;8
S90000;11GN195A18;2
S24000;11SP200CS19;8
S90000;11SP200CS19;8
S90000;15GD075L15;154
S90000;15GD250VB21;9
S24000;17AS500P19;8
S90000;17AS500P19;15
S24000;17ER075P19;9
S90000;17ER075P19;4
S90000;17SE125D15;23
S24000;17SH300P19;5
S90000;17SH300P19;7
S24000;20GD500HC20;6
S24000;20NV150H20;4
S90000;20NV150H20;9
S24000;27HC050I18;4
S90000;27HC050I18;4
S24000;38WM065A18;4
S90000;38WM065A18;3
S24000;49HD035A15;52
S90000;49HD035A15;36
S90000;49MA010R18;7
S90000;49TFACH18;20
S24000;52TS001R21;119
S90000;52TS001R21;99
S90000;98BBHD035A0;140
S90000;98BBHD050A0;25
S24000;01BV050K16;5
S90000;01BV050K16;4
S24000;01HF100K17;11
S90000;01HF100K17;3
S90000;11GD075O21;2
S24000;11SP200SL19;8
S90000;11SP200SL19;10
S90000;15CF150VBL21;12
S24000;15DF200VBL21;10
S90000;15DF200VBL21;27
S24000;15ET100VB20;5
S24000;15GD500VB21;11
S90000;15GD500VB21;24
S24000;15GM065VB21;15
S90000;15GM065VB21;15
S24000;15SA070VB6;4
S90000;15SA070VB6;7
S24000;17AS075E19;18
S90000;17AS075E19;143
S24000;17AS250P19;6
S90000;17AS250P19;12
S24000;17SH060SE21;4
S90000;17SH060SE21;7
S90000;17SH300G18;16
S24000;20DO050O20;3
S90000;20DO050O20;4
S24000;20MP030H20;2
S24000;24LC250CB4;15
S90000;24LC250CB4;7
S24000;24MA075P15;11
S90000;24MA075P15;8
S24000;27DE015I21;8
S90000;27DE015I21;9
S90000;27ER015I20;3
S24000;27MI150I20;4
S90000;27MI150I20;15
S90000;27OR050I22C;5
S90000;29MA030A21X;1
S90000;49AF015G20;160
S90000;49BO015CS19;443
S24000;49MA010A21X;18
S90000;49MA010A21X;194
S24000;49OR005I21;129
S90000;49OR005I21;11
S24000;52AF006G20;196
S90000;52AF006G20;100
S24000;52CD0015A18;70
S24000;52ER002I21;166
S90000;52ER002I21;312
S24000;52SGENSA21;142
S90000;98BBSH050AR2;86
S90000;01BP050K21;1
S90000;01CL050K21;4
S24000;01CM500K20;2
S90000;01CM500K20;11
S24000;01EC200K22;11
S90000;01EC200K22;23
S24000;11BH050A18;6
S90000;11BH050A18;9
S24000;11EH150A18;3
S90000;11EH150A18;9
S24000;15AS250VA18;4
S90000;15AS250VA18;4
S24000;15GD250VA20;4
S24000;15HE005L14;3
S90000;15HE005L14;4
S24000;15RC500VB21;15
S90000;15RC500VB21;24
S24000;17RS500P19;19
S90000;17RS500P19;6
S24000;17SH500FV21;15
S90000;17SH500FV21;6
S24000;20ET075CD20;4
S90000;20ET075CD20;8
S24000;20FE050H20;4
S90000;20FE050H20;15
S24000;20GD250CD20;4
S90000;20GD250CD20;5
S90000;24BR050R19;1
S24000;24BR050R22;10
S90000;24EDT10C21;65
S24000;24LC250R22;18
S24000;24SA050R22;10
S24000;27MQ065I15A;4
S90000;27MQ065I15A;6
S24000;29HD500A15;28
S90000;29HD500A15;22
S90000;49DC004I20;9
S90000;49MASKRS21;26
S90000;49POCKNO21;174
S24000;52DC0015I20;401
S90000;52DC0015I20;285
S24000;52DF002I17;309
S90000;52DF002I17;607
S90000;52HCTM21;25
S24000;52HCTM22;23
S24000;01CF050K22;10
S90000;01CF050K22;7
S90000;01CL200K17;29
S90000;01CP100K21H;23
S24000;01LC250K17;12
S90000;01LC250K17;8
S24000;01SL0045K13;24
S90000;01SL0045K13;6
S24000;11BO100CS19;18
S90000;11BO100CS19;9
S90000;11GN040A19;88
S24000;11SA100H20;6
S90000;11SA100H20;9
S24000;15GD250L14;10
S90000;15GD250L14;5
S90000;15MF075VM20H;58
S90000;17AS075FV21;83
S24000;17AS250E19;4
S90000;17AS250E19;6
S24000;17SH500P19;9
S90000;17SH500P19;14
S24000;20ET075HC20;4
S90000;20ET075HC20;7
S24000;20SA050HC20;3
S90000;20SA050HC20;11
S24000;24GD500R22;17
S24000;24MA030R22;55
S90000;24MA030R22;10
S24000;24MA075R18;7
S90000;24MA075R18;8
S24000;24RG500R22;26
S90000;24RG500R22;1
S24000;27EV200I19;13
S90000;27EV200I19;5
S24000;29MA075A21;11
S90000;29MA075A21;12
S24000;29RC200A20;23
S24000;38RC050A18;8
S90000;38RC050A18;8
S24000;38WS030A21;4
S90000;38WS030A21;8
S90000;49CL1SA18;202
S90000;49DH004I20;454
S90000;49LC020A20;4
S90000;49MS008I20;50
S24000;52AS006E19;219
S90000;52AS006E19;197
S24000;52CP006K22;417
S90000;52CP006K22;420
S24000;52CV0015K22;168
S90000;52CV0015K22;200
S90000;52MA003K16A;327
S24000;52OR001I21;390
S90000;52OR001I21;383
S90000;J9517;7
S90000;JIMPN16;56
S24000;01BK010K14;11
S90000;01BK010K14;3
S24000;01HN0075K19;9
S90000;01HN0075K19;10
S24000;01MR030K14;11
S90000;01MR030K14;4
S24000;01SL500LV20;4
S90000;01SL500LV20;10
S24000;11CM125I19;3
S90000;11CM125I19;9
S24000;11GD250O21;11
S90000;11GD250O21;6
S24000;11LC250H20;9
S90000;11LC250H20;7
S24000;11SA100H19;2
S90000;11SA100H19;11
S24000;15LC250L14;2
S90000;15LC250L14;6
S24000;15RG500L14;9
S24000;17AS500FV21;6
S90000;17AS500FV21;12
S90000;17SH075FV21;17
S24000;20GD250HC20;5
S90000;20GD250HC20;6
S24000;24BL012R22;10
S24000;24ET075CB21;5
S90000;24ET075CB21;5
S90000;24LC250CBL22;3
S24000;24MA030RV19;9
S24000;24RG500C20;14
S90000;24RG500C20;7
S24000;27DB015I20;10
S90000;27DB015I20;8
S90000;29HD250A22C;5
S24000;29HS100A21;12
S90000;29HS100A21;3
S24000;29LC200A20US;23
S24000;38EC015A18;4
S90000;38EC015A18;8
S90000;38WC050A18;35
S90000;49CM010O21;9
S90000;49MA010CB4;15
S90000;49PADCL20;101
S90000;49VANSA19;32
S24000;52DS001I20;80
S90000;52DS001I20;230
S24000;01CD250K17;14
S90000;01CD250K17;1
S24000;01CL175K22;13
S90000;01CL175K22;13
S90000;01CP050K22;4
S90000;01CV050K18;31
S24000;01CV050K22;6
S90000;01CV050K22;12
S24000;01PI150K18;11
S24000;01SA300KRO22;10
S90000;01SA300KRO22;7
S24000;01SA500KRO22;10
S90000;01SA500KRO22;7
S24000;11BC100G21;36
S90000;11BC100G21;6
S24000;11LC250H19;5
S90000;11LC250H19;7
S24000;11SA050O21;7
S90000;11SA050O21;10
S24000;15LC250VB3;8
S90000;15LC250VB3;1
S24000;17SH300E19;8
S90000;17SH300E19;7
S24000;17VI100P19;4
S90000;17VI100P19;11
S24000;20SA050O20;4
S90000;20SA050O20;4
S90000;24BR050C21;58
S90000;24MA030RV19;8
S24000;27DL200I20;3
S90000;27DL200I20;9
S24000;27ER050I21;12
S90000;27ER050I21;8
S24000;27HCR050I16;6
S90000;27HCR050I16;3
S90000;29HD075A15;7
S90000;38FT200A18;20
S90000;38UV030A18;11
S90000;49PI010K18;94
S24000;49POUCB21;11
S90000;49POUCB21;6
S90000;49POUCH2NO21;97
S90000;49POUID20;10
S24000;52K20BLAV21;2
S24000;52LGENSA18;12
S24000;52LT002R21;153
S90000;52LT002R21;100
S24000;52MC006G21;178
S90000;52MC006G21;100
S90000;52SHBOM22;32
S90000;01MA150K18;4
S24000;01SL300VE20;4
S90000;01SL300VE20;10
S24000;11GD250H19;5
S90000;11GD250H19;8
S24000;11GD250H20;11
S90000;11GD250H20;7
S24000;11LC250O21;7
S90000;11LC250O21;8
S24000;11LT300I20;3
S90000;11LT300I20;10
S24000;11MA030A20;4
S90000;11MA030A20;14
S90000;15AS150VCL21;59
S90000;15GD250VA20;7
S24000;15GM280VB21;4
S90000;15GM280VB21;4
S24000;15SE400VB5;4
S90000;15SE400VB5;7
S24000;17HI100G19;3
S90000;17HI100G19;7
S24000;17RS500E20;18
S90000;17RS500E20;12
S24000;20SA050CD20;4
S90000;20SA050CD20;5
S90000;24GD075CB5;32
S24000;27DCB060I17;5
S90000;27DCB060I17;7
S24000;27DH015I20;10
S24000;27SP030I19;4
S90000;27SP030I19;10
S24000;29BP100A19;4
S90000;29BP100A19;1
S90000;49DB004I20;30
S90000;49PO2HER20;109
S24000;49RCWM22;11
S24000;52DB001I20;194
S90000;52DB001I20;207
S24000;52SH006E19;145
S90000;52SH006E19;275
S90000;98BBSH035AR2;114
S90000;98BBSH050A0;71
S90000;01CP200K17;18
S24000;01HDR500K20;12
S90000;01HDR500K20;14
S90000;01LC250K21H;5
S24000;01SA250LT20;10
S90000;01SA250LT20;5
S24000;01SL300LV20;3
S90000;01SL300LV20;15
S24000;11BG140CS19;8
S90000;11BG140CS19;7
S24000;11CM030H20;13
S90000;11CM030H20;10
S90000;11PM100SL19;7
S24000;11SV080I19;4
S90000;11SV080I19;5
S90000;15ET100VCL21;45
S24000;15LM300L11;6
S90000;15LM300L11;7
S24000;17AS250G21;7
S90000;17AS250G21;11
S24000;17DO050F13;10
S90000;17DO050F13;1
S24000;17RS500FV21;15
S90000;17RS500FV21;20
S24000;17SH300FV21;11
S90000;17SH300FV21;8
S90000;24LC250C21;29
S90000;24SA050R18;2
S24000;27MS050I20;6
S90000;27MS050I20;8
S24000;27OR030I21;28
S24000;29GE200A21;15
S90000;29GE200A21;5
S24000;29HD250A15;20
S24000;38EV075A21;8
S90000;38EV075A21;10
S90000;49CP020K22;37
S90000;49MR010K14;46
S90000;49PFCWC21;40
S24000;52DE001I21;281
S90000;52DE001I21;100
S90000;SGOCVKI00176;6
S90000;SGOCVKI00182;14
S90000;SGOCVKI00184;14
S90000;SGOCVKI00187;7
S90000;SGOCVKI00188;3
S10;01HDR500K20;12
S10;01SA250LT20;8
S10;01SL300LV20;11
S10;11BG140CS19;6
S10;11CM030H20;12
S10;11PM100SL19;1
S10;11SV080I19;2
S10;15LM300L11;9
S10;17AS250G21;7
S10;17DO050F13;14
S10;17RS500FV21;11
S10;17SH300FV21;4
S10;27MS050I20;5
S10;27OR030I21;28
S10;29GE200A21;14
S10;29HD250A15;16
S10;38EV075A21;4
S10;52DE001I21;191
S10;SGOCVE600004;21
S10;SGOCVE600005;4
S10;01CMJ075K21;9
S10;01LT300K20;8
S10;01MA075K22;13
S10;01SA250LV20;14
S10;11BG140SI19;4
S10;11CM030O21;15
S10;11GE075I20;7
S10;11LH200I19;6
S10;11SD100SL19;5
S10;15MA030L11;26
S10;17RS500G21;2
S10;17SH075E19;36
S10;24MA030P15;12
S10;27HSR030I16;3
S10;27OR050I21;20
S10;27RM300I20;9
S10;52HD006A18;117
S27000;52MIGEBAG19;206
S28000;52MIGEBAG19;203
S15;52SH006G21;320
S27000;52SH006G21;199
S28000;52SH006G21;262
S15;98BBDF015IM0;20
S27000;98BBDF015IM0;12
S28000;98BBDF015IM0;24
S27000;J9517;2
S15;38EC015A18;4
S27000;38EC015A18;2
S28000;38EC015A18;4
S15;52DS001I20;131
S27000;52DS001I20;225
S28000;52DS001I20;192
S28000;49POUCB21;17
S15;52K20BIM21;50
S15;52K20BLAV21;2
S27000;52K20BLAV21;2
S28000;52K20BLAV21;6
S15;52LGENSA21;69
S27000;52LGENSA21;99
S28000;52LGENSA21;296
S15;52LT002R21;79
S27000;52LT002R21;176
S28000;52LT002R21;211
S15;52MC006G21;201
S27000;52MC006G21;183
S28000;52MC006G21;128
S15;52SH006E19;292
S27000;52SH006E19;201
S28000;52SH006E19;532
S28000;98BBGD030VE4;75
S27000;29HD250A15;25
S28000;29HD250A15;25
S15;38EV075A21;12
S27000;38EV075A21;9
S28000;38EV075A21;23
S15;52CV0015K18;63
S15;52DE001I21;185
S27000;52DE001I21;101
S28000;52DE001I21;140
S15;SGOCVE600004;103
S27000;SGOCVE600004;31
S28000;SGOCVE600004;86
S15;SGOCVE600005;4
S27000;SGOCVE600005;13
S28000;SGOCVE600005;3
S28000;52HD006A18;405
S27000;52MOCOL316;1
S29000;27OR030I21;37
S29000;29GE200A21;24
S29000;29HD250A15;37
S29000;38EV075A18;2
S29000;38EV075A21;16
S29000;49CP020K22;46
S29000;52DE001I21;148
S29000;SGOCVE600004;66
S29000;SGOCVKI00192;10
S29000;01CMJ075K21;20
S29000;01LT300K20;20
S29000;01MA075K22;22
S29000;01SA250LV20;34
S29000;11BG140SI19;2
S29000;11CM030O21;15
S29000;11GE075I20;4
S29000;11LH200I19;17
S29000;11SD100SL19;3
S29000;15MA030L11;39
S29000;17RS500G21;49
S29000;17SH075E19;65
S29000;24MA030P15;14
S29000;27HSR030I16;13
S29000;27OR050I21;18
S29000;27RM300I20;27
S29000;52HD006A18;277
S20;17AS250G21;4
S20;17DO050F13;10
S20;17RS500FV21;20
S20;17SH300FV21;2
S20;24LC250C21;8
S20;27MS050I20;6
S20;27OR030I21;31
S20;29GE200A21;12
S20;29HD250A15;16
S20;38EV075A21;9
S20;52DE001I21;124
S20;SGOCVE600004;24
S20;SGOCVE600005;6
S20;SGOCVKI00192;3
S20;SGOCVKI00195;1
S20;01CMJ075K21;15
S20;01LT300K20;18
S20;01MA075K22;16
S20;01SA250LV20;20
S20;11BG140SI19;6
S20;11CM030O21;10
S20;11GE075I20;3
S20;11LH200I19;4
S20;11SD100SL19;12
S20;15MA030L11;31
S20;17RS500G21;3
S20;17SH075E19;24
S20;24MA030P15;5
S20;27HSR030I16;4
S20;27OR050I21;12
S20;27RM300I20;11
S20;52HD006A18;531
S20;52MOCOL316;1
S21000;15LM300L11;3
S21000;17AS250G21;5
S21000;17DO050F13;8
S21000;17RS500FV21;9
S21000;17SH300FV21;8
S21000;27MS050I20;7
S21000;27OR030I21;23
S21000;29GE200A21;18
S21000;29HD250A15;14
S21000;38EV075A21;8
S21000;52DE001I21;137
S21000;SGOCVE600004;14
S21000;SGOCVE600005;3
S21000;01CMJ075K21;15
S21000;01LT300K20;6
S21000;01MA075K22;12
S21000;01SA250LV20;11
S21000;11BG140SI19;8
S21000;11CM030O21;8
S21000;11GE075I20;5
S21000;11LH200I19;8
S21000;11SD100SL19;7
S21000;15MA030L11;31
S21000;17RS500G21;21
S21000;17SH075E19;14
S21000;24MA030P15;8
S21000;27HSR030I16;7
S21000;27OR050I21;30
S21000;27RM300I20;10
S21000;52HD006A18;297
S21000;52MOCOL316;1
S90000;SGOCVKI00189;7
S90000;SGOCVKI00190;3
S90000;SGOCVKI00191;5
S90000;SGOCVKI00198;7
S90000;SGOCVKI00204;13
S90000;SGOCVKI00208;6
S24000;01CMJ075K21;14
S90000;01CMJ075K21;11
S24000;01LT300K20;14
S90000;01LT300K20;3
S24000;01MA075K22;17
S24000;01SA250LV20;16
S90000;01SA250LV20;6
S24000;11BG140SI19;7
S90000;11BG140SI19;9
S24000;11CM030O21;15
S90000;11CM030O21;7
S24000;11GE075I20;9
S90000;11GE075I20;6
S24000;11LH200I19;8
S90000;11LH200I19;8
S24000;11SD100SL19;10
S90000;11SD100SL19;9
S90000;15GD070VB17;32
S24000;15MA030L11;38
S24000;17RS500G21;22
S90000;17RS500G21;9
S24000;17SH075E19;20
S90000;17SH075E19;88
S24000;24MA030P15;10
S90000;24MA030P15;8
S24000;27HSR030I16;4
S90000;27HSR030I16;4
S24000;27OR050I21;14
S90000;27OR050I21;4
S24000;27RM300I20;11
S90000;27RM300I20;9
S90000;49IC1POU20;14
S90000;49IC2POU20;65
S90000;49IC3POU20;27
S24000;52HD006A18;592
S90000;52HD006A18;507
S24000;52MOCOL316;2
S90000;52MOCOL316;5
S00;27CN050I14;2
