S15;01BM150K19;9
S27000;01BM150K19;6
S28000;01BM150K19;10
S27000;01CV050K18;2
S28000;01CV050K18;5
S15;01HN0075K19;8
S27000;01HN0075K19;2
S28000;01HN0075K19;7
S15;01MA030K22;3
S27000;01MA030K22;6
S28000;01MA030K22;10
S15;11BG140CS19;6
S27000;11BG140CS19;6
S28000;11BG140CS19;6
S15;11BP100I19;6
S27000;11BP100I19;5
S28000;11BP100I19;4
S15;11BR100A20;2
S27000;11BR100A20;15
S28000;11BR100A20;13
S15;11SP200SH19;12
S27000;11SP200SH19;4
S28000;11SP200SH19;4
S15;15MA030L11;12
S27000;15MA030L11;9
S28000;15MA030L11;23
S15;15MA030VA5;3
S27000;15MA030VA5;11
S28000;15MA030VA5;5
S15;17AS250P19;12
S27000;17AS250P19;7
S28000;17AS250P19;6
S15;17SH060SE21;8
S27000;17SH060SE21;14
S28000;17SH060SE21;8
S15;01RL500K20;11
S27000;01RL500K20;12
S28000;01RL500K20;12
S28000;01SA9000KV21;1
S15;01SE125K21;14
S27000;01SE125K21;6
S28000;01SE125K21;10
S15;11EH150A18;5
S27000;11EH150A18;5
S28000;11EH150A18;3
S15;11GN195A18;9
S27000;11GN195A18;6
S28000;11GN195A18;12
S15;11LT300I20;8
S27000;11LT300I20;5
S28000;11LT300I20;7
S15;11MA030A20;10
S27000;11MA030A20;4
S28000;11MA030A20;12
S15;11SD100SH19;3
S27000;11SD100SH19;4
S28000;11SD100SH19;14
S15;15GD250VB21;12
S27000;15GD250VB21;6
S28000;15GD250VB21;8
S15;15GD500VB17;3
S15;15GD500VB21;9
S27000;15GD500VB21;5
S28000;15GD500VB21;11
S15;17AS500FV21;13
S27000;17AS500FV21;8
S28000;17AS500FV21;11
S15;17RS500G21;5
S28000;17RS500G21;10
S15;17SH075E19;3
S28000;17SH075E19;6
S15;01CL200K17;2
S27000;01CL200K17;2
S28000;01CL200K17;7
S15;01CM300K20;3
S27000;01CM300K20;6
S28000;01CM300K20;5
S15;01EC200K22;6
S27000;01EC200K22;3
S28000;01EC200K22;10
S15;11CM030H20;4
S27000;11CM030H20;2
S28000;11CM030H20;12
S15;11ET050H20;4
S27000;11ET050H20;3
S28000;11ET050H20;4
S15;11LC250H19;7
S27000;11LC250H19;13
S28000;11LC250H19;9
S15;15GD250VA20;10
S27000;15GD250VA20;8
S28000;15GD250VB17;4
S15;01CF050K22;21
S27000;01CF050K22;15
S28000;01CF050K22;22
S15;01CV050K22;16
S27000;01CV050K22;14
S28000;01CV050K22;12
S15;01HDR500K20;8
S27000;01HDR500K20;6
S28000;01HDR500K20;13
S15;11GM200I19;9
S27000;11GM200I19;8
S28000;11GM200I19;12
S15;11PM100SI19;5
S27000;11PM100SI19;4
S28000;11PM100SI19;5
S15;11SP200CS19;7
S27000;11SP200CS19;7
S28000;11SP200CS19;8
S15;15AS250VA18;11
S27000;15AS250VA18;3
S28000;15AS250VA18;4
S15;15GM065VB20;2
S15;15GM280VB20;3
S28000;15GM280VB20;2
S15;15HE005L14;6
S27000;15HE005L14;10
S28000;15HE005L14;10
S15;15SE400VB5;1
S27000;15SE400VB5;4
S28000;15SE400VB5;11
S15;17DO050F13;13
S28000;17DO050F13;17
S28000;24ET050R18;10
S27000;24ET050R18;2
S15;24ET050R18;5
S28000;20FE050H20;3
S27000;20FE050H20;4
S15;20FE050H20;6
S28000;15SH250VA20;11
S27000;15SH250VA20;3
S15;15SH250VA20;11
S28000;15BA500L16A;16
S27000;15BA500L16A;3
S15;15BA500L16A;12
S28000;01MA075K22;12
S27000;01MA075K22;5
S15;01MA075K22;12
S28000;20MP030H20;2
S27000;20MP030H20;4
S28000;17SH075G21;75
S27000;17SH075G21;14
S15;17SH075G21;46
S28000;17ER075P19;15
S27000;17ER075P19;8
S15;17ER075P19;18
S28000;15RG500VA20;11
S27000;15RG500VA20;10
S28000;15LC250VB3;24
S27000;15LC250VB3;1
S15;15LC250VB3;6
S28000;15GD250L14;9
S27000;15GD250L14;7
S15;15GD250L14;5
S28000;15DO050VA5;4
S27000;15DO050VA5;5
S15;15DO050VA5;2
S28000;17SH300P19;13
S27000;17SH300P19;6
S15;17SH300P19;10
S28000;15ET100VB20;4
S27000;15ET100VB20;2
S15;15ET100VA20;2
S28000;11LD200I19;11
S27000;11LD200I19;6
S15;11LD200I19;11
S28000;11GE075I20;4
S27000;11GE075I20;3
S15;11GE075I20;6
S28000;11ET010H20;9
S15;11ET010H20;4
S28000;01PI030K18;11
S27000;01PI030K18;5
S15;01PI030K18;2
S28000;01MR030K14;14
S27000;01MR030K14;21
S15;01MR030K14;14
S27000;01CMJ075K21;10
S15;01CMJ075K21;13
S28000;17SH060SP21;6
S27000;17SH060SP21;10
S15;17SH060SP21;10
S28000;17RC500P19;4
S27000;17RC500P19;8
S15;17RC500P19;12
S28000;17AS500E19;12
S27000;17AS500E19;9
S15;17AS500E19;12
S28000;15MA075VB4;11
S27000;15MA075VB4;8
S15;15MA075VB4;11
S28000;15MA075L11;17
S27000;15MA075L11;10
S15;15MA075L11;7
S28000;15MA030VB3;14
S27000;15MA030VB3;10
S15;15MA030VB3;11
S28000;15GM065L21;11
S27000;15GM065L21;8
S15;15GM065L21;11
S28000;15GM065L20;1
S27000;15GM065L20;3
S28000;15GD9000V21;1
S28000;15GD250VA20;13
S28000;11SP200SL19;9
S27000;11SP200SL19;6
S15;11SP200SL19;9
S28000;11PM100SH19;2
S27000;11PM100SH19;4
S15;11PM100SH19;4
S28000;11CM030O21;15
S27000;11CM030O21;13
S15;11CM030O21;4
S28000;11BG140SI19;8
S27000;11BG140SI19;10
S15;11BG140SI19;9
S28000;10EST500V21;12
S28000;10EST250V21;27
S28000;01SB020K21;12
S27000;01SB020K21;12
S15;01SB020K21;5
S28000;01SA100LT20;15
S27000;01SA100LT20;9
S15;01SA100LT20;13
S28000;01SA050KL20;6
S27000;01SA050KL20;8
S15;01SA050KL20;10
S28000;01LT300K20;15
S27000;01LT300K20;7
S15;01LT300K20;14
S27000;01LH300KB19;2
S28000;01HD250K17;6
S27000;01HD250K17;3
S15;01HD250K17;3
S28000;01BK010K14;11
S27000;01BK010K14;9
S15;01BK010K14;17
S28000;01CD250K17;7
S27000;01CD250K17;16
S15;01CD250K17;23
S15;27MP150I20;12
S27000;27ER015I20;3
S15;27ER015I20;4
S28000;24RO010R18;4
S27000;24RO010R18;3
S15;24RO010R18;3
S28000;24MA030RV19;12
S28000;24MA030RE19;3
S27000;24MA030RE19;2
S15;24MA030RE19;3
S28000;24LC250R20;11
S27000;24LC250R20;18
S15;24LC250R20;1
S28000;24LC250CB4;10
S27000;24LC250CB4;8
S15;24LC250CB4;10
S15;17HI001G19;124
S27000;17HI001G19;184
S28000;17HI001G19;158
S15;17RC500E20;11
S27000;17RC500E20;7
S28000;17RC500E20;11
S15;17RS500FV21;9
S27000;17RS500FV21;13
S28000;17RS500FV21;2
S15;17RS500P19;17
S27000;17RS500P19;12
S28000;17RS500P19;14
S15;17SH500P19;12
S27000;17SH500P19;8
S28000;17SH500P19;14
S15;01BM050K19;12
S27000;01BM050K19;5
S28000;01BM050K19;9
S15;01RV500K20;2
S27000;01RV500K20;3
S28000;01RV500K20;13
S15;01SA100LV20;15
S27000;01SA100LV20;12
S28000;01SA100LV20;8
S15;01SA250LT20;14
S27000;01SA250LT20;8
S28000;01SA250LT20;19
S15;01SL0045K13;27
S27000;01SL0045K13;14
S28000;01SL0045K13;18
S15;11EP010H19;4
S27000;11EP010H19;2
S28000;11EP010H19;1
S15;11GD250O21;8
S27000;11GD250O21;12
S28000;11GD250O21;16
S15;11SA100H19;12
S27000;11SA100H19;8
S28000;11SA100H19;16
S15;15ET010VB19;1
S27000;15ET010VB19;4
S28000;15ET010VB19;2
S15;15SA070VB6;2
S27000;15SA070VB6;3
S28000;15SA070VB6;1
S15;20ET075OC20;2
S27000;20ET075OC20;4
S28000;20ET075OC20;3
S15;27DS030I20;7
S27000;27DS030I20;3
S28000;27DS030I20;10
S15;29HS100A21;9
S27000;29HS100A21;12
S28000;29HS100A21;10
S15;29LC200A20US;26
S27000;29LC200A20US;26
S28000;29LC200A20US;28
S15;01EM075K20;6
S27000;01EM075K20;4
S28000;01EM075K20;2
S15;01PI075K18;2
S27000;01PI075K18;9
S28000;01PI075K18;6
S15;11ET075O21;2
S27000;11ET075O21;3
S28000;11ET075O21;5
S15;11FAG10TR19;13
S27000;11FAG10TR19;4
S28000;11FAG10TR19;9
S15;11LC250O21;3
S27000;11LC250O21;12
S28000;11LC250O21;17
S15;11SA050O21;39
S27000;11SA050O21;5
S28000;11SA050O21;9
S15;15RC500VB21;14
S27000;15RC500VB21;8
S28000;15RC500VB21;35
S15;15RG500L14;12
S27000;15RG500L14;9
S28000;15RG500L14;7
S15;17AS250E19;7
S27000;17AS250E19;6
S15;17AS250G21;12
S27000;17AS250G21;5
S28000;17AS250G21;9
S15;17SE100FV21;11
S27000;17SE100FV21;9
S28000;17SE100FV21;5
S15;24BR050R19;9
S27000;24BR050R19;5
S28000;24BR050R19;13
S15;27EV200I19;12
S27000;27EV200I19;8
S28000;27EV200I19;8
S15;27MS050I20;6
S27000;27MS050I20;6
S28000;27MS050I20;5
S15;29SH240A20;11
S27000;29SH240A20;4
S28000;29SH240A20;12
S15;01BL012K18;11
S27000;01BL012K18;9
S28000;01BL012K18;9
S15;01CL175K22;29
S27000;01CL175K22;15
S28000;01CL175K22;22
S15;01CM500K20;11
S27000;01CM500K20;3
S28000;01CM500K20;14
S28000;11AS90005G21;1
S15;11BC100G21;26
S27000;11BC100G21;37
S28000;11BC100G21;18
S24000;01BM150K19;8
S24000;01CMJ075K21;10
S90000;01CP050K22;9
S24000;01CV050K18;7
S24000;01HN0075K19;7
S90000;01HN0075K19;4
S24000;01MA030K22;10
S90000;01MA030K22;52
S90000;01MA150K21H;1
S24000;01MR030K14;11
S90000;01MR030K14;6
S24000;01PI030K18;2
S90000;01PI030K18;9
S24000;11BG140CS19;7
S90000;11BG140CS19;6
S24000;11BP100I19;5
S90000;11BP100I19;8
S24000;11BR100A20;11
S90000;11BR100A20;8
S24000;11ET010H20;5
S90000;11ET010H20;8
S24000;11GE075I20;9
S90000;11GE075I20;4
S24000;11LD200I19;7
S90000;11LD200I19;6
S24000;11SP200SH19;8
S90000;11SP200SH19;1
S90000;15AS150VCL21;59
S90000;15CF150VBL21;12
S24000;15ET100VB20;3
S90000;15ETVER21;19
S24000;15MA030L11;15
S90000;15MA030L11;6
S24000;15MA030VA5;4
S90000;15MA030VA5;16
S24000;17AS250P19;8
S90000;17AS250P19;12
S24000;17SH060SE21;8
S90000;17SH060SE21;9
S90000;17SH300G18;17
S24000;17SH300P19;3
S90000;17SH300P19;11
S24000;20DO050O20;4
S90000;20DO050O20;5
S90000;20ET075CD19;7
S24000;20GD250HC20;8
S90000;20GD250HC20;3
S24000;20GD250OC20;6
S90000;24EF050R18;12
S90000;24LC250C21;13
S90000;24LC250R18;2
S90000;24MA030R18;9
S24000;27ER050I21;8
S90000;27ER050I21;8
S24000;27FP050I19;2
S90000;27FP050I19;6
S24000;27MQ065I15A;4
S90000;27MQ065I15A;6
S90000;29MA030A21X;1
S90000;29MA075A19;1
S24000;29RC200A20;18
S90000;49DB004I20;30
S90000;49LC020A20;20
S24000;01RL500K20;4
S90000;01RL500K20;11
S24000;01SE125K21;11
S90000;01SE125K21;4
S24000;11EH150A18;5
S90000;11EH150A18;9
S90000;11GD075O21;1
S24000;11GN195A18;7
S24000;11LT300I20;7
S90000;11LT300I20;7
S24000;11MA030A20;4
S90000;11MA030A20;17
S24000;11SD100SH19;10
S90000;11SD100SH19;6
S24000;15DO050VA5;3
S90000;15DO050VA5;1
S24000;15GD250L14;8
S90000;15GD250L14;2
S24000;15GD250VB21;1
S90000;15GD250VB21;8
S24000;15GD500VB21;9
S90000;15GD500VB21;30
S24000;15LC250VB3;6
S90000;15LC250VB3;5
S24000;15RG500VA20;8
S90000;15RG500VA20;2
S24000;17AS500FV21;5
S90000;17AS500FV21;6
S24000;17ER075P19;12
S90000;17ER075P19;7
S24000;17RS500G21;12
S24000;17SH075E19;7
S90000;17SH075E19;22
S24000;17SH075G21;36
S90000;17SH075G21;220
S24000;20MP030H20;3
S24000;20NV150H20;5
S90000;20NV150H20;7
S24000;20SA050CD20;4
S90000;20SA050CD20;5
S90000;24BR050C21;58
S90000;24GD250CBL22;1
S24000;24MA075P15;16
S15;11BH050A18;5
S27000;11BH050A18;5
S28000;11BH050A18;3
S15;11CM125I19;5
S27000;11CM125I19;6
S28000;11CM125I19;7
S15;11LH200I19;9
S27000;11LH200I19;3
S28000;11LH200I19;7
S15;15GM065VB21;17
S27000;15GM065VB21;11
S28000;15GM065VB21;13
S15;15LC250L14;11
S27000;15LC250L14;8
S28000;15LC250L14;18
S15;17RC500G21;10
S27000;17RC500G21;3
S28000;17RC500G21;8
S15;17SH300E19;11
S27000;17SH300E19;12
S28000;17SH300E19;6
S15;27DF125I17;14
S27000;27DF125I17;3
S28000;27DF125I17;9
S15;27HC050I18;7
S27000;27HC050I18;2
S28000;27HC050I18;4
S15;27TS001I20;150
S27000;27TS001I20;135
S28000;27TS001I20;434
S15;01SL300LV20;4
S27000;01SL300LV20;12
S28000;01SL300LV20;4
S15;11MWC200I19;5
S27000;11MWC200I19;2
S28000;11MWC200I19;4
S15;11PEP050I20;6
S27000;11PEP050I20;6
S28000;11PEP050I20;5
S15;11SP200SI19;8
S27000;11SP200SI19;3
S28000;11SP200SI19;1
S15;17SH060SG21;20
S27000;17SH060SG21;11
S28000;17SH060SG21;11
S15;17SH500FV21;17
S27000;17SH500FV21;9
S28000;17SH500FV21;15
S15;17SH500G21;14
S28000;17SH500G21;13
S15;20DO075CD20;12
S28000;20DO075CD20;9
S28000;24ET050CBL22;1
S90000;24MA075P15;10
S24000;24MA075R18;1
S90000;24MA075R18;10
S90000;27BP050I19;5
S24000;27DC030I20;4
S90000;27DC030I20;7
S24000;27DCB060I17;7
S90000;27DCB060I17;2
S24000;27HS030I18;6
S90000;27HS030I18;4
S24000;29MAV075A19;8
S90000;29MAV075A19;6
S90000;49CRM1NO20;2
S90000;49CRM1NO21;19
S90000;49MA010R18;142
S90000;49MWC030I19;101
S90000;49SH035E20;34
S24000;49SH035E21;7
S90000;49SH035E21;160
S90000;49TOTMC20;117
S24000;01CD250K17;13
S90000;01CD250K17;1
S24000;01CF050K22;13
S90000;01CF050K22;10
S90000;01CV050K18;8
S24000;01CV050K22;12
S90000;01CV050K22;13
S24000;01HDR500K20;4
S90000;01HDR500K20;1
S24000;11GM200I19;10
S90000;11GM200I19;5
S90000;11LP040028M19;40
S24000;11PM100SI19;5
S90000;11PM100SI19;6
S24000;11SP200CS19;6
S90000;11SP200CS19;2
S24000;15AS250VA18;3
S90000;15AS250VA18;4
S90000;15ET100VAL21;1
S90000;15ETKAR21;16
S90000;15GM065VB20;1
S90000;15GM280VB20;7
S24000;15HE005L14;4
S90000;15HE005L14;7
S90000;15MF075VM20H;58
S24000;15SE400VB5;2
S90000;15SE400VB5;7
S24000;17DO050F13;4
S24000;17HI001G19;75
S90000;17HI001G19;100
S24000;17RC500E20;10
S90000;17RC500E20;14
S24000;17RS500FV21;12
S90000;17RS500FV21;14
S24000;17RS500P19;10
S24000;17SH500P19;8
S90000;17SH500P19;5
S90000;18ET010TL17;2
S90000;18LC250TL17ET;1
S24000;24BR050CB6;9
S90000;24BR050CB6;11
S90000;24GD250C21;1
S90000;27DE015I13US;6
S24000;27DH030I20;7
S90000;27DH030I20;4
S24000;29HD250A15;14
S90000;29HD250A15;15
S90000;29HD250A22C;6
S24000;38EC015A18;4
S90000;38EC015A18;6
S24000;38UV030A18;4
S90000;49BP010K19;20
S90000;49CL1SA18;234
S90000;49CP008I19;32
S90000;49CP020K22;418
S90000;49EP005TL17ET;9
S90000;49HD035K17;1
S90000;49IC1POU20;164
S90000;49IC2POU20;6
S90000;49IC3POU20;27
S90000;49POCB19;1
S90000;52DL002I17;100
S24000;52MC006G21;129
S90000;01CL125C21H;1
S24000;01CL200K17;6
S90000;01CL200K17;9
S24000;01CM300K20;2
S90000;01CM300K20;11
S24000;01EC200K22;8
S90000;01EC200K22;23
S90000;01EM075K18;1
S24000;01MA075K22;12
S90000;01MA075K22;24
S24000;11CM030H20;12
S90000;11CM030H20;12
S24000;11ET050H20;4
S90000;11ET050H20;3
S24000;11LC250H19;8
S90000;11LC250H19;7
S24000;15BA500L16A;9
S90000;15BA500L16A;5
S90000;15ET100VCL21;41
S24000;15GD250VA20;6
S90000;15LC075L15;12
S24000;15SH250VA20;7
S90000;17AS075P19;89
S90000;17SE125D15;23
S90000;18SA075TL17ET;5
S24000;20FE050H20;4
S90000;20FE050H20;15
S24000;24ET050R18;8
S90000;24ET050R18;5
S24000;24LC250CB4;9
S90000;24LC250CB4;4
S24000;24LC250R20;13
S90000;24LC250R20;8
S24000;24MA030RE19;6
S90000;24MA030RE19;9
S90000;24MA030RV19;8
S24000;24RO010R18;3
S90000;24RO010R18;6
S90000;27ER015I20;11
S24000;27MP150I20;4
S90000;27MP150I20;7
S90000;27OR030I19;61
S24000;29GE200A21;12
S90000;29GE200A21;3
S90000;29HD250A21X;8
S24000;29HD500A15;17
S90000;29HD500A15;6
S90000;29HD500A21X;2
S90000;29LC200A22C;13
S90000;49BF2NO20;1
S24000;49POCKNO21;18
S90000;49POCKNO21;112
S24000;52CP0015I19;135
S90000;52CP0015I19;7
S24000;52MGENSA21;195
S24000;01EM075K20;3
S90000;01EM075K20;10
S90000;01MF150F21H;1
S24000;01PI075K18;4
S90000;01PI075K18;15
S24000;11ET075O21;6
S90000;11ET075O21;2
S24000;11FAG10TR19;6
S90000;11FAG10TR19;9
S24000;11LC250O21;8
S90000;11LC250O21;5
S24000;11SA050O21;12
S90000;11SA050O21;9
S90000;15GD070VB17;31
S90000;15LC250VBL20;1
S90000;15MA030VCL21;1
S24000;15RC500VB21;12
S90000;15RC500VB21;10
S24000;15RG500L14;5
S24000;17AS250E19;5
S90000;17AS250E19;8
S27000;24GD500R19;7
S28000;24LC250CBL22;12
S15;27DE015I21;11
S27000;27DE015I21;2
S28000;27DE015I21;9
S15;29RH500A15;21
S27000;29RH500A15;22
S28000;29RH500A15;28
S15;49OR005I21;136
S27000;49OR005I21;106
S28000;49OR005I21;113
S15;01HF100K17;9
S28000;01HF100K17;7
S15;01SL300VE20;7
S27000;01SL300VE20;8
S28000;01SL300VE20;11
S28000;10P250V21;27
S28000;10P500V21;12
S15;11BG140SL19;12
S27000;11BG140SL19;11
S28000;11BG140SL19;18
S15;11BO100CS19;15
S27000;11BO100CS19;11
S28000;11BO100CS19;21
S15;11EP050H19;1
S15;15GN300L11;8
S27000;15GN300L11;10
S28000;15GN300L11;14
S15;17AS250FV21;4
S27000;17AS250FV21;7
S28000;17AS250FV21;7
S15;17AS500P19;8
S27000;17AS500P19;8
S28000;17AS500P19;5
S15;20SA050O20;4
S27000;20SA050O20;11
S28000;20SA050O20;9
S28000;24MA030CBL22;11
S15;24RO010CB4;2
S27000;24RO010CB4;10
S28000;24RO010CB4;12
S15;24SA050CB6;13
S27000;24SA050CB6;11
S28000;52DE001I21;167
S27000;52DE001I21;149
S15;52DE001I21;236
S28000;52CP006K22;538
S27000;52CP006K22;411
S15;52CP006K22;397
S27000;52CP006K17;83
S28000;49BO015CS19;125
S28000;29ASH240A20;12
S27000;29ASH240A20;8
S15;29ASH240A20;14
S28000;24BL012CB5;9
S27000;24BL012CB5;9
S15;24BL012CB5;8
S28000;49HD035A15;36
S15;49HD035A15;81
S28000;49GD035CB5;37
S28000;38MI150A18;3
S15;38MI150A18;5
S28000;24GP010RJ21H;22
S28000;17AS075E19;35
S27000;17AS075E19;20
S15;17AS075E19;32
S28000;17AF100G20;10
S15;17AF100G20;11
S28000;27RM300I20;16
S27000;27RM300I20;3
S15;27RM300I20;15
S28000;27OR050I21;2
S27000;27OR050I21;5
S15;27OR050I21;8
S28000;24GD250CB21;16
S27000;24GD250CB21;11
S15;24GD250CB21;8
S28000;20DO130HC20;1
S27000;20DO130HC20;5
S15;20DO130HC20;3
S15;01MF150F21H;18
S15;29SA050A17;20
S27000;29MA075A21;4
S15;29MA075A21;11
S28000;29MA030A17;14
S27000;29MA030A17;5
S15;29MA030A17;9
S28000;24SA050R18;11
S27000;24SA050R18;9
S15;24SA050R18;8
S28000;24GD250R20;16
S27000;24GD250R20;18
S28000;20AR075O20;8
S27000;20AR075O20;4
S15;20AR075O20;11
S28000;01PR015R19;11
S27000;01PR015R19;7
S15;01PR015R19;9
S27000;29HD250A15;13
S15;29HD250A15;16
S28000;27DH030I20;7
S27000;27DH030I20;10
S15;27DH030I20;15
S28000;24BR050CB6;11
S27000;24BR050CB6;5
S15;24BR050CB6;3
S27000;52HS004A18;185
S15;52HS004A18;197
S28000;52HS001I17;146
S27000;52HS001I17;65
S15;52HS001I17;121
S28000;24SA050CB6;12
S15;27DB015I20;8
S27000;27DB015I20;2
S28000;27DB015I20;6
S15;38EV075A21;7
S27000;38EV075A21;6
S28000;38EV075A21;6
S15;38RC050A18;3
S27000;38RC050A18;3
S28000;38RC050A18;10
S15;38WC050A21;7
S27000;38WC050A21;2
S28000;38WC050A21;11
S15;38WS030A21;1
S27000;38WS030A21;5
S28000;38WS030A21;12
S15;52BY001I19;285
S27000;52BY001I19;121
S28000;52BY001I19;264
S15;52DB001I20;169
S27000;52DB001I20;85
S28000;52DB001I20;439
S27000;52MOCOL316;1
S28000;52MOCOL316;1
S15;52OR001I21;520
S27000;01CL300KB20;2
S15;01CPR200K22;16
S27000;01CPR200K22;27
S28000;01CPR200K22;28
S15;01HD500K20;9
S27000;01HD500K20;5
S28000;01HD500K20;14
S15;01MA150K22;15
S27000;01MA150K22;3
S28000;01MA150K22;17
S15;01PI150K18;6
S27000;01PI150K18;1
S28000;01PI150K18;9
S15;01SA250LV20;9
S27000;01SA250LV20;3
S28000;01SA250LV20;18
S15;01SL500VE20;11
S27000;01SL500VE20;5
S28000;01SL500VE20;6
S15;11CM030H19;6
S27000;11CM030H19;7
S28000;11CM030H19;13
S15;11ET010O21;4
S24000;17AS250G21;8
S90000;17AS250G21;9
S24000;17SE100FV21;4
S90000;17SE100FV21;2
S24000;20DO130HC20;4
S90000;20DO130HC20;8
S24000;24BR050R19;5
S90000;24BR050R19;3
S24000;24GD250CB21;14
S90000;24GD250CB21;18
S24000;27EV200I19;8
S90000;27EV200I19;5
S90000;27MS050I20;9
S24000;27RM300I20;10
S90000;27RM300I20;10
S24000;29SH240A20;10
S90000;01KTKAR21;1
S90000;52CL0015K21;221
S24000;52CL0015K21;61
S90000;52AS006G21;399
S24000;52AS006G21;183
S90000;52AS006G18;1
S90000;52AF006G20;100
S24000;52AF006G20;125
S90000;49LT030R21;9
S90000;10BOWEB419;3200
S90000;10BOWEB319;5100
S90000;10BOWEB219;3100
S90000;29SH240A20;1
S90000;38ST016A18;7
S90000;38WS030A18;22
S90000;49BOTNO21;36
S90000;49EP005H20;48
S24000;49MA010A21X;18
S90000;49MA010A21X;112
S90000;49MA010K22;18
S90000;49PMENNO21;140
S24000;49PO1NH18;36
S90000;49PO1NH18;133
S24000;52AS006E19;104
S90000;52AS006E19;207
S24000;52AS006P19;147
S90000;52AS006P19;172
S24000;52MGEBAG19;62
S24000;01BK010K14;10
S90000;01BK010K14;6
S24000;01HD250K17;4
S90000;01HD250K17;3
S24000;01LT300K20;12
S90000;01LT300K20;5
S24000;01SA050KL20;9
S90000;01SA050KL20;7
S24000;01SA100LT20;11
S90000;01SA100LT20;2
S24000;01SB020K21;16
S90000;01SB020K21;9
S24000;11BG140SI19;10
S90000;11BG140SI19;8
S24000;11CM030O21;10
S90000;11CM030O21;9
S90000;11GN040A19;88
S90000;11PM100DE20H;4
S24000;11PM100SH19;4
S90000;11PM100SH19;7
S24000;11SP200SL19;7
S90000;11SP200SL19;5
S90000;15GD250VA20;5
S90000;15GD250VA5;1
S90000;15GM065L21;15
S24000;15MA030VB3;9
S90000;15MA030VB3;11
S24000;15MA075L11;10
S90000;15MA075L11;5
S24000;15MA075VB4;11
S90000;15MA075VB4;10
S90000;52LASANO21;60
S24000;52LASANO21;120
S90000;52FP0015I19;100
S24000;52FP0015I19;34
S90000;52CV0015K22;200
S24000;52CV0015K22;178
S24000;17AS500E19;8
S90000;17AS500E19;4
S24000;17RC500P19;5
S90000;17RC500P19;24
S24000;17SH060SP21;12
S90000;17SH060SP21;8
S90000;17SH075FV21;23
S90000;18ET050TL17;1
S24000;20ET075CD20;6
S90000;20ET075CD20;8
S24000;20HR050H20;9
S90000;20HR050H20;9
S24000;24MA030RV19;10
S24000;27DC050I20;10
S90000;27DC050I20;3
S90000;29HD075A15;6
S90000;49AF015G20;160
S90000;49CM010O21;1
S90000;49CP004I19;82
S90000;49PFCWC21;90
S24000;52LC006A20;55
S90000;52LC006A20;59
S24000;52LGEBAG19;37
S24000;52LGEBOX18;8
S90000;52LGEBOX18;33
S24000;52LT002R21;128
S90000;52LT002R21;100
S90000;52MMBYNO21;4
S90000;98BBSA025LT2;77
S90000;01BL012B20H;1
S90000;01CD250F21H;3
S90000;01CP200K17;1
S24000;01HV030K16;4
S90000;01HV030K16;3
S24000;01LC500K20;10
S90000;01LC500K20;2
S24000;01SA100VE20;11
S90000;01SA100VE20;8
S90000;10KTPWPXM21;1
S24000;11BG140SH19;4
S24000;11CF100TR19;3
S90000;11CF100TR19;8
S24000;11GD050A18;3
S90000;11GD050A18;4
S90000;11LC075O21;20
S90000;11MW200I19;1
S24000;11SD100SI19;5
S90000;11SD100SI19;15
S24000;15ET100VA20;6
S90000;15ET100VA20;8
S24000;15ET100VB3;1
S90000;15ET100VB3;5
S90000;17AS250G18;59
S24000;17AS500G21;10
S90000;17AS500G21;10
S24000;17SH300G21;8
S90000;17SH300G21;11
S24000;17SH500E19;13
S24000;17VI100P19;3
S90000;17VI100P19;6
S24000;20SA050HC20;4
S90000;20SA050HC20;8
S24000;24MA030S6;10
S90000;24MA030S6;6
S24000;24MA075CB4;5
S90000;24MA075CB4;8
S90000;49DC008I20;17
S90000;49DH004I20;586
S24000;52BGERIB18;1
S90000;52BGERIB18;2
S24000;52DC0015I20;126
S90000;52DC0015I20;285
S24000;52MA003K22A;161
S90000;52MA003K22A;200
S90000;52STINO21;1
S24000;52YGERIB18;2
S24000;01SL300LV20;4
S90000;01SL300LV20;14
S90000;11GD050H20;1
S24000;11MWC200I19;4
S90000;11MWC200I19;3
S24000;11PEP050I20;5
S90000;11PEP050I20;4
S24000;11SP200SI19;5
S90000;11SP200SI19;4
S90000;17AS500G18;2
S90000;17RC500N18;1
S24000;17SH060SG21;7
S90000;17SH060SG21;10
S24000;17SH075G18;7
S90000;17SH075G18;11
S24000;17SH500FV21;13
S90000;17SH500FV21;4
S24000;17SH500G21;12
S90000;17SH500G21;7
S90000;18ET090TL17;1
S24000;20DO075CD20;2
S90000;20DO075CD20;1
S24000;24BL012CB5;3
S90000;24BL012CB5;14
S90000;24ET050CBL22;1
S90000;24GD075R20;3
S90000;24GD500R19;1
S24000;24LC250CBL22;1
S90000;24LC250CBL22;17
S24000;27DE015I21;6
S90000;27DE015I21;6
S24000;29ASH240A20;7
S90000;29ASH240A20;5
S90000;29LC200A21X;30
S24000;29RH500A15;20
S90000;29RH500A15;5
S90000;49BO015CS19;15
S90000;49CO1NO19;5
S90000;49ET010V13;13
S24000;49OR005I21;137
S90000;49OR005I21;19
S90000;52CP006K17;176
S24000;52CP006K22;302
S90000;52CP006K22;420
S24000;52DE001I21;42
S90000;52DE001I21;100
S24000;52HS001I17;80
S24000;52HS004A18;156
S90000;52HS004A18;39
S24000;52LGENSA18;63
S90000;52SHBOM22;32
S24000;01CPR200K22;28
S90000;01CPR200K22;19
S24000;01HD500K20;10
S27000;11ET010O21;6
S28000;11ET010O21;8
S15;11SV080I19;8
S27000;11SV080I19;2
S28000;11SV080I19;6
S15;15LC250VA20;13
S27000;15LC250VA20;13
S28000;15LC250VA20;10
S15;17MC200G21;8
S27000;17MC200G21;6
S28000;17MC200G21;9
S15;20ET075HC20;3
S27000;20ET075HC20;4
S28000;20ET075HC20;2
S15;27BY015I19;1
S27000;27BY015I19;8
S28000;27BY015I19;11
S15;27HCR050I16;3
S27000;27HCR050I16;3
S28000;27HCR050I16;2
S15;27MI150I20;6
S27000;27MI150I20;7
S28000;27MI150I20;3
S27000;27MP050I20;7
S15;29SE125A21;16
S28000;29SE125A21;12
S27000;49CAB1NO21;1
S27000;52AS006FV21;128
S28000;52AS006FV21;326
S15;52MS001I20;175
S27000;52MS001I20;154
S28000;52MS001I20;248
S15;98BBGD050VE2;9
S15;20DO050O20;12
S27000;20DO050O20;1
S28000;20DO050O20;1
S15;20GD250HC20;11
S27000;20GD250HC20;6
S28000;20GD250HC20;11
S28000;20GD250OC20;12
S28000;24EF050R18;2
S28000;24LC250C21;12
S15;24MA030R18;2
S15;27ER050I21;15
S27000;27ER050I21;5
S28000;27ER050I21;16
S15;27FP050I19;2
S27000;27FP050I19;4
S28000;27FP050I19;3
S15;27MQ065I15A;2
S27000;27MQ065I15A;4
S28000;27MQ065I15A;3
S15;29RC200A20;19
S21000;01BM150K19;7
S21000;01CL200F21H;1
S21000;01CMJ075K21;12
S21000;01HN0075K19;1
S21000;01MA030K22;97
S21000;01MA150K18;4
S21000;01MR030K14;70
S21000;01PI030K18;8
S21000;11BG140CS19;6
S21000;11BP100I19;4
S21000;11BR100A20;17
S21000;11ET010H20;2
S21000;11GE075I20;6
S21000;11LD200I19;4
S21000;11SP200SH19;8
S21000;15ET100VA20;2
S21000;15ET100VB20;3
S21000;15MA030L11;6
S21000;15MA030VA5;1
S21000;17AS250P19;6
S21000;17SH060SE21;15
S21000;17SH300P19;10
S21000;20DO050O20;6
S21000;20GD250HC20;4
S21000;20GD250OC20;10
S21000;24EF050R18;1
S21000;24MA030R18;2
S21000;27ER050I21;13
S21000;27FP050I19;9
S21000;27MQ065I15A;4
S21000;29RC200A20;27
S21000;49LC020A20;70
S21000;52MIGEBAG19;166
S21000;52SH006FV21;110
S21000;52SH006G21;113
S21000;52TS001R21;120
S21000;01BV050K16;4
S21000;01CMR500K20;11
S21000;11CD050A18;2
S21000;11PM100SL19;5
S21000;11SD100SL19;9
S21000;17CS150P19;5
S21000;17HI100G19;9
S21000;20GD250CD20;11
S21000;38BV050A19;4
S21000;38FT200A21;11
S21000;52ER002I21;118
S21000;52PS0015R21;106
S21000;01CL300KB20;3
S21000;01CPR200K22;25
S21000;01HD500K20;4
S21000;01MA150K22;1
S21000;01PI150K18;9
S10;01BM150K19;9
S10;01CMJ075K21;11
S10;01CV050K18;5
S10;01HN0075K19;3
S10;01MA030K22;16
S10;01MR030K14;7
S10;01PI030K18;2
S10;11BG140CS19;8
S10;11BP100I19;5
S10;11BR100A20;9
S10;11ET010H20;5
S10;11GE075I20;7
S10;11LD200I19;4
S10;15ET100VA20;7
S10;15ET100VB20;3
S10;15MA030L11;6
S10;15MA030VA5;8
S10;17AS250P19;8
S10;17SH060SE21;13
S10;17SH300P19;5
S10;20DO050O20;1
S10;20GD250HC20;7
S10;20GD250OC20;11
S10;24LC250C21;9
S10;27ER050I21;16
S10;27FP050I19;8
S10;27MQ065I15A;6
S10;29RC200A20;11
S10;49LC020A20;60
S10;52MIGEBAG19;107
S10;52SH006FV21;157
S10;52SH006G21;271
S10;52TS001R21;152
S10;01BV050K16;3
S10;01CL050K21;1
S10;01CMR500K20;10
S10;01EN300KB19;14
S10;11CD050A18;6
S10;11PM100SL19;6
S10;11SD100SL19;3
S10;15GG150VAL21;22
S10;17CS150P19;18
S10;17HI100G19;5
S10;20GD250CD20;11
S10;24MA030R18;3
S10;38BV050A19;8
S10;38FT200A21;3
S10;01CPR200K22;26
S10;01PI150K18;11
S10;01SA250LV20;13
S10;01SL500VE20;5
S10;11CM030H19;1
S10;11ET010O21;8
S10;11SV080I19;4
S20;01BM150K19;4
S20;01CMJ075K21;13
S20;01CV050K18;2
S20;01HN0075K19;1
S20;01MA030K22;14
S20;01MR030K14;12
S20;01PI030K18;13
S20;11BG140CS19;11
S20;11BP100I19;6
S20;11BR100A20;9
S20;11ET010H20;2
S20;11GE075I20;1
S20;11LD200I19;10
S20;11SP200SH19;4
S20;15ET100VA20;6
S20;15MA030L11;5
S20;15MA030VA5;16
S20;17AS250P19;6
S20;17SH060SE21;7
S20;17SH300P19;10
S20;20DO050O20;2
S20;20GD250HC20;5
S20;20GD250OC20;8
S20;24LC250C21;8
S20;24MA030R18;10
S20;27ER050I21;13
S20;27FP050I19;5
S20;27MQ065I15A;4
S20;29RC200A20;25
S20;49LC020A20;4
S20;52HV001K18;34
S20;52MIGEBAG19;102
S20;52SH006FV21;147
S20;52SH006G21;135
S20;52TS001R21;102
S20;01BV050K16;3
S20;01CMR500K20;5
S20;01EN300KB19;11
S20;11CD050A18;5
S20;11SD100SL19;8
S20;15GG150VAL21;37
S20;17CS150P19;23
S20;17HI100G19;7
S20;20GD250CD20;10
S20;38BV050A19;1
S20;38FT200A21;6
S20;52ER002I21;149
S20;52PS0015R21;79
S20;01CPR200K22;21
S20;01HD500K20;6
S20;01MA150K22;3
S20;01PI150K18;8
S20;01SA250LV20;18
S20;01SL500VE20;8
S29000;01BM150K19;11
S29000;01CMJ075K21;26
S29000;01HN0075K19;8
S29000;01MA030K22;4
S29000;01MR030K14;11
S29000;01PI030K18;12
S29000;11BG140CS19;10
S29000;11BP100I19;8
S29000;11BR100A20;14
S29000;11ET010H20;5
S29000;11GE075I20;4
S29000;11LD200I19;14
S29000;11SP200SH19;10
S29000;15MA030L11;14
S29000;15MA030VA5;12
S29000;17AS250P19;6
S29000;17SH060SE21;12
S29000;17SH300P19;16
S29000;20DO050O20;8
S29000;20GD250HC20;16
S29000;20GD250OC20;15
S29000;27ER050I21;15
S29000;27FP050I19;4
S29000;27MQ065I15A;6
S29000;29RC200A20;66
S29000;49MA010CB4;146
S29000;49POUCH2NO21;39
S29000;52SH006FV21;189
S29000;52SH006G21;186
S29000;52TS001R21;121
S29000;01BV050K16;4
S29000;01CL050K21;5
S29000;01CMR500K20;15
S29000;11CD050A18;16
S29000;11SD100SL19;6
S29000;17HI100G19;6
S29000;20GD250CD20;25
S29000;38BV050A19;8
S29000;38FT200A21;8
S29000;52ER002I21;89
S29000;52HD006A18;157
S29000;52PS0015R21;148
S29000;01CPR200K22;34
S29000;01HD500K20;9
S29000;01PI150K18;10
S29000;01SA250LV20;24
S29000;01SL500VE20;5
S29000;11CM030H19;14
S29000;11ET010O21;5
S29000;11SV080I19;11
S29000;15LC250VA20;14
S29000;17MC200G21;15
S29000;20ET075HC20;7
S21000;01SA250LV20;15
S21000;01SL500VE20;8
S21000;11CM030H19;19
S21000;11ET010O21;2
S21000;11SV080I19;4
S21000;15LC250VA20;10
S21000;17MC200G21;9
S21000;20ET075HC20;4
S21000;27BY015I19;1
S21000;27HCR050I16;2
S21000;27MI150I20;5
S21000;29SE125A21;4
S21000;52MS001I20;99
S21000;98BBGD050VE2;7
S21000;01BK010K14;7
S21000;01HD250K17;4
S21000;01LH300KB19;2
S21000;01LT300K20;8
S21000;01SA050KL20;6
S21000;01SA100LT20;9
S21000;01SB020K21;6
S21000;11BG140SI19;10
S21000;11CM030O21;9
S21000;11PM100SH19;4
S21000;11SP200SL19;7
S21000;15GM065L20;3
S21000;15GM065L21;10
S21000;98BBSH050A0;5
S21000;52HD006A18;178
S21000;15MA030VB3;5
S21000;15MA075L11;10
S21000;15MA075VB4;1
S21000;17AS500E19;9
S21000;17RC500P19;7
S21000;17SH060SP21;12
S21000;18ET050TL17;1
S21000;20ET075CD20;4
S21000;20HR050H20;6
S21000;24MA030RV19;12
S21000;27DC050I20;12
S21000;52LC006A20;21
S21000;52LGEBAG19;71
S21000;52LGEBOX18;7
S21000;52LT002R21;149
S21000;01CL200K17;10
S21000;01CM300K20;4
S21000;01EC200K22;7
S21000;01MA075K22;12
S21000;11CM030H20;12
S21000;11ET050H20;4
S21000;11LC250H19;9
S21000;15BA500L16A;6
S21000;15GD250VA20;9
S10;15LC250VA20;8
S10;17MC200G21;9
S10;20ET075HC20;8
S10;27BY015I19;4
S10;27HCR050I16;3
S10;27MI150I20;3
S10;29SE125A21;4
S10;52MS001I20;160
S10;98BBGD050VE2;10
S10;01BK010K14;9
S10;01HD250K17;6
S10;01LT300K20;6
S10;01SA050KL20;15
S10;01SA100LT20;15
S10;01SB020K21;10
S10;11BG140SI19;6
S10;11CM030O21;13
S10;11PM100SH19;4
S10;11SP200SL19;6
S10;15GM065L20;11
S10;15MA030VB3;7
S10;15MA075L11;11
S10;15MA075VB4;7
S10;17AS500E19;5
S10;17RC500P19;5
S10;98BBSH050A0;14
S10;52PS0015R21;137
S10;52HD006A18;314
S10;52ER002I21;336
S10;17SH060SP21;10
S10;20ET075CD20;4
S10;20HR050H20;4
S10;24MA030RV19;9
S10;27DC050I20;8
S10;52LC006A20;288
S10;52LGEBAG19;47
S10;52LGEBOX18;7
S10;52LT002R21;283
S10;01CL200K17;1
S10;01CM300K20;1
S10;01EC200K22;6
S10;01MA075K22;11
S10;11CM030H20;13
S10;11ET050H20;6
S10;11LC250H19;9
S10;15ET100VCL21;4
S10;15GD250VA20;9
S10;15SH250VA20;14
S10;20FE050H20;8
S10;24ET050R18;4
S10;24LC250CB4;1
S10;24LC250R20;4
S10;24MA030RE19;4
S10;24RO010R18;6
S20;11CM030H19;9
S20;11ET010O21;5
S20;11SV080I19;9
S20;15LC250VA20;13
S20;17MC200G21;13
S20;20ET075HC20;2
S20;27BY015I19;1
S20;27HCR050I16;1
S20;27MI150I20;4
S20;29SE125A21;8
S20;52MS001I20;126
S20;98BBGD050VE2;2
S20;01BK010K14;1
S20;01HD250K17;1
S20;01SB020K21;10
S20;11BG140SI19;9
S20;11CM030O21;6
S20;11PM100SH19;5
S20;11SP200SL19;10
S20;15GM065L20;2
S20;15GM065L21;5
S20;15MA030VB3;1
S20;15MA075L11;10
S20;15MA075VB4;10
S20;17AS500E19;7
S20;17RC500P19;3
S20;98BBSH050A0;21
S20;52HD006A18;204
S20;17SH060SP21;6
S20;18ET050TL17;1
S20;20ET075CD20;3
S20;20HR050H20;3
S20;24MA030RV19;11
S20;27DC050I20;6
S20;52LC006A20;34
S20;52LGEBAG19;25
S20;52LGEBOX18;12
S20;52LT002R21;96
S20;01CL200K17;6
S20;01CM300K20;5
S20;01EC200K22;4
S20;01MA075K22;36
S20;11CM030H20;9
S20;11ET050H20;2
S20;11LC250H19;13
S20;15BA500L16A;12
S20;15ET100VCL21;9
S20;15GD250VA20;12
S20;15SH250VA20;13
S20;18SA075TL17ET;1
S20;20FE050H20;3
S20;24ET050R18;6
S20;24LC250CB4;11
S20;24LC250R20;5
S27000;29RC200A20;24
S28000;29RC200A20;26
S15;49LC020A20;7
S28000;49LC020A20;106
S15;49POUCH2NO21;36
S28000;49POUCH2NO21;22
S15;52MIGEBAG19;227
S27000;52MIGEBAG19;267
S15;52SH006FV21;104
S27000;52SH006FV21;213
S28000;52SH006FV21;215
S15;52SH006G21;131
S27000;52SH006G21;136
S28000;52SH006G21;367
S15;52TS001R21;105
S27000;52TS001R21;18
S28000;52TS001R21;331
S15;01BV050K16;3
S27000;01BV050K16;3
S28000;01BV050K16;4
S15;01CL050K21;5
S27000;01CL050K21;3
S28000;01CL050K21;4
S15;01CMR500K20;15
S27000;01CMR500K20;6
S28000;01CMR500K20;16
S15;11CD050A18;12
S27000;11CD050A18;5
S28000;11CD050A18;6
S15;11PM100SL19;5
S27000;11PM100SL19;4
S28000;11PM100SL19;5
S15;11SD100SL19;5
S27000;11SD100SL19;4
S28000;11SD100SL19;1
S28000;11SH90005G21;1
S15;17CS150P19;6
S27000;17CS150P19;30
S15;17HI100G19;8
S27000;17HI100G19;8
S28000;17HI100G19;9
S15;20GD250CD20;9
S27000;20GD250CD20;8
S28000;20GD250CD20;13
S28000;29HD9000A21;1
S15;38BV050A19;6
S27000;38BV050A19;4
S28000;38BV050A19;4
S15;38FT200A21;10
S27000;38FT200A21;5
S28000;38FT200A21;10
S15;52ER002I21;240
S27000;52ER002I21;301
S29000;27BY015I19;4
S29000;27HCR050I16;12
S29000;27MI150I20;10
S29000;29SE125A21;14
S29000;52AS006FV21;127
S29000;52MS001I20;197
S29000;01BK010K14;19
S29000;01HD250K17;2
S29000;01LT300K20;17
S29000;01SA050KL20;2
S29000;01SA100LT20;21
S29000;01SB020K21;5
S29000;11BG140SI19;8
S29000;11CM030O21;14
S29000;11PM100SH19;2
S29000;11SP200SL19;13
S29000;15GD250VA20;8
S29000;15GM065L20;14
S29000;15MA030VB3;18
S29000;15MA075L11;22
S29000;15MA075VB4;10
S29000;17AS500E19;18
S29000;17RC500P19;26
S29000;17SH060SP21;9
S29000;20ET075CD20;4
S29000;20HR050H20;4
S29000;27DC050I20;20
S29000;52LC006A20;41
S29000;52LGEBOX18;2
S29000;52LT002R21;160
S29000;01CL200K17;2
S29000;01EC200K22;15
S29000;01MA075K22;13
S29000;11CM030H20;18
S29000;11ET050H20;4
S29000;11LC250H19;10
S29000;15BA500L16A;10
S29000;15GD250VB17;28
S29000;15SH250VA20;13
S29000;20FE050H20;6
S29000;24ET050R18;5
S29000;24LC250CB4;11
S29000;24LC250R20;17
S29000;24MA030RE19;2
S29000;24MA030RV19;3
S29000;24RO010R18;7
S29000;27ER015I20;5
S29000;27MP150I20;13
S29000;29GE200A21;24
S29000;29HD500A15;50
S29000;49POCKNO21;13
S29000;52AF006G20;96
S29000;52AS006G21;212
S10;27ER015I20;5
S10;27MP150I20;7
S10;29GE200A21;7
S10;29HD500A15;27
S10;29LC200A22C;12
S10;49POCKNO21;21
S10;52AF006G20;360
S10;52AS006FV21;185
S10;52AS006G21;135
S10;52CL0015K18;4
S10;52CP0015I19;252
S10;52MGEBOX18;2
S10;52MGENSA21;60
S10;52SH006P19;33
S10;52SP001I19;248
S10;01CD250K17;15
S10;01CF050K22;18
S10;01CV050K22;11
S10;01HDR500K20;4
S10;11GM200I19;8
S10;11PM100SI19;2
S10;11SP200CS19;8
S10;15AS250VA18;9
S10;15GM065VB20;8
S10;15HE005L14;7
S10;15SE400VB5;7
S10;17DO050F13;8
S10;17HI001G19;101
S10;17RC500E20;7
S10;17RS500FV21;15
S10;17RS500P19;9
S10;17SH500P19;13
S10;18LC250TL17ET;2
S10;24BR050CB6;2
S10;27DH030I20;12
S10;29HD250A15;16
S10;38EC015A18;5
S10;38UV030A18;11
S10;52MC006G21;306
S10;01LC250K17;9
S10;11LC250H20;4
S10;11MH075A19;4
S10;11SD100CS19;12
S10;15LM300L11;11
S10;17RS500E20;17
S10;17SH300FV21;11
S10;24MA150R19;6
S10;29BP100A19;8
S10;29EC200A13;2
S10;29EC200A21;12
S10;52CD0015A18;25
S10;98BBHD050A0;2
S10;01BL012K18;8
S10;01CL175K22;21
S21000;15GD250VB17;9
S21000;15SH250VA20;10
S21000;20FE050H20;3
S21000;24ET050R18;4
S21000;24LC250CB4;12
S21000;24LC250R20;14
S21000;24MA030RE19;7
S21000;24RO010R18;3
S21000;27ER015I20;6
S21000;27MP150I20;5
S21000;29GE200A21;8
S21000;29HD500A15;17
S21000;29LC200A22C;12
S21000;52AF006G20;207
S21000;52AS006FV21;168
S21000;52AS006G21;98
S21000;52CL0015K21;61
S21000;52CP0015I19;115
S21000;52MGEBOX18;3
S21000;52MGENSA21;102
S21000;52SH006P19;81
S21000;52SP001I19;139
S21000;01CD250K17;5
S21000;01CF050K22;15
S21000;01CV050K22;13
S21000;01HDR500K20;6
S21000;11GM200I19;6
S21000;11PM100SI19;3
S21000;11SP200CS19;4
S21000;15AS250VA18;5
S21000;15GM280VB20;2
S21000;15HE005L14;8
S21000;15SE400VB5;6
S21000;17DO050F13;8
S21000;17HI001G19;142
S21000;17RC500E20;11
S21000;17RS500FV21;14
S21000;17RS500P19;7
S21000;17SH500P19;10
S21000;18LC250TL17ET;1
S21000;24BR050CB6;8
S21000;27DH030I20;10
S21000;29HD250A15;9
S21000;29HD250A22C;1
S21000;38EC015A18;3
S21000;38UV030A18;4
S21000;52MC006G21;109
S21000;01BP050K21;1
S21000;01LC250K17;4
S21000;11LC250H20;10
S21000;11MH075A19;4
S21000;11SD100CS19;5
S21000;15DF200VBL21;2
S29000;52CL0015K21;153
S29000;52CP0015I19;145
S29000;52MGEBOX18;23
S29000;52MGENSA21;153
S29000;52SH006P19;95
S29000;52SP001I19;94
S29000;01CD250K17;10
S29000;01CF050K22;22
S29000;01CV050K18;18
S29000;01CV050K22;12
S29000;01HDR500K20;20
S29000;11GM200I19;17
S29000;11PM100SI19;3
S29000;11SP200CS19;9
S29000;15GM065VB20;2
S29000;15GM280VB20;2
S29000;15HE005L14;9
S29000;15SE400VB5;3
S29000;17DO050F13;15
S29000;17HI001G19;89
S29000;17RC500E20;21
S29000;17RS500FV21;31
S29000;17RS500P19;32
S29000;17SH500P19;19
S29000;18LC250TL17ET;2
S29000;24BR050CB6;12
S29000;27DH030I20;15
S29000;29HD250A15;20
S29000;38EC015A18;8
S29000;38UV030A18;11
S29000;52MC006G21;78
S29000;01BP050K21;15
S29000;01LC250K17;18
S29000;11LC250H20;13
S29000;11MH075A19;8
S29000;11SD100CS19;16
S29000;15LM300L11;16
S29000;17RS500E20;25
S29000;17SH300FV21;1
S29000;24MA150R19;14
S29000;29BP100A19;2
S29000;29EC200A21;18
S29000;49MA010L16;23
S29000;49POUIS19;23
S29000;49POUK21;7
S29000;52CD0015A18;100
S29000;98BBHD050A0;5
S29000;01BL012K18;19
S29000;01CL175K22;28
S29000;01CM500K20;13
S29000;11BC100G21;2
S29000;11BH050A18;10
S29000;11CM125I19;2
S20;24MA030RE19;11
S20;24RO010R18;6
S20;27ER015I20;1
S20;27MP150I20;9
S20;29GE200A21;16
S20;29HD500A15;25
S20;49POCKNO21;23
S20;52AF006G20;97
S20;52AS006FV21;162
S20;52AS006G21;178
S20;52CL0015K21;83
S20;52CP0015I19;93
S20;52MGEBOX18;8
S20;52MGENSA21;94
S20;52SH006P19;75
S20;52SP001I19;47
S20;01CD250K17;22
S20;01CF050K22;18
S20;01CV050K22;6
S20;11GM200I19;9
S20;11PM100SI19;6
S20;11SP200CS19;9
S20;15AS250VA18;6
S20;15HE005L14;12
S20;15SE400VB5;8
S20;17DO050F13;12
S20;17HI001G19;89
S20;17RC500E20;13
S20;17RS500FV21;19
S20;17RS500P19;21
S20;17SH500P19;2
S20;24BR050CB6;8
S20;27DH030I20;6
S20;29HD250A15;7
S20;38EC015A18;2
S20;38UV030A18;6
S20;52MC006G21;188
S20;01LC250K17;7
S20;11LC250H20;13
S20;11MH075A19;6
S20;11SD100CS19;9
S20;15LM300L11;3
S20;17RS500E20;11
S20;17SH300FV21;6
S20;24MA150R19;4
S20;29BP100A19;1
S20;29EC200A21;13
S20;52CD0015A18;59
S20;01BL012K18;9
S20;01CL175K22;18
S20;01CM500K20;9
S20;11BC100G21;21
S20;11BH050A18;1
S20;11CM125I19;7
S28000;52ER002I21;257
S15;52HD006A18;362
S27000;52HD006A18;323
S28000;52HD006A18;633
S15;52PS0015R21;231
S27000;52PS0015R21;149
S28000;52PS0015R21;329
S15;98BBSH050A0;93
S28000;98BBSH050A0;8
S27000;98BBGD050VE2;10
S28000;98BBGD050VE2;9
S15;18ET050TL17;1
S15;20ET075CD20;4
S27000;20ET075CD20;2
S28000;20ET075CD20;3
S15;20HR050H20;7
S27000;20HR050H20;4
S28000;20HR050H20;6
S15;24MA030RV19;4
S27000;24MA030RV19;5
S15;27DC050I20;10
S27000;27DC050I20;4
S28000;27DC050I20;7
S27000;52LC006A20;74
S28000;52LC006A20;198
S15;52LGEBAG19;59
S27000;52LGEBAG19;141
S28000;52LGEBAG19;295
S15;52LGEBOX18;11
S27000;52LGEBOX18;6
S28000;52LGEBOX18;5
S15;52LT002R21;93
S27000;52LT002R21;259
S28000;52LT002R21;347
S27000;27MP150I20;3
S28000;27MP150I20;14
S15;29GE200A21;6
S27000;29GE200A21;12
S28000;29GE200A21;13
S15;29HD500A15;16
S27000;29HD500A15;28
S28000;29HD500A15;19
S15;29LC200A22C;2
S15;49POCKNO21;32
S27000;49POCKNO21;20
S28000;49POCKNO21;35
S15;52AF006G20;156
S27000;52AF006G20;262
S28000;52AF006G20;82
S15;52AS006FV21;246
S15;52AS006G21;68
S27000;52AS006G21;247
S28000;52AS006G21;398
S15;52CL0015K21;103
S27000;52CL0015K21;117
S28000;52CL0015K21;145
S15;52CP0015I19;210
S27000;52CP0015I19;154
S28000;52CP0015I19;286
S27000;52MGEBOX18;8
S15;52MGENSA21;105
S27000;52MGENSA21;168
S28000;52MGENSA21;455
S15;52SH006P19;64
S27000;52SH006P19;259
S28000;52SH006P19;278
S27000;52SP001I19;209
S28000;52SP001I19;261
S28000;29HD250A15;15
S15;38EC015A18;4
S27000;38EC015A18;1
S28000;38EC015A18;3
S15;38UV030A18;11
S27000;38UV030A18;5
S28000;38UV030A18;6
S15;52MC006G21;160
S27000;52MC006G21;252
S28000;52MC006G21;198
S15;01BP050K21;11
S27000;01BP050K21;2
S28000;01BP050K21;10
S15;01LC250K17;13
S27000;01LC250K17;5
S28000;01LC250K17;7
S15;11LC250H20;8
S27000;11LC250H20;6
S28000;11LC250H20;22
S15;11MH075A19;5
S27000;11MH075A19;4
S28000;11MH075A19;4
S15;11SD100CS19;13
S27000;11SD100CS19;2
S28000;11SD100CS19;8
S15;15CP250VA5;1
S27000;15DF200VBL21;8
S28000;15DF200VBL21;21
S15;15LM300L11;12
S27000;15LM300L11;3
S28000;15LM300L11;11
S15;17RS500E20;5
S27000;17RS500E20;7
S28000;17RS500E20;11
S15;17SH300FV21;3
S27000;17SH300FV21;4
S27000;24MA150R19;7
S28000;24MA150R19;5
S21000;15LM300L11;1
S21000;17RS500E20;10
S21000;17SH300FV21;13
S21000;24MA150R19;1
S21000;27OR050I22C;1
S21000;29BP100A19;5
S21000;29EC200A21;15
S21000;52CD0015A18;115
S21000;98BBHD050A0;36
S21000;01BL012K18;3
S21000;01CL175K22;16
S21000;01CM500K20;9
S21000;11BC100G21;35
S21000;11BH050A18;3
S21000;11CM125I19;4
S21000;11LH200I19;10
S21000;15GM065VB21;15
S21000;15LC250L14;12
S21000;17AF100G20;15
S21000;17RC500G21;9
S21000;17SH300E19;11
S21000;27DF125I17;15
S21000;27HC050I18;3
S21000;27TS001I20;214
S21000;38MI150A18;3
S21000;49GD035CB5;9
S21000;49HD035A15;5
S21000;49MA010A17;5
S21000;52DH001I20;136
S21000;52MA003K16A;270
S21000;SGOCVE600004;5
S21000;01SL300LV20;12
S21000;11MWC200I19;4
S21000;11PEP050I20;5
S21000;11SP200SI19;4
S21000;17SH060SG21;5
S21000;17SH500FV21;12
S21000;17SH500G21;7
S21000;20DO075CD20;6
S21000;24BL012CB5;5
S21000;24GD500R19;2
S21000;27DE015I21;8
S21000;29ASH240A20;9
S21000;29RH500A15;17
S21000;49BO015CS19;84
S21000;49OR005I21;89
S21000;52CP006K17;10
S21000;52CP006K22;304
S21000;52DE001I21;101
S21000;52HS001I17;102
S21000;52HS004A18;189
S21000;01SA250VE20;4
S21000;01SL500LV20;12
S29000;11LH200I19;15
S29000;15GM065VB21;20
S29000;15LC250L14;17
S29000;17AF100G20;23
S29000;17AS075E19;13
S29000;17RC500G21;16
S29000;17SH300E19;18
S29000;27DF125I17;17
S29000;27HC050I18;4
S29000;27TS001I20;125
S29000;38MI150A18;4
S29000;49GD035CB5;166
S29000;52DH001I20;98
S29000;01SL300LV20;8
S29000;11MWC200I19;2
S29000;11PEP050I20;5
S29000;11SP200SI19;9
S29000;17SH060SG21;15
S29000;17SH500FV21;24
S29000;17SH500G21;14
S29000;20DO075CD20;11
S29000;24BL012CB5;11
S29000;27DE015I21;20
S29000;29ASH240A20;18
S29000;29RH500A15;88
S29000;49BO015CS19;100
S29000;49OR005I21;150
S29000;52CP006K22;158
S29000;52HS001I17;162
S29000;52HS004A18;163
S29000;J9517;5
S29000;01SA250VE20;28
S29000;01SL500LV20;12
S29000;11BG140SH19;10
S29000;24MA030P15;15
S29000;24MA030RA19;4
S29000;52DF002I17;38
S29000;52SGENSA18;42
S29000;52SGENSA21;120
S29000;01CP200K17;8
S29000;01HV030K16;6
S29000;01LC500K20;27
S29000;01SA100VE20;15
S29000;11CF100TR19;13
S29000;11GD050A18;13
S29000;11SD100SI19;13
S29000;15ET100VA20;3
S29000;15ET100VB3;5
S29000;17AS500G21;15
S29000;17SH300G21;13
S29000;17SH500E19;27
S29000;17VI100P19;22
S29000;20SA050HC20;9
S90000;01HD500K20;10
S24000;01MA150K22;13
S90000;01MA150K22;12
S24000;01PI150K18;12
S24000;01SA250LV20;13
S24000;01SL500VE20;5
S90000;01SL500VE20;15
S24000;11CM030H19;7
S90000;11CM030H19;1
S90000;11EH040A19;11
S90000;11ET010O21;3
S90000;11LC050H20;1
S24000;11SV080I19;5
S90000;11SV080I19;6
S24000;15LC250VA20;13
S90000;15LC250VA20;12
S90000;15LC250VA5;1
S90000;15MA030VAL21;76
S24000;17MC200G21;8
S90000;17MC200G21;4
S90000;17SH075P19;1
S90000;20AR075H16;11
S24000;20ET075HC20;4
S90000;20ET075HC20;4
S90000;24GM030C21;65
S90000;27BY015I19;4
S24000;27HCR050I16;4
S90000;27HCR050I16;5
S24000;27MI150I20;3
S90000;52TBO2M21;37
S90000;52TBO1M21;42
S90000;27MI150I20;8
S90000;27MP050I20;11
S90000;29KTAMA21;1
S24000;29SE125A21;10
S90000;29SE125A21;7
S90000;29SH075A20;17
S90000;49CAB1NO21;3
S90000;49FCROL21;7
S90000;49LC020A15;5
S90000;49PI010K18;94
S24000;52AS006FV21;168
S90000;52AS006FV21;317
S90000;52COTLTM19;4
S24000;52MS001I20;165
S90000;52MS001I20;378
S24000;98BBGD050VE2;10
S90000;49POUCB21;6
S90000;49POUID20;21
S90000;49TRSOL15;16
S24000;52MIGEBAG19;107
S24000;52SH006FV21;99
S90000;52SH006FV21;504
S10;01CM500K20;1
S10;11BC100G21;45
S10;11BH050A18;3
S10;11CM125I19;4
S10;11LH200I19;3
S10;15GM065VB21;6
S10;15LC250L14;13
S10;17AF100G20;7
S10;17AS075E19;21
S10;17RC500G21;10
S10;17SH300E19;7
S10;24EDT10C21;11
S10;27DF125I17;11
S10;27HC050I18;4
S10;27TS001I20;186
S10;38MI150A18;3
S10;49HD035A15;32
S10;49MA010A17;14
S10;52DH001I20;228
S10;SGOCVE600004;15
S10;01SL300LV20;12
S10;11MWC200I19;4
S10;11PEP050I20;8
S10;11SP200SI19;6
S10;17SH060SG21;7
S10;17SH500FV21;13
S10;17SH500G21;13
S10;24BL012CB5;6
S10;27DE015I21;5
S10;29ASH240A20;8
S10;29RH500A15;1
S10;49BO015CS19;84
S10;49OR005I21;149
S10;52CP006K22;287
S10;52DE001I21;244
S10;52HS001I17;143
S10;52HS004A18;205
S10;52LGENSA18;106
S10;01SA250VE20;15
S10;01SL500LV20;7
S10;15RG500VA20;10
S10;24MA030P15;12
S10;24MA030RA19;3
S10;52DF002I17;125
S10;52SGENSA18;64
S10;52SGENSA21;60
S10;98BBMA010KA3;72
S10;01CP200K17;4
S10;01HV030K16;5
S10;01LC500K20;13
S10;01SA100VE20;7
S10;11BG140SH19;6
S10;11CF100TR19;6
S10;11GD050A18;3
S15;29BP100A19;7
S27000;29BP100A19;5
S28000;29BP100A19;10
S15;29EC200A21;17
S27000;29EC200A21;10
S28000;29EC200A21;11
S15;29EC200A21X;5
S27000;29EC200A21X;1
S15;52CD0015A18;66
S27000;52CD0015A18;111
S28000;52CD0015A18;96
S28000;98BBHD050A0;47
S15;49MA010A17;68
S28000;49MA010A17;8
S15;52DH001I20;384
S27000;52DH001I20;397
S28000;52DH001I20;617
S15;52MA003K16A;165
S27000;52MA003K16A;251
S28000;52MA003K16A;347
S15;SGOCVE600004;68
S28000;SGOCVE600004;8
S28000;52HS004A18;253
S28000;52LGENSA18;11
S15;52LGENSA21;120
S27000;J9517;2
S28000;J9517;2
S15;01SA250VE20;18
S27000;01SA250VE20;8
S28000;01SA250VE20;20
S15;01SL500LV20;13
S27000;01SL500LV20;5
S28000;11BG140SH19;12
S15;15RG500VA20;11
S15;24MA030P15;7
S27000;24MA030P15;2
S28000;24MA030P15;12
S15;24MA030RA19;4
S27000;24MA030RA19;9
S28000;24MA030RA19;10
S15;52DF002I17;202
S27000;52DF002I17;219
S28000;52DF002I17;414
S15;52SGENSA21;33
S27000;52SGENSA21;175
S28000;52SGENSA21;106
S15;98BBMA010KA3;7
S28000;98BBMA010KA3;77
S15;01CP200K17;1
S27000;01CP200K17;1
S15;01HV030K16;4
S27000;01HV030K16;4
S28000;01HV030K16;4
S20;11LH200I19;1
S20;15GM065VB21;2
S20;15LC250L14;14
S20;17AF100G20;13
S20;17AS075E19;23
S20;17RC500G21;15
S20;17SH300E19;15
S20;24EDT10C21;8
S20;24GP010RJ21H;2
S20;27DF125I17;5
S20;27HC050I18;7
S20;27TS001I20;266
S20;38MI150A18;12
S20;49HD035A15;9
S20;49MA010A17;9
S20;52DH001I20;339
S20;SGOCVE600004;9
S20;01SL300LV20;5
S20;11MWC200I19;4
S20;11PEP050I20;8
S20;11SP200SI19;10
S20;17SH060SG21;3
S20;17SH500FV21;14
S20;17SH500G21;11
S20;24BL012CB5;8
S20;27DE015I21;4
S20;29ASH240A20;5
S20;29RH500A15;30
S20;49OR005I21;104
S20;52CP006K22;147
S20;52DE001I21;89
S20;52HS001I17;70
S20;52HS004A18;76
S20;52LGENSA18;59
S20;01SA250VE20;11
S20;01SL500LV20;9
S20;24MA030P15;13
S20;24MA030RA19;12
S20;52DF002I17;124
S20;52SGENSA18;60
S20;52SGENSA21;120
S20;98BBMA010KA3;5
S20;01HV030K16;4
S20;01LC500K20;9
S20;01SA100VE20;7
S20;11BG140SH19;10
S20;11CF100TR19;7
S20;11GD050A18;7
S20;11SD100SI19;11
S20;17AS500G21;12
S20;17SH300G21;9
S20;17SH500E19;19
S20;17VI100P19;7
S20;20SA050HC20;8
S15;01LC500K20;15
S27000;01LC500K20;9
S28000;01LC500K20;16
S15;01SA100VE20;18
S27000;01SA100VE20;5
S28000;01SA100VE20;11
S15;11BG140SH19;3
S27000;11BG140SH19;2
S15;11CF100TR19;14
S27000;11CF100TR19;9
S28000;11CF100TR19;10
S15;11GD050A18;8
S27000;11GD050A18;5
S28000;11GD050A18;6
S15;11SD100SI19;12
S27000;11SD100SI19;5
S28000;11SD100SI19;4
S27000;15ET100VA20;6
S28000;15ET100VA20;5
S15;15ET100VB3;3
S15;17AS500G21;13
S27000;17AS500G21;4
S28000;17AS500G21;13
S15;17SH300G21;2
S27000;17SH300G21;26
S28000;17SH300G21;9
S15;17SH500E19;20
S27000;17SH500E19;15
S28000;17SH500E19;15
S15;17VI100P19;11
S27000;17VI100P19;6
S28000;17VI100P19;6
S15;20SA050HC20;5
S27000;20SA050HC20;5
S28000;20SA050HC20;4
S15;24MA030S6;7
S27000;24MA030S6;4
S28000;24MA030S6;9
S15;24MA075CB4;10
S27000;24MA075CB4;7
S28000;24MA075CB4;15
S15;52DC0015I20;236
S27000;52DC0015I20;363
S28000;52DC0015I20;283
S15;52MA003K22A;145
S27000;52MA003K22A;382
S28000;52MA003K22A;412
S15;52YGERIB18;1
S27000;52YGERIB18;2
S27000;52OR001I21;462
S28000;52OR001I21;571
S27000;29SA050A17;3
S28000;29SA050A17;10
S15;29VC240A16;11
S27000;29VC240A16;9
S28000;29VC240A16;7
S27000;49TOBACH20;15
S15;49TOTWC21;63
S28000;49TOTWC21;26
S27000;52EV002I19;35
S28000;52MMSANO21;48
S15;49MA010A21X;32
S27000;49MA010A21X;20
S28000;49MA010A21X;35
S27000;49PO1NH18;14
S28000;49PO1NH18;50
S15;52AS006E19;153
S27000;52AS006E19;252
S28000;52AS006E19;367
S15;52AS006P19;113
S27000;52AS006P19;280
S28000;52AS006P19;139
S15;52CV0015K18;63
S27000;52CV0015K18;171
S28000;52CV0015K18;94
S15;52CV0015K22;239
S27000;52CV0015K22;193
S28000;52CV0015K22;278
S27000;52FP0015I19;117
S15;52LASANO21;13
S15;52MGEBAG19;85
S27000;52MGEBAG19;161
S28000;52MGEBAG19;73
S15;52SH006E19;156
S27000;52SH006E19;278
S28000;52SH006E19;295
S15;98BBSA050LT1;10
S28000;98BBSA050LT1;58
S15;01CP200K22;9
S27000;01CP200K22;8
S28000;01CP200K22;12
S15;01SA050KV20;8
S27000;01SA050KV20;12
S28000;01SA050KV20;17
S15;11GD250H19;11
S27000;11GD250H19;2
S28000;11GD250H19;5
S15;11GD250H20;15
S27000;11GD250H20;9
S28000;11GD250H20;13
S15;11SA100H20;5
S27000;11SA100H20;6
S28000;11SA100H20;8
S15;24GD500R19;2
S15;24MA030CB4;12
S27000;24MA030CB4;17
S28000;24MA030CB4;20
S15;27BP050I19;9
S27000;27BP050I19;4
S15;27CP050I19;11
S27000;27CP050I19;9
S28000;27CP050I19;9
S15;27DH015I20;14
S27000;27DH015I20;12
S28000;27DH015I20;14
S15;27DL200I20;5
S27000;27DL200I20;5
S28000;27DL200I20;10
S15;27ER150I21;16
S27000;27ER150I21;10
S28000;27ER150I21;19
S15;27HSR030I16;1
S27000;27HSR030I16;5
S28000;27HSR030I16;4
S15;27OR030I21;18
S27000;27OR030I21;8
S28000;27OR030I21;15
S15;27SP030I19;4
S27000;27SP030I19;2
S28000;27SP030I19;4
S15;38WM065A18;6
S27000;38WM065A18;2
S28000;38WM065A18;3
S28000;49DC004I20;94
S28000;49MS008I20;120
S15;49POUM21;12
S27000;49POUM21;11
S28000;49POUM21;14
S15;20NV150H20;9
S27000;20NV150H20;7
S28000;20NV150H20;9
S15;20SA050CD20;11
S27000;20SA050CD20;9
S28000;20SA050CD20;7
S28000;24GD250CBL22;5
S15;24MA075P15;14
S27000;24MA075P15;8
S28000;24MA075P15;19
S15;24MA075R18;14
S27000;24MA075R18;21
S28000;24MA075R18;26
S28000;27BP050I19;10
S15;27DC030I20;10
S27000;27DC030I20;9
S28000;27DC030I20;12
S15;27DCB060I17;4
S27000;27DCB060I17;7
S28000;27DCB060I17;7
S15;27HS030I18;6
S29000;24MA030S6;3
S29000;24MA075CB4;21
S29000;52DC0015I20;52
S29000;52MA003K22A;167
S29000;SGOCVKI00192;17
S29000;SGOCVKI00195;13
S29000;01HF100K17;8
S29000;01SL300VE20;2
S29000;11BG140SL19;11
S29000;11BO100CS19;14
S29000;15GN300L11;18
S29000;17AS250FV21;4
S29000;17AS500P19;14
S29000;20SA050O20;2
S29000;24RO010CB4;14
S29000;24SA050CB6;18
S29000;27DB015I20;21
S29000;38EV075A18;9
S29000;38RC050A18;13
S29000;38WC050A21;8
S29000;38WS030A21;10
S29000;49POURE18;1
S29000;52BY001I19;208
S29000;52DB001I20;201
S29000;52OR001I21;125
S29000;01BM050K19;9
S29000;01PR015R19;12
S29000;01RV500K20;10
S29000;01SA100LV20;11
S29000;01SA250LT20;25
S29000;01SL0045K13;31
S29000;11EP010H19;6
S29000;11GD250O21;21
S29000;11SA100H19;2
S29000;15ET010VB19;4
S29000;15GD075L15;23
S29000;15SA070VB6;15
S29000;20AR075O20;10
S29000;20ET075OC20;4
S29000;24GD250R20;13
S29000;24SA050R18;3
S29000;27DS030I20;9
S29000;29HS100A21;26
S29000;29LC200A20US;43
S29000;29MA030A17;15
S29000;29MA075A21;20
S29000;29SA050A17;16
S29000;29VC240A16;15
S29000;49TOBACH20;21
S29000;52EV002I19;72
S29000;01EM075K20;13
S29000;01PI075K18;10
S29000;11ET075O21;5
S20;24MA030S6;12
S20;24MA075CB4;6
S20;52DC0015I20;213
S20;52MA003K22A;95
S20;SGOCVKI00192;6
S20;SGOCVKI00195;2
S20;01HF100K17;4
S20;01SL300VE20;2
S20;11BG140SL19;12
S20;11BO100CS19;8
S20;11EP050H19;1
S20;15GN300L11;8
S20;17AS250FV21;5
S20;17AS500P19;7
S20;20SA050O20;9
S20;24MA030CBL22;25
S20;24RO010CB4;6
S20;24SA050CB6;14
S20;27DB015I20;7
S20;38EV075A21;7
S20;38RC050A18;2
S20;38WC050A21;8
S20;38WS030A21;3
S20;49POURE18;1
S20;52BY001I19;93
S20;52DB001I20;144
S20;52MOCOL316;1
S20;52OR001I21;290
S20;01PR015R19;8
S20;01RV500K20;12
S20;01SA100LV20;9
S20;01SA250LT20;2
S20;01SL0045K13;8
S20;11EP010H19;6
S20;11GD250O21;8
S20;11SA100H19;2
S20;15ET010VB19;7
S20;15SA070VB6;1
S20;20AR075O20;10
S20;20ET075OC20;2
S20;24GD250R20;10
S20;24SA050R18;2
S20;27DS030I20;2
S20;29HS100A21;9
S20;29LC200A20US;14
S20;29MA030A17;9
S20;29MA075A21;14
S20;29VC240A16;7
S20;01EM075K20;7
S20;01PI075K18;3
S20;11ET075O21;5
S20;11FAG10TR19;8
S20;11LC250O21;12
S20;11SA050O21;8
S20;15RC500VB21;14
S20;15RG500L14;7
S20;17AS250E19;3
S20;17AS250G21;2
S20;17SE100FV21;10
S20;20DO130HC20;1
S20;24BR050R19;7
S20;24GD250CB21;19
S20;27EV200I19;10
S20;27MS050I20;6
S20;27OR050I21;16
S20;27RM300I20;6
S20;49MA010A21X;23
S20;52AS006E19;111
S20;52AS006P19;88
S20;52CV0015K22;190
S20;52MGEBAG19;28
S20;52SH006E19;124
S20;01CP200K22;10
S20;01SA050KV20;12
S20;11GD250H19;9
S20;11GD250H20;11
S20;11SA100H20;3
S20;24ET075CB4;2
S20;24MA030CB4;14
S20;27CP050I19;3
S20;27DH015I20;10
S20;27DL200I20;3
S20;27ER150I21;13
S20;27HSR030I16;1
S20;27OR030I21;15
S20;27SP030I19;5
S20;38WM065A18;1
S20;49POUM21;9
S20;01RL500K20;7
S20;01SE125K21;3
S20;11EH150A18;7
S20;11GN195A18;12
S20;11LT300I20;7
S20;11MA030A20;2
S20;11SD100SH19;2
S20;15DO050VA5;7
S20;15GD250L14;7
S20;15GD250VB21;10
S20;15GD500VB21;11
S20;15LC250VB3;13
S20;15RG500VA20;19
S20;17AS500FV21;12
S20;17ER075P19;4
S20;17RS500G21;5
S20;17SH075E19;8
S20;17SH075G21;8
S20;20NV150H20;8
S20;20SA050CD20;11
S20;24GD250CBL22;14
S29000;11FAG10TR19;14
S29000;11LC250O21;24
S29000;11SA050O21;9
S29000;15RC500VB21;16
S29000;15RG500L14;16
S29000;17AS250E19;7
S29000;17AS250G21;7
S29000;17SE100FV21;16
S29000;20DO130HC20;2
S29000;24BR050R19;12
S29000;24GD250CB21;18
S29000;27EV200I19;15
S29000;27MS050I20;14
S29000;27OR050I21;19
S29000;27RM300I20;22
S29000;29SH240A20;12
S29000;49MA010A21X;13
S29000;49MA010K22;1
S29000;52AS006E19;215
S29000;52AS006P19;64
S29000;52CV0015K22;188
S29000;52FP0015I19;44
S29000;52SH006E19;204
S29000;01CP200K22;19
S29000;01SA050KV20;8
S29000;11GD250H19;15
S29000;11GD250H20;22
S29000;11SA100H20;16
S29000;24ET075CB4;9
S29000;24MA030CB4;25
S29000;27CP050I19;13
S29000;27DH015I20;27
S29000;27DL200I20;9
S29000;27ER150I21;22
S29000;27HSR030I16;14
S29000;27OR030I21;21
S29000;27SP030I19;9
S29000;38WM065A18;12
S29000;49POUM21;12
S29000;01RL500K20;21
S29000;01SE125K21;8
S29000;11EH150A18;12
S29000;11GN195A18;10
S29000;11LT300I20;12
S29000;11MA030A20;5
S29000;11SD100SH19;5
S29000;15DO050VA5;13
S29000;15GD250L14;18
S29000;15GD500VB21;16
S29000;15LC250VB3;41
S29000;15RC500VB17;16
S29000;15RG500VA20;18
S29000;17AS500FV21;18
S10;11SD100SI19;4
S10;17AS500G21;6
S10;17SH300G21;8
S10;17SH500E19;13
S10;17VI100P19;6
S10;20SA050HC20;6
S10;24MA030S6;12
S10;24MA075CB4;2
S10;52DC0015I20;207
S10;52MA003K22A;145
S10;01HF100K17;3
S10;01SL300VE20;4
S10;11BG140SL19;13
S10;11BO100CS19;12
S10;11GD250O21;10
S10;15GN300L11;12
S10;17AS250FV21;8
S10;17AS500P19;7
S10;20SA050O20;4
S10;24RO010CB4;2
S10;24SA050CB6;11
S10;27DB015I20;7
S10;38EV075A21;6
S10;38RC050A18;6
S10;38WC050A21;7
S10;38WS030A21;6
S10;52BY001I19;496
S10;52DB001I20;118
S10;52MOCOL316;1
S10;52OR001I21;214
S10;01BM050K19;4
S10;01PR015R19;7
S10;01RV500K20;3
S10;01SA100LV20;5
S10;01SA250LT20;9
S10;01SL0045K13;12
S10;11EP010H19;3
S10;11SA100H19;11
S10;15ET010VB19;3
S10;15SA070VB6;1
S10;20AR075O20;6
S10;20ET075OC20;4
S10;SGOCVKI00192;1
S10;24GD250R20;6
S10;24SA050R18;4
S10;27DS030I20;3
S10;29HS100A21;9
S10;29LC200A20US;23
S10;29VC240A16;10
S10;49TOBACH20;26
S10;01EM075K20;7
S10;01PI075K18;3
S10;11ET075O21;7
S10;11FAG10TR19;11
S21000;24MA030P15;17
S21000;24MA030RA19;4
S21000;52DF002I17;277
S21000;52SGENSA18;20
S21000;52SGENSA21;180
S21000;98BBMA010KA3;65
S21000;01CP200K17;8
S21000;01HV030K16;5
S21000;01LC500K20;6
S21000;01SA100VE20;7
S21000;11BG140SH19;8
S21000;11CF100TR19;10
S21000;11GD050A18;6
S21000;17AS500G21;6
S21000;17SH300G21;11
S21000;17SH500E19;9
S21000;17VI100P19;10
S21000;20SA050HC20;5
S21000;24MA030S6;9
S21000;24MA075CB4;7
S21000;52DC0015I20;131
S21000;52MA003K22A;300
S21000;SGOCVKI00201;2
S21000;01HF100K17;3
S21000;01MA075K18;6
S21000;01SL300VE20;9
S21000;11BG140SL19;14
S21000;11BO100CS19;8
S21000;15GN300L11;2
S21000;17AS250FV21;6
S21000;17AS500P19;10
S21000;20SA050O20;3
S21000;24RO010CB4;5
S21000;24SA050CB6;11
S21000;27DB015I20;4
S21000;38EV075A18;3
S21000;38EV075A21;4
S21000;38RC050A18;4
S21000;38WC050A21;1
S21000;38WS030A21;15
S21000;52BY001I19;49
S21000;52DB001I20;130
S21000;52OR001I21;430
S21000;01BM050K19;6
S21000;01PR015R19;14
S21000;01RV500K20;10
S21000;01SA100LV20;10
S21000;01SA250LT20;7
S21000;11EP010H19;2
S21000;11GD250O21;18
S21000;15ET010VB19;4
S21000;15SA070VB6;4
S21000;20ET075OC20;2
S10;11LC250O21;7
S10;11SA050O21;21
S10;15RC500VB21;14
S10;15RG500L14;10
S10;17AS250E19;7
S10;17AS250G21;8
S10;17SE100FV21;10
S10;20DO130HC20;5
S10;24GD250CB21;7
S10;27EV200I19;8
S10;27MS050I20;7
S10;27OR050I21;17
S10;27RM300I20;10
S10;29SH240A20;4
S10;49MA010A21X;21
S10;49PO1NH18;35
S10;52AS006E19;135
S10;52AS006P19;199
S10;52CV0015K22;189
S10;52FP0015I19;121
S10;52LASANO21;17
S10;52MGEBAG19;39
S10;52SH006E19;32
S10;98BBSA050LT1;66
S10;01CP200K22;8
S10;01SA050KV20;13
S10;11GD250H19;8
S10;11GD250H20;9
S10;11SA100H20;14
S10;24ET075CB4;2
S10;24GD500R19;3
S10;24MA030CB4;2
S10;24MA075R18;21
S10;27BP050I19;3
S10;27CP050I19;8
S10;27DH015I20;12
S10;27DL200I20;6
S10;27ER150I21;24
S10;27HSR030I16;6
S10;27OR030I21;15
S10;27SP030I19;2
S10;38WM065A18;4
S10;49DC004I20;61
S10;49MS008I20;46
S10;49POUM21;9
S10;01RL500K20;5
S10;11EH150A18;6
S10;11GN195A18;9
S10;11LT300I20;7
S10;11MA030A20;3
S10;11SD100SH19;4
S10;15DO050VA5;1
S10;15GD250L14;12
S10;15GD250VB21;10
S10;15GD500VB21;11
S24000;52SH006G21;192
S90000;52SH006G21;482
S24000;52TS001R21;122
S90000;52TS001R21;100
S24000;01BV050K16;1
S90000;01BV050K16;5
S24000;01CL050K21;5
S90000;01CL050K21;1
S90000;01CM030K21;2
S24000;01CMR500K20;5
S90000;01CMR500K20;10
S90000;10CACLA21;13
S24000;11CD050A18;2
S90000;11CD050A18;5
S24000;11PM100SL19;5
S90000;11PM100SL19;4
S24000;11SD100SL19;10
S90000;11SD100SL19;6
S90000;15GG150VAL21;241
S90000;17AS075G18;108
S90000;17AS075G21;53
S24000;17CS150P19;7
S90000;17CS150P19;5
S24000;17HI100G19;9
S90000;17HI100G19;11
S90000;17MC200G18;1
S24000;20GD250CD20;9
S90000;20GD250CD20;7
S90000;38BV050A19;7
S24000;38FT200A21;8
S90000;38FT200A21;3
S90000;38WC050A18;35
S90000;49MASKRS21;29
S90000;49NOTNO21;1
S90000;49POU1O21;23
S90000;49TFACH18;20
S24000;52ER002I21;208
S90000;52ER002I21;532
S24000;52HD006A18;333
S90000;52HD006A18;182
S24000;52PS0015R21;119
S90000;52PS0015R21;100
S90000;98BBSH035AR2;114
S24000;98BBSH050A0;34
S90000;98BBSH050A0;54
S24000;52SH006P19;165
S90000;52SH006P19;420
S24000;52SP001I19;146
S90000;52SP001I19;203
S90000;52MC006G21;100
S24000;01BP050K21;9
S90000;01BP050K21;2
S90000;01CP100K21H;23
S21000;24AF050R18;4
S21000;24GD250R20;30
S21000;24SA050R18;1
S21000;29HS100A21;6
S21000;29LC200A20US;23
S21000;29MA030A17;10
S21000;29MA075A21;5
S21000;29SA050A17;7
S21000;29VC240A16;10
S21000;01EM075K20;4
S21000;01PI075K18;5
S21000;11ET075O21;4
S21000;11FAG10TR19;6
S21000;11LC250O21;9
S21000;11SA050O21;4
S21000;15RC500VB21;15
S21000;15RG500L14;13
S21000;17AS250E19;6
S21000;17AS250G21;5
S21000;17SE100FV21;9
S21000;20DO130HC20;3
S21000;24BR050R19;3
S21000;24GD250CB21;4
S21000;27EV200I19;15
S21000;27MS050I20;7
S21000;27OR050I21;11
S21000;27RM300I20;8
S21000;29SH240A20;1
S21000;52AS006E19;334
S21000;52AS006P19;60
S21000;52CV0015K18;30
S21000;52CV0015K22;186
S21000;52FP0015I19;1
S21000;52MGEBAG19;188
S21000;52SH006E19;224
S21000;98BBSA050LT1;42
S21000;01CP200K22;12
S21000;01SA050KV20;9
S21000;11GD250H19;7
S21000;11GD250H20;8
S21000;11SA100H20;6
S21000;24ET075CB4;2
S21000;24MA030CB4;5
S21000;27BP050I19;6
S21000;27CP050I19;5
S21000;27DH015I20;9
S21000;27DL200I20;3
S21000;27ER150I21;20
S21000;27HSR030I16;4
S21000;27OR030I21;11
S21000;27SP030I19;4
S21000;38WM065A18;3
S21000;49DC004I20;67
S90000;01KTPWP21;32
S90000;01LC250F21H;1
S24000;01LC250K17;9
S90000;01LC250K17;3
S90000;01LC250K21H;5
S24000;11LC250H20;8
S90000;11LC250H20;10
S24000;11MH075A19;6
S90000;11MH075A19;8
S24000;11SD100CS19;3
S90000;11SD100CS19;4
S90000;15CP250VA5;7
S24000;15DF200VBL21;10
S90000;15DF200VBL21;22
S24000;15LM300L11;3
S90000;15LM300L11;12
S90000;15MA030VBL21;1
S24000;17RS500E20;10
S24000;17SH300FV21;8
S90000;17SH300FV21;10
S90000;24MA150R19;9
S90000;27DH030I17A;1
S90000;27KTFCAPAC20;1
S90000;27OR050I22C;12
S24000;29BP100A19;8
S90000;29BP100A19;4
S90000;29CHALM21;14
S90000;29CHCHB21;14
S90000;29EC200A13;1
S24000;29EC200A21;13
S90000;29EC200A21;15
S90000;49MA010L16;111
S90000;49PO2HER20;11
S24000;52CD0015A18;103
S90000;52GIF2NO21;1
S90000;52HR004G17;100
S90000;98BBHD035A0;140
S90000;98BBHD050A0;2
S24000;01BL012K18;9
S90000;01BL012K18;8
S24000;01CL175K22;19
S90000;01CL175K22;22
S90000;01CL200K21;1
S24000;01CM500K20;3
S90000;01CM500K20;5
S24000;11BC100G21;37
S90000;11BC100G21;8
S24000;11BH050A18;3
S90000;11BH050A18;6
S24000;11CM125I19;5
S90000;11CM125I19;2
S24000;11LH200I19;4
S90000;11LH200I19;7
S00;27CN050I14;2
S24000;15GM065VB21;7
S90000;15GM065VB21;15
S24000;15LC250L14;10
S90000;15LC250L14;10
S24000;17AF100G20;8
S24000;17AS075E19;18
S90000;17AS075E19;68
S24000;17RC500G21;6
S24000;17SH300E19;6
S90000;17SH300E19;9
S90000;24EDT10C21;55
S90000;24GD075CB5;31
S90000;24GD250CB4;1
S90000;27DF125I17;1
S24000;27HC050I18;5
S90000;27HC050I18;4
S24000;27TS001I20;326
S90000;27TS001I20;676
S24000;38MI150A18;4
S90000;38MI150A18;11
S90000;49BI010TL17;87
S90000;49CAS1NO21;1
S24000;49HD035A15;44
S90000;49HD035A15;34
S24000;49MA010A17;34
S90000;49MA010A17;34
S90000;52CARDNO21;6
S24000;52DH001I20;309
S90000;52DH001I20;332
S24000;52ER006P19;40
S90000;52GIF1NO21;1
S90000;52MA003K16A;328
S24000;SGOCVE600004;34
S90000;SGOCVE600004;30
S90000;J6185;13
S90000;JIMPN16;55
S24000;01BL012C21H;5
S24000;01SA250VE20;10
S24000;01SL500LV20;4
S90000;01SL500LV20;11
S90000;11BG140SH19;7
S24000;24MA030P15;9
S90000;24MA030P15;8
S24000;24MA030RA19;9
S90000;24MA030RA19;6
S90000;49MR010K14;46
S90000;49VANSA19;32
S24000;52DF002I17;219
S90000;52DF002I17;611
S90000;52MMBYNO19;85
S24000;52MOCOL216;1
S24000;52SGENSA21;82
S90000;SGOCVKI00176;7
S90000;SGOCVKI00177;12
S90000;SGOCVKI00178;28
S90000;SGOCVKI00179;3
S90000;SGOCVKI00180;7
S90000;SGOCVKI00181;21
S90000;SGOCVKI00182;14
S90000;SGOCVKI00184;16
S90000;SGOCVKI00185;2
S90000;SGOCVKI00186;1
S90000;SGOCVKI00187;12
S90000;SGOCVKI00188;18
S90000;SGOCVKI00189;9
S90000;SGOCVKI00190;7
S90000;SGOCVKI00191;14
S90000;SGOCVKI00193;11
S90000;SGOCVKI00198;7
S90000;SGOCVKI00201;15
S90000;SGOCVKI00204;13
S90000;SGOCVKI00205;33
S90000;SGOCVKI00208;6
S24000;01HF100K17;11
S90000;01HF100K17;2
S24000;01SL300VE20;8
S90000;01SL300VE20;11
S24000;11BG140SL19;15
S90000;11BG140SL19;12
S24000;11BO100CS19;13
S90000;11BO100CS19;17
S24000;11EP050H19;2
S90000;11EP050H19;3
S24000;15GN300L11;9
S90000;15GN300L11;10
S24000;17AS250FV21;5
S90000;17AS250FV21;10
S24000;17AS500P19;9
S90000;17AS500P19;18
S24000;20SA050O20;4
S90000;20SA050O20;7
S90000;24MA030CBL22;31
S24000;24RO010CB4;2
S90000;24RO010CB4;15
S24000;24SA050CB6;11
S90000;24SA050CB6;7
S24000;27DB015I20;7
S90000;27DB015I20;5
S90000;29BP100A18;1
S24000;38EV075A21;10
S90000;38EV075A21;10
S90000;38FT200A18;20
S24000;38RC050A18;10
S90000;38RC050A18;5
S24000;38WC050A21;2
S90000;38WC050A21;5
S24000;38WS030A21;5
S90000;38WS030A21;7
S90000;49CM030I19;116
S90000;49LD030I20;44
S90000;49P2DTS19;14
S90000;49PADCL20;101
S24000;52BY001I19;161
S90000;52BY001I19;1
S24000;52DB001I20;129
S90000;52DB001I20;157
S24000;52MOCOL316;2
S90000;52MOCOL316;40
S24000;52OR001I21;453
S90000;52OR001I21;173
S90000;SGOCVKI00138;2
S90000;SGOCVKI00157;1
S24000;01BM050K19;8
S90000;01BM050K19;2
S24000;01PR015R19;6
S90000;01PR015R19;9
S24000;01RV500K20;4
S90000;01RV500K20;10
S24000;01SA100LV20;10
S90000;01SA100LV20;6
S24000;01SA250LT20;9
S90000;01SA250LT20;3
S90000;01SA250VE16;1
S24000;01SL0045K13;13
S90000;01SL0045K13;6
S24000;11EP010H19;4
S90000;11EP010H19;3
S24000;11GD250O21;9
S24000;11SA100H19;4
S90000;11SA100H19;11
S24000;15ET010VB19;6
S90000;15ET100VBL21;1
S90000;15GC150VBL20;6
S90000;15GD075L15;21
S24000;15SA070VB6;9
S90000;15SA070VB6;1
S90000;17SH300D15;3
S24000;20AR075O20;5
S90000;20AR075O20;10
S24000;20ET075OC20;3
S90000;20ET075OC20;7
S90000;24AF050R18;7
S24000;24GD250R20;5
S90000;24GD250R20;8
S24000;24SA050R18;3
S90000;24SA050R18;7
S90000;24SACHB20;3
S24000;27DS030I20;3
S27000;27HS030I18;5
S28000;27HS030I18;6
S15;29MAV075A19;3
S27000;29MAV075A19;7
S28000;29MAV075A19;8
S15;49SH035E20;8
S15;49SH035E21;10
S27000;49SH035E21;10
S28000;49SH035E21;20
S15;52DS001I20;153
S27000;52DS001I20;232
S28000;52DS001I20;386
S15;52GD0015A18;80
S27000;52GD0015A18;58
S28000;52GD0015A18;53
S28000;52SAMPENV18;518
S15;52SGEBAG19;377
S27000;52SGEBAG19;471
S28000;52SGEBAG19;146
S15;98BBDF015IM0;7
S28000;98BBDF015IM0;77
S90000;27DS030I20;7
S90000;29GE200A18;1
S24000;29HS100A21;3
S24000;29LC200A20US;27
S90000;29LC200A20US;9
S24000;29MA030A17;9
S90000;29MA030A17;4
S24000;29MA075A21;8
S90000;29MA075A21;12
S24000;29SA050A17;3
S90000;29SA050A17;1
S24000;29VC240A16;14
S90000;29VC240A16;13
S90000;49BM010K19;133
S90000;49ET007CB4;45
S90000;49HS015A18;6
S90000;49POFDC22;1
S90000;49TC1NO20;14
S24000;49TOBACH20;2
S90000;49TOBACH20;4
S24000;49TOTWC21;1
S90000;52CARDENV18;3
S90000;52EV002I19;27
S90000;52MMSANO21;120
S90000;52SMBBNO21;7
S90000;52MGEBAG19;100
S24000;52SH006E19;134
S90000;52SH006E19;93
S90000;98BBSA050LT1;30
S24000;01CP200K22;10
S90000;01CP200K22;15
S24000;01SA050KV20;12
S90000;01SA050KV20;9
S24000;11GD250H19;8
S90000;11GD250H19;4
S24000;11GD250H20;10
S90000;11GD250H20;9
S24000;11SA100H20;7
S90000;11SA100H20;6
S90000;15CL150VM20H;1
S90000;15ET100VM20H;1
S90000;15LC070VB5;69
S90000;17AS075FV21;97
S90000;24ET075CB4;3
S24000;24MA030CB4;3
S90000;24MA030CB4;8
S24000;27BP050I19;4
S24000;27CP050I19;9
S90000;27CP050I19;2
S90000;49TBL2CH19;3
S24000;27DH015I20;7
S90000;27DH015I20;4
S24000;27DL200I20;6
S20;24MA075P15;13
S20;24MA075R18;18
S20;27DC030I20;4
S20;27DCB060I17;6
S20;27HS030I18;5
S20;29MAV075A19;2
S20;49SH035E21;5
S20;52DS001I20;73
S20;52GD0015A18;63
S20;52SGEBAG19;325
S20;98BBDF015IM0;8
S10;15LC250VB3;10
S10;17AS500FV21;12
S10;17ER075P19;14
S10;17RS500G21;6
S10;17SH075E19;59
S10;17SH075G21;59
S10;20MP030H20;5
S10;20NV150H20;5
S10;20SA050CD20;6
S10;24MA075P15;10
S10;27DC030I20;4
S10;27DCB060I17;6
S10;27HS030I18;6
S10;29MAV075A19;4
S10;49SH035E21;10
S10;52DS001I20;88
S10;52GD0015A18;26
S10;52SGEBAG19;378
S10;98BBDF015IM0;66
S21000;49MS008I20;24
S21000;49POUM21;10
S21000;01RL500K20;9
S21000;01SE125K21;13
S21000;11EH150A18;4
S21000;11GN195A18;7
S21000;11LT300I20;2
S21000;11MA030A20;3
S21000;11SD100SH19;4
S21000;15DO050VA5;1
S21000;15GD250L14;3
S21000;15GD500VB17;7
S21000;15GD500VB21;1
S21000;15LC250VB3;3
S21000;15RC500VB17;2
S21000;15RG500VA20;6
S21000;17AS500FV21;5
S21000;17ER075P19;5
S21000;17RS500G21;18
S21000;17SH075E19;10
S21000;17SH075G21;10
S21000;20MP030H20;4
S21000;20NV150H20;2
S21000;20SA050CD20;8
S21000;24MA075P15;19
S21000;24MA075R18;23
S21000;27DC030I20;6
S21000;27DCB060I17;4
S21000;27HS030I18;4
S21000;29MAV075A19;2
S21000;49SH035E21;10
S21000;52DS001I20;93
S21000;52GD0015A18;56
S21000;52SAMPENV18;28
S21000;52SGEBAG19;413
S21000;98BBDF015IM0;55
S90000;27DL200I20;3
S24000;27ER150I21;16
S90000;27ER150I21;4
S24000;27HSR030I16;4
S90000;27HSR030I16;4
S24000;27OR030I21;12
S90000;27OR030I21;4
S24000;27SP030I19;3
S90000;27SP030I19;12
S90000;38SM025A19;87
S24000;38WM065A18;4
S90000;38WM065A18;3
S90000;49DC004I20;16
S90000;49DISC3NO21;2
S90000;49DRANO19;17
S90000;49MA010VB3;1
S90000;49MS008I20;159
S90000;49PO2RS21;96
S90000;49PO2SA19;30
S24000;49POUM21;7
S90000;49POUM21;17
S90000;49TRAVNO21;178
S90000;52HCTM21;25
S90000;98BBSH050AR2;86
S24000;52DS001I20;151
S90000;52DS001I20;230
S24000;52GD0015A18;115
S24000;52SGEBAG19;312
S24000;98BBDF015IM0;7
S29000;17ER075P19;16
S29000;17RS500G21;28
S29000;17SH075E19;1
S29000;17SH075G21;50
S29000;20NV150H20;13
S29000;20SA050CD20;5
S29000;24MA075P15;18
S29000;24MA075R18;23
S29000;27BP050I19;8
S29000;27DC030I20;3
S29000;27DCB060I17;4
S29000;27HS030I18;6
S29000;29MAV075A19;8
S29000;52DS001I20;134
S29000;52GD0015A18;111
S29000;98BBDF015IM0;40
