S15;15MA030VA5;3
S27000;15MA030VA5;34
S28000;15MA030VA5;10
S15;11CM125I19;5
S27000;11CM125I19;11
S28000;11CM125I19;12
S15;15GN300L11;25
S27000;15GN300L11;9
S28000;15GN300L11;12
S15;20SA050CD20;4
S27000;20SA050CD20;4
S28000;20SA050CD20;5
S15;01CMJ075K21;18
S27000;01CMJ075K21;10
S15;01HD250K17;3
S27000;01HD250K17;4
S28000;01HD250K17;8
S15;11BC100G21;32
S27000;11BC100G21;41
S28000;11BC100G21;25
S15;11ET010H20;10
S27000;11ET010H20;10
S28000;11ET010H20;7
S15;11GE075I20;4
S27000;11GE075I20;4
S28000;11GE075I20;12
S15;11LH200I19;15
S27000;11LH200I19;5
S28000;11LH200I19;17
S15;11SA050O21;45
S27000;11SA050O21;5
S28000;11SA050O21;17
S15;11SP200SH19;9
S27000;11SP200SH19;4
S28000;11SP200SH19;8
S15;15GD250VB21;9
S27000;15GD250VB21;7
S15;15GM065L20;22
S27000;15GM065L20;15
S27000;15MA075VB4;7
S28000;15MA075VB4;15
S15;15RG500VA20;8
S15;17SH060SE21;8
S27000;17SH060SE21;8
S28000;17SH060SE21;12
S15;24GD250R20;10
S27000;24GD250R20;22
S28000;24GD250R20;61
S27000;01EN300KB19;12
S15;01HD500K20;8
S27000;01HD500K20;3
S28000;01HD500K20;10
S15;11BO100CS19;21
S27000;11BO100CS19;5
S28000;11BO100CS19;22
S15;11ET010O21;8
S27000;11ET010O21;11
S28000;11ET010O21;9
S15;11SD100SI19;5
S27000;11SD100SI19;6
S28000;11SD100SI19;12
S15;15AS250VA18;3
S27000;15AS250VA18;4
S28000;15AS250VA18;3
S15;17RS500E20;21
S27000;17RS500E20;9
S28000;17RS500E20;13
S15;17SH500G21;13
S27000;17SH500G21;8
S28000;17SH500G21;23
S15;20DO050O20;8
S27000;20DO050O20;6
S28000;20DO050O20;12
S15;20ET075HC20;2
S27000;20ET075HC20;2
S28000;20ET075HC20;6
S15;27MI150I20;8
S27000;27MI150I20;4
S28000;27MI150I20;6
S15;01CP200K17;2
S27000;01CP200K17;1
S15;01HN0075K19;9
S27000;01HN0075K19;7
S28000;01HN0075K19;9
S15;01SA050KV20;25
S27000;01SA050KV20;9
S28000;01SA050KV20;22
S27000;11CM030H19;53
S28000;11CM030H19;14
S15;11LD200I19;12
S27000;11LD200I19;7
S28000;11LD200I19;16
S15;11PM100SI19;4
S27000;11PM100SI19;4
S28000;11PM100SI19;3
S15;11SV080I19;4
S27000;11SV080I19;5
S28000;11SV080I19;4
S15;15LC250VB3;13
S27000;15LC250VB3;8
S28000;15LC250VB3;61
S15;15MA030L11;8
S27000;15MA030L11;28
S28000;15MA030L11;27
S15;17AS250E19;12
S27000;17AS250E19;1
S28000;17AS250E19;11
S15;17SH060SP21;9
S27000;17SH060SP21;10
S28000;17SH060SP21;9
S27000;20MP030H20;5
S28000;20MP030H20;4
S15;27ER150I21;14
S27000;27ER150I21;9
S28000;27ER150I21;29
S15;01BL012K18;12
S27000;01BL012K18;5
S28000;01BL012K18;14
S15;01CL200F21H;1
S15;01CM500K20;4
S27000;01CM500K20;3
S28000;01CM500K20;9
S15;01EC200K22;5
S27000;01EC200K22;7
S28000;01EC200K22;10
S27000;01MA075K18;1
S15;01PR015R19;9
S27000;01PR015R19;7
S28000;01PR015R19;11
S15;11EH150A18;4
S27000;11EH150A18;3
S28000;11EH150A18;2
S15;11GN195A18;13
S27000;11GN195A18;3
S28000;11GN195A18;13
S15;11LT300I20;4
S27000;11LT300I20;4
S28000;11LT300I20;9
S15;11MA030A20;3
S27000;11MA030A20;5
S28000;11MA030A20;10
S15;11SP200SL19;8
S27000;11SP200SL19;4
S28000;11SP200SL19;6
S15;15ET010VB19;8
S27000;15ET010VB19;3
S28000;15ET010VB19;5
S15;49CHALM21;7
S28000;38WC050A21;9
S27000;38WC050A21;3
S15;38WC050A21;12
S28000;38FT200A21;12
S27000;38FT200A21;1
S15;38FT200A21;4
S28000;27BP050I19;12
S28000;24BR050CB6;12
S27000;24BR050CB6;9
S15;24BR050CB6;13
S28000;17HI001G19;159
S27000;17HI001G19;107
S15;17HI001G19;109
S15;15ET100VA20;6
S28000;01LT300K20;39
S27000;01LT300K20;5
S15;01LT300K20;17
S28000;01BV050K16;8
S27000;01BV050K16;4
S15;01BV050K16;3
S28000;01BM050K19;36
S27000;01BM050K19;3
S15;01BM050K19;6
S28000;29LC200A20US;7
S15;29LC200A20US;5
S28000;27HSR030I16;4
S27000;27HSR030I16;5
S15;27HSR030I16;4
S28000;27ER050I21;17
S27000;27ER050I21;7
S15;27ER050I21;14
S28000;27DH030I20;20
S27000;27DH030I20;9
S15;27DH030I20;13
S28000;24MA075P15;36
S27000;24MA075P15;9
S15;24MA075P15;11
S28000;24MA030RA19;16
S27000;24MA030RA19;6
S15;24MA030RA19;10
S28000;24GP010RJ21H;24
S28000;01SL500VE20;22
S27000;01SL500VE20;4
S15;01SL500VE20;9
S28000;01MA150K22;60
S27000;01MA150K22;11
S15;01MA150K22;49
S28000;29ASH240A20;11
S27000;29ASH240A20;2
S15;29ASH240A20;3
S28000;27OR050I21;16
S27000;27OR050I21;19
S15;27OR050I21;19
S28000;27MP050I20;6
S27000;27MP050I20;27
S28000;24ET075CB4;10
S27000;24ET075CB4;4
S15;24ET075CB4;2
S28000;20AR075O20;13
S27000;20AR075O20;7
S15;20AR075O20;7
S28000;15DF200VBL21;28
S27000;15DF200VBL21;11
S15;15DF200VBL21;19
S28000;01LC500K20;16
S27000;01LC500K20;7
S15;01LC500K20;10
S28000;27DH015I20;14
S27000;27DH015I20;7
S15;27DH015I20;12
S28000;27DC030I20;9
S27000;27DC030I20;5
S15;27DC030I20;4
S15;24AF050R18;2
S28000;20DO130HC20;11
S27000;20DO130HC20;8
S15;20DO130HC20;10
S27000;18ET050TL17;2
S15;18ET050TL17;4
S28000;17VI100P19;8
S27000;17VI100P19;4
S15;17VI100P19;5
S28000;15RC500VB17;35
S28000;15LC250L14;28
S27000;15LC250L14;12
S15;15LC250L14;17
S28000;11SD100SH19;14
S27000;11SD100SH19;11
S15;11SD100SH19;10
S28000;11LC250H20;57
S27000;11LC250H20;3
S15;11LC250H20;9
S28000;11BG140SL19;50
S27000;11BG140SL19;8
S15;11BG140SL19;8
S28000;01SA100LV20;11
S27000;01SA100LV20;10
S15;01SA100LV20;11
S27000;01RC300KB20;4
S28000;01HDR500K20;16
S27000;01HDR500K20;9
S15;01HDR500K20;16
S28000;01CP200K22;6
S27000;01CP200K22;3
S15;01CP200K22;6
S28000;01CL300KB20;2
S27000;01CL300KB20;5
S15;01CL300KB20;5
S28000;24GD500R19;9
S27000;24GD500R19;1
S28000;24GD250CB21;16
S27000;24GD250CB21;2
S28000;20SA050O20;8
S27000;20SA050O20;2
S15;20SA050O20;4
S28000;20GD250HC20;29
S27000;20GD250HC20;6
S15;20GD250HC20;21
S15;18BI030TL17ET;2
S28000;17SH500FV21;13
S27000;17SH500FV21;8
S15;17SH500FV21;17
S28000;17SH060SG21;10
S27000;17SH060SG21;10
S15;17SH060SG21;10
S28000;17HI100G19;10
S27000;17HI100G19;3
S15;17HI100G19;14
S28000;17DO050F13;8
S27000;17DO050F13;12
S15;17DO050F13;14
S28000;17AS250FV21;22
S27000;17AS250FV21;3
S15;17AS250FV21;6
S15;15GM065VB20;38
S28000;15GD500VB17;5
S15;15GD500VB17;64
S28000;15GD250VA20;16
S28000;15BA500L16A;12
S27000;15BA500L16A;9
S15;15BA500L16A;14
S28000;11PEP050I20;7
S27000;11PEP050I20;6
S15;11PEP050I20;6
S28000;11MWC200I19;2
S27000;11MWC200I19;3
S15;11MWC200I19;4
S28000;11FAG10TR19;13
S27000;11FAG10TR19;6
S15;11FAG10TR19;13
S28000;11ET075O21;10
S27000;11ET075O21;6
S15;11ET075O21;8
S28000;11CF100TR19;16
S27000;11CF100TR19;13
S15;11CF100TR19;18
S28000;01RV500K20;13
S27000;01RV500K20;5
S15;01RV500K20;13
S28000;01PI150K18;16
S27000;01PI150K18;8
S15;01PI150K18;8
S28000;24LC250R20;35
S27000;24LC250R20;32
S15;24LC250R20;19
S28000;24RO010CB4;10
S27000;24RO010CB4;8
S15;24RO010CB4;5
S15;15MA030VB3;25
S27000;15MA030VB3;32
S28000;15MA030VB3;15
S15;15SH250VA20;13
S27000;15SH250VA20;3
S28000;15SH250VA20;9
S15;17RC500P19;12
S27000;17RC500P19;4
S28000;17RC500P19;14
S15;20ET075OC20;3
S27000;20ET075OC20;4
S28000;20ET075OC20;9
S15;20SA050HC20;1
S27000;20SA050HC20;4
S28000;20SA050HC20;8
S15;27BP050I19;4
S27000;27BP050I19;3
S15;27SP030I19;4
S27000;27SP030I19;3
S28000;27SP030I19;3
S15;29EC200A21X;22
S27000;29EC200A21X;4
S15;49ETKAR21;7
S27000;49ETKAR21;5
S15;49ETVER21;7
S15;01BK010K14;18
S27000;01BK010K14;8
S28000;01BK010K14;16
S15;01LC250K17;16
S27000;01LC250K17;12
S28000;01LC250K17;14
S15;01PI075K18;9
S27000;01PI075K18;3
S28000;01PI075K18;12
S15;01SA250LT20;12
S27000;01SA250LT20;16
S28000;01SA250LT20;21
S28000;11BG140SH19;10
S15;11BG140SI19;7
S27000;11BG140SI19;8
S28000;11BG140SI19;31
S15;11GM200I19;13
S27000;11GM200I19;16
S28000;11GM200I19;23
S15;15ETKAR21;47
S27000;15ETKAR21;1
S28000;15ETKAR21;2
S28000;15GD250VB17;22
S15;17AS500FV21;11
S27000;17AS500FV21;6
S28000;17AS500FV21;11
S15;17RC500E20;14
S27000;17RC500E20;7
S28000;17RC500E20;10
S15;17SH075E19;59
S27000;17SH075E19;15
S28000;17SH075E19;89
S15;20ET075CD20;4
S27000;20ET075CD20;3
S28000;20ET075CD20;4
S15;24GD250CB4;1
S28000;24GD250CB4;1
S15;27BY015I19;3
S27000;27BY015I19;3
S28000;27BY015I19;9
S15;27DE015I21;8
S27000;27DE015I21;2
S28000;27DE015I21;13
S15;27FP050I19;11
S27000;27FP050I19;4
S28000;27FP050I19;2
S15;27MQ065I15A;4
S27000;27MQ065I15A;6
S28000;27MQ065I15A;4
S15;01CM300K20;6
S27000;01CM300K20;8
S28000;01CM300K20;13
S15;01PI030K18;7
S27000;01PI030K18;6
S28000;01PI030K18;12
S15;11LC250O21;12
S27000;11LC250O21;16
S28000;11LC250O21;23
S15;11SA100H19;8
S27000;11SA100H19;7
S28000;11SA100H19;47
S15;15GD250VA20;12
S27000;15GD250VA20;7
S15;15HE005L14;5
S27000;15HE005L14;3
S28000;15HE005L14;5
S15;15LC250VA20;9
S27000;15LC250VA20;9
S28000;15LC250VA20;20
S15;17AS500P19;3
S27000;17AS500P19;5
S28000;17AS500P19;4
S15;17SH500E19;18
S27000;17SH500E19;9
S28000;17SH500E19;4
S15;18LC250TL17ET;7
S27000;18LC250TL17ET;5
S28000;18LC250TL17ET;6
S15;24MA030RV19;12
S27000;24MA030RV19;8
S15;27DCB060I17;3
S27000;27DCB060I17;3
S28000;27DCB060I17;3
S15;27ER015I20;30
S27000;27ER015I20;13
S28000;27ER015I20;8
S15;27OR030I21;17
S28000;29SA050A17;17
S27000;29SA050A17;4
S15;29SA050A17;56
S28000;24LC250CB4;19
S27000;24LC250CB4;20
S27000;01MF030F21H;1
S28000;01SL0045K13;12
S27000;01SL0045K13;24
S15;01SL0045K13;30
S27000;27OR030I21;18
S28000;27OR030I21;23
S15;29HD500A15;18
S27000;29HD500A15;26
S28000;29HD500A15;13
S15;29RH500A15;13
S27000;29RH500A15;16
S28000;29RH500A15;27
S15;38RC050A18;5
S27000;38RC050A18;4
S28000;38RC050A18;3
S28000;49GD035CB5;108
S15;52AS006P19;38
S27000;52AS006P19;295
S15;01BP050K21;2
S27000;01BP050K21;4
S28000;01BP050K21;10
S27000;01CD250F21H;2
S15;01CL050K21;4
S27000;01CL050K21;6
S28000;01CL050K21;6
S15;01EM075K20;2
S27000;01EM075K20;3
S28000;01EM075K20;4
S15;01MA030K21H;1
S15;01MA030K22;7
S27000;01MA030K22;19
S28000;01MA030K22;39
S15;01SA100LT20;13
S27000;01SA100LT20;13
S28000;01SA100LT20;31
S15;11BG140SH19;7
S27000;11BG140SH19;7
S15;11ET050H20;6
S27000;11ET050H20;3
S28000;11ET050H20;3
S15;11LC250H19;9
S27000;11LC250H19;14
S28000;11LC250H19;24
S15;11MW200I19;2
S15;11SD100SL19;10
S27000;11SD100SL19;4
S28000;11SD100SL19;5
S15;15SA070VB6;3
S27000;15SA070VB6;4
S28000;15SA070VB6;3
S15;17AS075E19;32
S27000;17AS075E19;20
S28000;17AS075E19;36
S15;20GD250CD20;4
S27000;20GD250CD20;11
S28000;20GD250CD20;37
S15;20HR050H20;5
S27000;20HR050H20;4
S28000;20HR050H20;7
S15;24GD500R19;6
S15;24MA030RE19;12
S27000;24MA030RE19;6
S28000;24MA030RE19;14
S15;27DL200I20;11
S27000;27DL200I20;4
S28000;27DL200I20;12
S15;27HC050I18;8
S27000;27HC050I18;4
S28000;27HC050I18;6
S15;29MA075A21;22
S27000;29MA075A21;15
S28000;29MA075A21;46
S15;38MI150A18;3
S27000;38MI150A18;3
S28000;38MI150A18;5
S15;52BGERIB18;1
S15;01LH300KB19;9
S27000;01LH300KB19;5
S28000;01LH300KB19;2
S15;01RL500K20;11
S27000;01RL500K20;4
S28000;01RL500K20;12
S15;11GD250H19;9
S27000;11GD250H19;13
S28000;11GD250H19;10
S15;11GD250H20;15
S27000;11GD250H20;18
S28000;11GD250H20;12
S15;11SP200SI19;7
S27000;11SP200SI19;5
S28000;11SP200SI19;5
S15;15RG500L14;18
S27000;15RG500L14;8
S28000;15RG500L14;11
S15;17MC200G21;12
S27000;17MC200G21;6
S28000;17MC200G21;15
S15;17RS500P19;21
S27000;17RS500P19;10
S28000;17RS500P19;12
S15;17SH075G21;52
S27000;17SH075G21;15
S28000;17SH075G21;89
S15;18ET090TL17;1
S15;24ET050R18;5
S27000;24ET050R18;6
S28000;24ET050R18;10
S15;24MA030CB4;12
S27000;24MA030CB4;11
S28000;24MA030CB4;12
S15;24MA030S6;15
S27000;24MA030S6;10
S28000;24MA030S6;10
S15;27HCR050I16;4
S27000;27HCR050I16;5
S28000;27HCR050I16;4
S15;38EV075A18;4
S27000;38EV075A18;4
S28000;38EV075A18;7
S27000;38ST016A18;2
S15;49DC004I20;10
S27000;49DC004I20;8
S28000;49DC004I20;49
S15;49TOTWC21;66
S28000;49TOTWC21;35
S15;52AS006FV21;113
S15;52CD0015A18;100
S27000;52CD0015A18;130
S28000;52CD0015A18;127
S15;52CP0015I19;104
S27000;52CP0015I19;79
S28000;52CP0015I19;226
S15;01CMR500K20;16
S27000;01CMR500K20;7
S28000;01CMR500K20;15
S15;01MR030K14;16
S27000;01MR030K14;11
S28000;01MR030K14;4
S15;01SA250LV20;18
S27000;01SA250LV20;8
S28000;01SA250LV20;17
S15;01SL300LV20;10
S27000;01SL300LV20;14
S28000;01SL300LV20;3
S28000;10QCRAC21;1
S15;11CD050A18;3
S27000;11CD050A18;8
S28000;11CD050A18;1
S15;11GD250O21;46
S27000;11GD250O21;14
S28000;11GD250O21;39
S15;11PM100SH19;2
S27000;11PM100SH19;3
S28000;11PM100SH19;3
S27000;15GD250L14;10
S28000;15GD250L14;14
S15;17AF100G20;11
S27000;17AF100G20;11
S28000;17AF100G20;18
S15;17AS500G21;13
S27000;17AS500G21;9
S28000;17AS500G21;17
S15;17RC500G21;17
S27000;17RC500G21;10
S28000;17RC500G21;16
S15;17SE100FV21;20
S27000;17SE100FV21;9
S28000;17SE100FV21;15
S15;17SH300FV21;11
S27000;17SH300FV21;12
S28000;17SH300FV21;14
S15;20DO075CD20;13
S27000;20DO075CD20;8
S28000;20DO075CD20;9
S15;24BR050R19;10
S27000;24BR050R19;7
S28000;24BR050R19;8
S28000;24EF050R18;2
S28000;24KTCBL21;1
S15;24MA075CB4;15
S27000;24MA075CB4;9
S28000;24MA075CB4;17
S27000;27OR075I21;1
S28000;27OR075I21;1
S28000;29HD250A15;6
S27000;38EC015A18;8
S28000;38EC015A18;3
S15;52DB001I20;215
S27000;52DB001I20;186
S28000;52DB001I20;455
S15;01CL175K22;5
S27000;01CL175K22;3
S28000;01CL175K22;2
S15;01CV050K18;1
S27000;01CV050K18;2
S28000;01CV050K18;5
S15;11BH050A18;10
S27000;11BH050A18;2
S28000;11BH050A18;10
S15;11EP010H19;7
S27000;11EP010H19;6
S28000;11EP010H19;8
S15;11MH075A19;6
S27000;11MH075A19;4
S28000;11MH075A19;4
S15;15LM300L11;9
S27000;15LM300L11;4
S28000;15LM300L11;13
S15;17RS500G21;17
S27000;17RS500G21;10
S28000;17RS500G21;19
S15;17SH300E19;9
S27000;17SH300E19;22
S28000;17SH300E19;43
S15;17SH300P19;12
S27000;17SH300P19;14
S28000;17SH300P19;15
S28000;20GD250OC20;5
S15;27MP150I20;11
S27000;27MP150I20;10
S28000;27MP150I20;9
S15;29EC200A21;13
S27000;29EC200A21;10
S28000;29EC200A21;14
S15;29MA030A17;10
S27000;29MA030A17;16
S28000;29MA030A17;22
S15;38WM065A18;3
S27000;38WM065A18;2
S28000;38WM065A18;2
S15;49POURE18;56
S15;52CARDNO21;5
S27000;52CARDNO21;8
S28000;52CARDNO21;10
S15;52CP006K17;8
S27000;52CP006K17;124
S28000;52CP006K17;39
S15;52DH001I20;243
S27000;52DH001I20;284
S28000;52DH001I20;283
S15;52FP0015I19;3
S27000;52FP0015I19;133
S27000;01BL012F21H;1
S15;01CL200K17;2
S27000;01CL200K17;2
S28000;01CL200K17;7
S15;01SA250VE20;16
S27000;01SA250VE20;13
S28000;01SA250VE20;18
S15;01SL300VE20;8
S27000;01SL300VE20;14
S28000;01SL300VE20;7
S15;11CM030O21;21
S27000;11CM030O21;18
S28000;11CM030O21;34
S27000;11SD100CS19;2
S24000;01PI150K18;9
S90000;01PI150K18;5
S24000;01RV500K20;5
S90000;01RV500K20;17
S24000;11CF100TR19;12
S24000;11ET075O21;8
S90000;11ET075O21;8
S24000;11FAG10TR19;8
S90000;11FAG10TR19;5
S24000;11MWC200I19;4
S90000;11MWC200I19;4
S24000;11PEP050I20;4
S90000;11PEP050I20;8
S24000;15BA500L16A;10
S90000;15BA500L16A;10
S90000;15GD070VB17;13
S90000;15GD250VA20;7
S24000;15GM065VB20;1
S90000;15GM065VB20;6
S24000;15MA030VA5;11
S90000;15MA030VA5;16
S24000;17AS250FV21;8
S90000;17AS250FV21;10
S90000;17DO050F13;5
S24000;17HI100G19;9
S90000;17HI100G19;8
S90000;17MC200G18;1
S24000;17SH060SG21;9
S90000;17SH060SG21;10
S24000;17SH500FV21;10
S90000;17SH500FV21;4
S24000;20GD250HC20;13
S90000;20GD250HC20;5
S24000;20SA050O20;22
S90000;20SA050O20;5
S90000;24GD500R19;1
S24000;24MA030R18;28
S90000;24MA030R18;2
S24000;24RO010R18;3
S90000;24RO010R18;8
S24000;27CP050I19;9
S90000;27CP050I19;9
S24000;27EV200I19;8
S90000;27EV200I19;8
S24000;29BP100A19;3
S90000;29BP100A19;10
S24000;29GE200A21;8
S90000;29GE200A21;3
S24000;38WS030A21;4
S90000;38WS030A21;7
S90000;49BM010K19;136
S90000;49HD035K17;10
S90000;49POU1O21;23
S90000;49SH035E20;34
S24000;49SH035E21;7
S90000;49SH035E21;160
S24000;52CL0015K21;92
S90000;52CL0015K21;221
S24000;52ER002I21;225
S24000;52MC006G21;206
S90000;52MC006G21;100
S24000;52MMBYNO21;14
S90000;52MMBYNO21;4
S24000;01CMJ075K21;16
S24000;01HD250K17;2
S90000;01HD250K17;4
S24000;01LC500K20;8
S90000;01LC500K20;14
S24000;11BC100G21;43
S90000;11BC100G21;2
S24000;11ET010H20;2
S90000;11ET010H20;1
S24000;11GE075I20;8
S90000;11GE075I20;1
S24000;11LH200I19;13
S24000;11SA050O21;15
S90000;11SA050O21;9
S24000;11SP200SH19;6
S90000;11SP200SH19;8
S24000;15DF200VBL21;11
S90000;15DF200VBL21;3
S90000;15ETVER21;19
S24000;15GD250VB21;4
S24000;15GM065L20;4
S90000;15LC070VB5;69
S90000;15LC250VBL20;1
S90000;15MA075VB4;5
S24000;17SH060SE21;10
S90000;17SH060SE21;9
S24000;20AR075O20;8
S90000;20AR075O20;8
S24000;24ET075CB4;6
S90000;24ET075CB4;1
S24000;24GD250R20;5
S90000;24GD250R20;1
S90000;27DE015I13US;6
S24000;27MP050I20;37
S90000;27MP050I20;82
S24000;27OR050I21;13
S90000;27OR050I21;14
S24000;29ASH240A20;3
S90000;29ASH240A20;7
S90000;29GE200A18;1
S90000;29HD500A21X;2
S24000;38BV050A19;3
S90000;38BV050A19;7
S24000;38UV030A18;11
S90000;49CM030I19;116
S90000;49PMENNO21;140
S24000;49PO1NH18;38
S90000;49PO1NH18;83
S24000;52ACRAC21;3
S24000;52AF006G20;184
S90000;52AF006G20;100
S90000;52COTLTM19;4
S24000;52DCRAC21;3
S24000;52SMSANO21;115
S90000;98BBHD035A0;140
S24000;98BBHD050A0;17
S90000;98BBHD050A0;2
S90000;01BM050K19;3
S24000;01BV050K16;4
S90000;01BV050K16;4
S90000;01CL125C21H;1
S90000;01CP200K17;4
S24000;01HN0075K19;8
S90000;01HN0075K19;1
S90000;01LC250F21H;1
S24000;01LT300K20;15
S90000;01LT300K20;2
S24000;01SA050KV20;11
S90000;01SA050KV20;11
S24000;11CM030H19;10
S90000;11CM030H19;4
S24000;11LD200I19;8
S90000;11LD200I19;3
S24000;11PM100SI19;4
S90000;11PM100SI19;10
S24000;11SV080I19;3
S90000;11SV080I19;6
S24000;15LC250VB3;8
S90000;15LC250VB3;4
S24000;15MA030L11;22
S90000;15MA030L11;4
S24000;17AS250E19;2
S90000;17AS250E19;9
S90000;17AS500G18;2
S24000;17HI001G19;157
S90000;17HI001G19;100
S24000;17SH060SP21;8
S90000;17SH060SP21;9
S24000;20MP030H20;3
S24000;24BR050CB6;10
S90000;24BR050CB6;12
S90000;24MA030RJ21H;4
S90000;27BP050I19;3
S24000;27ER150I21;17
S90000;29HS100A21;1
S24000;38FT200A21;3
S15;15CP250VA5;2
S28000;15GD250VCL21;1
S15;17AS500E19;13
S27000;17AS500E19;7
S28000;17AS500E19;10
S15;17CS150P19;17
S27000;17CS150P19;36
S15;17RS500FV21;15
S27000;17RS500FV21;11
S28000;17RS500FV21;5
S15;17SH300G21;29
S27000;17SH300G21;31
S28000;17SH300G21;15
S15;20FE050H20;6
S27000;20FE050H20;4
S28000;20FE050H20;4
S28000;24MA030RV19;15
S15;24SA050CB6;26
S27000;24SA050CB6;6
S28000;24SA050CB6;14
S15;27DC050I20;13
S27000;27DC050I20;15
S28000;27DC050I20;17
S15;27MS050I20;11
S27000;27MS050I20;4
S28000;27MS050I20;19
S15;27RM300I20;14
S27000;27RM300I20;8
S28000;27RM300I20;14
S27000;29LC200A21X;1
S15;29MAV075A19;6
S27000;29MAV075A19;3
S28000;29MAV075A19;6
S27000;49OR005I21;19
S28000;49OR005I21;431
S15;24MA030R18;13
S27000;24MA030R18;32
S28000;24MA030R18;1
S15;24RO010R18;3
S27000;24RO010R18;1
S28000;24RO010R18;4
S15;27CP050I19;12
S27000;27CP050I19;5
S28000;27CP050I19;17
S15;27EV200I19;11
S27000;27EV200I19;8
S28000;27EV200I19;13
S15;29BP100A19;3
S27000;29BP100A19;4
S28000;29BP100A19;12
S15;29GE200A21;26
S27000;29GE200A21;8
S28000;29GE200A21;12
S20;01BL012K18;11
S20;01CM500K20;15
S20;01EC200K22;19
S20;01PR015R19;8
S20;11EH150A18;8
S20;11GN195A18;15
S20;11LT300I20;6
S20;11MA030A20;10
S20;11SP200SL19;7
S20;15ET010VB19;8
S20;15ET100VCL21;9
S20;15MA030VB3;24
S20;15SH250VA20;9
S20;17RC500P19;3
S20;20ET075OC20;4
S20;20SA050HC20;10
S20;24LC250RJ21H;1
S20;27BP050I19;1
S20;27SP030I19;6
S20;29EC200A21X;18
S20;49ETKAR21;7
S20;49ETVER21;7
S20;52DE001I21;116
S20;52RIB1NO21;20
S20;01HN075K21H;3
S20;01RL500K20;12
S20;11GD250H19;23
S20;11GD250H20;17
S20;11SP200SI19;9
S20;15RG500L14;21
S20;17MC200G21;11
S20;17RS500P19;15
S20;17SH075G21;13
S20;18ET090TL17;1
S20;24ET050R18;5
S20;24MA030CB4;28
S20;24MA030S6;17
S20;27HCR050I16;4
S20;49DC004I20;9
S20;52AS006FV21;127
S20;52CD0015A18;65
S20;52CP0015I19;206
S20;52MIBANO21;1
S20;52MOCOL316;6
S20;01PI150K18;18
S20;01RV500K20;21
S20;11CF100TR19;18
S20;11ET075O21;6
S20;11FAG10TR19;9
S20;11MWC200I19;4
S20;11PEP050I20;9
S20;15BA500L16A;14
S20;15MA030VA5;22
S20;17AS250FV21;2
S20;17DO050F13;14
S29000;01PI150K18;12
S29000;01RV500K20;21
S29000;11CF100TR19;15
S29000;11ET075O21;8
S29000;11FAG10TR19;17
S29000;11MWC200I19;6
S29000;11PEP050I20;5
S29000;15BA500L16A;15
S29000;15GD250VA20;18
S29000;15GD500VB17;10
S29000;15GM065VB20;40
S29000;15MA030VA5;14
S29000;17AS250FV21;3
S29000;17DO050F13;19
S29000;17HI100G19;16
S29000;17SH060SG21;17
S29000;17SH500FV21;12
S29000;20GD250HC20;24
S29000;20SA050O20;1
S29000;24GD500R19;7
S29000;24MA030R18;1
S29000;24RO010R18;2
S29000;27CP050I19;29
S29000;27EV200I19;15
S29000;29BP100A19;12
S29000;29GE200A21;18
S29000;38WS030A21;12
S29000;52CL0015K18;6
S29000;52CL0015K21;182
S29000;52ER002I21;214
S29000;52MC006G21;95
S29000;52SH006P19;179
S29000;52SP001I19;102
S29000;01LH300KB19;11
S29000;01RL500K20;35
S29000;11GD250H19;16
S29000;11GD250H20;14
S29000;11SP200SI19;9
S29000;15RG500L14;19
S29000;17MC200G21;22
S29000;17RS500P19;18
S29000;17SH075G21;61
S29000;24ET050R18;5
S29000;24MA030CB4;16
S29000;24MA030S6;10
S29000;27HCR050I16;21
S29000;38EV075A18;23
S29000;52CD0015A18;11
S29000;52CP0015I19;149
S29000;52MOCOL316;9
S29000;01BL012K18;31
S29000;01CM500K20;12
S29000;01EC200K22;15
S10;01PI150K18;10
S10;01RV500K20;12
S10;11CF100TR19;11
S10;11ET075O21;10
S10;11FAG10TR19;9
S10;11MWC200I19;5
S10;11PEP050I20;8
S10;15BA500L16A;5
S10;15GM065VB20;7
S10;15MA030VA5;6
S10;17AS250FV21;2
S10;17DO050F13;8
S10;17HI100G19;10
S10;17SH060SG21;10
S10;17SH500FV21;12
S10;20GD250HC20;10
S10;20SA050O20;4
S10;24GD250CB21;2
S10;24RO010R18;3
S10;27CP050I19;6
S10;27EV200I19;2
S10;29BP100A19;3
S10;29GE200A21;7
S10;38WS030A21;4
S10;49SH035E21;10
S10;52CL0015K18;38
S10;52ER002I21;486
S10;52MC006G21;435
S10;52MMBYNO21;6
S10;52SH006P19;57
S10;52SP001I19;256
S10;01HN075C21H;1
S10;01HN075K21H;1
S10;01LH300KB19;4
S10;01RL500K20;4
S10;11GD250H19;14
S10;11GD250H20;16
S10;11SP200SI19;8
S10;15RG500L14;11
S10;17MC200G21;10
S10;17RS500P19;13
S10;17SH075G21;63
S10;24ET050R18;6
S10;24MA030CB4;15
S10;24MA030S6;8
S10;27HCR050I16;4
S10;38ST016A18;1
S10;49DC004I20;19
S10;52AS006FV21;198
S10;52CD0015A18;185
S10;52CP0015I19;345
S10;52MOCOL316;3
S10;52RC0015A18;109
S10;52SMBPNO21;4
S10;01BL012K18;9
S21000;01BL012K18;4
S21000;01CL200F21H;3
S21000;01CM500K20;5
S21000;01EC200K22;8
S21000;01MA075K18;5
S21000;01PR015R19;14
S21000;11EH150A18;4
S21000;11GN195A18;23
S21000;11LT300I20;3
S21000;11MA030A20;14
S21000;11SP200SL19;4
S21000;15ET010VB19;4
S21000;15ET100VCL21;5
S21000;15MA030VB3;14
S21000;15SH250VA20;3
S21000;17RC500P19;1
S21000;20ET075OC20;3
S21000;20SA050HC20;3
S21000;27BP050I19;3
S21000;27SP030I19;6
S21000;29EC200A21X;10
S21000;49ETKAR21;6
S21000;49ETVER21;6
S21000;49OR005I19;15
S21000;52DE001I21;231
S21000;52HD006A18;274
S21000;52RIB1NO21;11
S21000;01LH300KB19;4
S21000;01RL500K20;15
S21000;11GD250H19;14
S21000;11GD250H20;31
S21000;11SP200SI19;4
S21000;15RG500L14;10
S21000;17MC200G21;10
S21000;17RS500P19;15
S21000;17SH075G21;62
S21000;24ET050R18;5
S21000;24MA030CB4;6
S21000;24MA030S6;6
S21000;27HCR050I16;4
S21000;38EV075A18;10
S21000;49DC004I20;6
S21000;52AS006FV21;183
S21000;52CD0015A18;98
S21000;52CP0015I19;88
S21000;52MOCOL316;7
S21000;01PI150K18;7
S21000;01RV500K20;17
S21000;11CF100TR19;14
S21000;11ET075O21;6
S21000;11FAG10TR19;7
S21000;11MWC200I19;4
S21000;11PEP050I20;4
S00;27CN050I14;2
S90000;38FT200A21;6
S24000;38WC050A21;10
S90000;38WC050A21;8
S24000;49CHALM21;7
S24000;49CHCHB21;7
S24000;49LC020A20;7
S90000;49LC020A20;33
S90000;49MR010K14;46
S24000;52DC0015I20;189
S90000;52DC0015I20;285
S24000;52DF002I17;445
S90000;52DF002I17;611
S90000;52MMBYNO19;85
S24000;52RBO2NO21;4
S24000;52SH006P19;215
S90000;52SH006P19;420
S24000;52SP001I19;116
S90000;52SP001I19;203
S24000;98BBMA010KA3;8
S90000;01LH300KB19;1
S24000;01RL500K20;4
S90000;01RL500K20;14
S24000;11GD250H19;11
S90000;11GD250H19;15
S24000;11GD250H20;17
S90000;11GD250H20;12
S24000;11SP200SI19;9
S90000;11SP200SI19;6
S24000;15GM280VB20;2
S90000;15GM280VB20;7
S90000;15MA030VBL21;1
S24000;15RG500L14;8
S24000;17MC200G21;9
S90000;17MC200G21;3
S90000;17RC500N18;1
S24000;17RS500P19;13
S90000;17SH075G21;193
S90000;17SH300G18;17
S90000;18ET090TL17;1
S24000;24ET050R18;5
S90000;24ET050R18;7
S24000;24MA030CB4;14
S90000;24MA030CB4;5
S24000;24MA030S6;19
S90000;24MA030S6;8
S90000;27DH030I17A;1
S24000;27HCR050I16;5
S90000;27HCR050I16;5
S24000;38EV075A18;2
S90000;38EV075A18;4
S90000;38ST016A18;7
S90000;49CO1NO19;5
S24000;49DC004I20;8
S21000;15BA500L16A;2
S21000;15GD500VB17;16
S21000;15MA030VA5;6
S21000;17AS250FV21;10
S21000;17DO050F13;9
S21000;17HI100G19;6
S21000;17SH060SG21;9
S21000;17SH500FV21;19
S21000;20GD250HC20;14
S21000;20SA050O20;4
S21000;24GD250CB21;1
S21000;24MA030R18;11
S21000;24RO010R18;2
S21000;27CP050I19;6
S21000;27EV200I19;10
S21000;29BP100A19;4
S21000;29GE200A21;16
S21000;38WS030A21;3
S21000;49SH035E21;10
S21000;52CL0015K21;96
S21000;52ER002I21;212
S21000;52MC006G21;175
S21000;52SH006P19;175
S21000;52SP001I19;208
S21000;98BBMA010KA3;37
S21000;11BH050A18;4
S21000;11EP010H19;6
S21000;11MH075A19;4
S21000;15LM300L11;9
S21000;17RS500G21;11
S21000;17SH300E19;9
S21000;17SH300P19;25
S21000;27MP150I20;6
S21000;29EC200A13;4
S21000;29EC200A21;12
S21000;29MA030A17;15
S21000;38WM065A18;5
S21000;52CARDNO21;8
S21000;52CP006K17;30
S21000;52DH001I20;215
S21000;52FP0015I19;2
S21000;52MS001I20;182
S21000;01BM050K19;1
S21000;01BV050K16;4
S21000;01CP200K17;9
S21000;01HN0075K19;7
S21000;01LC250F21H;2
S21000;01LT300K20;8
S21000;01SA050KV20;27
S21000;11CM030H19;34
S21000;11LD200I19;13
S21000;11PM100SI19;4
S21000;11SV080I19;4
S15;38WS030A21;9
S27000;38WS030A21;2
S28000;38WS030A21;12
S15;49SH035E20;9
S15;49SH035E21;9
S27000;49SH035E21;10
S28000;49SH035E21;20
S27000;52CL0015K18;2
S15;52CL0015K21;109
S27000;52CL0015K21;142
S28000;52CL0015K21;137
S15;52ER002I21;292
S27000;52ER002I21;430
S28000;52ER002I21;390
S27000;52LGEBAG19;113
S15;52LGEBAG19;200
S27000;52CCRAC21;2
S15;52CCRAC21;2
S15;52MC006G21;175
S27000;52MC006G21;306
S28000;52MC006G21;278
S15;52SH006P19;150
S27000;52SH006P19;137
S28000;52SH006P19;211
S27000;52SP001I19;237
S28000;52SP001I19;191
S15;98BBMA010KA3;7
S28000;98BBMA010KA3;145
S27000;49ETVER21;5
S15;52DE001I21;251
S27000;52DE001I21;195
S28000;52DE001I21;309
S15;52HD006A18;325
S27000;52HD006A18;246
S28000;52HD006A18;437
S15;52MMBPNO21;4
S15;52RIB1NO21;16
S27000;52RIB1NO21;10
S28000;52RIB1NO21;22
S15;52MIBANO21;14
S15;52MOCOL316;5
S27000;52MOCOL316;6
S28000;52MOCOL316;10
S15;52SMBPNO21;4
S27000;52SMBPNO21;2
S28000;52TWIST20;1
S28000;52FP0015I19;64
S15;52MS001I20;89
S27000;52MS001I20;92
S28000;52MS001I20;406
S15;98BBDF015IM0;7
S27000;98BBDF015IM0;10
S28000;98BBDF015IM0;92
S10;01CL200F21H;1
S10;01CM500K20;3
S10;01EC200K22;3
S10;01PR015R19;7
S10;11EH150A18;4
S10;11GN195A18;13
S10;11LT300I20;12
S10;11MA030A20;4
S10;11SP200SL19;13
S10;15ET010VB19;6
S10;15ET100VCL21;4
S10;15KTVER21;3
S10;15MA030VB3;7
S10;15SH250VA20;7
S10;17AS250G18;9
S10;17RC500P19;4
S10;20ET075OC20;2
S10;20SA050HC20;4
S10;27BP050I19;4
S10;27SP030I19;8
S10;29EC200A21X;12
S10;29MA030A21X;1
S10;49ETKAR21;7
S10;49ETVER21;7
S10;49OR005I19;9
S10;52DE001I21;341
S10;52HD006A18;639
S10;52MMBPNO21;8
S10;52RIB1NO21;9
S10;01CL175K22;2
S10;01CV050K18;5
S10;11BH050A18;3
S10;11EP010H19;8
S10;11GD250O21;23
S10;11MH075A19;5
S10;15LM300L11;10
S10;17RS500G21;12
S10;17SH300E19;12
S10;17SH300P19;9
S10;27MP150I20;8
S10;29EC200A13;5
S10;29EC200A21;13
S10;29MA030A17;17
S10;38WM065A18;4
S10;49CRM2NO21;6
S10;49HD035A15;60
S10;49POURE18;2
S10;52CARDNO21;8
S10;52CP006K17;64
S10;52DH001I20;319
S10;52FP0015I19;139
S10;52MS001I20;90
S10;98BBDF015IM0;37
S10;01BM050K19;1
S10;01BV050K16;2
S20;52HD006A18;215
S20;17HI100G19;6
S20;17SH060SG21;9
S20;17SH500FV21;14
S20;20GD250HC20;18
S20;20SA050O20;9
S20;24GD500R19;8
S20;24MA030R18;17
S20;27CP050I19;10
S20;27EV200I19;10
S20;29BP100A19;9
S20;29GE200A21;16
S20;38WS030A21;4
S20;49SH035E21;5
S20;52CL0015K18;2
S20;52CL0015K21;130
S20;52ER002I21;177
S20;52MC006G21;215
S20;52SH006P19;126
S20;98BBMA010KA3;5
S20;01CV050K18;3
S20;11BH050A18;7
S20;11EP010H19;7
S20;11MH075A19;7
S20;15LM300L11;9
S20;17RS500G21;31
S20;17SH300E19;13
S20;17SH300P19;11
S20;18ET010TL17;1
S20;27MP150I20;7
S20;29EC200A21;13
S20;29MA030A17;14
S20;38WM065A18;5
S20;49POURE18;36
S20;52CARDNO21;4
S20;52CP006K17;219
S20;52DH001I20;259
S20;52FP0015I19;1
S20;52MS001I20;98
S20;98BBDF015IM0;9
S20;01BM050K19;1
S20;01BV050K16;10
S20;01HN0075K19;12
S20;01LT300K20;6
S20;01SA050KV20;8
S20;11CM030H19;13
S20;11LD200I19;12
S20;11PM100SI19;5
S20;11SV080I19;6
S20;15ET100VA20;6
S20;15LC250VB3;10
S20;15MA030L11;36
S20;17AS250E19;1
S20;17HI001G19;113
S21000;15ET100VA20;4
S21000;15LC250VB3;12
S21000;15MA030L11;42
S21000;17AS250E19;3
S21000;17HI001G19;172
S21000;17SH060SP21;10
S21000;20MP030H20;4
S21000;24BR050CB6;7
S21000;27ER150I21;11
S21000;29HS100A21;1
S21000;38FT200A21;8
S21000;38WC050A21;16
S21000;49CHALM21;6
S21000;49CHCHB21;6
S21000;49LC020A20;67
S21000;52DC0015I20;185
S21000;52DF002I17;161
S21000;52RBO2NO21;2
S21000;01CM300K20;7
S21000;01PI030K18;8
S21000;11LC250O21;14
S21000;98BBDF015IM0;49
S21000;11SA100H19;6
S21000;15GD250VA20;25
S21000;15HE005L14;4
S21000;15LC250VA20;28
S21000;17AS500P19;3
S21000;17SH500E19;9
S21000;18LC250TL17ET;6
S21000;24MA030RV19;6
S21000;27DCB060I17;4
S21000;27ER015I20;30
S21000;27OR030I21;22
S21000;29HD500A15;3
S21000;29RH500A15;16
S21000;38RC050A18;6
S21000;49GD035CB5;100
S21000;52AS006P19;112
S21000;52MIGEBAG19;637
S21000;52SH006G21;174
S21000;52TS001R21;186
S21000;01BP050K21;8
S21000;01CL050K21;4
S21000;01EM075K20;6
S21000;01MA030K22;103
S21000;01SA100LT20;16
S21000;11BG140SH19;15
S21000;11ET050H20;4
S21000;11LC250H19;14
S21000;11SD100SL19;11
S21000;15SA070VB6;3
S21000;17AS075E19;25
S21000;20GD250CD20;19
S29000;01PR015R19;12
S29000;11EH150A18;14
S29000;11GN195A18;19
S29000;11LT300I20;13
S29000;11MA030A20;15
S29000;11SP200SL19;12
S29000;15ET010VB19;4
S29000;15MA030VB3;14
S29000;15SH250VA20;11
S29000;17RC500P19;29
S29000;20ET075OC20;2
S29000;20SA050HC20;7
S29000;27DF125I17;4
S29000;27SP030I19;10
S29000;29MA030A21X;2
S29000;49ETKAR21;3
S29000;49ETVER21;3
S29000;52DE001I21;121
S29000;52HD006A18;189
S29000;52RIB1NO21;9
S29000;01CL175K22;5
S29000;11BH050A18;5
S29000;11EP010H19;11
S29000;11MH075A19;9
S29000;15LM300L11;14
S29000;17RS500G21;62
S29000;17SH300E19;17
S29000;17SH300P19;13
S29000;18ET010TL17;4
S29000;27MP150I20;16
S29000;29EC200A21;18
S29000;29MA030A17;14
S29000;38WM065A18;6
S29000;49CRM2NO21;2
S29000;49POURE18;1
S29000;52CARDNO21;8
S29000;52CP006K17;35
S29000;52DH001I20;317
S29000;52FP0015I19;48
S29000;52MS001I20;102
S29000;98BBDF015IM0;11
S29000;01BM050K19;4
S29000;01BV050K16;7
S29000;01CP200K17;10
S29000;01HN0075K19;13
S29000;01LT300K20;17
S29000;01SA050KV20;2
S29000;11CM030H19;11
S29000;11LD200I19;14
S29000;11PM100SI19;6
S29000;11SV080I19;6
S29000;15LC250VB3;59
S29000;15MA030L11;12
S90000;49DC004I20;16
S90000;49PFCWC21;90
S24000;52CD0015A18;124
S24000;52CP0015I19;205
S24000;52MOCOL316;8
S90000;52MOCOL316;35
S24000;01BL012K18;9
S90000;01BL012K18;9
S24000;01CL200F21H;2
S24000;01CM500K20;8
S90000;01CM500K20;9
S90000;01CP100K21H;23
S24000;01EC200K22;6
S90000;01EC200K22;23
S90000;01MA075K18;4
S24000;01PR015R19;6
S90000;01PR015R19;9
S24000;11EH150A18;3
S90000;11EH150A18;4
S24000;11GN195A18;14
S90000;11GN195A18;4
S24000;11LT300I20;5
S90000;11LT300I20;7
S24000;11MA030A20;12
S90000;11MA030A20;5
S24000;11SP200SL19;8
S90000;11SP200SL19;8
S24000;15ET010VB19;6
S90000;15ET100VCL21;36
S90000;15LC250VA5;1
S24000;15MA030VB3;15
S90000;15MA030VB3;6
S90000;15SH250VA20;8
S90000;17AS250G18;50
S24000;17RC500P19;4
S90000;17RC500P19;20
S90000;20AR075H16;11
S24000;20ET075OC20;4
S90000;20ET075OC20;6
S24000;20SA050HC20;21
S90000;20SA050HC20;8
S90000;24GD250C21;1
S24000;27BP050I19;2
S90000;27DF125I17;1
S24000;27SP030I19;4
S90000;27SP030I19;12
S24000;29EC200A21X;6
S24000;29MA030A21X;1
S90000;29MA030A21X;5
S90000;49AF015G20;160
S90000;49CP004I19;82
S90000;49DB004I20;30
S24000;49ETKAR21;7
S10;01CP200K17;4
S10;01HN0075K19;8
S10;01LT300K20;6
S10;01SA050KV20;8
S10;11CM030H19;1
S10;11LD200I19;8
S10;11PM100SI19;4
S10;11SV080I19;4
S10;15ET100VA20;4
S10;15LC250VB3;10
S10;15MA030L11;7
S10;17AS250E19;8
S10;17HI001G19;150
S10;17SH060SP21;10
S10;20MP030H20;5
S10;24BR050CB6;4
S10;27ER150I21;18
S10;29HS100A21;2
S10;38FT200A21;4
S10;38WC050A21;4
S10;49CHALM21;7
S10;49CHCHB21;7
S10;49LC020A20;56
S10;52DC0015I20;310
S10;52DF002I17;244
S10;52RBO2NO21;4
S10;01CM300K20;7
S10;01PI030K18;2
S10;01SL0045K13;12
S10;11LC250O21;13
S10;11SA100H19;6
S10;15GD250VA20;10
S10;15HE005L14;4
S10;15LC250VA20;12
S10;17AS500P19;5
S10;17SH500E19;13
S10;18LC250TL17ET;3
S10;24MA030RV19;10
S10;27DCB060I17;4
S10;27ER015I20;18
S10;27OR030I21;23
S10;29HD500A15;10
S10;29RH500A15;18
S10;38RC050A18;6
S10;49GD035CB5;54
S10;49TCMNO21;4
S10;52AS006P19;115
S10;52GIF2NO21;3
S10;52MIGEBAG19;371
S10;52PS0015R21;7
S10;52SH006G21;362
S10;52TS001R21;187
S10;01BP050K21;6
S10;01CD250F21H;1
S10;01CL050K21;3
S21000;20HR050H20;4
S21000;24MA030RE19;8
S21000;27DL200I20;3
S21000;27HC050I18;4
S21000;27OR030I19;8
S21000;29MA075A21;8
S21000;38MI150A18;4
S21000;52MGEBOX18;34
S21000;52MGENSA21;21
S21000;52RIB2NO21;11
S21000;01BM150K19;22
S21000;01HV030K16;5
S21000;01SA100VE20;10
S21000;01SL500LV20;12
S21000;11SA100H20;10
S21000;15DO050VA5;6
S21000;15MA075L11;31
S21000;24GM030C21;18
S21000;24MA075R18;45
S21000;24SA050R18;4
S21000;27DB015I20;6
S21000;27TS001I20;360
S21000;29VC240A16;7
S21000;49TOBACH20;5
S21000;52GIF1NO21;6
S21000;52STINO21;13
S21000;01CL200K17;10
S21000;01MA150K18;4
S21000;01SA250VE20;13
S21000;01SL300VE20;19
S21000;11CM030O21;15
S21000;15CP250VA5;2
S21000;17AS500E19;14
S21000;17CS150P19;13
S21000;17RS500FV21;11
S21000;17SH300G21;18
S21000;20FE050H20;4
S21000;24EDT10C21;11
S21000;24SA050CB6;3
S21000;27DC050I20;9
S21000;27MS050I20;3
S21000;27RM300I20;9
S21000;29MAV075A19;2
S21000;49OR005I21;129
S21000;52CCRAC21;2
S21000;52LGEBAG19;48
S21000;52LGEBOX18;10
S21000;52SAMPENV18;28
S21000;01CL300KB20;6
S21000;01HDR500K20;8
S21000;01MA030K16;1
S21000;01SA100LV20;9
S21000;11BG140SL19;26
S20;17SH060SP21;7
S20;20MP030H20;2
S20;24BR050CB6;12
S20;27ER150I21;12
S20;29HS100A21;13
S20;38FT200A21;6
S20;38WC050A21;4
S20;49CHALM21;7
S20;49CHCHB21;7
S20;49LC020A20;4
S20;52DC0015I20;381
S20;52DF002I17;131
S20;52RBO2NO21;3
S20;01CM300K20;8
S20;01PI030K18;5
S20;01SL0045K13;27
S20;11LC250O21;12
S20;11SA100H19;10
S20;15GD250VA20;17
S20;15HE005L14;12
S20;15LC250VA20;9
S20;17AS500P19;7
S20;17SH500E19;15
S20;24MA030RV19;14
S20;27DCB060I17;7
S20;27ER015I20;13
S20;27OR030I21;13
S20;29HD500A15;17
S20;29RH500A15;28
S20;38RC050A18;4
S20;52AS006P19;65
S20;52GIF2NO21;6
S20;52MIGEBAG19;132
S20;52PS0015R21;107
S20;52SH006G21;265
S20;52TS001R21;147
S20;01BP050K21;10
S20;01CL050K21;3
S20;01EM075K20;4
S20;01MA030K22;42
S20;01SA100LT20;10
S20;11BG140SH19;8
S20;11ET050H20;9
S20;11LC250H19;15
S20;15SA070VB6;2
S20;17AS075E19;23
S20;20GD250CD20;12
S20;20HR050H20;4
S20;24MA030RE19;14
S20;27DL200I20;7
S20;27HC050I18;8
S20;29MA075A21;18
S20;38MI150A18;3
S20;52BGERIB18;2
S20;52EV002I19;42
S27000;49CHALM21;5
S15;49CHCHB21;7
S27000;49CHCHB21;5
S15;49LC020A20;5
S27000;49LC020A20;10
S28000;49LC020A20;92
S15;52DC0015I20;300
S27000;52DC0015I20;386
S28000;52DC0015I20;169
S15;52DF002I17;109
S27000;52DF002I17;214
S28000;52DF002I17;208
S15;52RBO2NO21;1
S27000;52RBO2NO21;3
S28000;52AS006P19;179
S15;52GIF2NO21;6
S27000;52GIF2NO21;3
S28000;52GIF2NO21;5
S15;52MIGEBAG19;153
S27000;52MIGEBAG19;344
S28000;52MIGEBAG19;25
S15;52PS0015R21;100
S27000;52PS0015R21;266
S28000;52PS0015R21;377
S15;52SH006G21;219
S27000;52SH006G21;280
S28000;52SH006G21;332
S15;52TS001R21;135
S27000;52TS001R21;119
S28000;52TS001R21;333
S27000;52BGERIB18;3
S28000;52BGERIB18;3
S27000;52EV002I19;71
S15;52LC006A20;275
S27000;52LC006A20;252
S28000;52LC006A20;57
S15;52MGEBOX18;19
S27000;52MGEBOX18;35
S28000;52MGEBOX18;35
S15;52MGENSA21;11
S27000;52MGENSA21;15
S28000;52MGENSA21;258
S15;52MMBBNO21;1
S15;52RIB2NO21;18
S27000;52RIB2NO21;12
S28000;52RIB2NO21;22
S15;01BM150K19;10
S27000;01BM150K19;5
S28000;01BM150K19;18
S15;01HV030K16;3
S27000;01HV030K16;5
S28000;01HV030K16;8
S15;01SA100VE20;15
S29000;17AS250E19;10
S29000;17HI001G19;213
S29000;17SH060SP21;10
S29000;24BR050CB6;8
S29000;27ER150I21;19
S29000;29HS100A21;17
S29000;38FT200A21;12
S29000;38WC050A21;17
S29000;49CHALM21;3
S29000;49CHCHB21;3
S29000;49MA010CB4;186
S29000;52DC0015I20;276
S29000;52DF002I17;136
S29000;52PANIER2;2
S29000;52RBO2NO21;1
S29000;01CM300K20;6
S29000;01PI030K18;11
S29000;01SL0045K13;31
S29000;11LC250O21;40
S29000;11SA100H19;11
S29000;15GD075L15;23
S29000;15HE005L14;9
S29000;15LC250VA20;32
S29000;17AS500P19;10
S29000;17SH500E19;17
S29000;18LC250TL17ET;13
S29000;27DCB060I17;4
S29000;27ER015I20;23
S29000;27OR030I21;21
S29000;29HD500A15;20
S29000;29RH500A15;58
S29000;38RC050A18;7
S29000;49GD035CB5;186
S29000;52AS006P19;96
S29000;52GIF2NO21;6
S29000;52PS0015R21;145
S29000;52SH006G21;272
S29000;52TS001R21;68
S29000;01BP050K21;15
S29000;01CL050K21;5
S29000;01CV050K18;18
S29000;01EM075K20;10
S29000;01MA030K22;19
S29000;01SA100LT20;4
S29000;11ET050H20;5
S29000;11LC250H19;9
S29000;11SD100SL19;11
S29000;15SA070VB6;13
S29000;17AS075E19;13
S29000;20GD250CD20;34
S29000;20HR050H20;4
S29000;24MA030RE19;5
S29000;27DL200I20;15
S20;52LC006A20;196
S20;52MGEBOX18;21
S20;52MGENSA21;49
S20;52RIB2NO21;20
S20;01BL012C21H;3
S20;01BM150K19;25
S20;01HV030K16;4
S20;01SA100VE20;23
S20;01SL500LV20;8
S20;11SA100H20;7
S20;15DO050VA5;11
S20;15MA075L11;28
S20;24MA075R18;22
S20;24SA050R18;8
S20;27DB015I20;11
S20;27TS001I20;208
S20;29VC240A16;6
S20;52BY001I19;102
S20;52GIF1NO21;6
S20;52LASANO21;82
S20;52STINO21;11
S20;01CL200K17;6
S20;01MA150K18;1
S20;01SA250VE20;16
S20;01SL300VE20;3
S20;11CM030O21;23
S20;17AS500E19;9
S20;17CS150P19;25
S20;17RS500FV21;16
S20;17SH300G21;14
S20;18SA075TL17ET;5
S20;20FE050H20;4
S20;24EDT10C21;8
S20;24SA050CB6;6
S20;27DC050I20;12
S20;27MS050I20;9
S20;27RM300I20;8
S20;29MAV075A19;2
S20;49OR005I21;96
S20;52CCRAC21;3
S20;52LGEBAG19;72
S20;52LGEBOX18;7
S20;01CP200K22;7
S20;01HDR500K20;11
S20;01SA100LV20;14
S20;11BG140SL19;13
S20;11CM125I19;13
S20;11LC250H20;13
S20;11SD100SH19;11
S20;15GN300L11;12
S20;15LC250L14;18
S20;17VI100P19;6
S20;18ET050TL17;2
S20;20DO130HC20;5
S20;20SA050CD20;14
S24000;49ETVER21;7
S24000;52DE001I21;153
S90000;52DE001I21;100
S24000;52HD006A18;251
S90000;52HD006A18;221
S24000;52MMBPNO21;22
S24000;52RIB1NO21;14
S90000;01BL012B20H;1
S24000;01CL175K22;2
S24000;01CV050K18;7
S90000;01EM075K18;1
S24000;11BH050A18;2
S90000;11BH050A18;8
S24000;11EP010H19;1
S24000;11MH075A19;4
S90000;11MH075A19;1
S90000;15LC075L15;12
S24000;15LM300L11;7
S90000;15LM300L11;10
S24000;17RS500G21;10
S90000;17SH075FV21;24
S24000;17SH300E19;11
S24000;17SH300P19;12
S90000;17SH300P19;11
S90000;18ET010TL17;2
S90000;24GD250RJ21H;2
S24000;27MP150I20;7
S90000;27MP150I20;8
S90000;29EC200A13;1
S24000;29EC200A21;11
S90000;29EC200A21;16
S24000;29MA030A17;29
S24000;38WM065A18;4
S90000;38WM065A18;2
S90000;49BOTNO21;44
S90000;49CL1SA18;234
S24000;49CRM2NO21;1
S90000;49EP005H20;48
S90000;49HD035A15;14
S90000;49PI010K18;94
S90000;49TOTMC20;117
S90000;49VANSA19;32
S24000;52CARDNO21;8
S90000;52CARDNO21;6
S90000;52CP006K17;176
S24000;52DH001I20;250
S90000;52DH001I20;332
S24000;52FP0015I19;64
S90000;52FP0015I19;100
S24000;52MS001I20;165
S90000;52MS001I20;378
S24000;98BBDF015IM0;16
S24000;01CM300K20;8
S27000;01SA100VE20;10
S28000;01SA100VE20;24
S15;01SL500LV20;9
S27000;01SL500LV20;2
S28000;01SL500LV20;12
S15;11SA100H20;10
S27000;11SA100H20;8
S28000;11SA100H20;2
S15;15DO050VA5;11
S27000;15DO050VA5;5
S28000;15DO050VA5;12
S15;15MA075L11;17
S27000;15MA075L11;11
S28000;15MA075L11;57
S28000;20AR075CD16A;3
S15;24MA075R18;7
S27000;24MA075R18;29
S28000;24MA075R18;62
S15;24SA050R18;19
S27000;24SA050R18;6
S28000;24SA050R18;14
S15;27DB015I20;11
S27000;27DB015I20;4
S28000;27DB015I20;12
S15;27TS001I20;290
S27000;27TS001I20;199
S28000;27TS001I20;323
S15;29VC240A16;2
S28000;29VC240A16;25
S27000;49TOBACH20;16
S27000;52AS006FV21;199
S28000;52AS006FV21;390
S15;52BY001I19;20
S27000;52BY001I19;155
S28000;52BY001I19;323
S15;52GIF1NO21;6
S27000;52GIF1NO21;3
S28000;52GIF1NO21;5
S15;52KT10PCO18;2
S15;52LASANO21;231
S27000;52LASANO21;28
S28000;52LASANO21;57
S15;52STINO21;16
S27000;52STINO21;9
S28000;52STINO21;31
S28000;52LGEBAG19;285
S15;52LGEBOX18;9
S27000;52LGEBOX18;10
S28000;52LGEBOX18;10
S27000;52SAMPENV18;108
S28000;52SAMPENV18;526
S27000;52SMBANO21;43
S15;27DS030I20;4
S29000;27HC050I18;8
S29000;29MA075A21;17
S29000;38MI150A18;4
S29000;52BGERIB18;2
S29000;52EV002I19;93
S29000;52KTRANGE17;1
S29000;52LC006A20;84
S29000;52MGEBOX18;32
S29000;52MGENSA21;9
S29000;52MMBBNO21;1
S29000;52RIB2NO21;12
S29000;01BL012C21H;5
S29000;01BM150K19;39
S29000;01HV030K16;7
S29000;01SA100VE20;5
S29000;01SL500LV20;11
S29000;11SA100H20;9
S29000;15DO050VA5;13
S29000;15MA075L11;26
S29000;24MA075R18;32
S29000;24SA050R18;13
S29000;27DB015I20;26
S29000;27TS001I20;87
S29000;29VC240A16;12
S29000;49TOBACH20;23
S29000;52AS006FV21;186
S29000;52BY001I19;218
S29000;52GIF1NO21;6
S29000;52LASANO21;16
S29000;52STINO21;15
S29000;01CL200K17;2
S29000;01EC200K17;1
S29000;01KTKAR21;21
S29000;01SA250VE20;5
S29000;01SL300VE20;8
S29000;11CM030O21;27
S29000;11SD100CS19;9
S29000;15CP250VA5;2
S29000;17AS500E19;14
S29000;17CS150P19;7
S29000;17RS500FV21;25
S29000;17SH300G21;15
S29000;20FE050H20;4
S29000;24EDT10C21;1
S29000;24MA030RV19;9
S29000;24SA050CB6;13
S29000;27DC050I20;29
S29000;27MS050I20;8
S29000;27RM300I20;17
S29000;29MAV075A19;2
S29000;49MA010L16;23
S29000;49OR005I21;57
S29000;52CCRAC21;1
S90000;01CM300K20;12
S90000;01MF150F21H;1
S24000;01PI030K18;7
S90000;01PI030K18;9
S24000;01SL0045K13;18
S90000;01SL0045K13;4
S24000;11LC250O21;10
S90000;11LC250O21;7
S24000;11SA100H19;1
S90000;11SA100H19;11
S90000;15GD075L15;21
S24000;15GD250VA20;5
S24000;15LC250VA20;10
S90000;15LC250VA20;12
S24000;17AS500P19;2
S90000;17AS500P19;17
S24000;17SH500E19;16
S90000;18LC250TL17ET;1
S24000;24MA030RV19;14
S24000;27DCB060I17;6
S90000;27DCB060I17;4
S24000;27ER015I20;3
S90000;27ER015I20;60
S24000;27OR030I21;10
S90000;27OR030I21;3
S24000;29HD500A15;9
S90000;29HD500A15;38
S24000;29RH500A15;18
S90000;29RH500A15;33
S24000;38RC050A18;9
S90000;38RC050A18;7
S90000;49CRM1NO20;2
S90000;49CRM1NO21;19
S90000;49P2DTS19;14
S90000;49PADCL20;101
S90000;49POCB19;1
S24000;52AS006P19;165
S90000;52AS006P19;124
S90000;52CARDENV18;3
S24000;52GIF2NO21;6
S90000;52GIF2NO21;1
S24000;52MIGEBAG19;102
S24000;52PS0015R21;151
S90000;52PS0015R21;100
S24000;52SH006G21;204
S90000;52SH006G21;482
S24000;52TS001R21;90
S90000;52TS001R21;100
S24000;01BP050K21;9
S90000;01BP050K21;8
S90000;01CD250F21H;3
S90000;01CL050K21;1
S90000;01CV050K18;8
S21000;11CM125I19;9
S21000;11SD100SH19;12
S21000;15GN300L11;9
S21000;15LC250L14;42
S21000;52LASANO21;57
S21000;52LC006A20;259
S21000;52PS0015R21;169
S21000;52GIF2NO21;6
S21000;49TCMNO21;1
S21000;52BY001I19;85
S21000;15RC500VB17;6
S21000;17VI100P19;4
S21000;18ET050TL17;5
S21000;20DO130HC20;7
S21000;20SA050CD20;4
S21000;24AF050R18;5
S21000;24LC250R20;13
S21000;24RO010CB4;7
S21000;27DC030I20;3
S21000;27DH015I20;6
S21000;27DS030I20;4
S21000;52AS006E19;344
S21000;52MA003K16A;303
S21000;52MOCOL216;1
S21000;52RBO1NO21;2
S21000;52SH006FV21;151
S21000;98BBSH050A0;26
S21000;01CMJ075K21;31
S21000;01HD250K17;8
S21000;01LC500K20;9
S21000;11BC100G21;37
S21000;11ET010H20;7
S21000;11GE075I20;4
S21000;11LH200I19;6
S21000;11SA050O21;2
S21000;11SP200SH19;12
S21000;15DF200VBL21;9
S21000;15MA075VB4;6
S21000;17SH060SE21;9
S21000;20AR075O20;11
S21000;24ET075CB4;1
S21000;24GD250R20;42
S21000;27OR050I21;35
S21000;29ASH240A20;4
S21000;38BV050A19;4
S21000;38UV030A18;9
S21000;49PO1NH18;52
S21000;52ACRAC21;2
S21000;52AF006G20;252
S21000;52DCRAC21;2
S21000;52SMSANO21;34
S21000;98BBHD050A0;73
S21000;01SA050KL20;19
S27000;27DS030I20;5
S28000;27DS030I20;11
S27000;49CAB1NO21;1
S15;52AS006E19;34
S27000;52AS006E19;188
S28000;52AS006E19;394
S15;52MA003K16A;204
S27000;52MA003K16A;292
S28000;52MA003K16A;446
S15;52MOCOL216;1
S28000;52MOCOL216;3
S15;52RBO1NO21;3
S27000;52RBO1NO21;3
S15;52SH006FV21;152
S27000;52SH006FV21;319
S28000;52SH006FV21;324
S27000;52SMBBNO21;1
S15;98BBSH050A0;26
S27000;98BBSH050A0;49
S28000;98BBSH050A0;28
S15;38BV050A19;4
S27000;38BV050A19;4
S28000;38BV050A19;4
S15;38UV030A18;8
S27000;38UV030A18;7
S28000;38UV030A18;15
S27000;49PO1NH18;15
S28000;49PO1NH18;50
S15;52ACRAC21;2
S27000;52ACRAC21;2
S15;52AF006G20;102
S27000;52AF006G20;170
S28000;52AF006G20;243
S15;52DCRAC21;2
S27000;52DCRAC21;2
S15;52SMSANO21;53
S27000;52SMSANO21;20
S28000;52SMSANO21;61
S15;98BBHD050A0;120
S27000;98BBHD050A0;19
S28000;98BBHD050A0;114
S15;01LC250K21H;4
S15;01SA050KL20;24
S27000;01SA050KL20;7
S28000;01SA050KL20;7
S15;01SB020K21;8
S27000;01SB020K21;12
S28000;01SB020K21;24
S15;11BP100I19;5
S27000;11BP100I19;6
S28000;11BP100I19;8
S15;11BR100A20;9
S27000;11BR100A20;4
S10;01EM075K20;5
S10;01MA030K21H;1
S10;01MA030K22;9
S10;01SA100LT20;17
S10;11BG140SH19;7
S10;11ET050H20;4
S10;11LC250H19;9
S10;11SD100SL19;5
S10;15SA070VB6;4
S10;17AS075E19;21
S10;20GD250CD20;7
S10;20HR050H20;4
S10;24GD500R19;4
S10;24MA030RE19;2
S10;27DL200I20;5
S10;27HC050I18;4
S10;27OR030I19;18
S10;29MA075A21;24
S10;38MI150A18;8
S10;52BGERIB18;1
S10;52EV002I19;3
S10;52LC006A20;670
S10;52MGEBOX18;37
S10;52MGENSA21;127
S10;52MMBBNO21;17
S10;52RIB2NO21;9
S10;01BL012C21H;10
S10;01BM150K19;8
S10;01HV030K16;8
S10;01SA100VE20;16
S10;01SL500LV20;4
S10;11SA100H20;4
S10;15DO050VA5;6
S10;15MA075L11;14
S10;24GC150C21;2
S10;24GM030C21;8
S10;24SA050R18;10
S10;27DB015I20;9
S10;27TS001I20;183
S10;29VC240A16;7
S10;49DISC3NO21;1
S10;49LD030I20;1
S10;49TOBACH20;28
S10;52BY001I19;534
S10;52GIF1NO21;3
S10;52LASANO21;73
S10;52STINO21;10
S10;01BL012F21H;1
S10;01CL200K17;4
S10;01SA250VE20;29
S10;01SL300VE20;4
S10;11CM030O21;12
S10;11SD100CS19;6
S10;17AS500E19;4
S10;17CS150P19;28
S10;17RS500FV21;17
S10;17SH300G21;6
S10;20FE050H20;4
S10;24EDT10C21;11
S10;24MA075R18;29
S10;24SA050CB6;1
S10;27DC050I20;10
S10;27MS050I20;15
S10;27RM300I20;11
S10;29MAV075A19;12
S10;49OR005I21;23
S10;52CCRAC21;3
S10;52LGEBAG19;100
S10;52LGEBOX18;6
S10;52SAMPENV18;200
S10;52SMBANO21;43
S10;01CL300KB20;2
S10;01CP200K22;4
S10;01HDR500K20;8
S10;01SA100LV20;19
S10;11BG140SL19;8
S10;11CM125I19;6
S10;11LC250H20;14
S10;11SD100SH19;8
S10;15GN300L11;8
S10;15LC250L14;12
S10;17VI100P19;7
S10;18ET050TL17;1
S10;20DO130HC20;6
S10;20SA050CD20;4
S10;24AF050R18;4
S10;24LC250R20;21
S10;24RO010CB4;7
S10;27DC030I20;4
S10;27DH015I20;12
S10;27DS030I20;5
S10;52AS006E19;54
S10;52MA003K16A;449
S10;52RBO1NO21;4
S10;52SH006FV21;204
S10;52SMBBNO21;3
S10;98BBSH050A0;29
S10;01CMJ075K21;15
S10;01HD250K17;4
S10;01LC500K20;15
S10;11BC100G21;47
S10;11ET010H20;9
S10;11GE075I20;4
S10;11LH200I19;8
S10;11SA050O21;24
S10;11SP200SH19;8
S10;15GD250VB21;10
S10;15GM065L20;11
S10;15MA075VB4;21
S10;15RG500VA20;10
S29000;52LGEBOX18;5
S29000;01CL300KB20;7
S29000;01CP200K22;6
S29000;01HDR500K20;22
S29000;01SA100LV20;14
S29000;11BG140SL19;13
S29000;11CM125I19;14
S29000;11LC250H20;17
S29000;11SD100SH19;16
S29000;15GN300L11;17
S29000;15LC250L14;20
S29000;15RC500VB17;32
S29000;17VI100P19;22
S29000;18ET050TL17;1
S29000;20DO130HC20;8
S29000;20SA050CD20;8
S29000;24LC250R20;44
S29000;24RO010CB4;9
S29000;27DC030I20;4
S29000;27DH015I20;21
S29000;27DS030I20;4
S29000;49CAB1NO21;2
S29000;52AS006E19;321
S29000;52LABANO21;4
S29000;52MA003K16A;17
S29000;52RBO1NO21;1
S29000;52SH006FV21;288
S29000;01CMJ075K21;28
S29000;01HD250K17;7
S29000;01LC500K20;15
S29000;11BC100G21;10
S29000;11ET010H20;10
S29000;11GE075I20;4
S29000;11LH200I19;13
S29000;11SA050O21;8
S29000;11SP200SH19;13
S29000;15GM065L20;56
S29000;15MA075VB4;25
S29000;17SH060SE21;12
S29000;20AR075O20;10
S29000;24ET075CB4;5
S29000;24GD250R20;36
S29000;27OR050I21;30
S29000;29ASH240A20;12
S29000;38BV050A19;2
S29000;38UV030A18;16
S29000;52ACRAC21;1
S29000;52AF006G20;98
S29000;52DCRAC21;1
S29000;98BBHD050A0;5
S29000;01SA050KL20;3
S29000;01SB020K21;9
S29000;10KTPWPXM21;1
S20;24LC250R20;8
S20;24RO010CB4;6
S20;27DC030I20;4
S20;27DH015I20;12
S20;27DS030I20;4
S20;52AS006E19;105
S20;52MA003K16A;274
S20;52RBO1NO21;3
S20;52SH006FV21;166
S20;98BBSH050A0;26
S20;01CMJ075K21;22
S20;01HD250K17;11
S20;01LC500K20;9
S20;11BC100G21;31
S20;11ET010H20;9
S20;11GE075I20;8
S20;11LH200I19;13
S20;11SA050O21;6
S20;11SP200SH19;6
S20;15DF200VBL21;4
S20;15GD250VB21;23
S20;15GM065L20;26
S20;15MA075VB4;2
S20;17SH060SE21;10
S20;20AR075O20;8
S20;24ET075CB4;4
S20;24GD250R20;23
S20;27MP050I20;3
S20;27OR050I21;12
S20;29ASH240A20;2
S20;38BV050A19;3
S20;38UV030A18;10
S20;49PO1NH18;4
S20;52ACRAC21;3
S20;52AF006G20;119
S20;52DCRAC21;3
S20;52SMSANO21;5
S20;98BBHD050A0;12
S20;01LC250K21H;6
S20;01SA050KL20;7
S20;01SB020K21;9
S20;11BP100I19;6
S20;11BR100A20;13
S20;11EP050H19;1
S20;15SE400VB5;8
S20;17AS250P19;5
S20;17ER075P19;6
S20;20NV150H20;14
S20;24MA030P15;16
S20;29RC200A20;27
S20;49BO015CS19;5
S20;49MA010A21X;23
S20;49POCKNO21;23
S20;52DS001I20;104
S20;52HV001K18;38
S21000;01SB020K21;1
S21000;11BP100I19;6
S21000;11BR100A20;19
S21000;15SE400VB5;4
S21000;17AS250P19;4
S21000;17ER075P19;4
S21000;20NV150H20;13
S21000;24MA030P15;21
S21000;29RC200A20;21
S21000;49BO015CS19;13
S21000;49MA010A21X;25
S21000;49POCKNO21;25
S21000;52DS001I20;145
S21000;52MGEBAG19;67
S21000;52OR001I21;401
S21000;98BBSA050LT1;95
S21000;01EN300KB19;12
S21000;01HD500K20;7
S21000;01MA150K22;16
S21000;01SL500VE20;16
S21000;11BO100CS19;13
S21000;11ET010O21;8
S21000;11SD100SI19;2
S21000;15AS250VA18;4
S21000;17RS500E20;30
S21000;17SH500G21;11
S21000;20DO050O20;7
S21000;20ET075HC20;6
S21000;24MA030RA19;2
S21000;24MA075P15;24
S21000;27DH030I20;7
S21000;27ER050I21;11
S21000;27HSR030I16;4
S21000;27MI150I20;6
S21000;29LC200A20US;11
S21000;29SE125A21;9
S21000;52AS006G21;150
S21000;52GD0015A18;122
S21000;52LT002R21;192
S21000;52RBO3NO21;2
S21000;52SGEBAG19;757
S21000;01BK010K14;7
S21000;01LC250K17;10
S21000;01PI075K18;8
S21000;01SA250LT20;28
S21000;11BG140SI19;7
S21000;11GM200I19;18
S21000;15GD250VB17;12
S21000;15GG150VAL21;37
S21000;15MA030VAL21;9
S21000;17AS500FV21;18
S21000;17RC500E20;8
S21000;17SH075E19;62
S20;52MGEBAG19;39
S20;52OR001I21;549
S20;01EN300KB19;11
S20;01HD500K20;13
S20;01MA150K22;22
S20;01SL500VE20;8
S20;11BO100CS19;23
S20;11ET010O21;3
S20;11SD100SI19;9
S20;15AS250VA18;6
S20;17RS500E20;21
S20;17SH500G21;7
S20;20DO050O20;6
S20;20ET075HC20;4
S20;24GP010RJ21H;3
S20;24MA030RA19;12
S20;24MA075P15;17
S20;27DH030I20;11
S20;27ER050I21;9
S20;27HSR030I16;5
S20;27MI150I20;6
S20;29LC200A20US;21
S20;29SE125A21;7
S20;52AS006G21;249
S20;52GD0015A18;88
S20;52LT002R21;128
S20;52RBO3NO21;4
S20;52SGEBAG19;308
S20;01BK010K14;21
S20;01LC250K17;21
S20;01PI075K18;6
S20;01SA250LT20;15
S20;11BG140SI19;13
S20;11GM200I19;15
S20;15GG150VAL21;37
S20;17AS500FV21;8
S20;17RC500E20;10
S20;17SH075E19;13
S20;18GD250TL17ET;2
S20;20ET075CD20;4
S20;24GD250CB4;2
S20;24LC250CB4;7
S20;27BY015I19;4
S20;27DE015I21;9
S20;27FP050I19;3
S20;27MQ065I15A;4
S20;29SA050A17;5
S20;52HS001I17;112
S20;52HS004A18;125
S20;52MMBANO21;2
S20;52SH006E19;164
S20;01HF100K17;7
S20;01MA075K22;33
S20;01SE125K21;3
S29000;11BP100I19;8
S29000;11BR100A20;8
S29000;11EP050H19;4
S29000;11EP090H19;1
S29000;15ET100VA20;4
S29000;15SE400VB5;4
S29000;17AS250P19;4
S29000;17ER075P19;18
S29000;20NV150H20;25
S29000;24MA030P15;15
S29000;29RC200A20;50
S29000;49BO015CS19;186
S29000;49MA010A21X;13
S29000;49POCKNO21;13
S29000;52DS001I20;107
S29000;52HV001K18;10
S29000;52OR001I21;300
S29000;01HD500K20;19
S29000;01MA150K22;19
S29000;01SL500VE20;8
S29000;11BO100CS19;21
S29000;11ET010O21;10
S29000;11SD100SI19;11
S29000;15AS250VA18;2
S29000;17RS500E20;64
S29000;17SH500G21;17
S29000;20DO050O20;14
S29000;20ET075HC20;11
S29000;24MA030RA19;7
S29000;24MA075P15;26
S29000;27DH030I20;30
S29000;27ER050I21;8
S29000;27HSR030I16;27
S29000;27MI150I20;4
S29000;29LC200A20US;3
S29000;29SE125A21;9
S29000;49POUCH2NO21;50
S29000;52AS006G21;287
S29000;52GD0015A18;26
S29000;52LT002R21;67
S29000;52RBO3NO21;1
S29000;01BK010K14;13
S29000;01LC250K17;26
S29000;01PI075K18;8
S29000;01SA250LT20;18
S29000;11BG140SH19;12
S29000;11BG140SI19;13
S29000;11GM200I19;26
S29000;15GD250VB17;43
S29000;15MA030VAL21;1
S29000;17AS500FV21;1
S29000;17RC500E20;49
S29000;17SH075E19;61
S28000;11BR100A20;29
S15;11EP050H19;3
S27000;11EP090H19;3
S27000;15ET100VA20;3
S28000;15ET100VA20;5
S15;15SE400VB5;2
S27000;15SE400VB5;4
S15;17AS250P19;4
S27000;17AS250P19;4
S28000;17AS250P19;4
S15;17ER075P19;13
S27000;17ER075P19;4
S28000;17ER075P19;11
S15;20NV150H20;3
S27000;20NV150H20;17
S28000;20NV150H20;51
S15;24MA030P15;13
S27000;24MA030P15;11
S28000;24MA030P15;11
S15;29RC200A20;26
S27000;29RC200A20;9
S28000;29RC200A20;19
S15;49BO015CS19;16
S27000;49BO015CS19;10
S28000;49BO015CS19;60
S15;49MA010A21X;32
S27000;49MA010A21X;20
S28000;49MA010A21X;36
S15;49POCKNO21;32
S27000;49POCKNO21;20
S28000;49POCKNO21;36
S15;52DS001I20;109
S27000;52DS001I20;264
S28000;52DS001I20;493
S15;52MGEBAG19;78
S27000;52MGEBAG19;73
S28000;52MGEBAG19;205
S15;52OR001I21;454
S27000;52OR001I21;644
S28000;52OR001I21;524
S27000;52YGERIB18;1
S15;98BBSA050LT1;10
S28000;98BBSA050LT1;107
S15;29SE125A21;14
S27000;29SE125A21;7
S28000;29SE125A21;12
S15;49POUCH2NO21;41
S28000;49POUCH2NO21;28
S15;52AS006G18;44
S15;52AS006G21;59
S27000;52AS006G21;217
S28000;52AS006G21;380
S15;52GD0015A18;65
S10;17SH060SE21;10
S10;20AR075O20;8
S10;24ET075CB4;5
S10;24GD250R20;21
S10;27MP050I20;45
S10;27OR050I21;26
S10;29ASH240A20;4
S10;38BV050A19;4
S10;38UV030A18;3
S10;49PO1NH18;40
S10;52ACRAC21;3
S10;52AF006G20;363
S10;52DCRAC21;3
S10;52SMSANO21;56
S10;98BBHD050A0;67
S10;SGOCVE600004;1
S10;01SA050KL20;8
S10;01SB020K21;18
S10;11BP100I19;6
S10;11BR100A20;11
S10;15MA030VCL21;20
S10;17AS250P19;4
S10;17ER075P19;5
S10;20NV150H20;13
S10;24MA030P15;13
S10;29RC200A20;18
S10;49BO015CS19;28
S10;49MA010A21X;21
S10;49POCKNO21;21
S10;52DS001I20;132
S10;52MGEBAG19;102
S10;52OR001I21;338
S10;98BBSA050LT1;71
S10;01EN300KB19;14
S10;01HD500K20;5
S10;01MA150K22;19
S10;01SL500VE20;6
S10;11BO100CS19;9
S10;11ET010O21;11
S10;11SD100SI19;9
S10;15AS250VA18;9
S10;17RS500E20;11
S10;17SH500G21;12
S10;20DO050O20;6
S10;20ET075HC20;5
S10;24MA030RA19;5
S10;24MA075P15;15
S10;27DH030I20;8
S10;27ER050I21;9
S10;27HSR030I16;4
S10;27MI150I20;7
S10;29LC200A20US;13
S10;29SE125A21;8
S10;52AS006G21;215
S21000;20ET075CD20;4
S21000;24BR050C21;11
S21000;27BY015I19;4
S21000;27DE015I21;6
S21000;27FP050I19;6
S21000;27MQ065I15A;4
S21000;29SA050A17;2
S21000;49MS008I20;40
S21000;52HS001I17;145
S21000;52HS004A18;304
S21000;52SH006E19;300
S21000;01HF100K17;2
S21000;01MA075K22;20
S21000;01SE125K21;17
S21000;11BG140CS19;1
S21000;11CM030H20;34
S21000;11GD050A18;4
S21000;11PM100SL19;9
S21000;11SP200CS19;7
S21000;15AS150VCL21;10
S21000;15RG500VA20;17
S21000;17AS250G21;5
S21000;17SH500P19;13
S21000;24BL012CB5;7
S21000;24LC250C21;3
S21000;24MA150R19;6
S21000;27HS030I18;4
S21000;29SH240A20;6
S21000;52BCRAC21;2
S21000;52CV0015K18;30
S21000;52MMSANO21;3
S21000;01CMR500K20;5
S21000;01MR030K14;70
S21000;01SA250LV20;20
S21000;01SL300LV20;19
S21000;11CD050A18;6
S21000;11GD250O21;37
S21000;11PM100SH19;14
S21000;15GD250L14;15
S21000;17AF100G20;17
S21000;17AS500G21;8
S21000;17RC500G21;8
S21000;17SE100FV21;10
S21000;17SH300FV21;26
S21000;20DO075CD20;3
S21000;24BR050R19;3
S21000;24EF050R18;2
S21000;24MA075CB4;24
S21000;27OR075I21;4
S21000;38EC015A18;4
S21000;52DB001I20;201
S21000;52LGENSA18;24
S21000;52SGENSA18;84
S24000;01EM075K20;9
S90000;01EM075K20;11
S24000;01MA030K22;35
S90000;01MA030K22;9
S24000;01SA100LT20;15
S90000;01SA100LT20;10
S90000;10BOWEB219;2900
S90000;10BOWEB319;4700
S90000;10BOWEB419;2800
S24000;11BG140SH19;7
S24000;11ET050H20;3
S90000;11ET050H20;4
S24000;11LC250H19;9
S90000;11LC250H19;14
S90000;11MW200I19;1
S24000;11SD100SL19;1
S90000;11SD100SL19;12
S24000;15SA070VB6;11
S90000;15SA070VB6;6
S24000;17AS075E19;18
S90000;17AS075E19;50
S24000;20GD250CD20;12
S90000;20GD250CD20;5
S24000;20HR050H20;5
S90000;20HR050H20;9
S24000;24MA030RE19;16
S90000;24MA030RE19;9
S24000;27DL200I20;5
S90000;27DL200I20;4
S24000;27HC050I18;4
S90000;27HC050I18;5
S90000;27OR030I19;35
S24000;29MA075A21;12
S90000;29MA075A21;12
S24000;38MI150A18;7
S90000;38MI150A18;7
S90000;49DH004I20;592
S90000;49NOTNO21;1
S90000;49TC1NO20;20
S24000;52BGERIB18;2
S90000;52BGERIB18;2
S90000;52EV002I19;27
S24000;52LC006A20;288
S90000;52LC006A20;183
S24000;52MGEBOX18;32
S24000;52MGENSA21;160
S24000;52MMBBNO21;20
S24000;52RIB2NO21;14
S90000;J6185;13
S90000;JIMPN16;61
S24000;01BM150K19;11
S90000;01BM150K19;1
S90000;01CM030K21;2
S27000;52GD0015A18;100
S28000;52GD0015A18;102
S15;52LT002R21;99
S27000;52LT002R21;306
S28000;52LT002R21;218
S27000;52RBO3NO21;3
S15;52SGEBAG19;210
S27000;52SGEBAG19;587
S28000;52SGEBAG19;202
S28000;49MS008I20;99
S15;52HS001I17;226
S27000;52HS001I17;127
S28000;52HS001I17;252
S15;52HS004A18;161
S27000;52HS004A18;112
S28000;52HS004A18;202
S27000;52MMBANO21;34
S15;52SH006E19;123
S27000;52SH006E19;314
S28000;52SH006E19;399
S27000;01HF100K17;4
S28000;01HF100K17;1
S15;01MA075K22;25
S27000;01MA075K22;21
S28000;01MA075K22;13
S15;01SE125K21;14
S27000;01SE125K21;3
S28000;01SE125K21;12
S27000;11BG140CS19;7
S15;11CM030H20;3
S27000;11CM030H20;14
S15;11GD050A18;12
S27000;11GD050A18;7
S28000;11GD050A18;11
S15;11PM100SL19;4
S27000;11PM100SL19;3
S28000;11PM100SL19;2
S15;11SP200CS19;7
S27000;11SP200CS19;2
S28000;11SP200CS19;8
S27000;15RG500VA20;3
S28000;15RG500VA20;7
S15;17AS250G21;11
S27000;17AS250G21;4
S28000;17AS250G21;10
S15;17SH500P19;11
S27000;17SH500P19;6
S28000;17SH500P19;20
S15;24BL012CB5;8
S27000;24BL012CB5;5
S28000;24BL012CB5;7
S15;24LC250C21;5
S28000;24LC250C21;13
S21000;98BBGD050VE2;7
S21000;SGOCVKI00201;6
S21000;SGOCVKI00196;1
S21000;SGOCVKI00195;2
S24000;01HV030K16;2
S90000;01HV030K16;4
S24000;01SA100VE20;25
S90000;01SA100VE20;8
S90000;01SA250VE16;1
S24000;01SL500LV20;7
S90000;01SL500LV20;9
S90000;11EH040A19;11
S90000;11GD050H20;1
S90000;11SA100H20;6
S24000;15DO050VA5;2
S90000;15DO050VA5;8
S90000;15ET100VM20H;1
S24000;15MA075L11;11
S90000;15MA075L11;8
S90000;17AS075G18;108
S90000;17AS075G21;61
S90000;24GM030C21;39
S24000;24MA075R18;13
S90000;24MA075R18;7
S24000;24SA050R18;34
S90000;24SA050R18;8
S24000;27DB015I20;7
S90000;27DB015I20;3
S90000;27KTFCAPAC20;1
S24000;27TS001I20;180
S90000;27TS001I20;676
S90000;29CHALM21;14
S90000;29CHCHB21;14
S90000;29VC240A16;13
S90000;38SM025A19;87
S90000;49DISC3NO21;2
S90000;49DRANO19;17
S90000;49IC1POU20;164
S90000;49IC2POU20;6
S90000;49IC3POU20;27
S90000;49LD030I20;44
S90000;49MASKRS21;29
S90000;49TBL2CH19;3
S24000;49TOBACH20;3
S90000;49TOBACH20;1
S24000;52AS006FV21;170
S90000;52AS006FV21;317
S24000;52BY001I19;250
S90000;52BY001I19;1
S24000;52GIF1NO21;6
S90000;52GIF1NO21;1
S24000;52LASANO21;148
S90000;52LASANO21;60
S24000;52STINO21;13
S90000;52STINO21;1
S90000;98BBSH050AR2;86
S24000;01CL200K17;6
S10;52GD0015A18;51
S10;52LT002R21;308
S10;52RBO3NO21;4
S10;52SGEBAG19;589
S10;01BK010K14;15
S10;01LC250K17;17
S10;01PI075K18;19
S10;01SA250LT20;12
S10;11BG140SI19;7
S10;11GM200I19;11
S10;15GG150VAL21;22
S10;15MA030VAL21;19
S10;17AS075P19;8
S10;17AS500FV21;10
S10;17RC500E20;25
S10;17SH075E19;63
S10;20ET075CD20;4
S10;24BR050C21;5
S10;24LC250CB4;14
S10;27BY015I19;8
S10;27DE015I21;9
S10;27FP050I19;6
S10;27MQ065I15A;7
S10;29SA050A17;4
S10;49MS008I20;49
S10;52HS001I17;140
S10;52HS004A18;329
S10;52MMBANO21;10
S10;52OR001I19;156
S10;52SH006E19;130
S10;01HF100K17;2
S10;01MA075K22;14
S10;01SE125K21;3
S10;11CM030H20;16
S10;11GD050A18;3
S10;11PM100SL19;3
S10;11SP200CS19;5
S10;15AS150VCL21;1
S10;17AS250G21;4
S10;17SH500P19;13
S10;24BL012CB5;5
S10;24LC250C21;9
S10;24MA150R19;8
S10;27HS030I18;6
S10;29SH240A20;4
S10;52BCRAC21;3
S10;52CV0015K18;117
S10;52MMSANO21;19
S10;SGOCVKI00179;1
S10;SGOCVKI00187;1
S10;SGOCVKI00192;2
S10;SGOCVKI00195;2
S10;SGOCVKI00198;1
S10;SGOCVKI00201;4
S29000;20ET075CD20;6
S29000;24GD500C18;2
S29000;24LC250CB4;9
S29000;27BY015I19;5
S29000;27DE015I21;26
S29000;27FP050I19;3
S29000;27MQ065I15A;7
S29000;29HD250A21X;2
S29000;29SA050A17;14
S29000;52HS001I17;170
S29000;52HS004A18;153
S29000;52SH006E19;305
S29000;01HF100K17;11
S29000;01MA075K22;17
S29000;01SE125K21;3
S29000;11BG140CS19;2
S29000;11CM030H20;12
S29000;11GD050A18;10
S29000;11PM100SL19;5
S29000;11SP200CS19;16
S29000;15ET100VB3;3
S29000;15RG500VA20;22
S29000;17AS250G21;6
S29000;17SH500P19;12
S29000;24BL012CB5;12
S29000;24MA150R19;48
S29000;27HS030I18;8
S29000;29SH240A20;15
S29000;52BCRAC21;1
S29000;52CV0015K18;95
S29000;SGOCVKI00176;2
S29000;SGOCVKI00179;1
S29000;SGOCVKI00182;1
S29000;SGOCVKI00185;2
S29000;SGOCVKI00187;1
S29000;SGOCVKI00189;1
S29000;SGOCVKI00191;1
S29000;SGOCVKI00192;22
S29000;SGOCVKI00193;1
S29000;SGOCVKI00194;8
S29000;SGOCVKI00195;21
S29000;SGOCVKI00196;3
S29000;SGOCVKI00197;1
S29000;01CMR500K20;12
S29000;01MR030K14;12
S29000;01SA250LV20;15
S29000;01SL300LV20;5
S29000;10QCRAC21;1
S29000;11CD050A18;20
S29000;11GD250O21;50
S29000;11PM100SH19;8
S29000;15GD250L14;1
S20;11CM030H20;31
S20;11GD050A18;5
S20;11PM100SL19;10
S20;11SP200CS19;10
S20;15ET100VB3;3
S20;15RG500VA20;12
S20;17AS250G21;3
S20;17SH500P19;10
S20;24BL012CB5;11
S20;24LC250C21;8
S20;24MA150R19;13
S20;27HS030I18;7
S20;29SH240A20;1
S20;52BCRAC21;3
S20;52CV0015K18;97
S20;52MMSANO21;73
S20;SGOCVKI00176;1
S20;SGOCVKI00192;9
S20;SGOCVKI00195;5
S20;SGOCVKI00201;1
S20;SGOCVKI00202;1
S20;01CMR500K20;22
S20;01MR030K14;19
S20;01SA250LV20;18
S20;01SL300LV20;9
S20;11CD050A18;4
S20;11GD250O21;19
S20;11PM100SH19;8
S20;15GD250L14;10
S20;17AF100G20;9
S20;17AS500G21;9
S20;17RC500G21;18
S20;17SE100FV21;6
S20;17SH300FV21;16
S20;20DO075CD20;10
S20;24BR050R19;12
S20;24MA075CB4;21
S20;27OR075I21;16
S20;29HD250A15;13
S20;38EC015A18;3
S20;52DB001I20;186
S20;52LGENSA18;82
S20;52SGENSA18;174
S20;98BBGD050VE2;2
S15;24MA150R19;11
S27000;24MA150R19;4
S28000;24MA150R19;10
S15;27HS030I18;5
S27000;27HS030I18;7
S28000;27HS030I18;5
S15;29SH240A20;9
S27000;29SH240A20;3
S28000;29SH240A20;12
S15;52BCRAC21;2
S27000;52BCRAC21;2
S15;52CV0015K18;74
S27000;52CV0015K18;181
S28000;52CV0015K18;142
S15;52MMSANO21;124
S27000;52MMSANO21;46
S28000;52MMSANO21;274
S15;SGOCVKI00176;2
S15;SGOCVKI00189;1
S15;SGOCVKI00191;2
S15;SGOCVKI00194;1
S28000;SGOCVKI00194;1
S15;SGOCVKI00198;1
S28000;SGOCVKI00204;1
S15;52LGENSA18;41
S28000;52LGENSA18;56
S15;52POUDIS18;1
S15;52SGENSA18;15
S27000;52SGENSA18;26
S28000;52SGENSA18;219
S15;98BBGD050VE2;9
S27000;98BBGD050VE2;10
S28000;98BBGD050VE2;9
S10;SGOCVKI00202;2
S10;01CMR500K20;9
S10;01MR030K14;6
S10;01SA250LV20;11
S10;01SL300LV20;4
S10;11CD050A18;3
S10;11PM100SH19;4
S10;17AF100G20;7
S10;17AS500G21;9
S10;17RC500G21;10
S10;17SE100FV21;8
S10;17SH300FV21;7
S10;20DO075CD20;6
S10;24BR050R19;6
S10;24EF050R18;6
S10;24MA075CB4;18
S10;38EC015A18;5
S10;52DB001I20;255
S10;52LGENSA18;102
S10;52SGENSA18;175
S10;98BBGD050VE2;10
S29000;17AF100G20;12
S29000;17AS500G21;16
S29000;17RC500G21;75
S29000;17SE100FV21;20
S29000;17SH300FV21;12
S29000;20DO075CD20;14
S29000;24BR050R19;13
S29000;24KTCBL21;1
S29000;24MA075CB4;33
S29000;27OR075I21;11
S29000;29HD250A15;15
S29000;38EC015A18;8
S29000;49POUIS19;23
S29000;52DB001I20;264
S29000;52SGENSA18;136
S90000;01CL200K17;10
S90000;01MA150K18;1
S24000;01SA250VE20;6
S90000;01SA250VE20;11
S24000;01SL300VE20;7
S90000;01SL300VE20;11
S90000;10CACLA21;13
S24000;11CM030O21;25
S90000;11CM030O21;15
S90000;11GD075O21;1
S90000;11LC075O21;20
S90000;11SD100CS19;6
S90000;15CP250VA5;8
S90000;15ET100VBL21;1
S24000;17AS500E19;10
S90000;17AS500E19;8
S24000;17CS150P19;17
S24000;17RS500FV21;5
S90000;17RS500FV21;7
S90000;17SH300D15;3
S24000;17SH300G21;11
S90000;17SH300G21;4
S90000;18SA075TL17ET;5
S90000;20ET075CD19;7
S24000;20FE050H20;4
S90000;20FE050H20;16
S90000;24EDT10C21;44
S90000;24MA030RV19;8
S24000;24SA050CB6;16
S90000;24SA050CB6;4
S24000;27DC050I20;8
S90000;27DC050I20;8
S24000;27MS050I20;1
S90000;27MS050I20;8
S24000;27RM300I20;10
S90000;27RM300I20;11
S90000;29LC200A21X;36
S24000;29MAV075A19;2
S90000;29MAV075A19;1
S90000;38WS030A18;22
S90000;49LC035CB6;21
S90000;49MA010L16;130
S24000;49OR005I21;88
S24000;52CCRAC21;3
S24000;52ER006P19;40
S24000;52LGEBAG19;43
S24000;52LGEBOX18;6
S90000;52LGEBOX18;39
S24000;52SMBANO21;22
S90000;01CL300KB20;1
S90000;01CP050K22;9
S24000;01CP200K22;1
S90000;01CP200K22;12
S24000;01HDR500K20;9
S90000;01HDR500K20;15
S24000;01SA100LV20;9
S90000;01SA100LV20;11
S24000;11BG140SL19;5
S90000;11BG140SL19;12
S24000;11CM125I19;11
S90000;11CM125I19;3
S24000;11LC250H20;4
S90000;11LC250H20;6
S24000;11SD100SH19;8
S90000;11SD100SH19;13
S90000;15ET100VA5;1
S24000;15GN300L11;7
S90000;15GN300L11;1
S24000;15LC250L14;14
S90000;15LC250L14;7
S90000;15RC500VB17;1
S24000;17SH075G18;7
S90000;17SH075G18;11
S24000;17VI100P19;4
S90000;17VI100P19;10
S90000;18ET050TL17;1
S24000;20DO130HC20;7
S90000;20DO130HC20;8
S24000;20SA050CD20;23
S90000;20SA050CD20;7
S90000;24AF050R18;3
S24000;24LC250R20;10
S90000;24LC250R20;12
S24000;24RO010CB4;5
S90000;24RO010CB4;7
S24000;27DC030I20;3
S90000;27DC030I20;4
S24000;27DH015I20;10
S90000;27DH015I20;3
S24000;27DS030I20;1
S90000;27DS030I20;8
S90000;38FT200A18;20
S90000;49CAB1NO21;3
S90000;49ET010V13;13
S90000;49HS015A18;6
S24000;52AS006E19;230
S90000;52HR004G17;100
S24000;52MA003K16A;139
S90000;52MA003K16A;328
S24000;52MOCOL216;1
S24000;52RBO1NO21;4
S24000;52SH006FV21;213
S90000;52SH006FV21;504
S24000;52SMBBNO21;4
S90000;52SMBBNO21;7
S24000;98BBSH050A0;28
S90000;98BBSH050A0;10
S90000;SGOCVKI00138;2
S90000;SGOCVKI00157;1
S90000;01LC250K21H;5
S24000;01SA050KL20;9
S90000;01SA050KL20;12
S24000;01SB020K21;16
S90000;01SB020K21;5
S90000;10KTPWPXM21;1
S24000;11BP100I19;6
S90000;11BP100I19;8
S24000;11BR100A20;3
S90000;11BR100A20;5
S24000;11EP050H19;4
S90000;11EP050H19;3
S24000;11EP090H19;4
S90000;11GN040A19;88
S24000;15ET100VA20;3
S90000;15ET100VA20;8
S90000;15GC150VBL20;6
S90000;15MA030VCL21;41
S90000;15MF075VM20H;58
S24000;15SE400VB5;4
S90000;15SE400VB5;6
S24000;17AS250P19;4
S90000;17AS250P19;12
S24000;17ER075P19;4
S90000;17ER075P19;3
S24000;20NV150H20;7
S90000;20NV150H20;4
S90000;24LC250R18;2
S24000;24MA030P15;32
S90000;24MA030P15;9
S24000;29RC200A20;5
S90000;49BF2NO20;1
S24000;49BO015CS19;6
S90000;49BO015CS19;15
S24000;49MA010A21X;18
S90000;49MA010A21X;87
S24000;49POCKNO21;18
S90000;49POCKNO21;87
S90000;49TF2CH19;35
S90000;49TFACH18;30
S90000;49TRAVNO21;191
S24000;52DS001I20;171
S90000;52DS001I20;230
S24000;52HV001K18;2
S24000;52MGEBAG19;150
S90000;52MGEBAG19;100
S24000;52OR001I21;342
S90000;52OR001I21;84
S24000;52YGERIB18;2
S90000;98BBSA050LT1;30
S90000;01EN300KB19;23
S24000;01HD500K20;7
S90000;01HD500K20;7
S90000;01KTPWP21;32
S90000;01MA150K21H;1
S24000;01MA150K22;3
S90000;01MA150K22;20
S24000;01SL500VE20;6
S90000;01SL500VE20;8
S24000;11BO100CS19;17
S24000;11ET010O21;7
S90000;11ET010O21;8
S90000;11LC050H20;1
S90000;11LP040028M19;40
S24000;11SD100SI19;4
S90000;11SD100SI19;17
S24000;15AS250VA18;4
S90000;15AS250VA18;8
S90000;15ET100VAL21;1
S24000;17RS500E20;13
S90000;17RS500E20;7
S90000;17SE125D15;23
S24000;17SH500G21;8
S90000;17SH500G21;15
S24000;20DO050O20;6
S90000;20DO050O20;9
S24000;20ET075HC20;5
S90000;20ET075HC20;7
S90000;24ET050RJ21H;1
S24000;24MA030RA19;12
S90000;24MA030RA19;6
S24000;24MA075P15;20
S90000;24MA075P15;11
S90000;24SACHB20;3
S24000;27DH030I20;10
S90000;27DH030I20;7
S24000;27ER050I21;9
S90000;27ER050I21;5
S24000;27HSR030I16;4
S90000;27HSR030I16;4
S24000;27MI150I20;5
S90000;27MI150I20;8
S90000;29BP100A18;1
S24000;29SE125A21;8
S90000;29SE125A21;1
S90000;29SH075A20;17
S90000;38UV030A18;5
S90000;49BI010TL17;87
S90000;49CM010O21;1
S90000;49MWC030I19;101
S90000;49POUCB21;6
S90000;49POUID20;27
S90000;52AS006G18;1
S24000;52AS006G21;209
S90000;52AS006G21;399
S24000;52GD0015A18;104
S24000;52LT002R21;125
S90000;52LT002R21;100
S24000;52RBO3NO21;4
S24000;52SGEBAG19;159
S24000;01BK010K14;8
S90000;01BK010K14;6
S24000;01LC250K17;8
S24000;01MF030F21H;2
S24000;01PI075K18;7
S90000;01PI075K18;15
S24000;01SA250LT20;6
S90000;01SA250LT20;11
S90000;11BG140SH19;3
S24000;11BG140SI19;6
S90000;11BG140SI19;9
S24000;11GM200I19;18
S90000;11GM200I19;3
S90000;15ETKAR21;16
S90000;15GG150VAL21;204
S90000;15MA030VAL21;48
S90000;17AS075P19;91
S24000;17AS500FV21;3
S90000;17AS500FV21;17
S24000;17RC500E20;7
S90000;17RC500E20;20
S24000;17SH075E19;44
S24000;20ET075CD20;6
S90000;20ET075CD20;8
S90000;24BR050C21;42
S90000;24GD250CB4;1
S90000;24LC250CB4;8
S24000;27BY015I19;7
S90000;27BY015I19;8
S24000;27DE015I21;9
S90000;27DE015I21;10
S24000;27FP050I19;3
S90000;27FP050I19;8
S24000;27MQ065I15A;5
S90000;27MQ065I15A;5
S90000;29HD250A21X;11
S90000;29KTAMA21;1
S90000;29MA075A19;1
S24000;29SA050A17;7
S90000;29SA050A17;5
S90000;49CAS1NO21;1
S90000;49CP008I19;32
S90000;49DC008I20;17
S90000;49ET007CB4;45
S90000;49MA010R18;142
S90000;49MS008I20;159
S90000;49PO2RS21;96
S90000;49PO2SA19;30
S24000;52HS001I17;105
S24000;52HS004A18;149
S24000;52SH006E19;215
S90000;52SH006E19;72
S90000;52TBO1M21;42
S90000;52TBO2M21;37
S90000;01CL200K21;1
S24000;01HF100K17;3
S90000;01HF100K17;3
S24000;01MA075K22;25
S90000;01MA075K22;10
S24000;01SE125K21;8
S90000;01SE125K21;2
S24000;11CM030H20;34
S90000;11CM030H20;13
S24000;11GD050A18;1
S90000;11GD050A18;1
S90000;11PM100SL19;9
S24000;11SP200CS19;1
S90000;11SP200CS19;7
S90000;15AS150VCL21;48
S90000;15CF150VBL21;12
S90000;15ET100VB3;7
S90000;15GD250VA5;1
S24000;15RG500VA20;6
S90000;15RG500VA20;3
S90000;17AS075FV21;102
S24000;17AS250G21;10
S90000;17AS250G21;9
S90000;17SH075P19;1
S24000;17SH500P19;12
S90000;17SH500P19;9
S24000;24BL012CB5;1
S90000;24BL012CB5;8
S90000;24GD075R20;3
S90000;24LC250C21;13
S24000;24MA150R19;8
S90000;24MA150R19;7
S24000;27HS030I18;5
S90000;27HS030I18;5
S24000;29SH240A20;2
S90000;29SH240A20;7
S90000;49EP005TL17ET;9
S90000;49FCROL21;7
S90000;49LT030R21;9
S90000;49PO2HER20;22
S24000;52BCRAC21;3
S24000;52CV0015K18;60
S90000;52DL002I17;100
S24000;52MMSANO21;63
S90000;52MMSANO21;120
S90000;98BBSA025LT2;77
S90000;SGOCVKI00176;7
S90000;SGOCVKI00177;13
S90000;SGOCVKI00178;28
S90000;SGOCVKI00179;11
S90000;SGOCVKI00180;10
S90000;SGOCVKI00181;26
S90000;SGOCVKI00182;17
S90000;SGOCVKI00184;16
S90000;SGOCVKI00185;2
S90000;SGOCVKI00186;1
S90000;SGOCVKI00187;13
S90000;SGOCVKI00188;21
S90000;SGOCVKI00189;10
S90000;SGOCVKI00190;8
S90000;SGOCVKI00191;21
S90000;SGOCVKI00193;11
S24000;SGOCVKI00194;4
S24000;SGOCVKI00196;1
S90000;SGOCVKI00198;9
S90000;SGOCVKI00201;18
S90000;SGOCVKI00204;17
S90000;SGOCVKI00205;33
S90000;SGOCVKI00208;14
S24000;01CMR500K20;3
S90000;01CMR500K20;5
S24000;01MR030K14;33
S90000;01MR030K14;5
S24000;01SL300LV20;5
S90000;01SL300LV20;13
S24000;11CD050A18;3
S90000;11CD050A18;7
S24000;11GD250O21;15
S90000;11GD250O21;7
S90000;11PM100DE20H;4
S24000;11PM100SH19;4
S90000;11PM100SH19;6
S90000;15CL150VM20H;1
S24000;15GD250L14;7
S90000;15GD250L14;3
S24000;17AF100G20;9
S24000;17AS500G21;7
S90000;17AS500G21;9
S24000;17RC500G21;15
S90000;17RC500G21;3
S24000;17SE100FV21;10
S90000;17SE100FV21;1
S24000;17SH300FV21;15
S90000;17SH300FV21;7
S24000;20DO075CD20;4
S90000;20DO075CD20;5
S24000;24BR050R19;8
S90000;24EF050R18;12
S24000;24MA075CB4;15
S90000;24MA075CB4;14
S24000;27OR075I21;7
S90000;29HD250A15;1
S24000;38EC015A18;3
S90000;38EC015A18;7
S90000;38WC050A18;35
S90000;49BP010K19;20
S90000;49CP020K22;400
S24000;49EV030I19;1
S90000;49LC020A15;5
S90000;49MA010A17;30
S90000;49MA010VB3;1
S90000;49TRSOL15;16
S24000;52DB001I20;224
S90000;52DB001I20;157
S90000;52HCTM21;25
S24000;52LGENSA18;89
S24000;52SGENSA18;8
S24000;98BBGD050VE2;10
