S90000;01BK010K14;1
S90000;01BL012K18;6
S90000;01BL012KC22H;11
S90000;01BL012KG22H;16
S90000;01BM050K23;7
S90000;01BM150K23;28
S90000;01BP050K21;8
S90000;01CCJ200K22;15
S90000;01CD250K17;12
S90000;01CD250K23;6
S90000;01CD250KC22H;3
S90000;01CE200KC22H;16
S90000;01CF030KB23;4
S90000;01CF050K22;1
S90000;01CL050K21;8
S90000;01CL175K22;5
S90000;01CL200K17;18
S90000;01CL200KG22H;7
S90000;01CM300K20;9
S90000;01CM500K20;15
S90000;01CMJ075K21;7
S90000;01CMR500K20;2
S90000;01CP050K22;21
S90000;01CP100K21H;8
S90000;01CP200K22;1
S90000;01CPR200K22;7
S90000;01CV050K18;18
S90000;01CV050K22;6
S90000;01EC200K17;2
S90000;01EC200K22;13
S90000;01EM030K23;10
S90000;01EM075K20;8
S90000;01HD250K17;6
S90000;01HD500K20;8
S90000;01HDR500K20;16
S90000;01HN0075K19;6
S90000;01HN0075K23;7
S90000;01HV030K16;4
S90000;01HV030K23;4
S90000;01KTPWP21;13
S90000;01LB012KB23;9
S90000;01MA030K22;2
S90000;01MA030K22H;21
S90000;01MA030KC22H;1
S90000;01MA030KG22H;9
S90000;01MA075K22;11
S90000;01MA150K22;11
S90000;01MA150KC22H;25
S90000;01MD200KG22H;10
S90000;01MR030K14;14
S90000;01PI030K18;12
S90000;01PI150K18;9
S90000;01PWPKT22;22
S90000;SGOCVKI00235;3
S20;01BK010K14;23
S20;01BL012K18;27
S20;01BM050K23;9
S20;01BM150K23;23
S20;01BP050K21;6
S20;01CCJ200K22;10
S20;01CD250K23;19
S20;01CL050K21;12
S20;01CL175K22;5
S20;01CM300K20;4
S20;01CM500K20;8
S20;01CMJ075K21;4
S20;01CMR500K20;15
S20;01CP200K22;19
S20;01CPR200K22;12
S20;01CV050K22;14
S20;01EC200K22;9
S20;01EM030K23;9
S20;01HD250K17;8
S20;01HD500K20;5
S20;01HDR500K20;9
S20;01HF100K17;10
S20;01HN0075K23;11
S20;01HV030K23;7
S20;01LC250K17;1
S20;01LC250K23;2
S20;01LT300K20;5
S20;01MA030K22;31
S20;01MA075K22;15
S20;01MA150K22;18
S20;01MA150KG22H;15
S20;01MR030K14;5
S20;01PI030K18;13
S20;01PI150K18;16
S20;01RL500K20;8
S20;01RV500K20;2
S20;01SA100LT20;21
S20;01SA100LV20;25
S20;01SA100VE20;16
S20;01SA250LT20;18
S20;01SA250LV20;19
S20;01SA250VE20;20
S20;01SA300KRO22;6
S20;01SA500KRO22;9
S20;01SAR500KRO22;11
S20;01SL0045K13;31
S20;01SL300LV20;4
S20;01SL300VE20;11
S20;01SL500LV20;6
S20;01SL500VE20;6
S20;11AS040SG22;19
S20;11AT050HL23;23
S20;11BG140CS19;10
S20;11BG140SH19;8
S29000;01BK010K14;23
S29000;01BL012K18;21
S29000;01BM050K23;17
S29000;01BM150K23;27
S29000;01BP050K21;4
S29000;01CCJ200K22;19
S29000;01CD250K23;24
S29000;01CF050K22;4
S29000;01CL050K21;5
S29000;01CL175K22;5
S29000;01CL200KG22H;5
S29000;01CM300K20;5
S29000;01CM500K20;22
S29000;01CMJ075K21;25
S29000;01CMR500K20;29
S29000;01CP200K22;24
S29000;01CPR200K22;19
S29000;01CV050K22;5
S29000;01EC200K22;21
S29000;01EM030K23;15
S29000;01HD250K17;11
S29000;01HD500K20;24
S29000;01HDR500K20;24
S29000;01HF100K17;10
S29000;01HN0075K23;19
S29000;01HV030K23;4
S29000;01LB012KB23;15
S29000;01LC250K17;1
S29000;01LC250K23;2
S29000;01LT300K20;19
S29000;01MA030K22;41
S29000;01MA075K22;16
S29000;01MA150K22;50
S29000;01MR030K14;18
S29000;01PI030K18;6
S29000;01PI150K18;25
S29000;01RL500K20;21
S29000;01RV500K20;22
S29000;01SA100LT20;19
S29000;01SA100LV20;18
S29000;01SA100VE20;13
S29000;01SA250LT20;29
S29000;01SA250LV20;18
S29000;01SA250VE20;29
S29000;01SA300KRO22;5
S29000;01SA500KRO22;6
S29000;01SAR500KRO22;20
S29000;01SL0045K13;43
S29000;01SL300LV20;5
S29000;01SL300VE20;6
S29000;01SL500LV20;12
S29000;01SL500VE20;12
S10;01BK010K14;16
S10;01BL012K18;8
S10;01BM050K23;10
S10;01BM150K23;21
S10;01BP050K21;6
S10;01CCJ200K22;14
S10;01CD250K23;21
S10;01CL050K21;10
S10;01CL125KB23;5
S10;01CL175K22;4
S10;01CM300K20;11
S10;01CM500K20;1
S10;01CMJ075K21;15
S10;01CMR500K20;10
S10;01CP200K22;9
S10;01CPR200K22;12
S10;01CV050K22;5
S10;01EC200K22;12
S10;01EM030K23;10
S10;01HD250K17;5
S10;01HD500K20;6
S10;01HDR500K20;8
S10;01HF100K17;6
S10;01HN0075K23;1
S10;01HV030K16;3
S10;01HV030K23;4
S10;01LB012KB23;4
S10;01LC250K17;1
S10;01LC250K23;11
S10;01LT300K20;16
S10;01MA030K22;36
S10;01MA075K22;19
S10;01MA150K22;15
S10;01MR030K14;28
S10;01PI030K18;3
S10;01PI150K18;13
S10;01RL500K20;9
S10;01RV500K20;7
S10;01SA100LT20;12
S10;01SA100LV20;9
S10;01SA100VE20;11
S10;01SA250LT20;17
S10;01SA250LV20;16
S10;01SA250VE20;18
S10;01SA300KRO22;8
S10;01SA500KRO22;5
S10;01SAR500KRO22;12
S10;01SL0045K13;33
S10;01SL300LV20;5
S10;01SL300VE20;9
S10;01SL500LV20;6
S10;01SL500VE20;8
S10;11AS040SG22;12
S10;11AT050HL23;20
S90000;01RL500K20;11
S90000;01RV500K20;7
S90000;01SA050KC22H;8
S90000;01SA050KG22H;11
S90000;01SA100LT20;10
S90000;01SA100LV20;11
S90000;01SA100VE20;13
S90000;01SA250LT20;12
S90000;01SA250VE20;7
S90000;01SA300KRO22;8
S90000;01SA500KRO22;13
S90000;01SAR500KRO22;14
S90000;01SL0045K13;11
S90000;01SL0045KR22;20
S90000;01SL300LV20;8
S90000;01SL300VE20;9
S90000;01SL500LV20;3
S90000;01SL500RO20;1
S90000;01SL500VE20;16
S90000;10BOWEB219;311
S90000;10BOWEB319;155
S90000;10BOWEB419;463
S90000;11BG140CS19;6
S90000;11BG140SH19;10
S90000;11BG140SI19;10
S90000;11BG140SL19;12
S90000;11BH050A18;9
S90000;11BP100I19;8
S90000;11BR100A20;4
S90000;11CD050A18;6
S90000;11CF100TR19;3
S90000;11CM030H19;12
S90000;11CM030H20;13
S90000;11CM125I19;5
S90000;11EH150A18;10
S90000;11EP010H19;3
S90000;11EP050H19;5
S90000;11ET010H20;10
S90000;11ET050H20;8
S90000;11ET075O21;16
S90000;11FAG10TR19;5
S90000;11GD050A18;8
S90000;11GD075O21;365
S90000;11GD250H19;11
S90000;11GD250H20;15
S90000;11GD250O21;8
S90000;11GE075I20;5
S90000;11GM200I19;5
S90000;11GN195A18;6
S90000;11HE005CS19;12
S90000;11LC250H19;11
S90000;11LC250H20;12
S28000;01BK010K14;15
S30000;01BK010K14;21
S28000;01BL012K18;21
S30000;01BL012K18;9
S28000;01BM050K23;6
S30000;01BM050K23;12
S28000;01BM150K23;8
S30000;01BM150K23;10
S28000;01BP050K21;9
S30000;01BP050K21;7
S28000;01CCJ200K22;23
S30000;01CCJ200K22;14
S28000;01CD250K23;43
S30000;01CD250K23;13
S30000;01CF030KB23;12
S30000;01CF050K22;6
S28000;01CL050K21;8
S30000;01CL050K21;8
S30000;01CL125KB23;8
S28000;01CL175K22;4
S30000;01CL175K22;5
S28000;01CL200KG22H;8
S30000;01CL200KG22H;1
S28000;01CM300K20;13
S30000;01CM300K20;3
S28000;01CM500K20;12
S30000;01CM500K20;11
S28000;01CMJ075K21;36
S30000;01CMJ075K21;9
S28000;01CMR500K20;12
S30000;01CMR500K20;1
S28000;01CP200K22;17
S30000;01CP200K22;7
S28000;01CPR200K22;10
S30000;01CPR200K22;10
S28000;01CV050K22;7
S30000;01CV050K22;6
S28000;01EC200K22;12
S30000;01EC200K22;14
S28000;01EM030K23;9
S30000;01EM030K23;10
S28000;01HD250K17;10
S30000;01HD250K17;3
S28000;01HD500K20;15
S30000;01HD500K20;11
S28000;01HDR500K20;12
S30000;01HDR500K20;13
S28000;01HF100K17;5
S30000;01HF100K17;2
S28000;01HN0075K23;11
S30000;01HN0075K23;11
S28000;01HV030K16;2
S30000;01HV030K16;3
S20;49GD035CB21;17
S20;49GD035CB5;7
S20;49HD035A15;19
S20;49HD035K17;17
S20;49LC020A20;16
S20;49LD030I21;8
S20;49MA010A17;3
S20;49MA010K22;38
S20;49MA010VB3;32
S20;49MC014I23;27
S20;49MTAT23;9
S20;49OR005I21;79
S20;49POUM23;12
S20;49SH035E21;15
S10;52AF006G20;92
S20;52AF006G20;55
S10;52AS006E19;59
S20;52AS006E19;89
S10;52AS006FV21;65
S20;52AS006FV21;41
S10;52AS006G21;56
S20;52AS006G21;43
S10;52AS006P19;10
S20;52AS006P19;22
S10;52BY001I22;194
S20;52BY001I22;197
S10;52CL0015K21;20
S20;52CL0015K21;40
S10;52CP0015I22;29
S20;52CP0015I22;11
S10;52CP006K22;127
S20;52CP006K22;83
S10;52CV0015K22;40
S20;52CV0015K22;50
S10;52DB001I20;59
S20;52DB001I20;14
S10;52DC0015I20;285
S20;52DC0015I20;10
S10;52DE001I21;67
S20;52DE001I21;53
S10;52DH001I22;205
S20;52DH001I22;92
S10;52DL002I21;139
S20;52DL002I21;129
S10;52DS001I20;25
S10;52ER002I21;32
S20;52ER002I21;38
S10;52EV002I22;88
S20;52EV002I22;95
S10;52GD0015A18;42
S20;52GD0015A18;41
S10;52HCTM23;24
S20;52HCTM23;28
S10;52HD001I23;207
S20;52HD001I23;60
S20;11BG140SI19;5
S20;11BG140SL19;2
S20;11BH050A18;2
S20;11BO100CS19;12
S20;11BP100I19;5
S20;11BR100A20;4
S20;11BS020K23;27
S20;11CD050A18;6
S20;11CF100TR19;7
S20;11CM030H19;12
S20;11CM030H20;12
S20;11CM030O21;8
S20;11CM125I19;5
S20;11CM200AT23;9
S20;11CM200AT23C;36
S20;11EC200AT23;46
S20;11EH150A18;3
S20;11EP010H19;7
S20;11ET010H20;3
S20;11ET050H20;2
S20;11ET075O21;10
S20;11FAG10TR19;7
S20;11GD050A18;3
S20;11GD250H19;16
S20;11GD250H20;15
S20;11GD250O21;13
S20;11GE075I20;4
S20;11GM200I19;12
S20;11GN195A18;14
S20;11LC250H19;13
S20;11LC250H20;9
S20;11LC250O21;10
S20;11LD200I19;5
S20;11LH200I19;5
S20;11LT300I20;3
S20;11MH075A19;4
S20;11MWC200I19;4
S20;11PEP050I20;4
S20;11PM100SH19;3
S20;11PM100SI19;6
S20;11SA050O21;5
S20;11SA100H20;9
S20;11SAF100H20;5
S20;11SD100CS19;8
S20;11SD100SH19;5
S20;11SD100SI19;7
S20;11SH300AD22;15
S20;11SP200CS19;11
S20;11SP200SH19;6
S20;11SP200SI19;7
S20;11SV080I19;4
S20;15AS250VA18;4
S20;15BA500L16A;8
S20;15BM500VB21;4
S31000;01BK010K14;18
S31000;01BL012K18;14
S31000;01BM050K23;12
S31000;01BM150K23;6
S31000;01BP050K21;9
S31000;01CCJ200K22;10
S31000;01CD250K23;42
S31000;01CL050K21;8
S31000;01CL175K22;4
S31000;01CM300K20;4
S31000;01CM500K20;11
S31000;01CMJ075K21;31
S31000;01CMR500K20;3
S31000;01CP200K22;12
S31000;01EC200K22;15
S31000;01EM030K23;9
S31000;01HD250K17;5
S31000;01HD500K20;12
S31000;01HDR500K20;2
S31000;01HF100K17;4
S31000;01HN0075K23;11
S31000;01HV030K16;2
S31000;01HV030K23;4
S31000;01LT300K20;9
S31000;01MA030K22;31
S31000;01MA075K22;16
S31000;01MA150K22;26
S31000;01MR030K14;13
S31000;01PI030K18;15
S31000;01PI150K18;9
S31000;01RL500K20;4
S31000;01RV500K20;10
S31000;01SA100LT20;8
S31000;01SA100LV20;9
S31000;01SA100VE20;1
S31000;01SA250LT20;5
S31000;01SA250VE20;3
S31000;01SA300KRO22;6
S31000;01SA500KRO22;5
S31000;01SA9000KV21;1
S31000;01SAR500KRO22;13
S31000;01SL0045K13;23
S31000;01SL300LV20;5
S31000;01SL300VE20;3
S31000;01SL500LV20;5
S31000;01SL500VE20;5
S31000;10EST250V21;31
S31000;10EST500V21;27
S31000;10P250V21;31
S31000;10P500V21;27
S31000;11AS040SG22;13
S31000;11AS90005G21;1
S29000;11AS040SG22;14
S29000;11AT050HL23;30
S29000;11BG140CS19;14
S29000;11BG140SH19;12
S29000;11BG140SI19;4
S29000;11BG140SL19;6
S29000;11BH050A18;3
S29000;11BO100CS19;20
S29000;11BP100I19;4
S29000;11BR100A20;16
S29000;11BS020K23;28
S29000;11CD050A18;5
S29000;11CF100TR19;15
S29000;11CM030H19;58
S29000;11CM030H20;28
S29000;11CM030O21;8
S29000;11CM125I19;23
S29000;11CM200AT23;12
S29000;11CM200AT23C;47
S29000;11EC200AT23;60
S29000;11EH150A18;6
S29000;11EP010H19;14
S29000;11ET010H20;13
S29000;11ET050H20;5
S29000;11ET075O21;5
S29000;11FAG10TR19;6
S29000;11GD050A18;14
S29000;11GD250H19;26
S29000;11GD250H20;20
S29000;11GD250O21;14
S29000;11GE075I20;3
S29000;11GM200I19;27
S29000;11GN195A18;16
S29000;11LC250H19;60
S29000;11LC250H20;30
S29000;11LC250O21;53
S29000;11LD200I19;18
S29000;11LH200I19;14
S29000;11LT300I20;3
S29000;11MH075A19;5
S29000;11MWC200I19;5
S29000;11PEP050I20;4
S29000;11PM100SH19;8
S29000;11PM100SI19;5
S29000;11SA050O21;6
S29000;11SA100H20;16
S29000;11SAF100H20;13
S29000;11SD100CS19;17
S29000;11SD100SH19;6
S29000;11SD100SI19;5
S29000;11SH300AD22;22
S29000;11SP200CS19;17
S10;11BG140CS19;9
S10;11BG140SH19;15
S10;11BG140SI19;4
S10;11BG140SL19;4
S10;11BH050A18;5
S10;11BO100CS19;11
S10;11BP100I19;4
S10;11BR100A20;3
S10;11BS020K23;12
S10;11CD050A18;3
S10;11CF100TR19;5
S10;11CM030H19;8
S10;11CM030H20;18
S10;11CM030O21;1
S10;11CM125I19;5
S10;11CM200AT23;9
S10;11CM200AT23C;31
S10;11EC200AT23;41
S10;11EH150A18;5
S10;11EP010H19;4
S10;11ET010H20;10
S10;11ET050H20;4
S10;11ET075O21;2
S10;11FAG10TR19;41
S10;11GD050A18;3
S10;11GD250H19;20
S10;11GD250H20;9
S10;11GD250O21;10
S10;11GE075I20;3
S10;11GM200I19;11
S10;11GN195A18;11
S10;11LC250H19;33
S10;11LC250H20;9
S10;11LC250O21;5
S10;11LD200I19;8
S10;11LH200I19;11
S10;11LT300I20;4
S10;11MH075A19;4
S10;11MWC200I19;5
S10;11PEP050I20;6
S10;11PM100SH19;4
S10;11PM100SI19;6
S10;11SA050O21;5
S10;11SA100H19;2
S10;11SA100H20;2
S10;11SD100CS19;10
S10;11SD100SH19;12
S10;11SD100SI19;15
S10;11SH300AD22;11
S10;11SP200CS19;3
S10;11SP200SH19;3
S10;11SP200SI19;3
S10;11SV080I19;5
S10;15AS250VA18;7
S90000;11LC250O21;1
S90000;11LD200I19;5
S90000;11LH200I19;5
S90000;11LT300I20;10
S90000;11MH075A19;11
S90000;11MWC200I19;4
S90000;11PM100SH19;8
S90000;11PM100SI19;7
S90000;11SA050O21;9
S90000;11SA100H20;10
S90000;11SAF100H20;10
S90000;11SD100CS19;4
S90000;11SD100SH19;4
S90000;11SD100SI19;8
S90000;11SD100SL19;3
S90000;11SP200SH19;4
S90000;11SP200SI19;7
S90000;11SV080I19;7
S90000;12GD245NO21H;15
S90000;12LC250NO22;1
S90000;15AS250VA18;9
S90000;15BA500L16A;9
S90000;15BM500VB21;2
S90000;15CF150VBL21;7
S90000;15DF200VBL21;19
S90000;15ET010VB19;6
S90000;15ET100VA20;9
S90000;15ET100VB20;6
S90000;15GD070VB21;101
S90000;15GD075L21;28
S90000;15GD250L21;13
S90000;15GD250VA20;6
S90000;15GD250VBL22;110
S90000;15GD500VB21;9
S90000;15GM065L21;14
S90000;15GM065VB21;13
S90000;15GM280VB21;4
S90000;15GN300L21;5
S90000;15HE005L14;10
S90000;15LC070VB5;117
S90000;15LC075L15;20
S90000;15LC250L14;12
S90000;15LC250VA20;12
S90000;15LM300L11;6
S90000;15MA030L21;20
S90000;15MA030VA5;9
S90000;15MA030VB3;7
S90000;15MA075L20;10
S90000;15MA075VB4;9
S90000;15RC500VB21;9
S90000;15RG500VA20;23
S90000;15SA075VB21;3
S28000;01HV030K23;11
S30000;01HV030K23;3
S30000;01LB012KB23;3
S30000;01LC250K17;4
S28000;01LT300K20;28
S30000;01LT300K20;14
S28000;01MA030K22;19
S30000;01MA030K22;24
S28000;01MA075K22;16
S30000;01MA075K22;24
S28000;01MA150K22;32
S30000;01MA150K22;25
S30000;01MA150KG22H;1
S28000;01MR030K14;13
S30000;01MR030K14;12
S28000;01PI030K18;11
S30000;01PI030K18;12
S28000;01PI150K18;18
S30000;01PI150K18;9
S28000;01RL500K20;24
S30000;01RL500K20;11
S28000;01RV500K20;15
S30000;01RV500K20;12
S28000;01SA100LT20;9
S30000;01SA100LT20;12
S28000;01SA100LV20;8
S30000;01SA100LV20;13
S28000;01SA100VE20;17
S30000;01SA100VE20;18
S28000;01SA250LT20;19
S30000;01SA250LT20;9
S28000;01SA250LV20;18
S30000;01SA250LV20;3
S28000;01SA250VE20;11
S30000;01SA250VE20;13
S28000;01SA300KRO22;4
S30000;01SA300KRO22;6
S28000;01SA500KRO22;4
S30000;01SA500KRO22;6
S28000;01SAR500KRO22;16
S30000;01SAR500KRO22;8
S28000;01SL0045K13;26
S30000;01SL0045K13;44
S28000;01SL300LV20;5
S30000;01SL300LV20;5
S28000;01SL300VE20;10
S30000;01SL300VE20;5
S28000;01SL500LV20;5
S30000;01SL500LV20;5
S28000;01SL500VE20;11
S30000;01SL500VE20;5
S28000;10EST250V21;34
S10;52HS001I17;5
S20;52HS001I17;21
S10;52HS004A18;27
S20;52HS004A18;59
S10;52LC006A20;223
S10;52LGEBOX18;7
S20;52LGEBOX18;6
S10;52LGENSA21;60
S20;52LGENSA21;54
S10;52MC001I23;67
S10;52MC006G21;24
S20;52MC006G21;9
S10;52MGEBOX18;9
S20;52MGEBOX18;7
S10;52MGENSA21GPS;56
S20;52MGENSA21GPS;38
S10;52MS001I20;32
S20;52MS001I20;32
S10;52OR001I21;308
S20;52OR001I21;90
S10;52SE0015I22;47
S20;52SE0015I22;33
S20;52SGENSA21GPS;68
S10;52SH006E19;141
S20;52SH006E19;145
S10;52SH006FV21;244
S20;52SH006FV21;129
S10;52SH006G21;164
S20;52SH006G21;170
S10;52SH006P19;173
S20;52SH006P19;184
S10;52SLEMM23;20
S20;52SLEMM23;24
S10;52TS001I22;333
S20;52TS001I22;65
S10;52TS001R21;9
S20;52TS001R21;42
S10;98BBGD030VE4;4
S20;98BBGD030VE4;16
S20;98BBGD050VE2;37
S10;98BBGD050VE2;9
S10;98BBLC030VE5;15
S10;98BBLC050VE3;9
S20;98BBLC050VE3;37
S20;98BBMA010KA3;25
S10;98BBMA010KA3;17
S10;ACPOCVEC00001;328
S20;ACPOCVEC00001;328
S20;ACPOCVEC00002;522
S10;ACPOCVEC00002;490
S10;ACPOCVEC00003;172
S20;ACPOCVEC00003;81
S20;ACPOCVEC00004;88
S10;ACPOCVEC00004;96
S31000;11AT050HL23;23
S31000;11BG140CS19;4
S31000;11BG140SH19;4
S31000;11BG140SI19;5
S31000;11BG140SL19;2
S31000;11BH050A18;4
S31000;11BO100CS19;20
S31000;11BP100I19;5
S31000;11BR100A20;3
S31000;11BS020K23;42
S31000;11CD050A18;5
S31000;11CF100TR19;10
S31000;11CM030H19;6
S31000;11CM030H20;13
S31000;11CM030O21;9
S31000;11CM125I19;11
S31000;11CM200AT23;13
S31000;11CM200AT23C;40
S31000;11EC200AT23;54
S31000;11EH150A18;5
S31000;11EP010H19;12
S31000;11ET010H20;10
S31000;11ET050H20;2
S31000;11ET075O21;11
S31000;11FAG10TR19;9
S31000;11GD050A18;1
S31000;11GD250H19;8
S31000;11GD250H20;9
S31000;11GD250O21;5
S31000;11GE075I20;5
S31000;11GM200I19;8
S31000;11GN195A18;12
S31000;11LC250H19;7
S31000;11LC250H20;6
S31000;11LC250O21;6
S31000;11LD200I19;12
S31000;11LH200I19;6
S31000;11LT300I20;4
S31000;11MH075A19;4
S31000;11MWC200I19;4
S31000;11PEP050I20;2
S31000;11PM100SH19;2
S31000;11PM100SI19;4
S31000;11SA050O21;4
S31000;11SA100H20;13
S31000;11SAF100H20;6
S31000;11SD100CS19;6
S31000;11SD100SH19;9
S31000;11SD100SI19;4
S31000;11SH300AD22;21
S31000;11SH90005G21;1
S31000;11SP200CS19;5
S10;ACPOCVEC00005;65
S10;SGOCVE600004;9
S20;SGOCVE600004;37
S10;SGOCVKI00236;5
S10;SGOCVKI00239;3
S20;15DO050VA22;5
S20;15ET010VB19;4
S20;15ET100VA20;4
S20;15ET100VB20;4
S20;15GD075L21;6
S20;15GD250L21;19
S20;15GD250VA20;9
S20;15GD250VB21;14
S20;15GD500VB21;16
S20;15GM065L21;16
S20;15GM065VB21;16
S20;15GM280VB21;6
S20;15GN300L21;13
S20;15HE005L14;6
S20;15LC075L15;6
S20;15LC250L14;13
S20;15LC250VB3;10
S20;15LM300L11;13
S20;15MA030L21;22
S20;15MA030VA5;7
S20;15MA030VB3;7
S20;15MA075L20;15
S20;15MA075VB4;10
S20;15RC500VB21;13
S20;15RG500L14;20
S20;15RG500VA20;12
S20;15RO010VBM22;16
S20;15SA075VB21;5
S20;15SH250VA20;8
S20;17AF100G20;14
S20;17AS250E19;6
S20;17AS250FV21;9
S20;17AS250G21;6
S20;17AS250P19;6
S20;17AS500E19;9
S20;17AS500FV21;11
S20;17AS500G21;15
S20;17AS500P19;6
S20;17DO050F13;17
S20;17ER075P19;8
S20;17HB050A22;10
S20;17HI001G19;58
S20;17HI100G19;10
S20;17MC200G21;15
S20;17RC500E20;15
S20;17RC500G21;24
S20;17RC500P19;12
S20;17RS500E20;12
S20;17RS500FV21;14
S20;17RS500G21;19
S20;17RS500P19;27
S20;17SE100FV21;13
S20;17SH060SE21;7
S20;17SH060SG21;1
S29000;11SP200SH19;10
S29000;11SP200SI19;14
S29000;11SV080I19;13
S29000;15AS250VA18;15
S29000;15BA500L16A;13
S29000;15BM500VB21;4
S29000;15DO050VA22;35
S29000;15ET010VB19;3
S29000;15ET100VA20;5
S29000;15ET100VB20;6
S29000;15GD250L21;32
S29000;15GD250VA20;13
S29000;15GD250VB21;14
S29000;15GD500VB21;29
S29000;15GM065L21;18
S29000;15GM065VB21;18
S29000;15GM280VB21;6
S29000;15GN300L21;19
S29000;15HE005L14;5
S29000;15LC250L14;37
S29000;15LC250VA20;8
S29000;15LC250VB3;21
S29000;15LM300L11;16
S29000;15MA030L21;26
S29000;15MA030VA5;13
S29000;15MA030VB3;44
S29000;15MA075L20;12
S29000;15MA075VB4;42
S29000;15RC500VB21;40
S29000;15RG500L14;18
S29000;15RG500VA20;28
S29000;15RO010VBM22;41
S29000;15SA070VB6;3
S29000;15SA075VB21;5
S29000;15SH250VA20;16
S29000;17AF100G20;24
S29000;17AS250E19;11
S29000;17AS250FV21;7
S29000;17AS250G21;17
S29000;17AS250P19;6
S29000;17AS500E19;20
S29000;17AS500FV21;15
S29000;17AS500G21;19
S29000;17AS500P19;9
S29000;17DO050F13;20
S29000;17ER075P19;8
S29000;17HB050A22;17
S29000;17HI001G19;71
S29000;17HI100G19;18
S29000;17MC200G21;16
S29000;17RC500E20;30
S29000;17RC500G21;35
S28000;10EST500V21;26
S28000;10P250V21;34
S28000;10P500V21;26
S28000;11AS040SG22;6
S30000;11AS040SG22;13
S28000;11AT050HL23;20
S30000;11AT050HL23;20
S30000;11BC100G21;1
S28000;11BG140CS19;10
S30000;11BG140CS19;8
S28000;11BG140SH19;5
S30000;11BG140SH19;4
S28000;11BG140SI19;3
S30000;11BG140SI19;5
S28000;11BG140SL19;4
S30000;11BG140SL19;5
S28000;11BH050A18;4
S30000;11BH050A18;4
S28000;11BO100CS19;18
S30000;11BO100CS19;19
S28000;11BP100I19;4
S30000;11BP100I19;3
S28000;11BR100A20;2
S30000;11BR100A20;5
S28000;11BS020K23;34
S30000;11BS020K23;8
S28000;11CD050A18;4
S30000;11CD050A18;4
S28000;11CF100TR19;13
S30000;11CF100TR19;7
S28000;11CM030H19;15
S30000;11CM030H19;31
S28000;11CM030H20;18
S30000;11CM030H20;31
S28000;11CM030O21;12
S30000;11CM030O21;30
S28000;11CM125I19;9
S30000;11CM125I19;11
S28000;11CM200AT23;20
S30000;11CM200AT23;7
S28000;11CM200AT23C;41
S30000;11CM200AT23C;35
S28000;11EC200AT23;65
S30000;11EC200AT23;41
S28000;11EH150A18;4
S30000;11EH150A18;5
S28000;11EP010H19;6
S30000;11EP010H19;14
S28000;11ET010H20;13
S30000;11ET010H20;13
S28000;11ET050H20;4
S30000;11ET050H20;4
S10;15BA500L16A;11
S10;15BM500VB21;10
S10;15ET010VB19;3
S10;15ET100VA20;3
S10;15ET100VB20;5
S10;15GD075L21;4
S10;15GD250L21;13
S10;15GD250VA20;11
S10;15GD250VB21;10
S10;15GD500VB21;19
S10;15GM065L21;42
S10;15GM065VB21;34
S10;15GM280VB21;4
S10;15GN300L21;7
S10;15HE005L14;6
S10;15LC075L15;4
S10;15LC250L14;18
S10;15LC250VA20;16
S10;15LC250VB3;8
S10;15LM300L11;5
S10;15MA030L21;21
S10;15MA030VA5;7
S10;15MA030VB3;6
S10;15MA075L20;6
S10;15MA075VB4;9
S10;15RC500VB21;19
S10;15RG500L14;15
S10;15RG500VA20;19
S10;15RO010VBM22;32
S10;15SA075VB21;4
S10;15SH250VA20;13
S10;17AF100G20;6
S10;17AS250E19;4
S10;17AS250FV21;6
S10;17AS250G21;4
S10;17AS250P19;6
S10;17AS500E19;8
S10;17AS500FV21;7
S10;17AS500G21;9
S10;17AS500P19;4
S10;17DO050F13;14
S10;17ER075P19;6
S10;17HB050A22;9
S10;17HI001G19;58
S10;17HI100G19;10
S10;17MC200G21;12
S10;17RC500E20;23
S10;17RC500G21;9
S10;17RC500P19;5
S10;17RS500E20;9
S10;17RS500FV21;18
S10;17RS500G21;19
S10;17RS500P19;16
S10;17SE100FV21;17
S90000;15SH250VA20;6
S90000;17AS075E19;129
S90000;17AS075FV21;35
S90000;17AS075G21;21
S90000;17AS075P19;50
S90000;17AS250E19;7
S90000;17AS250FV21;5
S90000;17AS250G21;8
S90000;17AS250P19;10
S90000;17AS500E19;15
S90000;17AS500FV21;5
S90000;17AS500G21;11
S90000;17AS500P19;18
S90000;17DO050F13;70
S90000;17ER075P19;3
S90000;17HB050A22;5
S90000;17HI001G19;100
S90000;17HI100G19;9
S90000;17RC500E20;15
S90000;17RC500G18;63
S90000;17RC500G21;8
S90000;17RC500P19;26
S90000;17RS500E20;15
S90000;17RS500P19;12
S90000;17SH060SE21;7
S90000;17SH060SG21;1
S90000;17SH060SP21;6
S90000;17SH075E19;16
S90000;17SH075FV21;1
S90000;17SH075G21;2
S90000;17SH075P19;21
S90000;17SH300E19;4
S90000;17SH300FV21;8
S90000;17SH300G21;8
S90000;17SH300P19;9
S90000;17SH500E19;4
S90000;17SH500FV21;2
S90000;17SH500P19;10
S90000;17VI100P19;8
S90000;20AR075O20;9
S90000;20DO050O20;11
S90000;20DO075CD20;3
S90000;20DO130HC20;7
S90000;20ET075CD20;8
S90000;20ET075HC20;8
S90000;20ET075OC20;8
S90000;20GD250CD20;10
S90000;20GD250HC20;9
S90000;20GD250OC20;7
S90000;20GD500HC20;6
S90000;20NV150H20;2
S90000;20SA050CD20;10
S90000;20SA050HC20;11
S31000;11SP200SH19;4
S31000;11SP200SI19;5
S31000;11SV080I19;4
S31000;15AS250VA18;11
S31000;15BA500L16A;5
S31000;15BM500VB21;3
S31000;15DO050VA22;19
S31000;15ET010VB19;7
S31000;15ET100VA20;4
S31000;15ET100VB20;2
S31000;15GD250L21;7
S31000;15GD250VA20;6
S31000;15GD250VB21;14
S31000;15GD500VB21;9
S31000;15GD9000V21;1
S31000;15GM065L21;12
S31000;15GM065VB21;8
S31000;15GM280VB21;6
S31000;15GN300L21;3
S31000;15HE005L14;5
S31000;15LC250L14;7
S31000;15LC250VA20;8
S31000;15LC250VB3;8
S31000;15LM300L11;12
S31000;15MA030L21;20
S31000;15MA030VA5;4
S31000;15MA030VB3;13
S31000;15MA075L20;10
S31000;15MA075VB4;4
S31000;15RC500VB21;11
S31000;15RG500VA20;5
S31000;15SA075VB21;5
S31000;15SH250VA20;4
S31000;17AF100G20;9
S31000;17AS250E19;4
S31000;17AS250FV21;6
S31000;17AS250G21;8
S31000;17AS250P19;6
S31000;17AS500E19;10
S31000;17AS500FV21;6
S31000;17AS500G21;10
S31000;17AS500P19;5
S31000;17ER075P19;6
S31000;17HB050A22;10
S31000;17HI001G19;41
S31000;17HI100G19;9
S31000;17MC200G21;10
S31000;17RC500E20;6
S31000;17RC500G21;17
S31000;17RC500P19;4
S31000;17RS500E20;7
S31000;17RS500FV21;15
S27000;01BK010K14;14
S27000;01BL012K18;2
S27000;01BM050K23;3
S27000;01BM150K23;4
S27000;01BP050K21;7
S27000;01CCJ200K22;3
S27000;01CD250K23;9
S27000;01CL050K21;6
S27000;01CL125KB23;6
S27000;01CL175K22;8
S27000;01CM300K20;7
S27000;01CM500K20;5
S27000;01CMJ075K21;9
S27000;01CMR500K20;11
S27000;01CP100KC22H;1
S27000;01CP200K22;12
S27000;01CPR200K22;9
S27000;01CV050K22;5
S27000;01EC200K22;10
S27000;01EM030K23;9
S27000;01EM075K20;1
S27000;01HD250K17;10
S27000;01HD500K20;11
S27000;01HDR500K20;12
S27000;01HF100K17;6
S27000;01HN0075K23;7
S27000;01HV030K16;2
S27000;01HV030K23;5
S27000;01LB012KB23;2
S27000;01LC250K17;1
S27000;01LT300K20;9
S27000;01MA030K22;21
S27000;01MA075K22;16
S27000;01MA150K22;22
S27000;01MR030K14;9
S27000;01PI030K18;3
S27000;01PI150K18;8
S27000;01PWPKT22;3
S27000;01RL500K20;13
S27000;01RV500K20;1
S27000;01SA100LT20;9
S27000;01SA100LV20;5
S27000;01SA100VE20;6
S27000;01SA250LT20;9
S27000;01SA250LV20;12
S27000;01SA250VE20;10
S27000;01SA300KRO22;6
S27000;01SA500KRO22;6
S27000;01SAR500KRO22;7
S27000;01SE125K21;1
S27000;01SL0045K13;29
S27000;01SL300LV20;4
S27000;01SL300VE20;5
S20;17SH060SP21;3
S20;17SH075E19;50
S20;17SH075G21;5
S20;17SH300E19;16
S20;17SH300FV21;16
S20;17SH300G21;21
S20;17SH300P19;18
S20;17SH500E19;13
S20;17SH500FV21;17
S20;17SH500G21;14
S20;17SH500P19;14
S20;17VI100P19;4
S20;20AR075O20;12
S20;20DO050O20;10
S20;20DO075CD20;10
S20;20DO130HC20;12
S20;20ET075CD21;5
S20;20ET075HC20;5
S20;20ET075OC20;1
S20;20GD250CD20;6
S20;20GD250HC20;19
S20;20GD250OC20;12
S20;20GD500HC20;11
S20;20NV150H20;13
S20;20SA050CD20;4
S20;20SA050HC20;3
S20;24BL012CB5;9
S20;24BL012R22;10
S20;24BR050CB21;10
S20;24BR050R22;12
S20;24ET075CB21;6
S20;24ET075R22;8
S20;24GD250CB21;19
S20;24GD250R22;12
S20;24GD500R22;19
S20;24LC250CB21;15
S20;24LC250R22;11
S20;24MA030CB21;22
S20;24MA030P21;7
S20;24MA030R22;22
S20;24MA030RV19;3
S20;24MA075CB21;13
S20;24MA075P15;1
S20;24MA075P21;10
S20;24MA075R22;7
S20;24MA150R22;8
S20;24RG500CB21;11
S20;24RG500R22;15
S20;24SA050CB21;9
S20;24SA050R22;12
S20;27BD060I23;5
S20;27BY015I22;8
S20;27CP050I22;9
S20;27DB015I20;16
S28000;11ET075O21;6
S30000;11ET075O21;12
S28000;11FAG10TR19;14
S30000;11FAG10TR19;12
S28000;11GD050A18;13
S30000;11GD050A18;5
S28000;11GD250H19;14
S30000;11GD250H19;13
S28000;11GD250H20;17
S30000;11GD250H20;10
S28000;11GD250O21;14
S30000;11GD250O21;8
S28000;11GE075I20;4
S30000;11GE075I20;4
S28000;11GM200I19;13
S30000;11GM200I19;7
S28000;11GN195A18;11
S30000;11GN195A18;11
S28000;11LC250H19;12
S30000;11LC250H19;8
S28000;11LC250H20;16
S30000;11LC250H20;5
S28000;11LC250O21;11
S30000;11LC250O21;9
S28000;11LD200I19;14
S30000;11LD200I19;10
S28000;11LH200I19;10
S30000;11LH200I19;7
S28000;11LT300I20;4
S30000;11LT300I20;5
S28000;11MH075A19;4
S30000;11MH075A19;4
S28000;11MWC200I19;4
S30000;11MWC200I19;4
S28000;11PEP050I20;2
S28000;11PM100SH19;4
S30000;11PM100SH19;3
S28000;11PM100SI19;6
S30000;11PM100SI19;3
S28000;11SA050O21;9
S30000;11SA050O21;5
S28000;11SA100H20;11
S30000;11SA100H20;12
S28000;11SAF100H20;11
S30000;11SAF100H20;6
S28000;11SD100CS19;14
S30000;11SD100CS19;6
S28000;11SD100SH19;13
S30000;11SD100SH19;10
S28000;11SD100SI19;4
S30000;11SD100SI19;6
S28000;11SH300AD22;16
S30000;11SH300AD22;15
S29000;17RC500P19;12
S29000;17RS500E20;52
S29000;17RS500FV21;23
S29000;17RS500G21;65
S29000;17RS500P19;21
S29000;17SE100FV21;22
S29000;17SH060SE21;5
S29000;17SH060SG21;2
S29000;17SH060SP21;4
S29000;17SH075E19;35
S29000;17SH075G21;6
S29000;17SH300E19;19
S29000;17SH300FV21;12
S29000;17SH300G21;18
S29000;17SH300P19;14
S29000;17SH500E19;20
S29000;17SH500FV21;26
S29000;17SH500G21;20
S29000;17SH500P19;20
S29000;17VI100P19;5
S29000;20AR075O20;12
S29000;20DO050O20;12
S29000;20DO075CD20;15
S29000;20DO130HC20;12
S29000;20ET075CD21;5
S29000;20ET075HC20;4
S29000;20ET075OC20;3
S29000;20GD250CD20;18
S29000;20GD250HC20;14
S29000;20GD250OC20;17
S29000;20GD500HC20;13
S29000;20NV150H20;15
S29000;20SA050CD20;5
S29000;20SA050HC20;3
S29000;24BL012CB5;8
S29000;24BL012R22;8
S29000;24BR050CB21;13
S29000;24BR050R22;16
S29000;24ET075CB21;17
S29000;24ET075R22;12
S29000;24GD250CB21;28
S29000;24GD250R22;29
S29000;24GD500R22;21
S29000;24LC250CB21;17
S29000;24LC250CB4;6
S29000;24LC250R22;27
S29000;24MA030CB21;15
S29000;24MA030P21;6
S29000;24MA030R22;19
S29000;24MA030RV19;4
S29000;24MA075CB21;14
S29000;24MA075P15;6
S90000;24BL012CB5;4
S90000;24BR050C21;4
S90000;24BR050CB21;6
S90000;24BR050R22;8
S90000;24CM030CBL23;1
S90000;24ET075CB21;5
S90000;24ET075R22;6
S90000;24GD075CB5;2
S90000;24GD075R22;5
S90000;24GD250R22;10
S90000;24GD500CB21;1
S90000;24GD500R22;12
S90000;24LC075R22;125
S90000;24LC250CB4;1
S90000;24LC250R22;6
S90000;24MA030R22;14
S90000;24MA075CB21;8
S90000;24MA075R22;12
S90000;24MA150R22;10
S90000;24RG500CB21;13
S90000;24RG500R22;1
S90000;24RO010CB4;2
S90000;24SA050CB21;6
S90000;24SA050R22;7
S90000;27BD060I23;8
S90000;27BY015I22;10
S90000;27CP050I22;1
S90000;27DB015I20;7
S90000;27DC050I20;10
S90000;27DCB060I17;4
S90000;27DE015I21;8
S90000;27DF125I17;1
S90000;27DH015I20;9
S90000;27DH015I22;2
S90000;27DH030I20;31
S90000;27DH030I22;12
S90000;27DL200I21;8
S90000;27DS030I20;6
S90000;27ER015I22;10
S90000;27ER050I21;2
S90000;27EV200I22;18
S90000;27HC050I18;3
S90000;27HD200I23;4
S90000;27HS030I18;4
S90000;27HSR030I16;4
S90000;27MC125I23;8
S90000;27MII150I22;10
S90000;27MP050I22;1
S90000;27MP150I22;2
S90000;27MQ065I15A;9
S90000;27MS050I20;8
S90000;27SE075I22;7
S90000;27SP030I19;3
S10;17SH060SE21;4
S10;17SH060SG21;6
S10;17SH060SP21;5
S10;17SH075E19;13
S10;17SH300E19;18
S10;17SH300FV21;19
S10;17SH300G21;17
S10;17SH300P19;23
S10;17SH500E19;12
S10;17SH500FV21;9
S10;17SH500G21;13
S10;17SH500P19;10
S10;17VI100P19;6
S10;20AR075O20;4
S10;20DO050O20;3
S10;20DO075CD20;10
S10;20DO130HC20;2
S10;20ET075CD21;5
S10;20ET075HC20;5
S10;20ET075OC20;4
S10;20GD250CD20;9
S10;20GD250HC20;14
S10;20GD250OC20;12
S10;20GD500HC20;13
S10;20NV150H20;11
S10;20SA050CD20;4
S10;20SA050HC20;4
S10;24BL012CB5;10
S10;24BL012R22;3
S10;24BR050CB21;8
S10;24BR050R22;12
S10;24ET075CB21;11
S10;24ET075R22;9
S10;24GD075R22;6
S10;24GD250CB21;17
S10;24GD250R22;24
S10;24GD500R22;10
S10;24LC250CB21;17
S10;24LC250CB4;1
S10;24LC250R22;17
S10;24MA030CB21;18
S10;24MA030P21;5
S10;24MA030R22;17
S10;24MA030RV19;40
S10;24MA075CB21;14
S10;24MA075CB4;1
S10;24MA075P21;9
S10;24MA150R22;1
S10;24RG500CB21;9
S10;24RG500R22;13
S10;24RO010CB4;4
S10;24SA050CB21;8
S10;24SA050R22;10
S10;27BD060I23;10
S20;27DC050I20;9
S20;27DE015I21;20
S20;27DH015I22;21
S20;27DH030I22;16
S20;27DL200I21;8
S20;27DS030I20;5
S20;27ER015I22;15
S20;27ER150I21;15
S20;27EV200I22;17
S20;27HCR050I16;5
S20;27HD200I23;8
S20;27HS030I18;1
S20;27MC125I23;21
S20;27MP050I20;8
S20;27MP150I22;8
S20;27MQ065I15A;4
S20;27MS050I20;8
S20;27OR030I21;22
S20;27OR050I21;34
S20;27SE075I22;14
S20;29ASH075A20;3
S20;29ASH240A20;7
S20;29BP100A22;1
S20;29EC200A22;9
S20;29GE200A21;14
S20;29HD250A15;9
S20;29HD500A15;35
S20;29HS100A21;8
S20;29LC200A20US;29
S20;29MA030A17;20
S20;29MA075A21;28
S20;29RC200A22;36
S20;29RH500A15;29
S20;29SA050A22;8
S20;29SE125A21;18
S20;29SH075A20;3
S20;29SH240A20;6
S20;29VC240A22;11
S20;38BV050A22;15
S20;38EV075A21;11
S20;38FT200A21;9
S20;38MI150A22;14
S20;38RC050A22;4
S20;38UV030A18;9
S20;38WC050A21;6
S20;38WS030A21;7
S20;49BO015CS19;13
S20;49CRM2NO22;1
S20;49DC004I20;15
S20;49DH004I20;6
S20;49DH004I22;41
S31000;17RS500G21;31
S31000;17SE100FV21;11
S31000;17SH060SE21;4
S31000;17SH060SP21;4
S31000;17SH075E19;25
S31000;17SH075G21;59
S31000;17SH300E19;14
S31000;17SH300FV21;21
S31000;17SH300G21;14
S31000;17SH300P19;18
S31000;17SH500E19;9
S31000;17SH500FV21;21
S31000;17SH500P19;15
S31000;17VI100P19;6
S31000;20AR075O20;7
S31000;20DO050O20;11
S31000;20DO075CD20;13
S31000;20DO130HC20;3
S31000;20ET075CD21;4
S31000;20ET075HC20;3
S31000;20ET075OC20;5
S31000;20GD250CD20;16
S31000;20GD250HC20;15
S31000;20GD250OC20;17
S31000;20GD500HC20;6
S31000;20NV150H20;10
S31000;20SA050CD20;3
S31000;20SA050HC20;3
S31000;24BL012CB5;7
S31000;24BL012R22;12
S31000;24BR050CB21;6
S31000;24BR050R22;15
S31000;24ET075CB21;13
S31000;24ET075R22;14
S31000;24GD075R22;3
S31000;24GD250CB21;13
S31000;24GD250R22;14
S31000;24GD500R22;12
S31000;24LC250CB21;4
S31000;24LC250R22;11
S31000;24MA030CB21;18
S31000;24MA030P21;10
S31000;24MA030R22;17
S31000;24MA030RV19;3
S31000;24MA075CB21;9
S31000;24MA075P15;4
S31000;24MA075P21;9
S31000;24MA075R22;8
S31000;24MA150R22;12
S31000;24RG500CB21;11
S31000;24RG500R22;12
S31000;24SA050CB21;13
S31000;24SA050R22;6
S31000;27BD060I23;21
S31000;27BY015I22;6
S31000;27CP050I22;10
S31000;27DB015I20;4
S31000;27DE015I21;4
S31000;27DH015I22;22
S31000;27DH030I22;13
S31000;27DL200I21;3
S31000;27DS030I20;6
S31000;27ER015I22;18
S31000;27ER050I21;7
S31000;27ER150I21;14
S31000;27EV200I22;18
S31000;27HC050I18;2
S31000;27HCR050I16;4
S31000;27HD200I23;7
S31000;27HS030I18;2
S31000;27HSR030I16;3
S31000;27MC125I23;14
S31000;27MP150I22;6
S31000;27MQ065I15A;4
S31000;27MS050I20;5
S31000;27OR030I21;32
S31000;27OR050I21;38
S31000;27SE075I22;26
S31000;27SP030I19;2
S31000;29ASH075A20;1
S31000;29ASH240A20;6
S31000;29BP100A22;7
S31000;29EC200A22;31
S31000;29GE200A21;16
S31000;29HD075A15;43
S31000;29HD250A15;21
S31000;29HD500A15;36
S31000;29HD9000A21;2
S31000;29HS100A21;12
S31000;29LC200A20US;28
S31000;29MA030A17;22
S31000;29MA075A21;11
S31000;29RC200A22;9
S31000;29RH500A15;25
S31000;29SA050A22;13
S31000;29SE125A21;10
S31000;29SH075A20;1
S31000;29SH240A20;3
S31000;29VC240A22;37
S31000;38BV050A22;4
S31000;38EV075A21;3
S31000;38FT200A21;12
S31000;38MI150A22;4
S31000;38RC050A22;4
S31000;38UV030A18;13
S31000;38WC050A21;14
S31000;38WS030A21;12
S31000;49BO015CS19;66
S31000;49CRM2NO22;3
S31000;49CUPNO22;17
S31000;49DC004I20;3
S31000;49DH004I22;41
S31000;49GD035CB21;68
S31000;49HD035A15;81
S31000;49HD035K17;17
S31000;49ICNPOU22;143
S31000;49LC020A20;48
S31000;49LD030I21;6
S31000;49MA010A17;1
S31000;49MA010K22;44
S31000;49MA010R22;3
S31000;49MA010VB3;20
S31000;49MC014I23;51
S31000;49MTAT23;14
S31000;49OR005I21;65
S31000;49POCK2NO22;22
S31000;49POUM23;18
S31000;49SH035E21;86
S31000;52AF006G20;68
S31000;52AS006E19;36
S31000;52AS006FV21;42
S31000;52AS006G21;12
S31000;52AS006P19;4
S31000;52BY001I22;200
S31000;52CL0015K21;2
S31000;52CP0015I22;15
S31000;52CP006K22;46
S31000;52CV0015K22;17
S31000;52DH001I22;91
S31000;52DL002I21;55
S31000;52ER002I21;228
S31000;52EV002I22;89
S31000;52GD0015A18;18
S31000;52HCTM23;42
S31000;52HS004A18;1
S31000;52LGEBOX18;3
S31000;52LGENSA21;21
S31000;52MA003K22A;31
S31000;52MC001I23;157
S31000;52MGENSA21GPS;34
S31000;52MS001I20;107
S31000;52OR001I21;230
S31000;52PS0015R21;10
S31000;52SE0015I22;9
S31000;52SH006E19;195
S31000;52SH006FV21;80
S31000;52SH006P19;43
S31000;52SLEMM23;36
S31000;52TS001I22;1
S31000;98BBGD030VE4;13
S31000;98BBGD050VE2;20
S31000;98BBLC050VE3;20
S31000;98BBMA010KA3;56
S31000;ACPOCVEC00001;269
S31000;ACPOCVEC00002;260
S31000;ACPOCVEC00003;86
S31000;ACPOCVEC00004;61
S31000;SGOCVE600004;19
S29000;24MA075P21;10
S29000;24MA075R22;12
S29000;24MA150R22;15
S29000;24RG500CB21;24
S29000;24RG500R22;28
S29000;24RO010CB4;3
S29000;24SA050CB21;17
S29000;24SA050R22;15
S29000;27BD060I23;11
S29000;27BY015I22;5
S29000;27CP050I22;20
S29000;27DB015I20;24
S29000;27DC050I20;10
S29000;27DE015I21;20
S29000;27DH015I22;26
S29000;27DH030I22;30
S29000;27DL200I21;13
S29000;27DS030I20;11
S29000;27ER015I22;22
S29000;27ER050I21;15
S29000;27ER150I21;25
S29000;27EV200I22;23
S29000;27HC050I18;3
S29000;27HCR050I16;14
S29000;27HD200I23;9
S29000;27HS030I18;4
S29000;27HSR030I16;17
S29000;27MC125I23;26
S29000;27MP050I22;13
S29000;27MP150I22;11
S29000;27MQ065I15A;3
S29000;27MS050I20;3
S29000;27OR030I21;22
S29000;27OR050I21;36
S29000;27SE075I22;10
S29000;27SP030I19;2
S29000;29ASH240A20;12
S29000;29BP100A22;4
S29000;29EC200A22;14
S29000;29GE200A21;38
S29000;29HD250A15;22
S29000;29HD500A15;58
S29000;29HS100A21;27
S29000;29LC200A20US;48
S29000;29MA030A17;10
S29000;29MA075A21;23
S29000;29RC200A22;64
S29000;29RH500A15;198
S29000;29SA050A22;18
S29000;29SE125A21;18
S29000;29SH240A20;17
S29000;29VC240A22;15
S29000;38BV050A22;4
S29000;38EV075A21;14
S29000;38FT200A21;12
S29000;38MI150A22;3
S29000;38RC050A22;7
S29000;38UV030A18;19
S29000;38WC050A21;16
S29000;38WS030A21;14
S29000;49BO015CS19;21
S29000;49DC004I20;4
S29000;49DH004I22;28
S29000;49GD035CB5;113
S29000;49HD035A15;14
S29000;49HD035K17;12
S29000;49LC020A20;99
S29000;49LC035CB21;18
S29000;49LD030I21;10
S29000;49MA010CB4;99
S29000;49MA010K22;37
S29000;49MA010VB3;64
S29000;49MC014I23;10
S29000;49MTAT23;14
S29000;49OR005I21;24
S29000;49PADCL20;18
S29000;49POBFNO22;13
S29000;49POCK2NO22;15
S29000;49POU1O21;5
S29000;49POUM23;15
S29000;52AF006G20;12
S29000;52AS006E19;67
S29000;52AS006FV21;62
S29000;52AS006G21;82
S29000;52AS006P19;26
S29000;52BY001I22;197
S29000;52CL0015K21;46
S29000;52CP0015I22;150
S29000;52CP006K22;159
S29000;52CV0015K22;47
S29000;52DB001I20;65
S29000;52DC0015I20;9
S29000;52DE001I21;3
S29000;52DH001I22;19
S29000;52DL002I21;113
S29000;52DS001I20;15
S29000;52ER002I21;26
S29000;52GD0015A18;36
S29000;52HCTM23;34
S29000;52HD001I23;95
S29000;52HS001I17;12
S29000;52HS004A18;36
S29000;52LGEBOX18;6
S29000;52LGENSA21;91
S29000;52MC001I23;61
S29000;52MC006G21;98
S29000;52MGENSA21GPS;61
S29000;52MS001I20;42
S29000;52OR001I21;168
S29000;52PS0015R21;18
S29000;52SE0015I22;150
S29000;52SGENSA21GPS;74
S29000;52SH006E19;142
S29000;52SH006FV21;189
S29000;52SH006G21;209
S29000;52SH006P19;80
S29000;52SLEMM23;30
S29000;52TS001I22;84
S29000;52TS001R21;25
S29000;98BBGD050VE2;64
S29000;98BBLC050VE3;64
S29000;SGOCVE600004;64
S29000;SGOCVKI00235;3
S29000;SGOCVKI00236;4
S27000;01SL500LV20;6
S27000;01SL500VE20;5
S27000;11AS040SG22;15
S27000;11AT050HL23;24
S27000;11BC100G21;3
S27000;11BG140CS19;4
S27000;11BG140SH19;7
S27000;11BG140SI19;5
S27000;11BG140SL19;5
S27000;11BH050A18;4
S27000;11BO100CS19;9
S27000;11BP100I19;2
S27000;11BR100A20;4
S27000;11CD050A18;4
S27000;11CF100TR19;9
S27000;11CM030H19;13
S27000;11CM030H20;9
S27000;11CM030O21;6
S27000;11CM125I19;6
S27000;11CM200AT23;8
S27000;11CM200AT23C;35
S27000;11EC200AT23;43
S27000;11EH150A18;10
S27000;11EP010H19;7
S27000;11ET010H20;7
S27000;11ET050H20;1
S27000;11ET075O21;4
S27000;11FAG10TR19;5
S27000;11GD050A18;2
S27000;11GD250H19;7
S27000;11GD250H20;10
S27000;11GD250O21;6
S27000;11GE075I20;1
S27000;11GM200I19;10
S27000;11GN195A18;6
S27000;11LC250H19;8
S27000;11LC250H20;6
S27000;11LC250O21;4
S27000;11LD200I19;5
S27000;11LT300I20;4
S27000;11MH075A19;4
S27000;11MWC200I19;4
S27000;11PM100SH19;4
S27000;11PM100SI19;4
S27000;11SA050O21;3
S27000;11SA100H20;11
S27000;11SD100CS19;5
S27000;11SD100SH19;7
S27000;11SD100SI19;6
S27000;11SD100SL19;1
S27000;11SH300AD22;17
S27000;11SP200CS19;8
S21000;01BK010K14;16
S21000;01BL012K18;10
S21000;01BM050K23;15
S21000;01BM150K23;11
S21000;01BP050K21;19
S21000;01CCJ200K22;18
S21000;01CD250K23;23
S21000;01CL050K21;4
S21000;01CL125KB23;2
S21000;01CL175K22;5
S21000;01CM300K20;4
S21000;01CM500K20;8
S21000;01CMJ075K21;15
S21000;01CP200K22;9
S21000;01CPR200K22;8
S21000;01CV050K22;2
S21000;01EC200K22;13
S21000;01EM030K23;9
S21000;01HD250K17;9
S21000;01HD500K20;7
S21000;01HDR500K20;8
S21000;01HF100K17;5
S21000;01HN0075K23;12
S21000;01HV030K16;3
S21000;01HV030K23;4
S21000;01LT300K20;11
S21000;01MA030K22;106
S21000;01MA075K22;14
S21000;01MA150K22;28
S21000;01MR030K14;71
S21000;01PI030K18;14
S21000;01PI150K18;12
S21000;01RL500K20;8
S21000;01RV500K20;28
S21000;01SA100LT20;10
S21000;01SA100LV20;9
S21000;01SA100VE20;8
S21000;01SA250LT20;8
S21000;01SA250LV20;14
S21000;01SA250VE20;16
S21000;01SA300KRO22;5
S21000;01SA500KRO22;6
S21000;01SAR500KRO22;7
S21000;01SL0045K13;22
S21000;01SL300LV20;6
S21000;01SL300VE20;6
S21000;01SL500LV20;4
S21000;01SL500VE20;8
S21000;11AS040SG22;15
S21000;11AT050HL23;19
S21000;11BG140CS19;1
S21000;11BG140SH19;5
S27000;11SP200SH19;5
S27000;11SP200SI19;2
S27000;11SV080I19;4
S27000;15AS250VA18;10
S27000;15BA500L16A;9
S27000;15BM500VB21;16
S27000;15DO050VA22;7
S27000;15ET010VB19;1
S27000;15ET100VA20;4
S27000;15ET100VB20;2
S27000;15GD075L21;8
S27000;15GD250L21;13
S27000;15GD250VA20;5
S27000;15GD250VB21;4
S27000;15GD500VB21;8
S27000;15GM065L21;12
S27000;15GM065VB21;12
S27000;15GM280VB21;6
S27000;15GN300L21;4
S27000;15HE005L14;5
S27000;15LC075L15;8
S27000;15LC250L14;4
S27000;15LC250VA20;6
S27000;15LC250VB3;6
S27000;15LM300L11;5
S27000;15MA030L21;15
S27000;15MA030VA5;2
S27000;15MA030VB3;11
S27000;15MA075L20;7
S27000;15MA075VB4;4
S27000;15RC500VB21;12
S27000;15RG500L14;8
S27000;15RG500VA20;10
S27000;15RO010VBM22;29
S27000;15SA070VB6;1
S27000;15SA075VB21;4
S27000;15SH250VA20;2
S27000;17AF100G20;9
S27000;17AS250E19;5
S27000;17AS250FV21;4
S27000;17AS250G21;6
S27000;17AS250P19;6
S27000;17AS500E19;8
S27000;17AS500FV21;14
S27000;17AS500G21;10
S27000;17AS500P19;6
S27000;17DO050F13;22
S27000;17ER075P19;6
S27000;17HB050A22;7
S27000;17HI001G19;73
S27000;17HI100G19;6
S27000;17MC200G21;11
S21000;11BG140SI19;5
S21000;11BG140SL19;4
S21000;11BH050A18;9
S21000;11BO100CS19;13
S21000;11BP100I19;4
S21000;11BR100A20;6
S21000;11BS020K23;14
S21000;11CF100TR19;16
S21000;11CM030H19;5
S21000;11CM030H20;5
S21000;11CM030O21;7
S21000;11CM125I19;12
S21000;11CM200AT23;4
S21000;11CM200AT23C;35
S21000;11EC200AT23;35
S21000;11EH150A18;2
S21000;11EP010H19;8
S21000;11ET010H20;9
S21000;11ET050H20;4
S21000;11ET075O21;5
S21000;11FAG10TR19;13
S21000;11GD050A18;6
S21000;11GD250H19;12
S21000;11GD250H20;13
S21000;11GD250O21;9
S21000;11GE075I20;5
S21000;11GM200I19;10
S21000;11GN195A18;8
S21000;11LC250H19;8
S21000;11LC250H20;7
S21000;11LC250O21;5
S21000;11LD200I19;10
S21000;11LH200I19;5
S21000;11LT300I20;15
S21000;11MH075A19;3
S21000;11MWC200I19;5
S21000;11PEP050I20;1
S21000;11PM100SH19;4
S21000;11PM100SI19;4
S21000;11SA050O21;8
S21000;11SA100H20;7
S21000;11SAF100H20;8
S21000;11SD100CS19;1
S21000;11SD100SH19;4
S21000;11SD100SI19;4
S21000;11SH300AD22;11
S21000;11SP200CS19;1
S21000;11SP200SH19;5
S21000;11SP200SI19;4
S21000;11SV080I19;4
S21000;15AS250VA18;6
S21000;15BA500L16A;11
S27000;17RC500E20;9
S27000;17RC500G21;14
S27000;17RC500P19;6
S27000;17RS500E20;7
S27000;17RS500FV21;10
S27000;17RS500G21;14
S27000;17RS500P19;19
S27000;17SE100FV21;11
S27000;17SH060SE21;5
S27000;17SH060SG21;5
S27000;17SH060SP21;5
S27000;17SH075E19;21
S27000;17SH075G21;5
S27000;17SH300E19;23
S27000;17SH300FV21;20
S27000;17SH300G21;25
S27000;17SH300P19;17
S27000;17SH500E19;11
S27000;17SH500FV21;10
S27000;17SH500G21;8
S27000;17SH500P19;17
S27000;17VI100P19;5
S27000;20AR075O20;4
S27000;20DO050O20;3
S27000;20DO075CD20;4
S27000;20DO130HC20;10
S27000;20ET075CD21;3
S27000;20ET075HC20;5
S27000;20ET075OC20;4
S27000;20GD250CD20;2
S27000;20GD500HC20;6
S27000;20HR050H20;6
S27000;20NV150H20;5
S27000;20SA050CD20;4
S27000;20SA050HC20;4
S27000;24BL012CB5;6
S27000;24BL012R22;6
S27000;24BR050CB21;10
S27000;24BR050R22;9
S27000;24ET075CB21;8
S27000;24ET075R22;8
S27000;24GD250CB21;6
S27000;24GD250R22;9
S27000;24GD500R22;7
S27000;24LC250CB21;7
S27000;24LC250R22;10
S27000;24MA030CB21;22
S27000;24MA030P21;8
S27000;24MA030R22;16
S27000;24MA030RV19;1
S27000;24MA075CB21;14
S27000;24MA075P21;10
S21000;15BM500VB21;10
S21000;15DO050VA22;6
S21000;15ET010VB19;5
S21000;15ET100VA20;4
S21000;15ET100VB20;4
S21000;15GD075L21;2
S21000;15GD250L21;7
S21000;15GD250VA20;7
S21000;15GD250VB21;7
S21000;15GD500VB21;9
S21000;15GM065L21;11
S21000;15GM065VB21;12
S21000;15GM280VB21;6
S21000;15GN300L21;4
S21000;15HE005L14;2
S21000;15LC075L15;2
S21000;15LC250L14;10
S21000;15LC250VA20;4
S21000;15LC250VB3;10
S21000;15LM300L11;5
S21000;15MA030L21;15
S21000;15MA030VA5;1
S21000;15MA030VB3;8
S21000;15MA075L20;8
S21000;15MA075VB4;11
S21000;15RC500VB21;3
S21000;15RG500L14;14
S21000;15RG500VA20;23
S21000;15RO010VBM22;7
S21000;15SA075VB21;10
S21000;15SE400VB5;3
S21000;15SH250VA20;9
S21000;17AF100G20;14
S21000;17AS250E19;5
S21000;17AS250FV21;6
S21000;17AS250G21;4
S21000;17AS250P19;6
S21000;17AS500E19;11
S21000;17AS500FV21;11
S21000;17AS500G21;9
S21000;17AS500P19;5
S21000;17DO050F13;24
S21000;17ER075P19;6
S21000;17HB050A22;7
S21000;17HI100G19;16
S21000;17MC200G21;12
S21000;17RC500E20;11
S21000;17RC500G21;9
S21000;17RC500P19;5
S21000;17RS500E20;14
S21000;17RS500FV21;17
S21000;17RS500G21;14
S21000;17RS500P19;11
S27000;24MA075R22;8
S27000;24MA150R22;11
S27000;24RG500CB21;9
S27000;24RG500R22;10
S27000;24SA050CB21;3
S27000;24SA050R22;8
S27000;27BD060I23;10
S27000;27BY015I22;2
S27000;27CP050I22;10
S27000;27DB015I20;8
S27000;27DC050I20;7
S27000;27DCB060I17;1
S27000;27DE015I21;6
S27000;27DH015I22;17
S27000;27DH030I22;13
S27000;27DL200I21;7
S27000;27DS030I20;6
S27000;27ER015I22;15
S27000;27ER150I21;10
S27000;27EV200I22;13
S27000;27HC050I18;5
S27000;27HCR050I16;5
S27000;27HD200I23;3
S27000;27HS030I18;3
S27000;27HSR030I16;1
S27000;27MC125I23;16
S27000;27MI150I20;1
S27000;27MP050I20;1
S27000;27MP150I22;6
S27000;27MQ065I15A;3
S27000;27MS050I20;2
S27000;27OR030I21;15
S27000;27OR050I21;35
S27000;27SE075I22;16
S27000;27SP030I19;1
S27000;29ASH075A20;7
S27000;29ASH240A20;4
S27000;29BP100A22;6
S27000;29EC200A22;9
S27000;29GE200A21;10
S27000;29HD250A15;10
S27000;29HD500A15;27
S27000;29HS100A21;13
S27000;29LC200A20US;16
S27000;29MA030A17;15
S27000;29MA075A21;10
S27000;29RC200A22;18
S27000;29RH500A15;97
S27000;29SA050A22;7
S27000;29SE125A21;4
S27000;29SH075A20;7
S27000;29SH240A20;4
S27000;29VC240A22;2
S27000;38BV050A22;5
S27000;38EV075A21;10
S27000;38FT200A21;5
S27000;38MI150A22;7
S27000;38RC050A22;5
S27000;38UV030A18;11
S27000;38WC050A21;10
S27000;38WS030A21;12
S27000;49BO015CS19;12
S27000;49DC004I20;10
S27000;49DH004I22;15
S27000;49GD035CB5;6
S27000;49HD035A15;6
S27000;49HD035K17;7
S27000;49LD030I21;10
S27000;49MA010A17;7
S27000;49MA010K22;17
S27000;49MA010VB3;5
S27000;49MC014I23;10
S27000;49MTAT23;8
S27000;49OR005I21;46
S27000;49POCK2NO22;2
S27000;49POUM23;11
S27000;49SH035E21;5
S21000;52AF006G20;68
S27000;52AF006G20;96
S21000;52AS006E19;66
S27000;52AS006E19;93
S21000;52AS006FV21;54
S27000;52AS006FV21;46
S21000;52AS006G21;16
S27000;52AS006G21;54
S21000;52AS006P19;16
S27000;52AS006P19;35
S21000;52BY001I22;190
S27000;52BY001I22;197
S21000;52CL0015K21;17
S27000;52CL0015K21;31
S21000;52CP0015I22;2
S27000;52CP0015I22;44
S21000;52CP006K22;128
S27000;52CP006K22;174
S21000;52CV0015K22;39
S27000;52CV0015K22;50
S21000;52DB001I20;19
S27000;52DB001I20;47
S21000;52DC0015I20;206
S21000;52DE001I21;27
S27000;52DE001I21;22
S21000;52DH001I22;245
S27000;52DH001I22;50
S21000;52DL002I21;109
S27000;52DL002I21;110
S28000;11SH90005G21;1
S28000;11SP200CS19;11
S30000;11SP200CS19;5
S28000;11SP200SH19;10
S30000;11SP200SH19;5
S28000;11SP200SI19;3
S30000;11SP200SI19;5
S28000;11SV080I19;4
S30000;11SV080I19;4
S28000;15AS250VA18;12
S30000;15AS250VA18;4
S28000;15BA500L16A;18
S30000;15BA500L16A;7
S28000;15BM500VB21;23
S30000;15BM500VB21;18
S28000;15DO050VA22;42
S30000;15DO050VA22;8
S28000;15ET010VB19;3
S30000;15ET010VB19;8
S28000;15ET100VA20;12
S30000;15ET100VA20;3
S28000;15ET100VB20;8
S30000;15ET100VB20;5
S30000;15GD075L21;10
S28000;15GD250L21;12
S30000;15GD250L21;7
S28000;15GD250VA20;12
S30000;15GD250VA20;10
S28000;15GD250VB21;11
S30000;15GD250VB21;11
S28000;15GD500VB21;17
S30000;15GD500VB21;10
S28000;15GD9000V21;1
S28000;15GM065L21;78
S30000;15GM065L21;18
S28000;15GM065VB21;58
S30000;15GM065VB21;7
S28000;15GM280VB21;5
S30000;15GM280VB21;4
S28000;15GN300L21;14
S30000;15GN300L21;10
S28000;15HE005L14;7
S30000;15HE005L14;4
S30000;15LC075L15;10
S28000;15LC250L14;13
S30000;15LC250L14;7
S28000;15LC250VA20;5
S30000;15LC250VA20;6
S28000;15LC250VB3;15
S30000;15LC250VB3;7
S28000;15LM300L11;7
S30000;15LM300L11;11
S27000;52DS001I20;9
S21000;52ER002I21;59
S27000;52ER002I21;18
S21000;52EV002I22;78
S27000;52EV002I22;84
S21000;52GD0015A18;16
S27000;52GD0015A18;43
S21000;52HCTM23;28
S27000;52HCTM23;24
S21000;52HD001I23;77
S27000;52HD001I23;67
S21000;52HD006A18;83
S21000;52HS001I17;49
S27000;52HS001I17;33
S21000;52HS004A18;121
S27000;52HS004A18;110
S21000;52LGEBOX18;10
S27000;52LGEBOX18;4
S21000;52LGENSA21;42
S27000;52LGENSA21;29
S21000;52MA003K22A;51
S21000;52MC001I23;30
S21000;52MC006G21;38
S27000;52MC006G21;199
S21000;52MGEBOX18;2
S27000;52MGEBOX18;7
S21000;52MGENSA21GPS;70
S27000;52MGENSA21GPS;78
S27000;52MOCOL316;1
S21000;52MS001I20;47
S27000;52MS001I20;69
S21000;52OR001I21;356
S21000;52PS0015R21;8
S27000;52PS0015R21;35
S21000;52SE0015I22;9
S27000;52SE0015I22;62
S21000;52SGENSA21GPS;121
S21000;52SH006E19;93
S27000;52SH006E19;287
S21000;52SH006FV21;206
S27000;52SH006FV21;169
S21000;52SH006G21;167
S27000;52SH006G21;129
S21000;52SH006P19;140
S27000;52SH006P19;137
S21000;52SLEMM23;24
S27000;52SLEMM23;22
S27000;52TS001I22;20
S21000;52TS001R21;27
S27000;52TS001R21;59
S21000;98BBGD030VE4;17
S21000;98BBGD050VE2;71
S27000;98BBGD050VE2;35
S21000;98BBLC050VE3;71
S27000;98BBLC050VE3;35
S21000;98BBMA010KA3;77
S21000;ACPOCVEC00001;272
S27000;ACPOCVEC00001;183
S21000;ACPOCVEC00002;392
S27000;ACPOCVEC00002;191
S21000;ACPOCVEC00003;44
S27000;ACPOCVEC00003;135
S21000;ACPOCVEC00004;100
S27000;ACPOCVEC00004;186
S21000;SGOCVE600004;71
S27000;SGOCVE600004;5
S27000;SGOCVE600006;30
S27000;SGOCVKI00234;2
S27000;SGOCVKI00236;7
S27000;SGOCVKI00239;1
S28000;15MA030L21;25
S30000;15MA030L21;19
S28000;15MA030VA5;2
S30000;15MA030VA5;7
S28000;15MA030VB3;10
S30000;15MA030VB3;19
S28000;15MA075L20;15
S30000;15MA075L20;10
S28000;15MA075VB4;10
S30000;15MA075VB4;16
S28000;15RC500VB21;11
S30000;15RC500VB21;12
S28000;15RG500L14;15
S30000;15RG500L14;8
S28000;15RG500VA20;7
S30000;15RG500VA20;7
S28000;15RO010VBM22;65
S30000;15RO010VBM22;15
S28000;15SA075VB21;5
S30000;15SA075VB21;4
S28000;15SH250VA20;9
S30000;15SH250VA20;8
S28000;17AF100G20;6
S30000;17AF100G20;14
S28000;17AS250E19;5
S30000;17AS250E19;7
S28000;17AS250FV21;5
S30000;17AS250FV21;6
S28000;17AS250G21;7
S30000;17AS250G21;12
S28000;17AS250P19;5
S30000;17AS250P19;6
S28000;17AS500E19;18
S30000;17AS500E19;9
S28000;17AS500FV21;13
S30000;17AS500FV21;4
S28000;17AS500G21;14
S30000;17AS500G21;12
S28000;17AS500P19;5
S30000;17AS500P19;6
S28000;17DO050F13;3
S30000;17DO050F13;14
S28000;17ER075P19;13
S30000;17ER075P19;6
S28000;17HB050A22;11
S30000;17HB050A22;11
S28000;17HI001G19;142
S28000;17HI100G19;11
S30000;17HI100G19;7
S28000;17MC200G21;14
S30000;17MC200G21;11
S28000;17RC500E20;9
S30000;17RC500E20;7
S28000;17RC500G21;13
S30000;17RC500G21;12
S28000;17RC500P19;7
S30000;17RC500P19;7
S28000;17RS500E20;19
S30000;17RS500E20;11
S28000;17RS500FV21;16
S30000;17RS500FV21;12
S28000;17RS500G21;21
S30000;17RS500G21;11
S28000;17RS500P19;24
S30000;17RS500P19;3
S28000;17SE100FV21;21
S30000;17SE100FV21;20
S28000;17SH060SE21;6
S30000;17SH060SE21;3
S28000;17SH060SG21;7
S30000;17SH060SG21;4
S28000;17SH060SP21;6
S30000;17SH060SP21;4
S28000;17SH075E19;33
S30000;17SH075E19;14
S28000;17SH075G21;1
S28000;17SH300E19;26
S30000;17SH300E19;28
S28000;17SH300FV21;17
S30000;17SH300FV21;22
S28000;17SH300G21;24
S30000;17SH300G21;25
S28000;17SH300P19;20
S30000;17SH300P19;24
S28000;17SH500E19;22
S30000;17SH500E19;13
S28000;17SH500FV21;15
S30000;17SH500FV21;18
S28000;17SH500G21;11
S30000;17SH500G21;12
S28000;17SH500P19;22
S30000;17SH500P19;16
S28000;17VI100P19;4
S30000;17VI100P19;6
S28000;20AR075O20;12
S30000;20AR075O20;5
S28000;20DO050O20;3
S30000;20DO050O20;9
S28000;20DO075CD20;1
S30000;20DO075CD20;6
S28000;20DO130HC20;7
S30000;20DO130HC20;4
S28000;20ET075CD21;9
S30000;20ET075CD21;5
S28000;20ET075HC20;7
S30000;20ET075HC20;4
S28000;20ET075OC20;5
S30000;20ET075OC20;5
S28000;20GD250CD20;10
S30000;20GD250CD20;7
S28000;20GD250HC20;5
S30000;20GD250HC20;14
S28000;20GD250OC20;9
S30000;20GD250OC20;6
S28000;20GD500HC20;15
S30000;20GD500HC20;8
S28000;20NV150H20;9
S30000;20NV150H20;10
S28000;20SA050CD20;4
S30000;20SA050CD20;4
S28000;20SA050HC20;3
S30000;20SA050HC20;4
S28000;24BL012CB5;14
S30000;24BL012CB5;8
S28000;24BL012R22;10
S30000;24BL012R22;11
S28000;24BR050CB21;18
S30000;24BR050CB21;6
S28000;24BR050R22;6
S30000;24BR050R22;16
S28000;24ET075CB21;15
S30000;24ET075CB21;14
S28000;24ET075R22;13
S30000;24ET075R22;12
S28000;24GD250CB21;19
S30000;24GD250CB21;12
S28000;24GD250R22;12
S30000;24GD250R22;16
S28000;24GD500R22;13
S30000;24GD500R22;10
S28000;24LC250CB21;17
S30000;24LC250CB21;4
S28000;24LC250R22;12
S30000;24LC250R22;14
S28000;24MA030CB21;29
S30000;24MA030CB21;30
S28000;24MA030P21;4
S30000;24MA030P21;7
S28000;24MA030R22;20
S30000;24MA030R22;38
S28000;24MA030RV19;18
S30000;24MA030RV19;4
S28000;24MA075CB21;15
S30000;24MA075CB21;13
S30000;24MA075P15;8
S28000;24MA075P21;9
S30000;24MA075P21;10
S28000;24MA075R22;13
S90000;29ASH240A20;10
S90000;29BP100A22;8
S90000;29EC200A22;12
S90000;29HD075A15;80
S90000;29HD250A15;23
S90000;29HD500A15;32
S90000;29HS100A21;9
S90000;29LC200A20US;2
S90000;29MA030A17;13
S90000;29MA075A21;12
S90000;29RC200A22;2
S90000;29RH500A15;61
S90000;29SA050A22;14
S90000;29SE125A21;3
S90000;29SH075A20;29
S90000;29SH240A20;8
S90000;29VC240A16;13
S90000;29VC240A22;12
S90000;38BV050A19;4
S90000;38BV050A22;11
S90000;38EV075A21;10
S90000;38FT200A18;9
S90000;38FT200A21;7
S90000;38MI150A18;1
S90000;38MI150A22;3
S90000;38RC050A22;7
S90000;38WC050A18;31
S90000;38WC050A21;9
S90000;38WS030A18;12
S90000;38WS030A21;7
S90000;49AF015G20;145
S90000;49BM010K19;131
S90000;49BO015CS19;59
S90000;49CABNO22;181
S90000;49CAS2NO22;54
S90000;49CL008K21;7
S90000;49CL1SA18;33
S90000;49CM010O21;165
S90000;49CP008I19;21
S90000;49CP020K22;21
S90000;49CRM1NO22;39
S90000;49CRM2NO22;140
S90000;49DC004I20;1
S90000;49DISC3NO22;15
S90000;49ET007CB22;15
S90000;49GD035CB5;109
S90000;49HD035A15;166
S90000;49HD035K17;37
S90000;49HS015A18;22
S90000;49IC1POU20;14
S90000;49IC2POU20;37
S90000;49IC3POU20;27
S90000;49LC020A20;78
S24000;01BK010K14;13
S24000;01BL012K18;11
S24000;01BM050K23;12
S24000;01BM150K23;15
S24000;01BP050K21;9
S24000;01CCJ200K22;15
S24000;01CD250K17;1
S24000;01CD250K23;9
S24000;01CF030KB23;1
S24000;01CL050K21;9
S24000;01CL175K22;2
S24000;01CL200KG22H;4
S24000;01CM300K20;9
S24000;01CM500K20;9
S24000;01CMJ075K21;10
S24000;01CMR500K20;8
S24000;01CP200K22;18
S24000;01CPR200K22;9
S24000;01CV050K22;8
S24000;01EC200K22;10
S24000;01EM030K23;8
S24000;01HD250K17;17
S24000;01HD500K20;16
S24000;01HDR500K20;12
S24000;01HF100K17;6
S24000;01HN0075K23;8
S24000;01HV030K23;3
S24000;01LC250K23;7
S24000;01LT300K20;14
S24000;01MA030K22;30
S24000;01MA075K22;14
S24000;01MA150K22;19
S24000;01MR030K14;13
S24000;01PI030K18;9
S24000;01PI150K18;13
S24000;01RL500K20;5
S24000;01RV500K20;11
S24000;01SA100LT20;16
S24000;01SA100LV20;10
S24000;01SA100VE20;10
S24000;01SA250LT20;12
S24000;01SA250LV20;13
S24000;01SA250VE20;4
S24000;01SA300KRO22;6
S24000;01SA500KRO22;6
S24000;01SAR500KRO22;6
S24000;01SL0045K13;18
S24000;01SL300LV20;2
S24000;01SL300VE20;4
S24000;01SL500LV20;4
S24000;01SL500VE20;4
S24000;11AS040SG22;12
S21000;17SE100FV21;19
S21000;17SH060SE21;4
S21000;17SH060SG21;5
S21000;17SH060SP21;5
S21000;17SH075E19;16
S21000;17SH075G21;1
S21000;17SH300E19;27
S21000;17SH300FV21;23
S21000;17SH300G21;19
S21000;17SH300P19;17
S21000;17SH500E19;11
S21000;17SH500FV21;7
S21000;17SH500G21;12
S21000;17SH500P19;11
S21000;17VI100P19;5
S21000;20AR075O20;7
S21000;20DO050O20;7
S21000;20DO075CD20;10
S21000;20DO130HC20;4
S21000;20ET075CD21;5
S21000;20ET075HC20;5
S21000;20ET075OC20;5
S21000;20GD250CD20;10
S21000;20GD250HC20;10
S21000;20GD250OC20;7
S21000;20GD500HC20;8
S21000;20HR050H20;3
S21000;20NV150H20;9
S21000;20SA050CD20;3
S21000;20SA050HC20;4
S21000;24BL012CB5;7
S21000;24BL012R22;4
S21000;24BR050CB21;11
S21000;24BR050R22;7
S21000;24ET075CB21;7
S21000;24ET075R22;8
S21000;24GD250CB21;15
S21000;24GD250R22;17
S21000;24GD500R22;9
S21000;24LC250CB21;11
S21000;24LC250R22;8
S21000;24MA030CB21;15
S21000;24MA030P21;5
S21000;24MA030R22;16
S21000;24MA030RV19;2
S21000;24MA075CB21;17
S21000;24MA075P21;8
S21000;24MA075R22;10
S21000;24MA150R22;13
S21000;24RG500CB21;11
S21000;24RG500R22;12
S21000;24SA050CB21;9
S30000;24MA075R22;12
S28000;24MA150R22;15
S30000;24MA150R22;11
S28000;24RG500CB21;11
S30000;24RG500CB21;12
S28000;24RG500R22;7
S30000;24RG500R22;10
S30000;24RO010CB4;7
S28000;24SA050CB21;13
S30000;24SA050CB21;11
S28000;24SA050R22;13
S30000;24SA050R22;6
S28000;27BD060I23;11
S30000;27BD060I23;9
S28000;27BY015I22;16
S30000;27BY015I22;12
S28000;27CP050I22;15
S30000;27CP050I22;9
S28000;27DB015I20;10
S30000;27DB015I20;11
S28000;27DC050I20;2
S30000;27DC050I20;9
S30000;27DCB060I17;1
S28000;27DE015I21;16
S30000;27DE015I21;8
S28000;27DH015I22;40
S30000;27DH015I22;29
S28000;27DH030I22;26
S30000;27DH030I22;23
S28000;27DL200I21;10
S30000;27DL200I21;4
S28000;27DS030I20;7
S30000;27DS030I20;7
S28000;27ER015I22;19
S30000;27ER015I22;18
S28000;27ER050I21;4
S30000;27ER050I21;10
S28000;27ER150I21;15
S30000;27ER150I21;14
S28000;27EV200I22;27
S30000;27EV200I22;26
S30000;27FP050I19;1
S30000;27HC050I18;4
S30000;27HCR050I16;3
S28000;27HD200I23;10
S30000;27HD200I23;8
S28000;27HS030I18;1
S30000;27HS030I18;4
S28000;27HSR030I16;1
S30000;27HSR030I16;6
S28000;27MC125I23;13
S30000;27MC125I23;12
S30000;27MI150I20;2
S90000;49LC035CB21;8
S90000;49LD030I20;22
S90000;49LD030I21;142
S90000;49MA010A17;65
S90000;49MA010A21X;10
S90000;49MA010CB21;15
S90000;49MA010CB4;60
S90000;49MA010K22;44
S90000;49MA010L16;50
S90000;49MA010R22;9
S90000;49MA010VB3;41
S90000;49MC014I23;16
S90000;49MS008I20;166
S90000;49MTAT23;1
S90000;49NOTNO22;94
S90000;49PFCWC21;40
S90000;49PI010K18;30
S90000;49PMENNO21;26
S90000;49POBFNO22;4
S90000;49POCK1NO22;392
S90000;49POCK2NO22;138
S90000;49POCKNO21;125
S90000;49POSUCS22;21
S90000;49POU1O21;19
S90000;49POUCB21;15
S90000;49POUHE22;39
S90000;49POUID20;45
S90000;49POUIS19;23
S90000;49POUM21;19
S90000;49PWPBM23;100
S90000;49PWPBNO22;29
S90000;49RCWM22;48
S90000;49SH035E21;177
S90000;49TOBACH20;67
S90000;49TOTMC20;40
S90000;49TOTWC21;90
S90000;49TRAVNO21;81
S90000;52AF006G20;19
S90000;52AS006G21;18
S90000;52AS006P19;62
S90000;52CP0015I22;100
S90000;52CP006K22;5
S90000;52CUSTNO22;91
S90000;52CV0015K22;41
S90000;52DC0015I20;9
S90000;52DH001I22;100
S90000;52DL002I21;30
S90000;52DS001I20;129
S90000;52ER002I21;23
S90000;52ET001O21;63
S90000;52HCTM22;32
S90000;52HS004A18;26
S90000;52LGEBOX18;10
S24000;11AT050HL23;17
S24000;11BC100G21;1
S24000;11BG140CS19;2
S24000;11BG140SH19;4
S24000;11BG140SI19;4
S24000;11BG140SL19;4
S24000;11BH050A18;3
S24000;11BO100CS19;12
S24000;11BP100I19;4
S24000;11BR100A20;3
S24000;11BS020K23;3
S24000;11CD050A18;3
S24000;11CF100TR19;3
S24000;11CM030H19;11
S24000;11CM030H20;12
S24000;11CM030O21;14
S24000;11CM125I19;4
S24000;11CM200AT23;6
S24000;11CM200AT23C;35
S24000;11EC200AT23;41
S24000;11EH150A18;3
S24000;11EP010H19;4
S24000;11ET010H20;5
S24000;11ET050H20;4
S24000;11ET075O21;6
S24000;11FAG10TR19;5
S24000;11GD050A18;9
S24000;11GD250H19;12
S24000;11GD250H20;11
S24000;11GD250O21;10
S24000;11GE075I20;5
S24000;11GM200I19;24
S24000;11GN195A18;10
S24000;11LC250H19;17
S24000;11LC250H20;10
S24000;11LC250O21;11
S24000;11LD200I19;9
S24000;11LH200I19;9
S24000;11LT300I20;2
S24000;11MH075A19;8
S24000;11MWC200I19;4
S24000;11PEP050I20;1
S24000;11PM100SH19;5
S24000;11PM100SI19;4
S24000;11SA050O21;15
S24000;11SA100H20;11
S24000;11SAF100H20;10
S24000;11SD100CS19;5
S24000;11SD100SH19;9
S24000;11SD100SI19;5
S24000;11SH300AD22;18
S24000;11SP200CS19;10
S24000;11SP200SH19;5
S10;27BY015I22;11
S10;27CP050I22;4
S10;27DB015I20;12
S10;27DC050I20;4
S10;27DCB060I17;2
S10;27DE015I21;5
S10;27DH015I22;29
S10;27DH030I22;18
S10;27DL200I21;7
S10;27DS030I20;6
S10;27ER015I22;23
S10;27ER050I21;11
S10;27ER150I21;15
S10;27EV200I22;26
S10;27HC050I18;2
S10;27HCR050I16;4
S10;27HD200I23;23
S10;27HS030I18;4
S10;27HSR030I16;7
S10;27MC125I23;23
S10;27MI150I20;11
S10;27MP050I20;3
S10;27MP050I22;52
S10;27MP150I22;18
S10;27MQ065I15A;4
S10;27MS050I20;3
S10;27OR030I21;18
S10;27OR050I21;40
S10;27SE075I22;20
S10;29ASH075A20;1
S10;29ASH240A20;9
S10;29BP100A19;11
S10;29BP100A22;4
S10;29EC200A22;17
S10;29GE200A21;38
S10;29HD250A15;18
S10;29HD500A15;48
S10;29HS100A21;23
S10;29LC200A20US;30
S10;29MA030A17;10
S10;29MA075A21;10
S10;29RC200A22;48
S10;29RH500A15;66
S10;29SA050A22;7
S10;29SE125A21;14
S10;29SH075A20;1
S10;29SH240A20;7
S10;29VC240A22;15
S10;38BV050A22;4
S10;38EC015A18;1
S10;38EV075A21;11
S10;38FT200A21;4
S10;38MI150A22;8
S10;38RC050A22;13
S90000;52MC001I23;100
S90000;52MGEBOX18;1
S90000;52MOCOL316;3
S90000;52SH006E19;18
S90000;52SH006FV21;47
S90000;52SH006G21;3
S90000;52TS001I22;78
S90000;52TS001R21;52
S90000;98BBACLUFNT1;6
S90000;98BBGD030VE4;3
S90000;98BBGD050VE2;19
S90000;98BBHD035A0;140
S90000;98BBHD050A0;70
S90000;98BBLC030VE5;53
S90000;98BBLC050VE3;33
S90000;98BBSA025LT2;143
S90000;98BBSH050A0;71
S90000;HKOCVE6T00056;124
S90000;J9517;9
S90000;JIMPN16;56
S24000;11SP200SI19;5
S24000;11SV080I19;4
S24000;15AS250VA18;5
S24000;15BA500L16A;13
S24000;15BM500VB21;12
S24000;15DO050VA22;4
S24000;15ET010VB19;3
S24000;15ET100VA20;4
S24000;15ET100VB20;5
S24000;15GD075L21;5
S24000;15GD250L21;11
S24000;15GD250VA20;8
S24000;15GD250VB21;9
S24000;15GD500VB21;7
S24000;15GM065L21;9
S24000;15GM065VB21;15
S24000;15GM280VB21;3
S24000;15GN300L21;11
S24000;15HE005L14;6
S24000;15LC075L15;5
S24000;15LC250L14;12
S24000;15LC250VA20;7
S24000;15LC250VB3;9
S24000;15LM300L11;9
S24000;15MA030L21;22
S24000;15MA030VA5;9
S24000;15MA030VB3;8
S24000;15MA075L20;9
S24000;15MA075VB4;4
S24000;15RC500VB21;17
S24000;15RG500L14;7
S24000;15RG500VA20;9
S24000;15RO010VBM22;4
S24000;15SA075VB21;4
S24000;15SH250VA20;4
S24000;17AF100G20;12
S24000;17AS250E19;6
S24000;17AS250FV21;9
S24000;17AS250G21;4
S24000;17AS250P19;5
S24000;17AS500E19;12
S24000;17AS500FV21;13
S24000;17AS500G21;8
S24000;17AS500P19;6
S24000;17DO050F13;10
S24000;17ER075P19;5
S24000;17HB050A22;7
S24000;17HI001G19;122
S24000;17HI100G19;10
S24000;17MC200G21;10
S24000;17RC500E20;29
S24000;17RC500G21;15
S24000;17RC500P19;9
S21000;24SA050R22;10
S21000;27BD060I23;9
S21000;27BY015I22;17
S21000;27CP050I22;18
S21000;27DB015I20;8
S21000;27DC050I20;1
S21000;27DCB060I17;3
S21000;27DE015I21;13
S21000;27DH015I22;9
S21000;27DH030I22;24
S21000;27DL200I21;9
S21000;27DS030I20;10
S21000;27ER015I22;19
S21000;27ER050I21;9
S21000;27ER150I21;15
S21000;27EV200I22;16
S21000;27HC050I18;4
S21000;27HCR050I16;6
S21000;27HD200I23;7
S21000;27HS030I18;2
S21000;27HSR030I16;2
S21000;27MC125I23;28
S21000;27MP050I22;1
S21000;27MP150I22;10
S21000;27MQ065I15A;4
S21000;27MS050I20;10
S21000;27OR030I21;13
S21000;27OR050I21;30
S21000;27SE075I22;10
S21000;29ASH240A20;4
S21000;29BP100A22;5
S21000;29EC200A22;9
S21000;29GE200A21;15
S21000;29HD250A15;12
S21000;29HD500A15;45
S21000;29HS100A21;21
S21000;29LC200A20US;32
S21000;29MA030A17;1
S21000;29MA075A21;8
S21000;29RC200A22;17
S21000;29RH500A15;51
S21000;29SA050A21;5
S21000;29SA050A22;10
S21000;29SE125A21;12
S21000;29SH240A20;9
S21000;29VC240A22;4
S21000;38BV050A22;3
S21000;38EV075A21;17
S21000;38FT200A21;7
S21000;38MI150A22;7
S21000;38RC050A22;5
S21000;38UV030A18;12
S21000;38WC050A21;11
S28000;27MP050I22;10
S28000;27MP150I22;21
S30000;27MP150I22;9
S28000;27MQ065I15A;7
S30000;27MQ065I15A;5
S28000;27MS050I20;5
S30000;27MS050I20;10
S28000;27OR030I21;50
S30000;27OR030I21;28
S28000;27OR050I21;41
S30000;27OR050I21;36
S28000;27SE075I22;28
S30000;27SE075I22;9
S28000;27SP030I19;2
S28000;29ASH075A20;5
S30000;29ASH075A20;3
S28000;29ASH240A20;13
S30000;29ASH240A20;6
S28000;29BP100A22;15
S30000;29BP100A22;6
S28000;29EC200A22;14
S30000;29EC200A22;8
S28000;29GE200A21;11
S30000;29GE200A21;17
S28000;29HD250A15;26
S30000;29HD250A15;15
S28000;29HD500A15;67
S30000;29HD500A15;22
S28000;29HD9000A21;1
S28000;29HS100A21;7
S30000;29HS100A21;20
S30000;29HS100A22SM;2
S28000;29LC200A20US;38
S30000;29LC200A20US;32
S28000;29MA030A17;14
S30000;29MA030A17;29
S28000;29MA075A21;11
S30000;29MA075A21;14
S28000;29RC200A22;40
S30000;29RC200A22;12
S28000;29RH500A15;39
S30000;29RH500A15;88
S30000;29SA050A21;2
S28000;29SA050A22;13
S30000;29SA050A22;13
S28000;29SE125A21;17
S30000;29SE125A21;4
S28000;29SH075A20;5
S30000;29SH075A20;3
S28000;29SH240A20;14
S30000;29SH240A20;3
S28000;29VC240A22;16
S30000;29VC240A22;8
S10;38UV030A18;11
S10;38WC050A21;4
S10;38WM065A18;1
S10;38WS030A21;3
S10;49BO015CS19;24
S10;49CRM2NO22;6
S10;49CRM3NO21;3
S10;49DH004I20;9
S10;49DH004I22;32
S10;49GD035CB21;69
S10;49GD035CB5;6
S10;49HD035K17;22
S10;49LC020A20;41
S10;49LD030I21;13
S10;49MA010A17;1
S10;49MA010K22;22
S10;49MA010R22;6
S10;49MA010VB3;9
S10;49MC014I23;59
S10;49MTAT23;9
S10;49OR005I21;70
S10;49POBFNO22;1
S10;49POCK2NO22;9
S10;49POUM23;10
S10;49SH035E21;58
S21000;38WS030A21;13
S21000;49BO015CS19;40
S21000;49CUPNO22;20
S21000;49DC008I20;4
S21000;49DH004I22;61
S21000;49GD035CB21;76
S21000;49GD035CB5;4
S21000;49HD035A15;48
S21000;49HD035K17;7
S21000;49LC020A20;42
S21000;49MA010K22;5
S21000;49MA010VB3;71
S21000;49MC014I23;76
S21000;49MTAT23;4
S21000;49OR005I21;80
S21000;49POCK2NO22;8
S21000;49POUM23;12
S21000;49SH035E21;60
S24000;17RS500E20;17
S24000;17RS500FV21;15
S24000;17RS500G21;11
S24000;17RS500P19;16
S24000;17SE100FV21;14
S24000;17SH060SE21;3
S24000;17SH060SG21;4
S24000;17SH060SP21;4
S24000;17SH075E19;7
S24000;17SH075G21;5
S24000;17SH300E19;18
S24000;17SH300FV21;20
S24000;17SH300G21;11
S24000;17SH300P19;15
S24000;17SH500E19;14
S24000;17SH500FV21;17
S24000;17SH500G21;14
S24000;17SH500P19;11
S24000;17VI100P19;2
S24000;20AR075O20;7
S24000;20DO050O20;10
S24000;20DO075CD20;11
S24000;20DO130HC20;5
S24000;20ET075CD21;4
S24000;20ET075HC20;5
S24000;20ET075OC20;4
S24000;20GD250CD20;6
S24000;20GD250HC20;11
S24000;20GD250OC20;10
S24000;20GD500HC20;8
S24000;20HR050H20;4
S24000;20NV150H20;10
S24000;20SA050CD20;4
S24000;20SA050HC20;4
S24000;24BL012CB5;12
S24000;24BL012R22;9
S24000;24BR050CB21;10
S24000;24BR050R22;10
S24000;24ET075CB21;10
S24000;24ET075R22;6
S24000;24GD250CB21;19
S24000;24GD250R22;12
S24000;24GD500R22;13
S24000;24LC250CB21;16
S24000;24LC250R22;13
S24000;24MA030CB21;25
S24000;24MA030P21;8
S24000;24MA030R22;25
S24000;24MA030RV19;4
S24000;24MA075CB21;10
S24000;24MA075P21;9
S24000;24MA075R22;10
S24000;24MA150R22;13
S24000;24RG500CB21;10
S24000;24RG500R22;16
S24000;24SA050CB21;11
S24000;24SA050R22;26
S24000;27BD060I23;7
S24000;27BY015I22;9
S24000;27CP050I22;10
S24000;27DB015I20;11
S24000;27DE015I21;12
S24000;27DH015I22;20
S24000;27DH030I22;14
S24000;27DL200I21;12
S24000;27DS030I20;8
S24000;27ER015I22;13
S24000;27ER150I21;14
S24000;27EV200I22;14
S24000;27HC050I18;1
S24000;27HCR050I16;4
S24000;27HD200I23;9
S24000;27HS030I18;4
S24000;27HSR030I16;6
S24000;27MC125I23;19
S24000;27MP050I22;14
S24000;27MP150I22;15
S24000;27MQ065I15A;4
S24000;27MS050I20;10
S24000;27OR030I21;16
S24000;27OR050I21;36
S24000;27SE075I22;12
S24000;27SP030I19;2
S24000;29ASH240A20;6
S24000;29BP100A22;8
S24000;29EC200A22;9
S24000;29GE200A21;19
S24000;29HD250A15;16
S24000;29HD500A15;26
S24000;29HS100A21;16
S24000;29LC200A20US;23
S24000;29MA030A17;21
S24000;29MA075A21;16
S24000;29RC200A22;22
S24000;29RH500A15;43
S24000;29SA050A22;13
S24000;29SE125A21;9
S24000;29SH240A20;12
S24000;29VC240A22;12
S24000;38BV050A22;4
S24000;38EV075A21;4
S24000;38FT200A21;13
S24000;38MI150A22;8
S24000;38RC050A22;5
S24000;38UV030A18;9
S28000;38BV050A22;7
S30000;38BV050A22;11
S28000;38EV075A21;9
S30000;38EV075A21;3
S28000;38FT200A21;10
S30000;38FT200A21;12
S28000;38MI150A22;10
S30000;38MI150A22;4
S28000;38RC050A22;6
S30000;38RC050A22;5
S28000;38UV030A18;16
S30000;38UV030A18;10
S28000;38WC050A21;14
S30000;38WC050A21;9
S28000;38WS030A21;13
S30000;38WS030A21;11
S28000;49BO015CS19;77
S30000;49BO015CS19;59
S30000;49DC004I20;8
S30000;49DH004I20;6
S28000;49DH004I22;73
S30000;49DH004I22;40
S28000;49GD035CB21;75
S30000;49GD035CB21;46
S28000;49GD035CB5;46
S30000;49GD035CB5;6
S28000;49HD035A15;45
S30000;49HD035A15;67
S28000;49HD035K17;24
S30000;49HD035K17;14
S28000;49IC2POU20;1
S28000;49LC020A20;84
S30000;49LC020A20;56
S28000;49LD030I21;12
S30000;49LD030I21;5
S28000;49MA010A17;5
S30000;49MA010A17;3
S28000;49MA010K22;12
S30000;49MA010K22;21
S28000;49MA010VB3;42
S30000;49MA010VB3;37
S28000;49MC014I23;88
S30000;49MC014I23;52
S28000;49MTAT23;21
S30000;49MTAT23;7
S28000;49OR005I21;146
S30000;49OR005I21;128
S28000;49POCK2NO22;15
S30000;49POCK2NO22;3
S28000;49POUM23;20
S30000;49POUM23;10
S28000;49SH035E21;81
S30000;49SH035E21;45
S24000;38WC050A21;9
S24000;38WS030A21;9
S24000;49BO015CS19;7
S24000;49DC004I20;6
S24000;49DH004I22;13
S24000;49GD035CB5;2
S24000;49HD035A15;27
S24000;49HD035K17;7
S24000;49LD030I21;6
S24000;49MA010K22;6
S24000;49MA010VB3;54
S24000;49MC014I23;12
S24000;49MTAT23;7
S24000;49OR005I21;139
S24000;49POBFNO22;22
S24000;49POCK2NO22;15
S24000;49POUM23;12
S24000;52AF006G20;52
S24000;52AS006E19;61
S24000;52AS006FV21;34
S24000;52AS006G21;73
S24000;52AS006P19;26
S24000;52BY001I22;200
S24000;52CL0015K21;76
S24000;52CP0015I22;38
S24000;52CP006K22;211
S24000;52CV0015K22;37
S24000;52DE001I21;26
S24000;52DH001I22;133
S24000;52ER002I21;125
S24000;52EV002I22;58
S24000;52GD0015A18;39
S24000;52HCTM23;28
S24000;52HD001I23;67
S24000;52HS001I17;32
S24000;52HS004A18;16
S24000;52LGEBOX18;5
S24000;52LGENSA21;19
S24000;52MC006G21;28
S24000;52MOCOL216;1
S24000;52MS001I20;55
S24000;52PS0015R21;6
S24000;52SE0015I22;12
S24000;52SH006E19;56
S24000;52SH006FV21;72
S24000;52SH006G21;66
S24000;52SH006P19;30
S24000;52SLEMM23;24
S24000;52TS001I22;195
S24000;52TS001R21;6
S24000;98BBGD050VE2;54
S24000;98BBLC050VE3;54
S24000;ACPOCVEC00001;127
S30000;52AF006G20;57
S28000;52AS006E19;22
S30000;52AS006E19;92
S28000;52AS006FV21;48
S30000;52AS006FV21;56
S28000;52AS006G21;82
S30000;52AS006G21;83
S30000;52AS006P19;15
S28000;52BY001I22;200
S30000;52BY001I22;200
S30000;52CL0015K21;36
S28000;52CP0015I22;108
S30000;52CP0015I22;56
S30000;52CP006K22;132
S28000;52CV0015K22;39
S30000;52CV0015K22;25
S28000;52DB001I20;36
S30000;52DB001I20;74
S28000;52DC0015I20;110
S30000;52DE001I21;42
S28000;52DH001I22;231
S30000;52DH001I22;80
S28000;52DL002I21;125
S30000;52DL002I21;103
S28000;52DS001I20;98
S28000;52ER002I21;70
S30000;52ER002I21;90
S28000;52EV002I22;112
S30000;52EV002I22;70
S28000;52GD0015A18;48
S30000;52GD0015A18;36
S28000;52HCTM23;48
S30000;52HCTM23;24
S28000;52HD001I23;127
S30000;52HD001I23;72
S28000;52HS001I17;42
S30000;52HS001I17;12
S28000;52HS004A18;141
S30000;52HS004A18;128
S28000;52LGEBOX18;19
S30000;52LGEBOX18;15
S28000;52LGENSA21;12
S30000;52LGENSA21;33
S28000;52MA003K22A;1
S28000;52MC001I23;136
S30000;52MC006G21;116
S28000;52MGEBOX18;12
S30000;52MGEBOX18;6
S28000;52MGENSA21GPS;37
S30000;52MGENSA21GPS;80
S28000;52MS001I20;40
S30000;52OR001I21;51
S28000;52PS0015R21;111
S24000;ACPOCVEC00002;142
S24000;ACPOCVEC00003;115
S24000;ACPOCVEC00004;100
S24000;SGOCVE600004;24
S24000;SGOCVE600006;30
S30000;52PS0015R21;46
S28000;52SE0015I22;142
S30000;52SE0015I22;34
S28000;52SGENSA21GPS;35
S30000;52SGENSA21GPS;26
S30000;52SH006E19;195
S28000;52SH006FV21;5
S30000;52SH006FV21;143
S28000;52SH006G21;6
S30000;52SH006G21;197
S30000;52SH006P19;73
S28000;52SLEMM23;40
S30000;52SLEMM23;20
S28000;52TS001I22;21
S30000;52TS001I22;143
S28000;52TS001R21;161
S30000;52TS001R21;11
S28000;98BBGD030VE4;9
S30000;98BBGD030VE4;12
S28000;98BBGD050VE2;42
S30000;98BBGD050VE2;37
S28000;98BBLC050VE3;42
S30000;98BBLC050VE3;37
S28000;98BBMA010KA3;101
S30000;98BBMA010KA3;102
S28000;ACPOCVEC00001;408
S30000;ACPOCVEC00001;205
S28000;ACPOCVEC00002;601
S30000;ACPOCVEC00002;258
S28000;ACPOCVEC00003;314
S30000;ACPOCVEC00003;126
S28000;ACPOCVEC00004;116
S30000;ACPOCVEC00004;93
S28000;ACPOCVEC00005;171
S30000;ACPOCVEC00005;2
S30000;SGOCVE600004;44
S28000;SGOCVE600006;42
S28000;SGOCVKI00236;8
S30000;SGOCVKI00236;1
