S24000;01BM050K23;8
S24000;01CCJ200K22;22
S24000;01LC250K24;8
S24000;01SA250LT20;7
S24000;11LD200I19;1
S24000;11GD250H19;9
S24000;11ET010H20;6
S24000;11EC200AT23;36
S24000;11CM200AT23;2
S24000;11CM030H20;8
S24000;11CF100TR19;4
S24000;11CD050A18;4
S24000;11BR100A20;1
S24000;11BO100CS19;9
S24000;11BG140SI19;3
S24000;11BG140SH19;3
S24000;11AT050HL23;14
S24000;11AS040SG22;11
S24000;01SL500VE20;4
S24000;01SL500LV20;3
S24000;01SL300VE20;2
S24000;01SAR500KRO22;5
S24000;01SA500KRO22;3
S24000;01SA300KRO22;6
S24000;01SA250VE20;12
S24000;01SA250LV20;11
S24000;01SA100VE20;7
S24000;01SA100LT20;9
S24000;01RV500K20;9
S24000;01RL500K20;10
S24000;01PI030K18;11
S24000;01MA075K22;18
S24000;01MA030K22;22
S24000;01HV030K23;3
S24000;01HN0075K23;11
S24000;15DE200VAL23;2
S24000;01HF100K17;2
S24000;01HDR500K20;10
S24000;01HD500K20;1
S24000;01EM030K23;10
S24000;01EC200K22;11
S24000;01CV050K22;9
S24000;01CPR200K22;10
S24000;01CP200K22;9
S24000;15ET100VBL23;3
S24000;01CMR500K20;11
S24000;01CMJ075K23;6
S24000;01CM300K20;1
S24000;01CL175K22;3
S24000;01CL050K21;7
S24000;01CD250K23;10
S24000;15GD250VA20;6
S10;01CM300K20;8
S10;01CMJ075K23;10
S10;01CPR200K22;11
S10;01CV050K22;4
S10;01EC200K22;11
S10;01HD500K20;3
S10;01HDR500K20;11
S10;01HF100K17;6
S10;01HN0075K23;4
S10;01MA030K22;37
S10;01MA075K22;9
S10;01MA150K22;13
S10;01MR030K14;7
S10;01PI030K18;4
S10;01PI150K18;10
S10;01RL500K20;2
S10;01RV500K20;5
S10;01SA100LT20;10
S10;01SA100LV20;7
S10;01SA100VE20;6
S10;01SA250LT20;18
S10;01SA250VE20;17
S10;01SA300KRO22;5
S10;01SA500KRO22;5
S10;01SAR500KRO22;12
S10;01SL0045K13;33
S10;01SL300LV20;6
S10;01SL300VE20;3
S10;01SL500LV20;5
S10;11AS040SG22;8
S10;11BG140CS19;1
S10;11BG140SH19;11
S10;11BG140SI19;5
S10;11BG140SL19;3
S10;11BH050A18;2
S10;11BP100I19;4
S10;11BR100A20;3
S10;11CF100TR19;5
S10;11CM030H19;13
S10;11CM030H20;14
S10;11CM030O21;7
S10;11CM125I19;3
S10;11EP010H19;5
S10;11ET010H20;8
S10;11ET050H20;3
S10;11ET075O21;4
S10;11GD250H19;16
S10;11GD250H20;10
S10;11GE075I20;4
S10;11GM200I19;10
S10;11GN195A18;10
S10;11LC250H19;18
S10;11LC250H20;7
S10;11LC250O21;6
S24000;01BP050K21;8
S24000;01BM150K23;12
S24000;15GM280VB21;4
S24000;01BL012K18;12
S24000;01BK010K14;13
S24000;11PEP050I20;1
S24000;11MWC200I19;4
S24000;11SAF100H20;10
S24000;11MH075A19;8
S24000;11LT300I20;4
S24000;11SD100CS19;5
S24000;11LC250O21;10
S24000;11LC250H20;11
S24000;11LC250H19;13
S24000;11GN195A18;8
S24000;11GE075I20;4
S24000;11GD250H20;11
S24000;11SD100SH19;5
S24000;11GD050A18;5
S24000;11ET075O21;4
S24000;11ET050H20;4
S24000;11SD100SI19;4
S24000;11EH150A18;3
S24000;11SP200CS19;8
S24000;11CM200AT23C;27
S24000;11CM030O21;11
S24000;11CM030H19;7
S24000;11SV080I19;4
S24000;11BP100I19;4
S24000;11BH050A18;3
S24000;11BG140CS19;3
S24000;01SL300LV20;3
S24000;01SL0045K13;32
S24000;01SA100LV20;9
S24000;01PI150K18;12
S24000;01MR030K14;8
S24000;01MA150K22;20
S24000;15AS250VA18;6
S24000;15BA500L16A;13
S24000;15BM500VB21;11
S24000;01LT300K20;15
S24000;17SH060SE21;4
S24000;17SH060SG21;4
S24000;17SH075E19;4
S24000;15BR050VBM23;10
S24000;17SH300G21;7
S24000;15DO050VA22;10
S24000;01HD250K17;2
S24000;17SH500FV21;12
S24000;17SH500G21;14
S24000;15ET010VB19;4
S24000;15ET100VA20;4
S10;11LD200I19;5
S10;11LT300I20;4
S10;11MH075A19;3
S10;11MWC200I19;5
S10;11PEP050I20;6
S10;11SAF100H20;1
S10;11SD100CS19;11
S10;11SD100SH19;7
S10;11SD100SI19;15
S10;11SP200CS19;2
S10;11SP200SH19;4
S10;15BR050VBM23;7
S10;15ET010VB19;3
S10;15ET100VA20;5
S10;15ET100VB20;2
S10;15ET100VCL23;10
S10;15GD070VB21;59
S10;15GD250L21;7
S10;15GD250VA20;10
S10;15GD250VCL23;15
S10;15GD500VB21;1
S10;15GD500VB23;14
S10;15GM065L21;36
S10;15GM065VB21;29
S10;15GM280VB21;4
S10;15HE005L14;6
S10;15LC250L14;12
S10;15LC250VA20;8
S10;15LC250VB3;2
S10;15MA030VA5;6
S10;15MA030VBM8;21
S10;15MA030VCL23;23
S10;15MA075L20;4
S10;15MA075VB4;7
S10;15RC500VB21;13
S10;15RG500L14;15
S10;15RO010VBM22;17
S10;15SA075VB21;4
S10;15SH250VA20;11
S10;17AF100G20;13
S10;17AS250E19;4
S10;17AS250FV21;4
S10;17AS250G21;5
S10;17AS250P19;11
S10;17AS500E19;4
S10;17AS500FV21;6
S10;17AS500G21;14
S10;17AS500P19;6
S10;17DO050F13;7
S10;17ER075P19;6
S10;17HI001G19;185
S10;17HI100G19;13
S10;17MC200G21;15
S10;17RC500E20;12
S24000;15ET100VB20;5
S24000;15ET100VB23;2
S24000;15ET100VCL23;10
S24000;15GD070VB21;60
S24000;01CMJ075K21;10
S24000;01CM500K20;7
S24000;01CM300K23;6
S24000;15GD250L21;10
S24000;15GD250VB23;10
S24000;15GD250VCL23;10
S24000;15GD500VB23;13
S24000;15GM065L21;13
S24000;15LM300L11;11
S24000;11SA050O21;9
S24000;11PM100SI19;4
S24000;11PM100SH19;5
S24000;15MA030L21;16
S24000;15MA030VA5;7
S24000;11LH200I19;8
S24000;15MA030VBM8;14
S24000;15MA030VCL23;24
S24000;15MA075L20;5
S24000;15MA075VB4;4
S24000;11GD250O21;11
S24000;11FAG10TR19;5
S24000;15RC500VB21;6
S24000;15RG500L14;10
S24000;15RG500VA20;8
S24000;11SH300AD22;14
S24000;11SP200SH19;3
S24000;15SA075VB21;3
S24000;11SP200SI19;5
S24000;15SH250VA20;5
S24000;17AF100G20;13
S24000;17AS250FV21;10
S24000;17AS250G21;6
S24000;17AS250P19;7
S24000;17AS500E19;10
S24000;17AS500FV21;10
S24000;17AS500G21;11
S24000;17AS500P19;6
S24000;17DO050F13;13
S24000;17ER075P19;4
S24000;17HB050A22;4
S24000;17HI001G19;252
S24000;17HI100G19;13
S24000;17MC200G21;12
S24000;17RC500E20;20
S24000;17RC500G21;17
S24000;17RS500E20;16
S24000;17RS500FV21;11
S24000;17RS500G21;12
S24000;17SE100FV21;15
S24000;17SH060SP21;4
S24000;17SH075G21;4
S24000;17SH500E19;10
S24000;20AR075O20;6
S24000;20ET075CD21;5
S24000;24MA075R22;9
S24000;24MA150R22;12
S24000;15GM065VB21;15
S24000;24RG500R22;10
S24000;24RO010CB21;4
S24000;15GN300L21;10
S24000;15HE005L14;7
S24000;24SA050R22;14
S24000;15LC250VA20;7
S24000;15LC250VB3;4
S24000;15LC250VCL23;15
S24000;20HR050H20;2
S24000;15MA030VB3;7
S24000;24BL012CB5;9
S24000;24BL012R22;10
S24000;24BR050CB21;10
S24000;24BR050R22;11
S24000;27DC050I20;12
S24000;27DE015I21;9
S24000;24ET075CB21;10
S24000;27DL200I21;1
S24000;27DS030I20;1
S24000;27HC050I18;1
S24000;24GD250CB21;15
S24000;27HSR030I16;5
S24000;17AS250E19;6
S24000;27SE075I22;7
S24000;29HS100A21;4
S24000;17RC500P19;6
S24000;17RS500P19;18
S24000;17SH300E19;13
S24000;17SH300FV21;10
S24000;17SH300P19;9
S24000;17SH500P19;13
S24000;17VI100P19;3
S24000;24MA030P21;4
S24000;24MA030R22;16
S24000;20DO050O20;6
S24000;20DO075CD20;10
S24000;20DO130HC20;5
S24000;20ET075HC20;5
S24000;20ET075OC20;5
S24000;20GD250CD20;3
S24000;24MA075CB21;17
S24000;20GD250OC20;8
S24000;24MA075P21;9
S24000;20GD500HC20;8
S10;17RC500G21;12
S10;17RC500P19;6
S10;17RS500E20;7
S10;17RS500FV21;22
S10;17RS500G21;15
S10;17RS500P19;15
S10;17SE100FV21;16
S10;17SH060SG21;6
S10;17SH060SP21;4
S10;17SH075E19;13
S10;17SH075G21;12
S10;17SH060SE21;2
S10;17SH300E19;16
S10;17SH300FV21;17
S10;17SH300G21;18
S10;17SH300P19;22
S10;17SH500E19;10
S10;17SH500FV21;5
S10;17SH500G21;14
S10;17SH500P19;9
S10;17VI100P19;6
S10;20AR075O20;3
S10;20DO050O20;3
S10;20DO075CD20;6
S10;20DO130HC20;5
S10;20ET075HC20;5
S10;20ET075OC20;4
S10;20GD250CD20;5
S10;20GD250HC20;10
S10;20GD250OC20;13
S10;20GD500HC20;13
S10;20NV150H20;10
S10;20SA050CD20;4
S10;20SA050HC20;4
S10;24BL012CB5;13
S10;24BL012R22;7
S10;24BR050R22;1
S10;15RG500VA20;13
S10;15MA030VB3;9
S10;15MA030L21;12
S10;15LM300L11;5
S10;15LC250VCL23;13
S10;24ET075CB21;13
S10;15GN300L21;1
S10;15GD250VB23;10
S10;24GD075R22;6
S10;24GD250CB21;17
S10;24GD250R22;15
S10;15ET100VBL23;2
S10;24GD500R22;8
S10;15ET100VB23;4
S10;15DO050VA22;4
S10;15DE200VAL23;6
S10;24LC250CB21;11
S10;15BM500VB21;3
S10;24LC250R22;13
S10;15BA500L16A;12
S10;24MA030CB21;22
S10;15AS250VA18;8
S10;24MA030R22;26
S10;24MA030RV19;32
S10;24MA075R22;7
S10;24MA150R22;10
S10;24RO010CB21;10
S10;11SV080I19;5
S10;11SP200SI19;1
S10;11SH300AD22;11
S10;11SA050O21;5
S10;24SA050CB21;10
S10;24SA050R22;13
S10;11PM100SI19;2
S10;11PM100SH19;4
S10;11LH200I19;10
S10;11GD250O21;14
S10;11GD050A18;4
S10;11FAG10TR19;38
S10;11EH150A18;5
S10;11EC200AT23;30
S10;11CM200AT23C;27
S10;11CM200AT23;7
S10;11CD050A18;5
S10;11BO100CS19;2
S10;11AT050HL23;1
S10;01SL500VE20;8
S10;01SA250LV20;13
S10;27BD060I23;9
S10;27CP050I22;7
S10;27DB015I20;14
S10;27DC050I20;15
S10;27DE015I21;2
S10;27DH015I22;21
S10;27DH030I22;11
S10;27DL200I21;2
S10;27DS030I20;6
S10;27ER015I22;22
S10;27EV200I22;13
S10;27HD200I23;17
S10;27MC125I23;14
S10;27MI150I20;7
S10;27MP150I22;4
S10;27MQ065I15A;4
S10;27MS050I20;4
S10;27OR030I21;54
S10;27OR050I21;29
S10;27SE075I22;15
S10;29ASH240A20;5
S10;01LT300K20;15
S10;29EC200A22;13
S24000;49DC004I20;15
S24000;49OR005I21;162
S24000;49DH004I22;41
S24000;49GD035CB21;7
S24000;52AF006G20;84
S24000;52AS006E19;168
S24000;52BY001I19;217
S24000;49BO015CS19;4
S24000;52CV0015K22;78
S24000;52DC0015I20;211
S24000;52DS001I20;157
S24000;52ER002I21;306
S24000;52HD006A18;324
S24000;52HS001I17;59
S24000;52MA003K22A;220
S24000;52MC006G21;37
S24000;49MC014I23;171
S24000;52MS001I20;182
S24000;52OR001I21;512
S24000;52PS0015R21;210
S24000;49LC020A20;12
S24000;52SE0015I22;228
S24000;49LD030I21;1
S24000;52SH006E19;183
S24000;52TS001I22;460
S24000;52TS001R21;90
S24000;98BBGD030VE4;12
S24000;ACPOCVEC00001;112
S24000;ACPOCVEC00002;216
S24000;ACPOCVEC00003;46
S24000;49MA010K22;67
S24000;52HS004A18;169
S24000;52AS006G21;228
S24000;52AS006P19;77
S24000;52BGERIB20;1
S24000;52LC006A20;391
S24000;52LGEBAG19;4
S24000;52CL0015K21;150
S24000;52LGEBOX18;6
S24000;52LGENSA21;69
S24000;52MC001I23;158
S24000;52CP006K22;185
S24000;52DB001I20;103
S24000;52MGEBOX18;17
S24000;52DE001I21;263
S24000;52DH001I22;335
S24000;52MGENSA21GPS;129
S24000;52DL002I21;263
S24000;52EV002I22;169
S24000;52GD0015A18;81
S24000;52MOCOL316;1
S24000;52SGENSA21GPS;138
S24000;52SH006FV21;148
S10;01LC250K24;6
S10;29HD075A15;15
S10;29HD250A15;21
S10;29HD500A15;41
S10;01LB012KB23;3
S10;01HV030K23;3
S10;01HD250K17;3
S20;52DS001I20;146
S10;01EM030K23;9
S20;52HD006A18;727
S10;01CP200K22;3
S20;52HS001I17;80
S10;01CMR500K20;11
S10;01CMJ075K21;2
S10;01CM500K20;3
S10;01CM300K23;3
S20;52LGENSA21;312
S20;52MA003K22A;308
S20;52MC006G21;157
S10;01CL175K22;3
S10;01CL050K21;13
S10;01CD250K23;21
S10;01CCJ200K22;8
S20;52MS001I20;214
S20;52OR001I21;690
S10;01BP050K21;8
S10;01BM150K23;22
S20;52PS0015R21;40
S10;01BM050K23;9
S10;01BL012K18;9
S20;52SH006FV21;133
S20;52SH006G21;224
S20;52SH006P19;253
S10;01BK010K14;17
S20;52TS001I22;252
S20;52TS001R21;114
S10;20ET075CD21;5
S10;24MA030P21;4
S10;24MA075CB21;15
S10;24MA075P21;8
S10;24RG500CB21;13
S10;24RG500R22;11
S10;27BY015I22;8
S10;29BP100A22;7
S10;29GE200A21;10
S20;52DL002I21;275
S20;52ER002I21;285
S20;52EV002I22;251
S20;52GD0015A18;74
S20;52HD001I23;199
S20;52HS004A18;204
S20;52LC006A20;454
S20;52LGEBOX18;10
S20;52MC001I23;166
S24000;15LC250L14;10
S24000;27BD060I23;6
S24000;27BY015I22;4
S24000;27ER015I22;8
S24000;27HD200I23;8
S24000;24GD250R22;13
S24000;27MS050I20;10
S24000;24GD500R22;12
S24000;29HD250A15;21
S24000;24LC250CB21;15
S24000;20GD250HC20;6
S24000;24RG500CB21;10
S24000;24SA050CB21;9
S24000;27DB015I20;10
S24000;27DH015I22;17
S24000;27DH030I22;12
S24000;27MC125I23;18
S24000;27MQ065I15A;4
S24000;24MA030CB21;9
S24000;24LC250R22;11
S24000;20SA050HC20;4
S24000;20SA050CD20;4
S24000;20NV150H20;10
S24000;27OR030I21;24
S24000;27OR050I21;31
S24000;29ASH240A20;2
S24000;29BP100A22;3
S24000;27CP050I22;13
S24000;29GE200A21;19
S24000;29HD075A15;14
S24000;29HD500A15;32
S24000;29LC200A20US;43
S24000;27MP150I22;6
S24000;29MA030A17;23
S24000;27EV200I22;13
S24000;29EC200A22;10
S24000;29MA075A21;4
S24000;29SE125A21;9
S24000;29VC240A22;11
S24000;38UV030A18;11
S24000;38BV050A22;5
S24000;29SA050A22;12
S24000;38WS030A21;10
S24000;38WC050A21;10
S24000;38SC015RB23;13
S24000;38RC050A22;5
S24000;38MI150A22;8
S24000;38FT200A21;5
S24000;38EV075A21;3
S24000;29RC200A22;37
S24000;29RH500A23;36
S24000;52SH006G21;508
S24000;52SH006P19;194
S24000;52SLEMM23;10
S24000;ACPOCVEC00004;100
S24000;49MTAT23;5
S24000;52HD001I23;151
S24000;52AS006FV21;113
S24000;52CP0015I22;223
S24000;SGOCVE600006;64
S27000;01BK010K14;11
S28000;01BK010K14;21
S27000;01BL012K18;8
S28000;01BL012K18;8
S27000;01BM050K23;7
S28000;01BM050K23;9
S27000;01BM150K23;8
S28000;01BM150K23;15
S27000;01BP050K21;8
S28000;01BP050K21;6
S27000;01CCJ200K22;9
S28000;01CCJ200K22;26
S27000;01CD250K23;10
S28000;01CD250K23;17
S27000;01CL050K21;2
S28000;01CL050K21;6
S27000;01CL175K22;7
S28000;01CL175K22;5
S27000;01CM300K20;7
S28000;01CM300K20;3
S27000;01CM300K23;2
S28000;01CM300K23;6
S27000;01CM500K20;7
S28000;01CM500K20;13
S28000;01CMJ075K21;8
S27000;01CMJ075K23;6
S28000;01CMJ075K23;6
S27000;01CMR500K20;8
S27000;01CP200K22;15
S28000;01CP200K22;17
S27000;01CPR200K22;4
S28000;01CPR200K22;15
S27000;01CV050K22;4
S28000;01CV050K22;7
S27000;01EC200K22;10
S28000;01EC200K22;19
S27000;01EM030K23;10
S28000;01EM030K23;9
S27000;01EM075K20;7
S27000;01HD250K17;7
S28000;01HD250K17;10
S27000;01HD500K20;11
S28000;01HD500K20;7
S27000;01HDR500K20;12
S28000;01HDR500K20;15
S27000;01HF100K17;4
S28000;01HF100K17;4
S27000;01HN0075K23;6
S27000;01HV030K23;5
S28000;01HV030K23;9
S27000;01LC250K24;14
S28000;01LC250K24;10
S27000;01LT300K20;14
S27000;01MA030K22;26
S28000;01MA030K22;8
S27000;01MA150K22;18
S28000;01MA150K22;19
S27000;01PI030K18;2
S27000;01PI150K18;7
S28000;01PI150K18;19
S27000;01RL500K20;10
S28000;01RL500K20;11
S27000;01RV500K20;4
S28000;01RV500K20;5
S27000;01SA100LT20;10
S28000;01SA100LT20;16
S27000;01SA100LV20;9
S28000;01SA100LV20;15
S27000;01SA100VE20;7
S28000;01SA100VE20;16
S27000;01SA250LT20;12
S28000;01SA250LT20;14
S27000;01SA250LV20;12
S28000;01SA250LV20;17
S27000;01SA250VE20;12
S28000;01SA250VE20;16
S27000;01SA500KRO22;6
S28000;01SA500KRO22;5
S27000;01SAR500KRO22;5
S28000;01SAR500KRO22;15
S27000;01SL0045K13;31
S28000;01SL0045K13;26
S27000;01SL300LV20;5
S28000;01SL300LV20;4
S27000;01SL300VE20;6
S28000;01SL300VE20;8
S27000;01SL500LV20;6
S28000;01SL500LV20;4
S27000;01SL500VE20;5
S28000;01SL500VE20;10
S27000;11AT050HL23;4
S28000;11AT050HL23;6
S27000;11BC100G21;1
S27000;11BG140CS19;5
S28000;11BG140CS19;8
S27000;11BG140SL19;3
S28000;11BG140SL19;3
S27000;11BH050A18;4
S28000;11BH050A18;2
S27000;11BO100CS19;11
S28000;11BO100CS19;2
S27000;11BP100I19;4
S28000;11BP100I19;2
S27000;11BR100A20;5
S28000;11BR100A20;3
S29000;01BK010K14;24
S30000;01BK010K14;21
S31000;01BK010K14;16
S29000;01BL012K18;22
S30000;01BL012K18;15
S31000;01BL012K18;12
S29000;01BM050K23;11
S30000;01BM050K23;6
S31000;01BM050K23;11
S29000;01BM150K23;20
S30000;01BM150K23;6
S31000;01BM150K23;13
S29000;01BP050K21;4
S30000;01BP050K21;7
S31000;01BP050K21;5
S30000;01CCJ200K22;3
S31000;01CCJ200K22;2
S29000;01CD250K23;19
S30000;01CD250K23;14
S31000;01CD250K23;12
S29000;01CF050K22;5
S30000;01CF050K22;6
S29000;01CL050K21;6
S30000;01CL050K21;2
S31000;01CL050K21;7
S30000;01CL125KB23;1
S29000;01CL175K22;4
S30000;01CL175K22;5
S31000;01CL175K22;4
S30000;01CM300K20;3
S31000;01CM300K20;1
S29000;01CM300K23;7
S30000;01CM300K23;3
S31000;01CM300K23;5
S29000;01CM500K20;23
S30000;01CM500K20;11
S31000;01CM500K20;8
S29000;01CMJ075K21;2
S30000;01CMJ075K21;6
S31000;01CMJ075K21;10
S29000;01CMJ075K23;10
S30000;01CMJ075K23;4
S31000;01CMJ075K23;6
S29000;01CMR500K20;20
S30000;01CMR500K20;6
S31000;01CMR500K20;18
S29000;01CP200K22;22
S30000;01CP200K22;6
S31000;01CP200K22;4
S29000;01CPR200K22;18
S30000;01CPR200K22;3
S31000;01CPR200K22;8
S29000;01CV050K22;5
S27000;11CD050A18;5
S28000;11CD050A18;2
S27000;11CF100TR19;7
S27000;11CM030H20;9
S28000;11CM030H20;20
S27000;11CM125I19;4
S27000;11CM200AT23;5
S28000;11CM200AT23;18
S27000;11CM200AT23C;32
S28000;11CM200AT23C;23
S27000;11EC200AT23;35
S28000;11EC200AT23;51
S27000;11EH150A18;10
S28000;11EH150A18;4
S27000;11EP010H19;4
S28000;11EP010H19;3
S27000;11ET050H20;4
S28000;11ET050H20;3
S27000;11FAG10TR19;5
S28000;11FAG10TR19;12
S27000;11GD250H19;7
S27000;11GD250H20;7
S28000;11GD250H20;15
S27000;11GM200I19;3
S27000;11GN195A18;7
S28000;11GN195A18;14
S27000;11LC250H19;8
S28000;11LC250H19;20
S27000;11LC250H20;4
S28000;11LC250H20;15
S27000;11LC250O21;6
S28000;11LC250O21;14
S27000;11LH200I19;8
S28000;11LH200I19;10
S27000;11LT300I20;5
S28000;11LT300I20;3
S27000;11MH075A19;4
S28000;11MH075A19;4
S27000;11MWC200I19;3
S28000;11MWC200I19;2
S28000;11PEP050I20;2
S27000;11PM100SH19;3
S28000;11PM100SH19;2
S27000;11PM100SI19;4
S28000;11PM100SI19;3
S27000;11SA050O21;5
S28000;11SA050O21;9
S27000;11SA100H20;2
S27000;11SD100CS19;9
S28000;11SD100CS19;11
S27000;11SD100SH19;8
S28000;11SD100SH19;12
S27000;11SD100SI19;6
S20;01BK010K14;18
S90000;01BK010K14;10
S20;01BL012K18;17
S20;01BM050K23;8
S20;01BM150K23;24
S20;01BP050K21;4
S90000;01BP050K21;9
S20;01CCJ200K22;8
S90000;01CD250K17;19
S20;01CD250K23;24
S90000;01CD250KC22H;1
S20;01CL050K21;10
S20;01CL175K22;2
S90000;01CL175K22;7
S90000;01CL200K17;12
S90000;01CL300KB20;10
S90000;01CM300K20;1
S20;01CM300K23;7
S90000;01CM300K23;9
S20;01CM500K20;14
S90000;01CM500K20;18
S20;01CMJ075K21;16
S90000;01CMJ075K23;15
S20;01CMR500K20;4
S90000;01CMR500K20;6
S90000;01CP100K21H;1
S20;01CP200K22;17
S20;01CPR200K22;15
S90000;01CPR200K22;3
S90000;01CV050K18;12
S20;01CV050K22;11
S90000;01CV050K22;7
S20;01EC200K22;12
S90000;01EC200K22;13
S20;01EM030K23;10
S90000;01EM030K23;10
S20;01HD250K17;11
S20;01HD500K20;10
S90000;01HD500K20;14
S20;01HDR500K20;5
S90000;01HDR500K20;14
S20;01HF100K17;8
S20;01HN0075K23;5
S90000;01HN0075K23;13
S90000;01HV030K16;13
S20;01HV030K23;9
S90000;01KTPWP21;10
S20;01LC250K24;22
S90000;01LH300KB19;10
S20;01LT300K20;9
S90000;01LT300K20;7
S20;01MA030K22;30
S90000;01MA030K22H;1
S90000;01MA030KC22H;1
S21000;01BK010K14;15
S21000;01BL012K18;13
S21000;01BM050K23;9
S21000;01BM150K23;11
S21000;01BP050K21;19
S21000;01CCJ200K22;5
S21000;01CD250K23;15
S21000;01CL050K21;7
S21000;01CL175K22;5
S21000;01CM300K20;3
S21000;01CM300K23;5
S21000;01CM500K20;9
S21000;01CMJ075K21;11
S21000;01CMJ075K23;3
S21000;01CMR500K20;11
S21000;01CP200K22;12
S21000;01CPR200K22;7
S21000;01CV050K22;5
S21000;01EC200K22;13
S21000;01EM030K23;10
S21000;01HD250K17;1
S21000;01HD500K20;9
S21000;01HDR500K20;9
S21000;01HF100K17;5
S21000;01HN0075K23;5
S21000;01HV030K23;4
S21000;01LC250K24;15
S21000;01LT300K20;12
S21000;01MA030K22;105
S21000;01MA075K22;15
S21000;01MA150K22;22
S21000;01MR030K14;66
S21000;01PI030K18;7
S21000;01PI150K18;12
S21000;01RL500K20;9
S21000;01SA100LT20;10
S21000;01SA100LV20;12
S21000;01SA100VE20;10
S21000;01SA250LT20;12
S21000;01SA250LV20;13
S21000;01SA250VE20;14
S21000;01SA300KRO22;4
S21000;01SA500KRO22;5
S21000;01SAR500KRO22;10
S21000;01SL0045K13;12
S21000;01SL300LV20;6
S21000;01SL300VE20;4
S21000;01SL500LV20;4
S21000;01SL500VE20;10
S21000;11AS040SG22;12
S21000;11AT050HL23;9
S21000;11BG140CS19;4
S28000;11SD100SI19;4
S27000;11SH300AD22;10
S28000;11SH300AD22;11
S27000;11SP200CS19;10
S28000;11SP200CS19;11
S27000;11SP200SH19;4
S28000;11SP200SH19;12
S27000;11SP200SI19;2
S27000;11SV080I19;4
S28000;11SV080I19;4
S27000;15AS250VA18;9
S28000;15AS250VA18;12
S27000;15BA500L16A;10
S28000;15BA500L16A;13
S27000;15BM500VB21;6
S28000;15BM500VB21;7
S27000;15BR050VBM23;9
S27000;15DE200VAL23;3
S27000;15DO050VA22;9
S28000;15DO050VA22;7
S27000;15ET010VB19;4
S27000;15ET100VA20;4
S28000;15ET100VA20;12
S27000;15ET100VB20;2
S27000;15ET100VB23;2
S28000;15ET100VB23;1
S27000;15ET100VBL23;2
S27000;15GD070VB21;60
S28000;15GD070VB21;52
S27000;15GD250L21;13
S27000;15GD250VB23;7
S28000;15GD250VB23;7
S27000;15GM065L21;12
S28000;15GM065L21;67
S27000;15GM065VB21;13
S27000;15GM280VB21;6
S27000;15GN300L21;6
S28000;15GN300L21;12
S27000;15LC250L14;7
S28000;15LC250L14;11
S27000;15LC250VA20;5
S27000;15LC250VB3;3
S28000;15LC250VB3;2
S27000;15LC250VCL23;16
S28000;15LC250VCL23;13
S27000;15LM300L11;5
S28000;15LM300L11;11
S27000;15MA030L21;11
S28000;15MA030L21;21
S27000;15MA030VA5;3
S27000;15MA030VCL23;27
S28000;15MA030VCL23;29
S21000;11BG140SH19;2
S21000;11BG140SI19;5
S21000;11BG140SL19;3
S21000;11BH050A18;6
S21000;11BP100I19;3
S21000;11BR100A20;6
S21000;11CD050A18;4
S21000;11CF100TR19;10
S21000;11CM030H19;6
S21000;11CM030H20;8
S21000;11CM030O21;9
S21000;11CM125I19;7
S21000;11CM200AT23C;29
S21000;11EC200AT23;21
S21000;11EH150A18;3
S21000;11EP010H19;8
S21000;11ET010H20;6
S21000;11ET050H20;3
S21000;11ET075O21;5
S21000;11FAG10TR19;10
S21000;11GD050A18;7
S21000;11GD250H19;10
S21000;11GD250H20;9
S21000;11GD250O21;8
S21000;11GE075I20;3
S21000;11GM200I19;5
S21000;11GN195A18;7
S21000;11LC250H19;8
S21000;11LC250H20;9
S21000;11LC250O21;7
S21000;11LD200I19;2
S21000;11LH200I19;3
S21000;11LT300I20;11
S21000;11MH075A19;3
S21000;11MWC200I19;4
S21000;11PM100SH19;4
S21000;11PM100SI19;4
S21000;11SA050O21;6
S21000;11SA100H20;4
S21000;11SAF100H20;8
S21000;11SD100CS19;2
S21000;11SD100SH19;5
S21000;11SD100SI19;5
S21000;11SH300AD22;7
S21000;11SP200CS19;3
S21000;11SP200SH19;4
S21000;11SP200SI19;4
S21000;11SV080I19;4
S21000;15AS250VA18;5
S21000;15BA500L16A;8
S21000;15DE200VAL23;13
S21000;15DO050VA22;40
S30000;01CV050K22;1
S31000;01CV050K22;1
S29000;01EC200K22;20
S30000;01EC200K22;13
S31000;01EC200K22;10
S29000;01EM030K23;14
S30000;01EM030K23;9
S31000;01EM030K23;4
S29000;01HD250K17;14
S30000;01HD250K17;3
S31000;01HD250K17;2
S29000;01HD500K20;15
S30000;01HD500K20;8
S31000;01HD500K20;12
S29000;01HDR500K20;19
S30000;01HDR500K20;10
S31000;01HDR500K20;7
S29000;01HF100K17;5
S30000;01HF100K17;4
S29000;01HN0075K23;18
S30000;01HN0075K23;11
S31000;01HN0075K23;11
S29000;01HV030K23;4
S30000;01HV030K23;2
S31000;01HV030K23;4
S29000;01LB012KB23;13
S29000;01LC250K24;17
S30000;01LC250K24;11
S31000;01LC250K24;12
S29000;01LT300K20;14
S30000;01LT300K20;15
S31000;01LT300K20;8
S29000;01MA030K22;38
S30000;01MA030K22;31
S31000;01MA030K22;21
S29000;01MA075K22;16
S30000;01MA075K22;15
S31000;01MA075K22;11
S29000;01MA150K22;34
S30000;01MA150K22;21
S31000;01MA150K22;27
S29000;01MR030K14;16
S30000;01MR030K14;16
S31000;01MR030K14;15
S29000;01PI030K18;5
S30000;01PI030K18;11
S31000;01PI030K18;10
S29000;01PI150K18;18
S30000;01PI150K18;11
S31000;01PI150K18;8
S29000;01RL500K20;6
S30000;01RL500K20;6
S31000;01RL500K20;8
S27000;15MA075VB4;4
S28000;15MA075VB4;8
S27000;15RC500VB21;6
S28000;15RC500VB21;12
S27000;15RG500L14;7
S28000;15RG500L14;12
S27000;15RG500VA20;10
S28000;15RG500VA20;12
S27000;15RO010VBM22;16
S28000;15RO010VBM22;24
S27000;15SA070VB6;1
S27000;15SA075VB21;4
S28000;15SA075VB21;5
S27000;15SH250VA20;4
S28000;15SH250VA20;8
S27000;17AF100G20;16
S28000;17AF100G20;14
S27000;17AS250E19;4
S28000;17AS250E19;5
S27000;17AS250G21;5
S28000;17AS250G21;7
S27000;17AS250P19;10
S28000;17AS250P19;12
S27000;17AS500E19;7
S28000;17AS500E19;18
S27000;17AS500FV21;7
S27000;17AS500G21;11
S28000;17AS500G21;20
S27000;17AS500P19;5
S28000;17AS500P19;3
S27000;17DO050F13;10
S28000;17DO050F13;21
S27000;17ER075P19;5
S28000;17ER075P19;10
S27000;17HI100G19;5
S28000;17HI100G19;13
S27000;17RC500E20;6
S28000;17RC500E20;11
S27000;17RC500G21;17
S28000;17RC500G21;22
S27000;17RC500P19;4
S28000;17RC500P19;7
S27000;17RS500E20;12
S28000;17RS500E20;28
S27000;17RS500FV21;10
S28000;17RS500FV21;19
S27000;17RS500P19;12
S28000;17RS500P19;23
S27000;17SE100FV21;10
S28000;17SE100FV21;17
S27000;17SH060SE21;4
S28000;17SH060SE21;8
S27000;17SH060SG21;5
S21000;52AF006G20;37
S21000;52AS006E19;162
S21000;52AS006FV21;198
S21000;52AS006G21;188
S21000;52AS006P19;136
S21000;52BY001I22;150
S21000;52CL0015K21;90
S21000;52CP0015I22;71
S21000;52CP006K22;255
S21000;52CV0015K22;139
S21000;52DB001I20;151
S21000;52DC0015I20;223
S21000;52DE001I21;127
S21000;52DH001I22;257
S21000;52DL002I21;171
S21000;52DS001I20;114
S21000;52ER002I21;191
S21000;52EV002I22;158
S21000;52GD0015A18;33
S21000;52HCTM23;1
S21000;52HD001I23;221
S21000;52HD006A18;229
S21000;52HS001I17;72
S21000;52HS004A18;143
S21000;52LC006A20;170
S21000;52LGEBAG19;5
S21000;52LGEBOX18;11
S21000;52LGENSA21;191
S21000;52MA003K22A;271
S21000;52MC001I23;246
S21000;52MC006G21;118
S21000;52MGEBOX18;12
S21000;52MGENSA21GPS;43
S21000;52MOCOL316;1
S21000;52MS001I20;96
S21000;52OR001I21;373
S21000;52PS0015R21;71
S21000;52SE0015I22;79
S21000;52SGENSA21GPS;199
S21000;52SH006E19;205
S21000;52SH006FV21;378
S21000;52SH006G21;497
S21000;52SH006P19;276
S21000;52SLEMM23;1
S21000;52TS001I22;269
S21000;52TS001R21;81
S21000;98BBGD030VE4;11
S21000;98BBMA010KA3;100
S21000;ACPOCVEC00001;235
S21000;ACPOCVEC00002;154
S21000;ACPOCVEC00003;134
S21000;ACPOCVEC00004;100
S20;52MGEBOX18;14
S20;52MGENSA21GPS;63
S20;52SE0015I22;109
S20;52SGENSA21GPS;130
S20;52SH006E19;201
S20;98BBGD030VE4;27
S20;98BBMA010KA3;2
S20;ACPOCVEC00001;192
S20;ACPOCVEC00002;557
S20;ACPOCVEC00003;92
S20;ACPOCVEC00004;67
S20;SGOCVE600006;93
S20;01MA075K22;13
S90000;01MA075K22;11
S20;01MA150K22;25
S20;01MR030K14;12
S90000;01MR030K14;12
S20;01PI030K18;8
S90000;01PI030K18;15
S20;01PI150K18;15
S90000;01PI150K18;14
S20;01RL500K20;11
S20;01RV500K20;10
S90000;01RV500K20;22
S20;01SA100LT20;21
S90000;01SA100LT20;13
S20;01SA100LV20;22
S90000;01SA100LV20;9
S20;01SA100VE20;11
S20;01SA250LT20;22
S90000;01SA250LT20;13
S20;01SA250LV20;16
S90000;01SA250LV20;4
S20;01SA250VE20;18
S90000;01SA250VE20;9
S20;01SA300KRO22;3
S90000;01SA300KRO22;8
S20;01SA500KRO22;8
S20;01SAR500KRO22;10
S20;01SL0045K13;34
S90000;01SL0045K13;9
S20;01SL300LV20;6
S90000;01SL300LV20;7
S20;01SL300VE20;7
S90000;01SL300VE20;6
S20;01SL500LV20;6
S90000;01SL500RO20;1
S20;01SL500VE20;8
S90000;01SL500VE20;20
S90000;10CRAKT22;8
S20;11AS040SG22;19
S20;11AT050HL23;2
S20;11BG140CS19;9
S20;11BG140SH19;5
S20;11BG140SI19;5
S90000;11BG140SI19;8
S20;11BH050A18;1
S20;11BO100CS19;14
S20;11BP100I19;4
S90000;11BP100I19;8
S20;11BR100A20;6
S90000;11BR100A20;8
S20;11CD050A18;6
S20;11CF100TR19;7
S90000;11CF100TR19;20
S28000;17SH060SG21;7
S27000;17SH060SP21;2
S28000;17SH060SP21;6
S27000;17SH075G21;7
S27000;17SH300E19;12
S28000;17SH300E19;14
S27000;17SH300FV21;6
S28000;17SH300FV21;12
S27000;17SH300G21;14
S28000;17SH300G21;11
S27000;17SH300P19;8
S28000;17SH300P19;10
S27000;17SH500E19;11
S28000;17SH500E19;20
S27000;17SH500FV21;12
S28000;17SH500FV21;19
S27000;17SH500P19;14
S28000;17SH500P19;16
S27000;17VI100P19;5
S28000;17VI100P19;2
S27000;20AR075O20;5
S28000;20AR075O20;11
S27000;20DO050O20;5
S28000;20DO050O20;7
S27000;20DO075CD20;5
S28000;20DO075CD20;5
S27000;20DO130HC20;5
S28000;20DO130HC20;8
S27000;20ET075CD21;3
S28000;20ET075CD21;3
S27000;20ET075HC20;8
S27000;20ET075OC20;3
S27000;20GD250CD20;6
S28000;20GD250CD20;9
S27000;20GD250HC20;5
S28000;20GD250HC20;8
S27000;20GD250OC20;2
S28000;20GD250OC20;7
S27000;20GD500HC20;6
S28000;20GD500HC20;12
S27000;20SA050HC20;5
S28000;20SA050HC20;4
S27000;24BL012CB5;10
S28000;24BL012CB5;14
S27000;24BL012R22;9
S28000;24BL012R22;9
S27000;24BR050CB21;5
S28000;24BR050CB21;15
S27000;24ET075CB21;5
S27000;24ET075R22;3
S27000;24GD250R22;9
S28000;24GD250R22;13
S21000;15ET010VB19;4
S21000;15ET100VA20;4
S21000;15ET100VB20;2
S21000;15ET100VB23;3
S21000;15ET100VCL23;12
S21000;15GD070VB21;60
S21000;15GD250L21;5
S21000;15GD250VA20;7
S21000;15GD250VB23;9
S21000;15GD250VCL23;12
S21000;15GD500VB23;11
S21000;15GM065L21;13
S21000;15GM065VB21;11
S21000;15GM280VB21;6
S21000;15GN300L21;7
S21000;15HE005L14;5
S21000;15LC250L14;9
S21000;15LC250VA20;6
S21000;15LC250VB3;1
S21000;15LC250VCL23;9
S21000;15MA030L21;14
S21000;15MA030VA5;4
S21000;15MA030VB3;21
S21000;15MA030VCL23;25
S21000;15MA075L20;10
S21000;15MA075VB4;8
S21000;15RC500VB21;11
S21000;15RG500L14;11
S21000;15RG500VA20;10
S21000;15RO010VBM22;2
S21000;15SA075VB21;10
S21000;15SE400VB5;1
S21000;15SH250VA20;8
S21000;17AF100G20;15
S21000;17AS250E19;6
S21000;17AS250FV21;6
S21000;17AS250G21;5
S21000;17AS250P19;8
S21000;17AS500E19;12
S21000;17AS500FV21;12
S21000;17AS500G21;10
S21000;17AS500P19;6
S21000;17DO050F13;14
S21000;17ER075P19;5
S21000;17HI001G19;73
S21000;17HI100G19;15
S21000;17MC200G21;10
S21000;17RC500E20;11
S21000;17RC500G21;10
S21000;17RC500P19;7
S21000;17RS500E20;18
S21000;17RS500FV21;18
S27000;24LC250CB21;12
S27000;24LC250R22;11
S28000;24LC250R22;16
S27000;24MA030CB21;21
S28000;24MA030CB21;29
S27000;24MA030P21;3
S27000;24MA075CB21;9
S28000;24MA075CB21;9
S27000;24MA075P21;10
S28000;24MA075P21;6
S27000;24MA075R22;8
S28000;24MA075R22;12
S27000;24RG500CB21;13
S28000;24RG500CB21;15
S27000;24RG500R22;9
S28000;24RG500R22;7
S27000;24RO010CB21;12
S28000;24RO010CB21;8
S27000;24SA050CB21;8
S28000;24SA050CB21;11
S27000;27BD060I23;9
S28000;27BD060I23;9
S27000;27BY015I22;5
S28000;27BY015I22;6
S27000;27DC050I20;13
S28000;27DC050I20;28
S27000;27DH015I22;14
S28000;27DH015I22;21
S27000;27DH030I22;14
S27000;27DL200I21;4
S27000;27ER015I22;13
S28000;27ER015I22;13
S28000;27ER150I21;9
S27000;27EV200I22;18
S28000;27HCR050I16;1
S27000;27HD200I23;8
S27000;27HS030I18;2
S28000;27HS030I18;3
S27000;27HSR030I16;2
S28000;27HSR030I16;3
S27000;27MC125I23;11
S27000;27MP050I20;1
S27000;27MP150I22;7
S28000;27MP150I22;8
S27000;27MQ065I15A;3
S28000;27MQ065I15A;4
S27000;27OR030I21;25
S28000;27OR030I21;32
S27000;27OR050I21;33
S28000;27OR050I21;48
S27000;27SE075I22;10
S28000;27SE075I22;20
S27000;29BP100A22;5
S29000;01RV500K20;2
S30000;01RV500K20;11
S31000;01RV500K20;6
S29000;01SA100LT20;19
S30000;01SA100LT20;6
S31000;01SA100LT20;5
S29000;01SA100LV20;18
S30000;01SA100LV20;10
S29000;01SA100VE20;13
S30000;01SA100VE20;11
S31000;01SA100VE20;7
S29000;01SA250LT20;20
S30000;01SA250LT20;6
S31000;01SA250LT20;1
S29000;01SA250LV20;13
S30000;01SA250LV20;5
S31000;01SA250LV20;4
S29000;01SA250VE20;31
S30000;01SA250VE20;12
S31000;01SA250VE20;3
S29000;01SA300KRO22;2
S30000;01SA300KRO22;5
S31000;01SA300KRO22;6
S29000;01SA500KRO22;5
S30000;01SA500KRO22;6
S31000;01SA500KRO22;6
S31000;01SA9000KV21;1
S29000;01SAR500KRO22;24
S30000;01SAR500KRO22;8
S31000;01SAR500KRO22;11
S29000;01SL0045K13;35
S30000;01SL0045K13;25
S31000;01SL0045K13;40
S29000;01SL300LV20;10
S30000;01SL300LV20;4
S31000;01SL300LV20;4
S29000;01SL300VE20;3
S30000;01SL300VE20;1
S29000;01SL500LV20;15
S30000;01SL500LV20;4
S31000;01SL500LV20;5
S29000;01SL500VE20;8
S30000;01SL500VE20;4
S31000;01SL500VE20;6
S31000;10EST250V21;27
S31000;10EST500V21;30
S31000;10P250V21;27
S31000;10P500V21;30
S29000;11AS040SG22;8
S30000;11AS040SG22;10
S31000;11AS040SG22;10
S31000;11AS90005G21;1
S21000;SGOCVE600006;74
S20;11CM030H19;7
S90000;11CM030H19;6
S20;11CM030H20;9
S20;11CM030O21;11
S90000;11CM030O21;17
S20;11CM125I19;5
S90000;11CM125I19;3
S20;11CM200AT23;9
S20;11CM200AT23C;27
S90000;11CM200AT23C;35
S20;11EC200AT23;37
S20;11EH150A18;4
S20;11EP010H19;8
S90000;11EP010H19;5
S20;11ET010H20;12
S90000;11ET010H20;10
S20;11ET050H20;3
S90000;11ET050H20;8
S20;11ET075O21;8
S90000;11ET075O21;6
S20;11FAG10TR19;6
S20;11GD050A18;4
S90000;11GD050A18;9
S90000;11GD075O21;137
S20;11GD250H19;16
S90000;11GD250H19;9
S20;11GD250H20;17
S90000;11GD250H20;15
S20;11GD250O21;14
S90000;11GD250O21;2
S20;11GE075I20;5
S90000;11GE075I20;4
S20;11GM200I19;4
S90000;11GM200I19;1
S20;11GN195A18;12
S90000;11HE005CS19;12
S20;11LC250H19;14
S90000;11LC250H19;9
S20;11LC250H20;13
S90000;11LC250H20;12
S20;11LC250O21;10
S90000;11LD200I19;1
S20;11LH200I19;5
S20;11LT300I20;4
S20;11MH075A19;4
S90000;11MH075A19;10
S20;11MWC200I19;4
S90000;11MWC200I19;3
S20;11PEP050I20;3
S20;11PM100SH19;3
S90000;11PM100SH19;11
S20;11PM100SI19;6
S20;11SA050O21;4
S90000;11SA050O21;5
S29000;11AT050HL23;1
S30000;11AT050HL23;2
S31000;11AT050HL23;35
S29000;11BG140CS19;15
S30000;11BG140CS19;5
S31000;11BG140CS19;1
S29000;11BG140SH19;7
S30000;11BG140SH19;5
S31000;11BG140SH19;5
S29000;11BG140SI19;6
S30000;11BG140SI19;5
S29000;11BG140SL19;3
S31000;11BG140SL19;1
S29000;11BH050A18;11
S30000;11BH050A18;5
S31000;11BH050A18;3
S29000;11BO100CS19;20
S30000;11BO100CS19;16
S31000;11BO100CS19;5
S29000;11BP100I19;4
S30000;11BP100I19;4
S31000;11BP100I19;4
S29000;11BR100A20;15
S30000;11BR100A20;5
S31000;11BS020K23;9
S29000;11CD050A18;6
S30000;11CD050A18;4
S31000;11CD050A18;4
S29000;11CF100TR19;14
S30000;11CF100TR19;12
S31000;11CF100TR19;12
S29000;11CM030H19;46
S30000;11CM030H19;8
S31000;11CM030H19;12
S29000;11CM030H20;8
S30000;11CM030H20;11
S31000;11CM030H20;20
S29000;11CM030O21;10
S30000;11CM030O21;15
S31000;11CM030O21;10
S29000;11CM125I19;17
S30000;11CM125I19;7
S31000;11CM125I19;5
S29000;11CM200AT23;4
S30000;11CM200AT23;2
S31000;11CM200AT23;1
S29000;11CM200AT23C;36
S30000;11CM200AT23C;32
S31000;11CM200AT23C;27
S31000;11CS150P23;8
S29000;11EC200AT23;42
S30000;11EC200AT23;32
S28000;29BP100A22;9
S27000;29EC200A22;9
S27000;29GE200A21;18
S27000;29HD075A15;15
S28000;29HD075A15;34
S27000;29HD500A15;30
S27000;29HS100A21;3
S27000;29LC200A20US;35
S28000;29LC200A20US;64
S27000;29MA030A17;11
S28000;29MA030A17;12
S28000;29MA075A22;15
S27000;29RC200A22;30
S28000;29RC200A22;57
S27000;29RH500A23;45
S28000;29RH500A23;50
S27000;29SA050A22;9
S28000;29SA050A22;12
S27000;29SH240A20;3
S28000;29SH240A20;1
S27000;38EV075A21;9
S28000;38EV075A21;9
S27000;38FT200A21;5
S28000;38FT200A21;12
S27000;38MI150A22;8
S28000;38MI150A22;8
S27000;38RC050A22;6
S28000;38RC050A22;8
S27000;38SC015RB23;18
S27000;38UV030A18;11
S28000;38UV030A18;14
S27000;38WC050A21;9
S28000;38WC050A21;15
S27000;38WS030A21;11
S28000;38WS030A21;14
S28000;38SC015RB23;28
S28000;38BV050A22;5
S28000;29VC240A22;12
S27000;29VC240A22;7
S28000;29SE125A21;14
S27000;29SE125A21;11
S28000;29HD9000A21;1
S28000;29HD500A15;56
S28000;29HD250A15;24
S27000;29HD250A15;10
S28000;29GE200A21;15
S28000;29EC200A22;15
S28000;29ASH240A20;13
S27000;29ASH240A20;3
S28000;27MS050I20;5
S27000;27MS050I20;4
S28000;27MC125I23;12
S28000;27HD200I23;8
S31000;11EC200AT23;29
S29000;11EH150A18;5
S30000;11EH150A18;5
S31000;11EH150A18;2
S29000;11EP010H19;14
S30000;11EP010H19;12
S31000;11EP010H19;12
S29000;11ET010H20;14
S30000;11ET010H20;13
S31000;11ET010H20;12
S29000;11ET050H20;5
S30000;11ET050H20;1
S31000;11ET050H20;2
S29000;11ET075O21;5
S30000;11ET075O21;10
S31000;11ET075O21;12
S29000;11FAG10TR19;17
S30000;11FAG10TR19;12
S31000;11FAG10TR19;10
S29000;11GD050A18;12
S30000;11GD050A18;4
S31000;11GD050A18;2
S31000;11GD075O21;5
S29000;11GD250H19;21
S30000;11GD250H19;8
S31000;11GD250H19;8
S29000;11GD250H20;19
S30000;11GD250H20;5
S31000;11GD250H20;16
S29000;11GD250O21;17
S30000;11GD250O21;7
S31000;11GD250O21;6
S29000;11GE075I20;4
S30000;11GE075I20;4
S31000;11GE075I20;4
S29000;11GM200I19;12
S30000;11GM200I19;3
S29000;11GN195A18;13
S30000;11GN195A18;12
S31000;11GN195A18;8
S29000;11LC250H19;58
S30000;11LC250H19;8
S31000;11LC250H19;8
S29000;11LC250H20;24
S30000;11LC250H20;5
S31000;11LC250H20;6
S29000;11LC250O21;35
S30000;11LC250O21;7
S31000;11LC250O21;8
S29000;11LD200I19;6
S30000;11LD200I19;11
S31000;11LD200I19;3
S29000;11LH200I19;14
S28000;27HC050I18;2
S27000;27HC050I18;2
S28000;27EV200I22;19
S28000;27DS030I20;10
S27000;27DS030I20;6
S28000;27DL200I21;4
S28000;27DH030I22;52
S28000;27DE015I21;16
S27000;27DE015I21;3
S28000;27DB015I20;9
S27000;27DB015I20;9
S28000;27CP050I22;16
S27000;27CP050I22;10
S28000;24SA050R22;13
S27000;24SA050R22;5
S28000;24MA150R22;11
S27000;24MA150R22;10
S28000;24MA030R22;9
S27000;24MA030R22;15
S28000;24MA030P21;7
S28000;24LC250CB21;10
S28000;24GD500R22;15
S27000;24GD500R22;10
S28000;24GD250CB21;14
S27000;24GD250CB21;11
S28000;24ET075CB21;12
S28000;24BR050R22;5
S27000;24BR050R22;7
S28000;20SA050CD20;4
S27000;20SA050CD20;4
S28000;20NV150H20;10
S27000;20NV150H20;3
S28000;20ET075OC20;1
S28000;20ET075HC20;3
S28000;17SH500G21;20
S27000;17SH500G21;12
S27000;17SH075E19;6
S28000;17RS500G21;24
S27000;17RS500G21;11
S28000;17MC200G21;11
S27000;17MC200G21;11
S28000;17HI001G19;107
S27000;17HI001G19;188
S28000;17AS500FV21;15
S28000;17AS250FV21;6
S27000;17AS250FV21;6
S28000;15MA075L20;12
S28000;15MA030VB3;10
S27000;15MA030VB3;8
S28000;15LC250VA20;3
S28000;15HE005L14;11
S27000;15HE005L14;5
S28000;15GM280VB21;4
S28000;15GM065VB21;40
S28000;15GD500VB23;16
S27000;15GD500VB23;11
S28000;15GD250VCL23;30
S27000;15GD250VCL23;21
S28000;15GD250VA20;9
S27000;15GD250VA20;6
S28000;15GD250L21;27
S28000;15ET100VCL23;18
S27000;15ET100VCL23;9
S28000;15ET010VB19;3
S28000;11SP200SI19;4
S28000;11SH90005G21;1
S28000;11SAF100H20;14
S28000;11LD200I19;7
S27000;11LD200I19;6
S28000;11GE075I20;4
S27000;11GE075I20;4
S28000;11GD250O21;13
S27000;11GD250O21;7
S28000;11GD250H19;13
S28000;11GD050A18;12
S28000;11ET075O21;2
S27000;11ET075O21;4
S28000;11ET010H20;10
S27000;11ET010H20;6
S28000;11CM125I19;5
S28000;11CM030O21;9
S27000;11CM030O21;1
S28000;11CM030H19;17
S27000;11CM030H19;6
S28000;11CF100TR19;12
S28000;11BG140SI19;5
S27000;11BG140SI19;5
S28000;11BG140SH19;5
S27000;11BG140SH19;7
S28000;11AS90005G21;1
S27000;11AS040SG22;13
S28000;10P500V21;36
S28000;10P250V21;33
S28000;10EST500V21;36
S28000;10EST250V21;33
S28000;01SA9000KV21;1
S28000;01SA300KRO22;5
S27000;01SA300KRO22;1
S28000;01PI030K18;13
S28000;01MR030K14;12
S27000;01MR030K14;8
S28000;01MA075K22;10
S27000;01MA075K22;20
S28000;01LT300K20;11
S28000;01HN0075K23;16
S21000;17RS500G21;12
S21000;17RS500P19;18
S21000;17SE100FV21;21
S21000;17SH060SE21;4
S21000;17SH060SG21;5
S21000;17SH060SP21;4
S21000;17SH075E19;14
S21000;17SH075G21;14
S21000;17SH300E19;14
S21000;17SH300FV21;10
S21000;17SH300G21;5
S21000;17SH300P19;8
S21000;17SH500E19;14
S21000;17SH500FV21;10
S21000;17SH500G21;8
S21000;17SH500P19;14
S21000;17VI100P19;5
S21000;20AR075O20;8
S21000;20DO050O20;5
S21000;20DO075CD20;7
S21000;20DO130HC20;4
S21000;20ET075CD21;2
S21000;20ET075HC20;2
S21000;20ET075OC20;4
S21000;20GD250CD20;8
S21000;20GD250HC20;8
S21000;20GD250OC20;5
S21000;20GD500HC20;6
S21000;20NV150H20;4
S21000;20SA050CD20;4
S21000;20SA050HC20;5
S21000;24BL012CB5;7
S21000;24BL012R22;2
S21000;24BR050R22;7
S21000;24ET075CB21;8
S21000;24GD250CB21;19
S21000;24GD250R22;16
S21000;24GD500R22;9
S21000;24LC250CB21;13
S21000;24LC250R22;6
S21000;24MA030CB21;20
S21000;24MA030P21;10
S21000;24MA030R22;22
S21000;24MA075CB21;10
S21000;24MA075P21;10
S21000;24MA075R22;11
S21000;24MA150R22;10
S21000;24RG500CB21;10
S21000;24RG500R22;4
S21000;24RO010CB21;9
S21000;24SA050CB21;8
S21000;24SA050R22;8
S30000;11LH200I19;10
S31000;11LH200I19;9
S29000;11LT300I20;1
S30000;11LT300I20;5
S31000;11LT300I20;4
S29000;11MH075A19;5
S30000;11MH075A19;3
S31000;11MH075A19;4
S29000;11MWC200I19;11
S30000;11MWC200I19;4
S31000;11MWC200I19;3
S29000;11PEP050I20;4
S31000;11PEP050I20;1
S29000;11PM100SH19;10
S30000;11PM100SH19;5
S31000;11PM100SH19;3
S30000;11PM100SI19;4
S31000;11PM100SI19;4
S29000;11SA050O21;13
S30000;11SA050O21;4
S31000;11SA050O21;5
S29000;11SA100H20;2
S30000;11SA100H20;10
S29000;11SAF100H20;7
S30000;11SAF100H20;2
S31000;11SAF100H20;5
S29000;11SD100CS19;15
S30000;11SD100CS19;9
S31000;11SD100CS19;10
S29000;11SD100SH19;12
S30000;11SD100SH19;9
S31000;11SD100SH19;8
S29000;11SD100SI19;5
S30000;11SD100SI19;4
S31000;11SD100SI19;5
S31000;11SH080DP23;14
S29000;11SH300AD22;2
S30000;11SH300AD22;10
S31000;11SH300AD22;31
S31000;11SH90005G21;1
S29000;11SP200CS19;10
S30000;11SP200CS19;3
S31000;11SP200CS19;4
S29000;11SP200SH19;14
S30000;11SP200SH19;5
S31000;11SP200SH19;6
S29000;11SP200SI19;1
S30000;11SP200SI19;2
S31000;11SP200SI19;4
S29000;11SV080I19;14
S30000;11SV080I19;5
S31000;11SV080I19;5
S20;11SAF100H20;13
S90000;11SAF100H20;10
S20;11SD100CS19;10
S20;11SD100SH19;3
S20;11SD100SI19;5
S20;11SH300AD22;13
S20;11SP200CS19;1
S20;11SP200SH19;8
S20;11SP200SI19;5
S90000;11SP200SI19;2
S20;11SV080I19;4
S90000;11SV080I19;7
S90000;12LC250NO22;1
S20;15AS250VA18;5
S90000;15AS250VA18;3
S20;15BA500L16A;8
S90000;15BA500L16A;8
S20;15BM500VB21;1
S90000;15BM500VB21;49
S90000;15DF200VBL21;10
S20;15DO050VA22;5
S90000;15DO050VA22;10
S20;15ET010VB19;3
S90000;15ET010VB19;5
S20;15ET100VA20;4
S90000;15ET100VA20;8
S20;15ET100VB20;6
S90000;15ET100VB20;7
S20;15ET100VB23;2
S20;15ET100VBL23;3
S20;15ET100VCL23;13
S90000;15ET100VCL23;8
S20;15GD070VB21;72
S90000;15GD070VB21;101
S20;15GD250L21;18
S90000;15GD250L21;13
S20;15GD250VA20;7
S90000;15GD250VA20;8
S20;15GD250VB23;17
S90000;15GD250VB23;15
S90000;15GD250VBL22;55
S20;15GD250VCL23;19
S90000;15GD250VCL23;17
S20;15GD500VB23;19
S90000;15GD500VB23;16
S20;15GM065L21;12
S90000;15GM065L21;12
S20;15GM065VB21;19
S90000;15GM065VB21;16
S20;15GM280VB21;6
S90000;15GM280VB21;7
S20;15GN300L21;5
S20;15HE005L14;6
S29000;15AS250VA18;15
S30000;15AS250VA18;2
S31000;15AS250VA18;7
S29000;15BA500L16A;13
S30000;15BA500L16A;9
S31000;15BA500L16A;7
S30000;15BM500VB21;13
S29000;15BR050VBM23;4
S30000;15BR050VBM23;2
S31000;15BR050VBM23;6
S31000;15CM030LB23;52
S29000;15DO050VA22;16
S30000;15DO050VA22;9
S31000;15DO050VA22;8
S31000;15EDT050LB23;27
S29000;15ET010VB19;4
S30000;15ET010VB19;8
S31000;15ET010VB19;6
S29000;15ET100VA20;5
S30000;15ET100VA20;3
S31000;15ET100VA20;1
S29000;15ET100VB20;1
S30000;15ET100VB20;5
S31000;15ET100VB20;2
S29000;15ET100VB23;3
S30000;15ET100VB23;2
S31000;15ET100VB23;6
S30000;15ET100VBL23;2
S31000;15ET100VBL23;7
S29000;15ET100VCL23;16
S30000;15ET100VCL23;10
S31000;15ET100VCL23;20
S29000;15GD070VB21;68
S30000;15GD070VB21;57
S31000;15GD070VB21;80
S29000;15GD250L21;14
S30000;15GD250L21;15
S31000;15GD250L21;10
S31000;15GD250LB23;41
S29000;15GD250VA20;11
S30000;15GD250VA20;6
S31000;15GD250VA20;9
S30000;15GD250VB21;1
S29000;15GD250VB23;12
S30000;15GD250VB23;14
S31000;15GD250VB23;14
S29000;15GD250VCL23;34
S30000;15GD250VCL23;18
S31000;15GD250VCL23;23
S30000;15GD500VB21;1
S29000;15GD500VB23;31
S30000;15GD500VB23;10
S21000;27BD060I23;7
S21000;27BY015I22;10
S21000;27CP050I22;5
S21000;27DB015I20;10
S21000;27DC050I20;8
S21000;27DE015I21;10
S21000;27DH015I22;16
S21000;27DH030I22;11
S21000;27DL200I21;11
S21000;27DS030I20;11
S21000;27ER015I22;22
S21000;27EV200I22;14
S21000;27HC050I18;1
S21000;27HCR050I16;1
S21000;27HD200I23;7
S21000;27HSR030I16;2
S21000;27MC125I23;23
S21000;27MP150I22;1
S21000;27MQ065I15A;4
S21000;27MS050I20;11
S21000;27OR030I21;27
S21000;27OR050I21;41
S21000;27SE075I22;6
S21000;29ASH240A20;5
S21000;29BP100A22;5
S21000;29EC200A22;8
S21000;29GE200A21;11
S21000;29HD075A15;15
S21000;29HD250A15;19
S21000;29HD500A15;42
S21000;29LC200A20US;44
S21000;29MA030A17;5
S21000;29MA075A22;12
S21000;29RC200A22;41
S21000;29RH500A23;39
S21000;29SA050A22;9
S21000;29SE125A21;19
S21000;29SH240A20;4
S21000;29VC240A22;8
S21000;38BV050A22;2
S21000;38EV075A21;9
S21000;38FT200A21;7
S21000;38MI150A22;7
S21000;38RC050A22;5
S21000;38SC015RB23;19
S21000;38UV030A18;9
S21000;15LM300L11;5
S21000;38WC050A21;6
S21000;38WS030A21;12
S21000;49BO015CS19;38
S21000;49DC004I20;10
S21000;49DH004I22;81
S21000;49GD035CB21;130
S10;29LC200A20US;45
S10;29MA030A17;11
S10;29MA075A21;2
S10;29RH500A23;31
S10;29SE125A21;14
S10;29SH240A20;1
S10;29VC240A22;6
S10;38BV050A22;2
S10;38EC015A18;1
S10;38EV075A21;13
S10;38FT200A21;3
S10;38SC015RB23;21
S10;38UV030A18;9
S10;38WC050A21;4
S10;38WM065A18;1
S10;38WS030A21;4
S10;49BO015CS19;51
S10;49CRM2NO22;1
S10;49DC004I20;22
S10;49GD035CB21;130
S10;49HD035A15;36
S10;49LC020A20;46
S10;49LD030I21;1
S10;49OR005I21;121
S10;49POCK1NO22;1
S10;49SH035E21;50
S10;49MTAT23;5
S10;49MC014I23;135
S10;49MA010R22;6
S10;49MA010K22;76
S10;49DH004I22;69
S10;38RC050A22;9
S10;38MI150A22;8
S10;29SA050A22;7
S10;29RC200A22;42
S10;29MA075A22;5
S10;52AF006G20;254
S10;52AS006E19;186
S10;52AS006FV21;216
S10;52AS006G21;232
S10;52AS006P19;138
S10;52BGERIB20;2
S10;52BY001I22;154
S10;52CL0015K21;131
S10;52CP0015I22;135
S10;52CP006K22;334
S10;52CV0015K22;92
S10;52DB001I20;220
S10;52DE001I21;254
S10;52DH001I22;199
S10;52DL002I21;297
S10;52DS001I20;208
S10;52ER002I21;217
S10;52EV002I22;261
S31000;15GD500VB23;7
S31000;15GD9000V21;1
S29000;15GM065L21;19
S30000;15GM065L21;12
S31000;15GM065L21;7
S29000;15GM065VB21;21
S30000;15GM065VB21;11
S31000;15GM065VB21;6
S29000;15GM280VB21;8
S30000;15GM280VB21;4
S31000;15GM280VB21;4
S29000;15GN300L21;9
S30000;15GN300L21;8
S31000;15GN300L21;8
S29000;15HE005L14;6
S30000;15HE005L14;6
S31000;15HE005L14;5
S29000;15LC250L14;24
S30000;15LC250L14;7
S31000;15LC250L14;5
S31000;15LC250LB23;37
S29000;15LC250VA20;14
S30000;15LC250VA20;7
S31000;15LC250VA20;6
S29000;15LC250VB3;10
S30000;15LC250VB3;6
S29000;15LC250VCL23;18
S30000;15LC250VCL23;15
S31000;15LC250VCL23;17
S29000;15LM300L11;15
S30000;15LM300L11;11
S31000;15LM300L11;10
S29000;15MA030L21;15
S30000;15MA030L21;20
S31000;15MA030L21;19
S29000;15MA030VA5;11
S30000;15MA030VA5;3
S31000;15MA030VA5;3
S29000;15MA030VB3;19
S30000;15MA030VB3;14
S31000;15MA030VB3;11
S29000;15MA030VCL23;33
S30000;15MA030VCL23;26
S31000;15MA030VCL23;24
S29000;15MA075L20;15
S30000;15MA075L20;8
S31000;15MA075L20;4
S29000;15MA075VB4;30
S30000;15MA075VB4;8
S31000;15MA075VB4;4
S29000;15RC500VB21;15
S30000;15RC500VB21;11
S31000;15RC500VB21;22
S21000;49HD035A15;95
S21000;49HD035K17;6
S21000;49LC020A20;51
S21000;49MA010K22;70
S21000;49MC014I23;114
S21000;49OR005I21;87
S21000;49POCK1NO22;3
S21000;49SH035E21;60
S90000;15HE005L14;9
S90000;15LC070VB5;117
S20;15LC250L14;13
S90000;15LC250L14;9
S20;15LC250VA20;5
S90000;15LC250VA20;12
S20;15LC250VB3;10
S90000;15LC250VB3;5
S20;15LC250VCL23;16
S20;15LM300L11;15
S90000;15LM300L11;12
S20;15MA030L21;15
S90000;15MA030L21;42
S20;15MA030VA5;7
S90000;15MA030VA5;9
S20;15MA030VB3;8
S90000;15MA030VB3;10
S20;15MA030VBM8;19
S90000;15MA030VBM8;73
S20;15MA030VCL23;21
S90000;15MA030VCL23;26
S20;15MA075L20;11
S90000;15MA075L20;10
S20;15MA075VB4;10
S90000;15MA075VB4;9
S20;15RC500VB21;18
S90000;15RC500VB21;14
S20;15RG500L14;17
S90000;15RG500L14;6
S20;15RG500VA20;17
S90000;15RG500VA20;2
S20;15RO010VBM22;14
S90000;15RO010VBM22;48
S20;15SA075VB21;3
S90000;15SA075VB21;7
S20;15SH250VA20;12
S20;17AF100G20;18
S90000;17AF100G20;8
S90000;17AS075G21;23
S90000;17AS075P19;47
S20;17AS250E19;2
S90000;17AS250E19;7
S20;17AS250FV21;11
S90000;17AS250FV21;6
S20;17AS250G21;3
S90000;17AS250G21;7
S20;17AS250P19;8
S20;17AS500E19;9
S90000;17AS500E19;11
S20;17AS500FV21;11
S90000;17AS500FV21;13
S20;17AS500G21;15
S90000;17AS500G21;15
S29000;15RG500L14;27
S30000;15RG500L14;6
S31000;15RG500L14;14
S29000;15RG500VA20;35
S30000;15RG500VA20;6
S31000;15RG500VA20;14
S29000;15RO010VBM22;23
S30000;15RO010VBM22;8
S29000;15SA075VB21;6
S30000;15SA075VB21;4
S31000;15SA075VB21;5
S29000;15SH250VA20;21
S30000;15SH250VA20;1
S31000;15SH250VA20;4
S29000;17AF100G20;10
S30000;17AF100G20;9
S31000;17AF100G20;25
S29000;17AS250E19;11
S30000;17AS250E19;7
S31000;17AS250E19;5
S29000;17AS250FV21;4
S30000;17AS250FV21;6
S31000;17AS250FV21;3
S29000;17AS250G21;21
S30000;17AS250G21;8
S31000;17AS250G21;11
S29000;17AS250P19;10
S30000;17AS250P19;12
S31000;17AS250P19;7
S29000;17AS500E19;21
S30000;17AS500E19;12
S31000;17AS500E19;18
S29000;17AS500FV21;17
S30000;17AS500FV21;4
S31000;17AS500FV21;2
S29000;17AS500G21;22
S30000;17AS500G21;10
S31000;17AS500G21;8
S29000;17AS500P19;8
S30000;17AS500P19;6
S31000;17AS500P19;6
S29000;17DO050F13;22
S30000;17DO050F13;9
S31000;17DO050F13;6
S29000;17ER075P19;8
S30000;17ER075P19;6
S31000;17ER075P19;11
S31000;17HB050A22;10
S29000;17HI001G19;83
S30000;17HI001G19;78
S31000;17HI001G19;97
S29000;17HI100G19;15
S30000;17HI100G19;10
S31000;17HI100G19;30
S29000;17MC200G21;12
S30000;17MC200G21;9
S31000;17MC200G21;27
S29000;17RC500E20;51
S29000;17RC500G21;42
S30000;17RC500G21;13
S31000;17RC500G21;25
S29000;17RC500P19;22
S30000;17RC500P19;8
S31000;17RC500P19;11
S29000;17RS500E20;48
S30000;17RS500E20;10
S31000;17RS500E20;19
S29000;17RS500FV21;23
S30000;17RS500FV21;14
S31000;17RS500FV21;23
S29000;17RS500G21;41
S30000;17RS500G21;10
S31000;17RS500G21;4
S29000;17RS500P19;36
S30000;17RS500P19;9
S31000;17RS500P19;8
S29000;17SE100FV21;24
S30000;17SE100FV21;16
S31000;17SE100FV21;35
S29000;17SH060SE21;5
S30000;17SH060SE21;4
S31000;17SH060SE21;3
S29000;17SH060SP21;4
S30000;17SH060SP21;3
S31000;17SH060SP21;3
S30000;17SH075E19;1
S31000;17SH075E19;68
S29000;17SH300E19;9
S29000;17SH300P19;14
S30000;17SH300P19;13
S29000;17SH500E19;21
S30000;17SH500E19;14
S29000;17SH500FV21;18
S30000;17SH500FV21;13
S31000;17SH500FV21;15
S29000;17SH500G21;25
S30000;17SH500G21;15
S31000;17SH500G21;11
S29000;17SH500P19;21
S30000;17SH500P19;14
S31000;17SH500P19;14
S29000;17VI100P19;5
S30000;17VI100P19;6
S31000;17VI100P19;8
S29000;20DO050O20;13
S30000;20DO050O20;5
S31000;20DO050O20;6
S29000;20DO075CD20;16
S30000;20DO075CD20;3
S31000;20DO075CD20;2
S29000;20DO130HC20;14
S30000;20DO130HC20;6
S29000;20ET075CD21;4
S30000;20ET075CD21;4
S29000;20ET075HC20;4
S30000;20ET075HC20;4
S31000;20ET075HC20;3
S29000;20ET075OC20;3
S30000;20ET075OC20;3
S31000;20ET075OC20;4
S29000;20GD250CD20;10
S30000;20GD250CD20;6
S31000;20GD250CD20;10
S29000;20GD250HC20;5
S30000;20GD250HC20;14
S31000;20GD250HC20;11
S29000;20GD250OC20;19
S30000;20GD250OC20;6
S31000;20GD250OC20;6
S29000;20NV150H20;8
S30000;20NV150H20;10
S31000;20NV150H20;12
S29000;20SA050CD20;6
S30000;20SA050CD20;3
S31000;20SA050CD20;4
S29000;20SA050HC20;5
S30000;20SA050HC20;4
S31000;20SA050HC20;3
S29000;24BL012R22;12
S30000;24BL012R22;12
S31000;24BL012R22;11
S29000;24BR050R22;14
S30000;24BR050R22;9
S31000;24BR050R22;16
S29000;24ET075CB21;15
S30000;24ET075CB21;11
S31000;24ET075CB21;14
S29000;24ET075R22;1
S30000;24ET075R22;1
S31000;24ET075R22;3
S29000;24GD250CB21;19
S30000;24GD250CB21;14
S31000;24GD250CB21;10
S29000;24GD250R22;17
S30000;24GD250R22;12
S29000;24GD500R22;21
S30000;24GD500R22;12
S31000;24GD500R22;11
S28000;01CMR500K20;12
S27000;49BO015CS19;5
S28000;49BO015CS19;88
S27000;49DH004I22;40
S28000;49DH004I22;98
S27000;49GD035CB21;34
S27000;49HD035A15;1
S28000;49HD035A15;60
S27000;49LC020A20;10
S28000;49LC020A20;101
S27000;49LD030I21;1
S27000;49MA010K22;67
S27000;49MC014I23;86
S28000;49MC014I23;216
S27000;49MTAT23;5
S28000;49MTAT23;17
S28000;49SH035E21;124
S27000;52AF006G20;101
S28000;52AF006G20;119
S27000;52AS006E19;213
S28000;52AS006E19;331
S27000;52AS006FV21;22
S28000;52AS006FV21;123
S27000;52AS006G21;135
S28000;52AS006G21;343
S27000;52AS006P19;74
S28000;52AS006P19;130
S28000;49OR005I21;83
S27000;49OR005I21;62
S28000;49MA010K22;64
S28000;49HD035K17;1
S27000;49HD035K17;3
S28000;49GD035CB21;93
S28000;49DC004I20;47
S27000;49DC004I20;10
S27000;52BY001I22;142
S28000;52BY001I22;181
S27000;52CD0015A18;1
S27000;52CL0015K21;38
S28000;52CL0015K21;66
S27000;52CP0015I22;26
S28000;52CP0015I22;282
S27000;52CP006K22;290
S28000;52CP006K22;109
S27000;52CV0015K22;92
S28000;52CV0015K22;199
S28000;52DB001I20;87
S27000;52DC0015I20;137
S28000;52DC0015I20;343
S27000;52DE001I21;143
S28000;52DE001I21;164
S27000;52DH001I22;141
S28000;52DH001I22;372
S29000;24LC250CB21;16
S30000;24LC250CB21;5
S31000;24LC250CB21;9
S29000;24LC250R22;20
S30000;24LC250R22;13
S31000;24LC250R22;14
S29000;24MA030P21;5
S30000;24MA030P21;8
S31000;24MA030P21;7
S29000;24MA030R22;20
S30000;24MA030R22;13
S31000;24MA030R22;21
S29000;24MA030RV19;2
S29000;24MA075CB21;15
S30000;24MA075CB21;12
S31000;24MA075CB21;8
S31000;24MA030CB21;20
S30000;24MA030CB21;24
S29000;24MA030CB21;23
S31000;24GD250R22;15
S31000;24BR050CB21;8
S31000;24BL012CB5;9
S30000;24BL012CB5;9
S29000;24BL012CB5;10
S31000;20GD500HC20;10
S30000;20GD500HC20;8
S29000;20GD500HC20;27
S31000;20ET075CD21;4
S31000;20AR075O20;4
S30000;20AR075O20;5
S29000;20AR075O20;9
S31000;17SH500E19;14
S31000;17SH300P19;11
S31000;17SH300G21;14
S30000;17SH300G21;13
S29000;17SH300G21;18
S31000;17SH300FV21;12
S30000;17SH300FV21;15
S29000;17SH300FV21;10
S31000;17SH300E19;7
S30000;17SH300E19;25
S31000;17SH075G21;68
S30000;17SH075G21;1
S31000;17SH060SG21;3
S30000;17SH060SG21;3
S29000;17SH060SG21;4
S31000;17RC500E20;31
S30000;17RC500E20;6
S29000;24MA075P21;7
S30000;24MA075P21;10
S31000;24MA075P21;9
S29000;24MA075R22;15
S30000;24MA075R22;5
S20;17AS500P19;6
S20;17DO050F13;25
S20;17ER075P19;3
S20;17HI001G19;105
S20;17HI100G19;13
S20;17MC200G21;14
S20;17RC500E20;13
S20;17RC500G21;19
S20;17RC500P19;11
S20;17RS500E20;17
S20;17RS500FV21;17
S20;17RS500G21;23
S20;17RS500P19;20
S20;17SE100FV21;15
S20;17SH060SE21;6
S20;17SH060SG21;6
S20;17SH060SP21;5
S20;17SH075E19;21
S20;17SH075G21;21
S20;17SH300E19;10
S20;17SH300FV21;13
S20;17SH300G21;12
S20;17SH300P19;11
S20;17SH500E19;12
S20;17SH500FV21;19
S20;17SH500G21;17
S20;17SH500P19;11
S20;20AR075O20;13
S20;20DO050O20;9
S20;20DO075CD20;9
S20;20DO130HC20;9
S20;20ET075CD21;2
S20;20ET075HC20;4
S20;20ET075OC20;4
S20;20GD250CD20;3
S20;20GD250HC20;20
S20;20GD250OC20;10
S20;20GD500HC20;16
S20;20NV150H20;8
S20;20SA050CD20;3
S20;20SA050HC20;3
S20;24BL012CB5;10
S20;24BL012R22;10
S20;24BR050CB21;2
S20;24BR050R22;9
S20;24ET075CB21;5
S20;24ET075R22;2
S20;24GD250CB21;16
S20;24GD250R22;13
S90000;17AS250P19;15
S90000;17AS075FV21;33
S90000;17AS075E19;113
S90000;15LC250VCL23;9
S90000;15LC075L15;22
S27000;52DL002I21;179
S28000;52DL002I21;188
S27000;52DS001I20;1
S28000;52DS001I20;230
S27000;52ER002I21;235
S27000;52EV002I22;233
S27000;52GD0015A18;84
S28000;52GD0015A18;155
S27000;52HD001I23;178
S28000;52HD001I23;129
S27000;52HD006A18;179
S28000;52HD006A18;301
S28000;52HS001I17;154
S27000;52HS004A18;153
S27000;52LC006A20;174
S28000;52LC006A20;523
S27000;52LGEBOX18;5
S28000;52LGEBOX18;12
S27000;52LGENSA21;21
S28000;52LGENSA21;217
S27000;52MC001I23;149
S27000;52MGEBOX18;3
S28000;52MGEBOX18;33
S27000;52MGENSA21GPS;74
S28000;52MGENSA21GPS;203
S28000;52MOCOL316;2
S27000;52MS001I20;146
S28000;52MS001I20;138
S27000;52OR001I21;451
S27000;52PMGBOX18;1
S28000;52PMGBOX18;26
S27000;52PS0015R21;303
S28000;52PS0015R21;146
S27000;52SGENSA21GPS;16
S28000;52SGENSA21GPS;144
S27000;52SH006E19;511
S28000;52SH006E19;303
S27000;52SH006FV21;233
S28000;52SH006FV21;104
S27000;52SH006G21;197
S28000;52SH006G21;585
S27000;52SH006P19;265
S28000;52SH006P19;153
S28000;52SE0015I22;118
S27000;52SE0015I22;88
S28000;52OR001I21;504
S28000;52MC006G21;63
S27000;52MC006G21;304
S28000;52MC001I23;467
S28000;52MA003K22A;161
S28000;52EV002I22;212
S27000;52TS001I22;12
S28000;52TS001I22;454
S10;52GD0015A18;106
S10;52HD001I23;441
S10;52HD006A18;365
S10;52HS001I17;147
S10;52HS004A18;386
S10;52LASANO22;81
S10;52LC006A20;325
S10;52LGEBOX18;12
S10;52LGENSA21;210
S10;52MA003K22A;211
S10;52MC001I23;268
S10;52MC006G21;84
S10;52MGEBOX18;18
S10;52MGENSA21GPS;52
S10;52DC0015I20;426
S10;52MOCOL216;2
S10;52MOCOL316;2
S10;52MS001I20;197
S10;52OR001I21;374
S10;52PS0015R21;345
S10;52SE0015I22;155
S10;52SH006E19;274
S10;52SH006FV21;545
S10;52SH006G21;404
S10;52SH006P19;322
S10;52TS001I22;375
S10;52TS001R21;323
S10;52YGERIB20;2
S10;98BBGD030VE4;16
S10;98BBMA010KA3;34
S10;ACPOCVEC00001;337
S10;ACPOCVEC00002;464
S10;ACPOCVEC00003;104
S10;ACPOCVEC00004;61
S10;ACPOCVEC00005;50
S10;SGOCVE600006;86
S90000;15GN300L21;14
S90000;15GD075L21;26
S90000;12GD245NO21H;1
S90000;11SP200SH19;7
S90000;11SP200CS19;1
S90000;11SH300AD22;7
S90000;11SD100SI19;14
S90000;11SD100SH19;9
S90000;11SD100CS19;10
S90000;11SA100H20;10
S90000;11PM100SI19;9
S90000;11LT300I20;10
S90000;11LH200I19;10
S90000;11LC250O21;10
S90000;11GN195A18;6
S90000;11FAG10TR19;9
S90000;11EP050H19;5
S90000;11EH150A18;9
S90000;11EC200AT23;21
S90000;11CM200AT23;1
S90000;11CM030H20;13
S90000;11CD050A18;8
S90000;11BS020K23;10
S90000;11BO100CS22H;13
S90000;11BO100CS19;12
S90000;11BH050A18;7
S90000;11BG140SL19;12
S90000;11BG140SH19;9
S90000;11BG140CS19;6
S90000;10BOWEB419;763
S90000;10BOWEB319;1055
S90000;10BOWEB219;811
S90000;01SL500LV20;13
S90000;01SAR500KRO22;13
S90000;01SA500KRO22;15
S90000;01SA100VE20;9
S90000;01SA050KG22H;1
S90000;01SA050KC22H;1
S90000;01RL500K20;26
S90000;01PWPKT22;4
S90000;01MD200KG22H;1
S90000;01MA150KG22H;14
S90000;01MA150KC22H;11
S90000;01MA150K22;6
S90000;01MA030KG22H;2
S90000;01MA030K22;1
S90000;01LC250K24;15
S90000;01HV030K23;6
S90000;01HN0075K19;1
S90000;01HF100K17;8
S90000;01HD250K17;6
S90000;01EC200K17;1
S27000;52TS001R21;348
S28000;52TS001R21;184
S28000;52YGERIB20;3
S27000;98BBGD030VE4;12
S28000;98BBGD030VE4;34
S27000;ACPOCVEC00001;178
S28000;ACPOCVEC00001;311
S27000;ACPOCVEC00002;255
S28000;ACPOCVEC00002;429
S27000;ACPOCVEC00003;41
S28000;ACPOCVEC00003;196
S27000;ACPOCVEC00004;140
S28000;ACPOCVEC00005;131
S27000;SGOCVE600006;66
S28000;SGOCVE600006;52
S28000;ACPOCVEC00004;96
S28000;98BBMA010KA3;83
S31000;24MA075R22;9
S29000;24MA150R22;13
S30000;24MA150R22;10
S31000;24MA150R22;10
S29000;24RG500CB21;28
S30000;24RG500CB21;12
S31000;24RG500CB21;11
S29000;24RG500R22;38
S30000;24RG500R22;7
S31000;24RG500R22;5
S29000;24RO010CB21;10
S30000;24RO010CB21;7
S31000;24RO010CB21;10
S29000;24SA050CB21;16
S30000;24SA050CB21;12
S31000;24SA050CB21;11
S29000;24SA050R22;15
S31000;24SA050R22;6
S29000;27BD060I23;10
S30000;27BD060I23;9
S31000;27BD060I23;7
S29000;27BY015I22;7
S30000;27BY015I22;3
S31000;27BY015I22;5
S29000;27CP050I22;20
S30000;27CP050I22;6
S31000;27CP050I22;12
S29000;27DB015I20;15
S30000;27DB015I20;6
S31000;27DB015I20;3
S29000;27DC050I20;36
S30000;27DC050I20;11
S31000;27DC050I20;12
S29000;27DE015I21;15
S30000;27DE015I21;1
S29000;27DH015I22;19
S30000;27DH015I22;26
S31000;27DH015I22;20
S29000;27DH030I22;36
S30000;27DH030I22;9
S31000;27DH030I22;4
S29000;27DL200I21;7
S30000;27DL200I21;6
S29000;27DS030I20;13
S30000;27DS030I20;5
S31000;27DS030I20;2
S29000;27ER015I22;20
S30000;27ER015I22;15
S31000;27ER015I22;9
S29000;27ER050I21;1
S29000;27ER150I21;7
S29000;27EV200I22;13
S30000;27EV200I22;13
S30000;27FP050I19;1
S29000;27HC050I18;2
S30000;27HC050I18;2
S30000;27HCR050I16;2
S29000;27HD200I23;12
S30000;27HD200I23;7
S31000;27HD200I23;7
S29000;27HS030I18;1
S30000;27HS030I18;3
S31000;27HS030I18;1
S29000;27HSR030I16;3
S30000;27HSR030I16;4
S29000;27MC125I23;25
S30000;27MC125I23;26
S31000;27MC125I23;20
S31000;27MII150I22;3
S31000;27MP050I22;8
S29000;27MP150I22;14
S30000;27MP150I22;9
S31000;27MP150I22;8
S29000;27MQ065I15A;4
S30000;27MQ065I15A;3
S31000;27MQ065I15A;2
S29000;27MS050I20;4
S30000;27MS050I20;5
S31000;27MS050I20;5
S29000;27OR030I21;27
S30000;27OR030I21;25
S31000;27OR030I21;40
S29000;27OR050I21;27
S30000;27OR050I21;37
S31000;27OR050I21;22
S29000;27SE075I22;8
S30000;27SE075I22;8
S31000;27SE075I22;2
S29000;29ASH240A20;8
S30000;29ASH240A20;3
S31000;29ASH240A20;5
S29000;29BP100A22;8
S30000;29BP100A22;6
S31000;29BP100A22;7
S29000;29EC200A22;18
S30000;29EC200A22;8
S31000;29EC200A22;10
S29000;29GE200A21;11
S30000;29GE200A21;15
S31000;29GE200A21;15
S29000;29HD075A15;34
S30000;29HD075A15;14
S31000;29HD075A15;24
S29000;29HD250A15;15
S30000;29HD250A15;22
S31000;29HD250A15;40
S29000;29HD500A15;63
S30000;29HD500A15;38
S31000;29HD500A15;34
S31000;29HD9000A21;2
S29000;29HS100A21;8
S30000;29HS100A21;10
S31000;29HS100A21;12
S29000;29LC200A20US;56
S30000;29LC200A20US;39
S31000;29LC200A20US;52
S29000;29MA030A17;18
S30000;29MA030A17;25
S31000;29MA030A17;26
S29000;29MA075A21;11
S29000;29MA075A22;18
S30000;29MA075A22;4
S31000;29MA075A22;16
S29000;29RC200A22;81
S30000;29RC200A22;25
S29000;29SA050A22;9
S30000;29SA050A22;13
S31000;29SA050A22;8
S29000;29SE125A21;18
S30000;29SE125A21;11
S31000;29SE125A21;14
S30000;29SH240A20;1
S29000;29VC240A22;13
S30000;29VC240A22;10
S31000;29VC240A22;5
S29000;38BV050A22;4
S30000;38BV050A22;3
S31000;38BV050A22;3
S29000;38EV075A21;16
S30000;38EV075A21;4
S31000;38EV075A21;3
S29000;38FT200A21;13
S30000;38FT200A21;10
S31000;38FT200A21;10
S29000;38MI150A22;8
S30000;38MI150A22;5
S31000;38MI150A22;3
S29000;38RC050A22;6
S30000;38RC050A22;4
S29000;38SC015RB23;21
S30000;38SC015RB23;22
S31000;38SC015RB23;29
S29000;38WC050A21;16
S30000;38WC050A21;12
S31000;38WC050A21;13
S29000;38WS030A21;14
S30000;38WS030A21;10
S31000;38WS030A21;9
S30000;49BO015CS19;68
S31000;49BO015CS19;98
S31000;38RC050A22;4
S31000;29RH500A23;32
S30000;29RH500A23;33
S29000;29RH500A23;96
S31000;29RC200A22;50
S31000;38UV030A18;12
S30000;38UV030A18;6
S29000;38UV030A18;14
S29000;49DC004I20;13
S30000;49DC004I20;12
S31000;49DC004I20;15
S29000;49DH004I22;27
S30000;49DH004I22;56
S31000;49DH004I22;67
S29000;49GD035CB21;14
S30000;49GD035CB21;70
S31000;49GD035CB21;72
S29000;49HD035A15;4
S30000;49HD035A15;42
S31000;49HD035A15;96
S29000;49HD035K17;23
S30000;49HD035K17;4
S31000;49HD035K17;2
S31000;49ICNPOU22;67
S29000;49LC020A20;19
S30000;49LC020A20;66
S31000;49LC020A20;72
S29000;49LC035CB21;18
S31000;49LC035CB21;7
S29000;49LD030I21;6
S29000;49MA010A17;15
S29000;49MA010K22;105
S30000;49MA010K22;70
S31000;49MA010K22;120
S29000;49MC014I23;73
S30000;49MC014I23;114
S31000;49MC014I23;149
S29000;49MTAT23;6
S30000;49MTAT23;1
S31000;49MTAT23;4
S29000;49OR005I21;35
S30000;49OR005I21;129
S31000;49OR005I21;153
S29000;49PADCL20;6
S31000;49PAR1CH20;7
S30000;49POCK1NO22;3
S31000;49POCK1NO22;6
S31000;49POUGCS23;18
S30000;49SH035E21;55
S31000;49SH035E21;39
S29000;52AF006G20;37
S29000;52AS006E19;157
S30000;52AS006E19;110
S31000;52AS006E19;195
S29000;52AS006FV21;79
S29000;52AS006G21;104
S30000;52AS006G21;106
S31000;52AS006G21;253
S29000;52AS006P19;42
S30000;52AS006P19;48
S31000;52AS006P19;33
S31000;52BGERIB20;2
S29000;52BY001I22;186
S30000;52BY001I22;124
S31000;52BY001I22;200
S30000;52CD0015A18;111
S29000;52CL0015K21;50
S30000;52CL0015K21;113
S29000;52CP0015I22;45
S30000;52CP0015I22;146
S31000;52CP0015I22;135
S29000;52CP006K22;142
S30000;52CP006K22;204
S29000;52CV0015K22;127
S30000;52CV0015K22;76
S31000;52CV0015K22;58
S29000;52DC0015I20;46
S29000;52DF002I17;131
S29000;52DH001I22;139
S30000;52DH001I22;141
S31000;52DH001I22;174
S29000;52DL002I21;90
S29000;52DS001I20;90
S30000;52DS001I20;108
S31000;52DS001I20;113
S29000;52ER002I21;245
S30000;52ER002I21;473
S31000;52ER002I21;377
S29000;52EV002I22;98
S30000;52EV002I22;129
S31000;52EV002I22;114
S29000;52GD0015A18;93
S29000;52HD006A18;163
S30000;52HD006A18;276
S31000;52HD006A18;243
S29000;52HS001I17;74
S29000;52HS004A18;191
S30000;52HS004A18;157
S31000;52HS004A18;331
S29000;52LC006A20;109
S30000;52LC006A20;233
S31000;52LC006A20;27
S29000;52LGEBOX18;1
S29000;52LGENSA21;115
S30000;52LGENSA21;73
S31000;52LGENSA21;18
S29000;52LT002R21;4
S30000;52MA003K22A;225
S31000;52MA003K22A;183
S29000;52MC001I23;179
S30000;52MC001I23;147
S31000;52MC001I23;163
S29000;52MC006G21;115
S30000;52MC006G21;142
S31000;52MC006G21;126
S30000;52MGEBOX18;5
S31000;52MGEBOX18;15
S30000;52MGENSA21GPS;41
S29000;52MS001I20;76
S30000;52MS001I20;111
S31000;52MS001I20;134
S29000;52OR001I21;50
S30000;52OR001I21;268
S31000;52OR001I21;264
S31000;52MGENSA21GPS;37
S31000;52LGEBOX18;14
S30000;52LGEBOX18;7
S31000;52HS001I17;80
S30000;52HS001I17;3
S30000;52HD001I23;105
S29000;52HD001I23;193
S31000;52GD0015A18;66
S30000;52GD0015A18;45
S31000;52DL002I21;93
S30000;52DL002I21;197
S31000;52DE001I21;224
S30000;52DE001I21;171
S29000;52DE001I21;129
S31000;52DC0015I20;3
S30000;52DC0015I20;112
S31000;52DB001I20;99
S30000;52DB001I20;153
S29000;52DB001I20;70
S31000;52CP006K22;64
S31000;52BY001I19;217
S31000;52AS006FV21;115
S31000;52AF006G20;96
S30000;52AF006G20;141
S30000;52PMGBOX18;6
S29000;52PS0015R21;12
S30000;52PS0015R21;182
S29000;52SE0015I22;191
S30000;52SE0015I22;110
S31000;52SE0015I22;41
S29000;52SGENSA21GPS;210
S30000;52SGENSA21GPS;88
S29000;52SH006FV21;41
S29000;52SH006G21;715
S30000;52SH006G21;210
S31000;52SH006G21;479
S29000;52SH006P19;33
S30000;52SH006P19;91
S31000;52SH006P19;179
S29000;52TS001I22;44
S30000;52TS001R21;179
S31000;52YGERIB20;2
S30000;98BBMA010KA3;70
S31000;98BBMA010KA3;104
S30000;ACPOCVEC00001;123
S31000;ACPOCVEC00001;410
S30000;ACPOCVEC00003;12
S31000;ACPOCVEC00003;154
S30000;ACPOCVEC00004;75
S31000;ACPOCVEC00004;79
S31000;98BBGD030VE4;7
S30000;98BBGD030VE4;10
S29000;98BBGD030VE4;12
S31000;52TS001I22;175
S30000;52TS001I22;199
S31000;52SH006FV21;147
S30000;52SH006FV21;158
S31000;52SH006E19;304
S30000;52SH006E19;269
S29000;52SH006E19;290
S31000;52SGENSA21GPS;37
S31000;ACPOCVEC00002;392
S30000;ACPOCVEC00002;142
S29000;SGOCVE600006;52
S30000;SGOCVE600006;58
S31000;SGOCVE600006;140
S90000;SGOCVKI00234;60
S90000;SGOCVKI00235;1
S90000;SGOCVKI00236;12
S90000;SGOCVKI00239;1
S90000;SGOCVKI00248;2
S90000;01CP200K22;12
S90000;01CP050K22;10
S90000;01CL200KG22H;10
S90000;01CL050K21;5
S90000;01CF030KB23;4
S90000;01CE200KC22H;10
S90000;01CD250K23;13
S90000;01CCJ200K22;10
S90000;01BM150K23;14
S90000;01BM150K19;1
S90000;01BM050K23;10
S90000;01BL012KG22H;8
S90000;01BL012KC22H;4
S90000;01BL012K18;7
S20;24GD500R22;17
S20;24LC250CB21;12
S20;24LC250R22;10
S20;24MA030CB21;23
S20;24MA030P21;12
S20;24MA030R22;18
S20;24MA075CB21;12
S20;24MA075P21;8
S20;24MA075R22;8
S20;24MA150R22;11
S20;24RG500CB21;14
S20;24RG500R22;17
S20;24RO010CB21;8
S20;24SA050CB21;12
S20;24SA050R22;12
S20;27BD060I23;6
S20;27BY015I22;6
S20;27CP050I22;8
S20;27DB015I20;13
S20;27DC050I20;14
S20;27DE015I21;9
S20;27DH015I22;16
S20;27DH030I22;18
S20;27DL200I21;9
S20;27DS030I20;6
S20;27ER015I22;15
S20;27ER150I21;11
S20;27EV200I22;11
S20;27HCR050I16;1
S20;27HD200I23;8
S20;27HS030I18;1
S20;27HSR030I16;4
S20;27MC125I23;17
S20;27MP150I22;13
S20;27MQ065I15A;4
S20;27MS050I20;2
S20;27OR030I21;38
S20;27OR050I21;41
S20;27SE075I22;9
S20;29ASH240A20;5
S20;29BP100A22;5
S20;29EC200A22;12
S20;29GE200A21;7
S20;29HD075A15;19
S20;29HD250A15;16
S20;29HD500A15;62
S20;29HS100A21;11
S20;29LC200A20US;51
S20;29MA030A17;14
S20;29MA075A21;6
S20;29MA075A22;10
S20;29RC200A22;59
S20;29RH500A23;63
S20;29SA050A22;12
S20;29SE125A21;14
S20;29VC240A22;17
S20;38BV050A22;6
S20;38EV075A21;12
S20;38FT200A21;11
S20;38MI150A22;8
S20;38RC050A22;6
S20;38SC015RB23;19
S20;38UV030A18;14
S20;38WC050A21;7
S20;38WS030A21;8
S20;49BO015CS19;33
S20;49DC004I20;31
S20;49DH004I22;69
S20;49GD035CB21;36
S20;49HD035A15;29
S20;49HD035K17;15
S20;49LC020A20;39
S20;49LD030I21;15
S20;49MA010K22;104
S20;49MC014I23;123
S20;49MTAT23;7
S20;49OR005I21;110
S20;49POCK1NO22;4
S20;49SH035E21;13
S20;52AF006G20;223
S20;52AS006E19;121
S20;52AS006FV21;141
S20;52AS006G21;104
S20;52AS006P19;80
S20;52BY001I22;181
S20;52CL0015K21;74
S20;52CP0015I22;201
S20;52CP006K22;244
S20;52CV0015K22;86
S20;52DB001I20;232
S20;52DC0015I20;306
S20;52DE001I21;293
S20;52DH001I22;395
S90000;17AS500P19;16
S90000;17DO050F13;12
S90000;17ER075P19;10
S90000;17HB050A22;4
S90000;17HI001G19;100
S90000;17HI100G19;10
S90000;17MC200G21;7
S90000;17RC500E20;19
S90000;17RC500G21;14
S90000;17RC500P19;25
S90000;17RS500FV21;17
S90000;17RS500G21;15
S90000;17RS500P19;19
S90000;17SE100FV21;11
S90000;17SH060SE21;8
S90000;17SH060SG21;8
S90000;17SH060SP21;7
S90000;17SH075E19;1
S90000;17SH075FV21;18
S90000;17SH075G21;2
S90000;17SH075P19;15
S90000;17SH300E19;6
S90000;17SH300FV21;7
S90000;17SH300G21;9
S90000;17SH300P19;6
S90000;17SH500E19;7
S90000;17SH500FV21;16
S90000;17SH500G21;14
S90000;17SH500P19;14
S90000;17VI100P19;11
S90000;20AR075O20;8
S90000;20DO050O20;7
S90000;20DO075CD20;10
S90000;20DO130HC20;12
S90000;20ET075CD20;8
S90000;20ET075HC20;10
S90000;20ET075OC20;9
S90000;20GD250CD20;11
S90000;20GD250HC20;11
S90000;20GD250OC20;13
S90000;20GD500HC20;15
S90000;20HR050H20;8
S90000;20NV150H20;8
S90000;20SA050CD20;9
S90000;20SA050HC20;11
S90000;17RS500E20;14
S90000;24BL012CB5;9
S90000;24BL012R22;7
S90000;24BR050C21;1
S90000;24BR050CB21;5
S90000;24BR050R22;8
S90000;24CM030CBL23;1
S90000;24ET075CB21;7
S90000;24ET075R22;2
S90000;24GD075CB5;2
S90000;24GD075R22;7
S90000;24GD250CB21;14
S90000;24GD250R22;13
S90000;24GD500CB21;1
S90000;24GD500R22;15
S90000;24LC075R22;125
S90000;24LC250CB21;7
S90000;24LC250CB4;1
S90000;24LC250R22;11
S90000;24MA030CB21;1
S90000;24MA030P21;10
S90000;24MA030R22;17
S90000;24MA075CB21;11
S90000;24MA075P21;10
S90000;24MA075R22;12
S90000;24MA150R22;11
S90000;24RG500CB21;16
S90000;24RG500R22;7
S90000;24RO010CB21;9
S90000;24SA050CB21;11
S90000;24SA050R22;10
S90000;27BD060I23;10
S90000;27BY015I22;10
S90000;27CP050I22;6
S90000;27DB015I20;8
S90000;27DC050I20;154
S90000;27DCB060I17;1
S90000;27DE015I21;10
S90000;27DF125I17;1
S90000;27DH015I20;1
S90000;27DH015I22;7
S90000;27DH030I20;16
S90000;27DH030I22;18
S90000;27DL200I21;11
S90000;27DS030I20;10
S90000;27ER015I22;10
S90000;27ER150I21;1
S90000;27EV200I22;16
S90000;27HD200I23;12
S90000;27MC125I23;11
S90000;27MII150I22;10
S90000;27MP050I22;239
S90000;27MP150I22;14
S90000;27MQ065I15A;9
S90000;27MS050I20;9
S90000;27OR030I21;1
S90000;27OR050I21;9
S90000;27SE075I22;14
S90000;27SP030I19;1
S90000;29ASH075A20;20
S90000;29ASH240A20;5
S90000;29BP100A22;10
S90000;29EC200A22;12
S90000;29GE200A21;11
S90000;29HD075A15;107
S90000;29HD250A15;16
S90000;29HD500A15;54
S90000;29HS100A21;15
S90000;29LC100A20;15
S90000;29LC200A20US;22
S90000;29MA030A17;4
S90000;29MA075A21;8
S90000;29RC200A22;26
S90000;29RH500A23;63
S90000;29SE125A21;1
S90000;29SH075A20;55
S90000;29VC240A16;1
S90000;29VC240A22;13
S90000;38BV050A19;2
S90000;38BV050A22;11
S90000;38EV075A21;10
S90000;38FT200A18;6
S90000;38FT200A21;9
S90000;38MI150A18;1
S90000;38RC050A22;11
S90000;38SC015RB23;24
S90000;38UV030A18;10
S90000;38WC050A18;28
S90000;38WC050A21;10
S90000;38WS030A18;9
S90000;38WS030A21;9
S90000;49AF015G20;145
S90000;49BASKM23;2
S90000;49BM010K19;129
S90000;49BO015CS19;93
S90000;49CL008K21;7
S90000;49CL1SA18;43
S90000;49CM010O21;160
S90000;49CP008I19;19
S90000;49CP020K22;21
S90000;49CRM2NO22;146
S90000;49CUPNO22;36
S90000;49DC004I20;101
S90000;49DH004I22;35
S90000;49DISC1NO22;25
S90000;49DISC3NO22;10
S90000;49GD035CB5;264
S90000;49HD035A15;145
S90000;49HD035K17;63
S90000;49HS015A18;22
S90000;49IC1POU20;14
S90000;49IC2POU20;37
S90000;49IC3POU20;27
S90000;49LC020A20;143
S90000;49LC035CB21;8
S90000;49LD030I21;7
S90000;49MA010A17;48
S90000;49MA010A21X;10
S90000;49MA010CB21;2
S90000;49MA010CB4;6
S90000;49MA010K22;142
S90000;49MA010L16;50
S90000;49MA010VB3;27
S90000;49MC014I23;118
S90000;49MS008I20;155
S90000;49PFCWC21;40
S90000;49PI010K18;30
S90000;49PMENNO21;26
S90000;49POBFNO22;40
S90000;49POCKNO21;125
S90000;49POU1VE20;33
S90000;49POUCB21;15
S90000;49POUHE22;39
S90000;49POUID20;45
S90000;49POUIS19;23
S90000;49POUM21;19
S90000;49RCWM22;48
S90000;49SH035E21;267
S90000;49TOTMC20;40
S90000;49TOTWC21;90
S90000;52CP0015I22;100
S90000;52CV0015K22;111
S90000;52DH001I22;133
S90000;52DL002I21;67
S90000;52ET001O21;63
S90000;52HCTM22;32
S90000;52HCTM23;50
S90000;52LGEBOX18;23
S90000;52MA003K22A;92
S90000;52MC001I23;192
S90000;52SH006FV21;24
S90000;52SH006G21;212
S90000;52SH006P19;70
S90000;98BBGD030VE4;40
S90000;98BBGD050VE2;2
S90000;98BBHD050A0;70
S90000;98BBLC030VE5;48
S90000;98BBLC050VE3;2
S90000;98BBSH050A0;71
S90000;ACPOCVKA00700;21
S90000;HKOCVE6T00056;124
S90000;J9517;9
S90000;JIMPN16;56
S90000;98BBHD035A0;140
S90000;52MOCOL316;9
S90000;52DS001I20;61
S90000;49TOBACH20;67
S90000;49PWPBNO22;29
S90000;49PWPBM23;124
S90000;49POU1O21;24
S90000;49POSUCS22;169
S90000;49POCK2NO22;227
S90000;49POCK1NO22;276
S90000;49NOTNO22;94
S90000;49MTAT23;16
S90000;49MAPOM21;220
S90000;49MA010R22;12
S90000;49ET007CB22;2
S90000;49EDT0075O22;9
S90000;49CRM1NO22;37
S90000;49CABNO22;181
S90000;38MI150A22;7
S90000;29SH240A20;1
S90000;29SA050A22;9
S90000;98BBACLUFNT1;5
S90000;52CUSTNO22;91
S90000;49TRAVNO21;81
S90000;49CAS2NO22;53
S90000;98BBSA025LT2;1
