S24000;29LC200A20US;39
S24000;29MA030A17;14
S24000;29MA075A22;10
S24000;29RC200A22;31
S24000;29RH500A23;26
S24000;29SA050A22;12
S24000;29SE125A21;11
S24000;29SH240A22;12
S24000;29VC240A22;14
S24000;38BV050A22;5
S24000;38EV075A21;2
S24000;38FT200A21;5
S24000;38MI150A22;7
S24000;38RC050A22;3
S24000;38SC015RB23;10
S24000;38UV030A18;14
S24000;38WC050A21;10
S24000;38WS030A21;9
S24000;49DC004I20;15
S24000;49DH004I22;41
S24000;49GD035CB21;7
S24000;49HS015A18;4
S24000;49LC020A20;22
S24000;49LD030I21;1
S24000;49MA010K22;49
S24000;49MC014I23;113
S24000;49MTAT23;4
S24000;49OR005I21;99
S24000;52AF006G20;169
S24000;52AS006E19;139
S24000;52AS006FV21;138
S24000;52AS006G21;237
S24000;52AS006P19;53
S24000;52BGERIB20;1
S24000;52BY001I19;205
S24000;52CL0015K21;148
S24000;52CP0015I22;175
S24000;52CP006K22;217
S24000;52CV0015K22;74
S24000;52DB001I20;126
S24000;52DC0015I20;261
S24000;52DE001I21;244
S24000;52DH001I22;380
S24000;52DL002I21;222
S24000;52DS001I20;140
S24000;52ER002I21;298
S24000;52EV002I22;152
S24000;52GD0015A18;76
S24000;52HD001I23;144
S24000;52HD006A18;528
S24000;52HS001I17;53
S24000;52HS004A18;136
S24000;52LC006A20;694
S31000;01BK010K14;22
S31000;01BL012K18;13
S31000;01BM050K23;12
S31000;01BM150K23;12
S31000;01BP050K21;10
S31000;01CCJ200K22;25
S31000;01CD250K23;14
S31000;01CL050K21;5
S31000;01CL175K22;5
S31000;01CM300K20;1
S31000;01CM300K23;3
S31000;01CM500K20;15
S31000;01CMJ075K21;3
S31000;01CMJ075K23;21
S31000;01CMR500K20;13
S31000;01CP200K22;9
S31000;01CPR200K22;5
S31000;01CV050K22;4
S31000;01EC200K22;15
S31000;01EM030K23;9
S31000;01HD250K17;1
S31000;01HD250K23;6
S31000;01HD500K20;11
S31000;01HDR500K20;8
S31000;01HF100K17;2
S31000;01HN0075K23;14
S31000;01HV030K23;4
S31000;01LC250K24;6
S31000;01LT300K20;14
S31000;01MA030K22;34
S31000;01MA075K22;17
S31000;01MA150K22;23
S31000;01MR030K14;15
S31000;01PI030K18;13
S31000;01PI150K18;7
S31000;01RL500K20;7
S31000;01RV500K20;2
S31000;01SA100LT20;6
S31000;01SA100LV20;9
S31000;01SA100VE20;7
S31000;01SA250LV20;5
S31000;01SA250VE20;3
S31000;01SA300KRO22;6
S31000;01SA500KRO22;6
S31000;01SA9000KV21;1
S31000;01SAR500KRO22;10
S31000;01SL0045K13;34
S31000;01SL300LV20;4
S31000;01SL300VE20;4
S31000;01SL500LV20;3
S31000;01SL500VE20;6
S31000;10EST250V21;26
S21000;01BK010K14;16
S21000;01BL012K18;15
S21000;01BM050K23;8
S21000;01BM150K23;17
S21000;01BP050K21;18
S21000;01CCJ200K22;18
S21000;01CD250K23;17
S21000;01CL050K21;6
S21000;01CL175K22;4
S21000;01CM300K20;2
S21000;01CM300K23;5
S21000;01CM500K20;10
S21000;01CMJ075K21;8
S21000;01CMJ075K23;9
S21000;01CMR500K20;13
S21000;01CP200K22;11
S21000;01CPR200K22;12
S21000;01CV050K22;5
S21000;01EC200K22;11
S21000;01EM030K23;10
S21000;01HD250K17;1
S21000;01HD500K20;9
S21000;01HDR500K20;3
S21000;01HF100K17;4
S21000;01HN0075K23;7
S21000;01HV030K23;4
S21000;01LC250K24;14
S21000;01LT300K20;12
S21000;01MA030K22;103
S21000;01MA075K22;16
S21000;01MA150K22;28
S21000;01MR030K14;70
S21000;01PI030K18;6
S21000;01PI150K18;10
S21000;01RL500K20;9
S21000;01SA100LT20;10
S21000;01SA100LV20;10
S21000;01SA100VE20;8
S21000;01SA250LT20;1
S21000;01SA250LV20;7
S21000;01SA250VE20;5
S21000;01SA300KRO22;6
S21000;01SA500KRO22;6
S21000;01SAR500KRO22;9
S21000;01SL0045K13;30
S21000;01SL300LV20;6
S21000;01SL300VE20;6
S21000;01SL500LV20;6
S21000;01SL500VE20;9
S21000;11AS040SG22;12
S21000;11AT050HL23;19
S21000;11BG140CS19;4
S90000;01BK010K14;9
S90000;01BL012K18;12
S90000;01BL012KC22H;3
S90000;01BL012KG22H;6
S90000;01BM050K23;8
S90000;01BM150K19;1
S90000;01BM150K23;14
S90000;01BP050K21;7
S90000;01CCJ200K22;15
S90000;01CD250K17;12
S90000;01CD250K23;11
S90000;01CD250KC22H;1
S90000;01CE200KC22H;10
S90000;01CF030KB23;4
S90000;01CL050K21;7
S90000;01CL175K22;7
S90000;01CL200K17;9
S90000;01CL200KG22H;9
S90000;01CL300KB20;10
S90000;01CM300K20;1
S90000;01CM300K23;9
S90000;01CM500K20;17
S90000;01CMJ075K23;16
S90000;01CMR500K20;16
S90000;01CP050K22;8
S90000;01CP100K21H;1
S90000;01CP200K22;10
S90000;01CPR200K22;2
S90000;01CV050K18;9
S90000;01CV050K22;7
S90000;01EC200K17;1
S90000;01EC200K22;12
S90000;01EM030K23;10
S90000;01HD250K17;6
S90000;01HD500K20;12
S90000;01HDR500K20;10
S90000;01HF100K17;8
S90000;01HN0075K19;1
S90000;01HN0075K23;12
S90000;01HV030K16;12
S90000;01HV030K23;5
S90000;01KTPWP21;9
S90000;01LC250K24;15
S90000;01LH300KB19;7
S90000;01LT300K20;4
S90000;01MA030K22;1
S90000;01MA030K22H;1
S90000;01MA030KC22H;1
S90000;01MA030KG22H;1
S90000;01MA075K22;11
S90000;01MA150K22;5
S90000;01MA150KC22H;9
S90000;01MA150KG22H;14
S10;01BK010K14;8
S28000;01BK010K14;21
S10;01BL012K18;17
S28000;01BL012K18;21
S10;01BM050K23;10
S28000;01BM050K23;7
S10;01BM150K23;20
S28000;01BM150K23;13
S10;01BP050K21;10
S10;01CCJ200K22;16
S28000;01CCJ200K22;11
S10;01CD250K23;23
S28000;01CD250K23;18
S10;01CL050K21;11
S28000;01CL050K21;5
S10;01CL175K22;4
S28000;01CL175K22;2
S10;01CM300K20;8
S28000;01CM300K20;2
S10;01CM300K23;3
S28000;01CM300K23;11
S10;01CM500K20;4
S28000;01CM500K20;14
S10;01CMJ075K23;15
S28000;01CMJ075K23;27
S10;01CMR500K20;12
S28000;01CMR500K20;8
S10;01CP200K22;15
S28000;01CP200K22;22
S10;01CPR200K22;9
S28000;01CPR200K22;11
S10;01CV050K22;5
S28000;01CV050K22;3
S10;01EC200K22;13
S28000;01EC200K22;17
S10;01EM030K23;10
S28000;01EM030K23;9
S10;01HD250K17;3
S28000;01HD250K17;8
S28000;01HD250K23;5
S10;01HD500K20;7
S28000;01HD500K20;1
S10;01HDR500K20;13
S28000;01HDR500K20;10
S10;01HF100K17;5
S28000;01HF100K17;6
S10;01HN0075K23;3
S28000;01HN0075K23;18
S10;01HV030K23;4
S28000;01HV030K23;7
S10;01LB012KB23;2
S10;01LC250K24;11
S28000;01LC250K24;13
S10;01LT300K20;15
S24000;52LGEBAG19;2
S24000;52LGENSA21;48
S24000;52MA003K22A;224
S24000;52MC001I23;376
S24000;52MC006G21;189
S24000;52MGEBOX18;14
S24000;52MGENSA21GPS;89
S24000;52MOCOL316;1
S24000;52MS001I20;157
S24000;52OR001I21;738
S24000;52PS0015R21;195
S24000;52SE0015I22;209
S24000;52SGENSA21GPS;106
S24000;52SH006E19;308
S24000;52SH006FV21;196
S24000;52SH006G21;470
S24000;52SH006P19;140
S24000;52SLEMM23;10
S24000;52TS001I22;436
S24000;52TS001R21;62
S24000;52YGERIB20;2
S24000;98BBGD030VE4;12
S24000;ACPOCVEC00001;284
S24000;ACPOCVEC00002;437
S24000;ACPOCVEC00003;174
S24000;ACPOCVEC00004;100
S24000;SGOCVE600006;40
S30000;01BK010K14;25
S30000;01BL012K18;13
S30000;01BM050K23;7
S30000;01BM150K23;9
S30000;01BP050K21;10
S30000;01CCJ200K22;16
S30000;01CD250K23;8
S30000;01CF050K22;6
S30000;01CL050K21;4
S30000;01CL175K22;5
S30000;01CM300K20;2
S30000;01CM300K23;3
S30000;01CM500K20;14
S30000;01CMJ075K21;4
S30000;01CMJ075K23;11
S30000;01CMR500K20;2
S30000;01CP200K22;10
S30000;01CPR200K22;4
S30000;01CV050K22;4
S30000;01EC200K22;14
S30000;01EM030K23;9
S30000;01HD250K17;1
S30000;01HD500K20;11
S30000;01HDR500K20;8
S30000;01HF100K17;2
S30000;01HN0075K23;15
S30000;01HV030K23;4
S30000;01LC250K24;9
S30000;01LT300K20;13
S30000;01MA030K22;32
S30000;01MA075K22;14
S30000;01MA150K22;31
S30000;01MR030K14;15
S30000;01PI030K18;14
S30000;01PI150K18;12
S30000;01RL500K20;6
S30000;01RV500K20;6
S30000;01SA100LT20;5
S30000;01SA100LV20;4
S30000;01SA100VE20;11
S30000;01SA250LT20;2
S30000;01SA250LV20;8
S30000;01SA250VE20;12
S30000;01SA300KRO22;6
S30000;01SA500KRO22;5
S30000;01SAR500KRO22;8
S30000;01SL0045K13;22
S30000;01SL300LV20;5
S30000;01SL300VE20;5
S30000;01SL500LV20;4
S30000;01SL500VE20;4
S30000;11AS040SG22;10
S21000;27DS030I20;11
S21000;27ER015I22;17
S21000;27ER050I23;12
S21000;27ER150I23;14
S21000;27EV200I22;16
S21000;27HC050I18;1
S21000;27HCR050I16;1
S21000;27HD200I23;7
S21000;27HSR030I16;1
S21000;27MC125I23;19
S21000;27MP150I22;16
S21000;27MQ065I15A;3
S21000;27MS050I20;11
S21000;27OR030I21;30
S21000;27OR050I21;52
S21000;27SE075I22;11
S21000;29ASH240A20;3
S21000;29BP100A22;4
S21000;29EC200A22;9
S21000;29GE200A21;33
S21000;29HD075A15;12
S21000;29HD250A15;19
S21000;29HD500A15;26
S21000;29HS100A21;14
S20;29LC200A20US;48
S21000;29LC200A20US;40
S20;29MA030A17;25
S21000;29MA030A17;19
S20;29MA075A21;2
S20;29MA075A22;26
S21000;29MA075A22;18
S21000;29RC200A22;40
S20;29RC200A22;43
S20;29RH500A23;66
S21000;29RH500A23;44
S21000;29SA050A22;8
S20;29SA050A22;12
S20;29SE125A21;13
S21000;29SE125A21;11
S21000;29SH240A20;1
S21000;29VC240A22;9
S20;29VC240A22;18
S20;38BV050A22;6
S21000;38BV050A22;5
S21000;38EV075A21;11
S20;38EV075A21;14
S20;38FT200A21;9
S21000;38FT200A21;9
S21000;38MI150A22;7
S20;38MI150A22;8
S20;38RC050A22;4
S21000;38RC050A22;6
S21000;38SC015RB23;18
S31000;10EST500V21;28
S31000;10P250V21;26
S31000;10P500V21;28
S31000;11AS040SG22;9
S31000;11AS90005G21;1
S31000;11AT050HL23;25
S31000;11BG140CS19;6
S31000;11BG140SH19;5
S31000;11BG140SI19;5
S31000;11BH050A18;4
S31000;11BO100CS19;21
S31000;11BP100I19;5
S31000;11BR100A20;5
S31000;11CD050A18;5
S31000;11CF100TR19;14
S31000;11CM030H19;10
S31000;11CM030H20;19
S31000;11CM030O21;11
S31000;11CM200AT23;1
S31000;11CM200AT23C;26
S31000;11EC200AT23;28
S31000;11EH150A18;4
S31000;11EP010H19;10
S31000;11ET010H20;13
S31000;11ET050H20;4
S31000;11ET075O21;15
S31000;11FAG10TR19;13
S31000;11GD050A18;4
S31000;11GD075O21;5
S31000;11GD250H19;8
S31000;11GD250H20;13
S31000;11GD250O21;12
S31000;11GN195A18;13
S31000;11LC250H19;8
S31000;11LC250H20;7
S31000;11LC250O21;11
S31000;11LD200I19;11
S31000;11LH200I19;7
S31000;11LT300I20;3
S31000;11MH075A19;4
S31000;11MWC200I19;3
S31000;11PEP050I20;1
S31000;11PM100SH19;5
S31000;11PM100SI19;8
S31000;11SA050O21;6
S31000;11SAF100H20;5
S31000;11SD100CS19;11
S31000;11SD100SH19;10
S31000;11SD100SI19;5
S31000;11SH080DP23;31
S31000;11SH300AD22;19
S31000;11SH90005G21;1
S90000;01MD200KG22H;1
S90000;01MR030K14;14
S90000;01PI030K18;15
S90000;01PI150K18;11
S90000;01PWPKT22;3
S90000;01RL500K20;23
S90000;01RV500K20;14
S90000;01SA050KC22H;1
S90000;01SA050KG22H;1
S90000;01SA100LT20;11
S90000;01SA100LV20;5
S90000;01SA100VE20;11
S90000;01SA250LT20;13
S90000;01SA250LV20;10
S90000;01SA250VE20;15
S90000;01SA300KRO22;8
S90000;01SA500KRO22;15
S90000;01SAR500KRO22;12
S90000;01SL0045K13;7
S90000;01SL300LV20;9
S90000;01SL300VE20;9
S90000;01SL500LV20;15
S90000;01SL500RO20;1
S90000;01SL500VE20;19
S90000;10BOWEB219;811
S90000;10BOWEB319;1055
S90000;10BOWEB419;763
S90000;10CRAKT22;8
S90000;11AT050HL23;4
S90000;11BG140CS19;9
S90000;11BG140SH19;9
S90000;11BG140SI19;8
S90000;11BG140SL19;12
S90000;11BH050A18;7
S90000;11BO100CS19;12
S90000;11BO100CS22H;13
S90000;11BP100I19;8
S90000;11BR100A20;8
S90000;11BS020K23;9
S90000;11CD050A18;8
S90000;11CF100TR19;19
S90000;11CM030H19;11
S90000;11CM030H20;13
S90000;11CM030O21;10
S90000;11CM200AT23;1
S90000;11CM200AT23C;35
S90000;11EC200AT23;21
S90000;11EH150A18;7
S90000;11EP010H19;3
S90000;11EP050H19;5
S90000;11ET010H20;10
S90000;11ET050H20;8
S21000;11BG140SI19;5
S21000;11BG140SL19;3
S21000;11BH050A18;4
S21000;11BO100CS19;14
S21000;11BP100I19;2
S21000;11BR100A20;8
S21000;11CF100TR19;10
S21000;11CM030H19;10
S21000;11CM030H20;12
S21000;11CM030O21;10
S21000;11CM125I19;6
S21000;11CM200AT23C;29
S21000;11EC200AT23;21
S21000;11EH150A18;4
S21000;11EP010H19;10
S21000;11ET010H20;8
S21000;11ET050H20;5
S21000;11ET075O21;8
S21000;11FAG10TR19;10
S21000;11GD050A18;6
S21000;11GD250H19;12
S21000;11GD250H20;14
S21000;11GD250O21;14
S21000;11GE075I20;1
S21000;11GN195A18;11
S21000;11LC250H19;8
S21000;11LC250H20;10
S21000;11LC250O21;12
S21000;11LD200I19;9
S21000;11LH200I19;2
S21000;11LT300I20;11
S21000;11MH075A19;4
S21000;11MWC200I19;4
S21000;11PM100SH19;3
S21000;11PM100SI19;7
S21000;11SA050O21;1
S21000;11SA100H20;2
S21000;11SAF100H20;7
S21000;11SD100CS19;5
S21000;11SD100SH19;5
S21000;11SD100SI19;5
S21000;11SH080DP23;7
S21000;11SH300AD22;17
S21000;11SP200SH19;5
S21000;11SP200SI19;5
S21000;11SV080I19;4
S21000;15AS250VA18;6
S21000;15BA500L16A;11
S21000;15CM030LB23;73
S21000;15DE200VAL23;10
S21000;15DO050VA22;36
S21000;15EDT050LB23;24
S28000;01LT300K20;14
S10;01MA030K22;32
S28000;01MA030K22;23
S10;01MA075K22;9
S28000;01MA075K22;14
S10;01MA150K22;28
S28000;01MA150K22;30
S10;01MR030K14;14
S28000;01MR030K14;13
S10;01PI030K18;3
S28000;01PI030K18;11
S10;01PI150K18;16
S28000;01PI150K18;12
S10;01RL500K20;1
S28000;01RL500K20;1
S10;01RV500K20;2
S10;01SA100LT20;14
S28000;01SA100LT20;17
S10;01SA100LV20;12
S28000;01SA100LV20;17
S10;01SA100VE20;14
S28000;01SA100VE20;17
S10;01SA250LT20;15
S28000;01SA250LT20;18
S10;01SA250LV20;14
S28000;01SA250LV20;16
S10;01SA250VE20;20
S28000;01SA250VE20;22
S10;01SA300KRO22;8
S28000;01SA300KRO22;6
S10;01SA500KRO22;5
S28000;01SA500KRO22;6
S28000;01SA9000KV21;1
S10;01SAR500KRO22;12
S28000;01SAR500KRO22;12
S10;01SL0045K13;24
S28000;01SL0045K13;42
S10;01SL300LV20;4
S28000;01SL300LV20;5
S10;01SL300VE20;4
S28000;01SL300VE20;12
S10;01SL500LV20;5
S28000;01SL500LV20;2
S10;01SL500VE20;8
S28000;01SL500VE20;9
S28000;10EST250V21;33
S28000;10EST500V21;35
S28000;10P250V21;33
S28000;10P500V21;35
S10;11AS040SG22;8
S28000;11AS90005G21;1
S10;11AT050HL23;22
S28000;11AT050HL23;12
S20;38SC015RB23;19
S20;38UV030A18;14
S21000;38UV030A18;12
S21000;38WC050A21;5
S20;38WC050A21;8
S20;38WS030A21;8
S21000;38WS030A21;13
S21000;49BO015CS19;24
S20;49BO015CS19;12
S20;49DC004I20;31
S21000;49DC004I20;18
S21000;49DH004I22;79
S20;49DH004I22;69
S20;49GD035CB21;31
S21000;49GD035CB21;117
S21000;49HD035A15;46
S20;49HD035A15;16
S20;49HD035K17;15
S21000;49HD035K17;6
S21000;49HS015A18;1
S21000;49LC020A20;42
S20;49LC020A20;27
S20;49LD030I21;15
S20;49MA010K22;82
S21000;49MA010K22;82
S21000;49MC014I23;119
S20;49MC014I23;97
S20;49MTAT23;7
S20;49OR005I21;76
S21000;49OR005I21;67
S21000;49POCK1NO22;3
S20;49POCK1NO22;4
S20;49SH035E21;5
S21000;49SH035E21;42
S21000;52AF006G20;176
S20;52AF006G20;201
S20;52AS006E19;113
S21000;52AS006E19;238
S21000;52AS006FV21;173
S20;52AS006FV21;130
S20;52AS006G21;209
S21000;52AS006G21;252
S21000;52AS006P19;126
S20;52AS006P19;175
S20;52BY001I22;180
S21000;52BY001I22;144
S21000;52CL0015K21;82
S20;52CL0015K21;69
S20;52CP0015I22;184
S21000;52CP0015I22;193
S21000;52CP006K22;205
S20;52CP006K22;193
S20;52CV0015K22;82
S21000;52CV0015K22;135
S30000;11AT050HL23;10
S30000;11BG140CS19;5
S30000;11BG140SH19;3
S30000;11BG140SI19;5
S30000;11BH050A18;5
S30000;11BO100CS19;18
S30000;11BP100I19;5
S30000;11BR100A20;5
S30000;11CD050A18;4
S30000;11CF100TR19;13
S30000;11CM030H19;5
S30000;11CM030H20;15
S30000;11CM030O21;16
S30000;11CM125I19;7
S30000;11CM200AT23;1
S30000;11CM200AT23C;31
S30000;11EC200AT23;29
S30000;11EH150A18;5
S30000;11EP010H19;10
S30000;11ET010H20;12
S30000;11ET050H20;4
S30000;11ET075O21;9
S30000;11FAG10TR19;13
S30000;11GD050A18;2
S30000;11GD250H19;8
S30000;11GD250H20;11
S30000;11GD250O21;9
S30000;11GE075I20;3
S30000;11GM200I19;3
S30000;11GN195A18;13
S30000;11LC250H19;7
S30000;11LC250H20;7
S30000;11LC250O21;8
S30000;11LD200I19;11
S30000;11LH200I19;8
S30000;11LT300I20;5
S30000;11MH075A19;4
S30000;11MWC200I19;4
S30000;11PM100SH19;4
S30000;11PM100SI19;7
S30000;11SA050O21;4
S30000;11SA100H20;9
S30000;11SAF100H20;6
S30000;11SD100CS19;11
S30000;11SD100SH19;9
S30000;11SD100SI19;5
S30000;11SH080DP23;7
S30000;11SH300AD22;10
S30000;11SP200CS19;5
S30000;11SP200SH19;5
S30000;11SP200SI19;4
S30000;11SV080I19;4
S90000;49CRM2NO22;146
S90000;49CUPNO22;36
S90000;49DC004I20;4
S90000;49DH004I22;17
S90000;49DISC1NO22;25
S90000;49DISC3NO22;200
S90000;49EDT0075O22;9
S90000;49ET007CB22;2
S90000;49EV030I22;2
S90000;49GD035CB5;252
S90000;49HD035A15;76
S90000;49HS015A18;16
S90000;49IC1POU20;14
S90000;49IC2POU20;37
S90000;49IC3POU20;27
S90000;49LC020A20;70
S90000;49LC035CB21;8
S90000;49LD030I21;7
S90000;49MA010A17;46
S90000;49MA010A21X;10
S90000;49MA010CB21;202
S90000;49MA010CB4;2
S90000;49MA010K22;62
S90000;49MA010L16;50
S90000;49MA010R22;42
S90000;49MA010VB3;20
S90000;49MAPOM21;220
S90000;49MC014I23;33
S90000;49MS008I20;155
S90000;49MTAT23;16
S90000;49NOTNO22;94
S90000;49PFCWC21;40
S90000;49PI010K18;100
S90000;49PMENNO21;26
S90000;49POBFNO22;40
S90000;49POCK1NO22;276
S90000;49POCK2NO22;227
S90000;49POCKNO21;125
S90000;49POSUCS22;169
S90000;49POU1O21;24
S90000;49POU1VE20;33
S90000;49POUCB21;15
S90000;49POUHE22;39
S90000;49POUID20;45
S90000;49POUIS19;23
S90000;49POUM21;19
S90000;49PWPBM23;124
S90000;49PWPBNO22;29
S90000;49RCWM22;48
S90000;49SH035E21;257
S90000;49TOBACH20;67
S90000;49TOTMC20;40
S90000;49TOTWC21;90
S31000;11SP200CS19;5
S31000;11SP200SH19;5
S31000;11SP200SI19;5
S31000;11SV080I19;5
S31000;15AS250VA18;6
S31000;15BA500L16A;4
S31000;15CM030LB23;47
S31000;15DO050VA22;5
S31000;15EDT050LB23;21
S31000;15ET010VB19;7
S31000;15ET100VA20;3
S31000;15ET100VB20;2
S31000;15ET100VB23;5
S31000;15ET100VBL23;2
S31000;15ET100VCL23;16
S31000;15GD070VB21;80
S31000;15GD250L21;14
S31000;15GD250LB23;21
S31000;15GD250VA20;7
S31000;15GD250VB23;12
S31000;15GD250VCL23;19
S31000;15GD500VB23;13
S31000;15GD9000V21;1
S31000;15GM065L21;13
S31000;15GM065VB21;7
S31000;15GM280VB21;4
S31000;15GN300L21;8
S31000;15HE005L14;5
S31000;15LC250L14;8
S31000;15LC250LB23;29
S31000;15LC250VA20;5
S31000;15LC250VCL23;14
S31000;15LM300L11;11
S31000;15MA030L21;17
S31000;15MA030VA5;5
S31000;15MA030VB3;14
S31000;15MA030VCL23;17
S31000;15MA075VB4;5
S31000;15RC500VB21;14
S31000;15RC500VB23;2
S31000;15RG500L14;6
S31000;15RG500VA20;8
S31000;15SA075VB21;5
S31000;15SH250VA20;3
S31000;17AF100G20;11
S31000;17AS250E19;6
S31000;17AS250FV21;6
S31000;17AS250G21;11
S31000;17AS250P19;4
S31000;17AS500E19;17
S31000;17AS500FV21;5
S31000;17AS500G21;13
S21000;15ET010VB19;6
S21000;15ET100VA20;3
S21000;15ET100VB20;1
S21000;15ET100VB23;3
S21000;15ET100VCL23;11
S21000;15GD070VB21;72
S21000;15GD250L21;10
S21000;15GD250LB23;57
S21000;15GD250VA20;7
S21000;15GD250VB23;10
S21000;15GD250VCL23;8
S21000;15GD500VB23;11
S21000;15GM065L21;13
S21000;15GM065VB21;12
S21000;15GM280VB21;5
S21000;15GN300L21;8
S21000;15HE005L14;3
S21000;15LC250L14;8
S21000;15LC250LB23;37
S21000;15LC250VA20;4
S21000;15LC250VCL23;9
S21000;15LM300L11;5
S21000;15MA030L21;19
S21000;15MA030VA5;5
S21000;15MA030VB3;19
S21000;15MA030VCL23;25
S21000;15MA075L20;6
S21000;15MA075VB4;8
S21000;15RC500VB21;4
S21000;15RC500VB23;4
S21000;15RG500L14;15
S21000;15RG500VA20;9
S21000;15RO010VBM22;1
S21000;15SA075VB21;10
S21000;15SE400VB5;1
S21000;15SH250VA20;9
S21000;17AF100G20;20
S21000;17AS250E19;6
S21000;17AS250FV21;6
S21000;17AS250G21;7
S21000;17AS250P19;8
S21000;17AS500E19;14
S21000;17AS500FV21;11
S21000;17AS500G21;14
S21000;17AS500P19;6
S21000;17DO050F13;14
S21000;17ER075P19;4
S21000;17HI001G19;69
S21000;17HI100G19;12
S21000;17MC200G21;18
S21000;17RC500E20;17
S21000;17RC500G21;17
S24000;01BK010K14;17
S29000;01BK010K14;26
S24000;01BL012K18;15
S29000;01BL012K18;26
S24000;01BM050K23;9
S29000;01BM050K23;7
S24000;01BM150K23;12
S29000;01BM150K23;28
S24000;01BP050K21;8
S29000;01BP050K21;3
S24000;01CCJ200K22;22
S29000;01CCJ200K22;10
S24000;01CD250K23;10
S29000;01CD250K23;17
S29000;01CF050K22;5
S24000;01CL050K21;10
S29000;01CL050K21;5
S24000;01CL175K22;4
S29000;01CL175K22;4
S24000;01CM300K23;10
S29000;01CM300K23;5
S24000;01CM500K20;8
S29000;01CM500K20;19
S24000;01CMJ075K21;8
S29000;01CMJ075K21;2
S24000;01CMJ075K23;11
S29000;01CMJ075K23;28
S24000;01CMR500K20;9
S29000;01CMR500K20;24
S24000;01CP200K22;13
S29000;01CP200K22;26
S24000;01CPR200K22;9
S29000;01CPR200K22;24
S24000;01CV050K22;10
S29000;01CV050K22;6
S24000;01EC200K22;11
S29000;01EC200K22;23
S24000;01EM030K23;8
S29000;01EM030K23;14
S29000;01HD250K17;13
S24000;01HD250K23;10
S29000;01HD500K20;13
S24000;01HDR500K20;11
S29000;01HDR500K20;13
S24000;01HF100K17;3
S29000;01HF100K17;7
S24000;01HN0075K23;9
S29000;01HN0075K23;15
S24000;01HV030K23;4
S29000;01HV030K23;4
S29000;01LB012KB23;10
S24000;01LC250K24;10
S29000;01LC250K24;17
S90000;11ET075O21;8
S90000;11FAG10TR19;7
S90000;11GD050A18;5
S90000;11GD075O21;137
S90000;11GD250H19;11
S90000;11GD250H20;15
S90000;11GD250O21;8
S90000;11GE075I20;3
S90000;11GN195A18;4
S90000;11HE005CS19;12
S90000;11LC250H19;12
S90000;11LC250H20;12
S90000;11LC250O21;8
S90000;11LD200I19;8
S90000;11LH200I19;5
S90000;11LT300I20;10
S90000;11MH075A19;9
S90000;11MWC200I19;3
S90000;11PM100SH19;10
S90000;11PM100SI19;8
S90000;11SA050O21;10
S90000;11SA100H20;10
S90000;11SAF100H20;10
S90000;11SD100CS19;11
S90000;11SD100SH19;13
S90000;11SD100SI19;14
S90000;11SH300AD22;4
S90000;11SP200CS19;9
S90000;11SP200SH19;6
S90000;11SP200SI19;7
S90000;11SV080I19;7
S90000;12GD245NO21H;1
S90000;12LC250NO22;1
S90000;15AS250VA18;6
S90000;15BA500L16A;8
S90000;15BM500VB21;39
S90000;15CM030LB23;59
S90000;15DF200VBL21;5
S90000;15DO050VA22;10
S90000;15EDT050LB23;18
S90000;15ET010VB19;4
S90000;15ET100VA20;10
S90000;15ET100VB20;6
S90000;15ET100VB23;8
S90000;15ET100VCL23;8
S90000;15GD070VB21;125
S90000;15GD075L21;24
S90000;15GD250L21;12
S90000;15GD250LB23;24
S90000;15GD250VA20;7
S90000;15GD250VB23;15
S90000;15GD250VBL22;46
S10;11BG140CS19;3
S28000;11BG140CS19;13
S10;11BG140SH19;10
S28000;11BG140SH19;4
S10;11BG140SI19;4
S28000;11BG140SI19;6
S10;11BG140SL19;2
S28000;11BG140SL19;3
S10;11BH050A18;3
S28000;11BH050A18;2
S10;11BO100CS19;9
S28000;11BO100CS19;16
S28000;11BP100I19;4
S10;11BP100I19;3
S10;11BR100A20;3
S28000;11BR100A20;2
S28000;11CD050A18;4
S10;11CD050A18;4
S10;11CF100TR19;3
S28000;11CF100TR19;12
S28000;11CM030H19;14
S10;11CM030H19;10
S10;11CM030H20;15
S28000;11CM030H20;19
S28000;11CM030O21;13
S10;11CM030O21;5
S10;11CM125I19;3
S10;11CM200AT23;7
S28000;11CM200AT23;18
S28000;11CM200AT23C;22
S10;11CM200AT23C;26
S10;11EC200AT23;28
S28000;11EC200AT23;46
S28000;11EH150A18;4
S10;11EH150A18;3
S10;11EP010H19;1
S28000;11EP010H19;6
S28000;11ET010H20;12
S10;11ET010H20;8
S10;11ET050H20;5
S28000;11ET050H20;3
S28000;11ET075O21;8
S10;11ET075O21;5
S10;11FAG10TR19;38
S28000;11FAG10TR19;14
S28000;11GD050A18;11
S10;11GD050A18;1
S10;11GD250H19;15
S28000;11GD250H19;11
S28000;11GD250H20;17
S10;11GD250H20;11
S10;11GD250O21;17
S28000;11GD250O21;19
S24000;01LT300K20;18
S29000;01LT300K20;17
S24000;01MA030K22;31
S29000;01MA030K22;34
S24000;01MA075K22;17
S29000;01MA075K22;20
S24000;01MA150K22;18
S29000;01MA150K22;42
S24000;01MR030K14;14
S29000;01MR030K14;17
S24000;01PI030K18;9
S29000;01PI030K18;4
S24000;01PI150K18;12
S29000;01PI150K18;20
S24000;01RL500K20;10
S29000;01RL500K20;6
S24000;01RV500K20;9
S24000;01SA100LT20;11
S29000;01SA100LT20;20
S24000;01SA100LV20;11
S29000;01SA100LV20;19
S24000;01SA100VE20;9
S29000;01SA100VE20;17
S24000;01SA250LT20;10
S29000;01SA250LT20;25
S24000;01SA250LV20;13
S29000;01SA250LV20;20
S24000;01SA250VE20;12
S29000;01SA250VE20;23
S24000;01SA300KRO22;6
S29000;01SA300KRO22;5
S24000;01SA500KRO22;4
S29000;01SA500KRO22;5
S24000;01SAR500KRO22;4
S29000;01SAR500KRO22;21
S24000;01SL0045K13;29
S29000;01SL0045K13;31
S24000;01SL300LV20;4
S29000;01SL300LV20;9
S24000;01SL300VE20;4
S29000;01SL300VE20;3
S24000;01SL500LV20;2
S29000;01SL500LV20;14
S24000;01SL500VE20;2
S29000;01SL500VE20;13
S24000;11AS040SG22;10
S29000;11AS040SG22;8
S24000;11AT050HL23;27
S29000;11AT050HL23;27
S29000;11BG140CS19;7
S24000;11BG140SH19;3
S29000;11BG140SH19;6
S21000;52DB001I20;142
S20;52DB001I20;217
S20;52DC0015I20;290
S21000;52DC0015I20;291
S21000;52DE001I21;195
S20;52DE001I21;271
S20;52DH001I22;434
S21000;52DH001I22;363
S21000;52DL002I21;158
S20;52DL002I21;275
S20;52DS001I20;139
S21000;52DS001I20;101
S21000;52ER002I21;271
S20;52ER002I21;281
S20;52EV002I22;297
S21000;52EV002I22;141
S21000;52GD0015A18;21
S20;52GD0015A18;72
S21000;52HCTM23;1
S21000;52HD001I23;211
S20;52HD001I23;190
S20;52HD006A18;582
S21000;52HD006A18;584
S21000;52HS001I17;58
S20;52HS001I17;62
S20;52HS004A18;254
S21000;52HS004A18;207
S21000;52LC006A20;510
S20;52LC006A20;497
S21000;52LGEBAG19;2
S21000;52LGEBOX18;10
S20;52LGEBOX18;9
S20;52LGENSA21;308
S21000;52LGENSA21;174
S21000;52MA003K22A;247
S20;52MA003K22A;262
S20;52MC001I23;317
S21000;52MC001I23;295
S21000;52MC006G21;178
S20;52MC006G21;172
S20;52MGEBOX18;11
S21000;52MGEBOX18;13
S21000;52MGENSA21GPS;84
S20;52MGENSA21GPS;48
S21000;52MOCOL316;1
S21000;52MS001I20;79
S20;52MS001I20;210
S20;52OR001I21;707
S21000;52OR001I21;700
S21000;52PS0015R21;63
S20;52PS0015R21;28
S20;52SE0015I22;100
S21000;52SE0015I22;152
S21000;52SGENSA21GPS;192
S21000;17RC500P19;5
S21000;17RS500E20;22
S21000;17RS500FV21;20
S21000;17RS500G21;21
S21000;17RS500P19;18
S21000;17SE100FV21;20
S21000;17SH060SE21;5
S21000;17SH060SG21;5
S21000;17SH060SP21;5
S21000;17SH075E19;2
S21000;17SH075G21;2
S21000;17SH300E19;17
S21000;17SH300FV21;13
S21000;17SH300G21;8
S21000;17SH300P19;8
S21000;17SH500E19;14
S21000;17SH500FV21;10
S21000;17SH500G21;14
S21000;17SH500P19;13
S21000;17VI100P19;5
S21000;20AR075O20;10
S21000;20DO050O20;3
S21000;20DO075CD20;10
S21000;20DO130HC20;5
S21000;20ET075CD21;5
S21000;20ET075HC20;5
S21000;20ET075OC20;3
S21000;20GD250CD20;9
S21000;20GD250HC20;7
S21000;20GD250OC20;7
S21000;20GD500HC20;7
S21000;20NV150H20;8
S21000;20SA050CD20;5
S21000;20SA050HC20;4
S21000;24BL012CB5;8
S21000;24BL012R22;8
S21000;24BR050CB21;11
S21000;24BR050R22;7
S21000;24ET075CB21;11
S21000;24ET075R22;3
S21000;24GD250CB21;21
S21000;24GD250R22;19
S21000;24GD500R22;9
S21000;24LC250CB21;17
S21000;24LC250R22;11
S21000;24MA030CB21;28
S21000;24MA030P21;8
S21000;24MA030R22;25
S21000;24MA075CB21;17
S21000;24MA075P21;7
S21000;24MA075R22;16
S21000;24MA150R22;14
S90000;49TRAVNO21;81
S90000;52AS006G21;1
S90000;52CP0015I22;100
S90000;52CUSTNO22;91
S90000;52CV0015K22;77
S90000;52DH001I22;130
S90000;52DL002I21;11
S90000;52ET001O21;63
S90000;52HCTM22;32
S90000;52HCTM23;50
S90000;52HD006A18;7
S90000;52LGEBOX18;28
S90000;52MA003K22A;62
S90000;52MC001I23;189
S90000;52MOCOL316;9
S90000;52OR001I21;143
S90000;52SH006E19;55
S90000;52SH006G21;259
S90000;52SH006P19;19
S90000;52TS001I22;2
S90000;98BBACLUFNT1;2
S90000;98BBGD030VE4;36
S90000;98BBGD050VE2;2
S90000;98BBHD035A0;140
S90000;98BBHD050A0;70
S90000;98BBLC030VE5;48
S90000;98BBLC050VE3;2
S90000;98BBSA025LT2;1
S90000;98BBSH050A0;71
S90000;ACPOCVKA00700;21
S90000;HKOCVE6T00056;124
S90000;J9517;9
S90000;JIMPN16;56
S90000;SGOCVKI00234;60
S90000;SGOCVKI00235;1
S90000;SGOCVKI00236;10
S90000;SGOCVKI00239;1
S90000;SGOCVKI00248;1
S31000;17AS500P19;8
S31000;17DO050F13;13
S31000;17ER075P19;9
S31000;17HI001G19;120
S31000;17HI100G19;17
S31000;17MC200G21;23
S31000;17RC500E20;23
S31000;17RC500G21;27
S31000;17RC500P19;11
S31000;17RS500E20;8
S31000;17RS500FV21;19
S31000;17RS500G21;18
S31000;17RS500P19;9
S31000;17SE100FV21;14
S31000;17SH060SE21;4
S31000;17SH060SG21;3
S31000;17SH060SP21;4
S31000;17SH075E19;29
S31000;17SH075G21;31
S31000;17SH300E19;14
S31000;17SH300FV21;19
S31000;17SH300G21;11
S31000;17SH300P19;10
S31000;17SH500E19;13
S31000;17SH500FV21;21
S31000;17SH500G21;14
S31000;17SH500P19;15
S31000;17VI100P19;2
S31000;20AR075O20;5
S31000;20DO050O20;1
S31000;20DO075CD20;6
S31000;20DO130HC20;4
S31000;20ET075CD21;5
S31000;20ET075HC20;3
S31000;20ET075OC20;3
S31000;20GD250CD20;9
S31000;20GD250HC20;11
S31000;20GD250OC20;6
S31000;20GD500HC20;10
S31000;20NV150H20;10
S31000;20SA050CD20;4
S31000;20SA050HC20;1
S31000;24BL012CB5;9
S31000;24BL012R22;11
S31000;24BR050CB21;4
S31000;24BR050R22;14
S31000;24ET075CB21;17
S31000;24ET075R22;13
S31000;24GD250CB21;14
S31000;24GD250R22;17
S31000;24GD500R22;14
S31000;24LC250CB21;12
S30000;15AS250VA18;5
S30000;15BA500L16A;9
S30000;15BM500VB21;13
S30000;15CM030LB23;50
S30000;15DO050VA22;10
S30000;15EDT050LB23;26
S30000;15ET010VB19;8
S30000;15ET100VA20;4
S30000;15ET100VB20;5
S30000;15ET100VB23;2
S30000;15ET100VBL23;2
S30000;15ET100VCL23;10
S30000;15GD070VB21;26
S30000;15GD250L21;13
S30000;15GD250LB23;51
S30000;15GD250VA20;6
S30000;15GD250VB23;14
S30000;15GD250VCL23;16
S30000;15GD500VB23;11
S30000;15GM065L21;11
S30000;15GM065VB21;7
S30000;15GM280VB21;4
S30000;15GN300L21;7
S30000;15HE005L14;5
S30000;15LC250L14;6
S30000;15LC250LB23;23
S30000;15LC250VA20;7
S30000;15LC250VB3;2
S30000;15LC250VCL23;13
S30000;15LM300L11;11
S30000;15MA030L21;21
S30000;15MA030VA5;5
S30000;15MA030VB3;14
S30000;15MA030VCL23;26
S30000;15MA075L20;6
S30000;15MA075VB4;6
S30000;15RC500VB21;11
S30000;15RC500VB23;6
S30000;15RG500L14;7
S30000;15RG500VA20;5
S30000;15RO010VBM22;8
S30000;15SA075VB21;4
S30000;15SH250VA20;5
S30000;17AF100G20;15
S30000;17AS250E19;6
S30000;17AS250FV21;6
S30000;17AS250G21;12
S30000;17AS250P19;12
S30000;17AS500E19;13
S30000;17AS500FV21;7
S30000;17AS500G21;15
S30000;17AS500P19;6
S21000;24RG500CB21;13
S21000;24RG500R22;12
S21000;24RO010CB21;9
S21000;24SA050CB21;1
S21000;24SA050R22;7
S21000;27BD060I23;7
S21000;27BY015I22;8
S21000;27CP050I22;11
S21000;27DB015I20;13
S21000;27DC050I20;24
S21000;27DE015I21;17
S21000;27DH015I22;21
S21000;27DH030I22;21
S21000;27DL200I21;7
S24000;11BG140SI19;2
S29000;11BG140SI19;6
S29000;11BG140SL19;3
S24000;11BH050A18;3
S29000;11BH050A18;8
S24000;11BO100CS19;12
S29000;11BO100CS19;21
S24000;11BP100I19;4
S29000;11BP100I19;3
S24000;11BR100A20;3
S29000;11BR100A20;15
S24000;11CD050A18;2
S29000;11CD050A18;5
S24000;11CF100TR19;4
S29000;11CF100TR19;15
S24000;11CM030H19;12
S29000;11CM030H19;46
S24000;11CM030H20;11
S29000;11CM030H20;12
S24000;11CM030O21;11
S29000;11CM030O21;13
S29000;11CM125I19;16
S24000;11CM200AT23;1
S29000;11CM200AT23;3
S24000;11CM200AT23C;26
S29000;11CM200AT23C;33
S24000;11EC200AT23;35
S29000;11EC200AT23;38
S24000;11EH150A18;3
S29000;11EH150A18;5
S24000;11EP010H19;3
S29000;11EP010H19;14
S24000;11ET010H20;5
S29000;11ET010H20;12
S24000;11ET050H20;3
S29000;11ET050H20;5
S24000;11ET075O21;6
S29000;11ET075O21;8
S24000;11FAG10TR19;4
S29000;11FAG10TR19;17
S24000;11GD050A18;5
S29000;11GD050A18;13
S24000;11GD250H19;12
S29000;11GD250H19;20
S24000;11GD250H20;11
S29000;11GD250H20;17
S24000;11GD250O21;16
S29000;11GD250O21;22
S24000;11GE075I20;4
S29000;11GE075I20;4
S29000;11GM200I19;8
S24000;11GN195A18;8
S29000;11GN195A18;13
S20;52SGENSA21GPS;109
S20;52SH006E19;324
S21000;52SH006E19;365
S21000;52SH006FV21;342
S20;52SH006FV21;95
S20;52SH006G21;775
S21000;52SH006G21;441
S21000;52SH006P19;241
S20;52SH006P19;212
S21000;52SLEMM23;1
S21000;52TS001I22;229
S20;52TS001I22;230
S20;52TS001R21;109
S21000;52TS001R21;81
S21000;98BBGD030VE4;11
S20;98BBGD030VE4;24
S21000;98BBMA010KA3;62
S21000;ACPOCVEC00001;200
S20;ACPOCVEC00001;319
S20;ACPOCVEC00002;447
S21000;ACPOCVEC00002;467
S21000;ACPOCVEC00003;163
S20;ACPOCVEC00003;171
S20;ACPOCVEC00004;65
S21000;ACPOCVEC00004;100
S21000;SGOCVE600006;74
S20;SGOCVE600006;50
S90000;15GD250VCL23;15
S90000;15GD500VB23;16
S90000;15GM065L21;12
S90000;15GM065VB21;15
S90000;15GM280VB21;7
S90000;15GN300L21;17
S90000;15HE005L14;9
S90000;15LC070VB5;117
S90000;15LC075L15;22
S90000;15LC250L14;11
S90000;15LC250LB23;24
S90000;15LC250VA20;12
S90000;15LC250VB3;3
S90000;15LC250VCL23;9
S90000;15LM300L11;11
S90000;15MA030L21;42
S90000;15MA030VA5;12
S90000;15MA030VB3;4
S90000;15MA030VBM8;70
S90000;15MA030VCL23;25
S90000;15MA075L20;10
S90000;15MA075VB4;9
S90000;15RC500VB21;11
S90000;15RC500VB23;15
S90000;15RG500L14;4
S90000;15RG500VA20;6
S90000;15RO010VBM22;43
S90000;15SA075VB21;3
S90000;15SH250VA20;2
S90000;17AF100G20;2
S90000;17AS075E19;112
S90000;17AS075FV21;33
S90000;17AS075G21;22
S90000;17AS075P19;42
S90000;17AS250E19;8
S90000;17AS250FV21;7
S90000;17AS250G21;8
S90000;17AS250P19;9
S90000;17AS500E19;15
S90000;17AS500FV21;17
S90000;17AS500G21;16
S90000;17AS500P19;11
S90000;17DO050F13;10
S90000;17ER075P19;2
S90000;17HI001G19;100
S90000;17HI100G19;7
S90000;17MC200G21;9
S90000;17RC500E20;25
S90000;17RC500G21;19
S90000;17RC500P19;21
S90000;17RS500E20;18
S90000;17RS500FV21;7
S90000;17RS500G21;6
S28000;11GE075I20;2
S10;11GE075I20;4
S10;11GM200I19;9
S10;11GN195A18;13
S28000;11GN195A18;9
S28000;11LC250H19;20
S10;11LC250H19;17
S10;11LC250H20;8
S28000;11LC250H20;16
S28000;11LC250O21;17
S10;11LC250O21;9
S10;11LD200I19;8
S28000;11LD200I19;9
S28000;11LH200I19;9
S10;11LH200I19;11
S10;11LT300I20;4
S28000;11LT300I20;4
S28000;11MH075A19;4
S10;11MH075A19;4
S10;11MWC200I19;5
S28000;11MWC200I19;4
S28000;11PEP050I20;2
S10;11PEP050I20;6
S10;11PM100SH19;2
S28000;11PM100SH19;4
S28000;11PM100SI19;9
S10;11PM100SI19;8
S10;11SA050O21;5
S28000;11SA050O21;9
S28000;11SAF100H20;14
S10;11SAF100H20;4
S10;11SD100CS19;9
S28000;11SD100CS19;12
S28000;11SD100SH19;13
S10;11SD100SH19;7
S10;11SD100SI19;15
S28000;11SD100SI19;3
S28000;11SH080DP23;8
S10;11SH080DP23;7
S10;11SH300AD22;13
S28000;11SH300AD22;7
S28000;11SH90005G21;1
S28000;11SP200CS19;8
S10;11SP200CS19;2
S10;11SP200SH19;4
S28000;11SP200SH19;11
S28000;11SP200SI19;2
S10;11SP200SI19;4
S10;11SV080I19;5
S28000;11SV080I19;2
S28000;15AS250VA18;12
S10;15AS250VA18;8
S10;15BA500L16A;12
S24000;11LC250H19;13
S29000;11LC250H19;58
S24000;11LC250H20;11
S29000;11LC250H20;24
S24000;11LC250O21;10
S29000;11LC250O21;36
S24000;11LD200I19;9
S29000;11LD200I19;15
S24000;11LH200I19;8
S29000;11LH200I19;12
S24000;11LT300I20;3
S29000;11LT300I20;3
S24000;11MH075A19;7
S29000;11MH075A19;5
S24000;11MWC200I19;3
S29000;11MWC200I19;11
S24000;11PEP050I20;1
S29000;11PEP050I20;4
S24000;11PM100SH19;5
S29000;11PM100SH19;10
S24000;11PM100SI19;7
S29000;11PM100SI19;9
S24000;11SA050O21;10
S29000;11SA050O21;12
S29000;11SA100H20;1
S24000;11SAF100H20;10
S29000;11SAF100H20;10
S24000;11SD100CS19;3
S29000;11SD100CS19;17
S24000;11SD100SH19;5
S29000;11SD100SH19;10
S24000;11SD100SI19;3
S29000;11SD100SI19;4
S24000;11SH080DP23;7
S29000;11SH080DP23;8
S24000;11SH300AD22;9
S29000;11SH300AD22;14
S24000;11SP200CS19;9
S29000;11SP200CS19;14
S24000;11SP200SH19;5
S29000;11SP200SH19;16
S24000;11SP200SI19;5
S29000;11SP200SI19;13
S24000;11SV080I19;4
S29000;11SV080I19;13
S24000;15AS250VA18;6
S29000;15AS250VA18;8
S24000;15BA500L16A;13
S29000;15BA500L16A;16
S24000;15BM500VB21;11
S24000;15BR050VBM23;7
S29000;15BR050VBM23;1
S31000;24LC250R22;13
S31000;24MA030CB21;21
S31000;24MA030P21;11
S31000;24MA030R22;25
S31000;24MA075CB21;5
S31000;24MA075P21;5
S31000;24MA075P22;10
S31000;24MA075R22;16
S31000;24MA150R22;14
S31000;24RG500CB21;16
S31000;24RG500R22;5
S31000;24RG500R23;10
S31000;24RO010CB21;7
S31000;24SA050CB21;14
S31000;24SA050R22;6
S31000;27BD060I23;7
S31000;27BY015I22;6
S31000;27CP050I22;17
S31000;27DB015I20;8
S31000;27DC050I20;16
S31000;27DE015I21;14
S31000;27DH015I22;30
S31000;27DH030I22;25
S31000;27DL200I21;6
S31000;27DS030I20;9
S31000;27ER015I22;18
S31000;27ER050I23;13
S31000;27ER150I23;14
S31000;27HD200I23;8
S31000;27HSR030I16;4
S31000;27MC125I23;32
S31000;27MII150I22;2
S31000;27MP050I22;6
S31000;27MP150I22;20
S31000;27MQ065I15A;5
S31000;27MS050I20;5
S31000;27OR030I21;31
S31000;27OR050I21;40
S31000;27SE075I22;10
S31000;29ASH240A20;5
S31000;29BP100A22;7
S31000;29EC200A22;16
S31000;29GE200A21;18
S31000;29HD075A15;13
S31000;29HD250A15;34
S31000;29HD500A15;36
S31000;29HD9000A21;2
S31000;29HS100A21;5
S31000;29LC200A20US;35
S31000;29MA030A17;24
S31000;29MA075A22;6
S31000;29RC200A22;33
S31000;29RH500A23;16
S30000;17DO050F13;14
S30000;17ER075P19;4
S30000;17HI001G19;74
S30000;17HI100G19;10
S30000;17MC200G21;16
S30000;17RC500E20;12
S30000;17RC500G21;18
S30000;17RC500P19;9
S30000;17RS500E20;10
S30000;17RS500FV21;18
S30000;17RS500G21;17
S30000;17RS500P19;8
S30000;17SE100FV21;19
S30000;17SH060SE21;4
S30000;17SH060SG21;4
S30000;17SH060SP21;4
S30000;17SH075E19;1
S30000;17SH075G21;1
S30000;17SH300E19;23
S30000;17SH300FV21;14
S30000;17SH300G21;13
S30000;17SH300P19;13
S30000;17SH500E19;11
S30000;17SH500FV21;22
S30000;17SH500G21;16
S30000;17SH500P19;15
S30000;17VI100P19;7
S30000;20AR075O20;6
S30000;20DO050O20;5
S30000;20DO075CD20;4
S30000;20DO130HC20;6
S30000;20ET075CD21;5
S30000;20ET075HC20;3
S30000;20ET075OC20;4
S30000;20GD250CD20;7
S30000;20GD250HC20;13
S30000;20GD250OC20;7
S30000;20GD500HC20;8
S30000;20NV150H20;12
S30000;20SA050CD20;4
S30000;20SA050HC20;4
S30000;24BL012CB5;11
S30000;24BL012R22;10
S30000;24BR050CB21;8
S30000;24BR050R22;20
S30000;24ET075CB21;14
S30000;24GD250CB21;16
S30000;24GD250R22;15
S30000;24GD500R22;13
S30000;24LC250CB21;12
S30000;24LC250R22;14
S30000;24MA030CB21;22
S24000;15CM030LB23;58
S29000;15CM030LB23;57
S24000;15DE200VAL23;1
S24000;15DO050VA22;10
S29000;15DO050VA22;10
S24000;15EDT050LB23;25
S29000;15EDT050LB23;28
S24000;15ET010VB19;4
S29000;15ET010VB19;4
S24000;15ET100VA20;4
S29000;15ET100VA20;3
S24000;15ET100VB20;5
S24000;15ET100VB23;2
S24000;15ET100VBL23;3
S24000;15ET100VCL23;10
S29000;15ET100VCL23;15
S24000;15GD070VB21;42
S29000;15GD070VB21;38
S24000;15GD250L21;13
S29000;15GD250L21;19
S24000;15GD250LB23;52
S29000;15GD250LB23;44
S24000;15GD250VA20;8
S29000;15GD250VA20;10
S24000;15GD250VB23;9
S29000;15GD250VB23;15
S24000;15GD250VCL23;10
S29000;15GD250VCL23;30
S24000;15GD500VB23;13
S29000;15GD500VB23;19
S24000;15GM065L21;12
S29000;15GM065L21;18
S24000;15GM065VB21;15
S29000;15GM065VB21;20
S24000;15GM280VB21;4
S29000;15GM280VB21;7
S24000;15GN300L21;11
S29000;15GN300L21;15
S24000;15HE005L14;7
S29000;15HE005L14;5
S24000;15LC250L14;10
S29000;15LC250L14;24
S24000;15LC250LB23;25
S29000;15LC250LB23;28
S24000;15LC250VA20;8
S29000;15LC250VA20;12
S24000;15LC250VB3;4
S29000;15LC250VB3;5
S24000;15LC250VCL23;12
S29000;15LC250VCL23;18
S24000;15LM300L11;11
S29000;15LM300L11;14
S28000;15BA500L16A;17
S28000;15BM500VB21;3
S10;15BM500VB21;3
S10;15BR050VBM23;3
S10;15CM030LB23;61
S28000;15CM030LB23;70
S10;15DE200VAL23;5
S10;15DO050VA22;3
S28000;15DO050VA22;17
S28000;15EDT050LB23;37
S10;15EDT050LB23;24
S10;15ET010VB19;3
S28000;15ET010VB19;4
S28000;15ET100VA20;8
S10;15ET100VA20;5
S10;15ET100VB20;2
S10;15ET100VB23;4
S10;15ET100VBL23;1
S10;15ET100VCL23;9
S28000;15ET100VCL23;14
S28000;15GD070VB21;48
S10;15GD070VB21;30
S10;15GD250L21;13
S28000;15GD250L21;21
S28000;15GD250LB23;56
S10;15GD250LB23;53
S10;15GD250VA20;13
S28000;15GD250VA20;10
S28000;15GD250VB23;14
S10;15GD250VB23;12
S10;15GD250VCL23;13
S28000;15GD250VCL23;25
S10;15GD500VB21;1
S10;15GD500VB23;15
S28000;15GD500VB23;15
S28000;15GM065L21;61
S10;15GM065L21;34
S10;15GM065VB21;28
S28000;15GM065VB21;35
S28000;15GM280VB21;3
S10;15GM280VB21;4
S10;15GN300L21;26
S28000;15GN300L21;11
S28000;15HE005L14;12
S10;15HE005L14;6
S10;15LC250L14;12
S28000;15LC250L14;9
S28000;15LC250LB23;49
S10;15LC250LB23;25
S10;15LC250VA20;7
S28000;15LC250VA20;4
S28000;15LC250VCL23;12
S10;15LC250VCL23;13
S90000;17RS500P19;3
S90000;17SE100FV21;2
S90000;17SH060SE21;8
S90000;17SH060SG21;7
S90000;17SH060SP21;9
S90000;17SH075FV21;10
S90000;17SH075G21;16
S90000;17SH075P19;7
S90000;17SH300E19;7
S90000;17SH300FV21;8
S90000;17SH300G21;7
S90000;17SH300P19;6
S90000;17SH500E19;7
S90000;17SH500FV21;5
S90000;17SH500G21;14
S90000;17SH500P19;4
S90000;17VI100P19;6
S90000;20AR075O20;11
S90000;20DO050O20;10
S90000;20DO075CD20;8
S90000;20DO130HC20;9
S90000;20ET075CD20;8
S90000;20ET075HC20;9
S90000;20ET075OC20;9
S90000;20GD250CD20;11
S90000;20GD250HC20;10
S90000;20GD250OC20;10
S90000;20GD500HC20;13
S90000;20HR050H20;8
S90000;20NV150H20;5
S90000;20SA050CD20;9
S90000;20SA050HC20;11
S90000;24BL012CB5;9
S90000;24BL012R22;4
S90000;24BR050CB21;8
S90000;24BR050R22;9
S90000;24CM030CBL23;1
S90000;24ET075CB21;7
S90000;24GD075CB5;2
S90000;24GD075R22;42
S90000;24GD250CB21;8
S90000;24GD250R22;11
S90000;24GD500CB21;1
S90000;24GD500R22;15
S90000;24LC075R22;125
S90000;24LC250CB21;6
S90000;24LC250CB4;1
S90000;24LC250R22;9
S90000;24MA030CB21;5
S90000;24MA030P21;10
S90000;24MA030R22;16
S90000;24MA075CB21;8
S30000;24MA030P21;10
S30000;24MA030R22;22
S30000;24MA075CB21;17
S30000;24MA075P21;10
S30000;24MA075R22;14
S30000;24MA150R22;12
S30000;24RG500CB21;15
S30000;24RG500R22;4
S30000;24RO010CB21;6
S30000;24SA050CB21;10
S30000;24SA050R22;5
S30000;27BD060I23;9
S30000;27BY015I22;5
S30000;27CP050I22;12
S30000;27DB015I20;9
S30000;27DC050I20;18
S30000;27DE015I21;6
S30000;27DH015I22;25
S30000;27DH030I22;18
S30000;27DL200I21;5
S30000;27DS030I20;8
S30000;27ER015I22;17
S30000;27ER050I23;13
S30000;27ER150I23;14
S30000;27EV200I22;11
S30000;27FP050I19;1
S30000;27HC050I18;2
S30000;27HCR050I16;2
S30000;27HD200I23;7
S30000;27HS030I18;3
S30000;27HSR030I16;1
S30000;27MC125I23;19
S30000;27MP150I22;17
S30000;27MQ065I15A;2
S30000;27MS050I20;6
S30000;27OR030I21;30
S30000;27OR050I21;45
S30000;27SE075I22;9
S30000;29ASH240A20;6
S30000;29BP100A22;6
S30000;29EC200A22;12
S30000;29GE200A21;17
S30000;29HD075A15;14
S30000;29HD250A15;32
S30000;29HD500A15;35
S30000;29HS100A21;8
S30000;29LC200A20US;34
S30000;29MA030A17;17
S30000;29MA075A22;18
S30000;29RC200A22;27
S30000;29RH500A23;19
S30000;29SA050A22;12
S30000;29SE125A21;10
S31000;29SA050A22;13
S31000;29SE125A21;11
S31000;29SH240A22;9
S31000;29VC240A22;13
S31000;38BV050A22;4
S31000;38EV075A21;3
S31000;38FT200A21;10
S31000;38MI150A22;5
S31000;38RC050A22;2
S31000;38SC015RB23;27
S31000;38UV030A18;13
S31000;38WC050A21;14
S31000;38WS030A21;11
S31000;49BO015CS19;60
S31000;49DC004I20;29
S31000;49DH004I22;64
S31000;49GD035CB21;88
S31000;49HD035A15;55
S31000;49HD035K17;2
S31000;49ICBPOU22;5
S31000;49ICNPOU22;67
S31000;49LC020A20;58
S31000;49LC035CB21;11
S31000;49MA010K22;117
S31000;49MC014I23;191
S31000;49MTAT23;4
S31000;49OR005I21;156
S31000;49PAR1CH20;11
S31000;49POCK1NO22;6
S31000;49POUGCS23;1
S31000;49POUM23;5
S31000;49POUYCS23;5
S31000;49SH035E21;34
S31000;52AF006G20;81
S31000;52AS006E19;194
S31000;52AS006FV21;118
S31000;52AS006G21;197
S31000;52AS006P19;57
S31000;52BGERIB20;2
S31000;52BY001I19;210
S31000;52BY001I22;200
S31000;52CP0015I22;177
S31000;52CP006K22;205
S31000;52CV0015K22;48
S31000;52DB001I20;160
S31000;52DC0015I20;254
S31000;52DE001I21;278
S31000;52DH001I22;446
S31000;52DL002I21;184
S31000;52DS001I20;108
S31000;52ER002I21;364
S31000;52EV002I22;169
S31000;52GD0015A18;51
S27000;01BK010K14;15
S27000;01BL012K18;15
S27000;01BM050K23;9
S27000;01BM150K23;15
S27000;01BP050K21;8
S27000;01CCJ200K22;18
S27000;01CD250K23;11
S27000;01CL050K21;3
S27000;01CL175K22;6
S27000;01CM300K20;5
S27000;01CM300K23;2
S27000;01CM500K20;10
S27000;01CMJ075K23;12
S27000;01CMR500K20;9
S27000;01CP200K22;17
S27000;01CPR200K22;9
S27000;01CV050K22;1
S27000;01EC200K22;12
S27000;01EM030K23;10
S27000;01EM075K20;7
S27000;01HD250K17;6
S27000;01HD500K20;11
S27000;01HDR500K20;5
S27000;01HF100K17;5
S27000;01HN0075K23;9
S27000;01HV030K23;5
S27000;01LC250K24;14
S27000;01LT300K20;12
S27000;01MA030K22;27
S27000;01MA075K22;16
S27000;01MA150K22;25
S27000;01MR030K14;8
S27000;01PI030K18;5
S27000;01PI150K18;6
S27000;01RL500K20;9
S27000;01RV500K20;1
S27000;01SA100LT20;10
S27000;01SA100LV20;9
S27000;01SA100VE20;8
S27000;01SA250LT20;10
S27000;01SA250LV20;10
S27000;01SA250VE20;8
S27000;01SA300KRO22;6
S27000;01SA500KRO22;6
S27000;01SAR500KRO22;3
S27000;01SL0045K13;28
S27000;01SL300LV20;4
S27000;01SL300VE20;6
S27000;01SL500LV20;6
S27000;01SL500VE20;5
S27000;11AS040SG22;13
S27000;11AT050HL23;12
S24000;15MA030L21;21
S29000;15MA030L21;19
S24000;15MA030VA5;10
S29000;15MA030VA5;13
S24000;15MA030VB3;8
S29000;15MA030VB3;18
S24000;15MA030VBM8;7
S24000;15MA030VCL23;23
S29000;15MA030VCL23;33
S24000;15MA075L20;4
S29000;15MA075L20;15
S24000;15MA075VB4;5
S29000;15MA075VB4;26
S24000;15RC500VB21;4
S29000;15RC500VB21;6
S24000;15RC500VB23;9
S29000;15RC500VB23;17
S24000;15RG500L14;10
S29000;15RG500L14;27
S24000;15RG500VA20;9
S29000;15RG500VA20;30
S29000;15RO010VBM22;20
S29000;15SA075VB21;6
S24000;15SA075VB21;3
S24000;15SH250VA20;4
S29000;15SH250VA20;14
S29000;17AF100G20;20
S24000;17AF100G20;11
S24000;17AS250E19;6
S29000;17AS250E19;10
S29000;17AS250FV21;7
S24000;17AS250FV21;8
S24000;17AS250G21;6
S29000;17AS250G21;19
S29000;17AS250P19;10
S24000;17AS250P19;5
S24000;17AS500E19;14
S29000;17AS500E19;21
S29000;17AS500FV21;17
S24000;17AS500FV21;10
S24000;17AS500G21;11
S29000;17AS500G21;26
S29000;17AS500P19;8
S24000;17AS500P19;6
S24000;17DO050F13;14
S29000;17DO050F13;23
S29000;17ER075P19;8
S24000;17ER075P19;6
S24000;17HI001G19;232
S29000;17HI001G19;170
S29000;17HI100G19;18
S24000;17HI100G19;12
S24000;17MC200G21;16
S10;15LM300L11;6
S28000;15LM300L11;9
S28000;15MA030L21;26
S10;15MA030L21;21
S10;15MA030VA5;7
S28000;15MA030VA5;4
S28000;15MA030VB3;10
S10;15MA030VB3;9
S10;15MA030VBM8;21
S10;15MA030VCL23;21
S28000;15MA030VCL23;25
S28000;15MA075L20;9
S10;15MA075L20;2
S10;15MA075VB4;12
S28000;15MA075VB4;12
S28000;15RC500VB21;4
S10;15RC500VB21;3
S10;15RC500VB23;5
S10;15RG500L14;13
S28000;15RG500L14;4
S28000;15RG500VA20;10
S10;15RG500VA20;16
S10;15RO010VBM22;14
S28000;15RO010VBM22;23
S28000;15SA075VB21;4
S10;15SA075VB21;4
S10;15SH250VA20;10
S28000;15SH250VA20;11
S28000;17AF100G20;11
S10;17AF100G20;12
S10;17AS250E19;4
S28000;17AS250E19;3
S28000;17AS250FV21;8
S10;17AS250FV21;7
S10;17AS250G21;5
S28000;17AS250G21;8
S28000;17AS250P19;11
S10;17AS250P19;17
S10;17AS500E19;8
S28000;17AS500E19;19
S28000;17AS500FV21;13
S10;17AS500FV21;7
S10;17AS500G21;16
S28000;17AS500G21;15
S28000;17AS500P19;8
S10;17AS500P19;6
S10;17DO050F13;11
S28000;17DO050F13;17
S28000;17ER075P19;11
S10;17ER075P19;6
S10;17HI001G19;172
S28000;17HI001G19;191
S28000;17HI100G19;12
S10;17HI100G19;7
S90000;24MA075P21;10
S90000;24MA075R22;12
S90000;24MA150R22;11
S90000;24RG500CB21;16
S90000;24RG500R22;4
S90000;24RO010CB21;9
S90000;24SA050CB21;10
S90000;24SA050R22;10
S90000;27BD060I23;10
S90000;27BY015I22;10
S90000;27CP050I22;7
S90000;27DB015I20;9
S90000;27DC050I20;50
S90000;27DCB060I17;1
S90000;27DE015I21;8
S90000;27DF125I17;1
S90000;27DH030I20;12
S90000;27DH030I22;13
S90000;27DL200I21;8
S90000;27DS030I20;7
S90000;27ER050I23;10
S90000;27ER150I23;12
S90000;27EV200I22;16
S90000;27HD200I23;12
S90000;27MII150I22;10
S90000;27MP050I22;239
S90000;27MP150I22;13
S90000;27MQ065I15A;8
S90000;27MS050I20;7
S90000;27SE075I22;13
S90000;29ASH075A20;20
S90000;29ASH240A20;9
S90000;29BP100A22;10
S90000;29EC200A22;12
S90000;29GE200A21;5
S90000;29HD075A15;45
S90000;29HD250A15;37
S90000;29HD500A15;17
S90000;29HS100A21;30
S90000;29LC100A20;15
S90000;29LC200A20US;12
S10;29LC200A20US;43
S10;29MA030A17;13
S10;29MA075A21;1
S90000;29MA075A21;5
S90000;29MA075A22;15
S10;29MA075A22;3
S10;29RC200A22;31
S90000;29RC200A22;17
S90000;29RH500A23;7
S10;29RH500A23;55
S10;29SA050A22;10
S90000;29SA050A22;8
S31000;52HD006A18;502
S31000;52HS001I17;111
S31000;52HS004A18;257
S31000;52LC006A20;531
S31000;52LGEBOX18;12
S31000;52LGENSA21;60
S31000;52MA003K22A;134
S31000;52MC001I23;345
S31000;52MC006G21;222
S31000;52MGEBOX18;26
S31000;52MGENSA21GPS;45
S31000;52MOCOL316;1
S31000;52MS001I20;88
S31000;52OR001I21;627
S31000;52SE0015I22;189
S31000;52SH006E19;376
S31000;52SH006FV21;255
S31000;52SH006G21;410
S31000;52SH006P19;137
S31000;52TS001I22;180
S31000;52YGERIB20;2
S31000;98BBMA010KA3;52
S31000;ACPOCVEC00001;359
S31000;ACPOCVEC00002;353
S31000;ACPOCVEC00003;215
S31000;ACPOCVEC00004;71
S31000;SGOCVE600006;103
S30000;29VC240A22;11
S30000;38BV050A22;4
S30000;38EV075A21;3
S30000;38FT200A21;12
S30000;38MI150A22;4
S30000;38RC050A22;4
S30000;38SC015RB23;21
S30000;38UV030A18;12
S30000;38WC050A21;14
S30000;38WS030A21;8
S30000;49BO015CS19;67
S30000;49DC004I20;12
S30000;49DH004I22;56
S30000;49GD035CB21;66
S30000;49HD035A15;15
S30000;49HD035K17;4
S30000;49HS015A18;3
S30000;49LC020A20;54
S30000;49MA010K22;39
S30000;49MC014I23;81
S30000;49OR005I21;83
S30000;49POCK1NO22;3
S30000;49SH035E21;40
S30000;52AF006G20;121
S30000;52AS006E19;92
S30000;52AS006FV21;56
S30000;52AS006G21;239
S30000;52AS006P19;78
S30000;52BY001I22;107
S30000;52CD0015A18;106
S30000;52CL0015K21;100
S30000;52CP0015I22;134
S30000;52CP006K22;171
S30000;52CV0015K22;68
S30000;52DB001I20;146
S30000;52DC0015I20;247
S30000;52DE001I21;196
S30000;52DH001I22;371
S30000;52DL002I21;182
S30000;52DS001I20;141
S30000;52ER002I21;369
S30000;52EV002I22;117
S30000;52GD0015A18;42
S30000;52HD001I23;93
S30000;52HD006A18;385
S30000;52HS004A18;228
S30000;52LC006A20;382
S30000;52LGEBOX18;3
S30000;52LGENSA21;58
S30000;52MA003K22A;201
S30000;52MC001I23;303
S30000;52MC006G21;209
S30000;52MGEBOX18;1
S27000;11BC100G21;1
S27000;11BG140CS19;5
S27000;11BG140SH19;7
S27000;11BG140SI19;5
S27000;11BG140SL19;3
S27000;11BH050A18;4
S27000;11BO100CS19;10
S27000;11BP100I19;3
S27000;11BR100A20;5
S27000;11CD050A18;6
S27000;11CF100TR19;7
S27000;11CM030H19;12
S27000;11CM030H20;11
S27000;11CM030O21;7
S27000;11CM125I19;3
S27000;11CM200AT23;5
S27000;11CM200AT23C;32
S27000;11EC200AT23;34
S27000;11EH150A18;10
S27000;11EP010H19;8
S27000;11ET010H20;11
S27000;11ET050H20;5
S27000;11ET075O21;4
S27000;11FAG10TR19;5
S27000;11GD050A18;5
S27000;11GD250H19;8
S27000;11GD250H20;12
S27000;11GD250O21;13
S27000;11GE075I20;4
S27000;11GM200I19;2
S27000;11GN195A18;3
S27000;11LC250H19;7
S27000;11LC250H20;8
S27000;11LC250O21;10
S27000;11LD200I19;7
S27000;11LH200I19;7
S27000;11LT300I20;5
S27000;11MH075A19;4
S27000;11MWC200I19;4
S27000;11PM100SH19;4
S27000;11PM100SI19;7
S27000;11SA050O21;3
S27000;11SD100CS19;8
S27000;11SD100SH19;9
S27000;11SD100SI19;6
S27000;11SH080DP23;7
S27000;11SH300AD22;10
S27000;11SP200CS19;6
S27000;11SP200SH19;4
S27000;11SP200SI19;5
S27000;11SV080I19;1
S27000;15AS250VA18;9
S29000;17MC200G21;28
S29000;17RC500E20;46
S24000;17RC500E20;16
S24000;17RC500G21;24
S29000;17RC500G21;49
S29000;17RC500P19;23
S24000;17RC500P19;7
S24000;17RS500E20;16
S29000;17RS500E20;36
S29000;17RS500FV21;46
S24000;17RS500FV21;18
S24000;17RS500G21;22
S29000;17RS500G21;50
S29000;17RS500P19;40
S24000;17RS500P19;12
S24000;17SE100FV21;17
S29000;17SE100FV21;24
S29000;17SH060SE21;5
S24000;17SH060SE21;3
S24000;17SH060SG21;4
S29000;17SH060SG21;5
S29000;17SH060SP21;4
S24000;17SH060SP21;4
S24000;17SH300E19;13
S29000;17SH300E19;17
S29000;17SH300FV21;18
S24000;17SH300FV21;11
S24000;17SH300G21;6
S29000;17SH300G21;19
S29000;17SH300P19;14
S24000;17SH300P19;7
S24000;17SH500E19;11
S29000;17SH500E19;13
S29000;17SH500FV21;22
S24000;17SH500FV21;17
S24000;17SH500G21;17
S29000;17SH500G21;31
S29000;17SH500P19;25
S24000;17SH500P19;13
S24000;17VI100P19;2
S29000;17VI100P19;5
S29000;20AR075O20;13
S24000;20AR075O20;7
S24000;20DO050O20;8
S29000;20DO050O20;13
S29000;20DO075CD20;16
S24000;20DO075CD20;10
S24000;20DO130HC20;4
S29000;20DO130HC20;13
S29000;20ET075CD21;3
S24000;20ET075CD21;4
S24000;20ET075HC20;4
S29000;20ET075HC20;4
S10;17MC200G21;19
S28000;17MC200G21;18
S28000;17RC500E20;29
S10;17RC500E20;14
S10;17RC500G21;20
S28000;17RC500G21;34
S28000;17RC500P19;7
S10;17RC500P19;7
S10;17RS500E20;15
S28000;17RS500E20;23
S28000;17RS500FV21;31
S10;17RS500FV21;25
S10;17RS500G21;24
S28000;17RS500G21;42
S28000;17RS500P19;21
S10;17RS500P19;21
S10;17SE100FV21;23
S28000;17SE100FV21;8
S28000;17SH060SE21;7
S10;17SH060SE21;3
S10;17SH060SG21;6
S28000;17SH060SG21;6
S28000;17SH060SP21;6
S10;17SH060SP21;5
S10;17SH075E19;2
S10;17SH075G21;1
S10;17SH300E19;12
S28000;17SH300E19;31
S28000;17SH300FV21;22
S10;17SH300FV21;15
S10;17SH300G21;17
S28000;17SH300G21;19
S28000;17SH300P19;25
S10;17SH300P19;21
S10;17SH500E19;16
S28000;17SH500E19;6
S28000;17SH500FV21;14
S10;17SH500FV21;15
S10;17SH500G21;19
S28000;17SH500G21;13
S28000;17SH500P19;12
S10;17SH500P19;11
S10;17VI100P19;6
S28000;17VI100P19;1
S28000;20AR075O20;9
S10;20AR075O20;3
S10;20DO050O20;3
S28000;20DO050O20;6
S28000;20DO075CD20;7
S10;20DO075CD20;4
S10;20DO130HC20;4
S28000;20DO130HC20;6
S28000;20ET075CD21;3
S10;20ET075CD21;2
S30000;52MGENSA21GPS;29
S30000;52MS001I20;99
S30000;52OR001I21;510
S30000;52PMGBOX18;6
S30000;52PS0015R21;148
S30000;52SE0015I22;99
S30000;52SGENSA21GPS;69
S30000;52SH006E19;297
S30000;52SH006FV21;214
S30000;52SH006G21;484
S30000;52SH006P19;51
S30000;52TS001I22;328
S30000;52TS001R21;153
S30000;98BBGD030VE4;10
S30000;98BBMA010KA3;48
S30000;ACPOCVEC00001;275
S30000;ACPOCVEC00002;477
S30000;ACPOCVEC00003;187
S30000;ACPOCVEC00004;73
S30000;SGOCVE600006;27
S90000;29SE125A21;7
S10;29SE125A21;9
S90000;29SH075A20;51
S90000;29SH240A20;1
S90000;29VC240A22;21
S10;29VC240A22;28
S10;38BV050A22;4
S90000;38BV050A22;11
S10;38EC015A18;1
S10;38EV075A21;13
S90000;38EV075A21;10
S90000;38FT200A21;10
S10;38FT200A21;3
S90000;38MI150A18;1
S90000;38MI150A22;9
S10;38MI150A22;8
S10;38RC050A22;8
S90000;38RC050A22;11
S90000;38SC015RB23;24
S10;38SC015RB23;21
S10;38UV030A18;11
S90000;38UV030A18;6
S90000;38WC050A21;12
S10;38WC050A21;4
S10;38WM065A18;1
S10;38WS030A21;3
S90000;38WS030A21;11
S90000;49AF015G20;145
S90000;49BASKM23;2
S90000;49BO015CS19;103
S10;49BO015CS19;54
S90000;49CABNO22;181
S90000;49CAS2NO22;53
S90000;49CL008K21;7
S90000;49CL1SA18;39
S90000;49CM010O21;158
S90000;49CP008I19;19
S90000;49CP020K22;21
S90000;49CRM1NO22;37
S10;49CRM2NO22;1
S10;49DC004I20;21
S10;49DH004I22;69
S10;49GD035CB21;120
S10;49HD035A15;112
S10;49LC020A20;29
S10;49LD030I21;1
S10;49MA010K22;47
S10;49MA010R22;6
S10;49MC014I23;100
S10;49MTAT23;5
S10;49OR005I21;120
S10;49POCK1NO22;1
S10;49SH035E21;60
S10;52AF006G20;233
S20;01BK010K14;22
S20;01BL012K18;20
S20;01BM050K23;9
S20;01BM150K23;27
S20;01BP050K21;6
S20;01CCJ200K22;10
S20;01CD250K23;24
S20;01CL050K21;11
S20;01CL175K22;3
S20;01CM300K23;5
S20;01CM500K20;13
S20;01CMJ075K21;14
S20;01CMJ075K23;10
S20;01CMR500K20;14
S20;01CP200K22;24
S20;01CPR200K22;11
S20;01CV050K22;13
S20;01EC200K22;10
S20;01EM030K23;10
S20;01HD250K17;9
S20;01HD500K20;14
S20;01HDR500K20;50
S20;01HF100K17;6
S20;01HN0075K23;12
S20;01HV030K23;9
S20;01LC250K24;25
S20;01LT300K20;8
S20;01MA030K22;40
S20;01MA075K22;12
S20;01MA150K22;29
S20;01MR030K14;13
S20;01PI030K18;14
S20;01PI150K18;14
S20;01RL500K20;6
S20;01RV500K20;2
S20;01SA100LT20;12
S20;01SA100LV20;21
S20;01SA100VE20;20
S20;01SA250LT20;21
S20;01SA250LV20;14
S20;01SA250VE20;15
S20;01SA300KRO22;1
S20;01SA500KRO22;7
S20;01SAR500KRO22;7
S20;01SL0045K13;27
S20;01SL300LV20;6
S20;01SL300VE20;11
S20;01SL500LV20;7
S20;01SL500VE20;7
S20;11AS040SG22;19
S20;11AT050HL23;12
S20;11BG140CS19;9
S20;11BG140SH19;7
S20;11BG140SI19;17
S29000;20ET075OC20;5
S24000;20ET075OC20;5
S24000;20GD250CD20;5
S29000;20GD250CD20;10
S29000;20GD250HC20;13
S24000;20GD250HC20;6
S24000;20GD250OC20;8
S29000;20GD250OC20;15
S29000;20GD500HC20;21
S24000;20GD500HC20;7
S24000;20NV150H20;10
S29000;20NV150H20;16
S29000;20SA050CD20;5
S24000;20SA050CD20;4
S24000;20SA050HC20;4
S29000;20SA050HC20;4
S29000;24BL012CB5;9
S24000;24BL012CB5;11
S24000;24BL012R22;10
S29000;24BL012R22;5
S29000;24BR050CB21;13
S24000;24BR050CB21;12
S24000;24BR050R22;11
S29000;24BR050R22;18
S29000;24ET075CB21;15
S24000;24ET075CB21;11
S24000;24ET075R22;10
S29000;24ET075R22;1
S29000;24GD250CB21;26
S24000;24GD250CB21;18
S24000;24GD250R22;14
S29000;24GD250R22;20
S29000;24GD500R22;23
S24000;24GD500R22;9
S24000;24LC250CB21;15
S29000;24LC250CB21;20
S29000;24LC250R22;23
S24000;24LC250R22;11
S24000;24MA030CB21;26
S29000;24MA030CB21;28
S29000;24MA030P21;9
S24000;24MA030P21;7
S24000;24MA030R22;24
S29000;24MA030R22;27
S29000;24MA030RV19;1
S29000;24MA075CB21;16
S24000;24MA075CB21;15
S24000;24MA075P21;9
S29000;24MA075P21;9
S29000;24MA075R22;16
S24000;24MA075R22;13
S24000;24MA150R22;11
S27000;15BA500L16A;10
S27000;15BM500VB21;6
S27000;15BR050VBM23;4
S27000;15CM030LB23;54
S27000;15DO050VA22;8
S27000;15EDT050LB23;20
S27000;15ET010VB19;4
S27000;15ET100VA20;4
S27000;15ET100VB20;2
S27000;15ET100VB23;1
S27000;15ET100VBL23;2
S27000;15ET100VCL23;7
S27000;15GD070VB21;28
S27000;15GD250L21;15
S27000;15GD250LB23;55
S27000;15GD250VA20;5
S27000;15GD250VB23;8
S27000;15GD250VCL23;17
S27000;15GD500VB23;12
S27000;15GM065L21;11
S27000;15GM065VB21;13
S27000;15GM280VB21;4
S27000;15GN300L21;8
S27000;15HE005L14;5
S27000;15LC250L14;7
S27000;15LC250LB23;26
S27000;15LC250VA20;3
S27000;15LC250VB3;2
S27000;15LC250VCL23;15
S27000;15LM300L11;5
S27000;15MA030L21;16
S27000;15MA030VA5;4
S27000;15MA030VB3;6
S27000;15MA030VCL23;23
S27000;15MA075VB4;2
S27000;15RC500VB21;3
S27000;15RC500VB23;5
S27000;15RG500L14;8
S27000;15RG500VA20;8
S27000;15RO010VBM22;16
S27000;15SA070VB6;1
S27000;15SA075VB21;4
S27000;15SH250VA20;3
S27000;17AF100G20;17
S27000;17AS250E19;7
S27000;17AS250FV21;6
S27000;17AS250G21;6
S27000;17AS250P19;10
S27000;17AS500E19;9
S27000;17AS500FV21;10
S27000;17AS500G21;11
S27000;17AS500P19;6
S10;20ET075HC20;6
S10;20ET075OC20;4
S28000;20ET075OC20;3
S28000;20GD250CD20;6
S10;20GD250CD20;6
S10;20GD250HC20;15
S28000;20GD250HC20;3
S28000;20GD250OC20;7
S10;20GD250OC20;12
S10;20GD500HC20;14
S28000;20GD500HC20;12
S28000;20NV150H20;2
S10;20NV150H20;11
S10;20SA050CD20;4
S28000;20SA050CD20;1
S28000;20SA050HC20;3
S10;20SA050HC20;4
S10;24BL012CB5;13
S28000;24BL012CB5;12
S28000;24BL012R22;11
S10;24BL012R22;7
S10;24BR050CB21;6
S28000;24BR050CB21;15
S28000;24BR050R22;12
S10;24BR050R22;10
S10;24ET075CB21;15
S28000;24ET075CB21;15
S28000;24ET075R22;13
S10;24ET075R22;4
S10;24GD075R22;6
S10;24GD250CB21;15
S28000;24GD250CB21;22
S28000;24GD250R22;17
S10;24GD250R22;19
S10;24GD500R22;13
S28000;24GD500R22;16
S28000;24LC250CB21;21
S10;24LC250CB21;19
S10;24LC250R22;18
S28000;24LC250R22;16
S28000;24MA030CB21;32
S10;24MA030CB21;33
S10;24MA030P21;9
S28000;24MA030P21;5
S28000;24MA030R22;11
S10;24MA030R22;18
S10;24MA030RV19;30
S10;24MA075CB21;15
S28000;24MA075CB21;13
S28000;24MA075P21;6
S10;24MA075P21;5
S10;24MA075R22;9
S28000;24MA075R22;20
S29000;24MA150R22;17
S29000;24RG500CB21;30
S24000;24RG500CB21;5
S24000;24RG500R22;1
S29000;24RG500R22;33
S24000;24RG500R23;10
S24000;24RO010CB21;2
S29000;24RO010CB21;9
S29000;24SA050CB21;17
S24000;24SA050CB21;11
S24000;24SA050R22;12
S29000;24SA050R22;12
S29000;27BD060I23;10
S24000;27BD060I23;6
S24000;27BY015I22;5
S29000;27BY015I22;10
S29000;27CP050I22;23
S24000;27CP050I22;13
S24000;27DB015I20;13
S29000;27DB015I20;20
S29000;27DC050I20;30
S24000;27DC050I20;10
S24000;27DE015I21;15
S29000;27DE015I21;22
S29000;27DH015I22;26
S24000;27DH015I22;19
S24000;27DH030I22;19
S29000;27DH030I22;37
S29000;27DL200I21;6
S24000;27DL200I21;3
S24000;27DS030I20;6
S29000;27DS030I20;15
S29000;27ER015I22;17
S24000;27ER015I22;18
S24000;27ER050I23;10
S29000;27ER050I23;16
S29000;27ER150I21;7
S29000;27ER150I23;25
S24000;27ER150I23;14
S24000;27EV200I22;24
S29000;27EV200I22;14
S29000;27HC050I18;1
S24000;27HC050I18;1
S24000;27HD200I23;8
S29000;27HD200I23;11
S29000;27HS030I18;1
S29000;27HSR030I16;3
S24000;27HSR030I16;5
S24000;27MC125I23;17
S29000;27MC125I23;29
S29000;27MP150I22;18
S24000;27MP150I22;13
S24000;27MQ065I15A;4
S20;11BO100CS19;17
S20;11BP100I19;6
S20;11BR100A20;6
S20;11CD050A18;6
S20;11CF100TR19;6
S20;11CM030H19;11
S20;11CM030H20;9
S20;11CM030O21;13
S20;11CM125I19;3
S20;11CM200AT23;9
S20;11CM200AT23C;26
S20;11EC200AT23;35
S20;11EH150A18;2
S20;11EP010H19;11
S20;11ET010H20;10
S20;11ET050H20;5
S20;11ET075O21;12
S20;11FAG10TR19;10
S20;11GD050A18;6
S20;11GD250H19;17
S20;11GD250H20;15
S20;11GD250O21;20
S20;11GE075I20;5
S20;11GN195A18;11
S20;11LC250H19;13
S20;11LC250H20;12
S20;11LC250O21;16
S20;11LD200I19;3
S20;11LH200I19;2
S20;11LT300I20;4
S20;11MH075A19;4
S20;11MWC200I19;4
S20;11PEP050I20;3
S20;11PM100SH19;5
S20;11PM100SI19;7
S20;11SA050O21;3
S20;11SAF100H20;13
S20;11SD100CS19;11
S20;11SD100SH19;4
S20;11SD100SI19;6
S20;11SH080DP23;7
S20;11SH300AD22;12
S20;11SP200CS19;10
S20;11SP200SH19;8
S20;11SP200SI19;8
S20;11SV080I19;4
S20;15AS250VA18;2
S20;15BA500L16A;6
S20;15CM030LB23;53
S20;15DO050VA22;17
S20;15EDT050LB23;27
S20;15ET010VB19;5
S20;15ET100VA20;3
S20;15ET100VB20;6
S10;52AS006E19;210
S10;52AS006FV21;214
S10;52AS006G21;238
S10;52AS006P19;136
S10;52BGERIB20;4
S10;52BY001I22;149
S10;52CL0015K21;128
S10;52CP0015I22;163
S10;52CP006K22;286
S10;52CV0015K22;91
S10;52DB001I20;202
S10;52DC0015I20;344
S10;52DE001I21;237
S10;52DH001I22;274
S10;52DL002I21;283
S10;52DS001I20;205
S10;52ER002I21;216
S10;52EV002I22;245
S10;52GD0015A18;100
S10;52HD001I23;435
S10;52HD006A18;575
S10;52HS001I17;140
S10;52HS004A18;437
S10;52LASANO22;54
S10;52LC006A20;452
S10;52LGEBOX18;10
S10;52LGENSA21;210
S10;52MA003K22A;235
S10;52MC001I23;315
S10;52MC006G21;158
S10;52MGEBOX18;19
S10;52MGENSA21GPS;49
S10;52MOCOL216;2
S10;52MOCOL316;2
S10;52MS001I20;191
S10;52OR001I21;678
S10;52PS0015R21;327
S10;52SE0015I22;127
S10;52SH006E19;273
S10;52SH006FV21;531
S10;52SH006G21;339
S10;52SH006P19;288
S10;52TS001I22;355
S10;52TS001R21;309
S10;52YGERIB20;4
S10;98BBGD030VE4;16
S10;98BBMA010KA3;84
S10;ACPOCVEC00001;316
S10;ACPOCVEC00002;587
S10;ACPOCVEC00003;185
S10;ACPOCVEC00004;60
S10;ACPOCVEC00005;49
S10;SGOCVE600006;46
S27000;17DO050F13;10
S27000;17ER075P19;5
S27000;17HI001G19;166
S27000;17HI100G19;10
S27000;17MC200G21;18
S27000;17RC500E20;13
S27000;17RC500G21;24
S27000;17RC500P19;9
S27000;17RS500E20;11
S27000;17RS500FV21;14
S27000;17RS500G21;21
S27000;17RS500P19;19
S27000;17SE100FV21;11
S27000;17SH060SE21;5
S27000;17SH060SG21;5
S27000;17SH060SP21;5
S27000;17SH075E19;1
S27000;17SH075G21;2
S27000;17SH300E19;12
S27000;17SH300FV21;11
S27000;17SH300G21;13
S27000;17SH300P19;6
S27000;17SH500E19;14
S27000;17SH500FV21;10
S27000;17SH500G21;17
S27000;17SH500P19;15
S27000;17VI100P19;5
S27000;20AR075O20;5
S27000;20DO050O20;2
S27000;20DO075CD20;7
S27000;20DO130HC20;7
S27000;20ET075CD21;4
S27000;20ET075HC20;6
S27000;20ET075OC20;4
S27000;20GD250CD20;6
S27000;20GD250HC20;5
S27000;20GD500HC20;6
S27000;20NV150H20;8
S27000;20SA050CD20;4
S27000;20SA050HC20;4
S27000;24BL012CB5;9
S27000;24BL012R22;6
S27000;24BR050CB21;13
S27000;24BR050R22;9
S27000;24ET075CB21;8
S27000;24ET075R22;3
S27000;24GD250CB21;16
S27000;24GD250R22;11
S27000;24GD500R22;13
S27000;24LC250CB21;13
S27000;24LC250R22;13
S27000;24MA030CB21;25
S29000;27MQ065I15A;4
S29000;27MS050I20;4
S24000;27MS050I20;9
S24000;27OR030I21;19
S29000;27OR030I21;35
S29000;27OR050I21;31
S24000;27OR050I21;48
S24000;27SE075I22;10
S29000;27SE075I22;12
S29000;29ASH240A20;13
S24000;29ASH240A20;4
S24000;29BP100A22;3
S29000;29BP100A22;8
S29000;29EC200A22;19
S24000;29EC200A22;10
S24000;29GE200A21;27
S29000;29GE200A21;34
S29000;29HD075A15;33
S24000;29HD075A15;11
S24000;29HD250A15;29
S29000;29HD250A15;33
S29000;29HD500A15;44
S24000;29HD500A15;40
S24000;29HS100A21;8
S29000;29HS100A21;31
S29000;29LC200A20US;47
S29000;29MA030A17;13
S29000;29MA075A21;3
S29000;29MA075A22;18
S29000;29RC200A22;85
S29000;29RH500A23;69
S29000;29SA050A22;10
S29000;29SE125A21;14
S29000;29VC240A22;23
S29000;38BV050A22;4
S29000;38EV075A21;18
S29000;38FT200A21;11
S29000;38MI150A22;7
S29000;38RC050A22;6
S29000;38SC015RB23;20
S29000;38UV030A18;21
S29000;38WC050A21;16
S29000;38WS030A21;14
S29000;49DC004I20;13
S29000;49DH004I22;27
S29000;49GD035CB21;14
S29000;49HD035A15;4
S29000;49HD035K17;23
S29000;49LC020A20;12
S29000;49LC035CB21;18
S29000;49LD030I21;6
S29000;49MA010A17;15
S29000;49MA010K22;75
S28000;24MA150R22;14
S10;24MA150R22;14
S10;24RG500CB21;17
S28000;24RG500CB21;12
S10;24RG500R22;15
S28000;24RG500R23;2
S28000;24RO010CB21;6
S10;24RO010CB21;10
S10;24SA050CB21;6
S28000;24SA050CB21;12
S28000;24SA050R22;14
S10;24SA050R22;10
S10;27BD060I23;9
S28000;27BD060I23;13
S28000;27BY015I22;6
S10;27BY015I22;8
S10;27CP050I22;6
S28000;27CP050I22;19
S28000;27DB015I20;12
S10;27DB015I20;14
S10;27DC050I20;13
S28000;27DC050I20;14
S28000;27DE015I21;19
S10;27DE015I21;19
S10;27DH015I22;29
S28000;27DH015I22;26
S28000;27DH030I22;39
S10;27DH030I22;21
S10;27DL200I21;8
S28000;27DL200I21;17
S28000;27DS030I20;12
S10;27DS030I20;5
S10;27ER015I22;21
S28000;27ER015I22;23
S28000;27ER050I23;14
S10;27ER050I23;12
S28000;27ER150I21;5
S28000;27ER150I23;19
S10;27ER150I23;15
S10;27EV200I22;15
S28000;27EV200I22;15
S28000;27HD200I23;8
S10;27HD200I23;16
S28000;27HS030I18;3
S28000;27HSR030I16;3
S28000;27MC125I23;28
S10;27MC125I23;34
S10;27MI150I20;7
S10;27MP150I22;22
S28000;27MP150I22;29
S28000;27MQ065I15A;3
S10;27MQ065I15A;4
S10;27MS050I20;5
S28000;27MS050I20;7
S29000;49MC014I23;43
S29000;49MTAT23;6
S29000;49PADCL20;6
S29000;52AF006G20;166
S29000;52AS006E19;273
S29000;52AS006FV21;164
S29000;52AS006G21;230
S29000;52AS006P19;137
S29000;52BY001I22;182
S29000;52CL0015K21;100
S29000;52CP0015I22;230
S29000;52CP006K22;271
S29000;52CV0015K22;123
S29000;52DB001I20;164
S29000;52DC0015I20;361
S29000;52DE001I21;203
S29000;52DF002I17;65
S29000;52DH001I22;482
S29000;52DL002I21;195
S29000;52DS001I20;179
S29000;52ER002I21;233
S29000;52EV002I22;195
S29000;52GD0015A18;143
S29000;52HD001I23;285
S29000;52HD006A18;554
S29000;52HS001I17;217
S29000;52HS004A18;213
S29000;52LC006A20;529
S29000;52LGEBOX18;4
S29000;52LGENSA21;66
S29000;52LT002R21;4
S29000;52MC001I23;520
S29000;52MC006G21;224
S29000;52MS001I20;62
S29000;52OR001I21;631
S29000;52PS0015R21;105
S29000;52SE0015I22;168
S29000;52SGENSA21GPS;186
S29000;52SH006E19;336
S29000;52SH006FV21;203
S29000;52SH006G21;611
S29000;52SH006P19;181
S29000;52TS001I22;226
S29000;52TS001R21;90
S29000;98BBGD030VE4;12
S29000;SGOCVE600006;22
S20;15ET100VB23;2
S20;15ET100VBL23;1
S20;15ET100VCL23;12
S20;15GD070VB21;50
S20;15GD250L21;18
S20;15GD250LB23;52
S20;15GD250VA20;10
S20;15GD250VB23;16
S20;15GD250VCL23;15
S20;15GD500VB23;15
S20;15GM065L21;11
S20;15GM065VB21;19
S20;15GM280VB21;6
S20;15GN300L21;14
S20;15HE005L14;6
S20;15LC250L14;14
S20;15LC250LB23;29
S20;15LC250VA20;5
S20;15LC250VB3;8
S20;15LC250VCL23;15
S20;15LM300L11;13
S20;15MA030L21;16
S20;15MA030VA5;1
S20;15MA030VB3;9
S20;15MA030VBM8;15
S20;15MA030VCL23;20
S20;15MA075L20;9
S20;15MA075VB4;6
S20;15RC500VB23;35
S20;15RG500L14;11
S20;15RG500VA20;20
S20;15RO010VBM22;13
S20;15SA075VB21;5
S20;15SH250VA20;11
S20;17AF100G20;20
S20;17AS250E19;6
S20;17AS250FV21;11
S20;17AS250G21;6
S20;17AS250P19;8
S20;17AS500E19;14
S20;17AS500FV21;14
S20;17AS500G21;18
S20;17AS500P19;5
S20;17DO050F13;15
S20;17ER075P19;6
S20;17HI001G19;134
S20;17HI100G19;3
S20;17MC200G21;20
S20;17RC500E20;17
S20;17RC500G21;22
S20;17RC500P19;11
S20;17RS500E20;14
S20;17RS500FV21;25
S20;17RS500G21;27
S27000;24MA030P21;12
S27000;24MA030R22;18
S27000;24MA075CB21;13
S27000;24MA075P21;7
S27000;24MA075R22;14
S27000;24MA150R22;12
S27000;24RG500CB21;15
S27000;24RG500R22;8
S27000;24RO010CB21;10
S27000;24SA050CB21;8
S27000;24SA050R22;9
S27000;27BD060I23;9
S27000;27BY015I22;3
S27000;27CP050I22;14
S27000;27DB015I20;13
S27000;27DC050I20;17
S27000;27DE015I21;10
S27000;27DH015I22;21
S27000;27DH030I22;22
S27000;27DL200I21;1
S27000;27DS030I20;6
S27000;27ER015I22;14
S27000;27ER050I23;10
S27000;27ER150I23;11
S27000;27EV200I22;17
S27000;27HC050I18;1
S27000;27HD200I23;6
S27000;27HS030I18;1
S27000;27HSR030I16;2
S27000;27MC125I23;21
S27000;27MP050I20;1
S27000;27MP150I22;13
S27000;27MQ065I15A;4
S27000;27MS050I20;4
S27000;27OR030I21;22
S27000;27OR050I21;44
S27000;27SE075I22;11
S27000;29ASH240A20;4
S27000;29BP100A22;6
S27000;29EC200A22;12
S27000;29GE200A21;15
S27000;29HD075A15;15
S27000;29HD250A15;18
S27000;29HD500A15;16
S27000;29LC200A20US;34
S27000;29MA030A17;7
S27000;29MA075A22;15
S27000;29RC200A22;27
S27000;29RH500A23;46
S27000;29SA050A22;9
S27000;29SE125A21;10
S27000;29SH240A20;2
S27000;29VC240A22;10
S28000;27OR030I21;32
S10;27OR030I21;53
S10;27OR050I21;53
S28000;27OR050I21;34
S28000;27SE075I22;16
S10;27SE075I22;15
S10;29ASH240A20;6
S28000;29ASH240A20;13
S28000;29BP100A22;7
S10;29BP100A22;4
S10;29EC200A22;11
S28000;29EC200A22;15
S28000;29GE200A21;35
S10;29GE200A21;23
S10;29HD075A15;15
S28000;29HD075A15;57
S28000;29HD250A15;45
S10;29HD250A15;26
S10;29HD500A15;23
S28000;29HD500A15;24
S28000;29HD9000A21;1
S28000;29HS100A21;31
S10;29HS100A21;11
S28000;29LC200A20US;59
S28000;29MA030A17;10
S28000;29MA075A22;19
S28000;29RC200A22;82
S28000;29RH500A23;53
S28000;29SA050A22;11
S28000;29SE125A21;14
S28000;29SH240A22;13
S28000;29VC240A22;16
S28000;38BV050A22;5
S28000;38EV075A21;11
S28000;38FT200A21;9
S28000;38MI150A22;9
S28000;38RC050A22;7
S28000;38SC015RB23;25
S28000;38UV030A18;20
S28000;38WC050A21;13
S28000;38WS030A21;12
S28000;49BO015CS19;84
S28000;49DC004I20;46
S28000;49DH004I22;98
S28000;49GD035CB21;86
S28000;49HD035A15;90
S28000;49HD035K17;1
S28000;49LC020A20;134
S28000;49MA010K22;48
S28000;49MC014I23;149
S28000;49MTAT23;17
S28000;49OR005I21;76
S28000;49SH035E21;92
S27000;38BV050A22;3
S27000;38EV075A21;8
S27000;38FT200A21;5
S27000;38MI150A22;7
S27000;38RC050A22;5
S27000;38SC015RB23;17
S27000;38UV030A18;12
S27000;38WC050A21;10
S27000;38WS030A21;11
S27000;49BO015CS19;10
S27000;49DC004I20;17
S27000;49DH004I22;40
S27000;49GD035CB21;34
S27000;49HD035A15;1
S27000;49HD035K17;3
S27000;49MA010K22;31
S27000;49MC014I23;53
S27000;49MTAT23;5
S27000;49OR005I21;60
S27000;52AF006G20;190
S27000;52AS006E19;186
S27000;52AS006FV21;107
S27000;52AS006G21;209
S27000;52AS006P19;113
S27000;52BY001I22;140
S27000;52CL0015K21;34
S27000;52CP0015I22;166
S27000;52CP006K22;250
S27000;52CV0015K22;91
S27000;52DB001I20;178
S27000;52DC0015I20;306
S27000;52DE001I21;158
S27000;52DH001I22;336
S27000;52DL002I21;179
S27000;52DS001I20;136
S27000;52ER002I21;232
S27000;52EV002I22;225
S27000;52GD0015A18;81
S27000;52HD001I23;176
S27000;52HD006A18;592
S27000;52HS001I17;68
S27000;52HS004A18;225
S27000;52LC006A20;412
S27000;52LGEBOX18;4
S27000;52LGENSA21;69
S27000;52MA003K22A;85
S27000;52MC001I23;399
S27000;52MC006G21;283
S27000;52MGEBOX18;9
S27000;52MGENSA21GPS;118
S27000;52MS001I20;136
S27000;52OR001I21;746
S27000;52PMGBOX18;1
S27000;52PS0015R21;298
S27000;52SE0015I22;72
S27000;52SH006E19;467
S27000;52SH006FV21;202
S27000;52SH006G21;447
S27000;52SH006P19;233
S27000;52TS001R21;330
S27000;98BBGD030VE4;12
S27000;ACPOCVEC00001;342
S27000;ACPOCVEC00002;345
S27000;ACPOCVEC00003;230
S27000;ACPOCVEC00004;138
S27000;SGOCVE600006;29
S28000;52AF006G20;239
S28000;52AS006E19;286
S28000;52AS006FV21;198
S28000;52AS006G21;335
S28000;52AS006P19;153
S28000;52BGERIB20;1
S28000;52BY001I22;166
S28000;52CL0015K21;100
S28000;52CP0015I22;260
S28000;52CP006K22;202
S28000;52CV0015K22;183
S28000;52DB001I20;114
S28000;52DC0015I20;253
S28000;52DE001I21;155
S28000;52DH001I22;451
S28000;52DL002I21;110
S28000;52DS001I20;204
S28000;52ER002I21;166
S28000;52EV002I22;192
S28000;52GD0015A18;127
S28000;52HD001I23;81
S28000;52HD006A18;628
S28000;52HS001I17;87
S28000;52HS004A18;153
S28000;52LC006A20;498
S28000;52LGEBOX18;23
S28000;52LGENSA21;180
S28000;52MA003K22A;61
S28000;52MC001I23;546
S28000;52MC006G21;192
S28000;52MGEBOX18;36
S28000;52MGENSA21GPS;144
S28000;52MOCOL316;2
S28000;52MS001I20;82
S28000;52OR001I21;683
S28000;52PMGBOX18;26
S28000;52PS0015R21;125
S28000;52SE0015I22;164
S28000;52SGENSA21GPS;153
S28000;52SH006E19;367
S28000;52SH006FV21;211
S28000;52SH006G21;431
S28000;52SH006P19;143
S28000;52TS001I22;519
S28000;52TS001R21;160
S28000;52YGERIB20;5
S28000;98BBGD030VE4;32
S28000;98BBMA010KA3;66
S28000;ACPOCVEC00001;330
S28000;ACPOCVEC00002;489
S28000;ACPOCVEC00003;231
S28000;ACPOCVEC00004;138
S20;17RS500P19;25
S20;17SE100FV21;17
S20;17SH060SE21;6
S20;17SH060SG21;6
S20;17SH060SP21;6
S20;17SH300E19;13
S20;17SH300FV21;12
S20;17SH300G21;14
S20;17SH300P19;12
S20;17SH500E19;17
S20;17SH500FV21;20
S20;17SH500G21;16
S20;17SH500P19;16
S20;20AR075O20;14
S20;20DO050O20;11
S20;20DO075CD20;8
S20;20DO130HC20;11
S20;20ET075CD21;5
S20;20ET075HC20;3
S20;20ET075OC20;4
S20;20GD250CD20;6
S20;20GD250HC20;22
S20;20GD250OC20;7
S20;20GD500HC20;15
S20;20NV150H20;10
S20;20SA050CD20;4
S20;20SA050HC20;4
S20;24BL012CB5;12
S20;24BL012R22;11
S20;24BR050CB21;11
S20;24BR050R22;13
S20;24ET075CB21;10
S20;24ET075R22;2
S20;24GD250CB21;22
S20;24GD250R22;19
S20;24GD500R22;17
S20;24LC250CB21;16
S20;24LC250R22;17
S20;24MA030CB21;24
S20;24MA030P21;12
S20;24MA030R22;27
S20;24MA075CB21;14
S20;24MA075P21;6
S20;24MA075R22;15
S20;24MA150R22;14
S20;24RG500CB21;19
S20;24RG500R22;21
S20;24RO010CB21;7
S20;24SA050CB21;8
S20;24SA050R22;10
S20;27BD060I23;9
S20;27BY015I22;7
S20;27CP050I22;14
S20;27DB015I20;17
S28000;ACPOCVEC00005;117
S28000;SGOCVE600006;48
S20;27DC050I20;19
S20;27DE015I21;12
S20;27DH015I22;22
S20;27DH030I22;21
S20;27DL200I21;7
S20;27DS030I20;8
S20;27ER015I22;17
S20;27ER050I23;10
S20;27ER150I21;11
S20;27ER150I23;15
S20;27EV200I22;15
S20;27HD200I23;8
S20;27HS030I18;1
S20;27HSR030I16;3
S20;27MC125I23;25
S20;27MP150I22;19
S20;27MQ065I15A;4
S20;27MS050I20;5
S20;27OR030I21;36
S20;27OR050I21;46
S20;27SE075I22;11
S20;29ASH240A20;6
S20;29BP100A22;5
S20;29EC200A22;13
S20;29GE200A21;25
S20;29HD075A15;18
S20;29HD250A15;29
S20;29HD500A15;50
S20;29HS100A21;20
