S24000;52SH006E19;113
S24000;52SH006FV21;55
S24000;52SH006G21;125
S24000;52SH006P19;83
S24000;52SLEMM23;5
S24000;52TS001I22;354
S24000;52TS001R21;93
S24000;ACPOCVEC00001;90
S24000;ACPOCVEC00002;228
S24000;ACPOCVEC00003;129
S24000;ACPOCVEC00004;100
S24000;SGOCVE600006;63
S28000;01BK010K14;21
S31000;01BK010K14;19
S28000;01BL012K18;13
S31000;01BL012K18;13
S28000;01BM050K23;7
S31000;01BM050K23;9
S28000;01BM150K23;10
S31000;01BM150K23;10
S28000;01BP050K21;5
S31000;01BP050K21;10
S28000;01CCJ200K22;20
S31000;01CCJ200K22;11
S28000;01CD250K23;25
S31000;01CD250K23;25
S28000;01CL050K21;6
S31000;01CL050K21;4
S28000;01CL175K22;3
S31000;01CL175K22;5
S28000;01CM300K20;9
S31000;01CM300K20;4
S28000;01CM500K20;12
S31000;01CM500K20;12
S28000;01CMJ075K21;20
S31000;01CMJ075K21;23
S28000;01CMR500K20;8
S31000;01CMR500K20;3
S28000;01CP200K22;18
S31000;01CP200K22;7
S28000;01CPR200K22;10
S31000;01CPR200K22;1
S28000;01CV050K22;7
S31000;01CV050K22;3
S28000;01EC200K22;17
S31000;01EC200K22;9
S28000;01EM030K23;7
S31000;01EM030K23;8
S28000;01HD250K17;10
S31000;01HD250K17;6
S28000;01HD500K20;7
S31000;01HD500K20;9
S28000;01HDR500K20;13
S31000;01HDR500K20;10
S31000;01HF100K17;3
S28000;01HN0075K23;8
S31000;01HN0075K23;5
S28000;01HV030K16;2
S31000;01HV030K23;4
S28000;01HV030K23;9
S28000;01LB012KB23;5
S28000;01LC250K23;7
S31000;01LC250K24;21
S28000;01LC250K24;19
S31000;01LT300K20;13
S10;01BK010K14;16
S20;01BK010K14;23
S10;01BL012K18;12
S20;01BL012K18;15
S20;01BM050K23;11
S10;01BM050K23;9
S20;01BM150K23;29
S10;01BM150K23;19
S10;01BP050K21;10
S20;01BP050K21;9
S10;01CCJ200K22;10
S20;01CCJ200K22;16
S20;01CD250K23;29
S10;01CD250K23;21
S10;01CL050K21;13
S20;01CL050K21;10
S20;01CL175K22;4
S10;01CL175K22;3
S20;01CM300K20;1
S10;01CM300K20;10
S20;01CM500K20;15
S10;01CM500K20;5
S20;01CMJ075K21;24
S10;01CMJ075K21;7
S10;01CMR500K20;9
S20;01CMR500K20;18
S20;01CP200K22;20
S10;01CP200K22;14
S20;01CPR200K22;18
S10;01CPR200K22;13
S10;01CV050K22;6
S20;01CV050K22;13
S20;01EC200K22;9
S10;01EC200K22;12
S20;01EM030K23;10
S10;01EM030K23;9
S20;01HD250K17;9
S10;01HD250K17;5
S20;01HD500K20;13
S10;01HD500K20;5
S10;01HDR500K20;8
S20;01HDR500K20;13
S20;01HF100K17;10
S10;01HF100K17;5
S20;01HN0075K23;8
S10;01HN0075K23;4
S20;01HV030K23;10
S10;01HV030K23;4
S10;01LB012KB23;3
S10;01LC250K17;1
S20;01LC250K24;27
S10;01LC250K24;22
S20;01LT300K20;11
S10;01LT300K20;17
S21000;01BK010K14;18
S29000;01BK010K14;6
S21000;01BL012K18;13
S29000;01BL012K18;29
S21000;01BM050K23;13
S29000;01BM050K23;7
S21000;01BM150K23;14
S29000;01BM150K23;12
S21000;01BP050K21;18
S29000;01BP050K21;1
S21000;01CCJ200K22;8
S29000;01CCJ200K22;12
S21000;01CD250K23;16
S29000;01CD250K23;12
S29000;01CF050K22;5
S21000;01CL050K21;4
S29000;01CL050K21;9
S21000;01CL175K22;5
S29000;01CL175K22;4
S21000;01CM300K20;4
S29000;01CM300K20;4
S29000;01CM500K20;28
S21000;01CM500K20;10
S21000;01CMJ075K21;13
S29000;01CMJ075K21;9
S21000;01CMR500K20;6
S29000;01CMR500K20;21
S29000;01CP200K22;38
S21000;01CP200K22;9
S21000;01CPR200K22;5
S29000;01CPR200K22;17
S21000;01CV050K22;11
S29000;01CV050K22;4
S21000;01EC200K22;12
S29000;01EC200K22;25
S21000;01EM030K23;10
S29000;01EM030K23;15
S21000;01HD250K17;4
S29000;01HD250K17;4
S29000;01HD500K20;8
S21000;01HD500K20;5
S21000;01HDR500K20;7
S29000;01HDR500K20;37
S21000;01HF100K17;6
S29000;01HF100K17;10
S21000;01HN0075K23;5
S29000;01HN0075K23;12
S29000;01HV030K23;4
S21000;01HV030K23;2
S29000;01LB012KB23;13
S29000;01LC250K17;1
S29000;01LC250K24;25
S21000;01LC250K24;26
S90000;01BK010K14;11
S90000;01BL012K18;12
S90000;01BL012KC22H;11
S90000;01BL012KG22H;16
S90000;01BM050K23;12
S90000;01BM150K23;14
S90000;01BP050K21;10
S90000;01CCJ200K22;12
S90000;01CD250K17;12
S90000;01CD250K23;15
S90000;01CD250KC22H;3
S90000;01CE200KC22H;16
S90000;01CF030KB23;4
S90000;01CL050K21;8
S90000;01CL175K22;7
S90000;01CL200K17;18
S90000;01CL200KG22H;13
S90000;01CL300KB20;11
S90000;01CM300K20;5
S90000;01CM500K20;16
S90000;01CMJ075K21;13
S90000;01CMR500K20;18
S90000;01CP050K22;16
S90000;01CP100K21H;8
S90000;01CP200K22;14
S90000;01CPR200K22;5
S90000;01CV050K18;18
S90000;01CV050K22;8
S90000;01EC200K17;2
S90000;01EC200K22;14
S90000;01EM030K23;10
S90000;01EM075K20;2
S90000;01HD250K17;7
S90000;01HD500K20;9
S90000;01HDR500K20;15
S90000;01HF100K17;10
S90000;01HN0075K19;6
S90000;01HN0075K23;6
S90000;01HV030K16;9
S90000;01HV030K23;6
S90000;01KTPWP21;13
S90000;01LC250K24;15
S90000;01LH300KB19;10
S90000;01LT300K20;8
S90000;01MA030K22;15
S90000;01MA030K22H;21
S90000;01MA030KC22H;1
S90000;01MA030KG22H;9
S90000;01MA075K22;8
S90000;01MA150K22;11
S90000;01MA150KC22H;25
S90000;01MD200KG22H;10
S90000;01MR030K14;15
S28000;01LT300K20;15
S28000;01MA030K22;17
S31000;01MA030K22;28
S31000;01MA075K22;12
S28000;01MA075K22;8
S28000;01MA150K22;19
S31000;01MA150K22;26
S31000;01MR030K14;14
S28000;01MR030K14;18
S31000;01PI030K18;13
S28000;01PI030K18;9
S31000;01PI150K18;10
S28000;01PI150K18;21
S28000;01RL500K20;8
S31000;01RL500K20;2
S31000;01RV500K20;8
S28000;01RV500K20;10
S28000;01SA100LT20;18
S31000;01SA100LT20;4
S31000;01SA100LV20;5
S28000;01SA100LV20;16
S31000;01SA100VE20;8
S28000;01SA100VE20;18
S28000;01SA250LT20;12
S31000;01SA250LT20;5
S28000;01SA250LV20;19
S31000;01SA250LV20;5
S31000;01SA250VE20;4
S28000;01SA250VE20;21
S31000;01SA300KRO22;4
S28000;01SA300KRO22;1
S28000;01SA500KRO22;6
S31000;01SA500KRO22;6
S31000;01SA9000KV21;1
S28000;01SA9000KV21;1
S31000;01SAR500KRO22;13
S28000;01SAR500KRO22;14
S28000;01SL0045K13;35
S31000;01SL0045K13;15
S28000;01SL300LV20;5
S31000;01SL300LV20;1
S28000;01SL300VE20;11
S31000;01SL300VE20;4
S28000;01SL500LV20;5
S31000;01SL500LV20;5
S28000;01SL500VE20;9
S31000;01SL500VE20;3
S31000;10EST250V21;29
S28000;10EST250V21;32
S31000;10EST500V21;24
S28000;10EST500V21;25
S28000;10P250V21;32
S10;01MA030K22;39
S20;01MA030K22;49
S10;01MA075K22;16
S20;01MA075K22;16
S10;01MA150K22;20
S20;01MA150K22;28
S20;01MA150KG22H;14
S10;01MR030K14;15
S20;01MR030K14;15
S10;01PI030K18;5
S20;01PI030K18;13
S10;01PI150K18;15
S20;01PI150K18;18
S10;01RL500K20;6
S20;01RL500K20;16
S10;01RV500K20;10
S20;01RV500K20;22
S10;01SA100LT20;15
S20;01SA100LT20;23
S10;01SA100LV20;14
S20;01SA100LV20;26
S10;01SA100VE20;14
S20;01SA100VE20;18
S10;01SA250LT20;18
S20;01SA250LT20;18
S10;01SA250LV20;18
S20;01SA250LV20;19
S10;01SA250VE20;23
S20;01SA250VE20;22
S10;01SA300KRO22;7
S20;01SA300KRO22;5
S10;01SA500KRO22;6
S20;01SA500KRO22;8
S10;01SAR500KRO22;12
S20;01SAR500KRO22;12
S20;01SL0045K13;23
S10;01SL0045K13;35
S20;01SL0045KR22;11
S10;01SL300LV20;5
S20;01SL300LV20;2
S10;01SL300VE20;6
S20;01SL300VE20;10
S10;01SL500LV20;6
S20;01SL500LV20;6
S10;01SL500VE20;7
S20;01SL500VE20;9
S10;11AS040SG22;9
S20;11AS040SG22;19
S10;11AT050HL23;8
S20;11AT050HL23;13
S10;11BG140CS19;6
S20;11BG140CS19;8
S10;11BG140SH19;12
S20;11BG140SH19;8
S90000;SGOCVKI00234;60
S90000;SGOCVKI00235;3
S90000;SGOCVKI00236;8
S90000;SGOCVKI00248;11
S21000;01LT300K20;13
S29000;01LT300K20;11
S21000;01MA030K22;111
S29000;01MA030K22;13
S21000;01MA075K22;19
S29000;01MA075K22;16
S21000;01MA150K22;19
S29000;01MA150K22;40
S21000;01MR030K14;74
S29000;01MR030K14;23
S29000;01PI030K18;3
S21000;01PI030K18;9
S21000;01PI150K18;11
S29000;01PI150K18;25
S21000;01RL500K20;10
S29000;01RL500K20;58
S21000;01RV500K20;15
S29000;01RV500K20;44
S21000;01SA100LT20;9
S29000;01SA100LT20;16
S29000;01SA100LV20;20
S21000;01SA100LV20;10
S29000;01SA100VE20;20
S21000;01SA100VE20;13
S21000;01SA250LT20;13
S29000;01SA250LT20;8
S21000;01SA250LV20;15
S29000;01SA250LV20;16
S21000;01SA250VE20;18
S29000;01SA250VE20;1
S29000;01SA300KRO22;3
S21000;01SA300KRO22;5
S21000;01SA500KRO22;6
S29000;01SA500KRO22;2
S21000;01SAR500KRO22;10
S29000;01SAR500KRO22;30
S21000;01SL0045K13;23
S29000;01SL0045K13;23
S21000;01SL300LV20;5
S29000;01SL300LV20;11
S21000;01SL300VE20;6
S29000;01SL300VE20;11
S21000;01SL500LV20;6
S29000;01SL500LV20;11
S21000;01SL500VE20;10
S29000;01SL500VE20;10
S21000;11AS040SG22;12
S29000;11AS040SG22;11
S29000;11AT050HL23;5
S21000;11AT050HL23;7
S21000;11BG140CS19;6
S29000;11BG140CS19;12
S90000;01PI030K18;15
S90000;01PI150K18;14
S90000;01PWPKT22;22
S90000;01RL500K20;17
S90000;01RV500K20;18
S90000;01SA050KC22H;8
S90000;01SA050KG22H;11
S90000;01SA100LT20;15
S90000;01SA100LV20;10
S90000;01SA100VE20;10
S90000;01SA250LT20;16
S90000;01SA250LV20;12
S90000;01SA250VE20;11
S90000;01SA300KRO22;8
S90000;01SA500KRO22;15
S90000;01SAR500KRO22;14
S90000;01SL0045K13;8
S90000;01SL300LV20;8
S90000;01SL300VE20;9
S90000;01SL500LV20;15
S90000;01SL500RO20;1
S90000;01SL500VE20;16
S90000;10BOWEB219;611
S90000;10BOWEB319;755
S90000;10BOWEB419;463
S90000;10CRAKT22;8
S90000;11AT050HL23;11
S90000;11BG140CS19;10
S90000;11BG140SH19;9
S90000;11BG140SI19;9
S90000;11BG140SL19;12
S90000;11BH050A18;9
S90000;11BO100CS19;13
S90000;11BO100CS22H;13
S90000;11BP100I19;8
S90000;11BR100A20;9
S90000;11BS020K23;15
S90000;11CD050A18;9
S90000;11CF100TR19;19
S90000;11CM030H19;9
S90000;11CM030H20;13
S90000;11CM030O21;30
S90000;11CM125I19;8
S90000;11CM200AT23;1
S90000;11CM200AT23C;35
S90000;11EC200AT23;21
S90000;11EH150A18;8
S90000;11EP010H19;4
S90000;11EP050H19;5
S90000;11ET010H20;10
S90000;11ET050H20;8
S90000;11ET075O21;11
S31000;10P250V21;29
S31000;10P500V21;24
S28000;10P500V21;25
S31000;11AS040SG22;11
S28000;11AS040SG22;4
S31000;11AS90005G21;1
S28000;11AS90005G21;1
S31000;11AT050HL23;16
S28000;11AT050HL23;4
S31000;11BG140CS19;5
S28000;11BG140CS19;10
S31000;11BG140SH19;5
S28000;11BG140SH19;5
S28000;11BG140SI19;5
S31000;11BG140SI19;5
S28000;11BG140SL19;4
S31000;11BG140SL19;2
S28000;11BH050A18;1
S31000;11BH050A18;5
S28000;11BO100CS19;13
S31000;11BO100CS19;20
S28000;11BP100I19;3
S31000;11BP100I19;5
S28000;11BR100A20;4
S31000;11BR100A20;4
S31000;11BS020K23;15
S28000;11CD050A18;4
S31000;11CD050A18;5
S28000;11CF100TR19;13
S31000;11CF100TR19;14
S31000;11CM030H19;11
S28000;11CM030H19;11
S28000;11CM030H20;17
S31000;11CM030H20;12
S28000;11CM030O21;5
S31000;11CM030O21;15
S31000;11CM125I19;11
S28000;11CM125I19;10
S31000;11CM200AT23;9
S28000;11CM200AT23;17
S31000;11CM200AT23C;36
S28000;11CM200AT23C;30
S31000;11EC200AT23;40
S28000;11EC200AT23;54
S28000;11EH150A18;2
S31000;11EH150A18;5
S28000;11EP010H19;4
S31000;11EP010H19;9
S31000;11ET010H20;12
S28000;11ET010H20;10
S31000;11ET050H20;2
S28000;11ET050H20;3
S21000;11BG140SH19;5
S29000;11BG140SH19;15
S21000;11BG140SI19;5
S29000;11BG140SI19;4
S21000;11BG140SL19;4
S29000;11BG140SL19;3
S21000;11BH050A18;6
S29000;11BH050A18;12
S21000;11BO100CS19;11
S29000;11BO100CS19;9
S21000;11BP100I19;4
S29000;11BP100I19;4
S21000;11BR100A20;7
S29000;11BR100A20;13
S21000;11CD050A18;1
S29000;11CD050A18;9
S21000;11CF100TR19;13
S29000;11CF100TR19;15
S21000;11CM030H19;11
S29000;11CM030H19;51
S21000;11CM030H20;15
S29000;11CM030H20;16
S21000;11CM030O21;10
S29000;11CM030O21;17
S21000;11CM125I19;10
S29000;11CM125I19;21
S21000;11CM200AT23;3
S29000;11CM200AT23;6
S21000;11CM200AT23C;33
S29000;11CM200AT23C;38
S29000;11EC200AT23;44
S21000;11EC200AT23;28
S21000;11EH150A18;4
S29000;11EH150A18;6
S21000;11EP010H19;11
S29000;11EP010H19;13
S21000;11ET010H20;10
S29000;11ET010H20;10
S29000;11ET050H20;3
S21000;11ET050H20;6
S21000;11ET075O21;7
S21000;11FAG10TR19;11
S29000;11FAG10TR19;18
S21000;11GD050A18;6
S29000;11GD050A18;14
S29000;11GD250H19;13
S21000;11GD250H19;12
S21000;11GD250H20;12
S29000;11GD250H20;10
S21000;11GD250O21;11
S29000;11GD250O21;14
S21000;11GE075I20;5
S29000;11GE075I20;3
S10;11BG140SI19;5
S20;11BG140SI19;5
S10;11BG140SL19;4
S10;11BH050A18;1
S20;11BH050A18;4
S10;11BO100CS19;4
S20;11BO100CS19;13
S10;11BP100I19;4
S20;11BP100I19;6
S10;11BR100A20;2
S20;11BR100A20;8
S10;11CD050A18;5
S20;11CD050A18;6
S10;11CF100TR19;5
S20;11CF100TR19;5
S10;11CM030H19;13
S20;11CM030H19;12
S10;11CM030H20;12
S20;11CM030H20;14
S10;11CM030O21;7
S20;11CM030O21;13
S10;11CM125I19;4
S20;11CM125I19;4
S10;11CM200AT23;9
S20;11CM200AT23;9
S10;11CM200AT23C;30
S20;11CM200AT23C;32
S10;11EC200AT23;33
S20;11EC200AT23;40
S10;11EH150A18;5
S20;11EH150A18;4
S10;11EP010H19;7
S20;11EP010H19;11
S10;11ET010H20;7
S20;11ET010H20;12
S10;11ET050H20;5
S20;11ET050H20;4
S10;11ET075O21;5
S20;11ET075O21;9
S10;11FAG10TR19;39
S20;11FAG10TR19;10
S10;11GD050A18;5
S20;11GD050A18;6
S10;11GD250H19;17
S20;11GD250H19;15
S10;11GD250H20;9
S20;11GD250H20;16
S10;11GD250O21;12
S20;11GD250O21;17
S10;11GE075I20;4
S20;11GE075I20;5
S10;11GM200I19;15
S20;11GM200I19;9
S10;11GN195A18;13
S29000;11GM200I19;22
S21000;11GM200I19;12
S29000;11GN195A18;14
S21000;11GN195A18;12
S29000;11LC250H19;59
S21000;11LC250H19;8
S29000;11LC250H20;26
S21000;11LC250H20;10
S29000;11LC250O21;38
S21000;11LC250O21;7
S29000;11LD200I19;13
S21000;11LD200I19;10
S21000;11LH200I19;3
S29000;11LH200I19;11
S21000;11LT300I20;12
S21000;11MH075A19;3
S29000;11MH075A19;5
S21000;11MWC200I19;4
S29000;11MWC200I19;11
S29000;11PEP050I20;4
S21000;11PM100SH19;4
S29000;11PM100SH19;11
S29000;11PM100SI19;8
S21000;11PM100SI19;4
S21000;11SA050O21;6
S29000;11SA050O21;17
S21000;11SA100H20;6
S29000;11SA100H20;8
S29000;11SAF100H20;10
S21000;11SAF100H20;7
S21000;11SD100CS19;2
S29000;11SD100CS19;16
S21000;11SD100SH19;5
S29000;11SD100SH19;12
S21000;11SD100SI19;5
S29000;11SD100SI19;7
S21000;11SH300AD22;10
S29000;11SH300AD22;6
S29000;11SP200CS19;12
S21000;11SP200SH19;4
S29000;11SP200SH19;13
S21000;11SP200SI19;4
S29000;11SP200SI19;8
S21000;11SV080I19;4
S29000;11SV080I19;11
S21000;15AS250VA18;6
S29000;15AS250VA18;14
S21000;15BA500L16A;13
S29000;15BA500L16A;7
S21000;15BM500VB21;10
S29000;15BM500VB21;1
S21000;15BR050VBM23;11
S90000;11FAG10TR19;9
S90000;11GD050A18;8
S90000;11GD075O21;365
S90000;11GD250H19;10
S90000;11GD250H20;15
S90000;11GD250O21;12
S90000;11GE075I20;4
S90000;11GM200I19;6
S90000;11GN195A18;7
S90000;11HE005CS19;12
S90000;11LC250H19;10
S90000;11LC250H20;12
S90000;11LC250O21;11
S90000;11LD200I19;9
S90000;11LH200I19;8
S90000;11LT300I20;10
S90000;11MH075A19;7
S90000;11MWC200I19;4
S90000;11PM100SH19;10
S90000;11PM100SI19;9
S90000;11SA050O21;11
S90000;11SA100H20;10
S90000;11SAF100H20;10
S90000;11SD100CS19;13
S90000;11SD100SH19;13
S90000;11SD100SI19;14
S90000;11SH300AD22;15
S90000;11SP200CS19;5
S90000;11SP200SH19;5
S90000;11SP200SI19;6
S90000;11SV080I19;7
S90000;12GD245NO21H;15
S90000;12LC250NO22;1
S90000;15AS250VA18;9
S90000;15BA500L16A;9
S90000;15BM500VB21;25
S90000;15CF150VBL21;7
S90000;15DF200VBL21;19
S90000;15DO050VA22;10
S90000;15ET010VB19;6
S90000;15ET100VA20;9
S90000;15ET100VB20;8
S90000;15GD070VB21;101
S90000;15GD075L21;29
S90000;15GD250L21;15
S90000;15GD250VA20;10
S90000;15GD250VBL22;110
S90000;15GD500VB21;4
S90000;15GM065L21;13
S90000;15GM065VB21;17
S90000;15GM280VB21;7
S90000;15GN300L21;14
S31000;11ET075O21;10
S28000;11ET075O21;6
S31000;11FAG10TR19;9
S28000;11FAG10TR19;13
S31000;11GD050A18;5
S28000;11GD050A18;10
S31000;11GD250H19;6
S28000;11GD250H19;13
S31000;11GD250H20;11
S28000;11GD250H20;11
S28000;11GD250O21;13
S31000;11GD250O21;4
S31000;11GE075I20;3
S28000;11GE075I20;1
S31000;11GM200I19;8
S28000;11GM200I19;12
S31000;11GN195A18;9
S28000;11GN195A18;13
S31000;11LC250H19;8
S28000;11LC250H19;24
S31000;11LC250H20;7
S28000;11LC250H20;11
S31000;11LC250O21;6
S28000;11LC250O21;13
S31000;11LD200I19;8
S28000;11LD200I19;14
S28000;11LH200I19;11
S31000;11LH200I19;10
S28000;11LT300I20;3
S31000;11LT300I20;3
S28000;11MH075A19;4
S31000;11MH075A19;4
S31000;11MWC200I19;4
S28000;11MWC200I19;3
S28000;11PEP050I20;2
S31000;11PEP050I20;1
S31000;11PM100SH19;5
S28000;11PM100SH19;2
S31000;11PM100SI19;4
S28000;11PM100SI19;5
S28000;11SA050O21;7
S31000;11SA050O21;2
S28000;11SA100H20;5
S31000;11SAF100H20;7
S28000;11SAF100H20;11
S28000;11SD100CS19;14
S31000;11SD100CS19;11
S28000;11SD100SH19;13
S31000;11SD100SH19;9
S28000;11SD100SI19;4
S31000;11SD100SI19;5
S31000;11SH300AD22;10
S28000;11SH300AD22;25
S29000;15BR050VBM23;12
S21000;15DE200VAL23;1
S29000;15DO050VA22;19
S29000;15ET010VB19;8
S21000;15ET010VB19;4
S29000;15ET100VA20;7
S21000;15ET100VA20;5
S29000;15ET100VB20;4
S21000;15ET100VB20;5
S29000;15ET100VBL23;2
S21000;15ET100VBL23;2
S21000;15ET100VCL23;14
S21000;15GD250L21;10
S29000;15GD250L21;22
S21000;15GD250VA20;8
S29000;15GD250VA20;9
S29000;15GD250VB21;1
S21000;15GD250VCL23;24
S29000;15GD500VB23;51
S21000;15GD500VB23;9
S21000;15GM065L21;13
S29000;15GM065L21;17
S29000;15GM065VB21;24
S21000;15GM065VB21;13
S21000;15GM280VB21;5
S29000;15GM280VB21;8
S21000;15GN300L21;8
S29000;15GN300L21;23
S29000;15HE005L14;1
S21000;15HE005L14;5
S21000;15LC250L14;10
S29000;15LC250L14;26
S21000;15LC250VA20;5
S29000;15LC250VA20;17
S21000;15LC250VB3;9
S29000;15LC250VB3;22
S21000;15LC250VCL23;18
S21000;15LM300L11;6
S29000;15LM300L11;17
S29000;15MA030L21;21
S21000;15MA030L21;23
S29000;15MA030VA5;10
S21000;15MA030VA5;6
S29000;15MA030VB3;29
S21000;15MA030VB3;10
S21000;15MA030VBM8;10
S29000;15MA030VBM8;32
S21000;15MA030VCL23;30
S29000;15MA075L20;16
S21000;15MA075L20;10
S29000;15MA075VB4;37
S21000;15MA075VB4;10
S10;52CL0015K21;6
S10;52CP0015I22;23
S10;52CV0015K22;38
S10;52DB001I20;67
S10;52DC0015I20;208
S10;52DE001I21;118
S10;52DH001I22;97
S10;52DL002I21;163
S10;52DS001I20;63
S10;52ER002I21;14
S10;52EV002I22;100
S10;52GD0015A18;25
S10;52HD001I23;169
S10;52HS001I17;60
S10;52HS004A18;281
S10;52LC006A20;165
S10;52LGEBOX18;3
S10;52LGENSA21;60
S10;52MC006G21;6
S10;52MGEBOX18;15
S10;52MOCOL316;1
S10;52MS001I20;61
S10;52OR001I21;367
S10;52PS0015R21;143
S10;52SE0015I22;52
S10;52SH006E19;177
S10;52SH006FV21;320
S10;52SH006G21;233
S10;52SH006P19;175
S10;52TS001I22;290
S10;52TS001R21;160
S10;98BBGD030VE4;4
S10;98BBGD050VE2;1
S10;98BBLC050VE3;1
S10;98BBMA010KA3;95
S10;ACPOCVEC00001;313
S10;ACPOCVEC00002;584
S10;ACPOCVEC00003;87
S10;ACPOCVEC00004;80
S10;ACPOCVEC00005;56
S10;SGOCVE600004;1
S10;SGOCVE600006;35
S20;11GN195A18;14
S10;11LC250H19;19
S20;11LC250H19;13
S10;11LC250H20;8
S20;11LC250H20;13
S10;11LC250O21;7
S20;11LC250O21;14
S10;11LD200I19;7
S20;11LD200I19;1
S20;11LH200I19;6
S10;11LH200I19;9
S10;11LT300I20;4
S10;11MH075A19;4
S20;11MH075A19;3
S10;11MWC200I19;5
S20;11MWC200I19;3
S10;11PEP050I20;6
S20;11PEP050I20;3
S10;11PM100SH19;5
S20;11PM100SH19;5
S10;11PM100SI19;4
S20;11PM100SI19;6
S10;11SA050O21;4
S20;11SA050O21;5
S10;11SA100H19;2
S20;11SAF100H20;10
S10;11SD100CS19;11
S20;11SD100CS19;9
S20;11SD100SH19;3
S10;11SD100SH19;8
S10;11SD100SI19;15
S20;11SD100SI19;6
S10;11SH300AD22;17
S20;11SH300AD22;14
S20;11SP200CS19;7
S10;11SP200SH19;5
S20;11SP200SH19;7
S10;11SP200SI19;4
S20;11SP200SI19;5
S20;11SV080I19;3
S10;11SV080I19;5
S10;15AS250VA18;8
S20;15AS250VA18;5
S20;15BA500L16A;7
S10;15BA500L16A;14
S10;15BM500VB21;3
S20;15BM500VB21;2
S10;15BR050VBM23;12
S20;15BR050VBM23;13
S20;15DE200VAL23;2
S10;15DE200VAL23;11
S10;15DO050VA22;10
S20;15DO050VA22;10
S10;15ET010VB19;4
S90000;15HE005L14;10
S90000;15LC070VB5;117
S90000;15LC075L15;22
S90000;15LC250L14;11
S90000;15LC250VA20;12
S90000;15LC250VB3;14
S90000;15LM300L11;9
S90000;15MA030L21;72
S90000;15MA030VA5;10
S90000;15MA030VB3;14
S90000;15MA030VBM8;34
S90000;15MA075L20;10
S90000;15MA075VB4;9
S90000;15RC500VB21;12
S90000;15RG500L14;19
S90000;15RG500VA20;14
S90000;15RO010VBM22;10
S90000;15SA075VB21;9
S90000;15SH250VA20;9
S90000;17AF100G20;11
S90000;17AS075E19;120
S90000;17AS075FV21;33
S90000;17AS075G21;23
S90000;17AS075P19;50
S90000;17AS250E19;9
S90000;17AS250FV21;9
S90000;17AS250G21;8
S90000;17AS250P19;15
S90000;17AS500E19;15
S90000;17AS500FV21;19
S90000;17AS500G21;17
S90000;17AS500P19;16
S90000;17DO050F13;9
S90000;17ER075P19;12
S90000;17HB050A22;12
S90000;17HI001G19;100
S90000;17HI100G19;10
S90000;17MC200G21;12
S90000;17RC500E20;23
S90000;17RC500G18;63
S90000;17RC500G21;20
S90000;17RC500P19;23
S90000;17RS500E20;26
S90000;17RS500FV21;19
S90000;17RS500G21;19
S90000;17RS500P19;19
S90000;17SE100FV21;13
S90000;17SH060SE21;9
S90000;17SH060SG21;8
S90000;17SH060SP21;10
S90000;17SH075E19;117
S90000;17SH075FV21;25
S90000;17SH075G21;110
S24000;01BK010K14;12
S24000;01BL012K18;12
S24000;01BM050K23;8
S24000;01BM150K23;9
S24000;01BP050K21;6
S24000;01CCJ200K22;14
S24000;01CD250K23;10
S24000;01CL050K21;8
S24000;01CL175K22;4
S24000;01CM300K20;7
S24000;01CM500K20;10
S24000;01CMJ075K21;8
S24000;01CMR500K20;11
S24000;01CP200K22;9
S24000;01CPR200K22;7
S24000;01CV050K22;8
S24000;01EC200K22;12
S24000;01EM030K23;9
S24000;01HD250K17;9
S24000;01HD500K20;4
S24000;01HDR500K20;9
S24000;01HF100K17;3
S24000;01HN0075K23;7
S24000;01HV030K23;3
S24000;01LC250K23;3
S24000;01LC250K24;20
S24000;01LT300K20;18
S24000;01MA030K22;26
S24000;01MA075K22;12
S24000;01MA150K22;22
S24000;01MR030K14;13
S24000;01PI030K18;10
S24000;01PI150K18;12
S24000;01RL500K20;3
S24000;01RV500K20;7
S24000;01SA100LT20;9
S24000;01SA100LV20;10
S24000;01SA100VE20;1
S24000;01SA250LT20;9
S24000;01SA250LV20;11
S24000;01SA250VE20;13
S24000;01SA300KRO22;5
S24000;01SA500KRO22;6
S24000;01SAR500KRO22;6
S24000;01SL0045K13;25
S24000;01SL300LV20;4
S24000;01SL300VE20;4
S24000;01SL500LV20;2
S24000;01SL500VE20;4
S24000;11AS040SG22;12
S24000;11AT050HL23;10
S24000;11BG140CS19;3
S21000;15RC500VB21;7
S29000;15RG500L14;38
S21000;15RG500L14;11
S21000;15RG500VA20;15
S29000;15RG500VA20;42
S29000;15RO010VBM22;40
S21000;15RO010VBM22;3
S29000;15SA070VB6;2
S21000;15SA075VB21;9
S29000;15SA075VB21;3
S21000;15SE400VB5;1
S29000;15SH250VA20;14
S21000;15SH250VA20;9
S29000;17AF100G20;20
S21000;17AF100G20;17
S21000;17AS250E19;6
S29000;17AS250E19;15
S21000;17AS250FV21;6
S29000;17AS250FV21;8
S21000;17AS250G21;5
S29000;17AS250G21;24
S21000;17AS250P19;9
S29000;17AS250P19;10
S21000;17AS500E19;10
S29000;17AS500E19;26
S21000;17AS500FV21;12
S29000;17AS500FV21;12
S21000;17AS500G21;8
S29000;17AS500G21;21
S21000;17AS500P19;6
S29000;17AS500P19;6
S21000;17DO050F13;14
S29000;17DO050F13;15
S21000;17ER075P19;6
S29000;17ER075P19;5
S21000;17HB050A22;9
S29000;17HB050A22;13
S29000;17HI001G19;26
S21000;17HI100G19;16
S29000;17HI100G19;16
S21000;17MC200G21;11
S29000;17MC200G21;21
S21000;17RC500E20;13
S29000;17RC500E20;61
S21000;17RC500G21;10
S29000;17RC500G21;53
S21000;17RC500P19;1
S29000;17RC500P19;24
S21000;17RS500E20;21
S29000;17RS500E20;52
S21000;17RS500FV21;24
S29000;17RS500FV21;35
S21000;17RS500G21;14
S31000;11SH90005G21;1
S28000;11SH90005G21;1
S31000;11SP200CS19;3
S28000;11SP200CS19;10
S28000;11SP200SH19;12
S31000;11SP200SH19;4
S31000;11SP200SI19;4
S28000;11SP200SI19;3
S28000;11SV080I19;4
S31000;11SV080I19;5
S28000;15AS250VA18;9
S31000;15AS250VA18;8
S28000;15BA500L16A;17
S31000;15BA500L16A;7
S28000;15BM500VB21;23
S31000;15BM500VB21;2
S31000;15BR050VBM23;2
S28000;15BR050VBM23;11
S28000;15DE200VAL23;12
S31000;15DE200VAL23;23
S31000;15DO050VA22;4
S28000;15DO050VA22;19
S31000;15ET010VB19;8
S28000;15ET010VB19;4
S31000;15ET100VA20;3
S28000;15ET100VA20;9
S31000;15ET100VB20;5
S28000;15ET100VB20;4
S31000;15ET100VBL23;11
S28000;15ET100VBL23;5
S28000;15GD250L21;11
S31000;15GD250L21;11
S28000;15GD250VA20;6
S31000;15GD250VA20;4
S31000;15GD500VB23;6
S28000;15GD500VB23;12
S31000;15GD9000V21;1
S28000;15GD9000V21;1
S31000;15GM065L21;13
S28000;15GM065L21;74
S31000;15GM065VB21;11
S28000;15GM065VB21;47
S31000;15GM280VB21;4
S28000;15GM280VB21;5
S31000;15GN300L21;8
S28000;15GN300L21;12
S31000;15HE005L14;6
S28000;15HE005L14;10
S28000;15LC250L14;8
S31000;15LC250L14;7
S31000;15LC250VA20;6
S28000;15LC250VB3;9
S20;15ET010VB19;5
S20;15ET100VA20;4
S10;15ET100VA20;4
S10;15ET100VB20;5
S20;15ET100VB20;6
S10;15ET100VBL23;5
S20;15ET100VBL23;5
S10;15ET100VCL23;13
S20;15ET100VCL23;18
S10;15GD250L21;11
S20;15GD250L21;21
S10;15GD250VA20;9
S20;15GD250VA20;8
S20;15GD250VB21;1
S10;15GD250VCL23;24
S20;15GD250VCL23;28
S10;15GD500VB21;1
S20;15GD500VB21;1
S10;15GD500VB23;17
S20;15GD500VB23;20
S10;15GM065L21;41
S20;15GM065L21;16
S10;15GM065VB21;30
S20;15GM065VB21;20
S10;15GM280VB21;4
S20;15GM280VB21;6
S10;15GN300L21;8
S20;15GN300L21;14
S10;15HE005L14;6
S20;15HE005L14;6
S10;15LC250L14;15
S20;15LC250L14;14
S10;15LC250VA20;8
S20;15LC250VA20;6
S10;15LC250VB3;8
S20;15LC250VB3;14
S10;15LC250VCL23;18
S20;15LC250VCL23;18
S10;15LM300L11;5
S20;15LM300L11;15
S10;15MA030L21;22
S20;15MA030L21;20
S10;15MA030VA5;6
S20;15MA030VA5;7
S10;15MA030VB3;8
S20;15MA030VB3;7
S10;15MA030VBM8;22
S20;15MA030VBM8;28
S10;15MA030VCL23;30
S20;15MA030VCL23;30
S10;15MA075L20;7
S20;15MA075L20;16
S10;15MA075VB4;11
S20;15MA075VB4;10
S24000;11BG140SH19;3
S24000;11BG140SI19;3
S24000;11BG140SL19;2
S24000;11BH050A18;4
S24000;11BO100CS19;7
S24000;11BP100I19;4
S24000;11BR100A20;3
S24000;11BS020K23;15
S24000;11CD050A18;4
S24000;11CF100TR19;4
S24000;11CM030H19;12
S24000;11CM030H20;12
S24000;11CM030O21;9
S24000;11CM200AT23;4
S24000;11CM200AT23C;30
S24000;11EC200AT23;41
S24000;11EH150A18;4
S24000;11EP010H19;4
S24000;11ET010H20;3
S24000;11ET050H20;2
S24000;11ET075O21;4
S24000;11FAG10TR19;5
S24000;11GD050A18;5
S24000;11GD250H19;11
S24000;11GD250H20;8
S24000;11GD250O21;10
S24000;11GE075I20;5
S24000;11GM200I19;15
S24000;11GN195A18;9
S24000;11LC250H19;16
S24000;11LC250H20;10
S24000;11LC250O21;7
S24000;11LD200I19;8
S24000;11LH200I19;6
S24000;11LT300I20;2
S24000;11MH075A19;8
S24000;11MWC200I19;3
S24000;11PEP050I20;1
S24000;11PM100SH19;5
S24000;11PM100SI19;3
S24000;11SA050O21;12
S24000;11SA100H20;2
S24000;11SAF100H20;8
S24000;11SD100CS19;5
S24000;11SD100SH19;7
S24000;11SD100SI19;5
S24000;11SH300AD22;14
S24000;11SP200CS19;6
S24000;11SP200SH19;4
S24000;11SV080I19;4
S24000;15AS250VA18;4
S24000;15BA500L16A;14
S29000;17RS500G21;18
S21000;17RS500P19;11
S29000;17RS500P19;9
S21000;17SE100FV21;20
S29000;17SE100FV21;11
S21000;17SH060SE21;4
S29000;17SH060SE21;3
S21000;17SH060SG21;4
S29000;17SH060SG21;5
S21000;17SH060SP21;5
S29000;17SH060SP21;6
S21000;17SH075E19;59
S29000;17SH075E19;53
S21000;17SH075G21;59
S29000;17SH075G21;48
S29000;17SH300E19;9
S21000;17SH300E19;21
S21000;17SH300FV21;13
S29000;17SH300FV21;5
S29000;17SH300G21;16
S21000;17SH300G21;7
S21000;17SH300P19;11
S29000;17SH300P19;12
S21000;17SH500E19;10
S29000;17SH500E19;20
S21000;17SH500FV21;12
S29000;17SH500FV21;12
S21000;17SH500G21;11
S29000;17SH500G21;31
S21000;17SH500P19;13
S29000;17SH500P19;19
S21000;17VI100P19;6
S29000;17VI100P19;6
S21000;20AR075O20;9
S29000;20AR075O20;6
S21000;20DO050O20;6
S29000;20DO050O20;8
S21000;20DO075CD20;6
S29000;20DO075CD20;4
S21000;20DO130HC20;6
S29000;20DO130HC20;9
S21000;20ET075CD21;5
S29000;20ET075CD21;4
S21000;20ET075HC20;5
S29000;20ET075HC20;5
S21000;20ET075OC20;5
S29000;20ET075OC20;4
S21000;20GD250CD20;9
S29000;20GD250CD20;19
S21000;20GD250HC20;9
S29000;20GD250HC20;14
S21000;20GD250OC20;9
S90000;17SH075P19;23
S90000;17SH300E19;9
S90000;17SH300FV21;9
S90000;17SH300G21;9
S90000;17SH300P19;9
S90000;17SH500E19;18
S90000;17SH500FV21;16
S90000;17SH500G21;19
S90000;17SH500P19;20
S90000;17VI100P19;12
S90000;20AR075O20;9
S90000;20DO050O20;12
S90000;20DO075CD20;9
S90000;20DO130HC20;10
S90000;20ET075CD20;8
S90000;20ET075HC20;10
S90000;20ET075OC20;10
S90000;20GD250CD20;11
S90000;20GD250HC20;12
S90000;20GD250OC20;12
S90000;20GD500HC20;18
S90000;20HR050H20;2
S90000;20NV150H20;10
S90000;20SA050CD20;10
S90000;20SA050HC20;11
S90000;24BL012CB5;9
S90000;24BL012R22;9
S90000;24BR050C21;4
S90000;24BR050CB21;8
S90000;24BR050R22;11
S90000;24CM030CBL23;1
S90000;24ET075CB21;10
S90000;24ET075R22;10
S90000;24GD075CB5;2
S90000;24GD075R22;7
S90000;24GD250CB21;12
S90000;24GD250R22;13
S90000;24GD500CB21;1
S90000;24GD500R22;14
S90000;24LC075R22;125
S90000;24LC250CB21;12
S90000;24LC250CB4;1
S90000;24LC250R22;10
S90000;24MA030CB21;26
S90000;24MA030P21;10
S90000;24MA030R22;17
S90000;24MA075CB21;10
S90000;24MA075P21;10
S90000;24MA075R22;12
S90000;24MA150R22;11
S90000;24RG500CB21;18
S90000;24RG500R22;18
S24000;15BM500VB21;11
S24000;15BR050VBM23;2
S24000;15DE200VAL23;5
S24000;15DO050VA22;5
S24000;15ET010VB19;2
S24000;15ET100VA20;4
S24000;15ET100VB20;6
S24000;15ET100VBL23;4
S24000;15GD250L21;9
S24000;15GD250VA20;4
S24000;15GD250VB21;1
S24000;15GD500VB23;8
S24000;15GM065L21;11
S24000;15GM065VB21;14
S24000;15GM280VB21;4
S24000;15GN300L21;11
S24000;15HE005L14;4
S24000;15LC250L14;9
S24000;15LC250VA20;8
S24000;15LC250VB3;7
S24000;15LM300L11;11
S24000;15MA030L21;16
S24000;15MA030VA5;10
S24000;15MA030VB3;8
S24000;15MA030VBM8;27
S24000;15MA075L20;11
S24000;15MA075VB4;4
S24000;15RC500VB21;11
S24000;15RG500L14;10
S24000;15RG500VA20;7
S24000;15SH250VA20;2
S24000;17AF100G20;17
S24000;17AS250E19;5
S24000;17AS250FV21;9
S24000;17AS250G21;5
S24000;17AS250P19;10
S24000;17AS500E19;9
S24000;17AS500FV21;11
S24000;17AS500G21;11
S24000;17AS500P19;6
S24000;17DO050F13;13
S24000;17ER075P19;5
S24000;17HB050A22;10
S24000;17HI001G19;116
S24000;17HI100G19;10
S24000;17MC200G21;10
S24000;17RC500E20;23
S24000;17RC500G21;17
S24000;17RC500P19;6
S24000;17RS500E20;10
S24000;17RS500FV21;19
S24000;17RS500G21;14
S24000;17RS500P19;16
S29000;20GD250OC20;14
S21000;20GD500HC20;7
S29000;20GD500HC20;36
S21000;20NV150H20;10
S29000;20NV150H20;9
S21000;20SA050CD20;4
S29000;20SA050CD20;3
S29000;20SA050HC20;5
S21000;20SA050HC20;4
S29000;24BL012CB5;13
S21000;24BL012CB5;7
S21000;24BL012R22;6
S29000;24BL012R22;13
S21000;24BR050CB21;7
S21000;24BR050R22;11
S29000;24BR050R22;21
S21000;24ET075CB21;9
S29000;24ET075CB21;14
S21000;24ET075R22;3
S29000;24ET075R22;10
S21000;24GD250CB21;11
S29000;24GD250CB21;11
S21000;24GD250R22;16
S29000;24GD250R22;22
S21000;24GD500R22;11
S29000;24GD500R22;16
S29000;24LC250CB21;17
S21000;24LC250CB21;7
S29000;24LC250R22;7
S21000;24LC250R22;7
S21000;24MA030CB21;22
S29000;24MA030CB21;32
S29000;24MA030P21;14
S21000;24MA030P21;8
S29000;24MA030R22;17
S21000;24MA030R22;15
S29000;24MA030RV19;2
S21000;24MA075CB21;18
S29000;24MA075CB21;14
S21000;24MA075P21;10
S29000;24MA075P21;12
S21000;24MA075R22;12
S29000;24MA075R22;20
S21000;24MA150R22;13
S29000;24MA150R22;16
S21000;24RG500CB21;11
S29000;24RG500CB21;35
S21000;24RG500R22;10
S29000;24RG500R22;48
S21000;24RO010CB21;9
S29000;24RO010CB21;9
S29000;24RO010CB4;1
S31000;15LC250VB3;7
S31000;15LM300L11;10
S28000;15LM300L11;12
S31000;15MA030L21;22
S28000;15MA030L21;25
S31000;15MA030VA5;1
S31000;15MA030VB3;10
S28000;15MA030VB3;10
S31000;15MA030VBM8;2
S28000;15MA030VBM8;33
S31000;15MA075L20;10
S28000;15MA075L20;11
S31000;15MA075VB4;1
S28000;15MA075VB4;8
S28000;15RC500VB21;12
S31000;15RC500VB21;3
S31000;15RG500L14;7
S28000;15RG500L14;2
S28000;15RG500VA20;8
S28000;15RO010VBM22;64
S28000;15SA075VB21;4
S31000;15SA075VB21;3
S31000;15SH250VA20;4
S28000;15SH250VA20;5
S31000;17AF100G20;10
S28000;17AF100G20;8
S31000;17AS250E19;5
S28000;17AS250E19;5
S31000;17AS250FV21;5
S28000;17AS250FV21;5
S31000;17AS250G21;12
S28000;17AS250G21;7
S31000;17AS250P19;11
S28000;17AS250P19;14
S31000;17AS500E19;9
S28000;17AS500E19;19
S31000;17AS500FV21;5
S28000;17AS500FV21;11
S31000;17AS500G21;10
S28000;17AS500G21;13
S31000;17AS500P19;4
S28000;17AS500P19;6
S31000;17DO050F13;9
S28000;17DO050F13;15
S31000;17ER075P19;6
S28000;17ER075P19;13
S31000;17HB050A22;10
S28000;17HB050A22;14
S31000;17HI001G19;50
S28000;17HI001G19;76
S31000;17HI100G19;7
S28000;17HI100G19;8
S31000;17MC200G21;10
S10;15RC500VB21;10
S20;15RC500VB21;3
S10;15RG500L14;11
S20;15RG500L14;22
S20;15RG500VA20;17
S10;15RG500VA20;12
S10;15RO010VBM22;20
S20;15RO010VBM22;16
S10;15SA075VB21;1
S20;15SA075VB21;5
S10;15SH250VA20;13
S20;15SH250VA20;14
S10;17AF100G20;13
S20;17AF100G20;15
S10;17AS250E19;5
S20;17AS250E19;5
S20;17AS250FV21;11
S10;17AS250FV21;5
S20;17AS250G21;6
S10;17AS250G21;5
S10;17AS250P19;12
S20;17AS250P19;11
S20;17AS500E19;11
S10;17AS500E19;5
S20;17AS500FV21;13
S10;17AS500FV21;8
S20;17AS500G21;16
S10;17AS500G21;13
S20;17AS500P19;5
S10;17AS500P19;6
S20;17DO050F13;23
S10;17DO050F13;12
S20;17ER075P19;6
S10;17ER075P19;6
S20;17HB050A22;11
S10;17HB050A22;9
S10;17HI001G19;81
S20;17HI001G19;72
S20;17HI100G19;12
S10;17HI100G19;12
S10;17MC200G21;13
S20;17MC200G21;15
S20;17RC500E20;10
S10;17RC500E20;16
S10;17RC500G21;15
S20;17RC500G21;17
S20;17RC500P19;11
S10;17RC500P19;5
S10;17RS500E20;13
S20;17RS500E20;21
S20;17RS500FV21;16
S10;17RS500FV21;17
S10;17RS500G21;17
S20;17RS500G21;20
S90000;24RO010CB21;10
S90000;24SA050CB21;9
S90000;24SA050R22;10
S90000;27BD060I23;10
S90000;27BY015I22;10
S90000;27CP050I22;10
S90000;27DB015I20;10
S90000;27DC050I20;286
S90000;27DCB060I17;8
S90000;27DE015I21;10
S90000;27DF125I17;1
S90000;27DH015I20;9
S90000;27DH015I22;13
S90000;27DH030I20;31
S90000;27DH030I22;23
S90000;27DL200I21;12
S90000;27DS030I20;9
S90000;27ER015I22;12
S90000;27ER150I21;5
S90000;27EV200I22;18
S90000;27HC050I18;3
S90000;27HCR050I16;4
S90000;27HD200I23;12
S90000;27HS030I18;4
S90000;27HSR030I16;3
S90000;27MC125I23;17
S90000;27MII150I22;10
S90000;27MP050I22;91
S90000;27MP150I22;15
S90000;27MQ065I15A;9
S90000;27MS050I20;9
S90000;27OR030I21;16
S90000;27OR050I21;18
S90000;27SE075I22;15
S90000;27SP030I19;5
S90000;29ASH075A20;20
S90000;29ASH240A20;8
S90000;29BP100A22;9
S90000;29EC200A22;12
S90000;29GE200A21;14
S90000;29HD075A15;134
S90000;29HD250A15;18
S90000;29HD500A15;68
S90000;29HS100A21;17
S90000;29LC200A20US;22
S90000;29MA030A17;14
S90000;29MA075A21;10
S90000;29RC200A22;35
S90000;29RH500A15;49
S90000;29RH500A23;74
S90000;29SA050A22;8
S90000;29SE125A21;5
S90000;29SH075A20;66
S24000;17SE100FV21;18
S24000;17SH060SE21;2
S24000;17SH060SG21;4
S24000;17SH060SP21;4
S24000;17SH075E19;4
S24000;17SH075G21;64
S24000;17SH300E19;15
S24000;17SH300FV21;15
S24000;17SH300G21;10
S24000;17SH300P19;12
S24000;17SH500E19;9
S24000;17SH500FV21;11
S24000;17SH500G21;14
S24000;17SH500P19;10
S24000;17VI100P19;2
S24000;20AR075O20;7
S24000;20DO050O20;5
S24000;20DO075CD20;6
S24000;20DO130HC20;5
S24000;20ET075CD21;5
S24000;20ET075HC20;5
S24000;20ET075OC20;4
S24000;20GD250CD20;6
S24000;20GD250HC20;9
S24000;20GD250OC20;10
S24000;20GD500HC20;5
S24000;20HR050H20;3
S24000;20NV150H20;10
S24000;20SA050CD20;4
S24000;20SA050HC20;4
S24000;24BL012CB5;9
S24000;24BL012R22;8
S24000;24BR050R22;12
S24000;24ET075CB21;7
S24000;24ET075R22;5
S24000;24GD250CB21;8
S24000;24GD250R22;11
S24000;24GD500R22;12
S24000;24LC250CB21;14
S24000;24LC250R22;11
S24000;24MA030CB21;20
S24000;24MA030P21;8
S24000;24MA030R22;20
S24000;24MA075CB21;11
S24000;24MA075P21;10
S24000;24MA075R22;8
S24000;24MA150R22;13
S24000;24RG500CB21;9
S24000;24RG500R22;18
S24000;24RO010CB21;6
S24000;24SA050CB21;10
S24000;24SA050R22;21
S21000;24SA050CB21;8
S29000;24SA050CB21;19
S29000;24SA050R22;18
S21000;24SA050R22;11
S21000;27BD060I23;9
S29000;27BD060I23;10
S29000;27BY015I22;8
S21000;27BY015I22;13
S21000;27CP050I22;11
S29000;27CP050I22;20
S21000;27DB015I20;8
S29000;27DB015I20;14
S21000;27DC050I20;22
S29000;27DC050I20;5
S29000;27DE015I21;15
S21000;27DE015I21;12
S21000;27DH015I22;21
S29000;27DH015I22;9
S29000;27DH030I22;43
S21000;27DH030I22;14
S29000;27DL200I21;4
S21000;27DL200I21;8
S21000;27DS030I20;10
S29000;27DS030I20;14
S21000;27ER015I22;30
S29000;27ER015I22;23
S21000;27ER050I21;4
S29000;27ER050I21;12
S21000;27ER150I21;14
S29000;27ER150I21;16
S21000;27EV200I22;6
S29000;27EV200I22;15
S29000;27HC050I18;2
S21000;27HC050I18;2
S21000;27HCR050I16;4
S29000;27HCR050I16;1
S29000;27HD200I23;12
S21000;27HD200I23;7
S29000;27HS030I18;2
S21000;27HSR030I16;6
S29000;27HSR030I16;2
S29000;27MC125I23;24
S21000;27MC125I23;26
S21000;27MP150I22;14
S29000;27MP150I22;10
S29000;27MQ065I15A;2
S21000;27MQ065I15A;1
S21000;27MS050I20;10
S29000;27MS050I20;5
S21000;27OR030I21;42
S29000;27OR030I21;44
S21000;27OR050I21;41
S29000;27OR050I21;36
S24000;27BD060I23;6
S24000;27BY015I22;4
S24000;27CP050I22;10
S24000;27DB015I20;7
S24000;27DC050I20;15
S24000;27DE015I21;8
S24000;27DH015I22;17
S24000;27DH030I22;11
S24000;27DL200I21;3
S24000;27DS030I20;4
S24000;27ER015I22;12
S24000;27ER150I21;6
S24000;27HCR050I16;1
S24000;27HD200I23;8
S24000;27HS030I18;2
S24000;27HSR030I16;5
S24000;27MC125I23;5
S24000;27MP150I22;10
S24000;27MQ065I15A;4
S24000;27MS050I20;9
S24000;27OR030I21;36
S24000;27OR050I21;28
S24000;27SE075I22;7
S24000;27SP030I19;2
S24000;29ASH240A20;4
S24000;29BP100A22;3
S24000;29EC200A22;6
S24000;29GE200A21;15
S24000;29HD250A15;18
S24000;29HD500A15;25
S24000;29HS100A21;1
S24000;29LC200A20US;26
S24000;29MA030A17;20
S24000;29MA075A21;14
S24000;29RC200A22;24
S24000;29RH500A23;38
S24000;29SA050A22;11
S24000;29SE125A21;11
S24000;29SH240A20;5
S24000;29VC240A22;13
S24000;38BV050A22;2
S24000;38EV075A21;5
S24000;38FT200A21;9
S24000;38MI150A22;8
S24000;38RC050A22;5
S24000;38SC015RB23;21
S24000;38UV030A18;10
S24000;38WC050A21;11
S24000;38WS030A21;10
S24000;49BASKM23;1
S24000;49BO015CS19;64
S24000;49DC004I20;8
S24000;49DH004I22;44
S21000;27SE075I22;8
S29000;27SE075I22;5
S29000;27SP030I19;2
S21000;29ASH240A20;5
S29000;29ASH240A20;7
S21000;29BP100A22;5
S29000;29BP100A22;9
S21000;29EC200A22;6
S29000;29EC200A22;15
S21000;29GE200A21;15
S29000;29GE200A21;14
S29000;29HD075A15;17
S21000;29HD250A15;16
S29000;29HD250A15;23
S21000;29HD500A15;39
S29000;29HD500A15;42
S21000;29HS100A21;17
S29000;29HS100A21;42
S21000;29LC200A20US;34
S29000;29LC200A20US;55
S21000;29MA030A17;16
S29000;29MA030A17;23
S21000;29MA075A21;8
S29000;29MA075A21;19
S21000;29RC200A22;31
S29000;29RC200A22;69
S29000;29RH500A15;171
S21000;29RH500A15;9
S21000;29RH500A23;45
S29000;29RH500A23;58
S29000;29SA050A22;5
S21000;29SA050A22;8
S21000;29SE125A21;19
S21000;29SH240A20;8
S29000;29SH240A20;8
S29000;29VC240A22;8
S21000;29VC240A22;7
S21000;38BV050A22;4
S29000;38BV050A22;9
S21000;38EV075A21;12
S29000;38EV075A21;17
S21000;38FT200A21;8
S29000;38FT200A21;11
S29000;38MI150A22;8
S21000;38MI150A22;7
S21000;38RC050A22;5
S29000;38RC050A22;6
S29000;38SC015RB23;24
S21000;38SC015RB23;22
S29000;38UV030A18;16
S21000;38UV030A18;13
S21000;38WC050A21;7
S29000;38WC050A21;15
S90000;29SH240A20;6
S90000;29VC240A16;13
S90000;29VC240A22;12
S90000;38BV050A19;4
S90000;38BV050A22;11
S90000;38EV075A21;10
S90000;38FT200A18;9
S90000;38FT200A21;8
S90000;38MI150A18;1
S90000;38MI150A22;10
S90000;38RC050A22;9
S90000;38SC015RB23;24
S90000;38UV030A18;10
S90000;38WC050A18;31
S90000;38WC050A21;10
S90000;38WS030A18;12
S90000;38WS030A21;6
S90000;49AF015G20;145
S90000;49BASKM23;1
S90000;49BM010K19;130
S90000;49BO015CS19;122
S90000;49CABNO22;181
S90000;49CAS2NO22;54
S90000;49CL008K21;7
S90000;49CL1SA18;54
S90000;49CM010O21;163
S90000;49CP008I19;21
S90000;49CP020K22;21
S90000;49CRM1NO22;38
S90000;49CRM2NO22;148
S90000;49CUPNO22;36
S90000;49DC004I20;296
S90000;49DH004I22;63
S90000;49DISC3NO22;13
S90000;49EDT0075O22;9
S90000;49ET007CB22;1
S90000;49GD035CB5;279
S90000;49HD035A15;169
S90000;49HD035K17;139
S90000;49HS015A18;22
S90000;49IC1POU20;14
S90000;49IC2POU20;37
S90000;49IC3POU20;27
S90000;49LC020A20;155
S90000;49LC035CB21;8
S90000;49LD030I20;20
S90000;49LD030I21;9
S90000;49MA010A17;52
S90000;49MA010A21X;10
S90000;49MA010CB21;1
S90000;49MA010CB4;16
S90000;49MA010K22;225
S90000;49MA010L16;50
S28000;17MC200G21;10
S28000;17RC500E20;11
S31000;17RC500E20;3
S28000;17RC500G21;14
S31000;17RC500G21;19
S28000;17RC500P19;5
S31000;17RC500P19;8
S28000;17RS500E20;20
S31000;17RS500E20;4
S28000;17RS500FV21;20
S31000;17RS500FV21;8
S28000;17RS500G21;15
S31000;17RS500G21;12
S28000;17RS500P19;17
S31000;17RS500P19;2
S28000;17SE100FV21;16
S31000;17SE100FV21;10
S28000;17SH060SE21;8
S31000;17SH060SE21;4
S28000;17SH060SG21;6
S31000;17SH060SG21;4
S28000;17SH060SP21;5
S31000;17SH060SP21;3
S28000;17SH075E19;37
S31000;17SH075E19;41
S28000;17SH075G21;37
S31000;17SH075G21;50
S28000;17SH300E19;24
S28000;17SH300FV21;20
S31000;17SH300FV21;7
S28000;17SH300G21;20
S31000;17SH300G21;9
S28000;17SH300P19;25
S31000;17SH300P19;18
S28000;17SH500E19;20
S31000;17SH500E19;10
S28000;17SH500FV21;15
S31000;17SH500FV21;16
S28000;17SH500G21;16
S31000;17SH500G21;14
S28000;17SH500P19;15
S31000;17SH500P19;10
S28000;17VI100P19;3
S31000;17VI100P19;6
S31000;20AR075O20;6
S28000;20AR075O20;8
S28000;20DO050O20;5
S31000;20DO050O20;5
S31000;20DO075CD20;1
S31000;20DO130HC20;5
S31000;20ET075CD21;4
S28000;20ET075CD21;6
S28000;20ET075HC20;5
S27000;01BK010K14;14
S30000;01BK010K14;28
S27000;01BL012K18;8
S30000;01BL012K18;14
S27000;01BM050K23;7
S30000;01BM050K23;9
S27000;01BM150K23;10
S30000;01BM150K23;9
S27000;01BP050K21;7
S30000;01BP050K21;9
S27000;01CCJ200K22;14
S30000;01CCJ200K22;11
S27000;01CD250K23;10
S30000;01CD250K23;13
S30000;01CF050K22;6
S27000;01CL050K21;5
S30000;01CL050K21;4
S27000;01CL125KB23;2
S30000;01CL125KB23;8
S27000;01CL175K22;7
S30000;01CL175K22;5
S27000;01CM300K20;7
S30000;01CM300K20;6
S27000;01CM500K20;8
S30000;01CM500K20;11
S27000;01CMJ075K21;7
S30000;01CMJ075K21;11
S27000;01CMR500K20;11
S30000;01CMR500K20;5
S27000;01CP200K22;15
S30000;01CP200K22;8
S27000;01CPR200K22;9
S30000;01CPR200K22;5
S27000;01CV050K22;4
S30000;01CV050K22;2
S27000;01EC200K22;11
S30000;01EC200K22;14
S27000;01EM030K23;10
S30000;01EM030K23;9
S27000;01EM075K20;6
S27000;01HD250K17;10
S30000;01HD250K17;6
S27000;01HD500K20;10
S30000;01HD500K20;10
S27000;01HDR500K20;13
S30000;01HDR500K20;13
S27000;01HF100K17;6
S30000;01HF100K17;1
S27000;01HN0075K23;7
S30000;01HN0075K23;10
S27000;01HV030K16;2
S30000;01HV030K16;3
S27000;01HV030K23;5
S20;17RS500P19;24
S10;17RS500P19;20
S20;17SE100FV21;15
S10;17SE100FV21;17
S20;17SH060SE21;6
S10;17SH060SE21;2
S20;17SH060SG21;5
S10;17SH060SG21;4
S10;17SH060SP21;5
S20;17SH060SP21;6
S20;17SH075E19;127
S10;17SH075E19;19
S20;17SH075G21;127
S10;17SH075G21;20
S20;17SH300E19;11
S10;17SH300E19;15
S20;17SH300FV21;12
S10;17SH300FV21;21
S20;17SH300G21;10
S10;17SH300G21;19
S10;17SH300P19;22
S20;17SH300P19;9
S20;17SH500E19;11
S10;17SH500E19;14
S20;17SH500FV21;19
S10;17SH500FV21;12
S20;17SH500G21;16
S10;17SH500G21;17
S20;17SH500P19;13
S10;17SH500P19;13
S20;17VI100P19;3
S10;17VI100P19;6
S10;20AR075O20;5
S20;20AR075O20;14
S20;20DO050O20;11
S10;20DO050O20;4
S10;20DO075CD20;8
S20;20DO075CD20;11
S20;20DO130HC20;10
S10;20DO130HC20;3
S10;20ET075CD21;4
S20;20ET075CD21;5
S20;20ET075HC20;3
S10;20ET075HC20;5
S10;20ET075OC20;5
S20;20ET075OC20;5
S20;20GD250CD20;7
S10;20GD250CD20;5
S20;20GD250HC20;19
S10;20GD250HC20;14
S10;20GD250OC20;14
S20;20GD250OC20;6
S20;20GD500HC20;16
S10;20GD500HC20;13
S24000;49ET007CB22;1
S24000;49GD035CB21;35
S24000;49LD030I21;10
S24000;49MA010CB21;1
S24000;49MC014I23;125
S24000;49MTAT23;7
S24000;49OR005I21;135
S24000;52AS006E19;66
S24000;52AS006FV21;62
S24000;52AS006P19;38
S24000;52BY001I22;200
S24000;52CL0015K21;52
S24000;52CP0015I22;89
S24000;52CV0015K22;21
S24000;52DB001I20;31
S24000;52DE001I21;135
S24000;52DH001I22;108
S24000;52DL002I21;42
S24000;52DS001I20;10
S24000;52ER002I21;97
S24000;52EV002I22;107
S24000;52GD0015A18;18
S24000;52HD001I23;14
S24000;52HS004A18;69
S24000;52LGEBOX18;1
S24000;52LGENSA21;60
S24000;52MGEBOX18;17
S24000;52MGENSA21GPS;57
S24000;52MOCOL216;1
S24000;52MOCOL316;1
S24000;52MS001I20;11
S24000;52OR001I21;144
S24000;52PS0015R21;134
S24000;52SE0015I22;49
S24000;52SGENSA21GPS;81
S21000;38WS030A21;14
S29000;38WS030A21;11
S21000;49BASKM23;1
S21000;49BO015CS19;95
S29000;49BO015CS19;48
S29000;49DC004I20;5
S21000;49DC004I20;8
S21000;49DC008I20;4
S21000;49DH004I22;91
S29000;49DH004I22;33
S21000;49ET007CB22;1
S29000;49GD035CB21;31
S21000;49GD035CB21;173
S21000;49HD035A15;70
S29000;49HD035A15;5
S21000;49HD035K17;12
S29000;49HD035K17;29
S21000;49LC020A20;37
S29000;49LC035CB21;18
S29000;49MA010A17;17
S21000;49MA010CB21;1
S21000;49MA010K22;13
S29000;49MA010K22;37
S29000;49MC014I23;18
S21000;49MC014I23;72
S21000;49MTAT23;3
S29000;49MTAT23;8
S29000;49OR005I21;23
S21000;49OR005I21;98
S29000;49PADCL20;9
S21000;49SH035E21;105
S21000;52AS006FV21;22
S29000;52AS006P19;2
S29000;52BY001I22;192
S29000;52CL0015K21;32
S29000;52CP0015I22;96
S29000;52CV0015K22;32
S29000;52DL002I21;18
S29000;52GD0015A18;26
S29000;52HD001I23;78
S29000;52HS001I17;12
S29000;52LGENSA21;27
S29000;52MOCOL316;1
S29000;52MS001I20;18
S29000;52SE0015I22;103
S29000;52SGENSA21GPS;1
S29000;52SH006E19;17
S29000;52SH006G21;60
S29000;52SLEMM23;5
S29000;98BBGD030VE4;12
S29000;SGOCVE600006;48
S29000;SGOCVKI00235;3
S29000;SGOCVKI00236;3
S90000;49MA010R22;12
S90000;49MA010VB3;24
S90000;49MC014I23;59
S90000;49MS008I20;166
S90000;49MTAT23;16
S90000;49NOTNO22;94
S90000;49OR005I21;6
S90000;49PFCWC21;40
S90000;49PI010K18;30
S90000;49PMENNO21;26
S90000;49POBFNO22;40
S90000;49POCK1NO22;392
S90000;49POCK2NO22;227
S90000;49POCKNO21;125
S90000;49POSUCS22;109
S90000;49POU1O21;24
S90000;49POU1VE20;200
S90000;49POUCB21;15
S90000;49POUHE22;39
S90000;49POUID20;45
S90000;49POUIS19;23
S90000;49POUM21;19
S90000;49PWPBM23;124
S90000;49PWPBNO22;29
S90000;49RCWM22;48
S90000;49SH035E21;282
S90000;49TOBACH20;67
S90000;49TOTMC20;40
S90000;49TOTWC21;90
S90000;49TRAVNO21;81
S90000;52AS006G21;42
S90000;52AS006P19;10
S21000;52BY001I22;163
S90000;52CP0015I22;100
S21000;52CP006K22;5
S90000;52CUSTNO22;91
S21000;52CV0015K22;24
S90000;52CV0015K22;183
S90000;52DH001I22;300
S90000;52DL002I21;156
S21000;52DL002I21;55
S90000;52DS001I20;151
S90000;52ER002I21;22
S21000;52ER002I21;17
S90000;52ET001O21;63
S21000;52EV002I22;43
S90000;52HCTM22;32
S90000;52HCTM23;50
S21000;52HD001I23;51
S90000;52HD006A18;131
S21000;52HS004A18;12
S90000;52HS004A18;32
S90000;52LC006A20;98
S30000;01HV030K23;4
S27000;01LC250K24;19
S30000;01LC250K24;22
S27000;01LT300K20;14
S30000;01LT300K20;13
S27000;01MA030K22;32
S30000;01MA030K22;36
S30000;01MA075K22;16
S27000;01MA075K22;18
S27000;01MA150K22;23
S30000;01MA150K22;23
S30000;01MR030K14;16
S27000;01MR030K14;12
S30000;01PI030K18;15
S27000;01PI030K18;5
S27000;01PI150K18;8
S30000;01PI150K18;13
S27000;01PWPKT22;1
S27000;01RL500K20;11
S30000;01RL500K20;11
S30000;01RV500K20;12
S27000;01RV500K20;6
S27000;01SA100LT20;10
S30000;01SA100LT20;9
S30000;01SA100LV20;12
S27000;01SA100LV20;10
S30000;01SA100VE20;15
S27000;01SA100VE20;9
S27000;01SA250LT20;10
S30000;01SA250LT20;7
S27000;01SA250LV20;10
S30000;01SA250LV20;3
S30000;01SA250VE20;14
S27000;01SA250VE20;12
S30000;01SA300KRO22;6
S27000;01SA300KRO22;1
S27000;01SA500KRO22;5
S30000;01SA500KRO22;6
S27000;01SAR500KRO22;8
S30000;01SAR500KRO22;8
S27000;01SL0045K13;15
S30000;01SL0045K13;22
S27000;01SL300LV20;5
S30000;01SL300LV20;5
S27000;01SL300VE20;6
S30000;01SL300VE20;5
S27000;01SL500LV20;6
S30000;01SL500LV20;2
S27000;01SL500VE20;6
S30000;01SL500VE20;4
S30000;11AS040SG22;12
S27000;11AS040SG22;13
S31000;20ET075HC20;4
S28000;20ET075OC20;3
S31000;20ET075OC20;5
S28000;20GD250CD20;8
S31000;20GD250CD20;13
S28000;20GD250HC20;3
S31000;20GD250HC20;8
S28000;20GD250OC20;4
S31000;20GD250OC20;13
S28000;20GD500HC20;14
S31000;20GD500HC20;4
S28000;20NV150H20;10
S31000;20NV150H20;12
S28000;20SA050CD20;4
S31000;20SA050CD20;3
S28000;20SA050HC20;4
S31000;20SA050HC20;3
S28000;24BL012CB5;14
S31000;24BL012CB5;10
S28000;24BL012R22;11
S31000;24BL012R22;12
S28000;24BR050CB21;1
S31000;24BR050CB21;5
S31000;24BR050R22;16
S28000;24BR050R22;11
S28000;24ET075CB21;13
S31000;24ET075CB21;13
S28000;24ET075R22;6
S31000;24ET075R22;12
S28000;24GD250CB21;12
S31000;24GD250CB21;12
S28000;24GD250R22;9
S31000;24GD250R22;13
S28000;24GD500R22;15
S31000;24GD500R22;12
S28000;24LC250CB21;9
S31000;24LC250CB21;6
S28000;24LC250R22;12
S31000;24LC250R22;10
S28000;24MA030CB21;32
S31000;24MA030CB21;23
S28000;24MA030P21;18
S31000;24MA030P21;8
S28000;24MA030R22;14
S31000;24MA030R22;17
S28000;24MA030RV19;14
S31000;24MA030RV19;2
S28000;24MA075CB21;10
S31000;24MA075CB21;11
S31000;24MA075P15;1
S28000;24MA075P21;7
S31000;24MA075P21;10
S21000;52LGEBOX18;7
S90000;52LGEBOX18;16
S21000;52LGENSA21;16
S90000;52MA003K22A;154
S90000;52MC001I23;196
S21000;52MGENSA21GPS;45
S90000;52MOCOL316;9
S21000;52MS001I20;7
S90000;52OR001I21;243
S21000;52SE0015I22;33
S21000;52SGENSA21GPS;42
S90000;52SH006E19;97
S21000;52SH006FV21;129
S90000;52SH006FV21;99
S21000;52SH006G21;25
S90000;52SH006G21;23
S21000;52SH006P19;43
S90000;52SH006P19;61
S21000;52TS001I22;56
S90000;52TS001I22;121
S90000;52TS001R21;42
S21000;52YGERIB20;1
S90000;98BBACLUFNT1;6
S21000;98BBGD030VE4;12
S90000;98BBGD030VE4;264
S90000;98BBGD050VE2;2
S90000;98BBHD035A0;140
S90000;98BBHD050A0;70
S90000;98BBLC030VE5;215
S90000;98BBLC050VE3;2
S21000;98BBMA010KA3;100
S90000;98BBSA025LT2;143
S90000;98BBSH050A0;71
S21000;ACPOCVEC00001;291
S21000;ACPOCVEC00002;487
S21000;ACPOCVEC00003;87
S21000;ACPOCVEC00004;100
S90000;ACPOCVKA00700;21
S90000;HKOCVE6T00056;124
S90000;J9517;9
S90000;JIMPN16;56
S21000;SGOCVE600006;59
S10;20NV150H20;12
S20;20NV150H20;14
S20;20SA050CD20;4
S10;20SA050CD20;4
S10;20SA050HC20;2
S20;20SA050HC20;3
S20;24BL012CB5;13
S10;24BL012CB5;7
S10;24BL012R22;4
S20;24BL012R22;6
S20;24BR050CB21;8
S10;24BR050CB21;4
S10;24BR050R22;15
S20;24BR050R22;11
S20;24ET075CB21;7
S10;24ET075CB21;16
S10;24ET075R22;6
S20;24ET075R22;8
S10;24GD075R22;6
S20;24GD250CB21;12
S10;24GD250CB21;12
S20;24GD250R22;16
S10;24GD250R22;14
S10;24GD500R22;12
S20;24GD500R22;16
S20;24LC250CB21;14
S10;24LC250CB21;17
S10;24LC250R22;15
S20;24LC250R22;15
S20;24MA030CB21;27
S10;24MA030CB21;18
S10;24MA030P21;10
S20;24MA030P21;12
S20;24MA030R22;23
S10;24MA030R22;18
S10;24MA030RV19;38
S10;24MA075CB21;13
S20;24MA075CB21;12
S10;24MA075CB4;1
S10;24MA075P21;10
S20;24MA075P21;10
S20;24MA075R22;13
S10;24MA075R22;8
S10;24MA150R22;11
S20;24MA150R22;10
S20;24RG500CB21;14
S10;24RG500CB21;13
S10;24RG500R22;13
S20;24RG500R22;18
S10;24RO010CB21;10
S10;24RO010CB4;1
S10;24SA050CB21;9
S20;24SA050CB21;11
S20;24SA050R22;11
S30000;11AT050HL23;13
S27000;11AT050HL23;9
S27000;11BC100G21;1
S27000;11BG140CS19;4
S30000;11BG140CS19;5
S30000;11BG140SH19;4
S27000;11BG140SH19;7
S27000;11BG140SI19;5
S30000;11BG140SI19;5
S27000;11BG140SL19;3
S30000;11BG140SL19;1
S27000;11BH050A18;5
S30000;11BH050A18;3
S27000;11BO100CS19;5
S30000;11BO100CS19;15
S27000;11BP100I19;4
S30000;11BP100I19;4
S27000;11BR100A20;5
S30000;11BR100A20;5
S27000;11CD050A18;4
S30000;11CD050A18;4
S27000;11CF100TR19;9
S30000;11CF100TR19;14
S30000;11CM030H19;21
S27000;11CM030H19;9
S27000;11CM030H20;9
S30000;11CM030H20;19
S27000;11CM030O21;5
S30000;11CM030O21;17
S27000;11CM125I19;6
S30000;11CM125I19;10
S30000;11CM200AT23;2
S27000;11CM200AT23;5
S30000;11CM200AT23C;34
S27000;11CM200AT23C;32
S30000;11EC200AT23;33
S27000;11EC200AT23;36
S27000;11EH150A18;10
S30000;11EH150A18;5
S27000;11EP010H19;6
S30000;11EP010H19;13
S30000;11ET010H20;12
S27000;11ET010H20;7
S30000;11ET050H20;4
S27000;11ET050H20;4
S30000;11ET075O21;14
S27000;11ET075O21;4
S30000;11FAG10TR19;12
S27000;11FAG10TR19;5
S30000;11GD050A18;5
S27000;11GD050A18;5
S30000;11GD250H19;12
S28000;24MA075R22;12
S31000;24MA075R22;13
S28000;24MA150R22;10
S31000;24MA150R22;11
S28000;24RG500CB21;13
S31000;24RG500CB21;13
S28000;24RG500R22;11
S31000;24RG500R22;10
S31000;24RO010CB21;5
S28000;24RO010CB21;7
S28000;24SA050CB21;14
S31000;24SA050CB21;9
S28000;24SA050R22;15
S31000;24SA050R22;4
S28000;27BD060I23;9
S31000;27BD060I23;14
S28000;27BY015I22;8
S31000;27BY015I22;4
S28000;27CP050I22;15
S31000;27CP050I22;9
S28000;27DB015I20;12
S28000;27DC050I20;21
S28000;27DE015I21;15
S31000;27DE015I21;6
S28000;27DH015I22;22
S31000;27DH015I22;25
S28000;27DH030I22;26
S31000;27DH030I22;17
S28000;27DL200I21;9
S31000;27DL200I21;2
S28000;27DS030I20;7
S31000;27DS030I20;4
S28000;27ER015I22;26
S31000;27ER015I22;16
S28000;27ER050I21;3
S28000;27ER150I21;16
S31000;27ER150I21;5
S28000;27EV200I22;21
S31000;27EV200I22;6
S28000;27HC050I18;1
S31000;27HD200I23;8
S28000;27HD200I23;7
S28000;27HS030I18;3
S28000;27HSR030I16;2
S31000;27HSR030I16;3
S28000;27MC125I23;18
S28000;27MP150I22;12
S31000;27MP150I22;5
S28000;27MQ065I15A;7
S31000;27MQ065I15A;4
S28000;27MS050I20;4
S31000;27MS050I20;4
S28000;27OR030I21;55
S10;24SA050R22;9
S10;27BD060I23;10
S20;27BD060I23;6
S20;27BY015I22;6
S10;27BY015I22;10
S10;27CP050I22;15
S20;27CP050I22;12
S20;27DB015I20;14
S10;27DB015I20;20
S10;27DC050I20;25
S20;27DC050I20;23
S20;27DE015I21;9
S10;27DE015I21;6
S10;27DH015I22;31
S20;27DH015I22;20
S20;27DH030I22;18
S10;27DH030I22;15
S10;27DL200I21;8
S20;27DL200I21;9
S20;27DS030I20;6
S10;27DS030I20;6
S10;27ER015I22;27
S20;27ER015I22;20
S10;27ER050I21;10
S10;27ER150I21;16
S20;27ER150I21;12
S20;27EV200I22;15
S10;27EV200I22;19
S10;27HC050I18;1
S20;27HCR050I16;3
S20;27HD200I23;7
S10;27HD200I23;23
S20;27HS030I18;1
S20;27HSR030I16;6
S10;27HSR030I16;4
S10;27MC125I23;23
S20;27MC125I23;22
S10;27MI150I20;7
S10;27MP150I22;9
S20;27MP150I22;11
S20;27MQ065I15A;4
S10;27MQ065I15A;4
S10;27MS050I20;4
S20;27MS050I20;5
S20;27OR030I21;51
S10;27OR030I21;60
S10;27OR050I21;35
S20;27OR050I21;44
S20;27SE075I22;12
S10;27SE075I22;16
S10;29ASH240A20;7
S20;29ASH240A20;8
S10;29BP100A19;11
S20;29BP100A22;7
S20;52LC006A20;55
S20;52LGEBOX18;1
S20;52LGENSA21;43
S20;52MC006G21;80
S20;52MOCOL316;1
S20;52MS001I20;117
S20;52OR001I21;225
S20;52PS0015R21;21
S20;52SGENSA21GPS;7
S20;52SH006E19;32
S20;52SH006G21;54
S20;52SH006P19;85
S20;52TS001I22;163
S20;52TS001R21;98
S20;98BBGD030VE4;12
S20;98BBMA010KA3;11
S20;ACPOCVEC00001;348
S20;ACPOCVEC00002;689
S20;ACPOCVEC00003;52
S20;ACPOCVEC00004;80
S20;SGOCVE600006;127
S27000;11GD250H19;8
S30000;11GD250H20;11
S27000;11GD250H20;11
S27000;11GD250O21;9
S30000;11GD250O21;7
S30000;11GE075I20;4
S27000;11GE075I20;5
S30000;11GM200I19;9
S27000;11GM200I19;6
S30000;11GN195A18;13
S27000;11GN195A18;9
S30000;11LC250H19;8
S27000;11LC250H19;8
S30000;11LC250H20;8
S27000;11LC250H20;8
S30000;11LC250O21;6
S27000;11LC250O21;7
S30000;11LD200I19;12
S27000;11LD200I19;8
S27000;11LH200I19;4
S30000;11LH200I19;12
S27000;11LT300I20;4
S30000;11LT300I20;5
S27000;11MH075A19;3
S30000;11MH075A19;4
S30000;11MWC200I19;4
S27000;11MWC200I19;4
S30000;11PM100SH19;5
S27000;11PM100SH19;4
S30000;11PM100SI19;4
S27000;11PM100SI19;4
S27000;11SA050O21;4
S30000;11SA050O21;5
S27000;11SA100H20;3
S30000;11SA100H20;11
S30000;11SAF100H20;6
S27000;11SD100CS19;11
S30000;11SD100CS19;10
S27000;11SD100SH19;9
S30000;11SD100SH19;10
S27000;11SD100SI19;6
S30000;11SD100SI19;5
S30000;11SH300AD22;11
S27000;11SH300AD22;12
S27000;11SP200CS19;9
S27000;11SP200SH19;5
S30000;11SP200SH19;5
S27000;11SP200SI19;4
S30000;11SP200SI19;3
S27000;11SV080I19;4
S30000;11SV080I19;5
S27000;15AS250VA18;10
S30000;15AS250VA18;5
S20;29EC200A22;12
S10;29EC200A22;13
S10;29GE200A21;28
S20;29GE200A21;19
S20;29HD250A15;22
S10;29HD250A15;21
S10;29HD500A15;37
S20;29HD500A15;44
S20;29HS100A21;27
S10;29HS100A21;12
S10;29LC200A20US;29
S20;29LC200A20US;40
S20;29MA030A17;20
S10;29MA030A17;14
S10;29MA075A21;9
S20;29MA075A21;12
S20;29RC200A22;45
S10;29RC200A22;30
S10;29RH500A15;16
S20;29RH500A15;5
S20;29RH500A23;58
S10;29RH500A23;55
S10;29SA050A22;9
S20;29SA050A22;13
S20;29SE125A21;14
S10;29SE125A21;14
S10;29SH240A20;7
S20;29SH240A20;6
S20;29VC240A22;15
S10;29VC240A22;18
S10;38BV050A22;3
S20;38BV050A22;7
S10;38EC015A18;1
S10;38EV075A21;13
S20;38EV075A21;15
S20;38FT200A21;10
S10;38FT200A21;4
S10;38MI150A22;8
S20;38MI150A22;9
S20;38RC050A22;6
S10;38RC050A22;9
S10;38SC015RB23;23
S20;38SC015RB23;21
S20;38UV030A18;14
S10;38UV030A18;12
S10;38WC050A21;3
S20;38WC050A21;4
S10;38WM065A18;1
S10;38WS030A21;4
S20;38WS030A21;6
S20;49BASKM23;5
S10;49BASKM23;3
S10;49BO015CS19;43
S20;49BO015CS19;138
S31000;27OR030I21;47
S28000;27OR050I21;30
S31000;27OR050I21;27
S28000;27SE075I22;23
S31000;27SE075I22;15
S28000;29ASH240A20;13
S31000;29ASH240A20;5
S31000;29BP100A22;8
S28000;29BP100A22;5
S28000;29EC200A22;14
S31000;29EC200A22;23
S28000;29GE200A21;17
S31000;29GE200A21;15
S28000;29HD250A15;22
S31000;29HD250A15;19
S28000;29HD500A15;26
S31000;29HD500A15;30
S28000;29HD9000A21;1
S31000;29HD9000A21;2
S28000;29HS100A21;27
S31000;29HS100A21;25
S28000;29LC200A20US;38
S31000;29LC200A20US;31
S28000;29MA030A17;18
S31000;29MA030A17;22
S28000;29MA075A21;7
S31000;29MA075A21;11
S28000;29RC200A22;25
S31000;29RC200A22;12
S28000;29RH500A15;11
S31000;29RH500A23;33
S28000;29RH500A23;70
S28000;29SA050A22;7
S31000;29SA050A22;10
S28000;29SE125A21;10
S31000;29SE125A21;12
S28000;29SH240A20;6
S31000;29SH240A20;5
S28000;29VC240A22;8
S31000;29VC240A22;6
S28000;38BV050A22;4
S28000;38EV075A21;9
S31000;38EV075A21;3
S28000;38FT200A21;11
S31000;38FT200A21;11
S28000;38MI150A22;6
S31000;38MI150A22;3
S28000;38RC050A22;8
S31000;38RC050A22;3
S28000;38SC015RB23;32
S31000;38SC015RB23;33
S28000;38UV030A18;18
S31000;38UV030A18;7
S28000;38WC050A21;11
S31000;38WC050A21;14
S28000;38WS030A21;11
S31000;38WS030A21;12
S28000;49BASKM23;8
S28000;49BO015CS19;111
S31000;49BO015CS19;76
S28000;49DC004I20;26
S31000;49DC004I20;30
S28000;49DH004I22;116
S31000;49DH004I22;75
S28000;49ET007CB22;8
S28000;49GD035CB21;151
S31000;49GD035CB21;98
S28000;49HD035A15;26
S31000;49HD035A15;62
S28000;49IC2POU20;1
S31000;49ICNPOU22;143
S28000;49LC020A20;81
S31000;49LC020A20;44
S31000;49LD030I21;4
S28000;49LD030I21;7
S28000;49MA010CB21;8
S28000;49MA010K22;12
S31000;49MA010K22;42
S28000;49MC014I23;97
S31000;49MC014I23;101
S28000;49MTAT23;18
S31000;49MTAT23;11
S28000;49OR005I21;82
S31000;49OR005I21;92
S28000;49SH035E21;201
S31000;49SH035E21;64
S31000;52AF006G20;94
S28000;52AF006G20;77
S28000;52AS006E19;145
S31000;52AS006E19;18
S28000;52AS006FV21;58
S31000;52AS006G21;35
S28000;52AS006G21;273
S28000;52AS006P19;127
S28000;52BY001I22;188
S31000;52BY001I22;200
S28000;52CP0015I22;179
S31000;52CP0015I22;135
S28000;52CV0015K22;36
S31000;52DE001I21;59
S28000;52DH001I22;189
S31000;52DH001I22;180
S28000;52DS001I20;211
S31000;52DS001I20;35
S28000;52ER002I21;37
S31000;52ER002I21;141
S10;49CRM2NO22;1
S10;49DC004I20;14
S20;49DC004I20;32
S20;49DH004I22;73
S10;49DH004I22;76
S10;49ET007CB22;3
S20;49ET007CB22;5
S20;49GD035CB21;53
S10;49GD035CB21;106
S10;49HD035A15;92
S20;49HD035A15;32
S20;49HD035K17;12
S20;49LC020A20;16
S10;49LC020A20;40
S10;49LD030I21;6
S20;49LD030I21;17
S20;49MA010CB21;5
S10;49MA010CB21;3
S10;49MA010K22;18
S20;49MA010K22;31
S10;49MA010R22;6
S10;49MA010VB3;1
S10;49MC014I23;81
S20;49MC014I23;45
S10;49MTAT23;9
S10;49OR005I21;150
S20;49OR005I21;128
S10;49POUM23;2
S10;49SH035E21;85
S20;49SH035E21;12
S20;52AF006G20;160
S10;52AF006G20;163
S10;52AS006E19;101
S20;52AS006E19;11
S20;52AS006FV21;79
S10;52AS006FV21;141
S10;52AS006G21;108
S20;52AS006G21;58
S10;52AS006P19;81
S20;52BGERIB20;2
S20;52BY001I22;185
S10;52BY001I22;169
S20;52CL0015K21;29
S20;52CP0015I22;134
S20;52CP006K22;21
S20;52CV0015K22;35
S20;52DB001I20;166
S20;52DC0015I20;105
S20;52DE001I21;171
S20;52DH001I22;251
S20;52DL002I21;104
S20;52DS001I20;69
S20;52ER002I21;23
S20;52EV002I22;81
S20;52GD0015A18;31
S20;52HD001I23;29
S20;52HD006A18;230
S20;52HS004A18;51
S28000;52EV002I22;81
S31000;52EV002I22;23
S31000;52GD0015A18;18
S28000;52HCTM23;13
S28000;52HD001I23;68
S28000;52HD006A18;21
S28000;52HS001I17;41
S28000;52HS004A18;168
S28000;52LGEBOX18;11
S28000;52LGENSA21;146
S31000;52MC006G21;23
S31000;52MGEBOX18;12
S28000;52MOCOL216;1
S28000;52MOCOL316;1
S28000;52MS001I20;99
S31000;52MS001I20;29
S31000;52OR001I21;180
S28000;52PS0015R21;139
S28000;52SE0015I22;85
S31000;52SE0015I22;36
S28000;52SGENSA21GPS;28
S31000;52SGENSA21GPS;11
S31000;52SH006E19;70
S31000;52SH006P19;33
S31000;52TS001I22;7
S28000;52TS001R21;206
S28000;52YGERIB20;2
S28000;98BBGD030VE4;36
S31000;98BBGD030VE4;60
S28000;98BBMA010KA3;81
S31000;98BBMA010KA3;35
S28000;ACPOCVEC00001;256
S31000;ACPOCVEC00001;257
S28000;ACPOCVEC00002;386
S31000;ACPOCVEC00002;262
S31000;ACPOCVEC00003;64
S28000;ACPOCVEC00003;145
S28000;ACPOCVEC00004;101
S31000;ACPOCVEC00004;132
S28000;ACPOCVEC00005;170
S28000;SGOCVE600006;104
S31000;SGOCVE600006;41
S28000;SGOCVKI00236;5
S28000;SGOCVKI00239;3
S27000;15BA500L16A;11
S30000;15BA500L16A;9
S27000;15BM500VB21;16
S30000;15BM500VB21;18
S27000;15BR050VBM23;16
S30000;15BR050VBM23;14
S27000;15DE200VAL23;6
S30000;15DE200VAL23;5
S30000;15DO050VA22;2
S27000;15DO050VA22;1
S30000;15ET010VB19;8
S27000;15ET010VB19;3
S30000;15ET100VA20;4
S27000;15ET100VA20;4
S30000;15ET100VB20;5
S27000;15ET100VB20;4
S30000;15ET100VBL23;4
S27000;15ET100VBL23;3
S30000;15ET100VCL23;13
S27000;15ET100VCL23;13
S27000;15GD250L21;13
S30000;15GD250L21;14
S27000;15GD250VA20;6
S30000;15GD250VA20;8
S30000;15GD250VB21;3
S30000;15GD250VCL23;24
S27000;15GD250VCL23;24
S30000;15GD500VB21;3
S30000;15GD500VB23;10
S27000;15GD500VB23;13
S30000;15GM065L21;13
S27000;15GM065L21;12
S27000;15GM065VB21;15
S30000;15GM065VB21;15
S30000;15GM280VB21;4
S27000;15GM280VB21;4
S30000;15GN300L21;8
S27000;15GN300L21;7
S30000;15HE005L14;6
S27000;15HE005L14;5
S27000;15LC250L14;8
S30000;15LC250L14;8
S27000;15LC250VA20;4
S30000;15LC250VA20;8
S27000;15LC250VB3;8
S30000;15LC250VB3;8
S30000;15LC250VCL23;18
S27000;15LC250VCL23;18
S30000;15LM300L11;10
S27000;15LM300L11;6
S30000;15MA030L21;21
S27000;15MA030L21;19
S30000;15MA030VA5;5
S27000;15MA030VA5;1
S30000;15MA030VB3;15
S27000;15MA030VB3;9
S27000;15MA030VBM8;14
S30000;15MA030VBM8;14
S30000;15MA030VCL23;30
S27000;15MA030VCL23;30
S30000;15MA075L20;13
S27000;15MA075L20;7
S30000;15MA075VB4;12
S27000;15MA075VB4;5
S27000;15RC500VB21;8
S30000;15RC500VB21;10
S30000;15RG500L14;7
S27000;15RG500L14;8
S27000;15RG500VA20;9
S30000;15RG500VA20;8
S30000;15RO010VBM22;13
S27000;15RO010VBM22;28
S27000;15SA070VB6;1
S30000;15SA075VB21;4
S27000;15SA075VB21;3
S30000;15SH250VA20;5
S27000;15SH250VA20;5
S30000;17AF100G20;16
S27000;17AF100G20;18
S30000;17AS250E19;7
S27000;17AS250E19;6
S30000;17AS250FV21;5
S27000;17AS250FV21;6
S30000;17AS250G21;12
S27000;17AS250G21;6
S30000;17AS250P19;12
S27000;17AS250P19;11
S30000;17AS500E19;9
S27000;17AS500E19;8
S30000;17AS500FV21;6
S27000;17AS500FV21;11
S30000;17AS500G21;13
S27000;17AS500G21;12
S27000;17AS500P19;6
S30000;17AS500P19;6
S27000;17DO050F13;13
S30000;17DO050F13;14
S27000;17ER075P19;6
S30000;17ER075P19;7
S27000;17HB050A22;8
S30000;17HB050A22;9
S27000;17HI001G19;51
S27000;17HI100G19;9
S30000;17HI100G19;10
S27000;17MC200G21;11
S30000;17MC200G21;11
S27000;17RC500E20;13
S30000;17RC500E20;6
S27000;17RC500G21;16
S30000;17RC500G21;16
S27000;17RC500P19;6
S30000;17RC500P19;8
S27000;17RS500E20;20
S30000;17RS500E20;11
S27000;17RS500FV21;17
S30000;17RS500FV21;22
S27000;17RS500G21;16
S30000;17RS500G21;12
S27000;17RS500P19;23
S30000;17RS500P19;13
S27000;17SE100FV21;13
S30000;17SE100FV21;20
S27000;17SH060SE21;5
S30000;17SH060SE21;3
S27000;17SH060SG21;5
S30000;17SH060SG21;4
S27000;17SH060SP21;5
S30000;17SH060SP21;4
S27000;17SH075E19;63
S30000;17SH075E19;55
S27000;17SH075G21;63
S30000;17SH075G21;53
S27000;17SH300E19;17
S30000;17SH300E19;25
S27000;17SH300FV21;9
S30000;17SH300FV21;16
S27000;17SH300G21;16
S30000;17SH300G21;17
S27000;17SH300P19;10
S30000;17SH300P19;17
S27000;17SH500E19;12
S30000;17SH500E19;13
S27000;17SH500FV21;13
S30000;17SH500FV21;21
S27000;17SH500G21;15
S30000;17SH500G21;16
S27000;17SH500P19;20
S30000;17SH500P19;17
S27000;17VI100P19;5
S30000;17VI100P19;7
S27000;20AR075O20;5
S30000;20AR075O20;6
S27000;20DO050O20;4
S30000;20DO050O20;3
S30000;20DO075CD20;4
S27000;20DO130HC20;11
S30000;20DO130HC20;6
S27000;20ET075CD21;4
S30000;20ET075CD21;5
S27000;20ET075HC20;5
S30000;20ET075HC20;5
S27000;20ET075OC20;4
S30000;20ET075OC20;5
S27000;20GD250CD20;6
S30000;20GD250CD20;7
S27000;20GD250HC20;4
S30000;20GD250HC20;14
S27000;20GD250OC20;6
S30000;20GD250OC20;7
S27000;20GD500HC20;6
S30000;20GD500HC20;8
S27000;20HR050H20;6
S27000;20NV150H20;9
S30000;20NV150H20;13
S27000;20SA050CD20;4
S30000;20SA050CD20;4
S27000;20SA050HC20;5
S30000;20SA050HC20;4
S27000;24BL012CB5;5
S30000;24BL012CB5;6
S27000;24BL012R22;7
S30000;24BL012R22;12
S27000;24BR050CB21;12
S30000;24BR050CB21;1
S27000;24BR050R22;9
S30000;24BR050R22;17
S30000;24ET075CB21;15
S27000;24ET075CB21;8
S27000;24ET075R22;9
S30000;24ET075R22;13
S27000;24GD250CB21;7
S30000;24GD250CB21;9
S27000;24GD250R22;8
S30000;24GD250R22;16
S27000;24GD500R22;6
S30000;24GD500R22;11
S27000;24LC250CB21;12
S30000;24LC250CB21;9
S27000;24LC250R22;11
S30000;24LC250R22;14
S27000;24MA030CB21;24
S30000;24MA030CB21;25
S30000;24MA030P21;9
S27000;24MA030P21;11
S27000;24MA030R22;7
S30000;24MA030R22;20
S30000;24MA030RV19;1
S27000;24MA075CB21;13
S30000;24MA075CB21;12
S30000;24MA075P15;4
S27000;24MA075P21;5
S30000;24MA075P21;10
S27000;24MA075R22;6
S30000;24MA075R22;12
S27000;24MA150R22;11
S30000;24MA150R22;12
S27000;24RG500CB21;12
S30000;24RG500CB21;14
S30000;24RG500R22;10
S27000;24RG500R22;5
S27000;24RO010CB21;8
S30000;24RO010CB21;8
S27000;24SA050CB21;7
S30000;24SA050CB21;13
S27000;24SA050R22;4
S30000;24SA050R22;6
S27000;27BD060I23;10
S30000;27BD060I23;9
S27000;27BY015I22;5
S30000;27BY015I22;8
S27000;27CP050I22;9
S30000;27CP050I22;10
S27000;27DB015I20;10
S30000;27DB015I20;7
S27000;27DC050I20;25
S30000;27DC050I20;23
S27000;27DCB060I17;1
S30000;27DCB060I17;1
S27000;27DE015I21;4
S30000;27DE015I21;2
S27000;27DH015I22;16
S30000;27DH015I22;25
S30000;27DH030I22;16
S27000;27DH030I22;18
S27000;27DL200I21;8
S30000;27DL200I21;6
S27000;27DS030I20;5
S30000;27DS030I20;5
S27000;27ER015I22;13
S30000;27ER015I22;21
S30000;27ER050I21;8
S27000;27ER150I21;6
S30000;27ER150I21;11
S27000;27EV200I22;20
S30000;27EV200I22;19
S30000;27FP050I19;1
S30000;27HC050I18;3
S27000;27HC050I18;3
S27000;27HCR050I16;1
S30000;27HCR050I16;3
S30000;27HD200I23;7
S27000;27HD200I23;8
S27000;27HS030I18;3
S30000;27HS030I18;4
S27000;27HSR030I16;4
S30000;27HSR030I16;4
S30000;27MC125I23;12
S27000;27MC125I23;16
S27000;27MI150I20;1
S30000;27MI150I20;1
S27000;27MP050I20;1
S27000;27MP150I22;6
S30000;27MP150I22;11
S27000;27MQ065I15A;1
S30000;27MQ065I15A;4
S27000;27MS050I20;4
S30000;27MS050I20;8
S27000;27OR030I21;42
S30000;27OR030I21;45
S27000;27OR050I21;34
S30000;27OR050I21;42
S27000;27SE075I22;14
S30000;27SE075I22;6
S27000;27SP030I19;1
S27000;29ASH240A20;4
S30000;29ASH240A20;6
S27000;29BP100A22;6
S30000;29BP100A22;6
S27000;29EC200A22;11
S30000;29EC200A22;9
S27000;29GE200A21;16
S30000;29GE200A21;17
S27000;29HD250A15;14
S30000;29HD250A15;30
S27000;29HD500A15;37
S30000;29HD500A15;29
S27000;29HS100A21;18
S30000;29HS100A21;21
S27000;29LC200A20US;23
S30000;29LC200A20US;32
S27000;29MA030A17;13
S30000;29MA030A17;28
S27000;29MA075A21;6
S30000;29MA075A21;13
S27000;29RC200A22;22
S30000;29RC200A22;18
S27000;29RH500A15;30
S30000;29RH500A15;37
S30000;29RH500A23;20
S27000;29RH500A23;40
S27000;29SA050A22;9
S30000;29SA050A22;11
S27000;29SE125A21;11
S30000;29SE125A21;11
S27000;29SH240A20;4
S30000;29SH240A20;4
S27000;29VC240A22;10
S30000;29VC240A22;11
S30000;38BV050A22;6
S27000;38BV050A22;5
S30000;38EV075A21;4
S27000;38EV075A21;9
S27000;38FT200A21;5
S30000;38FT200A21;12
S30000;38MI150A22;5
S27000;38MI150A22;8
S30000;38RC050A22;5
S27000;38RC050A22;6
S27000;38SC015RB23;18
S30000;38SC015RB23;22
S27000;38UV030A18;13
S30000;38UV030A18;13
S27000;38WC050A21;6
S30000;38WC050A21;14
S27000;38WS030A21;9
S30000;38WS030A21;11
S30000;49BASKM23;4
S27000;49BO015CS19;63
S30000;49BO015CS19;76
S27000;49DC004I20;7
S30000;49DC004I20;8
S27000;49DH004I22;50
S30000;49DH004I22;66
S30000;49ET007CB22;4
S30000;49GD035CB21;109
S27000;49GD035CB21;42
S27000;49HD035A15;1
S30000;49HD035A15;124
S27000;49HD035K17;12
S30000;49HD035K17;10
S30000;49LC020A20;52
S27000;49LD030I21;11
S30000;49LD030I21;15
S30000;49MA010CB21;4
S27000;49MA010K22;9
S30000;49MA010K22;13
S27000;49MC014I23;25
S30000;49MC014I23;61
S27000;49MTAT23;5
S30000;49MTAT23;2
S27000;49OR005I21;74
S30000;49OR005I21;38
S30000;49SH035E21;73
S30000;52AF006G20;121
S27000;52AF006G20;32
S27000;52AS006E19;55
S30000;52AS006E19;17
S30000;52AS006FV21;19
S30000;52AS006G21;57
S27000;52AS006P19;11
S30000;52AS006P19;83
S27000;52BY001I22;159
S30000;52BY001I22;176
S27000;52CL0015K21;22
S30000;52CL0015K21;17
S30000;52CP0015I22;44
S27000;52CP006K22;75
S30000;52CP006K22;9
S27000;52CV0015K22;40
S30000;52CV0015K22;16
S30000;52DB001I20;74
S30000;52DE001I21;45
S27000;52DH001I22;26
S30000;52DH001I22;111
S30000;52DL002I21;80
S27000;52DL002I21;54
S30000;52DS001I20;68
S30000;52ER002I21;76
S27000;52EV002I22;71
S30000;52EV002I22;39
S27000;52GD0015A18;33
S30000;52GD0015A18;23
S27000;52HCTM23;5
S27000;52HD001I23;22
S30000;52HD001I23;33
S30000;52HD006A18;26
S27000;52HS004A18;1
S30000;52HS004A18;37
S27000;52LGEBOX18;1
S30000;52LGEBOX18;5
S27000;52MC006G21;110
S30000;52MC006G21;33
S27000;52MGENSA21GPS;18
S30000;52MGENSA21GPS;19
S27000;52MOCOL316;1
S27000;52MS001I20;56
S30000;52MS001I20;40
S27000;52SE0015I22;21
S30000;52SE0015I22;62
S27000;52SGENSA21GPS;26
S30000;52SGENSA21GPS;97
S27000;52SH006E19;200
S30000;52SH006E19;86
S27000;52SH006FV21;81
S30000;52SH006FV21;37
S27000;52SH006G21;10
S30000;52SH006G21;72
S27000;52SH006P19;40
S30000;52TS001I22;66
S30000;52YGERIB20;2
S30000;98BBMA010KA3;52
S27000;ACPOCVEC00001;248
S30000;ACPOCVEC00001;297
S27000;ACPOCVEC00002;401
S30000;ACPOCVEC00002;430
S27000;ACPOCVEC00003;106
S30000;ACPOCVEC00003;81
S27000;ACPOCVEC00004;176
S30000;ACPOCVEC00004;79
S30000;ACPOCVEC00005;2
S30000;SGOCVE600004;7
S27000;SGOCVE600006;63
S30000;SGOCVE600006;46
S27000;SGOCVKI00236;6
S30000;SGOCVKI00236;1
