S20;SGOCVKI00218;1
S20;SGOCVKI00234;11
S20;SGOCVKI00236;11
S20;SGOCVKI00239;8
S20;SGOCVKI00240;5
S28000;52SP001I19;134
S28000;52STINO22;22
S28000;52TS001I22;356
S28000;52TS001R21;97
S28000;52YGERIB20;4
S28000;98BBGD030VE4;40
S28000;98BBMA010KA3;69
S28000;ACPOCVEC00001;568
S28000;ACPOCVEC00002;269
S28000;ACPOCVEC00003;273
S28000;ACPOCVEC00004;95
S28000;ACPOCVEC00005;310
S28000;SGOCVE600004;80
S28000;SGOCVKI00218;3
S28000;SGOCVKI00232;5
S28000;SGOCVKI00234;80
S28000;SGOCVKI00235;14
S28000;SGOCVKI00236;17
S28000;SGOCVKI00239;9
S28000;SGOCVKI00240;6
S28000;SGOCVKI00241;4
S28000;SGOCVKI00242;2
S29000;52RIB2NO22;17
S29000;52RIBOXNO22;1454
S29000;52SGENSA21GPS;167
S29000;52SH006E19;69
S29000;52SH006FV21;75
S29000;52SH006G21;93
S29000;52SH006P19;80
S29000;52SP001I19;21
S29000;52STINO22;21
S29000;52TS001I22;142
S29000;52TS001R21;76
S29000;98BBLC030VE5;150
S29000;SGOCVE600004;379
S29000;SGOCVKI00218;1
S29000;SGOCVKI00219;1
S29000;SGOCVKI00224;1
S29000;SGOCVKI00226;1
S29000;SGOCVKI00227;1
S29000;SGOCVKI00234;24
S29000;SGOCVKI00235;15
S29000;SGOCVKI00236;10
S29000;SGOCVKI00239;7
S29000;SGOCVKI00240;4
S29000;SGOCVKI00244;1
S29000;SGOCVKI00254;1
S90000;01BK010K14;1
S90000;01BL012K18;10
S90000;01BL012KC22H;12
S90000;01BL012KG22H;16
S90000;01BM050K19;1
S90000;01BM050K23;10
S90000;01BM150K19;10
S90000;01BV050K16;2
S90000;01CD250K17;4
S90000;01CD250KC22H;11
S90000;01CE200KC22H;16
S90000;01CF050K22;1
S90000;01CL050K21;10
S90000;01CL175K22;7
S90000;01CL200K17;18
S90000;01CL200KG22H;7
S90000;01CM300K20;10
S90000;01CM500K20;13
S90000;01CMJ075K21;11
S90000;01CMR500K20;15
S90000;01CP050K22;1
S90000;01CP100KC22H;11
S90000;01CP200K22;10
S90000;01CPR200K22;1
S90000;01CV050K18;19
S90000;01CV050K22;7
S90000;01EC200K17;2
S90000;01EC200K22;14
S90000;01EM075K20;8
S90000;01EN300KB19;14
S90000;01HD250K17;4
S90000;01HD500K20;15
S90000;01HDR500K20;19
S90000;01HF100K17;3
S90000;01HN0075K19;7
S90000;01HN075KG22H;3
S90000;01HV030K16;4
S90000;01KTPWP21;13
S90000;01LC250K17;9
S90000;01LC500K20;1
S90000;01LT300K20;7
S90000;01MA030K22H;30
S90000;01MA030KC22H;1
S90000;01MA030KG22H;14
S90000;01MA150K18;2
S90000;01MA150K22;14
S90000;01MA150KC22H;32
S90000;01MA150KG22H;2
S90000;01MD200KG22H;17
S90000;01MR030K14;7
S90000;01ORKAR22;6
S90000;01PI030K18;9
S90000;01PI150K18;11
S27000;01BK010K14;24
S10;01BL012K18;10
S27000;01BL012K18;6
S10;01BM050K23;14
S27000;01BM050K23;9
S10;01BM150K19;23
S27000;01BM150K19;12
S10;01BV050K16;3
S10;01CD250K17;8
S27000;01CD250K17;10
S10;01CE200KC22H;1
S27000;01CE200KC22H;1
S27000;01CF050K22;9
S10;01CL050K21;13
S27000;01CL050K21;3
S10;01CL175K22;6
S27000;01CL175K22;9
S10;01CL200KG22H;1
S27000;01CL200KG22H;1
S10;01CM300K20;11
S27000;01CM300K20;7
S10;01CM500K20;6
S27000;01CM500K20;6
S10;01CMJ075K21;9
S27000;01CMJ075K21;9
S10;01CMR500K20;13
S27000;01CMR500K20;7
S27000;01CP100KC22H;5
S10;01CP200K22;11
S27000;01CP200K22;12
S10;01CPR200K22;12
S27000;01CPR200K22;9
S10;01CV050K22;1
S27000;01CV050K22;4
S10;01EC200K22;12
S27000;01EC200K22;10
S10;01EM075K20;3
S27000;01EM075K20;3
S10;01HD250K17;5
S27000;01HD250K17;8
S10;01HD500K20;5
S27000;01HD500K20;10
S10;01HDR500K20;12
S27000;01HDR500K20;10
S10;01HF100K17;4
S27000;01HF100K17;6
S10;01HN0075K19;7
S27000;01HN0075K19;6
S10;01HV030K16;6
S27000;01HV030K16;4
S10;01LC250K17;13
S27000;01LC250K17;13
S10;01LT300K20;30
S28000;01BK010K14;14
S28000;01BL012K18;31
S28000;01BM050K23;4
S28000;01BM150K19;17
S28000;01BV050K16;1
S28000;01CD250K17;26
S28000;01CL050K21;5
S28000;01CL175K22;5
S28000;01CL200KG22H;34
S28000;01CM300K20;9
S28000;01CM500K20;13
S28000;01CMJ075K21;16
S28000;01CMR500K20;8
S28000;01CP200K22;15
S28000;01CPR200K22;16
S28000;01CV050K22;4
S28000;01EC200K22;17
S28000;01EM075K20;4
S28000;01HD250K17;8
S28000;01HD500K20;13
S28000;01HDR500K20;11
S28000;01HF100K17;5
S28000;01HN0075K19;17
S28000;01HV030K16;3
S28000;01LC250K17;12
S28000;01LT300K20;12
S28000;01MA030K22;24
S28000;01MA030K22H;1
S28000;01MA075K22;43
S28000;01MA150K22;23
S28000;01MA150KG22H;5
S28000;01MR030K14;17
S28000;01PI030K18;9
S28000;01PI150K18;15
S28000;01RL500K20;17
S28000;01RV500K20;8
S28000;01SA100LT20;13
S28000;01SA100LV20;12
S28000;01SA100VE20;20
S28000;01SA250LT20;18
S28000;01SA250LV20;11
S28000;01SA250VE20;10
S28000;01SA300KRO22;2
S28000;01SA500KRO22;6
S28000;01SA9000KV21;1
S28000;01SAR500KRO22;14
S28000;01SL0045K13;17
S28000;01SL300VE20;9
S28000;01SL500LV20;5
S28000;01SL500VE20;10
S28000;10CRAKT22;1
S28000;10EST250V21;24
S31000;01BK010K14;22
S31000;01BL012K18;16
S31000;01BL012KC22H;3
S31000;01BL012KG22H;3
S31000;01BM050K23;33
S31000;01BM150K19;26
S31000;01CD250K17;10
S31000;01CF050K22;14
S31000;01CL050K21;3
S31000;01CL175K22;5
S31000;01CM300K20;5
S31000;01CM500K20;10
S31000;01CMJ075K21;24
S31000;01CMR500K20;1
S31000;01CP200K22;3
S31000;01CPR200K22;14
S31000;01EC200K22;12
S31000;01EM075K20;6
S31000;01HD250K17;5
S31000;01HD500K20;7
S31000;01HDR500K20;8
S31000;01HF100K17;4
S31000;01HN0075K19;15
S31000;01HV030K16;1
S31000;01LC250K17;18
S31000;01LT300K20;19
S31000;01MA030K22;2
S31000;01MA030KC22H;3
S31000;01MA075K22;7
S31000;01MA150K22;36
S31000;01MA150KG22H;28
S31000;01MR030K14;1
S31000;01PI030K18;14
S31000;01PI150K18;4
S31000;01RL500K20;8
S31000;01RV500K20;10
S31000;01SA100LT20;5
S31000;01SA100LV20;6
S31000;01SA100VE20;10
S31000;01SA250LT20;5
S31000;01SA250LV20;11
S31000;01SA250VE20;13
S31000;01SA300KRO22;6
S31000;01SA500KRO22;10
S31000;01SA9000KV21;1
S31000;01SAR500KRO22;17
S31000;01SL0045K13;25
S31000;01SL300VE20;16
S31000;01SL500LV20;5
S31000;01SL500RO20;1
S31000;01SL500VE20;5
S31000;10EST250V21;24
S20;01BK010K14;19
S30000;01BK010K14;19
S30000;01BL012K18;7
S20;01BL012K18;11
S20;01BM050K23;2
S30000;01BM050K23;10
S30000;01BM150K19;6
S20;01BM150K19;25
S20;01BV050K16;9
S20;01CD250K17;16
S30000;01CD250K17;14
S20;01CE200KC22H;6
S20;01CF050K22;3
S30000;01CF050K22;9
S30000;01CL050K21;3
S20;01CL050K21;7
S20;01CL175K22;5
S30000;01CL175K22;5
S30000;01CL200KG22H;7
S20;01CL200KG22H;3
S20;01CM300K20;7
S30000;01CM300K20;5
S30000;01CM500K20;9
S20;01CM500K20;13
S20;01CMJ075K21;19
S30000;01CMJ075K21;7
S30000;01CMR500K20;3
S20;01CMR500K20;18
S30000;01CP100KC22H;3
S30000;01CP200K22;4
S20;01CP200K22;20
S20;01CPR200K22;16
S30000;01CPR200K22;6
S30000;01CV050K22;4
S20;01CV050K22;12
S20;01EC200K22;7
S30000;01EC200K22;13
S30000;01EM075K20;2
S30000;01HD250K17;9
S20;01HD250K17;13
S20;01HD500K20;15
S30000;01HD500K20;11
S30000;01HDR500K20;9
S20;01HDR500K20;14
S20;01HF100K17;8
S30000;01HF100K17;3
S30000;01HN0075K19;15
S20;01HN0075K19;13
S30000;01HN075KG22H;1
S30000;01HV030K16;4
S20;01HV030K16;4
S20;01LC250K17;23
S30000;01LC250K17;22
S29000;01BK010K14;19
S29000;01BL012K18;18
S29000;01BM050K23;10
S29000;01BM150K19;46
S29000;01BV050K16;1
S29000;01CD250K17;60
S29000;01CF050K22;7
S29000;01CL050K21;8
S29000;01CL175K22;6
S29000;01CL200KG22H;11
S29000;01CM300K20;12
S29000;01CM500K20;21
S29000;01CMJ075K21;28
S29000;01CMR500K20;42
S29000;01CP200K22;32
S29000;01CPR200K22;35
S29000;01CV050K22;10
S29000;01EC200K22;54
S29000;01EM075K20;8
S29000;01HD250K17;20
S29000;01HD500K20;19
S29000;01HDR500K20;48
S29000;01HF100K17;16
S29000;01HN0075K19;17
S29000;01HV030K16;2
S29000;01LC250K17;26
S29000;01LT300K20;16
S29000;01MA030K22;66
S29000;01MA030KC22H;1
S29000;01MA075K22;37
S29000;01MA150K22;62
S29000;01MR030K14;19
S29000;01ORKAR22;2
S29000;01PI030K18;6
S29000;01PI150K18;28
S29000;01RL500K20;50
S29000;01RV500K20;34
S29000;01SA050KC22H;1
S29000;01SA050KG22H;4
S29000;01SA050KV20;1
S29000;01SA100LT20;24
S29000;01SA100LV20;15
S29000;01SA100VE20;20
S29000;01SA250LT20;27
S29000;01SA250LV20;21
S29000;01SA250VE20;26
S29000;01SA300KRO22;6
S29000;01SA500KRO22;7
S29000;01SAR500KRO22;22
S29000;01SL0045K13;23
S29000;01SL0045KR22;2
S29000;01SL300LV20;3
S20;27DS030I20;6
S20;27ER015I22;15
S20;27ER050I21;10
S20;27ER150I21;15
S20;27EV200I19;5
S20;27HC050I18;6
S20;27HCR050I16;1
S20;27HS030I18;2
S20;27MI150I20;2
S20;27MP050I20;37
S20;27MP150I22;10
S20;27MQ065I15A;4
S20;27MS050I20;6
S20;27OR030I21;25
S20;27OR050I21;23
S20;27SP030I19;3
S20;29ASH240A20;8
S20;29BP100A22;3
S20;29EC200A21;1
S20;29GE200A21;17
S20;29HD250A15;17
S20;29HD500A15;40
S20;29HS100A22SM;9
S20;29LC200A20US;30
S20;29MA030A17;18
S20;29MA075A21;23
S20;29RC200A20;35
S20;29RH500A15;38
S20;29SA050A21;12
S20;29SE125A21;18
S20;29SH240A20;8
S20;29VC240A22;13
S20;38BV050A19;2
S20;38BV050A22;1
S20;38EV075A21;11
S20;38FT200A21;11
S20;38MI150A22;8
S20;38RC050A22;5
S20;38WC050A21;7
S20;38WS030A21;7
S20;49BO015CS19;108
S20;49CRM2NO22;16
S20;49CUPNO22;24
S20;49DC004I20;9
S20;49DH004I20;53
S20;49HD035A15;45
S20;49LC020A20;10
S20;49MA010K22;87
S20;49OR005I21;78
S20;49ORALM22;5
S20;49ORCHB22;8
S20;49ORKAR22;5
S20;49ORMEN22;1
S20;49POCK1NO22;34
S20;52AF006G20;70
S21000;01BK010K14;14
S21000;01BL012K18;13
S21000;01BM050K23;1
S21000;01BM150K19;11
S21000;01CD250K17;16
S21000;01CL050K21;3
S21000;01CL175K22;5
S21000;01CL200KG22H;9
S21000;01CM300K20;3
S21000;01CM500K20;7
S21000;01CMJ075K21;9
S21000;01CMR500K20;11
S21000;01CP200K22;12
S21000;01CPR200K22;10
S21000;01CV050K22;6
S21000;01EC200K22;12
S21000;01EM075K20;4
S21000;01HD250K17;20
S21000;01HD500K20;10
S21000;01HDR500K20;11
S21000;01HF100K17;7
S21000;01HN0075K19;7
S21000;01HV030K16;4
S21000;01LC250K17;17
S21000;01LT300K20;12
S21000;01MA030K22;101
S21000;01MA030K22H;1
S21000;01MA030KC22H;20
S21000;01MA075K22;12
S21000;01MA150K22;23
S21000;01MR030K14;62
S21000;01PI030K18;6
S21000;01PI150K18;12
S21000;01PWPKT22;6
S21000;01RL500K20;8
S21000;01RV500K20;10
S21000;01SA100LT20;10
S21000;01SA100LV20;12
S21000;01SA100VE20;13
S21000;01SA250LT20;6
S21000;01SA250LV20;12
S21000;01SA250VE20;18
S21000;01SA300KRO22;5
S21000;01SA500KRO22;5
S21000;01SAR500KRO22;10
S21000;01SL0045K13;22
S21000;01SL0045KR22;1
S21000;01SL300VE20;12
S21000;01SL500LV20;9
S21000;01SL500VE20;6
S21000;11AS040SG22;17
S21000;11BC100G21;1
S90000;49MWC030I19;101
S90000;49NOTNO22;99
S90000;49OR005I21;31
S90000;49PFCWC21;40
S90000;49PI010K18;32
S90000;49PMENNO21;46
S90000;49PMENNO22;8
S90000;49PO1NH18;5
S90000;49PO2HER20;1
S90000;49PO2RS21;36
S90000;49PO2SA19;30
S90000;49POBFNO22;144
S90000;49POCK1NO22;158
S90000;49POCK2NO22;6
S90000;49POCKNO21;125
S90000;49POSUCS22;80
S90000;49POU1O21;139
S90000;49POUCB21;15
S90000;49POUCH2NO21;47
S90000;49POUHE22;39
S90000;49POUID20;1
S90000;49POUIS19;23
S90000;49PWPBM22;7
S90000;49PWPBNO22;29
S90000;49RCWM22;48
S90000;49SH035E21;198
S90000;49TFACH18;19
S90000;49TOBACH20;67
S90000;49TOTMC20;40
S90000;49TOTWC21;90
S90000;49TRAVNO21;81
S90000;49TS004R21;78
S90000;52AF006G20;228
S90000;52AS006E19;253
S90000;52AS006FV21;324
S27000;52AS006G21;138
S90000;52AS006G21;292
S27000;52AS006P19;69
S90000;52AS006P19;207
S90000;52BOXMM22;52
S27000;52BY001I19;147
S90000;52CARDNO22;3
S27000;52CARDNO22;19
S27000;52CD0015A18;16
S27000;52CL0015K21;25
S90000;52CL0015K21;221
S27000;52CP0015I19;55
S90000;52CP0015I19;289
S27000;52CP006K22;302
S90000;52CP006K22;296
S90000;52CUSTNO22;98
S27000;52CV0015K22;110
S90000;52CV0015K22;242
S27000;01LT300K20;10
S10;01MA030K22;23
S27000;01MA030K22;18
S10;01MA075K22;39
S27000;01MA075K22;23
S10;01MA150K22;21
S27000;01MA150K22;30
S27000;01MD200KG22H;1
S10;01MR030K14;66
S27000;01MR030K14;7
S10;01MR150K16;1
S10;01PI030K18;4
S27000;01PI030K18;5
S10;01PI150K18;27
S27000;01PI150K18;13
S27000;01PWPKT22;13
S10;01RL500K20;11
S27000;01RL500K20;7
S10;01RV500K20;15
S27000;01RV500K20;5
S10;01SA100LT20;8
S27000;01SA100LT20;8
S10;01SA100LV20;11
S27000;01SA100LV20;5
S10;01SA100VE20;11
S27000;01SA100VE20;8
S10;01SA250LT20;15
S27000;01SA250LT20;12
S10;01SA250LV20;12
S27000;01SA250LV20;13
S10;01SA250VE20;9
S27000;01SA250VE20;14
S10;01SA300KRO22;7
S27000;01SA300KRO22;5
S10;01SA500KRO22;6
S27000;01SA500KRO22;6
S10;01SAR500KRO22;12
S27000;01SAR500KRO22;7
S10;01SE125K21;2
S27000;01SE125K21;3
S10;01SL0045K13;14
S27000;01SL0045K13;8
S10;01SL0045KR22;1
S10;01SL300LV20;2
S10;01SL300VE20;8
S27000;01SL300VE20;6
S10;01SL500LV20;6
S27000;01SL500LV20;5
S10;01SL500RO20;1
S10;01SL500VE20;8
S27000;01SL500VE20;6
S10;11AS040SG22;16
S27000;11AS040SG22;15
S28000;10EST500V21;27
S28000;10P250V21;24
S28000;10P500V21;23
S28000;11AS040SG22;15
S28000;11AS90005G21;1
S28000;11BC100G21;3
S28000;11BG140CS19;10
S28000;11BG140SH19;4
S28000;11BG140SI19;5
S28000;11BH050A18;4
S28000;11BO100CS19;8
S28000;11BP100I19;8
S28000;11BR100A20;15
S28000;11CD050A18;4
S28000;11CF100TR19;9
S28000;11CM030H19;38
S28000;11CM030H20;87
S28000;11CM030O21;56
S28000;11CM125I19;11
S28000;11EH150A18;6
S28000;11EP010H19;7
S28000;11ET075O21;4
S28000;11FAG10TR19;13
S28000;11GD050A18;8
S28000;11GD075O21;10
S28000;11GD250H19;35
S28000;11GD250H20;19
S28000;11GD250O21;5
S28000;11GE075I20;4
S28000;11GM200I19;19
S28000;11GN195A18;13
S28000;11LC250H19;11
S28000;11LC250H20;12
S28000;11LC250O21;9
S28000;11LD200I19;11
S28000;11LH200I19;15
S28000;11LT300I20;4
S28000;11MH075A19;4
S28000;11MWC200I19;8
S28000;11PEP050I20;3
S28000;11PM100SH19;2
S28000;11PM100SI19;4
S28000;11SA050O21;7
S28000;11SA100H19;6
S28000;11SA100H20;10
S28000;11SAF100H20;3
S28000;11SD100CS19;11
S28000;11SD100SH19;12
S28000;11SD100SI19;3
S28000;11SP200CS19;10
S28000;11SP200SH19;12
S28000;11SP200SI19;6
S28000;11SV080I19;4
S90000;01PWPKT22;22
S90000;01RL500K20;17
S90000;01RV500K20;13
S90000;01SA050KC22H;9
S90000;01SA050KG22H;13
S90000;01SA100LT20;14
S90000;01SA100LV20;12
S90000;01SA100VE20;12
S90000;01SA250LT20;11
S90000;01SA250LV20;7
S90000;01SA250VE20;6
S90000;01SA300KRO22;11
S90000;01SA500KRO22;11
S90000;01SAR500KRO22;6
S90000;01SL0045K13;8
S90000;01SL0045KR22;20
S90000;01SL300LV20;8
S90000;01SL300VE20;8
S90000;01SL500LV20;14
S90000;01SL500VE20;14
S90000;10BOWEB219;1500
S90000;10BOWEB319;2600
S90000;10BOWEB419;2500
S90000;10CACLA22;8
S90000;10CRAKT22;41
S90000;11BC100G21;7
S90000;11BG140CS19;8
S90000;11BG140SH19;10
S90000;11BG140SI19;7
S90000;11BG140SL19;12
S90000;11BH050A18;9
S90000;11BO100CS19;16
S90000;11BO100CS22H;22
S90000;11BP100I19;8
S90000;11BR100A20;10
S90000;11CD050A18;7
S90000;11CF100TR19;9
S90000;11CM030H19;12
S90000;11CM030H20;13
S90000;11CM030O21;10
S90000;11CM125I19;6
S90000;11EH150A18;10
S90000;11EP010H19;6
S90000;11EP050H19;5
S90000;11ET010H20;10
S90000;11ET050H20;8
S90000;11ET075O21;7
S90000;11FAG10TR19;11
S90000;11GD050A18;8
S90000;11GD075O21;244
S90000;11GD250H19;8
S90000;11GD250H20;15
S30000;01LT300K20;14
S20;01LT300K20;4
S20;01MA030K22;41
S30000;01MA030K22;38
S30000;01MA075K22;17
S20;01MA075K22;27
S20;01MA150K22;25
S30000;01MA150K22;28
S30000;01MA150KG22H;6
S20;01MA150KG22H;27
S20;01MD200KG22H;2
S30000;01MD200KG22H;2
S30000;01MR030K14;16
S20;01MR030K14;11
S30000;01MR150K16;4
S30000;01PI030K18;14
S20;01PI030K18;13
S20;01PI150K18;18
S30000;01PI150K18;14
S30000;01RL500K20;8
S20;01RL500K20;18
S20;01RV500K20;13
S30000;01RV500K20;15
S30000;01SA100LT20;7
S20;01SA100LT20;21
S20;01SA100LV20;22
S30000;01SA100LV20;10
S30000;01SA100VE20;9
S20;01SA100VE20;16
S20;01SA250LT20;12
S30000;01SA250LT20;5
S30000;01SA250LV20;7
S20;01SA250LV20;18
S20;01SA250VE20;17
S30000;01SA250VE20;13
S30000;01SA300KRO22;5
S20;01SA300KRO22;8
S20;01SA500KRO22;12
S30000;01SA500KRO22;4
S30000;01SAR500KRO22;8
S20;01SAR500KRO22;12
S20;01SL0045K13;19
S30000;01SL0045K13;26
S30000;01SL300LV20;1
S20;01SL300LV20;8
S20;01SL300VE20;10
S30000;01SL300VE20;5
S30000;01SL500LV20;5
S20;01SL500LV20;10
S20;01SL500VE20;6
S30000;01SL500VE20;5
S30000;11AS040SG22;15
S20;11AS040SG22;24
S31000;10EST500V21;39
S31000;10P250V21;25
S31000;10P500V21;39
S31000;11AS040SG22;22
S31000;11AS90005G21;1
S31000;11BG140SH19;4
S31000;11BG140SI19;1
S31000;11BH050A18;4
S31000;11BO100CS19;3
S31000;11BO100CS22H;1
S31000;11BP100I19;5
S31000;11BR100A20;5
S31000;11CD050A18;7
S31000;11CF100TR19;12
S31000;11CM030H19;8
S31000;11CM030H20;49
S31000;11CM030O21;4
S31000;11CM125I19;11
S31000;11EH150A18;5
S31000;11EP010H19;10
S31000;11ET010H20;1
S31000;11ET050H20;3
S31000;11ET075O21;9
S31000;11FAG10TR19;13
S31000;11GD075O21;47
S31000;11GD250H19;2
S31000;11GD250H20;9
S31000;11GD250O21;5
S31000;11GE075I20;5
S31000;11GM200I19;6
S31000;11GN195A18;9
S31000;11LC250H19;4
S31000;11LC250H20;8
S31000;11LC250O21;11
S31000;11LD200I19;6
S31000;11LH200I19;9
S31000;11LT300I20;3
S31000;11MH075A19;4
S31000;11MWC200I19;1
S31000;11PEP050I20;4
S31000;11PM100SH19;4
S31000;11PM100SI19;4
S31000;11SA050O21;3
S31000;11SA100H19;5
S31000;11SA100H20;12
S31000;11SAF100H20;2
S31000;11SD100CS19;9
S31000;11SD100SH19;10
S31000;11SD100SI19;4
S31000;11SH90005G21;1
S31000;11SP200CS19;3
S31000;11SP200SH19;5
S31000;11SP200SL19;5
S24000;52AF006G20;167
S20;52AS006E19;65
S24000;52AS006E19;195
S20;52AS006FV21;111
S24000;52AS006FV21;113
S20;52AS006G21;132
S24000;52AS006G21;174
S20;52AS006P19;62
S24000;52AS006P19;80
S20;52BY001I19;40
S24000;52BY001I19;63
S20;52CARDNO22;22
S24000;52CARDNO22;16
S20;52CD0015A18;18
S24000;52CD0015A18;37
S20;52CL0015K21;56
S24000;52CL0015K21;105
S20;52CP0015I19;86
S24000;52CP0015I19;102
S20;52CP006K22;221
S24000;52CP006K22;360
S20;52CRA1C22;3
S20;52CRA2C22;3
S20;52CRA3C22;3
S20;52CRA4C22;3
S20;52CV0015K22;65
S24000;52CV0015K22;105
S20;52DB001I20;125
S24000;52DB001I20;142
S20;52DC0015I20;192
S24000;52DC0015I20;332
S20;52DE001I21;161
S24000;52DE001I21;282
S20;52DF002I17;130
S24000;52DF002I17;249
S20;52DH001I22;283
S24000;52DH001I22;285
S20;52DL002I21;171
S24000;52DL002I21;176
S20;52DS001I20;61
S24000;52DS001I20;34
S20;52ER002I21;315
S24000;52ER002I21;350
S20;52GD0015A18;53
S24000;52GD0015A18;46
S20;52GIF1NO22;6
S24000;52GIF1NO22;6
S20;52GIF2NO22;6
S24000;52GIF2NO22;6
S20;52HD006A18;279
S24000;52HD006A18;324
S20;52HS001I17;81
S24000;52HS001I17;109
S20;52HS004A18;90
S29000;01SL300VE20;4
S29000;01SL500LV20;14
S29000;01SL500VE20;14
S29000;11AS040SG22;17
S29000;11BC100G21;2
S29000;11BG140CS19;17
S29000;11BG140SH19;23
S29000;11BG140SI19;6
S29000;11BH050A18;11
S29000;11BO100CS19;52
S29000;11BP100I19;4
S29000;11BR100A20;14
S29000;11CD050A18;9
S29000;11CF100TR19;12
S29000;11CM030H19;93
S29000;11CM030H20;87
S29000;11CM030O21;25
S29000;11CM125I19;39
S29000;11EH150A18;5
S29000;11EP010H19;14
S29000;11ET010H20;5
S29000;11ET050H20;4
S29000;11ET075O21;9
S29000;11FAG10TR19;7
S29000;11GD050A18;13
S29000;11GD075O21;19
S29000;11GD250H19;49
S29000;11GD250H20;49
S29000;11GD250O21;29
S29000;11GE075I20;4
S29000;11GM200I19;48
S29000;11GN195A18;19
S29000;11LC250H19;64
S29000;11LC250H20;50
S29000;11LC250O21;82
S29000;11LD200I19;19
S29000;11LH200I19;11
S29000;11LT300I20;4
S29000;11MH075A19;4
S29000;11MWC200I19;5
S29000;11PEP050I20;5
S29000;11PM100SH19;6
S29000;11PM100SI19;6
S29000;11SA050O21;4
S29000;11SA100H20;17
S29000;11SAF100H20;15
S29000;11SD100CS19;16
S29000;11SD100SH19;13
S29000;11SD100SI19;6
S29000;11SD100SL19;1
S29000;11SP200CS19;18
S29000;11SP200SH19;18
S29000;11SP200SI19;14
S10;11BC100G21;3
S27000;11BC100G21;13
S10;11BG140CS19;25
S27000;11BG140CS19;8
S10;11BG140SH19;23
S27000;11BG140SH19;8
S10;11BG140SI19;7
S27000;11BG140SI19;5
S10;11BG140SL19;5
S10;11BH050A18;4
S27000;11BH050A18;4
S10;11BO100CS19;21
S27000;11BO100CS19;9
S10;11BO100CS22H;1
S10;11BP100I19;4
S27000;11BP100I19;4
S10;11BR100A20;4
S27000;11BR100A20;5
S10;11CD050A18;5
S27000;11CD050A18;6
S10;11CF100TR19;12
S27000;11CF100TR19;7
S10;11CM030H19;44
S27000;11CM030H19;47
S10;11CM030H20;67
S27000;11CM030H20;9
S10;11CM030O21;47
S27000;11CM030O21;33
S10;11CM125I19;8
S27000;11CM125I19;9
S10;11EH150A18;4
S27000;11EH150A18;10
S10;11EP010H19;4
S27000;11EP010H19;4
S10;11ET050H20;5
S27000;11ET050H20;5
S10;11ET075O21;3
S27000;11ET075O21;5
S10;11FAG10TR19;51
S27000;11FAG10TR19;5
S10;11GD050A18;3
S27000;11GD050A18;4
S10;11GD075O21;11
S27000;11GD075O21;21
S10;11GD250H19;29
S27000;11GD250H19;7
S10;11GD250H20;19
S27000;11GD250H20;13
S10;11GD250O21;20
S27000;11GD250O21;12
S10;11GE075I20;4
S27000;11GE075I20;5
S10;11GM200I19;12
S27000;11GM200I19;9
S24000;01BL012K18;8
S24000;01BL012KC22H;4
S24000;01BM050K23;4
S24000;01BM150K19;5
S24000;01BV050K16;10
S24000;01CD250K17;8
S24000;01CF050K22;1
S24000;01CL050K21;5
S24000;01CL175K22;5
S24000;01CL200KG22H;10
S24000;01CM300K20;6
S24000;01CM500K20;9
S24000;01CMJ075K21;9
S24000;01CMR500K20;13
S24000;01CP200K22;7
S24000;01CPR200K22;6
S24000;01CV050K22;7
S24000;01EC200K22;11
S24000;01EM075K20;3
S24000;01HD250K17;10
S24000;01HD500K20;2
S24000;01HDR500K20;10
S24000;01HF100K17;4
S24000;01HN0075K19;8
S24000;01HV030K16;3
S24000;01LC250K17;16
S24000;01LT300K20;13
S24000;01MA030K22;23
S24000;01MA030KC22H;1
S24000;01MA030KG22H;1
S24000;01MA075K22;24
S24000;01MA150K22;47
S24000;01MD200KG22H;8
S24000;01MR030K14;10
S24000;01MR150K16;1
S24000;01PI030K18;9
S24000;01PI150K18;9
S24000;01RL500K20;6
S24000;01RV500K20;5
S24000;01SA050KV20;6
S24000;01SA100LT20;11
S24000;01SA100LV20;6
S24000;01SA100VE20;8
S24000;01SA250LT20;6
S24000;01SA250LV20;10
S24000;01SA250VE20;7
S24000;01SA300KRO22;5
S24000;01SA500KRO22;6
S24000;01SAR500KRO22;8
S24000;01SL0045K13;25
S24000;01SL300VE20;4
S24000;01SL500LV20;3
S21000;11BG140CS19;11
S21000;11BG140SH19;11
S21000;11BG140SI19;6
S21000;11BH050A18;3
S21000;11BO100CS19;9
S21000;11BP100I19;4
S21000;11BR100A20;4
S21000;11CD050A18;3
S21000;11CF100TR19;13
S21000;11CM030H19;2
S21000;11CM030H20;19
S21000;11CM030O21;5
S21000;11CM125I19;13
S21000;11EH150A18;4
S21000;11EP010H19;10
S21000;11ET050H20;6
S21000;11ET075O21;8
S21000;11FAG10TR19;9
S21000;11GD050A18;7
S21000;11GD075O21;20
S21000;11GD250H19;14
S21000;11GD250H20;13
S21000;11GD250O21;15
S21000;11GE075I20;5
S21000;11GM200I19;8
S21000;11GN195A18;8
S21000;11LC250H19;5
S21000;11LC250H20;14
S21000;11LC250O21;6
S21000;11LD200I19;10
S21000;11LH200I19;7
S21000;11LT300I20;6
S21000;11MH075A19;3
S21000;11MWC200I19;10
S21000;11PEP050I20;4
S21000;11PM100SH19;4
S21000;11PM100SI19;4
S21000;11SA050O21;24
S21000;11SA100H19;1
S21000;11SA100H20;6
S21000;11SAF100H20;7
S21000;11SD100CS19;14
S21000;11SD100SH19;13
S21000;11SD100SI19;14
S21000;11SD100SL19;2
S21000;11SP200CS19;2
S21000;11SP200SH19;8
S21000;11SP200SI19;7
S21000;11SV080I19;4
S21000;15AS250VA18;6
S21000;15BA500L16A;11
S21000;15BM500VB21;15
S21000;15ET010VB19;4
S28000;12GD245NO21H;2
S28000;15AS250VA18;11
S28000;15BA500L16A;17
S28000;15BM500VB21;53
S28000;15CF150VBL21;7
S28000;15DF200VBL21;38
S28000;15ET010VB19;2
S28000;15ET100VA20;10
S28000;15GD075L21;80
S28000;15GD250L21;15
S28000;15GD250VA20;7
S28000;15GD250VB21;10
S28000;15GD250VBL22;63
S28000;15GD500VB21;15
S28000;15GD9000V21;1
S28000;15GM065L21;135
S28000;15GM065VB21;107
S28000;15GM280VB21;3
S28000;15GN300L21;12
S28000;15HE005L14;10
S28000;15LC250L14;19
S28000;15LC250VA20;2
S28000;15LC250VB3;15
S28000;15LM300L11;11
S28000;15MA030L21;86
S28000;15MA030VA5;10
S28000;15MA030VB3;60
S28000;15MA075L20;53
S28000;15MA075VB4;9
S28000;15RB500L17;21
S28000;15RC500VB21;12
S28000;15RG500L14;7
S28000;15RG500VA20;7
S28000;15RO010VBM22;84
S28000;15SA075VB21;7
S28000;15SH250VA20;9
S28000;17AF100G20;7
S28000;17AS250E19;13
S28000;17AS250FV21;5
S28000;17AS250G18;3
S28000;17AS250G21;20
S28000;17AS250P19;6
S28000;17AS500E19;19
S28000;17AS500FV21;6
S28000;17AS500G21;15
S28000;17AS500P19;6
S28000;17DO050F13;10
S28000;17ER075P19;13
S28000;17HB050A22;20
S28000;17HI001G19;55
S28000;17HI100G19;8
S28000;17MC200G21;10
S27000;52DB001I20;101
S90000;52DB001I20;207
S27000;52DC0015I20;283
S90000;52DC0015I20;161
S27000;52DE001I21;82
S90000;52DE001I21;100
S27000;52DF002I17;105
S90000;52DF002I17;326
S27000;52DH001I22;292
S90000;52DH001I22;410
S27000;52DL002I21;162
S90000;52DL002I21;164
S27000;52DS001I20;100
S90000;52DS001I20;67
S27000;52ER002I21;305
S90000;52ET001O21;78
S90000;52FP0015I19;100
S27000;52FP0015I19;82
S27000;52GD0015A18;46
S27000;52GIF1NO22;6
S27000;52GIF2NO22;6
S90000;52HCTM21;25
S90000;52HCTM22;32
S27000;52HD006A18;277
S90000;52HD006A18;504
S90000;52HR004G17;100
S27000;52HS001I17;33
S27000;52HS004A18;104
S90000;52HS004A18;285
S27000;52LABANO22;5
S90000;52LASANO22;120
S27000;52LASANO22;24
S27000;52LC006A20;372
S90000;52LC006A20;502
S27000;52LGEBAG19;47
S27000;52LGEBOX18;10
S90000;52LGEBOX18;36
S27000;52LGENSA21;119
S27000;52LT002R21;39
S90000;52LT002R21;35
S90000;52MA003K16A;327
S90000;52MA003K22A;376
S27000;52MA003K22A;169
S27000;52MC006G21;242
S90000;52MC006G21;100
S27000;52MGEBOX18;20
S27000;52MGENSA21GPS;57
S90000;52MIBANO22;100
S90000;52MMB1NO22;35
S27000;52MMB2NO22;1
S90000;52MMB2NO22;23
S90000;52MMB3NO22;28
S27000;52MMB3NO22;15
S90000;11GD250HF22;1
S90000;11GD250O21;12
S90000;11GE075I20;4
S90000;11GM200I19;9
S90000;11GN040A19;88
S90000;11GN195A18;8
S90000;11HE005CS19;12
S90000;11LC250H19;11
S90000;11LC250H20;12
S90000;11LC250O21;11
S90000;11LD200I19;10
S90000;11LH200I19;7
S90000;11LT300I20;10
S90000;11MH075A19;9
S90000;11MWC200I19;5
S90000;11PEP050I20;2
S90000;11PM100SH19;7
S90000;11PM100SI19;10
S90000;11SA050O21;12
S90000;11SA100H20;10
S90000;11SD100CS19;6
S90000;11SD100SH19;8
S90000;11SD100SI19;10
S90000;11SD100SL19;9
S90000;11SP200CS19;9
S90000;11SP200SH19;8
S90000;11SP200SI19;5
S90000;11SP200SL19;7
S90000;11SV080I19;7
S90000;15AS250VA18;9
S90000;15BA500L16A;13
S90000;15BM500VB21;2
S90000;15DF200VBL21;1
S90000;15ET100VA20;6
S90000;15ET100VB20;6
S90000;15GD075L15;45
S90000;15GD075L21;103
S90000;15GD250L21;8
S90000;15GD250VA20;10
S90000;15GD250VB21;6
S90000;15GD250VBL22;1
S90000;15GD500VB21;13
S90000;15GM065L21;15
S90000;15GM065VB21;11
S90000;15GM280VB21;6
S90000;15GN300L21;9
S90000;15HE005L14;9
S90000;15LC070VB5;117
S90000;15LC075L15;20
S90000;15LC250L14;7
S90000;15LC250VA20;12
S90000;15LC250VB3;10
S10;11GN195A18;12
S27000;11GN195A18;11
S10;11LC250H19;36
S27000;11LC250H19;8
S10;11LC250H20;20
S27000;11LC250H20;6
S10;11LC250O21;31
S27000;11LC250O21;20
S10;11LD200I19;7
S27000;11LD200I19;6
S10;11LH200I19;4
S27000;11LH200I19;4
S10;11LT300I20;5
S27000;11LT300I20;5
S10;11MH075A19;4
S27000;11MH075A19;4
S10;11MWC200I19;5
S27000;11MWC200I19;5
S10;11PEP050I20;8
S10;11PM100SH19;5
S27000;11PM100SH19;3
S10;11PM100SI19;5
S27000;11PM100SI19;3
S10;11SA050O21;3
S27000;11SA050O21;5
S10;11SA100H19;5
S27000;11SA100H19;9
S10;11SA100H20;2
S27000;11SA100H20;17
S10;11SD100CS19;23
S27000;11SD100CS19;9
S10;11SD100SH19;26
S27000;11SD100SH19;8
S10;11SD100SI19;21
S27000;11SD100SI19;5
S27000;11SD100SL19;1
S10;11SP200CS19;5
S27000;11SP200CS19;8
S10;11SP200SH19;2
S27000;11SP200SH19;3
S10;11SP200SI19;3
S27000;11SP200SI19;4
S10;11SP200SL19;3
S10;11SV080I19;5
S27000;11SV080I19;3
S27000;12GD245NO21H;2
S10;15AS250VA18;8
S27000;15AS250VA18;10
S10;15BA500L16A;12
S27000;15BA500L16A;10
S10;15BM500VB21;14
S27000;15BM500VB21;17
S10;15ET010VB19;4
S31000;11SV080I19;1
S31000;15AS250VA18;4
S31000;15BA500L16A;7
S31000;15BM500VB21;12
S31000;15ET010VB19;7
S31000;15ET100VA20;5
S31000;15ET100VB20;3
S31000;15GD070VB21;28
S31000;15GD075L21;80
S31000;15GD250L21;14
S31000;15GD250VA20;2
S31000;15GD250VB21;9
S31000;15GD250VBL22;1
S31000;15GD500VB21;7
S31000;15GD9000V21;1
S31000;15GM065L21;9
S31000;15GM065VB21;32
S31000;15GM280VB21;4
S31000;15GN300L21;5
S31000;15HE005L14;3
S31000;15LC250L14;8
S31000;15LC250VA20;7
S31000;15LC250VB3;5
S31000;15LM300L11;7
S31000;15MA030L21;9
S31000;15MA030VA5;4
S31000;15MA030VB3;19
S31000;15ORVER22;1
S31000;15RB500L17;7
S31000;15RC500VB21;10
S31000;15RG500L14;9
S31000;15RG500VA20;6
S31000;15SA070VB6;1
S31000;15SA075VB21;2
S31000;15SH250VA20;3
S31000;17AF100G20;7
S31000;17AS250E19;5
S31000;17AS250FV21;4
S31000;17AS250G18;5
S31000;17AS250G21;12
S31000;17AS250P19;6
S31000;17AS500E19;11
S31000;17AS500FV21;7
S31000;17AS500G21;7
S31000;17AS500P19;6
S31000;17DO050F13;8
S31000;17ER075P19;7
S31000;17HB050A22;9
S31000;17HI001G19;79
S31000;17HI100G19;9
S31000;17MC200G21;11
S31000;17RC500E20;7
S31000;17RC500G18;9
S20;11BC100G21;1
S30000;11BC100G21;6
S30000;11BG140CS19;3
S20;11BG140CS19;9
S20;11BG140SH19;8
S30000;11BG140SH19;1
S30000;11BG140SI19;5
S20;11BG140SI19;10
S30000;11BG140SL19;1
S30000;11BH050A18;4
S20;11BH050A18;12
S20;11BO100CS19;14
S30000;11BO100CS19;15
S30000;11BP100I19;5
S20;11BP100I19;5
S20;11BR100A20;13
S30000;11BR100A20;5
S30000;11CD050A18;5
S20;11CD050A18;6
S20;11CF100TR19;20
S30000;11CF100TR19;11
S20;11CM030H19;4
S20;11CM030H20;10
S30000;11CM030H20;14
S30000;11CM030O21;9
S20;11CM030O21;11
S20;11CM125I19;19
S30000;11CM125I19;11
S30000;11EH150A18;5
S20;11EH150A18;5
S20;11EP010H19;12
S30000;11EP010H19;12
S20;11EP050H19;2
S20;11ET010H20;7
S20;11ET050H20;5
S30000;11ET050H20;1
S30000;11ET075O21;14
S20;11ET075O21;10
S20;11FAG10TR19;10
S30000;11FAG10TR19;13
S30000;11GD050A18;9
S20;11GD050A18;6
S20;11GD075O21;34
S30000;11GD075O21;27
S30000;11GD250H19;9
S20;11GD250H19;26
S20;11GD250H20;15
S30000;11GD250H20;8
S30000;11GD250O21;14
S20;11GD250O21;17
S20;11GE075I20;4
S30000;11GE075I20;5
S30000;11GM200I19;11
S20;11GM200I19;18
S24000;52HS004A18;92
S24000;52LABANO22;12
S20;52LASANO22;133
S24000;52LASANO22;19
S20;52LC006A20;314
S24000;52LC006A20;373
S24000;52LGEBAG19;41
S20;52LGEBOX18;10
S24000;52LGEBOX18;12
S20;52LGENSA21;258
S24000;52LGENSA21;151
S20;52LT002R21;24
S24000;52LT002R21;2
S20;52MA003K22A;226
S24000;52MA003K22A;418
S20;52MC006G21;85
S24000;52MC006G21;124
S20;52MGEBAG19;2
S20;52MGEBOX18;20
S24000;52MGEBOX18;20
S20;52MGENSA21;71
S24000;52MGENSA21;83
S20;52MGENSA21GPS;60
S24000;52MGENSA21GPS;240
S20;52MMB1NO22;31
S24000;52MMB1NO22;1
S20;52MMB2NO22;29
S24000;52MMB2NO22;3
S20;52MMB3NO22;22
S24000;52MMB3NO22;10
S20;52MMBANO22;13
S20;52MMSANO22;129
S24000;52MMSANO22;88
S24000;52MOCOL216;1
S20;52MOCOL316;8
S24000;52MOCOL316;4
S20;52MS001I20;84
S24000;52MS001I20;257
S20;52OR001I21;287
S24000;52OR001I21;355
S20;52PMGBOX18;6
S24000;52PMGBOX18;14
S20;52PS0015R21;68
S24000;52PS0015R21;96
S20;52PSAC18;1
S20;52RBO2NO22;5
S20;52RBO3NO22;5
S20;52RIB1NO22;16
S24000;52RIB1NO22;11
S20;52RIB2NO22;16
S24000;52RIB2NO22;11
S20;52RIBOXNO22;1111
S24000;52RIBOXNO22;687
S20;52SGENSA21GPS;188
S24000;01SL500VE20;5
S24000;11AS040SG22;16
S24000;11BC100G21;11
S24000;11BG140CS19;2
S24000;11BG140SH19;4
S24000;11BG140SI19;4
S24000;11BH050A18;4
S24000;11BO100CS19;42
S24000;11BP100I19;4
S24000;11BR100A20;3
S24000;11CD050A18;4
S24000;11CF100TR19;3
S24000;11CM030H20;7
S24000;11CM030O21;16
S24000;11CM125I19;3
S24000;11EH150A18;4
S24000;11EP010H19;2
S24000;11ET050H20;2
S24000;11ET075O21;3
S24000;11FAG10TR19;5
S24000;11GD050A18;2
S24000;11GD075O21;48
S24000;11GD250H19;23
S24000;11GD250H20;40
S24000;11GD250O21;11
S24000;11GE075I20;5
S24000;11GM200I19;8
S24000;11GN195A18;10
S24000;11LC250H19;27
S24000;11LC250H20;3
S24000;11LC250O21;21
S24000;11LD200I19;9
S24000;11LH200I19;8
S24000;11LT300I20;4
S24000;11MH075A19;8
S24000;11MWC200I19;3
S24000;11PEP050I20;3
S24000;11PM100SH19;3
S24000;11PM100SI19;3
S24000;11SA050O21;26
S24000;11SA100H20;7
S24000;11SAF100H20;8
S24000;11SD100CS19;4
S24000;11SD100SH19;4
S24000;11SD100SI19;3
S24000;11SP200CS19;8
S24000;15AS150VCL21;4
S24000;15AS250VA18;6
S24000;15BA500L16A;12
S24000;15BM500VB21;13
S24000;15ET010VB19;3
S24000;15ET100VA20;3
S29000;11SP200SL19;1
S29000;11SV080I19;14
S29000;12GD245NO21H;2
S29000;15AS250VA18;17
S29000;15BA500L16A;14
S29000;15BM500VB21;15
S29000;15ET010VB19;5
S29000;15ET100VA20;4
S29000;15GD070VB21;169
S29000;15GD075L21;251
S29000;15GD250L21;53
S29000;15GD250VA20;13
S29000;15GD250VB21;52
S29000;15GD250VBL22;35
S29000;15GD500VB21;39
S29000;15GM065L21;27
S29000;15GM065VB21;16
S29000;15GM280VB21;8
S29000;15GN300L21;29
S29000;15HE005L14;6
S29000;15LC250L14;60
S29000;15LC250VA20;12
S29000;15LC250VB3;51
S29000;15LM300L11;17
S29000;15MA030L21;88
S29000;15MA030VA5;16
S29000;15MA030VB3;96
S29000;15MA030VBM8;1
S29000;15MA075L20;41
S29000;15MA075VB4;64
S29000;15RB500L17;16
S29000;15RC500VB21;51
S29000;15RG500L14;42
S29000;15RG500VA20;32
S29000;15RO010VBM22;52
S29000;15SA070VB6;5
S29000;15SA075VB21;9
S29000;15SH250VA20;19
S29000;17AF100G20;58
S29000;17AS250E19;26
S29000;17AS250FV21;10
S29000;17AS250G18;4
S29000;17AS250G21;19
S29000;17AS250P19;5
S29000;17AS500E19;22
S29000;17AS500FV21;18
S29000;17AS500G21;21
S29000;17AS500P19;8
S29000;17DO050F13;20
S29000;17ER075P19;8
S29000;17HB050A22;32
S29000;17HI001G19;75
S27000;15ET010VB19;3
S10;15ET100VA20;3
S27000;15ET100VA20;3
S10;15ET100VB20;3
S27000;15ET100VB20;3
S10;15GD075L21;60
S27000;15GD075L21;4
S10;15GD250L21;12
S27000;15GD250L21;11
S10;15GD250VA20;28
S27000;15GD250VA20;8
S10;15GD250VB21;13
S27000;15GD250VB21;4
S10;15GD250VBL22;28
S27000;15GD250VBL22;19
S10;15GD500VB21;21
S27000;15GD500VB21;12
S10;15GM065L21;56
S27000;15GM065L21;13
S10;15GM065VB21;49
S27000;15GM065VB21;11
S10;15GM280VB21;4
S27000;15GM280VB21;6
S10;15GN300L21;8
S27000;15GN300L21;10
S27000;15GS150VBL22;1
S10;15HE005L14;6
S27000;15HE005L14;5
S10;15LC250L14;35
S27000;15LC250L14;12
S10;15LC250VA20;26
S27000;15LC250VA20;6
S10;15LC250VB3;28
S27000;15LC250VB3;8
S10;15LM300L11;5
S27000;15LM300L11;6
S10;15MA030L21;45
S27000;15MA030L21;30
S10;15MA030VA5;32
S10;15MA030VB3;37
S27000;15MA030VB3;25
S10;15MA075VB4;19
S27000;15MA075VB4;9
S10;15RB500L17;7
S27000;15RB500L17;6
S10;15RC500VB21;17
S27000;15RC500VB21;11
S10;15RG500L14;11
S27000;15RG500L14;8
S10;15RG500VA20;19
S27000;15RG500VA20;11
S10;15RO010VBM22;35
S27000;15RO010VBM22;35
S28000;17RC500E20;13
S28000;17RC500G18;12
S28000;17RC500G21;15
S28000;17RC500P19;10
S28000;17RS500E20;11
S28000;17RS500FV21;5
S28000;17RS500G21;25
S28000;17RS500P19;24
S28000;17SE100FV21;17
S28000;17SH060SE21;6
S28000;17SH060SG21;8
S28000;17SH060SP21;3
S28000;17SH075E19;35
S28000;17SH075G21;66
S28000;17SH300E19;11
S28000;17SH300FV21;11
S28000;17SH300G21;8
S28000;17SH300P19;19
S28000;17SH500E19;19
S28000;17SH500FV21;12
S28000;17SH500G21;16
S28000;17SH500P19;16
S28000;17VI100P19;7
S28000;20AR075O20;9
S28000;20DO050O20;1
S28000;20DO075CD20;1
S28000;20DO130HC20;2
S28000;20ET075CD21;2
S28000;20ET075HC20;5
S28000;20ET075OC20;5
S28000;20FE050H20;1
S28000;20GD250CD20;3
S28000;20GD250HC20;8
S28000;20GD250OC20;5
S28000;20GD500HC20;10
S28000;20HR050H20;1
S28000;20NV150H20;7
S28000;20SA050CD20;3
S28000;24BL012CB5;1
S28000;24BL012R22;2
S28000;24BR050CB21;6
S28000;24BR050CB6;2
S28000;24BR050R22;10
S28000;24CC150R22H;1
S28000;24ET075CB21;5
S28000;24ET075R22;13
S28000;24GD250R22;21
S28000;24GD500R22;16
S28000;24LC250CB4;15
S28000;24LC250R22;22
S28000;24MA030R22;75
S28000;24MA030RV19;48
S28000;24MA075CB21;16
S27000;52MMBANO22;9
S90000;52MMBANO22;105
S90000;52MMBYNO19;85
S27000;52MMSANO22;56
S90000;52MMSANO22;180
S90000;52MOCOL316;36
S27000;52MOCOL316;4
S27000;52MS001I20;123
S90000;52MS001I20;378
S27000;52OR001I21;261
S90000;52OR001I21;259
S27000;52PMGBOX18;1
S27000;52PS0015R21;133
S90000;52PS0015R21;100
S27000;52PSAC18;1
S90000;52RIB1NO22;2
S27000;52RIB1NO22;15
S27000;52RIB2NO22;15
S90000;52RIB2NO22;2
S27000;52RIBOXNO22;618
S90000;52RIBOXNO22;150
S90000;52SGEBAG19;100
S27000;52SGENSA21GPS;52
S27000;52SH006E19;187
S90000;52SH006E19;273
S27000;52SH006FV21;137
S90000;52SH006FV21;295
S27000;52SH006G21;191
S90000;52SH006G21;121
S27000;52SH006P19;104
S90000;52SH006P19;316
S90000;52SMBANO22;300
S90000;52SMSANO22;180
S27000;52SP001I19;41
S90000;52SP001I19;302
S27000;52STINO22;14
S90000;52STINO22;2
S90000;52TBO1M21;54
S90000;52TBO2M21;31
S27000;52TS001I22;83
S90000;52TS001I22;153
S27000;52TS001R21;118
S90000;52TS001R21;166
S90000;98BBACLUFNT1;6
S90000;98BBGD030VE4;7
S90000;98BBGD050VE2;70
S90000;98BBHD035A0;140
S90000;98BBHD050A0;116
S90000;98BBSA025LT2;143
S90000;98BBSA050LT1;144
S90000;98BBSH035AR2;50
S90000;98BBSH050A0;71
S90000;98BBSH050AR2;86
S21000;15ET100VA20;4
S21000;15ET100VB20;1
S21000;15ET100VCL21;3
S21000;15GD075L21;85
S21000;15GD250L21;21
S21000;15GD250VA20;5
S21000;15GD250VB21;24
S21000;15GD250VBL22;17
S21000;15GD500VB21;8
S21000;15GM065L21;11
S21000;15GM065VB21;12
S21000;15GM280VB21;6
S21000;15GN300L21;8
S21000;15HE005L14;5
S21000;15LC250L14;8
S21000;15LC250VA20;7
S21000;15LC250VB3;9
S21000;15LM300L11;6
S21000;15MA030L21;13
S21000;15MA030VA5;17
S21000;15MA030VB3;20
S21000;15MA075L20;20
S21000;15MA075VB4;16
S21000;15RC500VB21;16
S21000;15RG500L14;11
S21000;15RG500VA20;9
S21000;15SA070VB6;1
S21000;15SA075VB21;9
S21000;15SH250VA20;7
S21000;17AF100G20;15
S21000;17AS250E19;6
S21000;17AS250FV21;5
S21000;17AS250G18;5
S21000;17AS250G21;5
S21000;17AS250P19;6
S21000;17AS500E19;8
S21000;17AS500FV21;11
S21000;17AS500G21;9
S21000;17AS500P19;4
S21000;17DO050F13;13
S21000;17ER075P19;6
S21000;17HB050A22;14
S21000;17HI100G19;13
S21000;17MC200G21;11
S21000;17RC500E20;10
S21000;17RC500G18;6
S21000;17RC500G21;13
S21000;17RC500P19;3
S21000;17RS500E20;7
S21000;17RS500FV21;18
S21000;17RS500G21;15
S21000;17RS500P19;16
S21000;17SE100FV21;14
S31000;17RC500G21;14
S31000;17RC500P19;4
S31000;17RS500E20;14
S31000;17RS500FV21;17
S31000;17RS500G21;13
S31000;17RS500P19;7
S31000;17SE100FV21;18
S31000;17SH060SE21;4
S31000;17SH060SG21;4
S31000;17SH060SP21;5
S31000;17SH075E19;32
S31000;17SH075G21;72
S31000;17SH300E19;6
S31000;17SH300FV21;13
S31000;17SH300G21;5
S31000;17SH300P19;11
S31000;17SH500E19;9
S31000;17SH500FV21;18
S31000;17SH500G21;11
S31000;17SH500P19;13
S31000;17VI100P19;2
S31000;18ET010TL17;1
S31000;20AR075O20;6
S31000;20DO075CD20;3
S31000;20DO130HC20;10
S31000;20ET075CD21;6
S31000;20ET075HC20;2
S31000;20ET075OC20;2
S31000;20FE050H20;4
S31000;20GD250CD20;4
S31000;20GD250HC20;6
S31000;20GD500HC20;6
S31000;20HR050H20;7
S31000;20NV150H20;8
S31000;20SA050CD20;4
S31000;20SA050HC20;3
S31000;24BL012CB5;24
S31000;24BL012R22;17
S31000;24BR050CB21;3
S31000;24BR050R22;14
S31000;24EDT10C21;3
S31000;24ET075CB21;8
S31000;24ET075R22;13
S31000;24GD250CB21;8
S31000;24GD250R22;11
S31000;24GD500CB21;1
S31000;24GD500R22;8
S31000;24LC250CB4;22
S31000;24LC250R22;10
S31000;24MA030CB21;86
S31000;24MA030R22;17
S31000;24MA030RV19;2
S20;11GN195A18;10
S30000;11GN195A18;12
S30000;11HE005CS19;2
S20;11LB250HF22;2
S20;11LC250H19;15
S30000;11LC250H19;8
S30000;11LC250H20;7
S20;11LC250H20;13
S20;11LC250O21;17
S30000;11LC250O21;4
S30000;11LD200I19;11
S20;11LD200I19;5
S20;11LH200I19;8
S30000;11LH200I19;3
S30000;11LT300I20;4
S20;11LT300I20;4
S20;11MH075A19;4
S30000;11MH075A19;4
S30000;11MWC200I19;3
S20;11MWC200I19;7
S20;11PEP050I20;4
S30000;11PEP050I20;2
S30000;11PM100SH19;5
S20;11PM100SH19;9
S20;11PM100SI19;10
S30000;11PM100SI19;4
S30000;11SA050O21;6
S20;11SA050O21;5
S20;11SA100H19;11
S20;11SA100H20;12
S30000;11SA100H20;12
S30000;11SAF100H20;2
S20;11SAF100H20;2
S20;11SD100CS19;10
S30000;11SD100CS19;7
S30000;11SD100SH19;9
S20;11SD100SH19;13
S20;11SD100SI19;12
S30000;11SD100SI19;5
S20;11SD100SL19;6
S20;11SP200CS19;12
S30000;11SP200CS19;3
S30000;11SP200SH19;4
S20;11SP200SH19;8
S20;11SP200SI19;4
S30000;11SP200SI19;4
S20;11SP200SL19;9
S20;11SV080I19;2
S30000;11SV080I19;5
S30000;12GD245NO21H;6
S20;12GD245NO21H;9
S30000;12LC250NO22;1
S30000;15AS150VCL21;4
S27000;15SA070VB6;2
S10;15SA075VB21;5
S27000;15SA075VB21;4
S10;15SH250VA20;18
S27000;15SH250VA20;5
S10;17AF100G20;13
S27000;17AF100G20;11
S10;17AS250E19;6
S27000;17AS250E19;4
S10;17AS250FV21;5
S27000;17AS250FV21;6
S27000;17AS250G18;4
S10;17AS250G21;8
S27000;17AS250G21;5
S10;17AS250P19;8
S27000;17AS250P19;6
S10;17AS500E19;6
S27000;17AS500E19;5
S10;17AS500FV21;7
S27000;17AS500FV21;10
S10;17AS500G21;13
S27000;17AS500G21;13
S10;17AS500P19;6
S27000;17AS500P19;6
S10;17DO050F13;13
S27000;17DO050F13;17
S10;17ER075P19;6
S27000;17ER075P19;6
S10;17HB050A22;10
S27000;17HB050A22;10
S10;17HI001G19;54
S27000;17HI001G19;40
S10;17HI100G19;12
S27000;17HI100G19;6
S10;17MC200G21;14
S27000;17MC200G21;9
S10;17RC500E20;21
S27000;17RC500E20;11
S27000;17RC500G18;2
S10;17RC500G21;8
S27000;17RC500G21;19
S10;17RC500P19;6
S27000;17RC500P19;8
S10;17RS500E20;37
S27000;17RS500E20;4
S10;17RS500FV21;39
S27000;17RS500FV21;18
S10;17RS500G21;18
S27000;17RS500G21;19
S10;17RS500P19;34
S27000;17RS500P19;21
S10;17SE100FV21;15
S27000;17SE100FV21;10
S10;17SH060SE21;5
S27000;ACPOCVEC00001;467
S27000;ACPOCVEC00002;296
S27000;ACPOCVEC00003;150
S27000;ACPOCVEC00004;68
S27000;ACPOCVEC00005;90
S90000;ACPOCVKA00700;33
S90000;HKOCVE6T00055;28
S90000;J9517;9
S90000;JIMPN16;56
S27000;SGOCVE600004;3
S90000;SGOCVE600005;1
S90000;SGOCVKI00176;6
S90000;SGOCVKI00187;1
S90000;SGOCVKI00188;1
S90000;SGOCVKI00190;1
S90000;SGOCVKI00198;1
S90000;SGOCVKI00204;4
S90000;SGOCVKI00215;39
S90000;SGOCVKI00219;2
S90000;SGOCVKI00221;22
S90000;SGOCVKI00222;42
S90000;SGOCVKI00224;4
S90000;SGOCVKI00226;34
S90000;SGOCVKI00227;20
S27000;SGOCVKI00228;1
S90000;SGOCVKI00228;4
S90000;SGOCVKI00230;20
S90000;SGOCVKI00231;2
S27000;SGOCVKI00234;11
S90000;SGOCVKI00234;20
S27000;SGOCVKI00235;5
S90000;SGOCVKI00235;25
S27000;SGOCVKI00236;10
S27000;SGOCVKI00239;3
S27000;SGOCVKI00240;4
S90000;SGOCVKI00241;20
S90000;SGOCVKI00243;2
S90000;SGOCVKI00244;3
S90000;SGOCVKI00245;2
S90000;SGOCVKI00246;34
S90000;SGOCVKI00248;45
S90000;SGOCVKI00254;3
S24000;52SGENSA21GPS;48
S20;52SH006E19;157
S24000;52SH006E19;193
S20;52SH006FV21;73
S24000;52SH006FV21;192
S20;52SH006G21;128
S24000;52SH006G21;120
S20;52SH006P19;102
S24000;52SH006P19;128
S20;52SMB1NO22;3
S20;52SMB2NO22;3
S24000;52SMBANO22;5
S24000;52SMSANO22;5
S20;52SP001I19;57
S24000;52SP001I19;47
S20;52STINO22;17
S24000;52STINO22;15
S20;52TS001I22;168
S24000;52TS001I22;171
S20;52TS001R21;74
S24000;52TS001R21;102
S20;52WRAPNO22;7
S20;52YGERIB20;2
S24000;52YGERIB20;1
S20;54VMWHSHOLIDAY22;1
S20;98BBGD030VE4;8
S24000;98BBGD030VE4;6
S24000;98BBLC030VE5;6
S20;98BBMA010KA3;18
S20;ACPOCVEC00001;215
S24000;ACPOCVEC00001;24
S20;ACPOCVEC00002;189
S20;ACPOCVEC00003;290
S24000;ACPOCVEC00003;132
S20;ACPOCVEC00004;37
S24000;ACPOCVEC00005;192
S20;SGOCVE600004;77
S24000;SGOCVE600004;60
S24000;SGOCVKI00215;1
S24000;SGOCVKI00218;2
S24000;SGOCVKI00225;1
S24000;SGOCVKI00234;21
S24000;SGOCVKI00235;2
S24000;SGOCVKI00236;2
S24000;SGOCVKI00239;6
S24000;SGOCVKI00240;2
S28000;24MA075CB4;4
S28000;24MA075P15;13
S28000;24MA075R22;14
S28000;24MA150R22;13
S28000;24RG500CB21;11
S28000;24RG500R22;11
S28000;24RO010CB4;9
S28000;24SA050CB21;12
S28000;24SA050R22;7
S28000;27BY015I19;5
S28000;27BY015I22;2
S28000;27CP050I22;12
S28000;27DB015I20;9
S28000;27DC050I20;17
S28000;27DCB060I17;4
S28000;27DE015I21;17
S28000;27DF125I17;11
S28000;27DH015I20;2
S28000;27DH015I22;17
S28000;27DH030I20;3
S28000;27DH030I22;16
S28000;27DL200I21;10
S28000;27DS030I20;9
S28000;27ER015I22;19
S28000;27ER050I21;12
S28000;27ER150I21;21
S28000;27EV200I19;6
S28000;27HC050I18;4
S28000;27HCR050I16;5
S28000;27HS030I18;1
S28000;27HSR030I16;6
S28000;27MI150I20;3
S28000;27MP050I20;41
S28000;27MP150I22;4
S28000;27MQ065I15A;3
S28000;27MS050I20;6
S28000;27OR030I21;26
S28000;27OR050I21;38
S28000;27SP030I19;4
S28000;29ASH240A20;11
S28000;29GE200A21;3
S28000;29HD250A15;1
S28000;29HD500A15;33
S28000;29HD9000A21;1
S28000;29HS100A22SM;9
S28000;29LC200A20US;23
S28000;29MA030A17;7
S28000;29MA075A21;14
S28000;29RC200A20;20
S28000;29RH500A15;36
S28000;29SA050A21;5
S28000;29SE125A21;8
S28000;29SH240A20;10
S24000;15ET100VB20;4
S24000;15ET100VCL21;2
S24000;15GD070VB21;2
S24000;15GD075L21;60
S24000;15GD250L21;4
S24000;15GD250VA20;13
S24000;15GD250VB21;2
S24000;15GD500VB21;6
S24000;15GM065L21;21
S24000;15GM065VB21;11
S24000;15GM280VB21;4
S24000;15GN300L21;7
S24000;15HE005L14;6
S24000;15LC250L14;22
S24000;15LC250VA20;11
S24000;15LC250VB3;4
S24000;15LM300L11;9
S24000;15MA030L21;45
S24000;15MA030VA5;4
S24000;15MA030VB3;31
S24000;15MA075VB4;5
S24000;15MF075VM20H;5
S24000;15RB500L17;5
S24000;15RC500VB21;11
S24000;15RG500L14;9
S24000;15RG500VA20;12
S24000;15RO010VBM22;18
S24000;15SA075VB21;1
S24000;15SE400VB5;1
S24000;15SH250VA20;5
S24000;17AF100G20;12
S24000;17AS075G21;11
S24000;17AS250E19;6
S24000;17AS250FV21;8
S24000;17AS250G18;4
S24000;17AS250G21;3
S24000;17AS250P19;5
S24000;17AS500E19;10
S24000;17AS500FV21;9
S24000;17AS500G21;10
S24000;17AS500P19;5
S24000;17DO050F13;4
S24000;17ER075P19;4
S24000;17HB050A22;5
S24000;17HI001G19;129
S24000;17HI100G19;8
S24000;17MC200G21;4
S24000;17RC500E20;6
S24000;17RC500G18;5
S24000;17RC500G21;19
S24000;17RC500P19;5
S24000;17RS500FV21;11
S24000;17RS500G21;16
S29000;17HI100G19;21
S29000;17MC200G21;30
S29000;17RC500E20;38
S29000;17RC500G18;10
S29000;17RC500G21;64
S29000;17RC500P19;20
S29000;17RS500E20;45
S29000;17RS500FV21;53
S29000;17RS500G21;80
S29000;17RS500P19;37
S29000;17SE100FV21;36
S29000;17SH060SE21;4
S29000;17SH060SG21;2
S29000;17SH060SP21;7
S29000;17SH075E19;53
S29000;17SH075G21;54
S29000;17SH300E19;31
S29000;17SH300FV21;12
S29000;17SH300G21;18
S29000;17SH300P19;14
S29000;17SH500E19;21
S29000;17SH500FV21;25
S29000;17SH500G21;40
S29000;17SH500P19;24
S29000;17VI100P19;6
S29000;18ET010TL17;9
S29000;20AR075O20;9
S29000;20DO075CD20;16
S29000;20DO130HC20;14
S29000;20ET075HC20;3
S29000;20ET075OC20;3
S29000;20GD250CD20;27
S29000;20GD250HC20;9
S29000;20GD500HC20;30
S29000;20NV150H20;11
S29000;20SA050CD20;6
S29000;20SA050HC20;6
S29000;20SA050O20;2
S29000;24BL012CB5;6
S29000;24BL012R22;8
S29000;24BR050CB21;13
S29000;24BR050CB6;2
S29000;24BR050R22;15
S29000;24EDT10C21;2
S29000;24ET075R22;13
S29000;24GD250CB21;23
S29000;24GD250R22;47
S29000;24GD500R22;22
S29000;24LC250CB4;29
S29000;24LC250R22;49
S29000;24MA030CB21;138
S29000;24MA030P15;1
S29000;24MA030R22;59
S27000;17SH060SE21;5
S10;17SH060SG21;5
S27000;17SH060SG21;5
S10;17SH060SP21;5
S27000;17SH060SP21;5
S10;17SH075E19;7
S27000;17SH075E19;8
S10;17SH075G21;48
S27000;17SH075G21;8
S10;17SH300E19;3
S27000;17SH300E19;1
S10;17SH300FV21;10
S27000;17SH300FV21;7
S10;17SH300G21;8
S27000;17SH300G21;9
S10;17SH300P19;12
S27000;17SH300P19;14
S10;17SH500E19;11
S27000;17SH500E19;12
S10;17SH500FV21;22
S27000;17SH500FV21;11
S10;17SH500G21;18
S27000;17SH500G21;14
S10;17SH500P19;12
S27000;17SH500P19;20
S10;17VI100P19;6
S27000;17VI100P19;5
S10;20AR075O20;1
S27000;20AR075O20;5
S27000;20DO050O20;1
S10;20DO075CD20;11
S27000;20DO075CD20;5
S10;20DO130HC20;4
S27000;20DO130HC20;11
S27000;20ET075CD20;4
S10;20ET075CD21;3
S27000;20ET075CD21;2
S10;20ET075HC20;3
S27000;20ET075HC20;5
S10;20ET075OC20;5
S27000;20ET075OC20;4
S10;20FE050H20;3
S27000;20FE050H20;7
S10;20GD250CD20;23
S27000;20GD250CD20;6
S10;20GD250HC20;16
S27000;20GD250HC20;2
S10;20GD500HC20;13
S27000;20GD500HC20;7
S27000;20HR050H20;6
S10;20NV150H20;11
S27000;20NV150H20;7
S10;20SA050CD20;4
S21000;17SH060SE21;5
S21000;17SH060SG21;5
S21000;17SH060SP21;5
S21000;17SH075E19;53
S21000;17SH075G21;68
S21000;17SH300E19;11
S21000;17SH300FV21;5
S21000;17SH300G21;7
S21000;17SH300P19;4
S21000;17SH500E19;14
S21000;17SH500FV21;10
S21000;17SH500G21;11
S21000;17SH500P19;9
S21000;17VI100P19;6
S21000;20AR075O20;8
S21000;20DO075CD20;13
S21000;20DO130HC20;4
S21000;20ET075CD20;2
S21000;20ET075CD21;2
S21000;20ET075HC20;4
S21000;20ET075OC20;2
S21000;20GD250CD20;13
S21000;20GD250HC20;9
S21000;20GD250OC20;2
S21000;20GD500HC20;9
S21000;20HR050H20;7
S21000;20NV150H20;10
S21000;20SA050CD20;5
S21000;20SA050HC20;5
S21000;24BL012CB5;9
S21000;24BL012R22;8
S21000;24BR050CB21;8
S21000;24BR050R22;11
S21000;24ET075CB21;8
S21000;24ET075R22;8
S21000;24GD250CB21;27
S21000;24GD250R22;21
S21000;24GD500R22;10
S21000;24LC250CB4;11
S21000;24LC250R22;6
S21000;24MA030R22;20
S21000;24MA030RV19;2
S21000;24MA075CB21;12
S21000;24MA075R22;7
S21000;24MA150R22;12
S21000;24RG500CB21;14
S21000;24RG500R22;14
S21000;24RO010CB4;8
S21000;24SA050CB21;14
S21000;24SA050R22;20
S21000;27BY015I19;1
S21000;27BY015I22;2
S90000;15LM300L11;8
S90000;15MA030L21;20
S90000;15MA030VA5;8
S90000;15MA030VB3;7
S90000;15MA075L20;10
S90000;15MA075VB4;9
S90000;15ORVER22;13
S90000;15RC500VB21;17
S90000;15RG500L14;12
S90000;15RG500VA20;12
S90000;15SA075VB21;37
S90000;15SH250VA20;9
S90000;17AF100G20;6
S90000;17AS075E19;146
S90000;17AS075FV21;41
S90000;17AS075G21;39
S90000;17AS075P19;52
S90000;17AS250E19;7
S90000;17AS250FV21;8
S90000;17AS250G18;5
S90000;17AS250G21;9
S90000;17AS250P19;9
S90000;17AS500E19;13
S90000;17AS500FV21;18
S90000;17AS500G21;17
S90000;17AS500P19;17
S90000;17DO050F13;8
S90000;17ER075P19;10
S90000;17HB050A22;10
S90000;17HI001G19;100
S90000;17HI100G19;9
S90000;17MC200G21;10
S90000;17RC500E20;17
S90000;17RC500G18;2
S90000;17RC500G21;20
S90000;17RC500P19;22
S90000;17RS500E20;20
S90000;17RS500FV21;21
S90000;17RS500G21;19
S90000;17RS500P19;18
S90000;17SE100FV21;13
S90000;17SH060SE21;7
S90000;17SH060SG21;7
S90000;17SH060SP21;10
S90000;17SH075E19;148
S90000;17SH075FV21;9
S90000;17SH075G21;111
S90000;17SH300E19;8
S90000;17SH300FV21;22
S90000;17SH300G21;7
S90000;17SH300P19;9
S90000;17SH500E19;13
S90000;17SH500FV21;14
S31000;24MA075CB21;15
S31000;24MA075P15;8
S31000;24MA075R22;10
S31000;24MA150R22;8
S31000;24ORCHB22;5
S31000;24RG500CB21;12
S31000;24RG500R22;8
S31000;24RO010CB4;12
S31000;24SA050CB21;10
S31000;24SA050R22;7
S31000;27BY015I19;4
S31000;27BY015I22;2
S31000;27CP050I19;2
S31000;27CP050I22;13
S31000;27DB015I20;5
S31000;27DC050I20;26
S31000;27DCB060I17;1
S31000;27DE015I21;7
S31000;27DF125I17;11
S31000;27DH015I22;27
S31000;27DH030I22;22
S31000;27DL200I21;2
S31000;27DS030I20;6
S31000;27ER015I22;31
S31000;27ER050I21;13
S31000;27ER150I21;10
S31000;27EV200I19;1
S31000;27HC050I18;3
S31000;27HCR050I16;7
S31000;27HS030I18;2
S31000;27HSR030I16;11
S31000;27MI150I20;1
S31000;27MP050I20;109
S31000;27MP150I22;11
S31000;27MQ065I15A;4
S31000;27MS050I20;3
S31000;27OR030I21;29
S31000;27OR050I21;30
S31000;27SP030I19;3
S31000;29ASH240A20;7
S31000;29GE200A21;7
S31000;29HD075A15;8
S31000;29HD250A15;58
S31000;29HD500A15;21
S31000;29HD9000A21;2
S31000;29HS100A22SM;4
S31000;29LC200A20US;27
S31000;29MA030A17;17
S31000;29MA075A21;13
S31000;29ORALM22;1
S31000;29RC200A20;6
S31000;29RH500A15;11
S31000;29SA050A21;22
S30000;15AS250VA18;5
S20;15AS250VA18;6
S20;15BA500L16A;7
S30000;15BA500L16A;7
S30000;15BM500VB21;19
S20;15BM500VB21;16
S30000;15DO050VA5;5
S30000;15ET010VB19;8
S20;15ET010VB19;5
S20;15ET100VA20;4
S30000;15ET100VA20;4
S30000;15ET100VB20;3
S30000;15ET100VCL21;3
S20;15ET100VCL21;1
S30000;15GD070VB21;10
S30000;15GD075L21;78
S20;15GD075L21;77
S20;15GD250L21;12
S30000;15GD250L21;15
S30000;15GD250VA20;5
S20;15GD250VA20;17
S20;15GD250VB21;13
S30000;15GD250VB21;14
S30000;15GD250VBL22;9
S30000;15GD500VB21;13
S20;15GD500VB21;17
S20;15GM065L21;19
S30000;15GM065L21;12
S30000;15GM065VB21;18
S20;15GM065VB21;27
S20;15GM280VB21;9
S30000;15GM280VB21;4
S30000;15GN300L21;6
S20;15GN300L21;11
S20;15HE005L14;5
S30000;15HE005L14;3
S30000;15LC250L14;8
S20;15LC250L14;18
S20;15LC250VA20;4
S30000;15LC250VA20;7
S30000;15LC250VB3;8
S20;15LC250VB3;7
S20;15LM300L11;8
S30000;15LM300L11;9
S30000;15MA030L21;8
S20;15MA030L21;35
S20;15MA030VA5;11
S30000;15MA030VA5;3
S30000;15MA030VB3;11
S20;15MA030VB3;12
S20;15MA075L20;19
S30000;15MA075L20;15
S30000;15MA075VB4;4
S24000;17RS500P19;16
S24000;17SE100FV21;16
S24000;17SH060SE21;3
S24000;17SH060SG21;4
S24000;17SH060SP21;3
S24000;17SH075E19;3
S24000;17SH075G21;9
S24000;17SH300E19;8
S24000;17SH300FV21;6
S24000;17SH300G21;4
S24000;17SH300P19;6
S24000;17SH500E19;3
S24000;17SH500FV21;14
S24000;17SH500G21;12
S24000;17SH500P19;10
S24000;17VI100P19;4
S24000;20AR075O20;6
S24000;20DO075CD20;9
S24000;20DO130HC20;4
S24000;20ET075CD21;4
S24000;20ET075HC20;5
S24000;20ET075OC20;1
S24000;20GD250CD20;5
S24000;20GD250HC20;7
S24000;20GD500HC20;9
S24000;20HR050H20;7
S24000;20NV150H20;7
S24000;20SA050CD20;4
S24000;20SA050HC20;2
S24000;24BL012CB5;10
S24000;24BL012R22;5
S24000;24BR050CB21;13
S24000;24BR050R22;10
S24000;24ET075CB21;1
S24000;24ET075R22;8
S24000;24GD250CB21;16
S24000;24GD250R22;36
S24000;24GD500R22;8
S24000;24LC250CB4;31
S24000;24LC250R22;35
S24000;24MA030CB21;2
S24000;24MA030R22;77
S24000;24MA030RV19;2
S24000;24MA075CB4;2
S24000;24MA075P15;2
S24000;24MA075R22;4
S24000;24MA150R22;24
S24000;24RG500CB21;11
S24000;24RG500R22;15
S24000;24RO010CB4;9
S24000;24SA050CB21;23
S24000;24SA050R22;38
S28000;29VC240A22;8
S28000;38EC015A18;2
S28000;38EV075A21;12
S28000;38FT200A21;11
S28000;38MI150A22;10
S28000;38RC050A22;8
S28000;38UV030A18;19
S28000;38WC050A21;11
S28000;38WS030A21;12
S28000;49BO015CS19;114
S28000;49CRM2NO22;35
S28000;49CUPNO22;29
S28000;49DC004I20;5
S28000;49DH004I20;32
S28000;49HD035A15;38
S28000;49MA010K22;80
S28000;49OR005I21;171
S28000;49POCK1NO22;10
S28000;52AF006G20;97
S28000;52AS006E19;61
S28000;52AS006FV21;34
S28000;52AS006G21;150
S28000;52AS006P19;24
S28000;52BY001I19;84
S28000;52CARDNO22;32
S28000;52CD0015A18;3
S28000;52CL0015K21;54
S28000;52CP0015I19;65
S28000;52CP006K22;319
S28000;52CV0015K22;220
S28000;52DB001I20;128
S28000;52DC0015I20;166
S28000;52DE001I21;184
S28000;52DF002I17;328
S28000;52DH001I22;172
S28000;52DL002I21;176
S28000;52DS001I20;33
S28000;52ER002I21;169
S28000;52GD0015A18;51
S28000;52GIF1NO22;9
S28000;52GIF2NO22;9
S28000;52HD006A18;299
S28000;52HS001I17;96
S28000;52HS004A18;140
S28000;52LASANO22;92
S28000;52LC006A20;382
S28000;52LGEBAG19;6
S28000;52LGEBOX18;14
S28000;52LGENSA21;305
S28000;52LT002R21;2
S28000;52MA003K22A;180
S28000;52MC006G21;75
S28000;52MGEBOX18;20
S27000;20SA050CD20;4
S10;20SA050HC20;4
S27000;20SA050HC20;5
S10;24BL012CB5;13
S27000;24BL012CB5;10
S10;24BL012R22;7
S27000;24BL012R22;12
S10;24BR050CB21;8
S27000;24BR050CB21;11
S27000;24BR050CB6;2
S10;24BR050R22;22
S27000;24BR050R22;10
S10;24ET075CB21;1
S27000;24ET075CB21;3
S10;24ET075R22;11
S27000;24ET075R22;8
S10;24GD250CB21;6
S27000;24GD250CB21;11
S10;24GD250R22;39
S27000;24GD250R22;18
S10;24GD500R22;19
S27000;24GD500R22;10
S10;24LC250CB4;9
S27000;24LC250CB4;11
S10;24LC250R22;22
S27000;24LC250R22;12
S10;24MA030CB21;63
S27000;24MA030CB21;39
S10;24MA030CB4;1
S10;24MA030R22;66
S27000;24MA030R22;32
S10;24MA030RV19;57
S27000;24MA030RV19;2
S10;24MA075CB21;1
S27000;24MA075CB21;8
S10;24MA075CB4;1
S10;24MA075P15;1
S10;24MA075R22;7
S27000;24MA075R22;16
S10;24MA150R22;12
S27000;24MA150R22;11
S10;24RG500CB21;12
S27000;24RG500CB21;13
S10;24RG500R22;13
S27000;24RG500R22;11
S10;24RO010CB4;8
S27000;24RO010CB4;7
S10;24SA050CB21;11
S27000;24SA050CB21;6
S10;24SA050R22;12
S27000;24SA050R22;9
S10;27BY015I19;2
S27000;27BY015I19;1
S10;27BY015I22;2
S29000;24MA030RV19;4
S29000;24MA075CB21;54
S29000;24MA075P15;5
S29000;24MA075R22;31
S29000;24MA150R22;11
S29000;24ORCHB22;1
S29000;24RG500CB21;41
S29000;24RG500R22;47
S29000;24RO010CB4;7
S29000;24SA050CB21;19
S29000;24SA050R22;14
S29000;27BY015I22;8
S29000;27CP050I19;5
S29000;27CP050I22;21
S29000;27DB015I20;23
S29000;27DC050I20;38
S29000;27DCB060I17;1
S29000;27DE015I21;24
S29000;27DF125I17;35
S29000;27DH015I20;4
S29000;27DH015I22;36
S29000;27DH030I20;4
S29000;27DH030I22;37
S29000;27DL200I21;13
S29000;27DS030I20;14
S29000;27ER015I22;26
S29000;27ER050I21;16
S29000;27ER150I21;23
S29000;27EV200I19;4
S29000;27HC050I18;6
S29000;27HCR050I16;13
S29000;27HS030I18;3
S29000;27HSR030I16;12
S29000;27MI150I20;4
S29000;27MP050I20;20
S29000;27MP150I20;1
S29000;27MP150I22;14
S29000;27MQ065I15A;3
S29000;27MS050I20;7
S29000;27OR030I21;37
S29000;27OR050I21;52
S29000;27SP030I19;5
S29000;29ASH240A20;14
S29000;29BP100A22;3
S29000;29EC200A21;2
S29000;29GE200A21;28
S29000;29HD250A15;25
S29000;29HD500A15;64
S29000;29HS100A22SM;46
S29000;29LC200A20US;50
S29000;29MA030A17;57
S29000;29MA075A21;37
S29000;29RC200A20;103
S28000;52MGENSA21;17
S28000;52MGENSA21GPS;217
S28000;52MMB1NO22;10
S28000;52MMB2NO22;18
S28000;52MMB3NO22;5
S28000;52MMSANO22;52
S28000;52MOCOL316;8
S28000;52MS001I20;85
S28000;52OR001I21;344
S28000;52PHGHTS20;4
S28000;52PMGBOX18;31
S28000;52PS0015R21;189
S28000;52PSAC18;1
S28000;52RIB1NO22;25
S28000;52RIB2NO22;25
S28000;52RIBOXNO22;1160
S28000;52SAMPENV18;516
S28000;52SGENSA21GPS;110
S28000;52SH006E19;140
S28000;52SH006FV21;67
S28000;52SH006G21;174
S28000;52SH006P19;53
S90000;17SH500G21;9
S90000;17SH500P19;15
S90000;17VI100P19;5
S90000;20AR075O20;7
S90000;20DO050O20;9
S90000;20DO075CD20;11
S90000;20DO130HC20;11
S90000;20ET075CD20;8
S90000;20ET075HC20;7
S90000;20ET075OC20;12
S90000;20GD250CD20;9
S90000;20GD250HC20;10
S90000;20GD250OC20;2
S90000;20GD500HC20;9
S90000;20NV150H20;9
S90000;20SA050CD20;9
S90000;20SA050HC20;11
S90000;24BL012CB5;7
S90000;24BR050CB21;11
S90000;24BR050R22;8
S90000;24CM030R22H;2
S90000;24ET075CB21;5
S90000;24ET075R22;8
S90000;24GD075CB5;2
S90000;24GD250CB21;10
S90000;24GD250R22;15
S90000;24GD250R22H;1
S90000;24GD500CB21;1
S90000;24GD500R22;13
S90000;24GM030C21;1
S90000;24LC075R22;145
S90000;24LC250CB4;10
S90000;24LC250R22;8
S90000;24MA030CB21;30
S90000;24MA030CBL22;3
S90000;24MA030R22;12
S90000;24MA030RA19;9
S90000;24MA030RE19;10
S90000;24MA030RV19;8
S90000;24MA075CB21;12
S90000;24MA075R18;4
S90000;24MA075R22;13
S90000;24MA150R22;12
S90000;24RG500CB21;16
S90000;24RG500R22;15
S90000;24RO010CB4;8
S90000;24SA050CB21;8
S90000;24SA050R22;11
S90000;27BY015I19;1
S90000;27BY015I22;10
S90000;27CP050I22;7
S90000;27DB015I20;9
S24000;27BY015I19;3
S24000;27BY015I22;2
S24000;27CP050I22;12
S24000;27DB015I20;9
S24000;27DC050I20;12
S24000;27DCB060I17;4
S24000;27DE015I21;7
S24000;27DF125I17;12
S24000;27DH015I22;16
S24000;27DH030I22;15
S24000;27DL200I21;7
S24000;27DS030I20;2
S24000;27ER015I22;11
S24000;27ER050I21;8
S24000;27ER150I21;11
S24000;27EV200I19;2
S24000;27HC050I18;4
S24000;27HCR050I16;3
S24000;27HS030I18;1
S24000;27HSR030I16;3
S24000;27MI150I20;4
S24000;27MP050I20;53
S24000;27MP150I22;9
S24000;27MQ065I15A;4
S24000;27MS050I20;8
S24000;27OR030I21;18
S24000;27OR050I21;23
S24000;27SP030I19;2
S24000;29ASH240A20;3
S24000;29GE200A21;20
S24000;29HD075A15;8
S24000;29HD250A15;19
S24000;29HD500A15;32
S24000;29HS100A22SM;13
S24000;29LC200A20US;21
S24000;29MA030A17;44
S24000;29MA075A21;19
S24000;29RC200A20;13
S24000;29RH500A15;26
S24000;29SA050A21;12
S24000;29SE125A21;9
S24000;29SH240A20;10
S24000;29VC240A22;11
S24000;38EC015A18;2
S24000;38EV075A21;3
S24000;38FT200A21;5
S24000;38MI150A22;5
S24000;38RC050A22;6
S24000;38UV030A18;10
S24000;38WC050A21;10
S24000;38WS030A21;9
S24000;49BO015CS19;59
S24000;49CP020K22;9
S27000;27BY015I22;2
S10;27CP050I19;4
S10;27CP050I22;10
S27000;27CP050I22;12
S10;27DB015I20;10
S27000;27DB015I20;7
S10;27DC050I20;11
S27000;27DC050I20;14
S27000;27DCB060I17;5
S10;27DCB060I17;4
S10;27DE015I21;10
S27000;27DE015I21;8
S10;27DF125I17;22
S27000;27DF125I17;20
S10;27DH015I22;15
S27000;27DH015I22;17
S27000;27DH030I20;4
S10;27DH030I22;19
S27000;27DH030I22;16
S10;27DL200I21;4
S27000;27DL200I21;7
S10;27DS030I20;5
S27000;27DS030I20;6
S10;27ER015I22;10
S27000;27ER015I22;10
S10;27ER050I21;11
S27000;27ER050I21;8
S10;27ER150I21;14
S27000;27ER150I21;11
S27000;27EV200I19;5
S10;27HC050I18;4
S27000;27HC050I18;4
S10;27HCR050I16;4
S27000;27HCR050I16;5
S10;27HS030I18;2
S27000;27HS030I18;2
S10;27HSR030I16;3
S27000;27HSR030I16;3
S10;27MI150I20;19
S27000;27MI150I20;4
S27000;27MP050I20;21
S10;27MP050I20;17
S10;27MP150I22;26
S27000;27MP150I22;7
S10;27MQ065I15A;2
S27000;27MQ065I15A;4
S10;27MS050I20;4
S27000;27MS050I20;3
S10;27OR030I21;21
S27000;27OR030I21;19
S10;27OR050I21;26
S27000;27OR050I21;30
S10;27SP030I19;4
S27000;27SP030I19;4
S00;27CN050I14;2
S21000;27CP050I19;1
S21000;27CP050I22;11
S21000;27DB015I20;9
S21000;27DC050I20;11
S21000;27DCB060I17;6
S21000;27DE015I21;12
S21000;27DF125I17;14
S21000;27DH015I22;18
S21000;27DH030I20;2
S21000;27DH030I22;17
S21000;27DL200I21;11
S21000;27DS030I20;10
S21000;27ER015I22;17
S21000;27ER050I21;10
S21000;27ER150I21;11
S21000;27HC050I18;4
S21000;27HCR050I16;6
S21000;27HS030I18;3
S21000;27HSR030I16;6
S21000;27MI150I20;6
S21000;27MP050I20;23
S21000;27MP150I22;7
S21000;27MQ065I15A;4
S21000;27MS050I20;10
S21000;27OR030I21;17
S21000;27OR050I21;27
S21000;27SP030I19;4
S21000;29ASH240A20;4
S21000;29BP100A19;2
S21000;29BP100A22;6
S21000;29EC200A21;3
S21000;29GE200A21;16
S21000;29HD250A15;15
S21000;29HD500A15;37
S21000;29HS100A22SM;20
S21000;29LC200A20US;32
S21000;29MA030A17;8
S21000;29MA075A21;10
S21000;29RC200A20;24
S21000;29RH500A15;33
S21000;29SA050A21;8
S21000;29SE125A21;9
S21000;29SH240A20;9
S21000;29VC240A22;2
S24000;49CRM1NO22;1
S24000;49CRM2NO22;3
S24000;49CUPNO22;93
S24000;49DC004I20;4
S24000;49HD035A15;4
S24000;49LC020A20;6
S24000;49LD030I21;4
S24000;49MA010K22;69
S24000;49OR005I21;92
S24000;49POCK1NO22;48
S20;15MA075VB4;23
S30000;15MF075VM20H;3
S30000;15RB500L17;5
S30000;15RC500VB21;14
S20;15RC500VB21;21
S20;15RG500L14;20
S30000;15RG500L14;9
S30000;15RG500VA20;7
S20;15RG500VA20;14
S20;15RO010VBM22;32
S30000;15RO010VBM22;38
S30000;15SA075VB21;4
S20;15SA075VB21;4
S30000;15SE400VB5;6
S30000;15SH250VA20;5
S20;15SH250VA20;7
S20;17AF100G20;19
S30000;17AF100G20;10
S30000;17AS250E19;5
S20;17AS250E19;5
S20;17AS250FV21;10
S30000;17AS250FV21;6
S30000;17AS250G18;2
S20;17AS250G18;5
S20;17AS250G21;8
S30000;17AS250G21;8
S30000;17AS250P19;6
S20;17AS250P19;5
S20;17AS500E19;11
S30000;17AS500E19;8
S30000;17AS500FV21;2
S20;17AS500FV21;11
S20;17AS500G21;11
S30000;17AS500G21;9
S30000;17AS500P19;5
S20;17AS500P19;5
S20;17DO050F13;22
S30000;17DO050F13;15
S30000;17ER075P19;7
S20;17ER075P19;4
S20;17HB050A22;11
S30000;17HB050A22;5
S30000;17HI001G19;199
S30000;17HI100G19;12
S20;17HI100G19;11
S20;17MC200G21;16
S30000;17MC200G21;11
S30000;17RC500E20;7
S20;17RC500E20;13
S20;17RC500G18;13
S30000;17RC500G18;4
S30000;17RC500G21;12
S20;17RC500G21;19
S31000;29SE125A21;13
S31000;29SH240A20;5
S31000;29VC240A22;5
S31000;38EC015A18;4
S31000;38EV075A21;7
S31000;38FT200A21;11
S31000;38MI150A22;5
S31000;38RC050A22;3
S31000;38UV030A18;18
S31000;38WC050A21;14
S31000;38WS030A21;11
S31000;49BO015CS19;110
S31000;49CABNO22;1
S31000;49CM010O21;19
S31000;49CM030I19;7
S31000;49CP020K22;5
S31000;49CRM2NO22;32
S31000;49CUPNO22;82
S31000;49DC004I20;35
S31000;49DH004I20;29
S31000;49DISC3NO22;3
S31000;49HD035A15;1
S31000;49LC020A20;2
S31000;49LD030I21;3
S31000;49MA010K22;85
S31000;49OR005I21;72
S31000;49ORALM22;7
S31000;49ORCHB22;10
S31000;49ORKAR22;7
S31000;49ORMEN22;2
S31000;49POCK1NO22;47
S31000;52AF006G20;120
S31000;52AS006E19;142
S31000;52AS006FV21;50
S31000;52AS006G21;74
S31000;52AS006P19;57
S31000;52BY001I19;46
S31000;52CARDNO22;17
S31000;52CERJAR20;2
S31000;52CL0015K21;54
S31000;52CP0015I19;144
S31000;52CP006K22;210
S31000;52CRA1C22;5
S31000;52CRA2C22;5
S31000;52CRA3C22;5
S31000;52CRA4C22;5
S31000;52CV0015K22;145
S31000;52DB001I20;165
S31000;52DC0015I20;296
S31000;52DE001I21;204
S31000;52DF002I17;193
S31000;52DH001I22;278
S31000;52DL002I21;227
S90000;27DC050I20;9
S90000;27DCB060I17;4
S90000;27DE015I21;4
S90000;27DF125I17;8
S90000;27DH015I20;3
S90000;27DH015I22;19
S90000;27DH030I20;12
S90000;27DH030I22;11
S90000;27DL200I21;13
S90000;27DS030I20;9
S90000;27ER015I22;15
S90000;27ER050I21;14
S90000;27ER150I21;10
S90000;27EV200I19;7
S90000;27HC050I18;5
S90000;27HCR050I16;5
S90000;27HS030I18;2
S90000;27HSR030I16;5
S90000;27MI150I20;9
S90000;27MP050I20;66
S90000;27MP150I20;1
S90000;27MP150I22;15
S90000;27MQ065I15A;3
S90000;27MS050I20;9
S90000;27OR030I21;15
S90000;27OR050I21;12
S90000;27SP030I19;6
S90000;27TS001I20;679
S90000;29ASH240A20;9
S90000;29BP100A22;7
S90000;29EC200A21;10
S90000;29GE200A21;9
S90000;29HD075A15;56
S90000;29HD250A15;6
S90000;29HD500A15;64
S90000;29HS100A21;9
S90000;29HS100A22SM;15
S90000;29LC200A20US;21
S90000;29MA030A17;15
S90000;29MA075A21;12
S90000;29ORALM22;2
S90000;29RC200A20;28
S90000;29RH500A15;59
S90000;29SA050A21;5
S90000;29SE125A21;9
S90000;29SH075A20;2
S90000;29SH240A20;9
S90000;29VC240A16;13
S90000;29VC240A22;12
S90000;38BV050A19;4
S90000;38BV050A22;8
S90000;38EC015A18;6
S90000;38EV075A21;10
S10;29ASH240A20;24
S27000;29ASH240A20;3
S10;29BP100A22;21
S27000;29BP100A22;6
S10;29EC200A21;3
S27000;29EC200A21;3
S10;29GE200A21;18
S27000;29GE200A21;12
S10;29HD250A15;21
S27000;29HD250A15;10
S10;29HD500A15;41
S27000;29HD500A15;32
S10;29HS100A22SM;10
S10;29LC200A20US;31
S27000;29LC200A20US;22
S10;29MA030A17;49
S27000;29MA030A17;43
S10;29MA075A21;27
S27000;29MA075A21;7
S10;29ORALM22;2
S10;29RC200A20;26
S27000;29RC200A20;27
S10;29RH500A15;35
S27000;29RH500A15;39
S10;29SA050A21;5
S27000;29SA050A21;3
S10;29SE125A21;17
S27000;29SE125A21;11
S10;29SH240A20;23
S27000;29SH240A20;3
S10;29VC240A22;18
S27000;29VC240A22;9
S10;38BV050A22;2
S27000;38BV050A22;3
S10;38EC015A18;1
S27000;38EC015A18;1
S10;38EV075A21;10
S27000;38EV075A21;9
S10;38FT200A21;4
S27000;38FT200A21;8
S10;38MI150A22;12
S27000;38MI150A22;12
S10;38RC050A18;2
S10;38RC050A22;14
S27000;38RC050A22;6
S10;38UV030A18;6
S27000;38UV030A18;3
S10;38WC050A21;4
S27000;38WC050A21;9
S10;38WM065A18;1
S10;38WS030A21;4
S27000;38WS030A21;12
S10;49BO015CS19;107
S27000;49BO015CS19;4
S29000;29RH500A15;138
S29000;29SA050A21;16
S29000;29SE125A21;16
S29000;29SH240A20;18
S29000;29VC240A22;18
S29000;38BV050A19;1
S21000;38EC015A18;5
S29000;38EC015A18;3
S21000;38EV075A21;10
S29000;38EV075A21;17
S21000;38FT200A21;10
S29000;38FT200A21;13
S21000;38MI150A22;8
S29000;38MI150A22;8
S21000;38RC050A22;6
S29000;38RC050A22;10
S21000;38UV030A18;1
S29000;38UV030A18;7
S21000;38WC050A21;6
S29000;38WC050A21;15
S21000;38WS030A21;14
S29000;38WS030A21;13
S21000;49BO015CS19;132
S29000;49BO015CS19;379
S21000;49CRM2NO22;53
S29000;49CRM2NO22;53
S21000;49CUPNO22;46
S29000;49CUPNO22;71
S21000;49DH004I20;4
S21000;49HD035A15;71
S29000;49HD035A15;11
S21000;49LC020A20;4
S21000;49MA010K22;85
S29000;49MA010K22;249
S29000;49MA010VB3;150
S21000;49OR005I21;113
S29000;49OR005I21;27
S29000;49PADCL20;38
S21000;49POCK1NO22;20
S29000;49POCK1NO22;19
S21000;52AF006G20;30
S29000;52AF006G20;98
S21000;52AS006E19;65
S29000;52AS006E19;120
S21000;52AS006FV21;48
S29000;52AS006FV21;78
S21000;52AS006G21;68
S29000;52AS006G21;92
S21000;52AS006P19;65
S29000;52AS006P19;121
S21000;52BY001I19;106
S29000;52BY001I19;130
S21000;52CARDNO22;11
S27000;49CRM1NO22;1
S10;49CRM2NO22;52
S27000;49CRM2NO22;8
S10;49CUPNO22;79
S27000;49CUPNO22;24
S10;49DC004I20;31
S10;49DH004I20;7
S27000;49HD035A15;33
S27000;49MA010K22;3
S27000;49OR005I21;143
S27000;49POCK1NO22;21
S27000;52AF006G20;141
S27000;52AS006E19;80
S27000;52AS006FV21;67
S90000;38FT200A18;9
S90000;38FT200A21;10
S90000;38MI150A18;1
S90000;38MI150A22;8
S90000;38RC050A18;1
S90000;38RC050A22;8
S90000;38UV030A18;12
S90000;38WC050A18;31
S90000;38WC050A21;9
S90000;38WS030A18;12
S90000;38WS030A21;7
S90000;49AF015G20;160
S90000;49BM010K19;145
S90000;49BO015CS19;210
S90000;49CABNO22;187
S90000;49CAS2NO22;60
S90000;49CL008K21;7
S90000;49CL1SA18;43
S90000;49CM010O21;136
S90000;49CM030I19;70
S90000;49CP004I19;8
S90000;49CP008I19;23
S90000;49CP020K22;7
S90000;49CRM1NO22;40
S90000;49CRM2NO22;135
S90000;49CRM3NO22;5
S90000;49CUPNO22;61
S90000;49DB004I20;30
S90000;49DC004I20;10
S90000;49DC008I20;16
S90000;49DH004I20;31
S90000;49DH004I22;30
S90000;49DISC3NO22;29
S90000;49EDT0075O22;1
S90000;49ET007CB22;16
S90000;49GD035CB5;40
S90000;49HD035A15;193
S90000;49HS015A18;18
S90000;49IC1POU20;14
S90000;49IC2POU20;47
S90000;49IC3POU20;27
S90000;49LC020A20;4
S90000;49LD030I20;26
S90000;49LD030I21;21
S90000;49LT030R21;89
S90000;49MA010A17;126
S90000;49MA010A21X;10
S90000;49MA010CB4;75
S90000;49MA010K22;115
S90000;49MA010L16;66
S90000;49MA010VB3;12
S90000;49MASKRS21;26
S90000;49MR010K14;45
S20;17RC500P19;12
S30000;17RC500P19;8
S30000;17RS500E20;7
S20;17RS500E20;28
S20;17RS500FV21;11
S30000;17RS500FV21;20
S30000;17RS500G21;11
S20;17RS500G21;21
S20;17RS500P19;25
S30000;17RS500P19;12
S30000;17SE100FV21;8
S20;17SE100FV21;12
S20;17SH060SE21;6
S30000;17SH060SE21;4
S30000;17SH060SG21;3
S20;17SH060SG21;6
S20;17SH060SP21;6
S30000;17SH060SP21;4
S30000;17SH075E19;2
S20;17SH075E19;16
S20;17SH075G21;23
S30000;17SH075G21;31
S30000;17SH300E19;4
S20;17SH300E19;14
S20;17SH300FV21;10
S30000;17SH300FV21;12
S30000;17SH300G21;9
S20;17SH300G21;23
S20;17SH300P19;14
S30000;17SH300P19;11
S30000;17SH500E19;11
S20;17SH500E19;16
S20;17SH500FV21;15
S30000;17SH500FV21;16
S30000;17SH500G21;11
S20;17SH500G21;12
S20;17SH500P19;9
S30000;17SH500P19;16
S30000;17VI100P19;6
S20;17VI100P19;4
S20;20AR075O20;11
S30000;20AR075O20;5
S20;20DO050O20;1
S20;20DO075CD20;14
S30000;20DO075CD20;6
S30000;20DO130HC20;5
S20;20DO130HC20;13
S20;20ET075CD20;1
S30000;20ET075CD20;2
S30000;20ET075CD21;2
S20;20ET075CD21;3
S20;20ET075HC20;4
S30000;20ET075HC20;4
S90000;49MS008I20;169
S31000;52DS001I20;88
S31000;52ER002I21;305
S31000;52GD0015A18;47
S31000;52GIF1NO22;6
S31000;52GIF2NO22;6
S31000;52HD006A18;377
S31000;52HKNO22;1
S31000;52HS001I17;94
S31000;52HS004A18;170
S31000;52LASANO22;140
S31000;52LC006A20;343
S31000;52LGEBAG19;9
S31000;52LGEBOX18;8
S31000;52LGENSA21;124
S31000;52LT002R21;5
S31000;52MA003K22A;182
S31000;52MC006G21;70
S31000;52MGEBOX18;20
S31000;52MGENSA21;11
S31000;52MIBANO22;2
S31000;52MMB1NO22;13
S31000;52MMB2NO22;17
S31000;52MMB3NO22;18
S31000;52MMBANO22;16
S31000;52MMSANO22;37
S31000;52MOCOL216;2
S31000;52MOCOL316;4
S31000;52MS001I20;106
S31000;52OR001I21;252
S31000;52PHGHTS20;4
S31000;52PMGBOX18;1
S31000;52PRBONO22;1
S31000;52PS0015R21;81
S31000;52PSAC18;1
S31000;52QUAGD22;1
S31000;52RBO2NO22;6
S31000;52RBO3NO22;6
S31000;52RIB1NO22;17
S31000;52RIB2NO22;17
S31000;52RIBOXNO22;940
S31000;52SGEBOX18;10
S31000;52SH006E19;234
S31000;52SH006FV21;88
S31000;52SH006G21;142
S31000;52SH006P19;78
S31000;52SMB1NO22;6
S31000;52SMB2NO22;6
S31000;52SMBANO22;8
S31000;52SMSANO22;5
S31000;52SP001I19;12
S31000;52STINO22;18
S31000;52TS001I22;278
S31000;52TS001R21;48
S29000;52CARDNO22;19
S21000;52CL0015K21;23
S29000;52CL0015K21;60
S21000;52CP0015I19;72
S29000;52CP0015I19;135
S21000;52CP006K22;177
S29000;52CP006K22;134
S21000;52CV0015K22;169
S29000;52CV0015K22;120
S21000;52DB001I20;70
S29000;52DB001I20;80
S21000;52DC0015I20;191
S29000;52DC0015I20;212
S21000;52DE001I21;160
S29000;52DE001I21;94
S21000;52DF002I17;137
S29000;52DF002I17;120
S29000;52DH001I20;100
S21000;52DH001I22;271
S29000;52DH001I22;209
S21000;52DL002I21;188
S29000;52DL002I21;173
S21000;52DS001I20;129
S29000;52DS001I20;67
S21000;52ER002I21;128
S29000;52ER002I21;306
S29000;52EV002I19;50
S21000;52GD0015A18;76
S29000;52GD0015A18;51
S21000;52GIF1NO22;6
S29000;52GIF1NO22;4
S21000;52GIF2NO22;6
S29000;52GIF2NO22;4
S21000;52HD006A18;295
S29000;52HD006A18;170
S21000;52HS001I17;98
S29000;52HS001I17;35
S21000;52HS004A18;97
S29000;52HS004A18;121
S21000;52LABANO22;12
S21000;52LASANO22;158
S29000;52LASANO22;114
S21000;52LC006A20;201
S29000;52LC006A20;183
S21000;52LGEBAG19;52
S21000;52LGEBOX18;12
S29000;52LGEBOX18;7
S21000;52LGENSA21;280
S29000;52LGENSA21;75
S29000;52LT002R21;63
S21000;52MA003K22A;178
S29000;52MA003K22A;155
S21000;52MC006G21;91
S31000;52TSANIVISLI20;1
S31000;52TSPDIS20;3
S31000;52WRAPNO22;7
S31000;52YGERIB20;2
S31000;54VMHOLIDAY22;1
S31000;54VMWHSHOLIDAY22;2
S31000;98BBGD030VE4;30
S31000;98BBLC030VE5;9
S31000;98BBMA010KA3;39
S31000;ACPOCVEC00001;114
S31000;ACPOCVEC00002;133
S31000;ACPOCVEC00003;290
S31000;ACPOCVEC00004;75
S31000;ACPOCVEC00005;204
S31000;SGOCVE600004;80
S31000;SGOCVKI00215;1
S31000;SGOCVKI00216;1
S31000;SGOCVKI00217;5
S31000;SGOCVKI00222;2
S31000;SGOCVKI00227;1
S31000;SGOCVKI00229;1
S31000;SGOCVKI00230;1
S31000;SGOCVKI00234;13
S29000;52MC006G21;87
S21000;52MGEBOX18;31
S29000;52MGEBOX18;20
S21000;52MGENSA21;33
S29000;52MGENSA21;59
S21000;52MGENSA21GPS;120
S29000;52MGENSA21GPS;56
S21000;52MMB1NO22;13
S29000;52MMB1NO22;12
S21000;52MMB2NO22;9
S21000;52MMB3NO22;9
S29000;52MMB3NO22;43
S21000;52MMSANO22;170
S21000;52MOCOL216;1
S21000;52MOCOL316;4
S29000;52MOCOL316;9
S21000;52MS001I20;128
S29000;52MS001I20;71
S21000;52OR001I21;268
S29000;52OR001I21;195
S21000;52PMGBOX18;4
S29000;52PMGBOX18;1
S21000;52PS0015R21;69
S29000;52PS0015R21;82
S21000;52PSAC18;1
S21000;52RIB1NO22;13
S29000;52RIB1NO22;17
S21000;52RIB2NO22;13
S21000;52RIBOXNO22;737
S21000;52SAMPENV18;27
S21000;52SGENSA21GPS;59
S21000;52SH006E19;108
S21000;52SH006FV21;131
S21000;52SH006G21;107
S21000;52SH006P19;77
S21000;52SMBANO22;32
S21000;52SMSANO22;13
S21000;52SP001I19;139
S21000;52STINO22;13
S21000;52TS001I22;94
S21000;52TS001R21;56
S21000;98BBGD030VE4;98
S21000;98BBMA010KA3;91
S21000;ACPOCVEC00001;445
S21000;ACPOCVEC00002;386
S21000;ACPOCVEC00003;142
S21000;ACPOCVEC00004;100
S21000;ACPOCVEC00005;134
S21000;SGOCVE600004;85
S21000;SGOCVKI00234;18
S21000;SGOCVKI00236;1
S21000;SGOCVKI00240;4
S30000;20ET075OC20;5
S20;20ET075OC20;3
S20;20FE050H20;4
S30000;20FE050H20;7
S30000;20GD250CD20;7
S20;20GD250CD20;8
S20;20GD250HC20;20
S30000;20GD250HC20;13
S30000;20GD500HC20;9
S20;20GD500HC20;16
S20;20HR050H20;3
S20;20NV150H20;15
S30000;20NV150H20;11
S30000;20SA050CD20;4
S20;20SA050CD20;4
S20;20SA050HC20;2
S30000;20SA050HC20;4
S30000;24BL012CB5;11
S20;24BL012CB5;10
S20;24BL012R22;10
S30000;24BL012R22;12
S30000;24BR050CB21;7
S20;24BR050CB21;6
S20;24BR050CB6;2
S20;24BR050R22;2
S30000;24BR050R22;8
S30000;24EDT10C21;3
S30000;24ET075CB21;3
S20;24ET075CB21;1
S20;24ET075R22;10
S30000;24ET075R22;13
S30000;24GD250CB21;11
S20;24GD250CB21;16
S20;24GD250R22;20
S30000;24GD250R22;15
S30000;24GD500R22;11
S20;24GD500R22;14
S20;24LC250CB4;11
S30000;24LC250CB4;14
S30000;24LC250R22;20
S20;24LC250R22;14
S20;24MA030CB21;3
S20;24MA030CB4;11
S20;24MA030R22;20
S30000;24MA030R22;18
S30000;24MA030RV19;3
S20;24MA030RV19;3
S20;24MA075CB21;15
S30000;24MA075CB21;7
S30000;24MA075CB4;1
S20;24MA075P15;18
S20;24MA075R22;12
S30000;24MA075R22;10
S30000;24MA150R22;9
S21000;SGOCVKI00241;4
S21000;SGOCVKI00244;3
S20;24MA150R22;18
S20;24ORCHB22;1
S20;24RG500CB21;18
S30000;24RG500CB21;13
S30000;24RG500R22;13
S20;24RG500R22;20
S20;24RO010CB4;6
S30000;24RO010CB4;12
S20;24SA050CB21;13
S30000;24SA050CB21;6
S20;24SA050R22;12
S30000;27BY015I22;1
S20;27CP050I19;2
S30000;27CP050I22;12
S20;27CP050I22;11
S20;27DB015I20;12
S30000;27DB015I20;5
S20;27DC050I20;21
S30000;27DC050I20;11
S20;27DCB060I17;4
S30000;27DCB060I17;3
S20;27DE015I21;8
S30000;27DE015I21;1
S20;27DF125I17;16
S30000;27DF125I17;15
S20;27DH015I20;2
S30000;27DH015I22;28
S20;27DH015I22;19
S20;27DH030I20;3
S30000;27DH030I20;5
S30000;27DH030I22;14
S20;27DH030I22;14
S20;27DL200I21;10
S30000;27DL200I21;6
S30000;27DS030I20;5
S30000;27ER015I22;15
S30000;27ER050I21;12
S30000;27ER150I21;12
S30000;27EV200I19;3
S30000;27FP050I19;1
S30000;27HC050I18;4
S30000;27HCR050I16;4
S30000;27HS030I18;3
S30000;27HSR030I16;4
S30000;27MI150I20;4
S30000;27MP050I20;38
S30000;27MP150I20;4
S30000;27MP150I22;12
S30000;27MQ065I15A;3
S30000;27MS050I20;5
S30000;27OR030I21;28
S30000;27OR050I21;38
S30000;27SP030I19;2
S30000;29ASH240A20;6
S30000;29BP100A19;1
S30000;29BP100A22;4
S30000;29GE200A21;12
S30000;29HD250A15;24
S30000;29HD500A15;30
S30000;29HS100A22SM;6
S30000;29LC200A20US;30
S30000;29MA030A17;24
S30000;29MA075A21;12
S30000;29RC200A20;19
S30000;29RH500A15;35
S30000;29SA050A21;13
S30000;29SE125A21;1
S30000;29SH240A20;5
S30000;29VC240A22;10
S30000;38BV050A22;5
S30000;38EC015A18;4
S30000;38EV075A21;2
S30000;38FT200A21;12
S30000;38MI150A22;5
S30000;38RC050A22;3
S30000;38UV030A18;1
S30000;38WC050A21;10
S30000;38WS030A21;10
S30000;49BO015CS19;105
S30000;49CABNO22;2
S30000;49CRM2NO22;2
S30000;49CUPNO22;50
S30000;49DH004I20;32
S30000;49HD035A15;92
S10;49HD035A15;74
S10;49LC020A20;26
S30000;49LC020A20;18
S30000;49MA010K22;78
S10;49MA010K22;69
S10;49OR005I21;42
S30000;49OR005I21;120
S30000;49POCK1NO22;27
S10;49POCK1NO22;11
S10;49TCMNO22;3
S10;52AF006G20;85
S30000;52AF006G20;112
S30000;52AS006E19;113
S10;52AS006E19;98
S10;52AS006FV21;64
S30000;52AS006FV21;99
S30000;52AS006G21;121
S10;52AS006G21;71
S10;52AS006P19;78
S30000;52AS006P19;107
S30000;52BY001I19;141
S10;52BY001I19;215
S10;52CARDNO22;20
S30000;52CARDNO22;12
S30000;52CD0015A18;95
S10;52CD0015A18;5
S10;52CL0015K21;171
S30000;52CL0015K21;70
S30000;52CP0015I19;4
S10;52CP0015I19;84
S10;52CP006K22;161
S30000;52CP006K22;95
S30000;52CV0015K22;55
S10;52CV0015K22;38
S10;52DB001I20;89
S30000;52DB001I20;139
S30000;52DC0015I20;200
S10;52DC0015I20;96
S10;52DE001I21;97
S30000;52DE001I21;121
S30000;52DF002I17;173
S10;52DF002I17;151
S10;52DH001I22;213
S30000;52DH001I22;324
S30000;52DL002I21;112
S10;52DL002I21;140
S10;52DS001I20;71
S30000;52DS001I20;74
S30000;52ER002I21;451
S10;52ER002I21;473
S10;52GD0015A18;53
S30000;52GD0015A18;98
S10;52GIF1NO22;6
S30000;52GIF1NO22;6
S10;52GIF2NO22;6
S30000;52GIF2NO22;6
S30000;52HD006A18;246
S10;52HD006A18;229
S10;52HS001I17;65
S30000;52HS001I17;77
S30000;52HS004A18;95
S10;52HS004A18;111
S30000;52LABANO22;16
S10;52LASANO22;265
S30000;52LASANO22;75
S30000;52LC006A20;169
S10;52LC006A20;165
S30000;52LGEBAG19;19
S10;52LGEBOX18;10
S30000;52LGEBOX18;10
S30000;52LGENSA21;247
S10;52LGENSA21;324
S10;52LT002R21;75
S30000;52LT002R21;23
S30000;52MA003K22A;157
S10;52MA003K22A;156
S10;52MC006G21;112
S30000;52MC006G21;134
S30000;52MGEBAG19;34
S30000;52MGEBOX18;18
S10;52MGEBOX18;20
S10;52MGENSA21;55
S30000;52MGENSA21;16
S10;52MGENSA21GPS;92
S30000;52MGENSA21GPS;60
S30000;52MIBANO22;19
S10;52MMB1NO22;55
S10;52MMB2NO22;32
S10;52MMB3NO22;52
S30000;52MMBANO22;50
S30000;52MMSANO22;20
S10;52MMSANO22;34
S10;52MOCOL316;3
S30000;52MOCOL316;4
S30000;52MS001I20;49
S10;52MS001I20;80
S10;52OR001I21;214
S30000;52OR001I21;286
S30000;52PMGBOX18;7
S10;52PMGBOX18;6
S10;52PS0015R21;68
S30000;52PS0015R21;121
S10;52PSAC18;1
S10;52RIB1NO22;18
S30000;52RIB1NO22;12
S30000;52RIB2NO22;12
S10;52RIB2NO22;18
S10;52RIBOXNO22;688
S30000;52RIBOXNO22;364
S30000;52SGENSA21GPS;58
S10;52SGENSA21GPS;27
S10;52SH006E19;169
S30000;52SH006E19;137
S30000;52SH006FV21;108
S10;52SH006FV21;248
S10;52SH006G21;121
S30000;52SH006G21;204
S30000;52SH006P19;218
S10;52SH006P19;136
S30000;52SMBANO22;75
S30000;52SMSANO22;14
S30000;52SP001I19;79
S10;52SP001I19;117
S10;52STINO22;17
S30000;52STINO22;9
S30000;52TS001I22;170
S10;52TS001I22;131
S10;52TS001R21;44
S30000;52TS001R21;92
S30000;98BBGD030VE4;40
S10;98BBGD030VE4;59
S10;98BBLC030VE5;15
S10;98BBMA010KA3;78
S30000;98BBMA010KA3;82
S30000;ACPOCVEC00001;219
S10;ACPOCVEC00001;218
S10;ACPOCVEC00002;268
S30000;ACPOCVEC00002;260
S30000;ACPOCVEC00003;100
S10;ACPOCVEC00003;103
S10;ACPOCVEC00004;114
S30000;ACPOCVEC00004;100
S30000;ACPOCVEC00005;110
S10;ACPOCVEC00005;101
S30000;ACPOCVKA00700;1
S30000;SGOCVE600004;78
S10;SGOCVE600004;61
S10;SGOCVKI00215;1
S10;SGOCVKI00218;1
S30000;SGOCVKI00223;1
S10;SGOCVKI00226;1
S30000;SGOCVKI00227;1
S30000;SGOCVKI00234;16
S10;SGOCVKI00234;18
S10;SGOCVKI00235;19
S30000;SGOCVKI00235;13
S30000;SGOCVKI00236;3
S10;SGOCVKI00236;6
S10;SGOCVKI00239;4
S10;SGOCVKI00240;7
S30000;SGOCVKI00240;2
