S27000;98BBGD050VE2;56
S27000;98BBLC050VE3;56
S27000;ACPOCVEC00001;100
S27000;ACPOCVEC00002;268
S27000;ACPOCVEC00003;22
S27000;ACPOCVEC00004;208
S27000;SGOCVE600004;56
S24000;SGOCVKI00234;1
S27000;SGOCVKI00234;4
S27000;SGOCVKI00236;8
S24000;SGOCVKI00239;1
S27000;SGOCVKI00239;2
S21000;01BK010K14;4
S24000;01BK010K14;6
S21000;01BL012K18;11
S24000;01BL012K18;11
S21000;01BM050K23;19
S24000;01BM050K23;24
S21000;01BM150K23;27
S24000;01BM150K23;32
S21000;01BP050K21;18
S24000;01BP050K21;17
S21000;01CCJ200K22;22
S24000;01CCJ200K22;28
S24000;01CD250K17;2
S21000;01CD250K23;15
S24000;01CD250K23;13
S24000;01CF030KB23;23
S21000;01CF050K22;1
S21000;01CL050K21;5
S24000;01CL050K21;14
S21000;01CL125KB23;11
S24000;01CL125KB23;9
S21000;01CL175K22;4
S24000;01CL175K22;4
S21000;01CL200KG22H;4
S24000;01CL200KG22H;5
S21000;01CM300K20;8
S24000;01CM300K20;10
S21000;01CM500K20;10
S24000;01CM500K20;10
S21000;01CMJ075K21;1
S24000;01CMJ075K21;7
S21000;01CMR500K20;14
S24000;01CMR500K20;18
S21000;01CP200K22;14
S24000;01CP200K22;28
S21000;01CPR200K22;20
S24000;01CPR200K22;8
S21000;01CV050K22;5
S24000;01CV050K22;10
S21000;01EC200K22;13
S24000;01EC200K22;12
S21000;01EM030K23;12
S24000;01EM030K23;10
S21000;01HD250K17;11
S24000;01HD250K17;27
S21000;01HD500K20;8
S24000;01HD500K20;28
S21000;01HDR500K20;20
S24000;01HDR500K20;29
S21000;01HF100K17;5
S24000;01HF100K17;16
S21000;01HN0075K23;24
S24000;01HN0075K23;20
S10;01BK010K14;10
S20;01BK010K14;19
S10;01BL012K18;13
S20;01BL012K18;51
S10;01BM050K23;15
S20;01BM050K23;11
S10;01BM150K23;30
S20;01BM150K23;48
S10;01BP050K21;9
S20;01BP050K21;19
S10;01CCJ200K22;19
S20;01CCJ200K22;5
S10;01CD250K17;2
S20;01CD250K17;2
S10;01CD250K23;13
S20;01CD250K23;25
S10;01CE200KC22H;1
S10;01CF030KB23;1
S10;01CL050K21;12
S20;01CL050K21;21
S10;01CL125KB23;9
S20;01CL125KB23;5
S10;01CL175K22;4
S20;01CL175K22;3
S20;01CL200KG22H;1
S10;01CM300K20;12
S20;01CM300K20;5
S10;01CM500K20;6
S20;01CM500K20;17
S10;01CMR500K20;13
S20;01CMR500K20;35
S10;01CP200K22;13
S20;01CP200K22;26
S10;01CPR200K22;14
S20;01CPR200K22;29
S10;01CV050K22;6
S20;01CV050K22;18
S10;01EC200K22;13
S20;01EC200K22;14
S10;01EM030K23;8
S20;01EM030K23;12
S10;01HD250K17;5
S20;01HD250K17;11
S10;01HD500K20;5
S20;01HD500K20;15
S10;01HDR500K20;11
S20;01HDR500K20;24
S10;01HF100K17;7
S20;01HF100K17;8
S10;01HN0075K23;8
S20;01HN0075K23;13
S10;01HV030K16;3
S20;01HV030K23;10
S10;01HV030K23;4
S21000;01HV030K16;3
S21000;01HV030K23;3
S24000;01HV030K23;5
S21000;01LB012KB23;6
S24000;01LB012KB23;9
S21000;01LC250K17;9
S24000;01LC250K17;16
S21000;01LC250K23;10
S24000;01LC250K23;15
S24000;01LT300K20;4
S21000;01MA030K22;120
S24000;01MA030K22;55
S21000;01MA075K22;14
S24000;01MA075K22;16
S21000;01MA150K22;48
S24000;01MA150K22;33
S21000;01MR030K14;73
S24000;01MR030K14;29
S21000;01PI030K18;15
S24000;01PI030K18;9
S21000;01PI150K18;11
S24000;01PI150K18;14
S21000;01RL500K20;6
S24000;01RL500K20;6
S21000;01RV500K20;32
S24000;01RV500K20;13
S21000;01SA100LT20;10
S24000;01SA100LT20;22
S21000;01SA100LV20;13
S24000;01SA100LV20;18
S21000;01SA100VE20;12
S24000;01SA100VE20;16
S21000;01SA250LT20;14
S24000;01SA250LT20;22
S21000;01SA250LV20;24
S24000;01SA250LV20;25
S21000;01SA250VE20;15
S24000;01SA250VE20;23
S21000;01SA300KRO22;6
S24000;01SA300KRO22;6
S21000;01SA500KRO22;6
S24000;01SA500KRO22;6
S21000;01SAR500KRO22;12
S24000;01SAR500KRO22;6
S21000;01SL0045K13;11
S24000;01SL0045K13;22
S21000;01SL300LV20;7
S24000;01SL300LV20;4
S21000;01SL300VE20;6
S24000;01SL300VE20;4
S21000;01SL500LV20;5
S24000;01SL500LV20;2
S10;01LB012KB23;5
S20;01LB012KB23;4
S10;01LC250K17;14
S20;01LC250K17;19
S10;01LC250K23;17
S20;01LC250K23;15
S10;01LT300K20;5
S20;01LT300K20;7
S10;01MA030K22;45
S20;01MA030K22;42
S10;01MA075K22;29
S20;01MA075K22;18
S10;01MA150K22;37
S20;01MA150K22;40
S20;01MA150KG22H;20
S10;01MR030K14;39
S20;01MR030K14;10
S10;01PI030K18;5
S20;01PI030K18;14
S10;01PI150K18;17
S20;01PI150K18;19
S10;01RL500K20;6
S10;01RV500K20;14
S20;01RV500K20;16
S10;01SA100LT20;15
S20;01SA100LT20;24
S10;01SA100LV20;12
S20;01SA100LV20;44
S10;01SA100VE20;13
S20;01SA100VE20;20
S10;01SA250LT20;14
S20;01SA250LT20;23
S10;01SA250LV20;16
S20;01SA250LV20;24
S10;01SA250VE20;23
S20;01SA250VE20;18
S10;01SA300KRO22;8
S20;01SA300KRO22;7
S10;01SA500KRO22;5
S20;01SA500KRO22;9
S10;01SAR500KRO22;12
S20;01SAR500KRO22;12
S10;01SL0045K13;14
S20;01SL0045K13;23
S20;01SL0045KR22;4
S10;01SL300LV20;6
S20;01SL300LV20;6
S10;01SL300VE20;9
S20;01SL300VE20;10
S10;01SL500LV20;4
S10;01SL500VE20;7
S20;01SL500VE20;7
S10;11AS040SG22;13
S20;11AS040SG22;20
S21000;01SL500VE20;10
S24000;01SL500VE20;4
S21000;11AS040SG22;17
S24000;11AS040SG22;14
S24000;11BC100G21;1
S21000;11BG140CS19;2
S24000;11BG140CS19;3
S21000;11BG140SH19;6
S24000;11BG140SH19;4
S21000;11BG140SI19;4
S24000;11BG140SI19;4
S21000;11BG140SL19;5
S24000;11BG140SL19;4
S21000;11BH050A18;17
S24000;11BH050A18;9
S21000;11BO100CS19;12
S24000;11BO100CS19;14
S21000;11BP100I19;4
S24000;11BP100I19;4
S21000;11BR100A20;7
S24000;11BR100A20;4
S21000;11CD050A18;4
S24000;11CD050A18;10
S21000;11CF100TR19;18
S24000;11CF100TR19;4
S21000;11CM030H19;10
S24000;11CM030H19;21
S21000;11CM030H20;12
S24000;11CM030H20;23
S21000;11CM030O21;8
S24000;11CM030O21;32
S21000;11CM125I19;14
S24000;11CM125I19;3
S21000;11EH150A18;5
S24000;11EH150A18;3
S21000;11EP010H19;10
S24000;11EP010H19;9
S21000;11ET010H20;10
S24000;11ET010H20;12
S21000;11ET050H20;6
S24000;11ET050H20;4
S21000;11ET075O21;9
S24000;11ET075O21;6
S21000;11FAG10TR19;20
S24000;11FAG10TR19;6
S21000;11GD050A18;9
S24000;11GD050A18;11
S21000;11GD250H19;10
S24000;11GD250H19;11
S21000;11GD250H20;14
S24000;11GD250H20;20
S21000;11GD250O21;24
S24000;11GD250O21;13
S10;38FT200A21;3
S10;38MI150A22;7
S10;38RC050A22;13
S10;38UV030A18;6
S10;38WC050A21;5
S10;38WM065A18;1
S10;38WS030A21;4
S10;49BO015CS19;47
S10;49CRM2NO22;6
S10;49CRM3NO21;3
S10;49DC004I20;9
S10;49DH004I20;18
S10;49DH004I22;38
S10;49GD035CB5;6
S10;49HD035A15;127
S10;49HD035K17;23
S10;49LC020A20;45
S10;49LD030I21;34
S10;49MA010A17;1
S10;49MA010K22;21
S10;49MA010R22;6
S10;49MA010VB3;38
S10;49MC014I23;10
S10;49OR005I21;80
S10;49POBFNO22;6
S10;49POCK2NO22;11
S10;49SH035E21;8
S10;98BBGD030VE4;27
S10;98BBGD050VE2;38
S10;98BBLC030VE5;15
S10;98BBLC050VE3;38
S10;98BBMA010KA3;36
S10;ACPOCVEC00001;144
S10;ACPOCVEC00002;565
S10;ACPOCVEC00003;107
S10;ACPOCVEC00004;103
S10;ACPOCVEC00005;80
S10;SGOCVE600004;38
S10;SGOCVKI00235;5
S10;SGOCVKI00236;5
S10;SGOCVKI00239;3
S21000;11GE075I20;5
S24000;11GE075I20;4
S21000;11GM200I19;24
S24000;11GM200I19;34
S21000;11GN195A18;13
S24000;11GN195A18;11
S21000;11LC250H19;8
S24000;11LC250H19;18
S21000;11LC250H20;10
S24000;11LC250H20;11
S21000;11LC250O21;10
S24000;11LC250O21;11
S21000;11LD200I19;9
S24000;11LD200I19;4
S21000;11LH200I19;2
S21000;11LT300I20;15
S24000;11LT300I20;4
S21000;11MH075A19;3
S24000;11MH075A19;8
S21000;11MWC200I19;5
S24000;11MWC200I19;4
S21000;11PEP050I20;1
S24000;11PEP050I20;1
S21000;11PM100SH19;4
S24000;11PM100SH19;5
S21000;11PM100SI19;4
S24000;11PM100SI19;4
S21000;11SA050O21;8
S24000;11SA050O21;20
S21000;11SA100H20;11
S24000;11SA100H20;10
S21000;11SAF100H20;9
S24000;11SAF100H20;6
S21000;11SD100CS19;5
S24000;11SD100CS19;9
S21000;11SD100SH19;6
S24000;11SD100SH19;9
S21000;11SD100SI19;5
S24000;11SD100SI19;7
S21000;11SP200CS19;4
S24000;11SP200CS19;9
S21000;11SP200SH19;4
S24000;11SP200SH19;5
S21000;11SP200SI19;4
S24000;11SP200SI19;5
S21000;11SV080I19;4
S24000;11SV080I19;4
S21000;15AS250VA18;6
S24000;15AS250VA18;6
S21000;15BA500L16A;11
S24000;15BA500L16A;14
S21000;15BM500VB21;11
S10;11BG140CS19;2
S20;11BG140CS19;11
S10;11BG140SH19;16
S20;11BG140SH19;8
S10;11BG140SI19;5
S20;11BG140SI19;6
S10;11BG140SL19;5
S20;11BG140SL19;4
S10;11BH050A18;3
S20;11BH050A18;1
S10;11BO100CS19;7
S20;11BO100CS19;26
S10;11BP100I19;4
S20;11BP100I19;6
S10;11BR100A20;3
S20;11BR100A20;7
S10;11CD050A18;3
S20;11CD050A18;7
S10;11CF100TR19;8
S20;11CF100TR19;8
S10;11CM030H19;10
S20;11CM030H19;13
S10;11CM030H20;38
S20;11CM030H20;14
S10;11CM030O21;5
S20;11CM030O21;13
S10;11CM125I19;6
S20;11CM125I19;12
S10;11EH150A18;6
S20;11EH150A18;4
S10;11EP010H19;5
S20;11EP010H19;12
S10;11ET010H20;11
S20;11ET010H20;12
S10;11ET050H20;6
S20;11ET050H20;4
S10;11ET075O21;5
S20;11ET075O21;12
S10;11FAG10TR19;42
S20;11FAG10TR19;10
S10;11GD050A18;5
S20;11GD050A18;6
S10;11GD250H19;21
S20;11GD250H19;18
S10;11GD250H20;11
S20;11GD250H20;17
S10;11GD250O21;13
S20;11GD250O21;15
S10;11GE075I20;4
S20;11GE075I20;4
S10;11GM200I19;13
S20;11GM200I19;23
S10;11GN195A18;12
S20;11GN195A18;14
S24000;15BM500VB21;13
S21000;15ET010VB19;6
S24000;15ET010VB19;4
S21000;15ET100VA20;5
S24000;15ET100VA20;4
S21000;15ET100VB20;5
S24000;15ET100VB20;6
S21000;15GD250L21;9
S24000;15GD250L21;18
S21000;15GD250VA20;8
S24000;15GD250VA20;8
S21000;15GD250VB21;7
S24000;15GD250VB21;15
S21000;15GD500VB21;10
S24000;15GD500VB21;13
S21000;15GM065L21;13
S24000;15GM065L21;10
S21000;15GM065VB21;13
S24000;15GM065VB21;15
S21000;15GM280VB21;5
S24000;15GM280VB21;4
S21000;15GN300L21;7
S24000;15GN300L21;17
S21000;15HE005L14;5
S24000;15HE005L14;4
S21000;15LC250L14;10
S24000;15LC250L14;15
S21000;15LC250VA20;7
S24000;15LC250VA20;5
S21000;15LC250VB3;9
S24000;15LC250VB3;10
S21000;15LM300L11;7
S24000;15LM300L11;11
S21000;15MA030L21;19
S24000;15MA030L21;39
S21000;15MA030VA5;1
S24000;15MA030VA5;20
S21000;15MA030VB3;11
S24000;15MA030VB3;10
S21000;15MA075L20;6
S24000;15MA075L20;2
S21000;15MA075VB4;11
S24000;15MA075VB4;11
S21000;15RC500VB21;19
S24000;15RC500VB21;15
S21000;15RG500L14;22
S24000;15RG500L14;8
S21000;15RG500VA20;33
S24000;15RG500VA20;10
S21000;15RO010VBM22;10
S24000;15RO010VBM22;6
S21000;15SA075VB21;11
S10;11LC250H19;33
S20;11LC250H19;14
S10;11LC250H20;11
S20;11LC250H20;15
S10;11LC250O21;16
S20;11LC250O21;15
S10;11LD200I19;8
S20;11LD200I19;5
S10;11LH200I19;6
S10;11LT300I20;4
S20;11LT300I20;4
S10;11MH075A19;4
S20;11MH075A19;3
S10;11MWC200I19;5
S20;11MWC200I19;5
S10;11PEP050I20;7
S20;11PEP050I20;4
S10;11PM100SH19;6
S20;11PM100SH19;6
S10;11PM100SI19;6
S20;11PM100SI19;6
S10;11SA050O21;5
S20;11SA050O21;5
S10;11SA100H19;3
S10;11SA100H20;6
S20;11SA100H20;12
S10;11SAF100H20;2
S20;11SAF100H20;14
S10;11SD100CS19;14
S20;11SD100CS19;12
S10;11SD100SH19;17
S20;11SD100SH19;5
S10;11SD100SI19;16
S20;11SD100SI19;9
S10;11SP200CS19;6
S20;11SP200CS19;11
S10;11SP200SH19;5
S20;11SP200SH19;8
S10;11SP200SI19;5
S20;11SP200SI19;9
S10;11SV080I19;5
S20;11SV080I19;4
S10;15AS250VA18;8
S20;15AS250VA18;4
S10;15BA500L16A;12
S20;15BA500L16A;7
S10;15BM500VB21;13
S20;15BM500VB21;7
S20;15DO050VA22;1
S20;15ET010VB19;6
S10;15ET010VB19;4
S10;15ET100VA20;5
S20;15ET100VA20;6
S20;15ET100VB20;6
S29000;01BK010K14;22
S30000;01BK010K14;26
S29000;01BL012K18;21
S30000;01BL012K18;15
S29000;01BM050K23;23
S30000;01BM050K23;17
S29000;01BM150K23;32
S30000;01BM150K23;21
S29000;01BP050K21;8
S30000;01BP050K21;10
S29000;01CCJ200K22;23
S30000;01CCJ200K22;20
S30000;01CD250K17;6
S29000;01CD250K23;10
S30000;01CD250K23;11
S30000;01CF030KB23;23
S29000;01CF050K22;4
S30000;01CF050K22;6
S29000;01CL050K21;8
S30000;01CL050K21;11
S29000;01CL125KB23;4
S30000;01CL125KB23;14
S29000;01CL175K22;6
S30000;01CL175K22;5
S29000;01CL200KG22H;5
S30000;01CL200KG22H;1
S29000;01CM300K20;6
S30000;01CM300K20;6
S29000;01CM500K20;21
S30000;01CM500K20;13
S29000;01CMJ075K21;19
S29000;01CMR500K20;24
S30000;01CMR500K20;6
S29000;01CP200K22;21
S30000;01CP200K22;6
S29000;01CPR200K22;24
S30000;01CPR200K22;14
S29000;01CV050K22;5
S30000;01CV050K22;10
S29000;01EC200K22;26
S30000;01EC200K22;12
S29000;01EM030K23;15
S30000;01EM030K23;14
S29000;01EM075K20;3
S29000;01HD250K17;13
S30000;01HD250K17;4
S29000;01HD500K20;17
S30000;01HD500K20;13
S29000;01HDR500K20;25
S30000;01HDR500K20;22
S29000;01HF100K17;10
S30000;01HF100K17;4
S29000;01HN0075K23;21
S24000;15SA075VB21;4
S21000;15SE400VB5;3
S21000;15SH250VA20;9
S24000;15SH250VA20;5
S21000;17AF100G20;16
S24000;17AF100G20;15
S21000;17AS250E19;6
S24000;17AS250E19;6
S24000;17AS250FV21;9
S21000;17AS250FV21;6
S21000;17AS250G21;6
S24000;17AS250G21;11
S24000;17AS250P19;5
S21000;17AS250P19;6
S21000;17AS500E19;10
S24000;17AS500E19;11
S24000;17AS500FV21;14
S21000;17AS500FV21;12
S21000;17AS500G21;12
S24000;17AS500G21;14
S24000;17AS500P19;6
S21000;17AS500P19;6
S21000;17DO050F13;32
S24000;17DO050F13;30
S24000;17ER075P19;5
S21000;17ER075P19;7
S21000;17HB050A22;15
S24000;17HB050A22;10
S24000;17HI100G19;12
S21000;17HI100G19;22
S21000;17MC200G21;23
S24000;17MC200G21;17
S24000;17RC500E20;37
S21000;17RC500E20;23
S21000;17RC500G21;13
S24000;17RC500G21;38
S24000;17RC500P19;13
S21000;17RC500P19;7
S21000;17RS500E20;12
S24000;17RS500E20;19
S24000;17RS500FV21;36
S21000;17RS500FV21;34
S21000;17RS500G21;3
S21000;17RS500P19;35
S24000;17RS500P19;45
S24000;17SE100FV21;22
S21000;17SE100FV21;21
S21000;17SH060SE21;5
S24000;17SH060SE21;4
S24000;17SH060SG21;4
S21000;17SH060SG21;5
S21000;17SH060SP21;6
S24000;17SH060SP21;4
S30000;01HN0075K23;7
S30000;01HV030K16;3
S29000;01HV030K23;4
S30000;01HV030K23;3
S29000;01LB012KB23;17
S30000;01LB012KB23;6
S29000;01LC250K17;19
S30000;01LC250K17;16
S29000;01LC250K23;17
S30000;01LC250K23;6
S29000;01LT300K20;9
S30000;01LT300K20;8
S29000;01MA030K22;45
S30000;01MA030K22;60
S29000;01MA075K22;20
S30000;01MA075K22;29
S29000;01MA150K22;48
S30000;01MA150K22;26
S30000;01MA150KG22H;1
S29000;01MR030K14;20
S30000;01MR030K14;19
S29000;01PI030K18;6
S30000;01PI030K18;14
S29000;01PI150K18;22
S30000;01PI150K18;13
S29000;01RL500K20;7
S30000;01RL500K20;11
S29000;01RV500K20;22
S30000;01RV500K20;13
S29000;01SA100LT20;25
S30000;01SA100LT20;17
S29000;01SA100LV20;22
S30000;01SA100LV20;21
S29000;01SA100VE20;15
S30000;01SA100VE20;20
S29000;01SA250LT20;29
S30000;01SA250LT20;14
S29000;01SA250LV20;28
S30000;01SA250LV20;14
S29000;01SA250VE20;32
S30000;01SA250VE20;19
S29000;01SA300KRO22;6
S30000;01SA300KRO22;6
S29000;01SA500KRO22;4
S30000;01SA500KRO22;6
S29000;01SAR500KRO22;22
S30000;01SAR500KRO22;8
S29000;01SL0045K13;27
S30000;01SL0045K13;20
S29000;01SL300LV20;7
S30000;01SL300LV20;5
S29000;01SL300VE20;6
S10;15ET100VB20;6
S10;15GD250L21;13
S20;15GD250L21;30
S20;15GD250VA20;11
S10;15GD250VA20;12
S10;15GD250VB21;14
S20;15GD250VB21;16
S20;15GD500VB21;29
S10;15GD500VB21;18
S10;15GM065L21;44
S20;15GM065L21;16
S20;15GM065VB21;23
S10;15GM065VB21;36
S10;15GM280VB21;4
S20;15GM280VB21;6
S20;15GN300L21;21
S10;15GN300L21;8
S10;15HE005L14;4
S20;15HE005L14;5
S20;15LC250L14;15
S10;15LC250L14;21
S10;15LC250VA20;20
S20;15LC250VA20;6
S20;15LC250VB3;13
S10;15LC250VB3;16
S10;15LM300L11;7
S20;15LM300L11;16
S20;15MA030L21;24
S10;15MA030L21;23
S10;15MA030VA5;15
S20;15MA030VA5;8
S20;15MA030VB3;8
S10;15MA030VB3;8
S10;15MA075L20;5
S20;15MA075L20;7
S20;15MA075VB4;15
S10;15MA075VB4;13
S10;15RC500VB21;31
S20;15RC500VB21;39
S20;15RG500L14;39
S10;15RG500L14;13
S10;15RG500VA20;33
S20;15RG500VA20;13
S20;15RO010VBM22;16
S10;15RO010VBM22;32
S10;15SA075VB21;3
S20;15SA075VB21;2
S20;15SH250VA20;12
S10;15SH250VA20;13
S10;17AF100G20;10
S20;17AF100G20;30
S20;17AS250E19;6
S10;17AS250E19;4
S10;17AS250FV21;7
S24000;27BD060I23;8
S24000;27BY015I22;13
S24000;27CP050I22;21
S24000;27DB015I20;13
S24000;27DC050I20;20
S24000;27DE015I21;20
S24000;27DH015I22;38
S24000;27DH030I22;17
S24000;27DL200I21;23
S24000;27DS030I20;10
S24000;27ER015I22;20
S24000;27ER050I21;4
S24000;27ER150I21;13
S24000;27EV200I22;33
S24000;27HC050I18;2
S24000;27HCR050I16;3
S24000;27HD200I23;12
S24000;27HS030I18;4
S24000;27HSR030I16;6
S24000;27MC125I23;48
S24000;27MI150I20;2
S24000;27MP050I20;5
S24000;27MP050I22;28
S24000;27MP150I22;26
S24000;27MQ065I15A;4
S24000;27MS050I20;14
S24000;27OR030I21;30
S24000;27OR050I21;63
S24000;27SE075I22;19
S24000;27SP030I19;3
S24000;29ASH240A20;9
S24000;29BP100A22;10
S24000;29EC200A22;2
S24000;29GE200A21;45
S24000;29HD250A15;50
S24000;29HD500A15;44
S24000;29HS100A21;12
S21000;29LC200A20US;33
S24000;29LC200A20US;29
S21000;29MA030A17;17
S24000;29MA030A17;41
S21000;29MA075A21;11
S24000;29MA075A21;17
S21000;29RC200A22;51
S24000;29RC200A22;54
S21000;29RH500A15;30
S24000;29RH500A15;37
S21000;29SA050A21;9
S24000;29SA050A21;4
S21000;29SA050A22;10
S24000;29SA050A22;10
S21000;29SE125A21;25
S24000;29SE125A21;11
S30000;01SL300VE20;5
S29000;01SL500LV20;13
S30000;01SL500LV20;3
S29000;01SL500VE20;14
S30000;01SL500VE20;6
S29000;11AS040SG22;14
S30000;11AS040SG22;13
S30000;11BC100G21;2
S29000;11BG140CS19;16
S30000;11BG140CS19;11
S29000;11BG140SH19;14
S30000;11BG140SH19;5
S29000;11BG140SI19;6
S30000;11BG140SI19;5
S29000;11BG140SL19;6
S30000;11BG140SL19;5
S29000;11BH050A18;5
S30000;11BH050A18;5
S29000;11BO100CS19;20
S30000;11BO100CS19;16
S29000;11BP100I19;3
S30000;11BP100I19;5
S29000;11BR100A20;17
S30000;11BR100A20;5
S29000;11CD050A18;7
S30000;11CD050A18;5
S29000;11CF100TR19;17
S30000;11CF100TR19;15
S29000;11CM030H19;63
S30000;11CM030H19;36
S29000;11CM030H20;36
S30000;11CM030H20;44
S29000;11CM030O21;15
S30000;11CM030O21;42
S29000;11CM125I19;33
S30000;11CM125I19;11
S29000;11EH150A18;6
S30000;11EH150A18;5
S29000;11EP010H19;14
S30000;11EP010H19;15
S29000;11ET010H20;14
S30000;11ET010H20;16
S29000;11ET050H20;5
S30000;11ET050H20;5
S29000;11ET075O21;6
S30000;11ET075O21;15
S29000;11FAG10TR19;7
S30000;11FAG10TR19;11
S29000;11GD050A18;14
S30000;11GD050A18;5
S29000;11GD250H19;30
S30000;11GD250H19;16
S29000;11GD250H20;26
S20;17AS250FV21;10
S20;17AS250G21;5
S10;17AS250G21;6
S10;17AS250P19;6
S20;17AS250P19;7
S20;17AS500E19;11
S10;17AS500E19;9
S10;17AS500FV21;8
S20;17AS500FV21;11
S20;17AS500G21;14
S10;17AS500G21;13
S10;17AS500P19;6
S20;17AS500P19;5
S20;17DO050F13;33
S10;17DO050F13;30
S10;17ER075P19;6
S20;17ER075P19;12
S20;17HB050A22;18
S10;17HB050A22;8
S10;17HI100G19;11
S20;17HI100G19;13
S20;17MC200G21;15
S10;17MC200G21;15
S10;17RC500E20;28
S20;17RC500E20;26
S20;17RC500G21;45
S10;17RC500G21;15
S10;17RC500P19;6
S20;17RC500P19;10
S20;17RS500E20;22
S10;17RS500E20;10
S10;17RS500FV21;26
S20;17RS500FV21;45
S20;17RS500G21;12
S10;17RS500G21;2
S10;17RS500P19;27
S20;17RS500P19;43
S20;17SE100FV21;27
S10;17SE100FV21;17
S10;17SH060SE21;4
S20;17SH060SE21;7
S20;17SH060SG21;6
S10;17SH060SG21;6
S10;17SH060SP21;6
S20;17SH060SP21;6
S20;17SH075E19;50
S10;17SH075E19;13
S10;17SH075G21;17
S20;17SH075G21;34
S20;17SH300E19;14
S10;17SH300E19;4
S10;17SH300FV21;9
S20;17SH300FV21;13
S20;17SH300G21;12
S24000;17SH075E19;7
S21000;17SH075E19;16
S21000;17SH075G21;19
S24000;17SH075G21;5
S24000;17SH300E19;16
S21000;17SH300E19;12
S21000;17SH300FV21;6
S24000;17SH300FV21;16
S24000;17SH300G21;12
S21000;17SH300G21;6
S21000;17SH300P19;6
S24000;17SH300P19;12
S24000;17SH500E19;21
S21000;17SH500E19;12
S21000;17SH500FV21;14
S24000;17SH500FV21;24
S24000;17SH500G21;19
S21000;17SH500G21;16
S21000;17SH500P19;13
S24000;17SH500P19;17
S24000;17VI100P19;4
S21000;17VI100P19;6
S21000;20AR075O20;7
S24000;20AR075O20;8
S24000;20DO050O20;12
S21000;20DO050O20;7
S21000;20DO075CD20;11
S24000;20DO075CD20;11
S24000;20DO130HC20;5
S21000;20DO130HC20;6
S21000;20ET075CD21;5
S24000;20ET075CD21;5
S24000;20ET075HC20;3
S21000;20ET075HC20;6
S24000;20ET075OC20;5
S24000;20GD250CD20;5
S21000;20GD250CD20;6
S21000;20GD250HC20;10
S24000;20GD250HC20;15
S24000;20GD250OC20;5
S21000;20GD250OC20;7
S21000;20GD500HC20;10
S24000;20GD500HC20;8
S24000;20HR050H20;5
S21000;20HR050H20;6
S21000;20NV150H20;11
S24000;20NV150H20;11
S24000;20SA050CD20;4
S21000;20SA050CD20;5
S21000;20SA050HC20;5
S24000;20SA050HC20;2
S24000;24BL012CB5;12
S21000;29SH240A20;9
S24000;29SH240A20;9
S21000;29VC240A22;2
S24000;29VC240A22;8
S21000;38BV050A22;5
S24000;38BV050A22;4
S21000;38EV075A21;21
S24000;38EV075A21;11
S21000;38FT200A21;9
S24000;38FT200A21;17
S21000;38MI150A22;8
S24000;38MI150A22;8
S21000;38RC050A22;6
S24000;38RC050A22;4
S21000;38UV030A18;10
S24000;38UV030A18;2
S21000;38WC050A21;6
S24000;38WC050A21;18
S21000;38WS030A21;13
S24000;38WS030A21;13
S21000;49BO015CS19;53
S24000;49BO015CS19;7
S21000;49CUPNO22;48
S24000;49CUPNO22;3
S21000;49DC004I20;17
S24000;49DC004I20;12
S21000;49DH004I20;5
S21000;49DH004I22;44
S24000;49DH004I22;24
S21000;49GD035CB5;4
S24000;49GD035CB5;2
S21000;49HD035A15;50
S24000;49HD035A15;41
S21000;49HD035K17;7
S24000;49HD035K17;8
S21000;49LC020A20;57
S21000;49LD030I21;12
S24000;49LD030I21;12
S21000;49MA010K22;5
S24000;49MA010K22;2
S21000;49MA010VB3;96
S24000;49MA010VB3;128
S21000;49MC014I23;12
S24000;49MC014I23;12
S21000;49OR005I21;133
S24000;49OR005I21;201
S21000;49POBFNO22;9
S24000;49POBFNO22;36
S21000;49POCK2NO22;16
S24000;49POCK2NO22;19
S21000;98BBGD030VE4;32
S21000;98BBGD050VE2;96
S24000;98BBGD050VE2;128
S30000;11GD250H20;12
S29000;11GD250O21;20
S30000;11GD250O21;17
S29000;11GE075I20;4
S30000;11GE075I20;5
S29000;11GM200I19;33
S30000;11GM200I19;15
S29000;11GN195A18;15
S30000;11GN195A18;13
S29000;11LC250H19;61
S30000;11LC250H19;8
S29000;11LC250H20;34
S30000;11LC250H20;8
S29000;11LC250O21;60
S30000;11LC250O21;15
S29000;11LD200I19;17
S30000;11LD200I19;12
S29000;11LH200I19;9
S30000;11LH200I19;5
S29000;11LT300I20;4
S30000;11LT300I20;5
S29000;11MH075A19;5
S30000;11MH075A19;5
S29000;11MWC200I19;5
S30000;11MWC200I19;4
S29000;11PEP050I20;4
S29000;11PM100SH19;5
S30000;11PM100SH19;4
S29000;11PM100SI19;6
S30000;11PM100SI19;3
S29000;11SA050O21;6
S30000;11SA050O21;6
S29000;11SA100H20;19
S30000;11SA100H20;13
S29000;11SAF100H20;15
S30000;11SAF100H20;7
S29000;11SD100CS19;18
S30000;11SD100CS19;12
S29000;11SD100SH19;5
S30000;11SD100SH19;9
S29000;11SD100SI19;5
S30000;11SD100SI19;8
S29000;11SP200CS19;19
S30000;11SP200CS19;4
S29000;11SP200SH19;19
S30000;11SP200SH19;8
S29000;11SP200SI19;15
S30000;11SP200SI19;4
S29000;11SV080I19;14
S30000;11SV080I19;5
S29000;15AS250VA18;15
S30000;15AS250VA18;5
S10;17SH300G21;8
S10;17SH300P19;6
S20;17SH300P19;11
S20;17SH500E19;18
S10;17SH500E19;15
S10;17SH500FV21;12
S20;17SH500FV21;20
S20;17SH500G21;17
S10;17SH500G21;19
S10;17SH500P19;12
S20;17SH500P19;13
S20;17VI100P19;4
S10;17VI100P19;6
S10;20AR075O20;4
S20;20AR075O20;13
S20;20DO050O20;13
S10;20DO050O20;5
S10;20DO075CD20;8
S20;20DO075CD20;12
S20;20DO130HC20;13
S10;20DO130HC20;5
S10;20ET075CD21;5
S20;20ET075CD21;5
S20;20ET075HC20;4
S10;20ET075HC20;5
S10;20ET075OC20;3
S20;20ET075OC20;5
S20;20GD250CD20;13
S10;20GD250CD20;11
S10;20GD250HC20;15
S20;20GD250HC20;22
S20;20GD250OC20;17
S10;20GD250OC20;11
S10;20GD500HC20;14
S20;20GD500HC20;16
S20;20NV150H20;18
S10;20NV150H20;11
S10;20SA050CD20;3
S20;20SA050CD20;3
S20;20SA050HC20;4
S10;20SA050HC20;4
S10;24BL012CB5;13
S20;24BL012CB5;14
S20;24BL012R22;11
S10;24BL012R22;8
S10;24BR050CB21;10
S20;24BR050CB21;10
S20;24BR050R22;14
S10;24BR050R22;12
S10;24CM030CBL23;2
S20;24CM030CBL23;5
S20;24ET075CB21;6
S10;24ET075CB21;16
S20;24ET075R22;9
S21000;24BL012CB5;10
S21000;24BL012R22;7
S24000;24BL012R22;10
S24000;24BR050CB21;12
S21000;24BR050CB21;13
S21000;24BR050R22;12
S24000;24BR050R22;13
S24000;24CM030CBL23;40
S24000;24EDT050CBL23;6
S24000;24ET075CB21;8
S21000;24ET075CB21;9
S21000;24ET075R22;8
S24000;24ET075R22;8
S24000;24GD250CB21;26
S21000;24GD250CB21;19
S21000;24GD250CBL23;7
S24000;24GD250CBL23;11
S24000;24GD250R22;13
S21000;24GD250R22;15
S21000;24GD500R22;10
S24000;24GD500R22;13
S24000;24LC250CB21;15
S21000;24LC250CB21;15
S21000;24LC250CB4;1
S24000;24LC250CB4;1
S24000;24LC250R22;12
S21000;24LC250R22;7
S21000;24MA030CB21;27
S24000;24MA030CB21;47
S24000;24MA030P21;9
S21000;24MA030P21;10
S21000;24MA030R22;22
S24000;24MA030R22;23
S24000;24MA030RV19;1
S24000;24MA075CB21;18
S21000;24MA075CB21;16
S21000;24MA075P15;7
S21000;24MA075P21;10
S24000;24MA075P21;10
S24000;24MA075R22;12
S21000;24MA075R22;12
S21000;24MA150R22;8
S24000;24MA150R22;12
S24000;24RG500CB21;6
S21000;24RG500CB21;15
S21000;24RG500R22;14
S24000;24RG500R22;19
S24000;24RO010CB4;5
S21000;24RO010CB4;4
S21000;24SA050CB21;9
S24000;24SA050CB21;11
S24000;24SA050R22;30
S20;38BV050A22;18
S20;38EV075A21;13
S20;38FT200A21;11
S20;38MI150A22;16
S20;38RC050A22;6
S20;38UV030A18;11
S20;38WC050A21;10
S20;38WS030A21;10
S20;49BO015CS19;17
S20;49CRM2NO22;1
S20;49CUPNO22;14
S20;49DC004I20;21
S20;49DH004I20;10
S20;49DH004I22;44
S20;49GD035CB5;7
S20;49HD035A15;37
S20;49HD035K17;18
S20;49LC020A20;20
S20;49LD030I21;12
S20;49MA010A17;3
S20;49MA010K22;34
S20;49MA010VB3;96
S20;49MC014I23;12
S20;49OR005I21;151
S20;49POBFNO22;13
S20;49POCK2NO22;13
S20;49SH035E21;10
S20;98BBGD030VE4;19
S20;98BBGD050VE2;96
S20;98BBLC050VE3;96
S20;98BBMA010KA3;24
S20;ACPOCVEC00001;52
S20;ACPOCVEC00002;668
S20;ACPOCVEC00003;113
S20;ACPOCVEC00004;97
S20;SGOCVE600004;96
S24000;98BBLC050VE3;128
S21000;98BBLC050VE3;96
S21000;98BBMA010KA3;68
S21000;ACPOCVEC00001;116
S24000;ACPOCVEC00001;216
S24000;ACPOCVEC00002;675
S21000;ACPOCVEC00002;222
S21000;ACPOCVEC00003;104
S24000;ACPOCVEC00003;83
S24000;ACPOCVEC00004;100
S21000;ACPOCVEC00004;100
S21000;ACPOCVEC00005;30
S24000;SGOCVE600004;128
S28000;01BK010K14;13
S31000;01BK010K14;14
S90000;01BK010K14;8
S28000;01BL012K18;34
S31000;01BL012K18;11
S90000;01BL012K18;12
S90000;01BL012KC22H;11
S90000;01BL012KG22H;16
S28000;01BM050K23;30
S31000;01BM050K23;8
S90000;01BM050K23;13
S28000;01BM150K23;27
S31000;01BM150K23;23
S90000;01BM150K23;28
S28000;01BP050K21;25
S31000;01BP050K21;9
S90000;01BP050K21;9
S28000;01CCJ200K22;32
S31000;01CCJ200K22;14
S90000;01CCJ200K22;25
S31000;01CD250K17;1
S90000;01CD250K17;12
S28000;01CD250K23;27
S31000;01CD250K23;19
S90000;01CD250K23;12
S90000;01CD250KC22H;3
S90000;01CE200KC22H;16
S31000;01CF030KB23;4
S90000;01CF030KB23;14
S31000;01CF050K22;12
S90000;01CF050K22;1
S28000;01CL050K21;5
S31000;01CL050K21;4
S90000;01CL050K21;9
S28000;01CL125KB23;13
S31000;01CL125KB23;12
S90000;01CL125KB23;9
S28000;01CL175K22;5
S31000;01CL175K22;5
S90000;01CL175K22;7
S90000;01CL200K17;18
S28000;01CL200KG22H;18
S90000;01CL200KG22H;7
S28000;01CM300K20;13
S31000;01CM300K20;6
S90000;01CM300K20;10
S28000;01CM500K20;13
S31000;01CM500K20;7
S90000;01CM500K20;17
S31000;01CMJ075K21;12
S90000;01CMJ075K21;11
S28000;01CMR500K20;15
S31000;01CMR500K20;11
S10;24ET075R22;12
S10;24GD075R22;6
S10;24GD250CB21;18
S20;24GD250CB21;20
S20;24GD250CBL23;5
S10;24GD250CBL23;2
S10;24GD250R22;30
S20;24GD250R22;15
S20;24GD500R22;32
S10;24GD500R22;10
S20;24LC250CB21;12
S10;24LC250CB21;17
S10;24LC250CB4;8
S10;24LC250R22;17
S20;24LC250R22;19
S20;24MA030CB21;29
S10;24MA030CB21;26
S10;24MA030P21;10
S20;24MA030P21;9
S20;24MA030R22;24
S10;24MA030R22;22
S10;24MA030RV19;47
S20;24MA030RV19;2
S20;24MA075CB21;15
S10;24MA075CB21;19
S10;24MA075CB4;1
S10;24MA075P15;1
S20;24MA075P15;3
S20;24MA075P21;10
S10;24MA075P21;10
S10;24MA075R22;6
S20;24MA075R22;10
S20;24MA150R22;8
S10;24MA150R22;12
S10;24RG500CB21;14
S20;24RG500CB21;19
S20;24RG500R22;22
S10;24RG500R22;11
S10;24RO010CB4;9
S20;24RO010CB4;6
S20;24SA050CB21;12
S10;24SA050CB21;11
S10;24SA050R22;14
S20;24SA050R22;12
S20;27BD060I23;8
S10;27BD060I23;10
S10;27BY015I22;6
S20;27BY015I22;12
S20;27CP050I22;15
S10;27CP050I22;9
S10;27DB015I20;12
S20;27DB015I20;25
S20;27DC050I20;27
S10;27DC050I20;15
S90000;01CMR500K20;16
S90000;01CP050K22;24
S90000;01CP100K21H;8
S28000;01CP200K22;17
S31000;01CP200K22;3
S90000;01CP200K22;13
S28000;01CPR200K22;14
S31000;01CPR200K22;14
S90000;01CPR200K22;10
S90000;01CV050K18;18
S28000;01CV050K22;7
S31000;01CV050K22;3
S90000;01CV050K22;9
S90000;01EC200K17;2
S28000;01EC200K22;19
S31000;01EC200K22;13
S90000;01EC200K22;14
S28000;01EM030K23;10
S31000;01EM030K23;24
S90000;01EM030K23;10
S90000;01EM075K20;8
S28000;01HD250K17;13
S31000;01HD250K17;3
S90000;01HD250K17;6
S28000;01HD500K20;14
S31000;01HD500K20;13
S90000;01HD500K20;18
S28000;01HDR500K20;13
S31000;01HDR500K20;12
S90000;01HDR500K20;24
S28000;01HF100K17;5
S31000;01HF100K17;4
S90000;01HF100K17;6
S90000;01HN0075K19;6
S28000;01HN0075K23;15
S31000;01HN0075K23;12
S90000;01HN0075K23;14
S28000;01HV030K16;2
S31000;01HV030K16;2
S90000;01HV030K16;4
S28000;01HV030K23;3
S31000;01HV030K23;4
S90000;01HV030K23;6
S90000;01KTPWP21;13
S31000;01LB012KB23;11
S90000;01LB012KB23;9
S28000;01LC250K17;21
S31000;01LC250K17;7
S90000;01LC250K17;3
S28000;01LC250K23;22
S31000;01LC250K23;3
S90000;01LC250K23;6
S28000;01LT300K20;1
S27000;01BK010K14;5
S27000;01BL012K18;9
S27000;01BM050K23;17
S27000;01BM150K23;22
S27000;01BP050K21;10
S27000;01CCJ200K22;19
S27000;01CD250K23;4
S27000;01CF030KB23;9
S27000;01CL050K21;11
S27000;01CL125KB23;8
S27000;01CL175K22;8
S27000;01CM300K20;8
S27000;01CM500K20;6
S27000;01CMJ075K21;1
S27000;01CMR500K20;10
S27000;01CP100KC22H;3
S27000;01CP200K22;13
S27000;01CPR200K22;9
S27000;01CV050K22;5
S27000;01EC200K22;13
S27000;01EM030K23;11
S27000;01EM075K20;2
S27000;01HD250K17;10
S27000;01HD500K20;13
S27000;01HDR500K20;21
S27000;01HF100K17;8
S27000;01HN0075K23;11
S27000;01HV030K16;2
S27000;01HV030K23;5
S27000;01LB012KB23;6
S27000;01LC250K17;12
S27000;01LC250K23;3
S27000;01MA030K22;35
S27000;01MA075K22;20
S27000;01MA150K22;25
S27000;01MR030K14;10
S27000;01PI030K18;5
S27000;01PI150K18;11
S27000;01PWPKT22;8
S27000;01RL500K20;14
S27000;01RV500K20;5
S27000;01SA100LT20;10
S27000;01SA100LV20;10
S27000;01SA100VE20;10
S27000;01SA250LT20;12
S27000;01SA250LV20;15
S27000;01SA250VE20;13
S27000;01SA300KRO22;6
S27000;01SA500KRO22;6
S27000;01SAR500KRO22;8
S27000;01SE125K21;3
S27000;01SL0045K13;17
S27000;01SL300LV20;5
S21000;24SA050R22;10
S21000;27BD060I23;9
S21000;27BY015I22;17
S21000;27CP050I22;22
S21000;27DB015I20;11
S21000;27DC050I20;14
S21000;27DCB060I17;3
S21000;27DE015I21;15
S21000;27DH015I22;29
S21000;27DH030I22;30
S21000;27DL200I21;10
S21000;27DS030I20;6
S21000;27ER015I22;24
S21000;27ER050I21;10
S21000;27ER150I21;22
S21000;27EV200I22;30
S21000;27HC050I18;4
S21000;27HCR050I16;3
S21000;27HD200I23;7
S21000;27HS030I18;3
S21000;27HSR030I16;5
S21000;27MC125I23;32
S21000;27MP050I22;34
S21000;27MP150I22;5
S21000;27MQ065I15A;5
S21000;27MS050I20;11
S21000;27OR030I21;34
S21000;27OR050I21;69
S21000;27SE075I22;19
S21000;29ASH240A20;4
S21000;29BP100A19;2
S21000;29BP100A22;6
S21000;29EC200A22;6
S21000;29GE200A21;37
S21000;29HD250A15;18
S21000;29HD500A15;48
S21000;29HS100A21;16
S10;27DCB060I17;2
S10;27DE015I21;6
S20;27DE015I21;25
S20;27DH015I22;30
S10;27DH015I22;29
S10;27DH030I22;14
S20;27DH030I22;28
S20;27DL200I21;9
S10;27DL200I21;8
S10;27DS030I20;5
S20;27DS030I20;10
S20;27ER015I22;16
S10;27ER015I22;13
S10;27ER050I21;11
S20;27ER050I21;4
S20;27ER150I21;15
S10;27ER150I21;16
S10;27EV200I22;30
S20;27EV200I22;27
S20;27HC050I18;3
S10;27HC050I18;4
S10;27HD200I23;6
S20;27HD200I23;9
S20;27HS030I18;3
S10;27HS030I18;4
S10;27HSR030I16;8
S20;27HSR030I16;5
S20;27MC125I23;42
S10;27MC125I23;26
S10;27MI150I20;16
S10;27MP050I20;19
S20;27MP050I20;9
S20;27MP050I22;13
S10;27MP050I22;57
S10;27MP150I22;23
S20;27MP150I22;13
S20;27MQ065I15A;3
S10;27MQ065I15A;4
S10;27MS050I20;4
S20;27MS050I20;10
S20;27OR030I21;25
S10;27OR030I21;23
S10;27OR050I21;55
S20;27OR050I21;52
S20;27SE075I22;16
S10;27SE075I22;22
S20;27SP030I19;1
S20;29ASH075A20;3
S10;29ASH075A20;1
S10;29ASH240A20;14
S20;29ASH240A20;4
S10;29BP100A19;11
S10;29BP100A22;3
S20;29BP100A22;8
S31000;01LT300K20;6
S90000;01LT300K20;5
S28000;01MA030K22;52
S31000;01MA030K22;63
S90000;01MA030K22;12
S90000;01MA030K22H;21
S90000;01MA030KC22H;1
S90000;01MA030KG22H;9
S28000;01MA075K22;39
S31000;01MA075K22;14
S90000;01MA075K22;12
S28000;01MA150K22;55
S31000;01MA150K22;27
S90000;01MA150K22;16
S90000;01MA150KC22H;25
S31000;01MA150KG22H;8
S90000;01MD200KG22H;10
S28000;01MR030K14;36
S31000;01MR030K14;17
S90000;01MR030K14;17
S28000;01PI030K18;12
S31000;01PI030K18;8
S90000;01PI030K18;12
S28000;01PI150K18;20
S31000;01PI150K18;11
S90000;01PI150K18;13
S90000;01PWPKT22;22
S28000;01RL500K20;6
S31000;01RL500K20;9
S90000;01RL500K20;19
S28000;01RV500K20;27
S31000;01RV500K20;13
S90000;01RV500K20;24
S90000;01SA050KC22H;8
S90000;01SA050KG22H;11
S28000;01SA100LT20;16
S31000;01SA100LT20;6
S90000;01SA100LT20;15
S90000;01SA100LV20;15
S28000;01SA100LV20;17
S31000;01SA100LV20;12
S28000;01SA100VE20;16
S31000;01SA100VE20;12
S90000;01SA100VE20;15
S90000;01SA250LT20;15
S28000;01SA250LT20;12
S31000;01SA250LT20;3
S28000;01SA250LV20;15
S31000;01SA250LV20;5
S90000;01SA250LV20;14
S90000;01SA250VE20;15
S28000;01SA250VE20;16
S29000;15BA500L16A;12
S30000;15BA500L16A;8
S29000;15BM500VB21;6
S30000;15BM500VB21;18
S29000;15DO050VA22;5
S30000;15DO050VA22;5
S29000;15ET010VB19;4
S30000;15ET010VB19;8
S29000;15ET100VA20;4
S30000;15ET100VA20;5
S29000;15ET100VB20;8
S30000;15ET100VB20;5
S29000;15GD250L21;34
S30000;15GD250L21;15
S29000;15GD250VA20;14
S30000;15GD250VA20;14
S29000;15GD250VB21;16
S30000;15GD250VB21;14
S29000;15GD500VB21;28
S30000;15GD500VB21;11
S29000;15GM065L21;20
S30000;15GM065L21;21
S29000;15GM065VB21;21
S30000;15GM065VB21;9
S29000;15GM280VB21;7
S30000;15GM280VB21;4
S29000;15GN300L21;20
S30000;15GN300L21;14
S29000;15HE005L14;6
S30000;15HE005L14;7
S29000;15LC250L14;39
S30000;15LC250L14;7
S29000;15LC250VA20;12
S30000;15LC250VA20;9
S29000;15LC250VB3;23
S30000;15LC250VB3;8
S29000;15LM300L11;17
S30000;15LM300L11;12
S29000;15MA030L21;32
S30000;15MA030L21;34
S29000;15MA030VA5;17
S30000;15MA030VA5;13
S29000;15MA030VB3;55
S30000;15MA030VB3;26
S29000;15MA075L20;17
S30000;15MA075L20;3
S29000;15MA075VB4;51
S30000;15MA075VB4;17
S29000;15RC500VB21;26
S30000;15RC500VB21;14
S29000;15RG500L14;22
S30000;15RG500L14;8
S20;29EC200A22;3
S10;29EC200A22;6
S10;29GE200A21;17
S20;29GE200A21;28
S20;29HD250A15;35
S10;29HD250A15;25
S10;29HD500A15;49
S20;29HD500A15;85
S20;29HS100A21;3
S10;29HS100A21;4
S20;29HS100A22SM;7
S20;29LC200A20US;39
S10;29LC200A20US;35
S10;29MA030A17;14
S20;29MA030A17;21
S20;29MA075A21;45
S10;29MA075A21;11
S10;29RC200A22;29
S20;29RC200A22;89
S20;29RH500A15;17
S10;29RH500A15;19
S20;29SA050A21;5
S20;29SA050A22;8
S10;29SA050A22;10
S10;29SE125A21;14
S20;29SE125A21;13
S20;29SH075A20;3
S10;29SH075A20;1
S10;29SH240A20;11
S20;29SH240A20;7
S20;29VC240A22;8
S10;29VC240A22;16
S10;38BV050A22;5
S10;38EC015A18;2
S10;38EV075A21;14
S27000;01SL300VE20;5
S27000;01SL500LV20;6
S27000;01SL500VE20;6
S27000;11AS040SG22;15
S27000;11BC100G21;7
S27000;11BG140CS19;5
S27000;11BG140SH19;7
S27000;11BG140SI19;5
S27000;11BG140SL19;5
S27000;11BH050A18;5
S27000;11BO100CS19;10
S27000;11BP100I19;4
S27000;11BR100A20;5
S27000;11CD050A18;6
S27000;11CF100TR19;10
S27000;11CM030H19;26
S27000;11CM030H20;15
S27000;11CM030O21;9
S27000;11CM125I19;8
S27000;11EH150A18;10
S27000;11EP010H19;8
S27000;11ET010H20;11
S27000;11ET050H20;4
S27000;11ET075O21;5
S27000;11FAG10TR19;5
S27000;11GD050A18;5
S27000;11GD250H19;8
S27000;11GD250H20;10
S27000;11GD250O21;12
S27000;11GE075I20;6
S27000;11GM200I19;15
S27000;11GN195A18;10
S27000;11LC250H19;8
S27000;11LC250H20;8
S27000;11LC250O21;7
S27000;11LD200I19;12
S27000;11LH200I19;1
S27000;11LT300I20;5
S27000;11MH075A19;4
S27000;11MWC200I19;4
S27000;11PM100SH19;4
S27000;11PM100SI19;4
S27000;11SA050O21;6
S27000;11SA100H20;12
S27000;11SD100CS19;10
S27000;11SD100SH19;9
S27000;11SD100SI19;6
S27000;11SD100SL19;1
S27000;11SP200CS19;11
S27000;11SP200SH19;5
S27000;11SP200SI19;5
S27000;11SV080I19;4
S27000;15AS250VA18;10
S31000;01SA250VE20;15
S28000;01SA300KRO22;6
S31000;01SA300KRO22;6
S90000;01SA300KRO22;10
S90000;01SA500KRO22;15
S28000;01SA500KRO22;4
S31000;01SA500KRO22;6
S31000;01SA9000KV21;1
S28000;01SAR500KRO22;17
S31000;01SAR500KRO22;15
S90000;01SAR500KRO22;14
S90000;01SL0045K13;12
S28000;01SL0045K13;36
S31000;01SL0045K13;31
S90000;01SL0045KR22;20
S90000;01SL300LV20;9
S28000;01SL300LV20;10
S31000;01SL300LV20;5
S28000;01SL300VE20;9
S31000;01SL300VE20;4
S90000;01SL300VE20;9
S90000;01SL500LV20;6
S28000;01SL500LV20;2
S31000;01SL500LV20;4
S90000;01SL500RO20;1
S90000;01SL500VE20;18
S28000;01SL500VE20;13
S31000;01SL500VE20;4
S90000;10BOWEB219;311
S90000;10BOWEB319;155
S90000;10BOWEB419;463
S28000;10EST250V21;36
S31000;10EST250V21;27
S28000;10EST500V21;26
S31000;10EST500V21;35
S28000;10P250V21;36
S31000;10P250V21;27
S28000;10P500V21;26
S31000;10P500V21;35
S28000;11AS040SG22;9
S31000;11AS040SG22;18
S31000;11AS90005G21;1
S28000;11BG140CS19;12
S31000;11BG140CS19;5
S90000;11BG140CS19;10
S90000;11BG140SH19;10
S28000;11BG140SH19;5
S31000;11BG140SH19;5
S28000;11BG140SI19;5
S31000;11BG140SI19;5
S90000;11BG140SI19;10
S90000;11BG140SL19;12
S29000;15RG500VA20;24
S30000;15RG500VA20;6
S29000;15RO010VBM22;45
S30000;15RO010VBM22;16
S29000;15SA070VB6;6
S29000;15SA075VB21;4
S30000;15SA075VB21;3
S29000;15SH250VA20;21
S30000;15SH250VA20;13
S29000;17AF100G20;25
S30000;17AF100G20;14
S29000;17AS250E19;13
S30000;17AS250E19;7
S29000;17AS250FV21;7
S30000;17AS250FV21;6
S29000;17AS250G21;20
S30000;17AS250G21;11
S29000;17AS250P19;6
S30000;17AS250P19;7
S29000;17AS500E19;17
S30000;17AS500E19;12
S29000;17AS500FV21;18
S30000;17AS500FV21;12
S29000;17AS500G21;22
S30000;17AS500G21;13
S29000;17AS500P19;9
S30000;17AS500P19;5
S29000;17DO050F13;33
S30000;17DO050F13;25
S29000;17ER075P19;8
S30000;17ER075P19;7
S29000;17HB050A22;10
S30000;17HB050A22;15
S29000;17HI100G19;22
S30000;17HI100G19;11
S29000;17MC200G21;21
S30000;17MC200G21;11
S29000;17RC500E20;24
S30000;17RC500E20;11
S29000;17RC500G21;40
S30000;17RC500G21;18
S29000;17RC500P19;15
S30000;17RC500P19;8
S29000;17RS500E20;32
S29000;17RS500FV21;36
S30000;17RS500FV21;17
S29000;17RS500G21;46
S29000;17RS500P19;42
S30000;17RS500P19;24
S29000;17SE100FV21;25
S30000;17SE100FV21;24
S29000;17SH060SE21;4
S30000;17SH060SE21;4
S28000;11BG140SL19;5
S31000;11BG140SL19;4
S28000;11BH050A18;14
S31000;11BH050A18;3
S90000;11BH050A18;12
S90000;11BO100CS19;6
S28000;11BO100CS19;17
S31000;11BO100CS19;14
S28000;11BP100I19;4
S31000;11BP100I19;4
S90000;11BP100I19;8
S90000;11BR100A20;9
S28000;11BR100A20;3
S31000;11BR100A20;5
S28000;11CD050A18;5
S31000;11CD050A18;5
S90000;11CD050A18;9
S90000;11CF100TR19;10
S28000;11CF100TR19;13
S31000;11CF100TR19;14
S28000;11CM030H19;34
S31000;11CM030H19;14
S90000;11CM030H19;14
S90000;11CM030H20;13
S28000;11CM030H20;41
S31000;11CM030H20;20
S28000;11CM030O21;41
S31000;11CM030O21;14
S90000;11CM030O21;16
S90000;11CM125I19;9
S28000;11CM125I19;17
S31000;11CM125I19;12
S28000;11EH150A18;4
S31000;11EH150A18;5
S90000;11EH150A18;12
S90000;11EP010H19;6
S28000;11EP010H19;8
S31000;11EP010H19;14
S90000;11EP050H19;5
S90000;11ET010H20;10
S28000;11ET010H20;12
S31000;11ET010H20;14
S28000;11ET050H20;3
S31000;11ET050H20;1
S90000;11ET050H20;8
S90000;11ET075O21;16
S28000;11ET075O21;7
S31000;11ET075O21;14
S28000;11FAG10TR19;14
S31000;11FAG10TR19;13
S90000;11FAG10TR19;10
S90000;11GD050A18;11
S28000;11GD050A18;12
S27000;15BA500L16A;10
S27000;15BM500VB21;16
S27000;15ET010VB19;4
S27000;15ET100VA20;4
S27000;15ET100VB20;4
S27000;15GD250L21;15
S27000;15GD250VA20;8
S27000;15GD250VB21;7
S27000;15GD500VB21;11
S27000;15GM065L21;11
S27000;15GM065VB21;14
S27000;15GM280VB21;6
S27000;15GN300L21;8
S27000;15HE005L14;5
S27000;15LC250L14;9
S27000;15LC250VA20;6
S27000;15LC250VB3;9
S27000;15LM300L11;7
S27000;15MA030L21;20
S27000;15MA030VA5;5
S27000;15MA030VB3;11
S27000;15MA075L20;5
S27000;15MA075VB4;5
S27000;15RB500L17;2
S27000;15RC500VB21;24
S27000;15RG500L14;8
S27000;15RG500VA20;24
S27000;15RO010VBM22;30
S27000;15SA070VB6;1
S27000;15SA075VB21;4
S27000;15SH250VA20;6
S27000;17AF100G20;22
S27000;17AS250E19;7
S27000;17AS250FV21;5
S27000;17AS250G21;6
S27000;17AS250P19;6
S27000;17AS500E19;8
S27000;17AS500FV21;21
S27000;17AS500G21;14
S27000;17AS500P19;7
S27000;17DO050F13;31
S27000;17ER075P19;6
S27000;17HB050A22;16
S27000;17HI100G19;9
S27000;17MC200G21;11
S27000;17RC500E20;23
S27000;17RC500G21;25
S27000;17RC500P19;9
S27000;17RS500E20;10
S27000;17RS500FV21;30
S27000;17RS500P19;24
S27000;17SE100FV21;15
S27000;17SH060SE21;4
S29000;17SH060SG21;5
S30000;17SH060SG21;5
S29000;17SH060SP21;5
S30000;17SH060SP21;5
S29000;17SH075E19;35
S30000;17SH075E19;14
S29000;17SH075G21;6
S30000;17SH075G21;8
S29000;17SH300E19;13
S30000;17SH300E19;14
S29000;17SH300FV21;15
S30000;17SH300FV21;13
S29000;17SH300G21;19
S30000;17SH300G21;14
S29000;17SH300P19;15
S30000;17SH300P19;12
S29000;17SH500E19;27
S30000;17SH500E19;15
S29000;17SH500FV21;27
S30000;17SH500FV21;22
S29000;17SH500G21;31
S30000;17SH500G21;20
S29000;17SH500P19;25
S30000;17SH500P19;17
S29000;17VI100P19;6
S30000;17VI100P19;7
S29000;20AR075O20;15
S30000;20AR075O20;6
S29000;20DO050O20;16
S30000;20DO050O20;9
S29000;20DO075CD20;15
S30000;20DO075CD20;5
S29000;20DO130HC20;14
S30000;20DO130HC20;6
S29000;20ET075CD21;4
S30000;20ET075CD21;5
S29000;20ET075HC20;5
S30000;20ET075HC20;5
S29000;20ET075OC20;3
S30000;20ET075OC20;4
S29000;20GD250CD20;21
S30000;20GD250CD20;7
S29000;20GD250HC20;15
S30000;20GD250HC20;15
S29000;20GD250OC20;14
S30000;20GD250OC20;10
S29000;20GD500HC20;17
S30000;20GD500HC20;7
S29000;20NV150H20;16
S30000;20NV150H20;12
S29000;20SA050CD20;6
S30000;20SA050CD20;4
S31000;11GD050A18;4
S90000;11GD075O21;365
S90000;11GD250H19;12
S28000;11GD250H19;18
S31000;11GD250H19;7
S28000;11GD250H20;23
S31000;11GD250H20;12
S90000;11GD250H20;15
S90000;11GD250O21;13
S28000;11GD250O21;14
S31000;11GD250O21;15
S28000;11GE075I20;4
S31000;11GE075I20;4
S90000;11GE075I20;1
S90000;11GM200I19;9
S28000;11GM200I19;20
S31000;11GM200I19;12
S28000;11GN195A18;14
S31000;11GN195A18;13
S90000;11GN195A18;10
S90000;11HE005CS19;12
S90000;11LC250H19;12
S28000;11LC250H19;12
S31000;11LC250H19;8
S28000;11LC250H20;16
S31000;11LC250H20;8
S90000;11LC250H20;12
S90000;11LC250O21;11
S28000;11LC250O21;15
S31000;11LC250O21;7
S28000;11LD200I19;19
S31000;11LD200I19;12
S90000;11LD200I19;8
S90000;11LH200I19;7
S28000;11LH200I19;4
S31000;11LH200I19;1
S28000;11LT300I20;4
S31000;11LT300I20;4
S90000;11LT300I20;10
S90000;11MH075A19;13
S28000;11MH075A19;3
S31000;11MH075A19;4
S28000;11MWC200I19;5
S31000;11MWC200I19;4
S90000;11MWC200I19;4
S28000;11PEP050I20;2
S31000;11PEP050I20;2
S28000;11PM100SH19;4
S31000;11PM100SH19;5
S90000;11PM100SH19;10
S90000;11PM100SI19;8
S28000;11PM100SI19;4
S31000;11PM100SI19;4
S27000;17SH060SG21;4
S27000;17SH060SP21;5
S27000;17SH075E19;21
S27000;17SH075G21;5
S27000;17SH300E19;14
S27000;17SH300FV21;10
S27000;17SH300G21;21
S27000;17SH300P19;7
S27000;17SH500E19;12
S27000;17SH500FV21;14
S27000;17SH500G21;24
S27000;17SH500P19;19
S27000;17VI100P19;5
S27000;20AR075O20;4
S27000;20DO050O20;6
S27000;20DO075CD20;6
S27000;20DO130HC20;7
S27000;20ET075CD20;2
S27000;20ET075CD21;4
S27000;20ET075HC20;5
S27000;20ET075OC20;4
S27000;20GD250CD20;4
S27000;20GD250HC20;6
S27000;20GD250OC20;4
S27000;20GD500HC20;5
S27000;20HR050H20;6
S27000;20NV150H20;9
S27000;20SA050CD20;4
S27000;20SA050HC20;5
S27000;24BL012CB5;9
S27000;24BL012R22;6
S27000;24BR050CB21;15
S27000;24BR050R22;11
S27000;24CM030CBL23;9
S27000;24EDT050CBL23;3
S27000;24ET075CB21;9
S27000;24ET075R22;10
S27000;24GD250CB21;17
S27000;24GD250CBL23;11
S27000;24GD250R22;7
S27000;24GD500R22;8
S27000;24LC250CB21;15
S27000;24LC250CB4;2
S27000;24LC250R22;10
S27000;24MA030CB21;29
S27000;24MA030P21;10
S27000;24MA030R22;15
S27000;24MA030RV19;3
S27000;24MA075CB21;17
S27000;24MA075P15;4
S27000;24MA075P21;10
S27000;24MA075R22;11
S29000;20SA050HC20;5
S30000;20SA050HC20;4
S29000;24BL012CB5;9
S30000;24BL012CB5;12
S29000;24BL012R22;7
S30000;24BL012R22;13
S29000;24BR050CB21;15
S30000;24BR050CB21;19
S29000;24BR050R22;18
S30000;24BR050R22;18
S29000;24ET075CB21;16
S30000;24ET075CB21;15
S29000;24ET075R22;14
S30000;24ET075R22;13
S29000;24GD250CB21;26
S30000;24GD250CB21;26
S29000;24GD250CBL23;5
S29000;24GD250R22;34
S30000;24GD250R22;15
S29000;24GD500R22;23
S30000;24GD500R22;13
S29000;24LC250CB21;19
S30000;24LC250CB21;18
S29000;24LC250CB4;10
S29000;24LC250R22;32
S30000;24LC250R22;21
S29000;24MA030CB21;42
S30000;24MA030CB21;53
S29000;24MA030P21;10
S30000;24MA030P21;10
S29000;24MA030R22;24
S30000;24MA030R22;46
S29000;24MA030RV19;4
S30000;24MA030RV19;3
S29000;24MA075CB21;19
S30000;24MA075CB21;22
S29000;24MA075P15;8
S30000;24MA075P15;11
S29000;24MA075P21;10
S30000;24MA075P21;10
S29000;24MA075R22;13
S30000;24MA075R22;12
S29000;24MA150R22;16
S30000;24MA150R22;8
S29000;24RG500CB21;18
S30000;24RG500CB21;14
S29000;24RG500R22;28
S30000;24RG500R22;14
S29000;24RO010CB4;5
S30000;24RO010CB4;13
S29000;24SA050CB21;20
S30000;24SA050CB21;14
S29000;24SA050R22;16
S28000;11SA050O21;8
S31000;11SA050O21;6
S90000;11SA050O21;11
S31000;11SA100H19;4
S28000;11SA100H20;11
S31000;11SA100H20;12
S90000;11SA100H20;10
S90000;11SAF100H20;10
S28000;11SAF100H20;12
S31000;11SAF100H20;8
S28000;11SD100CS19;12
S31000;11SD100CS19;11
S90000;11SD100CS19;9
S90000;11SD100SH19;10
S28000;11SD100SH19;13
S31000;11SD100SH19;10
S28000;11SD100SI19;4
S31000;11SD100SI19;5
S90000;11SD100SI19;10
S90000;11SD100SL19;3
S28000;11SH90005G21;1
S31000;11SH90005G21;1
S28000;11SP200CS19;12
S31000;11SP200CS19;4
S90000;11SP200CS19;8
S90000;11SP200SH19;8
S28000;11SP200SH19;12
S31000;11SP200SH19;5
S28000;11SP200SI19;4
S31000;11SP200SI19;5
S90000;11SP200SI19;9
S28000;11SP200SL19;2
S28000;11SV080I19;4
S31000;11SV080I19;5
S90000;11SV080I19;7
S90000;12GD245NO21H;15
S90000;12LC250NO22;1
S90000;15AS250VA18;11
S28000;15AS250VA18;13
S31000;15AS250VA18;16
S28000;15BA500L16A;19
S31000;15BA500L16A;7
S90000;15BA500L16A;12
S90000;15BM500VB21;2
S28000;15BM500VB21;27
S31000;15BM500VB21;5
S90000;15CF150VBL21;7
S90000;15DF200VBL21;19
S28000;15DO050VA22;5
S31000;15DO050VA22;4
S28000;15ET010VB19;4
S31000;15ET010VB19;8
S27000;24MA150R22;8
S27000;24RG500CB21;15
S27000;24RG500R22;12
S27000;24RO010CB4;1
S27000;24SA050CB21;9
S27000;24SA050R22;8
S27000;27BD060I23;10
S27000;27BY015I22;11
S27000;27CP050I22;13
S27000;27DB015I20;14
S27000;27DC050I20;20
S27000;27DCB060I17;1
S27000;27DE015I21;11
S27000;27DH015I22;30
S27000;27DH030I22;18
S27000;27DL200I21;11
S27000;27DS030I20;6
S27000;27ER015I22;14
S27000;27ER050I21;4
S27000;27ER150I21;13
S27000;27EV200I22;21
S27000;27HC050I18;5
S27000;27HCR050I16;2
S27000;27HD200I23;10
S27000;27HS030I18;4
S27000;27HSR030I16;3
S27000;27MC125I23;27
S27000;27MI150I20;3
S27000;27MP050I20;1
S27000;27MP050I22;4
S27000;27MP150I22;8
S27000;27MQ065I15A;4
S27000;27MS050I20;6
S27000;27OR030I21;16
S27000;27OR050I21;57
S27000;27SE075I22;17
S27000;27SP030I19;1
S27000;29ASH075A20;7
S27000;29ASH240A20;5
S27000;29BP100A22;6
S27000;29GE200A21;17
S27000;29HD250A15;17
S27000;29HD500A15;50
S27000;29HS100A21;7
S27000;29HS100A22SM;8
S27000;29LC200A20US;25
S27000;29MA030A17;38
S27000;29MA075A21;11
S27000;29RC200A22;33
S27000;29RH500A15;40
S27000;29SA050A22;10
S27000;29SE125A21;11
S27000;29SH075A20;7
S30000;24SA050R22;6
S29000;27BD060I23;11
S30000;27BD060I23;9
S29000;27BY015I22;7
S30000;27BY015I22;20
S29000;27CP050I22;21
S30000;27CP050I22;9
S29000;27DB015I20;19
S30000;27DB015I20;13
S29000;27DC050I20;31
S30000;27DC050I20;28
S30000;27DCB060I17;2
S29000;27DE015I21;17
S30000;27DE015I21;13
S29000;27DH015I22;43
S30000;27DH015I22;39
S29000;27DH030I22;25
S30000;27DH030I22;31
S29000;27DL200I21;15
S30000;27DL200I21;9
S29000;27DS030I20;13
S30000;27DS030I20;7
S29000;27ER015I22;23
S30000;27ER015I22;16
S29000;27ER050I21;15
S30000;27ER050I21;13
S29000;27ER150I21;25
S30000;27ER150I21;14
S29000;27EV200I22;30
S30000;27EV200I22;31
S30000;27FP050I19;1
S29000;27HC050I18;4
S30000;27HC050I18;4
S29000;27HCR050I16;7
S30000;27HCR050I16;2
S29000;27HD200I23;12
S30000;27HD200I23;15
S29000;27HS030I18;4
S30000;27HS030I18;4
S29000;27HSR030I16;20
S30000;27HSR030I16;7
S29000;27MC125I23;33
S30000;27MC125I23;32
S30000;27MI150I20;3
S29000;27MP050I20;6
S29000;27MP050I22;22
S30000;27MP050I22;19
S29000;27MP150I22;13
S30000;27MP150I22;12
S29000;27MQ065I15A;4
S30000;27MQ065I15A;6
S29000;27MS050I20;4
S30000;27MS050I20;14
S28000;15ET100VA20;12
S31000;15ET100VA20;3
S90000;15ET100VA20;10
S90000;15ET100VB20;7
S28000;15ET100VB20;7
S31000;15ET100VB20;5
S90000;15GD070VB21;101
S90000;15GD075L21;28
S90000;15GD250L21;15
S28000;15GD250L21;20
S31000;15GD250L21;16
S28000;15GD250VA20;21
S31000;15GD250VA20;6
S90000;15GD250VA20;9
S90000;15GD250VB21;8
S28000;15GD250VB21;20
S31000;15GD250VB21;11
S90000;15GD250VBL22;110
S90000;15GD500VB21;16
S28000;15GD500VB21;28
S31000;15GD500VB21;12
S28000;15GD9000V21;1
S31000;15GD9000V21;1
S28000;15GM065L21;100
S31000;15GM065L21;10
S90000;15GM065L21;14
S90000;15GM065VB21;13
S28000;15GM065VB21;76
S31000;15GM065VB21;7
S28000;15GM280VB21;4
S31000;15GM280VB21;8
S90000;15GM280VB21;5
S90000;15GN300L21;9
S28000;15GN300L21;13
S31000;15GN300L21;5
S28000;15HE005L14;12
S31000;15HE005L14;6
S90000;15HE005L14;10
S90000;15LC070VB5;117
S90000;15LC075L15;20
S90000;15LC250L14;12
S28000;15LC250L14;11
S31000;15LC250L14;6
S28000;15LC250VA20;6
S31000;15LC250VA20;6
S90000;15LC250VA20;12
S90000;15LC250VB3;9
S28000;15LC250VB3;13
S31000;15LC250VB3;8
S28000;15LM300L11;10
S31000;15LM300L11;10
S90000;15LM300L11;9
S27000;29SH240A20;7
S27000;29VC240A22;21
S27000;38BV050A22;9
S27000;38EV075A21;11
S27000;38FT200A21;5
S27000;38MI150A22;8
S27000;38RC050A22;6
S27000;38UV030A18;1
S27000;38WC050A21;9
S27000;38WS030A21;10
S27000;49BO015CS19;12
S27000;49DC004I20;12
S27000;49DH004I22;24
S90000;49ET007CB22;15
S90000;49ET007R22;8
S27000;49GD035CB5;6
S90000;49GD035CB5;100
S27000;49HD035A15;10
S90000;49HD035A15;213
S27000;49HD035K17;8
S90000;49HD035K17;49
S90000;49HS015A18;22
S90000;49IC1POU20;14
S90000;49IC2POU20;39
S90000;49IC3POU20;27
S90000;49ICNPOU22;5
S90000;49LC020A20;69
S90000;49LC035CB21;8
S90000;49LD030I20;26
S27000;49LD030I21;12
S90000;49LD030I21;142
S27000;49MA010A17;7
S90000;49MA010A17;79
S90000;49MA010A21X;10
S90000;49MA010CB21;15
S90000;49MA010CB4;67
S27000;49MA010K22;10
S90000;49MA010K22;57
S90000;49MA010L16;53
S90000;49MA010R18;8
S90000;49MA010R22;9
S27000;49MA010VB3;56
S90000;49MA010VB3;48
S27000;49MC014I23;12
S90000;49MC014I23;20
S90000;49MR010K14;4
S90000;49MS008I20;166
S90000;49NOTNO22;94
S27000;49OR005I21;76
S90000;49OR005I21;64
S90000;49PFCWC21;40
S90000;49PI010K18;30
S90000;49PMENNO21;26
S29000;27OR030I21;26
S30000;27OR030I21;27
S29000;27OR050I21;61
S30000;27OR050I21;60
S29000;27SE075I22;15
S30000;27SE075I22;12
S29000;27SP030I19;2
S30000;29ASH075A20;3
S29000;29ASH240A20;14
S30000;29ASH240A20;7
S29000;29BP100A22;9
S30000;29BP100A22;6
S29000;29EC200A22;10
S29000;29GE200A21;31
S30000;29GE200A21;26
S29000;29HD250A15;28
S30000;29HD250A15;25
S29000;29HD500A15;97
S30000;29HD500A15;45
S29000;29HS100A21;5
S30000;29HS100A21;1
S29000;29HS100A22SM;24
S30000;29HS100A22SM;12
S29000;29LC200A20US;49
S30000;29LC200A20US;28
S29000;29MA030A17;24
S30000;29MA030A17;54
S29000;29MA075A21;26
S30000;29MA075A21;16
S29000;29RC200A22;83
S30000;29RC200A22;30
S29000;29RH500A15;58
S30000;29RH500A15;32
S29000;29SA050A21;7
S30000;29SA050A21;6
S29000;29SA050A22;9
S30000;29SA050A22;6
S29000;29SE125A21;20
S30000;29SE125A21;12
S30000;29SH075A20;3
S29000;29SH240A20;18
S30000;29SH240A20;5
S29000;29VC240A22;16
S30000;29VC240A22;7
S29000;38BV050A22;6
S30000;38BV050A22;17
S29000;38EV075A21;18
S30000;38EV075A21;5
S29000;38FT200A21;13
S30000;38FT200A21;13
S29000;38MI150A22;8
S30000;38MI150A22;4
S29000;38RC050A22;9
S90000;15MA030L21;20
S28000;15MA030L21;45
S31000;15MA030L21;21
S28000;15MA030VA5;22
S31000;15MA030VA5;4
S90000;15MA030VA5;10
S90000;15MA030VB3;15
S28000;15MA030VB3;28
S31000;15MA030VB3;12
S28000;15MA075L20;4
S31000;15MA075L20;2
S90000;15MA075L20;10
S90000;15MA075VB4;10
S28000;15MA075VB4;23
S31000;15MA075VB4;14
S28000;15RC500VB21;14
S31000;15RC500VB21;13
S90000;15RC500VB21;21
S90000;15RG500L14;17
S28000;15RG500L14;14
S31000;15RG500L14;16
S28000;15RG500VA20;13
S31000;15RG500VA20;20
S90000;15RG500VA20;24
S28000;15RO010VBM22;71
S28000;15SA075VB21;5
S31000;15SA075VB21;5
S90000;15SA075VB21;8
S90000;15SH250VA20;12
S28000;15SH250VA20;12
S31000;15SH250VA20;4
S28000;17AF100G20;32
S31000;17AF100G20;10
S90000;17AF100G20;2
S90000;17AS075E19;132
S90000;17AS075FV21;35
S90000;17AS075G21;28
S90000;17AS075P19;51
S90000;17AS250E19;9
S28000;17AS250E19;6
S31000;17AS250E19;4
S28000;17AS250FV21;5
S31000;17AS250FV21;6
S90000;17AS250FV21;9
S90000;17AS250G21;9
S28000;17AS250G21;6
S31000;17AS250G21;11
S28000;17AS250P19;6
S31000;17AS250P19;6
S90000;17AS250P19;10
S90000;17AS500E19;20
S28000;17AS500E19;21
S31000;17AS500E19;11
S30000;38RC050A22;8
S29000;38UV030A18;21
S30000;38UV030A18;8
S29000;38WC050A21;16
S30000;38WC050A21;14
S29000;38WS030A21;13
S30000;38WS030A21;14
S29000;49BO015CS19;21
S30000;49BO015CS19;24
S29000;49DC004I20;18
S30000;49DC004I20;21
S30000;49DH004I20;11
S29000;49DH004I22;30
S30000;49DH004I22;44
S29000;49GD035CB5;14
S30000;49GD035CB5;6
S29000;49HD035A15;31
S30000;49HD035A15;35
S29000;49HD035K17;12
S30000;49HD035K17;14
S30000;49LC020A20;14
S29000;49LD030I21;18
S30000;49LD030I21;12
S30000;49MA010A17;3
S29000;49MA010K22;40
S30000;49MA010K22;12
S29000;49MA010VB3;108
S30000;49MA010VB3;66
S29000;49MC014I23;18
S30000;49MC014I23;12
S29000;49OR005I21;133
S30000;49OR005I21;157
S29000;49PADCL20;26
S29000;49POBFNO22;22
S30000;49POBFNO22;9
S29000;49POCK2NO22;21
S30000;49POCK2NO22;11
S29000;49POU1O21;5
S30000;49SH035E21;3
S30000;98BBGD030VE4;4
S29000;98BBGD050VE2;108
S30000;98BBGD050VE2;66
S29000;98BBLC050VE3;108
S30000;98BBLC050VE3;66
S30000;98BBMA010KA3;38
S30000;ACPOCVEC00001;50
S30000;ACPOCVEC00002;269
S30000;ACPOCVEC00003;70
S30000;ACPOCVEC00004;98
S30000;ACPOCVEC00005;33
S29000;SGOCVE600004;108
S30000;SGOCVE600004;66
S29000;SGOCVKI00235;8
S30000;SGOCVKI00235;1
S29000;SGOCVKI00236;4
S30000;SGOCVKI00236;1
S28000;17AS500FV21;15
S31000;17AS500FV21;5
S90000;17AS500FV21;16
S90000;17AS500G21;23
S28000;17AS500G21;17
S31000;17AS500G21;13
S28000;17AS500P19;6
S31000;17AS500P19;6
S90000;17AS500P19;21
S90000;17DO050F13;84
S28000;17DO050F13;29
S31000;17DO050F13;24
S28000;17ER075P19;12
S31000;17ER075P19;5
S90000;17ER075P19;8
S90000;17HB050A22;11
S28000;17HB050A22;12
S31000;17HB050A22;9
S90000;17HI001G19;100
S90000;17HI100G19;12
S28000;17HI100G19;19
S31000;17HI100G19;9
S28000;17MC200G21;21
S31000;17MC200G21;10
S90000;17MC200G21;10
S90000;17RC500E20;27
S28000;17RC500E20;13
S31000;17RC500E20;16
S90000;17RC500G18;63
S90000;17RC500G21;34
S28000;17RC500G21;37
S31000;17RC500G21;39
S28000;17RC500P19;7
S31000;17RC500P19;6
S90000;17RC500P19;33
S90000;17RS500E20;9
S28000;17RS500E20;20
S31000;17RS500E20;7
S28000;17RS500FV21;38
S31000;17RS500FV21;17
S90000;17RS500FV21;29
S90000;17RS500G21;3
S90000;17RS500P19;33
S28000;17RS500P19;34
S31000;17RS500P19;22
S28000;17SE100FV21;34
S31000;17SE100FV21;17
S90000;17SE100FV21;11
S90000;17SH060SE21;8
S28000;17SH060SE21;8
S31000;17SH060SE21;4
S28000;17SH060SG21;8
S31000;17SH060SG21;3
S27000;49POBFNO22;4
S90000;49POBFNO22;15
S90000;49POCK1NO22;392
S27000;49POCK2NO22;12
S90000;49POCK2NO22;157
S90000;49POCKNO21;125
S90000;49POSUCS22;11
S90000;49POU1O21;19
S90000;49POUCB21;15
S90000;49POUHE22;39
S90000;49POUID20;45
S90000;49POUIS19;23
S90000;49POUM21;19
S90000;49POUMA20;5
S90000;49PWPBM23;100
S90000;49PWPBNO22;29
S90000;49RCWM22;48
S27000;49SH035E21;5
S90000;49SH035E21;191
S90000;49TOBACH20;67
S90000;49TOTMC20;40
S90000;49TOTWC21;90
S90000;49TRAVNO21;81
S90000;52CUSTNO22;92
S90000;52ET001O21;63
S90000;52HCTM22;32
S90000;52LGEBOX18;21
S90000;52PMGBOX18;11
S90000;98BBACLUFNT1;6
S90000;98BBGD030VE4;9
S90000;98BBGD050VE2;101
S90000;98BBHD035A0;140
S90000;98BBHD050A0;71
S90000;98BBLC030VE5;53
S90000;98BBLC050VE3;51
S90000;98BBSA025LT2;143
S90000;98BBSA050LT1;144
S90000;98BBSH050A0;71
S90000;98BBSH050AR2;86
S90000;HKOCVE6T00056;124
S90000;J9517;9
S90000;JIMPN16;56
S90000;SGOCVKI00235;3
S28000;SGOCVKI00236;9
S90000;17SH060SG21;10
S90000;17SH060SP21;8
S28000;17SH060SP21;6
S31000;17SH060SP21;4
S28000;17SH075E19;33
S31000;17SH075E19;25
S90000;17SH075E19;31
S90000;17SH075FV21;27
S90000;17SH075G21;22
S28000;17SH075G21;41
S31000;17SH075G21;37
S90000;17SH075P19;31
S90000;17SH300E19;8
S28000;17SH300E19;11
S31000;17SH300E19;5
S28000;17SH300FV21;7
S31000;17SH300FV21;12
S90000;17SH300FV21;8
S90000;17SH300G21;9
S28000;17SH300G21;11
S31000;17SH300G21;4
S28000;17SH300P19;6
S31000;17SH300P19;11
S90000;17SH300P19;10
S90000;17SH500E19;16
S28000;17SH500E19;24
S31000;17SH500E19;11
S28000;17SH500FV21;21
S31000;17SH500FV21;20
S90000;17SH500FV21;22
S90000;17SH500G21;19
S28000;17SH500G21;15
S31000;17SH500G21;15
S28000;17SH500P19;20
S31000;17SH500P19;14
S90000;17SH500P19;21
S90000;17VI100P19;10
S28000;17VI100P19;7
S31000;17VI100P19;4
S28000;20AR075O20;12
S31000;20AR075O20;14
S90000;20AR075O20;9
S90000;20DO050O20;11
S28000;20DO050O20;20
S31000;20DO050O20;18
S28000;20DO075CD20;4
S31000;20DO075CD20;4
S90000;20DO075CD20;7
S90000;20DO130HC20;10
S28000;20DO130HC20;18
S31000;20DO130HC20;6
S90000;20ET075CD20;8
S28000;20ET075CD21;10
S31000;20ET075CD21;5
S28000;20ET075HC20;10
S31000;20ET075HC20;5
S90000;20ET075HC20;9
S90000;20ET075OC20;8
S28000;20ET075OC20;5
S31000;20ET075OC20;3
S28000;20GD250CD20;10
S31000;20GD250CD20;6
S90000;20GD250CD20;10
S90000;20GD250HC20;10
S28000;20GD250HC20;19
S31000;20GD250HC20;14
S28000;20GD250OC20;3
S31000;20GD250OC20;2
S90000;20GD250OC20;10
S90000;20GD500HC20;15
S28000;20GD500HC20;15
S31000;20GD500HC20;8
S28000;20NV150H20;18
S31000;20NV150H20;11
S90000;20NV150H20;12
S90000;20SA050CD20;10
S28000;20SA050CD20;5
S31000;20SA050CD20;4
S28000;20SA050HC20;4
S31000;20SA050HC20;4
S90000;20SA050HC20;11
S90000;24BL012CB5;10
S28000;24BL012CB5;21
S31000;24BL012CB5;10
S28000;24BL012R22;17
S31000;24BL012R22;13
S90000;24BL012R22;1
S90000;24BR050C21;4
S90000;24BR050CB21;14
S28000;24BR050CB21;27
S31000;24BR050CB21;11
S28000;24BR050R22;24
S31000;24BR050R22;17
S90000;24BR050R22;12
S90000;24CM030CBL23;1
S31000;24CM030CBL23;3
S28000;24ET075CB21;14
S31000;24ET075CB21;15
S90000;24ET075CB21;9
S90000;24ET075R22;8
S28000;24ET075R22;13
S31000;24ET075R22;15
S90000;24GD075CB5;2
S90000;24GD075R22;6
S31000;24GD075R22;3
S28000;24GD250CB21;31
S31000;24GD250CB21;18
S90000;24GD250CB21;15
S31000;24GD250CBL23;5
S28000;24GD250R22;5
S31000;24GD250R22;14
S90000;24GD250R22;11
S90000;24GD500CB21;1
S90000;24GD500R22;15
S28000;24GD500R22;24
S31000;24GD500R22;12
S90000;24LC075R22;125
S90000;24LC250CB21;13
S28000;24LC250CB21;13
S31000;24LC250CB21;9
S28000;24LC250CB4;3
S90000;24LC250CB4;1
S90000;24LC250R22;10
S28000;24LC250R22;11
S31000;24LC250R22;12
S28000;24MA030CB21;61
S31000;24MA030CB21;21
S90000;24MA030CB21;15
S28000;24MA030P21;10
S31000;24MA030P21;8
S28000;24MA030R22;33
S31000;24MA030R22;19
S90000;24MA030R22;15
S90000;24MA030RA19;9
S90000;24MA030RE19;10
S90000;24MA030RV19;8
S28000;24MA030RV19;29
S31000;24MA030RV19;2
S28000;24MA075CB21;24
S31000;24MA075CB21;11
S90000;24MA075CB21;12
S31000;24MA075P15;8
S28000;24MA075P21;10
S31000;24MA075P21;11
S28000;24MA075R22;25
S31000;24MA075R22;13
S90000;24MA075R22;12
S90000;24MA150R22;10
S28000;24MA150R22;2
S31000;24MA150R22;11
S28000;24RG500CB21;17
S31000;24RG500CB21;12
S90000;24RG500CB21;20
S90000;24RG500R22;14
S28000;24RG500R22;14
S31000;24RG500R22;11
S28000;24RO010CB4;7
S31000;24RO010CB4;12
S90000;24RO010CB4;7
S90000;24SA050CB21;12
S28000;24SA050CB21;15
S31000;24SA050CB21;14
S28000;24SA050R22;13
S31000;24SA050R22;6
S90000;24SA050R22;12
S90000;27BD060I23;8
S28000;27BD060I23;16
S31000;27BD060I23;25
S28000;27BY015I22;22
S31000;27BY015I22;5
S90000;27BY015I22;10
S90000;27CP050I22;7
S28000;27CP050I22;25
S31000;27CP050I22;16
S28000;27DB015I20;18
S31000;27DB015I20;15
S90000;27DB015I20;8
S90000;27DC050I20;15
S28000;27DC050I20;32
S31000;27DC050I20;27
S90000;27DCB060I17;4
S90000;27DE015I21;12
S28000;27DE015I21;21
S31000;27DE015I21;15
S90000;27DF125I17;1
S90000;27DH015I20;9
S90000;27DH015I22;16
S28000;27DH015I22;87
S31000;27DH015I22;30
S90000;27DH030I20;31
S90000;27DH030I22;17
S28000;27DH030I22;47
S31000;27DH030I22;30
S28000;27DL200I21;10
S31000;27DL200I21;5
S90000;27DL200I21;9
S90000;27DS030I20;8
S28000;27DS030I20;7
S31000;27DS030I20;4
S28000;27ER015I22;33
S31000;27ER015I22;16
S90000;27ER015I22;12
S90000;27ER050I21;9
S28000;27ER050I21;13
S31000;27ER050I21;12
S28000;27ER150I21;16
S31000;27ER150I21;12
S90000;27ER150I21;7
S90000;27EV200I22;58
S28000;27EV200I22;26
S31000;27EV200I22;37
S28000;27HC050I18;1
S31000;27HC050I18;4
S90000;27HC050I18;3
S90000;27HCR050I16;2
S90000;27HD200I23;7
S28000;27HD200I23;23
S31000;27HD200I23;15
S28000;27HS030I18;2
S31000;27HS030I18;3
S90000;27HS030I18;4
S90000;27HSR030I16;4
S28000;27HSR030I16;6
S31000;27HSR030I16;5
S28000;27MC125I23;55
S31000;27MC125I23;44
S90000;27MC125I23;18
S28000;27MI150I20;3
S31000;27MI150I20;2
S90000;27MII150I22;10
S31000;27MP050I20;3
S28000;27MP050I22;73
S31000;27MP050I22;10
S90000;27MP050I22;12
S90000;27MP150I22;11
S28000;27MP150I22;26
S31000;27MP150I22;15
S28000;27MQ065I15A;7
S31000;27MQ065I15A;4
S90000;27MQ065I15A;9
S90000;27MS050I20;9
S28000;27MS050I20;6
S31000;27MS050I20;3
S28000;27OR030I21;39
S31000;27OR030I21;30
S90000;27OR030I21;18
S90000;27OR050I21;14
S28000;27OR050I21;87
S31000;27OR050I21;81
S28000;27SE075I22;5
S31000;27SE075I22;4
S90000;27SE075I22;11
S90000;27SP030I19;3
S28000;27SP030I19;5
S31000;27SP030I19;3
S28000;29ASH075A20;5
S31000;29ASH075A20;1
S28000;29ASH240A20;13
S31000;29ASH240A20;6
S90000;29ASH240A20;12
S90000;29BP100A22;11
S28000;29BP100A22;16
S31000;29BP100A22;8
S90000;29EC200A22;12
S90000;29GE200A21;13
S28000;29GE200A21;27
S31000;29GE200A21;25
S90000;29HD075A15;61
S90000;29HD250A15;29
S28000;29HD250A15;47
S31000;29HD250A15;33
S28000;29HD500A15;60
S31000;29HD500A15;48
S90000;29HD500A15;72
S28000;29HD9000A21;1
S31000;29HD9000A21;2
S28000;29HS100A21;8
S90000;29HS100A21;15
S90000;29HS100A22SM;4
S28000;29HS100A22SM;3
S31000;29HS100A22SM;6
S28000;29LC200A20US;57
S31000;29LC200A20US;33
S90000;29LC200A20US;24
S90000;29MA030A17;32
S28000;29MA030A17;39
S31000;29MA030A17;26
S28000;29MA075A21;29
S31000;29MA075A21;16
S90000;29MA075A21;12
S90000;29RC200A22;28
S28000;29RC200A22;97
S31000;29RC200A22;52
S28000;29RH500A15;15
S90000;29RH500A15;53
S28000;29SA050A21;2
S31000;29SA050A21;2
S28000;29SA050A22;15
S31000;29SA050A22;8
S90000;29SA050A22;14
S90000;29SE125A21;9
S28000;29SE125A21;16
S31000;29SE125A21;12
S28000;29SH075A20;5
S31000;29SH075A20;1
S90000;29SH075A20;20
S90000;29SH240A20;11
S28000;29SH240A20;13
S31000;29SH240A20;6
S90000;29VC240A16;13
S90000;29VC240A22;12
S28000;29VC240A22;13
S31000;29VC240A22;3
S90000;38BV050A19;4
S90000;38BV050A22;11
S28000;38BV050A22;14
S31000;38BV050A22;3
S28000;38EV075A21;20
S31000;38EV075A21;4
S90000;38EV075A21;10
S90000;38FT200A18;9
S90000;38FT200A21;10
S28000;38FT200A21;11
S31000;38FT200A21;11
S90000;38MI150A18;1
S90000;38MI150A22;7
S28000;38MI150A22;7
S31000;38MI150A22;5
S28000;38RC050A22;7
S31000;38RC050A22;4
S90000;38RC050A22;8
S90000;38UV030A18;3
S28000;38UV030A18;8
S90000;38WC050A18;31
S90000;38WC050A21;9
S28000;38WC050A21;12
S31000;38WC050A21;12
S90000;38WS030A18;12
S90000;38WS030A21;9
S28000;38WS030A21;13
S31000;38WS030A21;13
S90000;49AF015G20;160
S90000;49BM010K19;132
S90000;49BO015CS19;65
S28000;49BO015CS19;61
S31000;49BO015CS19;53
S90000;49CABNO22;181
S90000;49CAS2NO22;54
S90000;49CL008K21;7
S90000;49CL1SA18;39
S90000;49CM010O21;167
S90000;49CP008I19;21
S90000;49CP020K22;21
S90000;49CRM1NO22;39
S90000;49CRM2NO22;140
S31000;49CRM2NO22;3
S31000;49CUPNO22;54
S90000;49DB004I20;30
S90000;49DC004I20;10
S28000;49DC004I20;45
S31000;49DC004I20;26
S90000;49DC008I20;16
S90000;49DH004I22;40
S28000;49DH004I22;68
S31000;49DH004I22;56
S90000;49DISC3NO22;15
S28000;49GD035CB21;30
S31000;49GD035CB21;20
S28000;49GD035CB5;46
S31000;49GD035CB5;33
S28000;49HD035A15;72
S31000;49HD035A15;86
S28000;49HD035K17;25
S31000;49HD035K17;17
S28000;49LC020A20;57
S31000;49LC020A20;25
S28000;49LD030I21;28
S28000;49MA010A17;5
S31000;49MA010A17;1
S28000;49MA010K22;17
S31000;49MA010K22;1
S31000;49MA010R22;3
S28000;49MA010VB3;136
S31000;49MA010VB3;89
S28000;49MC014I23;48
S31000;49MC014I23;64
S28000;49OR005I21;215
S31000;49OR005I21;151
S28000;49POBFNO22;32
S31000;49POBFNO22;10
S28000;49POCK2NO22;29
S31000;49POCK2NO22;27
S28000;49SH035E21;30
S31000;49SH035E21;20
S28000;98BBGD030VE4;51
S31000;98BBGD030VE4;35
S28000;98BBGD050VE2;136
S31000;98BBGD050VE2;89
S28000;98BBLC050VE3;136
S31000;98BBLC050VE3;89
S28000;98BBMA010KA3;77
S31000;98BBMA010KA3;90
S28000;ACPOCVEC00001;91
S31000;ACPOCVEC00001;55
S28000;ACPOCVEC00002;483
S31000;ACPOCVEC00002;186
S28000;ACPOCVEC00003;201
S31000;ACPOCVEC00003;110
S28000;ACPOCVEC00004;96
S31000;ACPOCVEC00004;69
S28000;ACPOCVEC00005;300
S31000;ACPOCVEC00005;45
S21000;SGOCVE600004;96
S28000;SGOCVE600004;136
S31000;SGOCVE600004;88
S31000;SGOCVKI00234;2
